.1986 5.469754 4.601267 1.712034 -1.569039 -3.4025E-4 2.7342E-4 -6.4525E-5 1.14202E-4 .142599 .005428 
.2463 5.039164 4.407524 1.866643 -1.665688 -3.2719E-4 2.7342E-4 -5.9066E-5 1.14202E-4 .136841 .005707 
.2893 4.666875 4.23287 2.013937 -1.752814 -3.1541E-4 2.7342E-4 -5.4146E-5 1.14202E-4 .13165 .005959 
.3493 4.175383 3.935833 2.230085 -1.845896 -2.9902E-4 2.71532E-4 -4.726E-5 1.14843E-4 .124456 .006299 
.6493 2.165999 2.748576 3.518454 -2.439989 -2.174E-4 2.71532E-4 -1.2737E-5 1.14843E-4 .088724 .007951 
.7093 1.848209 2.536413 3.822185 -2.611022 -2.0103E-4 2.72958E-4 -5.837E-6 1.14715E-4 .081542 .008287 
.7573 1.613524 2.342969 4.078082 -2.709394 -1.879E-4 2.72958E-4 -3.1949E-7 1.14715E-4 .07577 .008559 
.7983 1.4278 2.177736 4.304154 -2.79342 -1.7669E-4 2.72958E-4 4.39337E-6 1.14715E-4 .070839 .008792 
.8093 1.380282 2.133405 4.365982 -2.815964 -1.7368E-4 2.72958E-4 5.6578E-6 1.14715E-4 .069516 .008854 
1.8093 1.123851 -1.787543 4.53177 2.72011 -1.4749E-4 -2.1584E-4 9.66239E-5 4.89212E-5 .064731 .008883 
1.8203 1.16371 -1.828689 4.472032 2.699681 -1.4987E-4 -2.1584E-4 9.71631E-5 4.89212E-5 .065938 .00882 
1.8999 1.479176 -2.126435 4.053163 2.551855 -1.6708E-4 -2.1584E-4 1.01065E-4 4.89212E-5 .074677 .008367 
1.9787 1.834395 -2.368746 3.670335 2.300384 -1.8393E-4 -2.108E-4 1.05044E-4 5.1878E-5 .08324 .007928 
2.0693 2.294183 -2.69592 3.26679 2.144761 -2.0307E-4 -2.108E-4 1.09753E-4 5.1878E-5 .092979 .007434 
2.1293 2.631375 -2.91259 3.015093 2.041699 -2.1574E-4 -2.108E-4 1.07514E-4 -1.2636E-4 .09943 .007111 
2.2693 3.519474 -3.418156 2.475995 1.801222 -2.4531E-4 -2.108E-4 8.97875E-5 -1.2636E-4 .11448 .006372 
2.3293 3.94351 -3.634828 2.265607 1.698161 -2.5774E-4 -2.0261E-4 8.21903E-5 -1.2636E-4 .12093 .006055 
2.42 4.633971 -3.962362 1.971096 1.542366 -2.7615E-4 -2.0261E-4 7.07059E-5 -1.2636E-4 .13068 .005576 
2.6186 4.666029 3.819281 2.006264 -1.738048 -2.7056E-4 2.57244E-4 5.60313E-5 -2.5229E-5 .130137 .005394 
2.6663 4.308563 3.659616 2.176988 -1.833839 -2.5826E-4 2.57244E-4 5.48255E-5 -2.5229E-5 .124756 .005555 
2.7093 3.999401 3.515683 2.338738 -1.920191 -2.4718E-4 2.57244E-4 5.37384E-5 -2.5229E-5 .119906 .005701 
2.7693 3.590108 3.278757 2.574774 -2.014965 -2.3175E-4 2.56122E-4 5.22057E-5 -2.5751E-5 .113173 .005911 
3.0693 1.91463 2.294883 3.963791 -2.605735 -1.5475E-4 2.56122E-4 4.44649E-5 -2.5751E-5 .079681 .006988 
3.1293 1.649932 2.114482 4.287776 -2.765567 -1.3934E-4 2.56766E-4 4.29296E-5 -2.5331E-5 .072959 .007199 
3.1773 1.454201 1.954995 4.558474 -2.862578 -1.2699E-4 2.56766E-4 4.17112E-5 -2.5331E-5 .067564 .007364 
3.2183 1.299163 1.818768 4.797085 -2.945442 -1.1644E-4 2.56766E-4 4.06705E-5 -2.5331E-5 .062956 .007505 
3.2293 1.259472 1.782219 4.862261 -2.967673 -1.1361E-4 2.56766E-4 4.03913E-5 -2.5331E-5 .06172 .007543 
4.2293 1.154967 -1.641254 4.741512 3.037348 -6.9569E-5 -1.6073E-4 -1.6329E-6 -5.0264E-5 .061508 .006378 
4.2403 1.191536 -1.676505 4.674817 3.013578 -7.134E-5 -1.6073E-4 -2.187E-6 -5.0264E-5 .062738 .006317 
4.3199 1.479322 -1.93159 4.207804 2.841566 -8.4161E-5 -1.6073E-4 -6.1961E-6 -5.0264E-5 .071644 .005879 
4.3987 1.800484 -2.132609 3.781401 2.562986 -9.6752E-5 -1.5814E-4 -1.0173E-5 -5.0499E-5 .080376 .005452 
4.4893 2.213091 -2.412349 3.332544 2.381272 -1.1111E-4 -1.5814E-4 -1.4758E-5 -5.0499E-5 .090313 .004967 
4.5493 2.514297 -2.597607 3.053448 2.260932 -1.2062E-4 -1.5814E-4 -2.1484E-5 -1.7327E-4 .096895 .004651 
4.6893 3.303741 -3.029877 2.458495 1.980139 -1.428E-4 -1.5814E-4 -4.5792E-5 -1.7327E-4 .112251 .00392 
4.7493 3.6792 -3.215136 2.227632 1.859799 -1.5204E-4 -1.4912E-4 -5.6209E-5 -1.7327E-4 .118832 .003607 
4.84 4.289059 -3.495185 1.906114 1.677886 -1.6559E-4 -1.4912E-4 -7.1957E-5 -1.7327E-4 .12878 .003133 
5.0386 4.255046 3.646993 1.863965 -1.443361 -1.6744E-4 1.31003E-4 -1.2036E-4 -3.2674E-4 .128968 .002579 
5.0863 3.914096 3.486356 2.00572 -1.522424 -1.6118E-4 1.31003E-4 -1.3598E-4 -3.2674E-4 .123823 .002555 
5.1293 3.619901 3.341547 2.139984 -1.593697 -1.5554E-4 1.31003E-4 -1.5005E-4 -3.2674E-4 .119186 .002534 
5.1893 3.231311 3.11955 2.336638 -1.679097 -1.4766E-4 1.31057E-4 -1.6967E-4 -3.2574E-4 .112737 .002481 
5.4893 1.655904 2.121195 3.493842 -2.170456 -1.0826E-4 1.31057E-4 -2.6759E-4 -3.2574E-4 .080595 .002096 
5.5493 1.412375 1.930617 3.762426 -2.292837 -1.0045E-4 1.28901E-4 -2.8723E-4 -3.2763E-4 .074152 .002062 
5.5973 1.234403 1.769634 3.986831 -2.372825 -9.4247E-5 1.28901E-4 -3.0299E-4 -3.2763E-4 .068985 .002068 
5.6383 1.094648 1.632127 4.184604 -2.441148 -8.8951E-5 1.28901E-4 -3.1645E-4 -3.2763E-4 .064573 .002074 
5.6493 1.059075 1.595235 4.23862 -2.459478 -8.753E-5 1.28901E-4 -3.2006E-4 -3.2763E-4 .063389 .002076 
6.6493 1.401937 -2.057689 3.970795 2.614386 -1.8098E-4 -3.3268E-4 -4.1977E-4 1.48281E-4 .069858 8.49053E-4 
6.6603 1.447751 -2.09884 3.913402 2.592638 -1.8465E-4 -3.3268E-4 -4.1813E-4 1.48281E-4 .071198 8.24111E-4 
6.7399 1.806315 -2.396626 3.512371 2.435256 -2.1118E-4 -3.3268E-4 -4.0631E-4 1.48281E-4 .0809 6.43617E-4 
6.8187 2.203402 -2.628379 3.147505 2.189325 -2.372E-4 -3.2624E-4 -3.9506E-4 1.36785E-4 .090408 4.66063E-4 
6.9093 2.710209 -2.954216 2.765166 2.022233 -2.6682E-4 -3.2624E-4 -3.8264E-4 1.36785E-4 .101226 2.63118E-4 
6.9693 3.078407 -3.169991 2.528659 1.911576 -2.8643E-4 -3.2624E-4 -3.5992E-4 6.19117E-4 .108391 1.14155E-4 
7.1093 4.038435 -3.673488 2.028554 1.653377 -3.322E-4 -3.2624E-4 -2.7306E-4 6.19117E-4 .125107 -2.6725E-4 
7.1693 4.493119 -3.889273 1.8364 1.542721 -3.5006E-4 -2.6803E-4 -2.3584E-4 6.19117E-4 .13227 -4.3071E-4 
7.26 5.229708 -4.215468 1.571186 1.375445 -3.7442E-4 -2.6803E-4 -1.7957E-4 6.19117E-4 .143095 -6.7781E-4 
7.4586 5.167584 4.492738 1.548565 -1.249581 -3.6558E-4 3.54411E-4 -7.974E-5 4.12189E-4 .142797 -.001338 
7.5063 4.747474 4.296794 1.671795 -1.32864 -3.4864E-4 3.54411E-4 -6.0039E-5 4.12189E-4 .136966 -.001535 
7.5493 4.384812 4.120157 1.789361 -1.39991 -3.3337E-4 3.54411E-4 -4.2279E-5 4.12189E-4 .131709 -.001713 
7.6093 3.907112 3.821586 1.961949 -1.473155 -3.1213E-4 3.52288E-4 -1.7484E-5 4.12587E-4 .124426 -.001965 
7.9093 1.970422 2.620997 2.993647 -1.958888 -2.0623E-4 3.52288E-4 1.06543E-4 4.12587E-4 .088262 -.003246 
7.9693 1.667386 2.400901 3.235665 -2.095925 -1.8502E-4 3.53075E-4 1.31393E-4 4.14103E-4 .080996 -.003522 
8.0173 1.445817 2.205778 3.441137 -2.176089 -1.6804E-4 3.53075E-4 1.5131E-4 4.14103E-4 .075159 -.003761 
8.0583 1.271424 2.039111 3.622751 -2.244563 -1.5353E-4 3.53075E-4 1.68323E-4 4.14103E-4 .070173 -.003965 
8.0693 1.226966 1.994395 3.672434 -2.262934 -1.4964E-4 3.53075E-4 1.72887E-4 4.14103E-4 .068836 -.004019 
9.0693 1.313109 -2.110508 3.693863 2.250331 -1.2244E-5 -5.342E-5 4.20939E-4 3.21228E-5 .062059 -.005712 
9.0803 1.360139 -2.156291 3.644455 2.232236 -1.2833E-5 -5.342E-5 4.21293E-4 3.21228E-5 .063232 -.005693 
9.1599 1.730541 -2.487594 3.298807 2.101297 -1.7094E-5 -5.342E-5 4.23855E-4 3.21228E-5 .071719 -.005556 
9.2387 2.144762 -2.754238 2.984205 1.886204 -2.1291E-5 -5.2869E-5 4.26873E-4 4.4327E-5 .080037 -.005427 
9.3293 2.677833 -3.117659 2.65432 1.747551 -2.609E-5 -5.2869E-5 4.30897E-4 4.4327E-5 .0895 -.005287 
9.3893 3.06718 -3.358325 2.449709 1.655728 -2.9269E-5 -5.2869E-5 4.19625E-4 -4.193E-4 .095767 -.00518 
9.5293 4.088195 -3.919899 2.015223 1.441473 -3.6686E-5 -5.2869E-5 3.60805E-4 -4.193E-4 .110389 -.004898 
9.5893 4.574005 -4.160574 1.847417 1.34965 -3.9004E-5 -2.4265E-5 3.35596E-4 -4.193E-4 .116655 -.004777 
9.68 5.363327 -4.524393 1.61471 1.210843 -4.121E-5 -2.4265E-5 2.97489E-4 -4.193E-4 .126125 -.004594 
9.8786 5.374911 4.472689 1.674728 -1.544799 -3.925E-5 4.3411E-5 2.59323E-4 2.50301E-5 .125764 -.004988 
9.9263 4.95628 4.285902 1.82702 -1.641446 -3.7175E-5 4.3411E-5 2.60519E-4 2.50301E-5 .120614 -.005278 
9.9693 4.594201 4.117519 1.972224 -1.728571 -3.5304E-5 4.3411E-5 2.61598E-4 2.50301E-5 .115972 -.00554 
10.0293 4.11171 3.875972 2.186241 -1.846415 -3.2653E-5 4.48022E-5 2.63091E-4 2.46635E-5 .109498 -.005868 
10.3293 2.133566 2.704517 3.478583 -2.452685 -1.9185E-5 4.48022E-5 2.70505E-4 2.46635E-5 .07714 -.007325 
10.3893 1.82373 2.473295 3.78384 -2.579701 -1.6563E-5 4.24129E-5 2.71998E-4 2.49795E-5 .07067 -.007656 
10.4373 1.594841 2.285594 4.036673 -2.677003 -1.4523E-5 4.24129E-5 2.73199E-4 2.49795E-5 .065495 -.007952 
10.4783 1.413629 2.125265 4.260046 -2.760116 -1.278E-5 4.24129E-5 2.74226E-4 2.49795E-5 .061075 -.008206 
10.4893 1.367253 2.08225 4.321137 -2.782414 -1.2313E-5 4.24129E-5 2.74501E-4 2.49795E-5 .059889 -.008273 
11.4893 1.116538 -1.74418 4.481124 2.690246 -1.63E-4 -3.7102E-4 1.50356E-4 -2.4831E-4 .063895 -.008881 
11.5003 1.155427 -1.784084 4.422042 2.669984 -1.6708E-4 -3.7102E-4 1.47619E-4 -2.4831E-4 .065179 -.008824 
11.5799 1.46306 -2.072841 4.007814 2.523363 -1.9668E-4 -3.7102E-4 1.27813E-4 -2.4831E-4 .074472 -.008411 
11.6587 1.809163 -2.30697 3.629295 2.274261 -2.2574E-4 -3.6496E-4 1.08345E-4 -2.4492E-4 .083584 -.008013 
11.7493 2.256833 -2.624212 3.230381 2.119867 -2.5887E-4 -3.6496E-4 8.61096E-5 -2.4492E-4 .093955 -.007565 
11.8093 2.585007 -2.834304 2.981629 2.01762 -2.8081E-4 -3.6496E-4 7.83933E-5 -1.1766E-5 .100823 -.007276 
11.9493 3.448989 -3.324524 2.44902 1.779043 -3.3201E-4 -3.6496E-4 7.67428E-5 -1.1766E-5 .116849 -.006617 
12.0093 3.861371 -3.534618 2.24125 1.676796 -3.5477E-4 -3.9196E-4 7.60354E-5 -1.1766E-5 .123718 -.006335 
12.1 4.532713 -3.85221 1.95051 1.522232 -3.9039E-4 -3.9196E-4 7.49661E-5 -1.1766E-5 .134102 -.005908 
12.2986 4.555502 3.750496 1.987475 -1.727911 -4.0238E-4 2.74859E-4 8.50486E-5 1.15922E-4 .134314 -.005924 
12.3463 4.204536 3.592421 2.157233 -1.823762 -3.8924E-4 2.74859E-4 9.05893E-5 1.15922E-4 .128952 -.006157 
12.3893 3.901102 3.449921 2.318117 -1.910169 -3.774E-4 2.74859E-4 9.55841E-5 1.15922E-4 .124118 -.006367 
12.4493 3.501137 3.197424 2.55246 -1.991733 -3.6095E-4 2.72259E-4 1.02508E-4 1.14419E-4 .117427 -.006642 
12.7493 1.868479 2.233773 3.925767 -2.576705 -2.7911E-4 2.72259E-4 1.36904E-4 1.14419E-4 .084244 -.007928 
12.8093 1.609952 2.070219 4.247911 -2.769308 -2.6268E-4 2.7401E-4 1.43857E-4 1.16899E-4 .077566 -.008212 
12.8573 1.418404 1.912306 4.519024 -2.867463 -2.4951E-4 2.7401E-4 1.4948E-4 1.16899E-4 .072191 -.008461 
12.8983 1.266819 1.777422 4.758077 -2.951305 -2.3825E-4 2.7401E-4 1.54282E-4 1.16899E-4 .067601 -.008673 
12.9093 1.228035 1.741233 4.823385 -2.973799 -2.3523E-4 2.7401E-4 1.55571E-4 1.16899E-4 .066369 -.00873 
13.9093 1.184724 -1.682823 4.753522 3.014192 -2.4599E-4 -2.9747E-4 1.69349E-4 -9.2115E-5 .069602 -.008262 
13.9203 1.222214 -1.718474 4.687333 2.990807 -2.4927E-4 -2.9747E-4 1.68333E-4 -9.2115E-5 .070912 -.008196 
13.9999 1.516926 -1.976455 4.22373 2.82158 -2.7299E-4 -2.9747E-4 1.60986E-4 -9.2115E-5 .080388 -.007718 
14.0787 1.845304 -2.179056 3.800306 2.545214 -2.9616E-4 -2.893E-4 1.53893E-4 -8.7597E-5 .089674 -.007253 
14.1693 2.266622 -2.461854 3.354397 2.366573 -3.2243E-4 -2.893E-4 1.4594E-4 -8.7597E-5 .100238 -.006729 
14.2293 2.573902 -2.649137 3.076946 2.248268 -3.3982E-4 -2.893E-4 1.35765E-4 -2.5089E-4 .107233 -.006377 
14.3693 3.378466 -3.086132 2.48488 1.972223 -3.8041E-4 -2.893E-4 1.00569E-4 -2.5089E-4 .123556 -.005544 
14.4293 3.760812 -3.273416 2.254847 1.853918 -3.997E-4 -3.526E-4 8.54852E-5 -2.5089E-4 .130554 -.005187 
14.52 4.381542 -3.556526 1.934119 1.67508 -4.3175E-4 -3.526E-4 6.26832E-5 -2.5089E-4 .141135 -.004647 
14.7186 4.34118 3.73667 1.902015 -1.496452 -4.2976E-4 3.72039E-4 2.05378E-5 -1.8448E-4 .140633 -.004187 
14.7663 3.991854 3.57193 2.048957 -1.577856 -4.1197E-4 3.72039E-4 1.17201E-5 -1.8448E-4 .134834 -.004244 
14.8093 3.690445 3.423422 2.188089 -1.651239 -3.9594E-4 3.72039E-4 3.77126E-6 -1.8448E-4 .129606 -.004294 
14.8693 3.29454 3.164162 2.390566 -1.715837 -3.7367E-4 3.68995E-4 -7.3201E-6 -1.8446E-4 .122373 -.004363 
15.1693 1.69424 2.159388 3.571243 -2.211797 -2.6275E-4 3.68995E-4 -6.2769E-5 -1.8446E-4 .086501 -.004699 
15.2293 1.445121 1.981928 3.846802 -2.373682 -2.405E-4 3.70909E-4 -7.3892E-5 -1.8558E-4 .079284 -.004757 
15.2773 1.262359 1.817911 4.079126 -2.456633 -2.2266E-4 3.70909E-4 -8.2818E-5 -1.8558E-4 .073478 -.004797 
15.3183 1.118744 1.677812 4.283889 -2.527487 -2.0743E-4 3.70909E-4 -9.0442E-5 -1.8558E-4 .068519 -.004831 
15.3293 1.082172 1.640225 4.339816 -2.546496 -2.0334E-4 3.70909E-4 -9.2487E-5 -1.8558E-4 .067188 -.00484 
16.3293 1.378412 -2.039707 4.101896 2.683742 -7.7837E-5 -9.7221E-5 -1.9574E-4 -1.7076E-7 .060189 -.003082 
16.3403 1.423831 -2.080972 4.042977 2.661701 -7.8909E-5 -9.7221E-5 -1.9574E-4 -1.7076E-7 .06135 -.003037 
16.4199 1.77961 -2.379576 3.631098 2.502204 -8.6663E-5 -9.7221E-5 -1.9576E-4 -1.7076E-7 .069748 -.002712 
16.4987 2.174133 -2.612981 3.256078 2.251067 -9.4239E-5 -9.4625E-5 -1.9599E-4 -5.7907E-6 .077981 -.002394 
16.5893 2.678237 -2.939835 2.862716 2.081903 -1.0283E-4 -9.4625E-5 -1.9652E-4 -5.7907E-6 .087347 -.00203 
16.6493 3.044745 -3.156291 2.619117 1.969874 -1.0852E-4 -9.4625E-5 -1.8882E-4 2.61979E-4 .09355 -.001798 
16.7893 4.001149 -3.661362 2.103106 1.708473 -1.2179E-4 -9.4625E-5 -1.5207E-4 2.61979E-4 .108024 -.001274 
16.8493 4.454416 -3.877821 1.904409 1.596444 -1.2721E-4 -8.5695E-5 -1.3631E-4 2.61979E-4 .114227 -.00105 
16.94005 5.189437 -4.205215 1.629476 1.427 -1.3501E-4 -8.5695E-5 -1.1249E-4 2.61979E-4 .123608 -7.1007E-4 
17.13855 5.230704 4.019604 1.574683 -1.123605 -1.3097E-4 1.25184E-4 -7.546E-5 1.20185E-4 .124564 -2.5885E-5 
17.1863 4.853564 3.862663 1.685493 -1.19235 -1.2498E-4 1.25184E-4 -6.9709E-5 1.20185E-4 .120075 1.32832E-4 
17.2293 4.526792 3.721333 1.790911 -1.254257 -1.1959E-4 1.25184E-4 -6.4531E-5 1.20185E-4 .116033 2.75759E-4 
17.2893 4.091367 3.503777 1.945867 -1.33085 -1.1207E-4 1.24984E-4 -5.7296E-5 1.20476E-4 .11041 4.66394E-4 
17.4198 3.230516 3.079448 2.318274 -1.517075 -9.5725E-5 1.24984E-4 -4.1542E-5 1.20476E-4 .098213 8.62795E-4 
17.4988 2.763312 2.822575 2.567381 -1.629809 -8.5831E-5 1.24984E-4 -3.2006E-5 1.20476E-4 .090829 .001103 
17.5893 2.278077 2.528308 2.874685 -1.758954 -7.4497E-5 1.24984E-4 -2.108E-5 1.20476E-4 .082371 .001378 
17.6493 1.985433 2.342633 3.092539 -1.859104 -6.6978E-5 1.25138E-4 -1.384E-5 1.20395E-4 .076752 .001563 
17.6973 1.767645 2.185462 3.274708 -1.928411 -6.0959E-5 1.25138E-4 -8.0492E-6 1.20395E-4 .072248 .001714 
17.7383 1.593589 2.051213 3.43559 -1.98761 -5.5818E-5 1.25138E-4 -3.103E-6 1.20395E-4 .068401 .001842 
17.7493 1.548768 2.015194 3.479581 -2.003493 -5.4439E-5 1.25138E-4 -1.776E-6 1.20395E-4 .067369 .001877 
18.7493 .937767 -1.191175 3.298457 2.108248 -1.3186E-4 -2.9398E-4 9.77583E-5 5.86512E-5 .092848 .003511 
18.7603 .96434 -1.219606 3.252183 2.090054 -1.351E-4 -2.9398E-4 9.84047E-5 5.86512E-5 .094493 .003508 
18.8398 1.175018 -1.425086 2.929666 1.958559 -1.5852E-4 -2.9398E-4 1.03077E-4 5.86512E-5 .106386 .003487 
18.9188 1.442483 -1.976418 2.577726 2.457434 -1.8339E-4 -3.3548E-4 1.06716E-4 3.31207E-5 .119265 .003433 
19.0093 1.828909 -2.284853 2.154485 2.209806 -2.1381E-4 -3.3548E-4 1.0972E-4 3.31207E-5 .135291 .003335 
19.0693 2.115941 -2.489334 1.898642 2.045632 -2.3398E-4 -3.3548E-4 9.92469E-5 -3.8151E-4 .145916 .003282 
19.1293 2.42756 -2.693821 1.662539 1.881459 -2.5415E-4 -3.3548E-4 7.63099E-5 -3.8151E-4 .156541 .003242 
19.1893 2.763767 -2.898307 1.446177 1.717285 -2.7223E-4 -2.6594E-4 5.3373E-5 -3.8151E-4 .167164 .003201 
19.2293 3.001566 -3.034632 1.312903 1.607836 -2.8289E-4 -2.6594E-4 3.80817E-5 -3.8151E-4 .174245 .003174 
19.2723 3.269387 -3.18118 1.179418 1.490179 -2.9434E-4 -2.6594E-4 2.16435E-5 -3.8151E-4 .181856 .003146 
19.32005 3.581591 -3.343918 1.04307 1.359524 -3.0707E-4 -2.6594E-4 3.38954E-6 -3.8151E-4 .190309 .003114 
19.51855 3.460604 3.868845 .943193 -.791975 -2.9755E-4 3.58348E-4 -7.6841E-5 -4.5263E-4 .186554 .003616 
19.6093 2.795141 3.449257 1.101494 -.948857 -2.6497E-4 3.58348E-4 -1.18E-4 -4.5263E-4 .167175 .004154 
19.6693 2.399052 3.146983 1.221248 -1.039875 -2.4345E-4 3.57376E-4 -1.4517E-4 -4.5126E-4 .154413 .004482 
19.7693 1.814014 2.69157 1.446756 -1.210648 -2.0764E-4 3.57376E-4 -1.9039E-4 -4.5126E-4 .133225 .004983 
19.8293 1.504956 2.437367 1.59914 -1.33346 -1.8616E-4 3.57282E-4 -2.176E-4 -4.5387E-4 .120463 .005336 
19.8773 1.281164 2.215546 1.73143 -1.417017 -1.6897E-4 3.57282E-4 -2.3943E-4 -4.5387E-4 .110218 .005661 
19.9183 1.106905 2.026073 1.850793 -1.488389 -1.5429E-4 3.57282E-4 -2.5808E-4 -4.5387E-4 .101467 .005939 
19.9293 1.062801 1.975239 1.883815 -1.507537 -1.5036E-4 3.57282E-4 -2.6308E-4 -4.5387E-4 .099119 .006013 
20.9293 1.758238 -2.913094 2.755297 1.003867 -8.3461E-6 -4.7563E-5 -4.9619E-4 3.4526E-5 9.88341E-4 .008079 
20.9403 1.823112 -2.972562 2.733256 .995836 -8.8704E-6 -4.7563E-5 -4.9581E-4 3.4526E-5 9.7565E-4 .008048 
21.1593 3.387541 -4.156513 2.331287 .83593 -1.9308E-5 -4.7563E-5 -4.8823E-4 3.4526E-5 7.22998E-4 .007425 
21.2193 3.906834 -4.480872 2.233406 .79212 -2.2167E-5 -4.7563E-5 -4.7402E-4 4.38168E-4 6.53778E-4 .007243 
21.3193 4.858994 -5.021486 2.081978 .719104 -2.6933E-5 -4.7563E-5 -4.3011E-4 4.38168E-4 5.38411E-4 .006918 
21.3793 5.482295 -5.345855 1.998144 .675294 -2.8855E-5 -1.6377E-5 -4.0377E-4 4.38168E-4 4.68252E-4 .006723 
21.4223 5.952985 -5.578319 1.941304 .643897 -2.9561E-5 -1.6377E-5 -3.8489E-4 4.38168E-4 4.17298E-4 .006583 
21.46995 6.497975 -5.835922 1.881478 .609105 -3.0343E-5 -1.6377E-5 -3.6397E-4 4.38168E-4 3.60834E-4 .006429 
21.66865 7.508047 1.108567 2.038898 -1.452291 -3.0509E-5 1.4737E-5 -3.109E-4 1.04086E-4 9.44547E-5 .006452 
22.0593 6.685658 .99236 3.409528 -2.049206 -2.4741E-5 1.4737E-5 -2.7016E-4 1.04086E-4 -4.7199E-4 .007808 
22.3093 6.207103 .917992 4.5319 -2.431207 -2.1049E-5 1.4737E-5 -2.4408E-4 1.04086E-4 -8.3449E-4 .008676 
22.5593 5.765807 .843624 5.845659 -2.813209 -1.7357E-5 1.4737E-5 -2.1801E-4 1.04086E-4 -.001197 .009544 
23.1218 4.909121 .676296 9.501377 -3.672711 -9.0508E-6 1.4737E-5 -1.5934E-4 1.04086E-4 -.002013 .011497 
23.1818 4.828874 .658447 9.948507 -3.764391 -8.1647E-6 1.4737E-5 -1.5308E-4 1.04086E-4 -.0021 .011705 
23.3818 4.576885 .598953 11.518557 -4.069992 -5.2114E-6 1.4737E-5 -1.3222E-4 1.04086E-4 -.00239 .0124 
23.3918 4.564912 .595978 11.600274 -4.085272 -5.0637E-6 1.4737E-5 -1.3118E-4 1.04086E-4 -.002404 .012434 
23.48245 4.459091 .569012 12.355016 -4.223786 -3.7251E-6 1.4737E-5 -1.2173E-4 1.04086E-4 -.002536 .012749 
23.68115 4.885216 -2.810217 12.271082 4.625101 -9.8931E-7 1.30782E-5 -9.2958E-5 1.81372E-4 -.003012 .012522 
23.7518 5.292232 -2.939151 11.625376 4.495922 -6.3465E-8 1.30782E-5 -8.0118E-5 1.81372E-4 -.003253 .012118 
23.9518 6.543419 -3.304143 9.896651 4.130234 1.82908E-6 5.80899E-6 -4.377E-5 1.81372E-4 -.003933 .010973 
24.2168 8.426579 -3.787758 7.831856 3.645698 3.37158E-6 5.80899E-6 4.39125E-6 1.81372E-4 -.004833 .009457 
24.5318 10.999148 -4.362622 5.712209 3.069741 5.20511E-6 5.80899E-6 6.16392E-5 1.81372E-4 -.005903 .007654 
24.5918 11.530306 -4.472119 5.34969 2.960034 5.55436E-6 5.80899E-6 7.25436E-5 1.81372E-4 -.006107 .007311 
24.7418 12.915803 -4.745864 4.501104 2.685769 6.42747E-6 5.80899E-6 9.98045E-5 1.81372E-4 -.006616 .006453 
24.8618 14.08345 -4.964859 3.881597 2.466356 6.78248E-6 9.58736E-8 1.21613E-4 1.81372E-4 -.007024 .005766 
24.9393 14.865545 -5.106294 3.509542 2.324652 6.78992E-6 9.58736E-8 1.35698E-4 1.81372E-4 -.007286 .005322 
24.9993 15.486123 -5.215782 3.236615 2.214946 6.79569E-6 9.58692E-8 1.40677E-4 -1.574E-5 -.00749 .004985 
25.0843 16.387813 -5.370903 2.872548 2.059529 6.80385E-6 9.58692E-8 1.39337E-4 -1.574E-5 -.007778 .004515 
25.0893 16.441677 -5.380028 2.851957 2.050387 6.80433E-6 9.58692E-8 1.39258E-4 -1.574E-5 -.007795 .004488 
25.22985 17.993189 -5.636525 2.310619 1.7934 6.81784E-6 9.58692E-8 1.37041E-4 -1.574E-5 -.008272 .003711 
25.30875 18.302629 1.766772 2.107954 .798923 6.71565E-6 -2.6725E-6 1.38008E-4 4.02795E-5 -.008405 .003331 
25.3593 18.124224 1.755366 2.029014 .759557 6.58029E-6 -2.6725E-6 1.40048E-4 4.02795E-5 -.008403 .003122 
25.4593 17.774701 1.732802 1.884598 .681681 6.3125E-6 -2.6725E-6 1.44084E-4 4.02795E-5 -.0084 .002707 
26.8593 13.356183 1.416904 1.501493 -.408587 2.56346E-6 -2.6725E-6 2.0059E-4 4.02795E-5 -.008359 -.003094 
28.2593 9.82397 1.101006 4.177319 -1.498855 -1.1856E-6 -2.6725E-6 2.57095E-4 4.02795E-5 -.008317 -.008895 
28.3593 9.605584 1.078442 4.485501 -1.576731 -1.4534E-6 -2.6725E-6 2.61131E-4 4.02795E-5 -.008314 -.00931 
28.40985 9.49691 1.067036 4.647225 -1.616098 -1.5887E-6 -2.6725E-6 2.63172E-4 4.02795E-5 -.008313 -.009519 
28.48875 9.164847 3.107165 4.993115 -2.785933 -1.7855E-6 -2.2955E-6 2.68691E-4 9.95918E-5 -.008237 -.009933 
28.5743 8.640678 3.007508 5.483648 -2.936351 -1.9822E-6 -2.2955E-6 2.77228E-4 9.95918E-5 -.008076 -.010479 
28.5793 8.610571 3.001684 5.513115 -2.945143 -1.9937E-6 -2.2955E-6 2.77727E-4 9.95918E-5 -.008067 -.010511 
28.9693 6.442055 2.547376 8.08295 -3.630862 -2.8908E-6 -2.2955E-6 3.16647E-4 9.95918E-5 -.007332 -.012998 
29.0293 6.139953 2.477483 8.525878 -3.736357 -3.0288E-6 -2.2955E-6 3.22634E-4 9.95918E-5 -.007219 -.01338 
29.1693 5.467731 2.314398 9.608709 -3.982513 -3.3508E-6 -2.2955E-6 3.36605E-4 9.95918E-5 -.006956 -.014273 
29.2293 5.193643 2.244505 10.093921 -4.088008 -3.4845E-6 -2.1524E-6 3.42593E-4 9.95918E-5 -.006843 -.014656 
30.03745 2.320842 1.303098 17.865401 -5.508941 -5.2275E-6 -2.1524E-6 4.23241E-4 9.95918E-5 -.005321 -.019809 
30.23615 2.203709 -.681879 17.045702 9.390614 -6.1142E-6 -6.883E-6 4.07405E-4 -2.5636E-4 -.00539 -.019362 
30.3268 2.333069 -.742263 15.382904 8.91537 -6.7394E-6 -6.883E-6 3.84119E-4 -2.5636E-4 -.005625 -.018383 
30.3868 2.424723 -.78223 14.329804 8.600812 -7.1532E-6 -6.883E-6 3.68706E-4 -2.5636E-4 -.00578 -.017735 
30.97305 3.573145 -1.17274 6.030412 5.527323 -1.1197E-5 -6.883E-6 2.18109E-4 -2.5636E-4 -.007297 -.0114 
31.22305 4.202419 -1.339269 3.589481 4.216666 -1.2921E-5 -6.883E-6 1.53888E-4 -2.5636E-4 -.007945 -.008698 
31.47305 4.915127 -1.505798 1.805206 2.90601 -1.4645E-5 -6.883E-6 8.96677E-5 -2.5636E-4 -.008592 -.005997 
32.04995 6.878176 -1.89008 .193813 -.118461 -1.8624E-5 -6.883E-6 -5.8527E-5 -2.5636E-4 -.010085 2.36711E-4 
32.24865 6.291524 4.638937 .509369 -1.570103 -1.8145E-5 1.16155E-5 -1.171E-4 -3.4196E-4 -.009607 .002485 
32.2993 5.829868 4.457274 .686266 -1.915372 -1.7555E-5 1.16155E-5 -1.3446E-4 -3.4196E-4 -.009236 .003104 
32.3393 5.478314 4.313809 .850735 -2.188042 -1.7089E-5 1.16155E-5 -1.4816E-4 -3.4196E-4 -.008943 .003593 
32.3993 4.972547 4.098612 1.138422 -2.597048 -1.7475E-5 -2.444E-5 -1.6872E-4 -3.4196E-4 -.008503 .004326 
32.8193 2.156703 2.592229 4.529271 -5.460085 -2.7761E-5 -2.444E-5 -3.1264E-4 -3.4196E-4 -.005413 .009458 
32.8793 1.857943 2.377032 5.210398 -5.86909 -2.923E-5 -2.444E-5 -3.3337E-4 -3.4789E-4 -.004972 .010192 
32.9193 1.673146 2.233567 5.691805 -6.14176 -3.0209E-5 -2.444E-5 -3.4732E-4 -3.4789E-4 -.004677 .010681 
32.96995 1.455647 2.051904 6.332749 -6.487029 -3.145E-5 -2.444E-5 -3.6497E-4 -3.4789E-4 -.004305 .0113 
33.16865 1.057331 .120812 7.228463 2.388433 -4.0711E-5 -7.0658E-5 -3.8482E-4 1.52977E-4 -.003348 .012139 
33.3083 1.04231 -.013465 6.578185 2.258641 -5.0598E-5 -7.0658E-5 -3.6342E-4 1.52977E-4 -.003 .011583 
35.3303 5.036015 -1.957669 1.233307 .379379 -1.9376E-4 -7.0658E-5 -5.347E-5 1.52977E-4 .002036 .003541 
35.4293 5.433861 -2.05286 1.167165 .287367 -2.0077E-4 -7.0658E-5 -3.8294E-5 1.52977E-4 .002282 .003148 
35.4893 5.684172 -2.110552 1.135964 .231603 -2.0435E-4 -4.8694E-5 -2.9097E-5 1.52977E-4 .002431 .002909 
35.5693 6.02871 -2.187474 1.104793 .15725 -2.0826E-4 -4.8694E-5 -1.6834E-5 1.52977E-4 .002629 .002591 
35.6693 6.476725 -2.283626 1.082592 .06431 -2.1314E-4 -4.8694E-5 -1.5052E-6 1.52977E-4 .002876 .002193 
35.8693 6.788045 .779144 1.197775 -.656967 -2.1288E-4 5.12233E-5 2.95529E-5 1.59457E-4 .003219 .001488 
35.9993 6.589075 .748305 1.389214 -.81266 -2.0621E-4 5.12233E-5 5.03242E-5 1.59457E-4 .00334 .001081 
36.0593 6.499952 .734071 1.491251 -.884519 -2.0313E-4 5.12233E-5 5.74706E-5 7.82746E-5 .003396 8.95781E-4 
38.3093 4.393345 .200306 11.554981 -3.579211 -8.7644E-5 5.12233E-5 2.33945E-4 7.82746E-5 .005501 -.005966 
38.5093 4.780796 -2.199443 11.801954 2.389331 -8.1713E-5 8.48603E-6 2.37543E-4 -4.2682E-5 .005978 -.006252 
38.5593 5.00425 -2.260619 11.563964 2.360851 -8.1288E-5 8.48603E-6 2.35405E-4 -4.2682E-5 .006172 -.006242 
39.68997 11.693956 -3.644009 6.944136 1.716812 -7.1673E-5 8.48603E-6 1.87048E-4 -4.2682E-5 .01056 -.006 
40.7593 20.904915 -4.952349 3.917671 1.107713 -6.2581E-5 8.48603E-6 1.41315E-4 -4.2682E-5 .014709 -.005772 
40.8193 21.504814 -5.02576 3.786531 1.073536 -6.3196E-5 -2.8972E-5 1.38749E-4 -4.2682E-5 .014943 -.005759 
40.8993 22.31841 -5.123641 3.61807 1.027968 -6.5519E-5 -2.8972E-5 1.35327E-4 -4.2682E-5 .015256 -.005742 
40.9493 22.834877 -5.184817 3.516492 .999487 -6.697E-5 -2.8972E-5 1.33189E-4 -4.2682E-5 .015452 -.005731 
41.1493 22.599546 6.319096 3.478518 -.803627 -6.9335E-5 5.57587E-6 1.3126E-4 2.32627E-5 .015448 -.005986 
41.2793 20.983986 6.083171 3.695912 -.865259 -6.8609E-5 5.57587E-6 1.3429E-4 2.32627E-5 .014932 -.006347 
41.3393 20.259074 5.974282 3.801664 -.893705 -6.8274E-5 5.57587E-6 1.36701E-4 5.69525E-5 .014694 -.006515 
41.4493 18.964074 5.774653 4.004425 -.945855 -6.7659E-5 5.57587E-6 1.42979E-4 5.69525E-5 .014258 -.006824 
41.4883 18.515505 5.703876 4.079074 -.964345 -6.7441E-5 5.57587E-6 1.45205E-4 5.69525E-5 .014104 -.006934 
43.5103 2.837164 2.034332 9.92904 -1.922966 -5.6144E-5 5.57587E-6 2.60596E-4 5.69525E-5 .006087 -.012623 
43.5993 2.488723 1.872813 10.275784 -1.96516 -5.5647E-5 5.57587E-6 2.65675E-4 5.69525E-5 .005734 -.012873 
43.64995 2.303288 1.780893 10.476476 -1.989173 -5.5364E-5 5.57587E-6 2.68565E-4 5.69525E-5 .005533 -.013016 
43.84865 2.113134 -.755485 9.012239 8.786133 -6.0483E-5 -5.7976E-5 2.50187E-4 -2.3803E-4 .00535 -.012105 
43.9393 2.256514 -.823005 7.487676 7.998001 -6.5749E-5 -5.7976E-5 2.28565E-4 -2.3803E-4 .005538 -.011035 
43.9993 2.358161 -.867695 6.557335 7.476347 -6.9234E-5 -5.7976E-5 2.12089E-4 -3.1007E-4 .005663 -.010325 
45.209205 5.554621 -1.768876 1.182359 -3.042848 -1.3952E-4 -5.7976E-5 -1.6382E-4 -3.1007E-4 .00818 .004042 
45.249205 5.697612 -1.798669 1.440219 -3.390618 -1.4185E-4 -5.7976E-5 -1.7625E-4 -3.1007E-4 .008263 .004517 
45.299855 5.882101 -1.836395 1.806733 -3.830981 -1.4479E-4 -5.7976E-5 -1.9199E-4 -3.1007E-4 .008369 .005118 
45.498555 5.480955 3.718202 4.276766 -9.373655 -1.4215E-4 8.40713E-5 -2.7463E-4 -5.3394E-4 .007956 .008079 
45.589205 4.827796 3.472513 6.151091 -11.261055 -1.3451E-4 8.40713E-5 -3.2313E-4 -5.3394E-4 .007398 .009751 
45.649205 4.420028 3.309894 7.580261 -12.510299 -1.3068E-4 4.31519E-5 -3.5524E-4 -5.3394E-4 .007029 .010857 
45.909205 2.878984 2.605216 15.509126 -17.92369 -1.1944E-4 4.31519E-5 -4.9434E-4 -5.3394E-4 .005437 .015652 
45.949205 2.67449 2.496804 16.979306 -18.756519 -1.1771E-4 4.31519E-5 -5.1574E-4 -5.3394E-4 .005193 .016389 
45.999855 2.428019 2.359527 18.936712 -19.81109 -1.1552E-4 4.31519E-5 -5.4284E-4 -5.3394E-4 .004883 .017323 
46.198555 1.982322 .02421 23.145798 .076569 -1.1813E-4 -6.9775E-5 -5.9357E-4 3.29219E-5 .004123 .01915 
46.289205 1.982088 -.021638 23.132246 .072622 -1.2447E-4 -6.9775E-5 -5.9058E-4 3.29219E-5 .003974 .019117 
46.349205 1.986515 -.051985 23.123671 .070009 -1.2866E-4 -6.9775E-5 -5.8502E-4 1.52228E-4 .003875 .019091 
46.909205 2.203788 -.33522 23.058786 .045623 -1.6782E-4 -6.9775E-5 -4.996E-4 1.52228E-4 .002952 .018818 
46.949205 2.231471 -.355451 23.055199 .043881 -1.7061E-4 -6.9775E-5 -4.935E-4 1.52228E-4 .002886 .018798 
46.999855 2.268851 -.381068 23.050856 .041676 -1.7415E-4 -6.9775E-5 -4.8577E-4 1.52228E-4 .002802 .018773 
47.198555 2.759266 -2.187609 20.197771 13.663914 -1.9966E-4 -1.8927E-4 -4.2519E-4 4.49529E-4 .002662 .017454 
47.269205 3.07951 -2.336048 18.309724 13.006018 -2.1306E-4 -1.8927E-4 -3.9337E-4 4.49529E-4 .002677 .016561 
47.329205 3.367982 -2.46211 16.779432 12.447296 -2.2279E-4 -1.3448E-4 -3.6634E-4 4.49529E-4 .002689 .015803 
47.969855 7.393158 -3.808146 4.62812 6.481527 -3.0912E-4 -1.3448E-4 -7.7769E-5 4.49529E-4 .002795 .007707 
48.168555 6.648651 7.154393 3.466446 -.057126 -2.8836E-4 3.37563E-4 4.06849E-6 3.94117E-4 .002362 .006288 
48.259205 5.413692 6.441439 3.479212 -.083415 -2.5769E-4 3.37563E-4 3.98676E-5 3.94117E-4 .001963 .006103 
48.319205 4.667524 5.969556 3.490289 -.100816 -2.374E-4 3.37564E-4 5.19579E-5 8.07747E-6 .001699 .005993 
48.449205 3.245482 4.947114 3.521465 -.138517 -1.9343E-4 3.37564E-4 5.30101E-5 8.07747E-6 .001126 .005778 
48.497205 2.787755 4.569597 3.535459 -.152437 -1.7719E-4 3.37564E-4 5.33986E-5 8.07747E-6 9.14776E-4 .005699 
48.538205 2.425537 4.247134 3.548473 -.164327 -1.6332E-4 3.37564E-4 5.37304E-5 8.07747E-6 7.34248E-4 .005631 
48.549205 2.332864 4.16062 3.55213 -.167518 -1.596E-4 3.37564E-4 5.38195E-5 8.07747E-6 6.85814E-4 .005613 
49.549205 1.256218 -2.708483 1.119235 1.573122 -4.7015E-5 -9.2045E-5 3.2081E-5 -4.718E-5 .092161 .001323 
49.560205 1.316732 -2.781624 1.084933 1.538903 -4.803E-5 -9.2045E-5 3.1561E-5 -4.718E-5 .094407 .001256 
49.649205 1.865638 -3.373396 .835145 1.262039 -5.6238E-5 -9.2045E-5 2.73535E-5 -4.718E-5 .112576 7.16325E-4 
49.709205 2.29525 -3.772344 .694615 1.075389 -6.1772E-5 -9.2045E-5 2.45169E-5 -4.718E-5 .124825 3.52583E-4 
49.809205 3.117873 -4.437258 .510273 .764306 -7.0995E-5 -9.2045E-5 1.97894E-5 -4.718E-5 .14524 -2.5365E-4 
49.869205 3.675408 -4.836206 .429592 .577657 -7.6529E-5 -9.2045E-5 1.69529E-5 -4.718E-5 .15749 -6.174E-4 
49.959955 4.609827 -5.439614 .350206 .295349 -8.4899E-5 -9.2045E-5 1.26626E-5 -4.718E-5 .176016 -.001168 
50.158455 4.731086 4.920033 .509814 -1.210054 -8.4434E-5 9.65527E-5 5.41178E-6 -2.8392E-5 .177424 -.002718 
50.206205 4.272468 4.665111 .636673 -1.441325 -7.9814E-5 9.65527E-5 4.05331E-6 -2.8392E-5 .168328 -.003202 
50.249205 3.880347 4.435547 .769852 -1.64959 -7.5654E-5 9.65527E-5 2.82997E-6 -2.8392E-5 .160137 -.003637 
50.309205 3.36689 4.105156 .985505 -1.937248 -6.9852E-5 9.6444E-5 1.12279E-6 -2.8398E-5 .148722 -.004244 
50.399705 2.665956 3.624325 1.376518 -2.374599 -6.1106E-5 9.6444E-5 -1.4525E-6 -2.8398E-5 .131524 -.005158 
50.478705 2.203721 2.283457 1.728457 -2.018978 -5.4463E-5 7.19599E-5 -3.6647E-6 -2.7309E-5 .118654 -.005866 
50.569205 1.812767 2.027743 2.118783 -2.285304 -4.7938E-5 7.19599E-5 -6.1412E-6 -2.7309E-5 .106265 -.006568 
50.629205 1.578793 1.862839 2.40454 -2.468948 -4.3609E-5 7.20267E-5 -7.7837E-6 -2.733E-5 .098042 -.007032 
50.677205 1.406148 1.726657 2.648866 -2.610881 -4.0145E-5 7.20267E-5 -9.0981E-6 -2.733E-5 .091456 -.007403 
50.718205 1.269054 1.610335 2.868372 -2.732116 -3.7186E-5 7.20267E-5 -1.0221E-5 -2.733E-5 .08583 -.00772 
50.729205 1.233899 1.579127 2.928959 -2.764642 -3.6392E-5 7.20267E-5 -1.0522E-5 -2.733E-5 .084321 -.007805 
51.729205 1.179179 -1.505381 4.777912 1.696532 -1.6644E-4 -3.5563E-4 -2.7361E-5 -2.9602E-6 .068266 -.010025 
51.740205 1.212701 -1.535911 4.740611 1.687585 -1.7036E-4 -3.5563E-4 -2.7394E-5 -2.9602E-6 .069391 -.009984 
51.819705 1.474983 -1.756562 4.476893 1.622925 -1.9869E-4 -3.5563E-4 -2.763E-5 -2.9602E-6 .077522 -.009687 
51.898705 1.810852 -2.522134 4.121791 2.825032 -2.2935E-4 -4.208E-4 -2.753E-5 5.4654E-6 .086572 -.009276 
51.989205 2.301711 -2.890765 3.627342 2.627445 -2.6751E-4 -4.208E-4 -2.7034E-5 5.4654E-6 .0981 -.008676 
52.049205 2.663999 -3.13516 3.319286 2.496449 -2.9281E-4 -4.208E-4 -2.6601E-5 8.95974E-6 .105743 -.008278 
52.189205 3.623619 -3.705417 2.661743 2.190791 -3.5184E-4 -4.208E-4 -2.5344E-5 8.95974E-6 .123576 -.00735 
52.249205 4.083863 -3.949812 2.406192 2.059795 -3.7613E-4 -3.8714E-4 -2.4805E-5 8.95974E-6 .131218 -.006952 
52.339955 4.83582 -4.319461 2.049599 1.861663 -4.1133E-4 -3.8714E-4 -2.3991E-5 8.95974E-6 .142774 -.00635 
52.538455 4.894376 4.0589 1.995453 -1.559456 -4.1722E-4 3.29671E-4 -2.6238E-5 -3.2207E-5 .143377 -.00605 
52.586205 4.514139 3.88807 2.14862 -1.641745 -4.0144E-4 3.29671E-4 -2.7779E-5 -3.2207E-5 .137577 -.006218 
52.629205 4.185717 3.734234 2.293289 -1.715849 -3.8724E-4 3.29671E-4 -2.9167E-5 -3.2207E-5 .132354 -.006369 
52.689205 3.752633 3.460955 2.50312 -1.780118 -3.6751E-4 3.26761E-4 -3.1089E-5 -3.1739E-5 .125128 -.006581 
52.829205 2.849663 2.975795 3.035338 -2.013754 -3.2167E-4 3.26761E-4 -3.5542E-5 -3.1739E-5 .108406 -.007082 
52.889205 2.504345 2.767869 3.283497 -2.113883 -3.0202E-4 3.26761E-4 -3.3507E-5 9.94298E-5 .10124 -.0073 
52.989205 1.984375 2.421326 3.723852 -2.280765 -2.6928E-4 3.26761E-4 -2.3544E-5 9.94298E-5 .089295 -.007671 
53.049205 1.704175 2.242486 4.008816 -2.449066 -2.4957E-4 3.28944E-4 -1.7577E-5 9.90813E-5 .082084 -.007893 
53.097205 1.496644 2.072335 4.248441 -2.533026 -2.3375E-4 3.28944E-4 -1.2811E-5 9.90813E-5 .07628 -.008072 
53.138205 1.332339 1.926999 4.459516 -2.604742 -2.2023E-4 3.28944E-4 -8.7407E-6 9.90813E-5 .071323 -.008224 
53.149205 1.290289 1.888006 4.517148 -2.623983 -2.1661E-4 3.28944E-4 -7.6486E-6 9.90813E-5 .069993 -.008265 
54.149205 1.143962 -1.690624 4.215792 2.797979 -1.4978E-4 -1.8321E-4 7.75236E-5 5.41338E-5 .064777 -.006905 
54.160205 1.181641 -1.727798 4.154366 2.774896 -1.518E-4 -1.8321E-4 7.81203E-5 5.41338E-5 .065981 -.006837 
54.239805 1.47872 -1.996807 3.725031 2.607861 -1.6641E-4 -1.8321E-4 8.24381E-5 5.41338E-5 .074692 -.006351 
54.318605 1.811254 -2.21131 3.334105 2.347029 -1.8069E-4 -1.7823E-4 8.68073E-5 5.65618E-5 .083227 -.005877 
54.409205 2.239556 -2.506523 2.924051 2.16981 -1.9687E-4 -1.7823E-4 9.19422E-5 5.65618E-5 .092935 -.00534 
54.469205 2.552701 -2.702028 2.670202 2.052446 -2.0758E-4 -1.7823E-4 9.53428E-5 5.65618E-5 .099364 -.004985 
54.609205 3.374796 -3.158206 2.13277 1.778597 -2.3258E-4 -1.7823E-4 1.03277E-4 5.65618E-5 .114366 -.004155 
54.669205 3.766302 -3.353711 1.925962 1.661233 -2.4266E-4 -1.57E-4 1.06678E-4 5.65618E-5 .120795 -.003799 
54.759905 4.402757 -3.649249 1.640129 1.483818 -2.5693E-4 -1.57E-4 1.11819E-4 5.65618E-5 .130512 -.003262 
54.958505 4.390479 3.704048 1.594348 -1.229087 -2.4579E-4 2.65848E-4 1.42407E-4 2.59429E-4 .129931 -.002586 
55.006205 4.044056 3.5438 1.715438 -1.304353 -2.3308E-4 2.65848E-4 1.54807E-4 2.59429E-4 .12455 -.002536 
55.049205 3.744897 3.399342 1.830763 -1.372204 -2.2163E-4 2.65848E-4 1.65985E-4 2.59429E-4 .119699 -.002491 
55.109205 3.349673 3.16867 2.000175 -1.449218 -2.0565E-4 2.65531E-4 1.81537E-4 2.57904E-4 .112961 -.002402 
55.409205 1.742461 2.177872 3.01153 -1.915153 -1.2583E-4 2.65531E-4 2.59065E-4 2.57904E-4 .079419 -.001829 
55.469205 1.492436 1.990932 3.250209 -2.033597 -1.0992E-4 2.63661E-4 2.74632E-4 2.59954E-4 .072694 -.001755 
55.517205 1.308614 1.830961 3.449485 -2.109593 -9.7242E-5 2.63661E-4 2.87135E-4 2.59954E-4 .067301 -.001728 
55.558205 1.163784 1.69432 3.625489 -2.174507 -8.641E-5 2.63661E-4 2.97815E-4 2.59954E-4 .062694 -.001705 
55.569205 1.126838 1.65766 3.673617 -2.191923 -8.3504E-5 2.63661E-4 3.0068E-4 2.59954E-4 .061458 -.001699 
56.569205 1.306364 -1.899755 3.581077 2.245274 -1.2483E-5 -1.0878E-4 3.55169E-4 -1.6193E-4 .06112 -1.3428E-4 
56.580205 1.348671 -1.938643 3.531786 2.22668 -1.3682E-5 -1.0878E-4 3.53384E-4 -1.6193E-4 .062347 -1.0999E-4 
56.659805 1.680374 -2.220054 3.187313 2.092123 -2.2359E-5 -1.0878E-4 3.40469E-4 -1.6193E-4 .071225 6.57819E-5 
56.738605 2.048624 -2.440029 2.874192 1.876607 -3.092E-5 -1.0802E-4 3.28064E-4 -1.5234E-4 .079931 2.39538E-4 
56.829205 2.519628 -2.748179 2.546428 1.733787 -4.0726E-5 -1.0802E-4 3.14235E-4 -1.5234E-4 .089839 4.39125E-4 
56.889205 2.862347 -2.952248 2.343638 1.639204 -4.722E-5 -1.0801E-4 2.96159E-4 -4.4896E-4 .0964 5.80241E-4 
57.029205 3.757449 -3.428418 1.914691 1.418512 -6.2372E-5 -1.0801E-4 2.33177E-4 -4.4896E-4 .111711 9.3035E-4 
57.089205 4.181961 -3.632491 1.749811 1.323929 -6.7606E-5 -6.61E-5 2.06185E-4 -4.4896E-4 .118271 .00108 
57.179905 4.870266 -3.94098 1.522159 1.180951 -7.3614E-5 -6.61E-5 1.65381E-4 -4.4896E-4 .128186 .001307 
57.378505 4.819094 4.169369 1.565256 -1.420753 -7.4402E-5 5.84001E-5 9.88727E-5 -2.3809E-4 .128415 .002026 
57.426205 4.429246 3.987037 1.705476 -1.512927 -7.1611E-5 5.84001E-5 8.74927E-5 -2.3809E-4 .123307 .002263 
57.469205 4.092748 3.822671 1.839431 -1.596019 -6.9095E-5 5.84001E-5 7.7234E-5 -2.3809E-4 .118703 .002476 
57.529205 3.647267 3.582951 2.037847 -1.706364 -6.5583E-5 5.84081E-5 6.29136E-5 -2.3829E-4 .112288 .002784 
57.829205 1.835983 2.442462 3.237195 -2.283384 -4.8025E-5 5.84081E-5 -8.7168E-6 -2.3829E-4 .080261 .00437 
57.889205 1.555683 2.219009 3.519273 -2.409409 -4.4512E-5 5.84692E-5 -2.3044E-5 -2.3833E-4 .073849 .004689 
57.937205 1.351036 2.035856 3.755518 -2.502415 -4.1699E-5 5.84692E-5 -3.4507E-5 -2.3833E-4 .068714 .004948 
57.978205 1.190185 1.879413 3.964396 -2.581858 -3.9297E-5 5.84692E-5 -4.4299E-5 -2.3833E-4 .064328 .005168 
57.989205 1.149217 1.83744 4.021546 -2.603172 -3.8653E-5 5.84692E-5 -4.6926E-5 -2.3833E-4 .063151 .005227 
58.989205 1.360901 -2.123003 4.215178 2.491543 -1.8641E-4 -3.8067E-4 -2.1739E-4 -6.8302E-5 .070194 .006739 
59.000205 1.408194 -2.167607 4.160461 2.472695 -1.906E-4 -3.8067E-4 -2.1814E-4 -6.8302E-5 .071542 .006711 
59.079805 1.77972 -2.490376 3.776889 2.336306 -2.2097E-4 -3.8067E-4 -2.2359E-4 -6.8302E-5 .081297 .006511 
59.158605 2.193602 -2.747162 3.42663 2.103137 -2.5076E-4 -3.739E-4 -2.2924E-4 -7.4798E-5 .090858 .00632 
59.249205 2.724508 -3.10088 3.057814 1.959458 -2.8471E-4 -3.739E-4 -2.3603E-4 -7.4798E-5 .101737 .006109 
59.309205 3.11145 -3.335126 2.827924 1.864306 -3.0719E-4 -3.739E-4 -2.3115E-4 2.37025E-4 .108941 .00596 
59.449205 4.123853 -3.881709 2.336007 1.642285 -3.5964E-4 -3.739E-4 -1.979E-4 2.37025E-4 .12575 .00559 
59.509205 4.604685 -4.115959 2.144254 1.547133 -3.818E-4 -3.6319E-4 -1.8365E-4 2.37025E-4 .132954 .005431 
59.599905 5.385015 -4.470066 1.876108 1.403295 -4.148E-4 -3.6319E-4 -1.6211E-4 2.37025E-4 .143843 .005192 
59.798505 5.369231 4.540514 1.939143 -1.75403 -4.175E-4 3.36883E-4 -1.3952E-4 -3.6727E-6 .143553 .005533 
59.846205 4.944386 4.348087 2.111619 -1.854512 -4.014E-4 3.36883E-4 -1.397E-4 -3.6727E-6 .137691 .005827 
59.889205 4.577167 4.17462 2.275333 -1.945093 -3.8688E-4 3.36883E-4 -1.3986E-4 -3.6727E-6 .132407 .006093 
59.949205 4.094697 3.870231 2.515153 -2.033542 -3.667E-4 3.34367E-4 -1.4001E-4 -1.5047E-6 .125094 .006437 
60.249205 2.120485 2.697174 3.922251 -2.647305 -2.6619E-4 3.34367E-4 -1.4046E-4 -1.5047E-6 .088815 .008036 
60.309205 1.807622 2.491617 4.250422 -2.839183 -2.4604E-4 3.35863E-4 -1.4063E-4 -3.8525E-6 .081518 .008383 
60.357205 1.577168 2.299823 4.528467 -2.941715 -2.2989E-4 3.35863E-4 -1.4081E-4 -3.8525E-6 .075649 .008683 
60.398205 1.394931 2.135998 4.773774 -3.029295 -2.1609E-4 3.35863E-4 -1.4097E-4 -3.8525E-6 .070635 .008939 
60.409205 1.348328 2.092045 4.840812 -3.052792 -2.1239E-4 3.35863E-4 -1.4101E-4 -3.8525E-6 .06929 .009008 
61.409205 1.151485 -1.82653 4.87958 3.030244 -1.3462E-4 -1.6628E-4 -6.9878E-5 1.31808E-4 .061996 .009333 
61.420205 1.192208 -1.868037 4.813033 3.007244 -1.3645E-4 -1.6628E-4 -6.8426E-5 1.31808E-4 .063165 .00927 
61.499805 1.514159 -2.168398 4.346585 2.840803 -1.4972E-4 -1.6628E-4 -5.7912E-5 1.31808E-4 .071622 .008814 
61.578605 1.87612 -2.412101 3.920182 2.563755 -1.6267E-4 -1.618E-4 -4.7567E-5 1.30295E-4 .079911 .008374 
61.669205 2.34403 -2.742028 3.470609 2.388383 -1.7736E-4 -1.618E-4 -3.5738E-5 1.30295E-4 .089339 .007878 
61.729205 2.686875 -2.960521 3.190405 2.272243 -1.8709E-4 -1.618E-4 -3.4566E-5 -9.128E-5 .095582 .007556 
61.869205 3.589019 -3.470341 2.590905 2.001249 -2.0979E-4 -1.618E-4 -4.7371E-5 -9.128E-5 .110151 .006821 
61.929205 4.01944 -3.688836 2.357251 1.885109 -2.1827E-4 -1.2028E-4 -5.2859E-5 -9.128E-5 .116394 .006506 
62.019905 4.719968 -4.019126 2.030556 1.709544 -2.292E-4 -1.2028E-4 -6.1154E-5 -9.128E-5 .125829 .00603 
62.218505 4.746002 3.902932 2.014981 -1.622881 -2.1553E-4 2.53792E-4 -9.0545E-5 -2.1233E-4 .12541 .005952 
62.266205 4.380722 3.739452 2.174237 -1.709075 -2.034E-4 2.53792E-4 -1.0069E-4 -2.1233E-4 .120253 .006165 
62.309205 4.064827 3.59208 2.324863 -1.786777 -1.9246E-4 2.53792E-4 -1.0984E-4 -2.1233E-4 .115604 .006356 
62.369205 3.645766 3.357844 2.544211 -1.875028 -1.7722E-4 2.53367E-4 -1.2258E-4 -2.1145E-4 .109142 .006605 
62.669205 1.931233 2.345713 3.831895 -2.408578 -1.0105E-4 2.53367E-4 -1.8614E-4 -2.1145E-4 .076955 .007764 
62.729205 1.662193 2.154961 4.133134 -2.54304 -8.5847E-5 2.52444E-4 -1.9889E-4 -2.1262E-4 .070506 .008025 
62.777205 1.462752 1.991651 4.381939 -2.629934 -7.3705E-5 2.52444E-4 -2.0912E-4 -2.1262E-4 .06534 .008257 
62.818205 1.304837 1.852156 4.60108 -2.704156 -6.3334E-5 2.52444E-4 -2.1785E-4 -2.1262E-4 .060926 .008456 
62.829205 1.26442 1.814731 4.660911 -2.724069 -6.0551E-5 2.52444E-4 -2.202E-4 -2.1262E-4 .059742 .008509 
63.829205 1.156183 -1.668725 4.366539 2.894013 1.12396E-5 -9.5885E-5 -2.7832E-4 1.08056E-4 .063985 .007819 
63.840205 1.193367 -1.704806 4.303003 2.870347 1.01828E-5 -9.5885E-5 -2.7713E-4 1.08056E-4 .06527 .007753 
63.919805 1.486146 -1.965896 3.858778 2.699093 2.5349E-6 -9.5885E-5 -2.6851E-4 1.08056E-4 .074569 .007272 
63.998605 1.813172 -2.172499 3.454056 2.43065 -5.0364E-6 -9.5849E-5 -2.6028E-4 1.0047E-4 .083687 .006805 
64.089205 2.233624 -2.458881 3.029214 2.249084 -1.3738E-5 -9.5849E-5 -2.5116E-4 1.0047E-4 .094065 .006277 
64.149205 2.54069 -2.648536 2.766006 2.128842 -1.95E-5 -9.5849E-5 -2.3873E-4 3.13044E-4 .100938 .005922 
64.289205 3.345862 -3.091067 2.208082 1.848277 -3.2946E-5 -9.5849E-5 -1.9482E-4 3.13044E-4 .116975 .005076 
64.349205 3.728944 -3.280724 1.993068 1.728035 -3.6523E-5 -2.3119E-5 -1.76E-4 3.13044E-4 .123845 .004714 
64.439905 4.351328 -3.567421 1.695487 1.546269 -3.8624E-5 -2.3119E-5 -1.4755E-4 3.13044E-4 .134228 .004166 
64.638505 4.32465 3.686491 1.641309 -1.244814 -3.6858E-5 4.03715E-5 -1.0657E-4 1.10265E-4 .134475 .003621 
64.686205 3.979954 3.525238 1.763854 -1.31906 -3.4928E-5 4.03715E-5 -1.013E-4 1.10265E-4 .129129 .00364 
64.729205 3.682433 3.379874 1.880406 -1.385991 -3.3188E-5 4.03715E-5 -9.6547E-5 1.10265E-4 .124311 .003656 
64.789205 3.288321 3.172199 2.052388 -1.476453 -3.0756E-5 4.05293E-5 -8.9914E-5 1.10387E-4 .117591 .003665 
65.089205 1.685161 2.16087 3.080062 -1.942206 -1.8573E-5 4.05293E-5 -5.673E-5 1.10387E-4 .084016 .00364 
65.149205 1.437393 1.960526 3.319485 -2.039245 -1.6139E-5 4.0446E-5 -5.0096E-5 1.10327E-4 .077299 .003644 
65.197205 1.256597 1.79845 3.519244 -2.113989 -1.4194E-5 4.0446E-5 -4.4789E-5 1.10327E-4 .071923 .003654 
65.238205 1.114513 1.66001 3.695565 -2.177832 -1.2532E-5 4.0446E-5 -4.0257E-5 1.10327E-4 .067331 .003662 
65.249205 1.078328 1.622868 3.743763 -2.194961 -1.2086E-5 4.0446E-5 -3.9041E-5 1.10327E-4 .066099 .003664 
66.249205 1.377693 -2.026682 3.581922 2.288697 -1.65E-4 -3.7391E-4 7.18786E-5 8.91996E-5 .068941 .001945 
66.260205 1.42282 -2.067544 3.531681 2.269501 -1.6912E-4 -3.7391E-4 7.28618E-5 8.91996E-5 .070244 .001908 
66.339805 1.776225 -2.363238 3.180724 2.130592 -1.9895E-4 -3.7391E-4 7.99765E-5 8.91996E-5 .079668 .001638 
66.418605 2.167952 -2.593937 2.861844 1.911124 -2.2823E-4 -3.6778E-4 8.71127E-5 9.15966E-5 .088903 .001373 
66.509205 2.668306 -2.91757 2.528246 1.763541 -2.6162E-4 -3.6778E-4 9.54281E-5 9.15966E-5 .099409 .001069 
66.569205 3.032009 -3.131895 2.322068 1.665803 -2.8373E-4 -3.6778E-4 9.46329E-5 -1.1805E-4 .106367 8.74764E-4 
66.709205 3.980871 -3.631989 1.886691 1.43775 -3.3533E-4 -3.6778E-4 7.80726E-5 -1.1805E-4 .122601 4.35416E-4 
66.769205 4.430478 -3.846316 1.719688 1.340012 -3.5588E-4 -3.1603E-4 7.09754E-5 -1.1805E-4 .129557 2.47125E-4 
66.859905 5.159058 -4.170306 1.489545 1.192266 -3.846E-4 -3.1603E-4 6.02466E-5 -1.1805E-4 .14007 -3.751E-5 
67.058505 5.102374 4.423295 1.517574 -1.348224 -3.8319E-4 3.29791E-4 4.55653E-5 -3.3614E-5 .139604 -7.0996E-4 
67.106205 4.688745 4.230647 1.650697 -1.436969 -3.6743E-4 3.29791E-4 4.39587E-5 -3.3614E-5 .133857 -8.921E-4 
67.149205 4.331655 4.056981 1.777973 -1.51697 -3.5322E-4 3.29791E-4 4.25104E-5 -3.3614E-5 .128676 -.001056 
67.209205 3.861329 3.759705 1.96521 -1.600761 -3.3347E-4 3.27402E-4 4.04716E-5 -3.42E-5 .121502 -.001278 
67.509205 1.955144 2.581403 3.09142 -2.145687 -2.3505E-4 3.27402E-4 3.01909E-5 -3.42E-5 .08589 -.002355 
67.569205 1.657531 2.37032 3.359265 -2.304123 -2.1531E-4 3.29029E-4 2.81479E-5 -3.3771E-5 .078731 -.002576 
67.617205 1.438756 2.178271 3.585253 -2.394453 -1.9949E-4 3.29029E-4 2.65236E-5 -3.3771E-5 .072975 -.002757 
67.658205 1.266516 2.014229 3.785166 -2.471611 -1.8597E-4 3.29029E-4 2.51362E-5 -3.3771E-5 .068058 -.002912 
67.669205 1.222598 1.970218 3.83988 -2.492312 -1.8234E-4 3.29029E-4 2.47639E-5 -3.3771E-5 .066739 -.002954 
68.669205 1.303483 -2.079267 4.050936 2.370216 -9.4139E-5 -1.3668E-4 -1.5939E-5 -3.9448E-5 .060685 -.004499 
68.680205 1.349816 -2.124282 3.998884 2.352209 -9.5646E-5 -1.3668E-4 -1.6374E-5 -3.9448E-5 .061857 -.004487 
68.759805 1.714668 -2.450022 3.634047 2.221905 -1.0655E-4 -1.3668E-4 -1.9521E-5 -3.9448E-5 .070341 -.004406 
68.838605 2.122566 -2.711792 3.301081 1.998354 -1.1721E-4 -1.3347E-4 -2.2659E-5 -4.0054E-5 .078656 -.004329 
68.929205 2.647374 -3.06909 2.950713 1.861029 -1.2933E-4 -1.3347E-4 -2.6295E-5 -4.0054E-5 .088118 -.004248 
68.989205 3.030637 -3.305711 2.732405 1.770086 -1.3736E-4 -1.3347E-4 -2.7182E-5 1.05422E-5 .094384 -.004195 
69.129205 4.035563 -3.857827 2.265545 1.557884 -1.5608E-4 -1.3347E-4 -2.5703E-5 1.05422E-5 .109004 -.004075 
69.189205 4.513666 -4.094449 2.083688 1.466941 -1.6413E-4 -1.3435E-4 -2.5069E-5 1.05422E-5 .11527 -.004024 
69.279905 5.290412 -4.452141 1.829541 1.329465 -1.7634E-4 -1.3435E-4 -2.4111E-5 1.05422E-5 .124742 -.003947 
69.478505 5.297969 4.41841 1.908765 -1.770278 -1.7371E-4 1.6008E-4 -2.5936E-5 -2.9394E-5 .124581 -.004425 
69.526205 4.884449 4.233264 2.082939 -1.873793 -1.6606E-4 1.6008E-4 -2.7341E-5 -2.9394E-5 .119524 -.004702 
69.569205 4.526842 4.066361 2.248432 -1.967109 -1.5916E-4 1.6008E-4 -2.8608E-5 -2.9394E-5 .114966 -.004951 
69.629205 4.05354 3.807852 2.491892 -2.081682 -1.4955E-4 1.59608E-4 -3.0369E-5 -2.9207E-5 .108627 -.005303 
69.929205 2.109735 2.658403 3.936838 -2.725073 -1.0157E-4 1.59608E-4 -3.9149E-5 -2.9207E-5 .07704 -.007074 
69.989205 1.803108 2.439704 4.273673 -2.880312 -9.1965E-5 1.59861E-4 -4.0913E-5 -2.946E-5 .070708 -.007424 
70.037205 1.577342 2.254258 4.555775 -2.984934 -8.4276E-5 1.59861E-4 -4.233E-5 -2.946E-5 .06563 -.0077 
70.078205 1.398626 2.095856 4.804706 -3.074299 -7.7708E-5 1.59861E-4 -4.354E-5 -2.946E-5 .061293 -.007936 
70.089205 1.352892 2.053358 4.872742 -3.098275 -7.5946E-5 1.59861E-4 -4.3865E-5 -2.946E-5 .06013 -.008 
71.089205 1.123617 -1.744157 4.951366 3.052948 -1.2499E-4 -2.6681E-4 -4.4883E-5 2.76286E-5 .066806 -.008517 
71.100205 1.162503 -1.783808 4.884318 3.029973 -1.2793E-4 -2.6681E-4 -4.4579E-5 2.76286E-5 .068131 -.008464 
71.179805 1.469946 -2.07074 4.41423 2.863721 -1.4921E-4 -2.6681E-4 -4.2375E-5 2.76286E-5 .077717 -.00808 
71.258605 1.815559 -2.302878 3.984341 2.585019 -1.701E-4 -2.6223E-4 -4.0241E-5 2.64434E-5 .087115 -.007709 
71.349205 2.262299 -2.618059 3.530878 2.409977 -1.9391E-4 -2.6223E-4 -3.784E-5 2.64434E-5 .09781 -.007292 
71.409205 2.589652 -2.826789 3.248064 2.294055 -2.0968E-4 -2.6223E-4 -3.3675E-5 1.12108E-4 .104893 -.007018 
71.549205 3.451078 -3.313824 2.642373 2.02357 -2.4646E-4 -2.6223E-4 -1.7948E-5 1.12108E-4 .12142 -.006386 
71.609205 3.862092 -3.522553 2.406022 1.907648 -2.6063E-4 -2.0912E-4 -1.1208E-5 1.12108E-4 .128502 -.006115 
71.699905 4.531053 -3.838083 2.0752 1.732413 -2.7964E-4 -2.0912E-4 -1.0194E-6 1.12108E-4 .139204 -.005706 
71.898505 4.54904 3.757806 2.064462 -1.672668 -2.7472E-4 2.57164E-4 2.23314E-5 1.29113E-4 .139285 -.005717 
71.946205 4.197413 3.598929 2.228561 -1.760596 -2.6243E-4 2.57164E-4 2.85026E-5 1.29113E-4 .133694 -.005938 
71.989205 3.893449 3.455707 2.383694 -1.839859 -2.5135E-4 2.57164E-4 3.40657E-5 1.29113E-4 .128654 -.006138 
72.049205 3.49249 3.221186 2.610296 -1.924582 -2.3592E-4 2.55973E-4 4.1817E-5 1.28734E-4 .12166 -.006408 
72.349205 1.850209 2.242021 3.93023 -2.466307 -1.5897E-4 2.55973E-4 8.05154E-5 1.28734E-4 .086874 -.007721 
72.409205 1.590807 2.061297 4.23426 -2.615271 -1.4357E-4 2.56488E-4 8.82801E-5 1.29566E-4 .079892 -.008 
72.457205 1.400154 1.902598 4.490117 -2.704322 -1.3123E-4 2.56488E-4 9.45118E-5 1.29566E-4 .074289 -.008236 
72.498205 1.249394 1.767042 4.715445 -2.780386 -1.207E-4 2.56488E-4 9.98348E-5 1.29566E-4 .069502 -.008438 
72.509205 1.210842 1.730674 4.776963 -2.800794 -1.1787E-4 2.56488E-4 1.01263E-4 1.29566E-4 .068218 -.008492 
73.509205 1.204386 -1.721949 4.482081 2.971099 -7.6812E-5 -1.6695E-4 1.54025E-4 -3.4652E-5 .066835 -.007945 
73.520205 1.242746 -1.758236 4.416851 2.946931 -7.8652E-5 -1.6695E-4 1.53643E-4 -3.4652E-5 .068085 -.00788 
73.599805 1.544168 -2.020828 3.960699 2.772046 -9.1968E-5 -1.6695E-4 1.5088E-4 -3.4652E-5 .077133 -.007414 
73.678605 1.879841 -2.227005 3.544954 2.497405 -1.0504E-4 -1.6413E-4 1.48313E-4 -3.036E-5 .085999 -.006961 
73.769205 2.31032 -2.51481 3.108334 2.31207 -1.1994E-4 -1.6413E-4 1.45557E-4 -3.036E-5 .096084 -.006449 
73.829205 2.624167 -2.70541 2.837703 2.189332 -1.2981E-4 -1.6413E-4 1.45195E-4 1.83231E-5 .102763 -.006112 
73.969205 3.445605 -3.150142 2.263624 1.902943 -1.5283E-4 -1.6413E-4 1.47766E-4 1.83231E-5 .118347 -.005328 
74.029205 3.835847 -3.340742 2.042187 1.780206 -1.5811E-4 -1.1495E-5 1.48868E-4 1.83231E-5 .125021 -.004992 
74.119905 4.46927 -3.628865 1.735467 1.594666 -1.5916E-4 -1.1495E-5 1.50533E-4 1.83231E-5 .135104 -.004484 
74.318505 4.428203 3.812153 1.673916 -1.252186 -1.3609E-4 2.36842E-4 1.7958E-4 2.81748E-4 .134569 -.004089 
74.366205 4.071801 3.6445 1.797121 -1.325511 -1.2477E-4 2.36842E-4 1.93047E-4 2.81748E-4 .129018 -.004161 
74.409205 3.764251 3.493367 1.914194 -1.391611 -1.1456E-4 2.36842E-4 2.05187E-4 2.81748E-4 .124013 -.004227 
74.469205 3.358008 3.26866 2.086672 -1.474841 -1.003E-4 2.37543E-4 2.22097E-4 2.80805E-4 .117046 -.004285 
74.769205 1.707263 2.2227 3.110872 -1.932257 -2.8895E-5 2.37543E-4 3.06509E-4 2.80805E-4 .082279 -.004415 
74.829205 1.452594 2.014351 3.34918 -2.028228 -1.4709E-5 2.34323E-4 3.23406E-4 2.81251E-4 .075325 -.004491 
74.877205 1.26688 1.846888 3.547817 -2.101665 -3.4383E-6 2.34323E-4 3.36934E-4 2.81251E-4 .069762 -.00459 
74.918205 1.121005 1.703846 3.723079 -2.164393 6.18841E-6 2.34323E-4 3.48488E-4 2.81251E-4 .06501 -.004674 
74.929205 1.083867 1.665468 3.770978 -2.181222 8.77118E-6 2.34323E-4 3.51589E-4 2.81251E-4 .063735 -.004697 
75.929205 1.388166 -2.075827 3.558917 2.303597 1.01836E-4 -3.1373E-5 3.96701E-4 -2.0009E-4 .06051 -.003679 
75.940205 1.434392 -2.117982 3.50835 2.284065 1.0149E-4 -3.1373E-5 3.94496E-4 -2.0009E-4 .061707 -.003636 
76.019805 1.796588 -2.42303 3.155264 2.142724 9.8988E-5 -3.1373E-5 3.78536E-4 -2.0009E-4 .070363 -.003329 
76.098605 2.198428 -2.662121 2.834598 1.921633 9.63995E-5 -3.4177E-5 3.63161E-4 -1.8945E-4 .07885 -.003029 
76.189205 2.712098 -2.996067 2.499337 1.771341 9.32968E-5 -3.4177E-5 3.45962E-4 -1.8945E-4 .088508 -.002688 
76.249205 3.08565 -3.217221 2.29233 1.67181 9.1242E-5 -3.4177E-5 3.28283E-4 -3.9866E-4 .094904 -.002457 
76.389205 4.060687 -3.733251 1.855854 1.439571 8.64476E-5 -3.4177E-5 2.72357E-4 -3.9866E-4 .109829 -.001901 
76.449205 4.522881 -3.954407 1.68874 1.34004 8.84168E-5 9.96853E-5 2.48389E-4 -3.9866E-4 .116221 -.001663 
76.539905 5.272047 -4.288721 1.458838 1.189582 9.74766E-5 9.96853E-5 2.12157E-4 -3.9866E-4 .125878 -.001303 
76.738505 5.223977 4.503264 1.478353 -1.298166 1.00813E-4 -6.7101E-5 1.64033E-4 -9.847E-5 .125965 -7.2239E-4 
76.786205 4.802801 4.308569 1.606598 -1.384982 9.76053E-5 -6.7101E-5 1.59327E-4 -9.847E-5 .120927 -6.2437E-4 
76.829205 4.439076 4.133058 1.72932 -1.463244 9.47141E-5 -6.7101E-5 1.55084E-4 -9.847E-5 .116386 -5.3601E-4 
76.889205 3.953712 3.900797 1.911204 -1.578919 9.0689E-5 -6.6802E-5 1.49181E-4 -9.789E-5 .110035 -3.912E-4 
77.189205 1.979127 2.66785 3.025628 -2.12832 7.06077E-5 -6.6802E-5 1.19755E-4 -9.789E-5 .078219 4.37477E-4 
77.249205 1.674501 2.415428 3.289003 -2.22451 6.65826E-5 -6.7094E-5 1.13854E-4 -9.8412E-5 .071866 5.85624E-4 
77.297205 1.451592 2.219124 3.507172 -2.311498 6.33556E-5 -6.7094E-5 1.0912E-4 -9.8412E-5 .066791 6.90617E-4 
77.338205 1.276144 2.051448 3.700151 -2.385801 6.05992E-5 -6.7094E-5 1.05077E-4 -9.8412E-5 .062456 7.80299E-4 
77.349205 1.231416 2.006462 3.752965 -2.405735 5.98596E-5 -6.7094E-5 1.03993E-4 -9.8412E-5 .061293 8.0436E-4 
78.349205 1.313318 -2.117023 3.918216 2.31062 -1.7763E-4 -4.508E-4 -3.1384E-5 -1.4511E-4 .068597 .002145 
78.360205 1.360494 -2.16303 3.867476 2.292788 -1.826E-4 -4.508E-4 -3.2983E-5 -1.4511E-4 .069939 .002149 
78.439805 1.7321 -2.495953 3.512017 2.163749 -2.1856E-4 -4.508E-4 -4.4557E-5 -1.4511E-4 .079648 .002175 
78.518605 2.147762 -2.764117 3.187873 1.944695 -2.5389E-4 -4.4402E-4 -5.607E-5 -1.4656E-4 .089165 .002204 
78.609205 2.68279 -3.129334 2.847143 1.808519 -2.942E-4 -4.4402E-4 -6.9375E-5 -1.4656E-4 .099995 .002241 
78.669205 3.073612 -3.371195 2.635103 1.718336 -3.209E-4 -4.4402E-4 -6.9123E-5 1.54916E-4 .107167 .002256 
78.809205 4.098628 -3.935548 2.182514 1.50791 -3.8319E-4 -4.4402E-4 -4.7391E-5 1.54916E-4 .123902 .00227 
78.869205 4.586392 -4.177413 2.00662 1.417727 -4.0912E-4 -4.1849E-4 -3.8077E-5 1.54916E-4 .131073 .002275 
78.959905 5.378938 -4.543033 1.761314 1.2814 -4.4715E-4 -4.1849E-4 -2.3998E-5 1.54916E-4 .141913 .002284 
79.158505 5.392579 4.482147 1.838767 -1.712362 -4.5514E-4 3.40451E-4 4.48739E-6 1.39348E-4 .141821 .00269 
79.206205 4.973051 4.295221 2.007342 -1.814574 -4.3887E-4 3.40451E-4 1.11477E-5 1.39348E-4 .136077 .002885 
79.249205 4.610174 4.126714 2.167682 -1.906716 -4.242E-4 3.40451E-4 1.71518E-5 1.39348E-4 .130899 .003061 
79.309205 4.132715 3.821508 2.402395 -1.994417 -4.0384E-4 3.36936E-4 2.55193E-5 1.38985E-4 .123741 .003308 
79.609205 2.176358 2.686501 3.788702 -2.617268 -3.0255E-4 3.36936E-4 6.72992E-5 1.38985E-4 .08827 .004553 
79.669205 1.864349 2.49461 4.114807 -2.820223 -2.8221E-4 3.39559E-4 7.56959E-5 1.40348E-4 .081125 .004792 
79.717205 1.633344 2.308266 4.39113 -2.924881 -2.6588E-4 3.39559E-4 8.24462E-5 1.40348E-4 .075371 .004977 
79.758205 1.450222 2.149097 4.635129 -3.014276 -2.5193E-4 3.39559E-4 8.82121E-5 1.40348E-4 .070456 .005134 
79.769205 1.403317 2.106394 4.701841 -3.03826 -2.4819E-4 3.39559E-4 8.97591E-5 1.40348E-4 .069138 .005177 
80.769205 1.076338 -1.665368 4.866822 2.94281 -1.8822E-4 -2.0877E-4 1.5741E-4 -1.8649E-5 .064642 .005682 
80.780205 1.113476 -1.70401 4.802191 2.920932 -1.9052E-4 -2.0877E-4 1.57204E-4 -1.8649E-5 .065852 .005649 
80.859805 1.407608 -1.983639 4.348864 2.762615 -2.0717E-4 -2.0877E-4 1.55717E-4 -1.8649E-5 .074607 .005412 
80.938605 1.739057 -2.210738 3.934196 2.493199 -2.2341E-4 -2.0259E-4 1.5442E-4 -1.42E-5 .083186 .005182 
81.029205 2.168355 -2.518074 3.49663 2.326685 -2.4181E-4 -2.0259E-4 1.53131E-4 -1.42E-5 .092944 .004925 
81.089205 2.483372 -2.721608 3.223492 2.216411 -2.5399E-4 -2.0259E-4 1.53653E-4 3.15486E-5 .099407 .004754 
81.229205 3.313588 -3.19652 2.637736 1.959106 -2.8241E-4 -2.0259E-4 1.58078E-4 3.15486E-5 .114486 .00435 
81.289205 3.710184 -3.400054 2.408797 1.848832 -2.9203E-4 -1.1736E-4 1.59975E-4 3.15486E-5 .120946 .004177 
81.379905 4.356166 -3.70773 2.08789 1.682134 -3.0269E-4 -1.1736E-4 1.62842E-4 3.15486E-5 .130707 .003916 
81.578505 4.380793 3.597818 2.102252 -1.762048 -2.7682E-4 3.70084E-4 1.96726E-4 3.18477E-4 .130181 .00394 
81.626205 4.044137 3.445679 2.275153 -1.855375 -2.5913E-4 3.70084E-4 2.11948E-4 3.18477E-4 .124802 .004088 
81.669205 3.753118 3.30853 2.438663 -1.939506 -2.4318E-4 3.70084E-4 2.2567E-4 3.18477E-4 .119953 .004222 
81.729205 3.369277 3.085333 2.677797 -2.032038 -2.2093E-4 3.70114E-4 2.4475E-4 3.16234E-4 .113222 .004442 
82.029205 1.796458 2.146801 4.072579 -2.607836 -1.0967E-4 3.70114E-4 3.39812E-4 3.16234E-4 .07974 .005704 
82.089205 1.548202 1.968713 4.392675 -2.748596 -8.753E-5 3.66451E-4 3.58894E-4 3.18479E-4 .073024 .005905 
82.137205 1.366108 1.817238 4.66158 -2.842265 -6.9904E-5 3.66451E-4 3.74212E-4 3.18479E-4 .067637 .006025 
82.178205 1.222108 1.687853 4.898405 -2.922275 -5.4849E-5 3.66451E-4 3.87296E-4 3.18479E-4 .063036 .006128 
82.189205 1.185283 1.65314 4.963062 -2.943741 -5.081E-5 3.66451E-4 3.90806E-4 3.18479E-4 .061801 .006155 
83.189205 1.222462 -1.703188 4.698765 3.096029 1.64062E-4 1.0212E-4 4.45738E-4 -2.1963E-4 .061874 .005214 
83.200205 1.260395 -1.73836 4.630789 3.071198 1.65187E-4 1.0212E-4 4.43317E-4 -2.1963E-4 .063107 .005167 
83.279805 1.558003 -1.992877 4.155196 2.891511 1.73333E-4 1.0212E-4 4.25799E-4 -2.1963E-4 .072032 .00483 
83.358605 1.888607 -2.190801 3.721374 2.607061 1.81197E-4 9.7033E-5 4.08934E-4 -2.0765E-4 .080784 .0045 
83.449205 2.311693 -2.469583 3.265286 2.416858 1.90006E-4 9.7033E-5 3.90082E-4 -2.0765E-4 .090744 .004127 
83.509205 2.619743 -2.654205 2.982248 2.290895 1.9584E-4 9.70329E-5 3.73002E-4 -3.6054E-4 .09734 .003884 
83.649205 3.424858 -3.084994 2.38073 1.996983 2.09452E-4 9.70329E-5 3.22425E-4 -3.6054E-4 .112731 .003329 
83.709205 3.806907 -3.269617 2.148179 1.871022 2.21058E-4 2.89056E-4 3.00749E-4 -3.6054E-4 .119321 .003091 
83.799905 4.426581 -3.548706 1.825394 1.680608 2.47328E-4 2.89056E-4 2.67982E-4 -3.6054E-4 .129275 .002731 
83.998505 4.369014 3.805635 1.756735 -1.29858 2.62603E-4 -1.3986E-4 2.37204E-4 4.25943E-5 .129464 .002316 
84.046205 4.013317 3.636254 1.884364 -1.371668 2.55918E-4 -1.3986E-4 2.3924E-4 4.25943E-5 .124317 .002301 
84.089205 3.706545 3.483563 2.005405 -1.437555 2.49892E-4 -1.3986E-4 2.41075E-4 4.25943E-5 .119678 .002287 
84.149205 3.298398 3.304375 2.185097 -1.551273 2.41481E-4 -1.399E-4 2.4371E-4 4.50427E-5 .11317 .002303 
84.449205 1.638296 2.218118 3.25862 -2.019903 1.99428E-4 -1.399E-4 2.5725E-4 4.50427E-5 .080456 .00256 
84.509205 1.386016 1.982925 3.505031 -2.069608 1.90989E-4 -1.4083E-4 2.59859E-4 4.17501E-5 .073943 .002571 
84.557205 1.203502 1.811776 3.707602 -2.142107 1.84216E-4 -1.4083E-4 2.61867E-4 4.17501E-5 .068754 .002548 
84.598205 1.060641 1.665586 3.886155 -2.204033 1.7843E-4 -1.4083E-4 2.63582E-4 4.17501E-5 .064322 .002529 
84.609205 1.024357 1.626365 3.934925 -2.220648 1.76877E-4 -1.4083E-4 2.64042E-4 4.17501E-5 .063132 .002524 
85.609205 1.49489 -2.261072 3.613534 2.406741 -7.6574E-5 -4.1187E-4 1.59146E-4 -2.3046E-4 .068648 8.92464E-4 
85.620205 1.545231 -2.306141 3.560707 2.386022 -8.1113E-5 -4.1187E-4 1.56606E-4 -2.3046E-4 .069973 8.66271E-4 
85.699805 1.939125 -2.632276 3.192041 2.236094 -1.1396E-4 -4.1187E-4 1.38224E-4 -2.3046E-4 .079561 6.76723E-4 
85.778605 2.375285 -2.88718 2.857364 2.005856 -1.4634E-4 -4.0813E-4 1.20177E-4 -2.2675E-4 .08896 4.89633E-4 
85.869205 2.931894 -3.243995 2.507656 1.846251 -1.834E-4 -4.0813E-4 9.95917E-5 -2.2675E-4 .099654 2.75074E-4 
85.929205 3.336169 -3.480294 2.292012 1.740553 -2.0793E-4 -4.0813E-4 9.16143E-5 -3.8621E-5 .106736 1.27302E-4 
86.069205 4.389973 -4.031663 1.838268 1.493925 -2.6519E-4 -4.0813E-4 8.61964E-5 -3.8621E-5 .12326 -2.3069E-4 
86.129205 4.888959 -4.267964 1.664988 1.388227 -2.8536E-4 -2.6291E-4 8.38745E-5 -3.8621E-5 .130338 -3.8412E-4 
86.219955 5.697664 -4.62537 1.427052 1.228359 -3.0927E-4 -2.6291E-4 8.03625E-5 -3.8621E-5 .141036 -6.1618E-4 
86.418455 5.744838 4.413188 1.394928 -1.050484 -3.1261E-4 2.30147E-4 8.49637E-5 8.61042E-5 .14209 -.00126 
86.466205 5.330685 4.242649 1.498905 -1.122635 -3.016E-4 2.30147E-4 8.90835E-5 8.61042E-5 .136954 -.001455 
86.509205 4.971695 4.089075 1.598446 -1.18761 -2.9169E-4 2.30147E-4 9.27935E-5 8.61042E-5 .13233 -.001631 
86.569205 4.495389 3.821286 1.745181 -1.257645 -2.7789E-4 2.28667E-4 9.79367E-5 8.49877E-5 .125923 -.001861 
86.699705 3.555361 3.36744 2.099387 -1.451087 -2.4799E-4 2.28667E-4 1.0905E-4 8.49877E-5 .112084 -.002327 
86.778705 3.043976 3.092698 2.338393 -1.568189 -2.2989E-4 2.28667E-4 1.15778E-4 8.49877E-5 .103707 -.002609 
86.869205 2.511606 2.777962 2.634975 -1.702338 -2.0915E-4 2.28667E-4 1.23485E-4 8.49877E-5 .09411 -.002932 
86.929205 2.188866 2.599328 2.848027 -1.829201 -1.9538E-4 2.29483E-4 1.28644E-4 8.66506E-5 .087712 -.00317 
86.977205 1.947023 2.428889 3.027516 -1.902596 -1.8434E-4 2.29483E-4 1.32812E-4 8.66506E-5 .082565 -.003379 
87.018205 1.753431 2.283307 3.18642 -1.965287 -1.7492E-4 2.29483E-4 1.36372E-4 8.66506E-5 .078169 -.003558 
87.029205 1.703527 2.244248 3.229929 -1.982106 -1.7239E-4 2.29483E-4 1.37327E-4 8.66506E-5 .07699 -.003606 
88.029205 .850352 -1.093578 3.28289 1.951541 -1.9764E-4 -2.8455E-4 1.35945E-4 -8.9138E-5 .092475 -.005191 
88.040205 .874773 -1.122041 3.240047 1.935397 -2.0078E-4 -2.8455E-4 1.34963E-4 -8.9138E-5 .094027 -.005175 
88.119705 1.069926 -1.327755 2.940991 1.818716 -2.2344E-4 -2.8455E-4 1.27862E-4 -8.9138E-5 .105243 -.005055 
88.198705 1.319772 -1.849669 2.60954 2.340193 -2.4819E-4 -3.418E-4 1.19598E-4 -1.1925E-4 .117437 -.004887 
88.289205 1.682789 -2.153461 2.205516 2.11513 -2.7918E-4 -3.418E-4 1.08784E-4 -1.1925E-4 .132662 -.004638 
88.349205 1.953836 -2.35487 1.960158 1.965917 -2.9973E-4 -3.418E-4 1.00388E-4 -1.6003E-4 .142755 -.004472 
88.409205 2.249102 -2.556279 1.732741 1.816704 -3.2028E-4 -3.418E-4 9.07671E-5 -1.6003E-4 .152849 -.004305 
88.469205 2.568586 -2.757688 1.523266 1.667491 -3.4081E-4 -3.4123E-4 8.11459E-5 -1.6003E-4 .162942 -.004138 
88.509205 2.79503 -2.891961 1.393583 1.568016 -3.5449E-4 -3.4123E-4 7.47317E-5 -1.6003E-4 .169671 -.004027 
88.552205 3.050461 -3.036304 1.263069 1.46108 -3.6919E-4 -3.4123E-4 6.78365E-5 -1.6003E-4 .176905 -.003907 
88.599955 3.348685 -3.196592 1.128935 1.342331 -3.8552E-4 -3.4123E-4 6.01796E-5 -1.6003E-4 .184938 -.003774 
88.798455 3.262549 3.570311 1.065549 -.982141 -3.7494E-4 4.43966E-4 3.85943E-5 -6.4387E-5 .180567 -.003969 
88.889205 2.648067 3.187151 1.259414 -1.149799 -3.3457E-4 4.43966E-4 3.27393E-5 -6.4387E-5 .161442 -.004407 
88.949205 2.28203 2.903803 1.403265 -1.242086 -3.0794E-4 4.41863E-4 2.88556E-5 -6.4794E-5 .14886 -.004688 
89.049205 1.741592 2.489646 1.670379 -1.423657 -2.6366E-4 4.41863E-4 2.23631E-5 -6.4794E-5 .12799 -.005144 
89.109205 1.455615 2.264832 1.849883 -1.562821 -2.3703E-4 4.43896E-4 1.8478E-5 -6.4461E-5 .115407 -.005426 
89.157205 1.247492 2.062299 2.004523 -1.652324 -2.1568E-4 4.43896E-4 1.53776E-5 -6.4461E-5 .105294 -.005657 
89.198205 1.085148 1.889302 2.143429 -1.728774 -1.9745E-4 4.43896E-4 1.27294E-5 -6.4461E-5 .096656 -.005854 
89.209205 1.044011 1.842888 2.181765 -1.749285 -1.9255E-4 4.43896E-4 1.20189E-5 -6.4461E-5 .094338 -.005907 
90.209205 1.645256 -2.653677 3.092206 1.222996 2.73667E-5 3.56882E-5 -4.7104E-5 -4.1894E-5 -.003391 -.006756 
90.220205 1.704349 -2.707553 3.065343 1.2141 2.77601E-5 3.56882E-5 -4.7566E-5 -4.1894E-5 -.003425 -.006719 
90.439205 3.128042 -3.780191 2.571357 1.036987 3.55917E-5 3.56882E-5 -5.6759E-5 -4.1894E-5 -.004111 -.005991 
90.499205 3.600252 -4.074065 2.449584 .988463 3.77373E-5 3.56882E-5 -5.9278E-5 -4.1894E-5 -.004299 -.005791 
90.599205 4.465793 -4.563854 2.259595 .907589 4.13133E-5 3.56882E-5 -6.3476E-5 -4.1894E-5 -.004612 -.005458 
90.659205 5.032233 -4.857728 2.153381 .859066 4.16663E-5 -2.3946E-5 -6.5995E-5 -4.1894E-5 -.004798 -.005259 
90.702205 5.459918 -5.068337 2.08085 .82429 4.06346E-5 -2.3946E-5 -6.78E-5 -4.1894E-5 -.00493 -.005116 
90.749855 5.955052 -5.301721 2.003976 .785754 3.94913E-5 -2.3946E-5 -6.98E-5 -4.1894E-5 -.005076 -.004957 
90.948555 6.862455 1.054882 2.110857 -1.358234 3.09894E-5 -5.9983E-5 -8.5526E-5 -1.1878E-4 -.005162 -.004771 
91.160705 6.427875 .989434 2.749225 -1.644727 1.82381E-5 -5.9983E-5 -1.1078E-4 -1.1878E-4 -.004693 -.005073 
91.220705 6.310015 .970925 2.951863 -1.725753 1.46319E-5 -5.9983E-5 -1.1572E-4 -4.5807E-5 -.00456 -.00516 
91.339205 6.083781 .934368 3.380696 -1.885778 7.50946E-6 -5.9983E-5 -1.2116E-4 -4.5807E-5 -.004298 -.005338 
91.839205 5.224801 .780119 5.608584 -2.560992 -2.2543E-5 -5.9983E-5 -1.4411E-4 -4.5807E-5 -.003192 -.006085 
92.591705 4.223388 .547974 10.23692 -3.577189 -6.7772E-5 -5.9983E-5 -1.7865E-4 -4.5807E-5 -.001527 -.00721 
92.651705 4.158611 .529464 10.671923 -3.658215 -7.1378E-5 -5.9983E-5 -1.8129E-4 -4.178E-5 -.001395 -.0073 
92.762355 4.044988 .495328 11.499693 -3.80764 -7.8029E-5 -5.9983E-5 -1.8592E-4 -4.178E-5 -.00115 -.007466 
92.961055 4.442244 -2.584696 11.374093 4.408166 -9.5845E-5 -1.2116E-4 -1.8103E-4 9.032E-5 -7.7665E-4 -.007248 
93.011705 4.709057 -2.672447 10.931269 4.316996 -1.0199E-4 -1.2116E-4 -1.7644E-4 9.032E-5 -6.9593E-4 -.007061 
93.051705 4.926064 -2.741747 10.588095 4.244996 -1.0685E-4 -1.2116E-4 -1.7282E-4 9.032E-5 -6.3219E-4 -.006914 
94.299205 14.482256 -4.903046 2.782306 1.999503 -2.5831E-4 -1.2116E-4 -5.992E-5 9.032E-5 .001356 -.002331 
94.359205 15.078063 -5.006996 2.548373 1.891504 -2.6628E-4 -1.4407E-4 -5.4489E-5 9.032E-5 .001452 -.002111 
94.509755 16.62807 -5.267825 2.018568 1.620515 -2.8801E-4 -1.4407E-4 -4.0864E-5 9.032E-5 .001696 -.001557 
94.588655 16.923441 1.574006 1.83411 .738917 -2.9471E-4 -2.4873E-5 -3.435E-5 7.50012E-5 .00179 -.001291 
94.679205 16.639503 1.555362 1.706961 .662437 -2.9697E-4 -2.4873E-5 -2.7545E-5 7.50012E-5 .001861 -.001009 
94.699205 16.577245 1.551244 1.680748 .645544 -2.9747E-4 -2.4873E-5 -2.6042E-5 7.50012E-5 .001877 -9.4707E-4 
94.779205 16.329864 1.534772 1.582668 .577975 -2.9946E-4 -2.4873E-5 -2.003E-5 7.50012E-5 .00194 -6.9841E-4 
96.139205 12.528434 1.254748 1.57277 -.570711 -3.3336E-4 -2.4873E-5 8.21786E-5 7.50012E-5 .003003 .003529 
97.689755 9.125484 .935489 5.380943 -1.88034 -3.72E-4 -2.4873E-5 1.98707E-4 7.50012E-5 .004216 .008348 
97.768655 8.820379 2.899833 5.782538 -3.230637 -3.7068E-4 5.81459E-5 2.06409E-4 1.20179E-4 .004237 .008666 
97.859205 8.302938 2.803044 6.385074 -3.410095 -3.6541E-4 5.81459E-5 2.17313E-4 1.20179E-4 .004215 .009116 
97.879205 8.191018 2.781666 6.522549 -3.449732 -3.6424E-4 5.81459E-5 2.19722E-4 1.20179E-4 .00421 .009215 
97.959205 7.751905 2.696155 7.088333 -3.608281 -3.5958E-4 5.81459E-5 2.29356E-4 1.20179E-4 .00419 .009612 
98.024205 7.40522 2.626676 7.56675 -3.737102 -3.558E-4 5.81459E-5 2.37183E-4 1.20179E-4 .004174 .009935 
98.084205 7.093236 2.562542 8.023259 -3.856012 -3.4878E-4 1.75057E-4 2.44408E-4 1.20179E-4 .004155 .010233 
98.224205 6.395264 2.412897 9.144052 -4.133472 -3.2423E-4 1.75057E-4 2.61268E-4 1.20179E-4 .004104 .010928 
98.284205 6.108986 2.348768 9.648223 -4.252383 -3.137E-4 1.75057E-4 2.6146E-4 -1.1377E-4 .004082 .011232 
99.317355 2.389153 1.244432 20.572433 -6.29994 -1.3248E-4 1.75057E-4 1.43686E-4 -1.1377E-4 .003705 .016604 
99.516055 2.306227 -.804629 19.611396 10.850913 -1.0796E-4 7.47878E-5 1.09732E-4 -2.2236E-4 .003957 .016242 
99.546705 2.356324 -.826568 18.950599 10.664959 -1.0566E-4 7.47878E-5 1.02902E-4 -2.2236E-4 .004047 .015972 
99.566705 2.389741 -.840883 18.525568 10.543619 -1.0416E-4 7.47878E-5 9.84462E-5 -2.2236E-4 .004105 .015797 
99.646705 2.529145 -.898146 16.87408 10.058257 -9.8167E-5 7.47878E-5 8.06213E-5 -2.2236E-4 .00434 .015093 
99.706705 2.639722 -.941092 15.686531 9.694235 -9.3671E-5 7.47879E-5 7.26979E-5 -4.1217E-5 .004516 .01456 
100.252955 3.883962 -1.332089 6.88813 6.380124 -5.2735E-5 7.47879E-5 5.01373E-5 -4.1217E-5 .00612 .009657 
100.752955 5.398058 -1.689982 2.014913 3.346613 -1.5265E-5 7.47879E-5 2.94869E-5 -4.1217E-5 .007587 .005169 
101.329855 7.590613 -2.102918 .169048 -.153453 2.79671E-5 7.47879E-5 5.66039E-6 -4.1217E-5 .009281 -9.663E-6 
101.528555 6.948419 5.112025 .530003 -1.778042 3.96685E-5 4.07572E-5 -2.2469E-6 -3.9554E-5 .008948 -.001853 
101.579205 6.439581 4.913841 .730708 -2.176537 4.1737E-5 4.07572E-5 -4.2544E-6 -3.9554E-5 .008633 -.002354 
101.619205 6.05195 4.75733 .917797 -2.491242 4.33706E-5 4.07572E-5 -5.8398E-6 -3.9554E-5 .008385 -.002749 
101.679205 5.494029 4.522562 1.245733 -2.963299 4.34805E-5 -3.7101E-5 -8.2179E-6 -3.9554E-5 .008014 -.003342 
102.099205 2.378999 2.879188 5.130603 -6.267698 2.78666E-5 -3.7101E-5 -2.4864E-5 -3.9554E-5 .005434 -.007495 
102.159205 2.046911 2.64442 5.91263 -6.739755 2.5636E-5 -3.7101E-5 -2.6136E-5 -2.7394E-6 .005065 -.008089 
102.199205 1.841202 2.487908 6.465516 -7.05446 2.41489E-5 -3.7101E-5 -2.6245E-5 -2.7394E-6 .00482 -.008486 
102.249855 1.598725 2.289725 7.201805 -7.452955 2.2266E-5 -3.7101E-5 -2.6385E-5 -2.7394E-6 .004509 -.008989 
102.448555 1.143113 .195523 8.249825 2.65745 1.75219E-5 -1.1616E-5 -2.3546E-5 3.06142E-5 .003833 -.009736 
102.588205 1.106178 .06843 7.525231 2.520702 1.58964E-5 -1.1616E-5 -1.9262E-5 3.06142E-5 .003719 -.009376 
104.610205 4.557296 -1.771765 1.322488 .540726 -7.6393E-6 -1.1616E-5 4.27653E-5 3.06142E-5 .002073 -.004169 
104.709205 4.917753 -1.861863 1.224824 .443784 -8.7916E-6 -1.1616E-5 4.58023E-5 3.06142E-5 .001993 -.003915 
104.769205 5.144912 -1.916468 1.174994 .385031 -8.1538E-6 3.28347E-5 4.76429E-5 3.06142E-5 .001943 -.00376 
104.849205 5.458004 -1.989275 1.119544 .306693 -5.5217E-6 3.28347E-5 5.00969E-5 3.06142E-5 .001874 -.003554 
104.949205 5.865784 -2.080284 1.067893 .208772 -2.2316E-6 3.28347E-5 5.31646E-5 3.06142E-5 .001788 -.003297 
105.149205 6.153807 .688387 1.122164 -.488014 4.35168E-6 3.23376E-5 6.18935E-5 5.71957E-5 .001536 -.002931 
105.279205 5.978528 .657189 1.268027 -.631742 8.56408E-6 3.23376E-5 6.9344E-5 5.71957E-5 .001323 -.002787 
105.339205 5.900371 .642793 1.347978 -.698078 1.05083E-5 3.23376E-5 6.65024E-5 -1.5172E-4 .001225 -.002715 
107.589205 4.219366 .10281 10.104125 -3.185678 8.34152E-5 3.23376E-5 -2.7557E-4 -1.5172E-4 -.002463 2.4793E-4 
107.789205 4.630357 -2.223403 10.343258 2.033569 9.42943E-5 7.71828E-5 -2.9153E-4 -6.2383E-6 -.002928 4.79998E-4 
107.839205 4.856369 -2.287713 10.140735 2.008694 9.81612E-5 7.71828E-5 -2.9185E-4 -6.2383E-6 -.00308 5.2911E-4 
110.039205 21.1805 -5.11735 3.697376 .914187 2.68307E-4 7.71828E-5 -3.056E-4 -6.2383E-6 -.009784 .00269 
110.099205 21.800466 -5.194522 3.589246 .884337 2.72012E-4 4.60626E-5 -3.0597E-4 -6.2383E-6 -.009966 .002749 
110.179205 22.641521 -5.297418 3.450656 .844537 2.75705E-4 4.60626E-5 -3.0647E-4 -6.2383E-6 -.010207 .002828 
110.229205 23.175557 -5.361728 3.367278 .819662 2.78012E-4 4.60626E-5 -3.0679E-4 -6.2383E-6 -.010358 .002877 
110.429205 22.975722 6.324914 3.387766 -.925334 2.73203E-4 -9.3647E-5 -3.2364E-4 -1.6345E-4 -.01042 .003238 
110.559205 21.358198 6.092434 3.638137 -.996708 2.61004E-4 -9.3647E-5 -3.4494E-4 -1.6345E-4 -.010107 .003585 
110.619205 20.632075 5.985152 3.759965 -1.02965 2.55374E-4 -9.3647E-5 -3.4834E-4 5.02197E-5 -.009963 .003739 
110.729205 19.334357 5.788437 3.993603 -1.090044 2.45052E-4 -9.3647E-5 -3.428E-4 5.02197E-5 -.009699 .004008 
110.768205 18.884671 5.718693 4.079636 -1.111456 2.41392E-4 -9.3647E-5 -3.4084E-4 5.02197E-5 -.009605 .004104 
112.790205 3.037739 2.102724 10.832734 -2.221605 5.16541E-5 -9.3647E-5 -2.3909E-4 5.02197E-5 -.004748 .009062 
112.879205 2.67689 1.943564 11.233338 -2.270469 4.33026E-5 -9.3647E-5 -2.3461E-4 5.02197E-5 -.004534 .009281 
112.929855 2.484205 1.852986 11.465213 -2.298278 3.85498E-5 -9.3647E-5 -2.3206E-4 5.02197E-5 -.004412 .009405 
113.128555 2.303084 -.876295 9.905399 9.538906 2.35827E-5 -5.9562E-5 -1.971E-4 2.94259E-4 -.00442 .008824 
113.219205 2.468612 -.94602 8.249117 8.695341 1.81725E-5 -5.9562E-5 -1.7037E-4 2.94259E-4 -.004646 .008082 
113.279205 2.585139 -.992171 7.237131 8.136997 1.45916E-5 -5.9562E-5 -1.5523E-4 2.09293E-4 -.004795 .007593 
114.48911 6.119116 -1.922798 1.157245 -3.122059 -5.7619E-5 -5.9562E-5 9.85026E-5 2.09293E-4 -.007803 -.002205 
114.52911 6.274484 -1.953565 1.422435 -3.494289 -6.0006E-5 -5.9562E-5 1.06891E-4 2.09293E-4 -.007903 -.002529 
114.57976 6.474758 -1.992523 1.801045 -3.965624 -6.3029E-5 -5.9562E-5 1.17513E-4 2.09293E-4 -.008029 -.002939 
114.77846 6.021231 4.120049 4.356466 -9.6955 -6.8497E-5 5.55088E-6 1.72109E-4 3.48246E-4 -.007747 -.004903 
114.86911 5.297384 3.848889 6.297746 -11.676334 -6.7993E-5 5.55088E-6 2.03742E-4 3.48246E-4 -.007269 -.005991 
114.92911 4.845372 3.669412 7.780569 -12.987419 -6.3207E-5 1.53656E-4 2.24679E-4 3.48246E-4 -.006957 -.006712 
115.18911 3.136034 2.891679 16.027854 -18.668795 -2.3176E-5 1.53656E-4 3.15406E-4 3.48246E-4 -.005625 -.009833 
115.22911 2.909027 2.772027 17.559415 -19.542853 -1.7017E-5 1.53656E-4 3.29364E-4 3.48246E-4 -.00542 -.010313 
115.27976 2.635341 2.620519 19.599287 -20.649628 -9.2184E-6 1.53656E-4 3.47039E-4 3.48246E-4 -.00516 -.010922 
115.47846 2.126778 .099445 24.017515 -.065467 2.14496E-5 1.59567E-4 3.80801E-4 -1.4814E-5 -.004622 -.012146 
115.56911 2.11263 .056313 24.029753 -.069265 3.59436E-5 1.59567E-4 3.79455E-4 -1.4814E-5 -.004587 -.012156 
115.62911 2.107575 .02777 24.038233 -.071779 4.5537E-5 1.59567E-4 3.67009E-4 -3.9921E-4 -.004565 -.01215 
116.18911 2.225925 -.238682 24.131955 -.095243 1.35076E-4 1.59567E-4 1.42998E-4 -3.9921E-4 -.004351 -.011993 
116.22911 2.245821 -.257714 24.139657 -.096919 1.41471E-4 1.59567E-4 1.26998E-4 -3.9921E-4 -.004336 -.011982 
116.27976 2.273204 -.281814 24.149602 -.099041 1.4957E-4 1.59567E-4 1.06737E-4 -3.9921E-4 -.004317 -.011968 
116.47846 2.71998 -2.058296 21.21247 14.208341 1.91735E-4 2.68665E-4 2.21294E-5 -4.4127E-4 -.004531 -.011147 
116.54911 3.021055 -2.194589 19.248697 13.531273 2.10755E-4 2.68665E-4 -9.1094E-6 -4.4127E-4 -.004712 -.01059 
116.60911 3.291898 -2.310336 17.656225 12.95627 2.2455E-4 1.90241E-4 -3.5639E-5 -4.4127E-4 -.004863 -.010117 
117.24976 7.051507 -3.546232 4.963044 6.816654 3.46675E-4 1.90241E-4 -3.1891E-4 -4.4127E-4 -.006453 -.005068 
117.44846 6.311068 6.874193 3.764583 -.188799 3.30845E-4 -3.4504E-4 -4.6143E-4 -.001028 -.005905 -.004163 
117.53911 5.125337 6.179677 3.801152 -.213788 2.99503E-4 -3.4504E-4 -5.5481E-4 -.001028 -.005193 -.004026 
117.59911 4.409886 5.720482 3.827853 -.230327 2.78758E-4 -3.4508E-4 -5.3861E-4 .001567 -.004722 -.004014 
117.72911 3.049311 4.724312 3.892527 -.266163 2.33807E-4 -3.4508E-4 -3.345E-4 .001567 -.003701 -.004158 
117.77711 2.612549 4.356496 3.918767 -.279395 2.1721E-4 -3.4508E-4 -2.5913E-4 .001567 -.003324 -.004211 
117.81811 2.267499 4.04232 3.942189 -.290697 2.03033E-4 -3.4508E-4 -1.9476E-4 .001567 -.003002 -.004256 
117.82911 2.179317 3.958028 3.94863 -.293729 1.9923E-4 -3.4508E-4 -1.7749E-4 .001567 -.002916 -.004268 
118.82911 1.351173 -2.841428 1.296653 1.826547 -2.8606E-4 -7.129E-4 .001199 9.09516E-4 .100564 -.002177 
118.84011 1.414627 -2.915448 1.256794 1.789686 -2.9392E-4 -7.129E-4 .001209 9.09516E-4 .102971 -.002135 
118.92911 1.988037 -3.514332 .964181 1.491449 -3.575E-4 -7.129E-4 .00129 9.09516E-4 .122448 -.001797 
118.98911 2.434873 -3.917718 .796932 1.29039 -4.0036E-4 -7.1285E-4 .001256 -.002056 .135578 -.001479 
119.08911 3.287422 -4.590512 .571908 .95529 -4.7179E-4 -7.1285E-4 .00105 -.002056 .157461 -8.011E-4 
119.14911 3.86367 -4.994188 .469129 .75423 -5.1088E-4 -5.8765E-4 9.2632E-4 -.002056 .170587 -3.9445E-4 
119.23986 4.827474 -5.604748 .359611 .450127 -5.6432E-4 -5.8765E-4 7.39369E-4 -.002056 .190434 2.20575E-4 
119.43836 4.919427 5.210728 .454135 -.991847 -5.5675E-4 6.60965E-4 4.64959E-4 -8.0414E-4 .191454 .001572 
119.48611 4.433895 4.936922 .559049 -1.200852 -5.2512E-4 6.60965E-4 4.26483E-4 -8.0414E-4 .181484 .001927 
119.52911 4.019083 4.690354 .670641 -1.389066 -4.9664E-4 6.60965E-4 3.91836E-4 -8.0414E-4 .172505 .002246 
119.58911 3.479966 4.278761 .852485 -1.635043 -4.5696E-4 6.5907E-4 3.43266E-4 -8.1135E-4 .160079 .002769 
119.67961 2.749568 3.775625 1.184463 -2.025798 -3.972E-4 6.5907E-4 2.6969E-4 -8.1135E-4 .141482 .003665 
119.75861 2.26725 2.388818 1.485577 -1.733275 -3.5146E-4 5.00464E-4 2.01267E-4 -9.1157E-4 .127557 .004387 
119.84911 1.858323 2.12058 1.822101 -1.977704 -3.0607E-4 5.00464E-4 1.18603E-4 -9.1157E-4 .114143 .005138 
119.90911 1.61216 1.973149 2.072041 -2.179053 -2.7591E-4 5.02949E-4 6.38553E-5 -9.0983E-4 .105185 .005617 
119.95711 1.429376 1.827161 2.288072 -2.312485 -2.5172E-4 5.02949E-4 2.00948E-5 -9.0983E-4 .097969 .005988 
119.99811 1.284368 1.702464 2.482762 -2.426458 -2.3105E-4 5.02949E-4 -1.7284E-5 -9.0983E-4 .091805 .006305 
120.00911 1.247207 1.669008 2.53659 -2.457036 -2.2551E-4 5.02949E-4 -2.7312E-5 -9.0983E-4 .090151 .00639 
121.00911 1.158447 -1.549188 4.332671 1.418908 4.4838E-5 8.67212E-5 -7.5804E-4 -4.0469E-4 .062247 .008881 
121.02011 1.192954 -1.581538 4.301476 1.411242 4.57938E-5 8.67212E-5 -7.625E-4 -4.0469E-4 .063226 .008852 
121.09961 1.463553 -1.815339 4.081048 1.355839 5.27021E-5 8.67212E-5 -7.9474E-4 -4.0469E-4 .070305 .008641 
121.17861 1.809639 -2.593502 3.776327 2.461042 6.02295E-5 1.03916E-4 -8.1708E-4 -1.5847E-4 .078214 .008318 
121.26911 2.315123 -2.980675 3.345344 2.291585 6.96529E-5 1.03916E-4 -8.3145E-4 -1.5847E-4 .08832 .007821 
121.32911 2.68896 -3.237289 3.076551 2.179237 7.59005E-5 1.03914E-4 -8.0215E-4 .001133 .095021 .007452 
121.46911 3.681255 -3.836204 2.501902 1.917092 9.04779E-5 1.03914E-4 -6.4314E-4 .001133 .110655 .006501 
121.52911 4.157964 -4.092883 2.27814 1.804745 9.9028E-5 1.80513E-4 -5.7499E-4 .001133 .117353 .006093 
121.61986 4.93763 -4.481109 1.965366 1.634819 1.15443E-4 1.80513E-4 -4.7192E-4 .001133 .127481 .005476 
121.81836 5.023897 4.097238 1.977723 -1.703797 1.30615E-4 -3.2361E-5 -3.1511E-4 4.88432E-4 .127705 .005065 
121.86611 4.639924 3.927835 2.145283 -1.79822 1.29067E-4 -3.2361E-5 -2.9174E-4 4.88432E-4 .122481 .005185 
121.90911 4.308019 3.775283 2.303907 -1.88325 1.27672E-4 -3.2361E-5 -2.707E-4 4.88432E-4 .117776 .005292 
121.96911 3.866601 3.583579 2.538872 -2.014886 1.25759E-4 -3.1342E-5 -2.4137E-4 4.87098E-4 .111192 .005405 
122.10911 2.931618 3.081378 3.143402 -2.29446 1.21362E-4 -3.1342E-5 -1.7304E-4 4.87098E-4 .095784 .005589 
122.16911 2.574042 2.866161 3.426499 -2.414277 1.19478E-4 -3.1343E-5 -1.5963E-4 -4.0969E-5 .089181 .005684 
122.26911 2.035593 2.507444 3.930342 -2.613973 1.16337E-4 -3.1343E-5 -1.6373E-4 -4.0969E-5 .078175 .005868 
122.32911 1.747571 2.278744 4.249301 -2.701849 1.14439E-4 -3.1796E-5 -1.6616E-4 -3.9727E-5 .071591 .006002 
122.37711 1.536567 2.108307 4.513722 -2.795795 1.1291E-4 -3.1796E-5 -1.6807E-4 -3.9727E-5 .066338 .006127 
122.41811 1.369316 1.962726 4.746738 -2.876041 1.11603E-4 -3.1796E-5 -1.697E-4 -3.9727E-5 .061852 .006234 
122.42911 1.326479 1.923667 4.810377 -2.897571 1.11253E-4 -3.1796E-5 -1.7014E-4 -3.9727E-5 .060648 .006262 
123.42911 1.108848 -1.630224 4.633228 3.000245 -5.1897E-5 -3.2398E-4 -1.1305E-4 1.42434E-4 .063106 .00503 
123.44011 1.145186 -1.666582 4.567351 2.976451 -5.5469E-5 -3.2398E-4 -1.1148E-4 1.42434E-4 .064371 .004977 
123.51971 1.432029 -1.929681 4.106274 2.804276 -8.131E-5 -3.2398E-4 -1.0012E-4 1.42434E-4 .073525 .004589 
123.59851 1.753623 -2.139985 3.68555 2.528282 -1.0679E-4 -3.2128E-4 -8.8982E-5 1.39722E-4 .0825 .00421 
123.68911 2.168396 -2.428833 3.243028 2.346195 -1.3596E-4 -3.2128E-4 -7.6297E-5 1.39722E-4 .092715 .003781 
123.74911 2.471947 -2.620123 2.968165 2.225608 -1.5527E-4 -3.2128E-4 -6.7897E-5 1.39722E-4 .09948 .003496 
123.88911 3.269682 -3.066466 2.383204 1.944237 -2.0035E-4 -3.2128E-4 -4.8296E-5 1.39722E-4 .115266 .002832 
123.94911 3.649903 -3.257755 2.156673 1.823651 -2.1574E-4 -1.9079E-4 -3.9896E-5 1.39722E-4 .122027 .002548 
124.03981 4.268337 -3.546922 1.84176 1.641362 -2.3308E-4 -1.9079E-4 -2.7198E-5 1.39722E-4 .132241 .002117 
124.23841 4.260354 3.582552 1.79433 -1.377458 -2.3209E-4 2.0047E-4 -2.4359E-6 1.16076E-4 .132422 .001482 
124.28611 3.925305 3.427342 1.929695 -1.454637 -2.2251E-4 2.0047E-4 3.11215E-6 1.16076E-4 .127135 .001394 
124.32911 3.635985 3.287425 2.058045 -1.524212 -2.1387E-4 2.0047E-4 8.11351E-6 1.16076E-4 .122368 .001315 
124.38911 3.254125 3.06436 2.245985 -1.602052 -2.0184E-4 1.99585E-4 1.50894E-5 1.15977E-4 .115748 .001206 
124.68911 1.700317 2.104531 3.35266 -2.079409 -1.4185E-4 1.99585E-4 4.99529E-5 1.15977E-4 .082799 6.67146E-4 
124.74911 1.458159 1.92575 3.610808 -2.207311 -1.2983E-4 2.00094E-4 5.69398E-5 1.1645E-4 .076188 5.51319E-4 
124.79711 1.280382 1.77044 3.826901 -2.285531 -1.2021E-4 2.00094E-4 6.25407E-5 1.1645E-4 .070882 4.52065E-4 
124.83811 1.140362 1.63778 4.017439 -2.352344 -1.1199E-4 2.00094E-4 6.73248E-5 1.1645E-4 .06635 3.67286E-4 
124.84911 1.104651 1.602188 4.069493 -2.37027 -1.0978E-4 2.00094E-4 6.86083E-5 1.1645E-4 .065134 3.4454E-4 
125.84911 1.324197 -1.898299 3.839042 2.503461 -1.3148E-4 -2.4741E-4 1.27833E-4 -9.9144E-6 .069239 -.001451 
125.86011 1.366466 -1.936617 3.784084 2.482596 -1.3421E-4 -2.4741E-4 1.27723E-4 -9.9144E-6 .070554 -.001465 
125.93971 1.697517 -2.213905 3.400098 2.331608 -1.5394E-4 -2.4741E-4 1.26933E-4 -9.9144E-6 .080069 -.001561 
126.01851 2.064436 -2.429341 3.050869 2.094772 -1.733E-4 -2.4272E-4 1.26293E-4 -6.2817E-6 .089394 -.001659 
126.10911 2.533077 -2.732843 2.685083 1.934441 -1.9533E-4 -2.4272E-4 1.25723E-4 -6.2817E-6 .100003 -.001774 
126.16911 2.873767 -2.933835 2.458864 1.828262 -2.0993E-4 -2.4272E-4 1.18702E-4 -2.2728E-4 .107029 -.001843 
126.30911 3.762696 -3.402822 1.980669 1.58051 -2.4397E-4 -2.4272E-4 8.68183E-5 -2.2728E-4 .123422 -.00199 
126.36911 4.183945 -3.603816 1.797008 1.474331 -2.5674E-4 -1.8208E-4 7.31538E-5 -2.2728E-4 .130445 -.002052 
126.45981 4.866615 -3.907653 1.54361 1.313824 -2.7329E-4 -1.8208E-4 5.24977E-5 -2.2728E-4 .14106 -.002147 
126.65841 4.804116 4.1866 1.537891 -1.282004 -2.6428E-4 2.70092E-4 1.36011E-5 -1.7453E-4 .140666 -.002732 
126.70611 4.412716 4.002267 1.664369 -1.364163 -2.5137E-4 2.70092E-4 5.25898E-6 -1.7453E-4 .1349 -.00297 
126.74911 4.074983 3.836097 1.785116 -1.438227 -2.3973E-4 2.70092E-4 -2.2612E-6 -1.7453E-4 .129702 -.003185 
126.80911 3.629802 3.569693 1.963144 -1.52288 -2.2353E-4 2.6899E-4 -1.2753E-5 -1.7446E-4 .122486 -.003485 
127.10911 1.825777 2.43157 3.031506 -2.031129 -1.4267E-4 2.6899E-4 -6.5197E-5 -1.7446E-4 .086583 -.004986 
127.16911 1.546462 2.217622 3.284078 -2.161848 -1.2648E-4 2.69419E-4 -7.5705E-5 -1.7508E-4 .079379 -.005276 
127.21711 1.341991 2.033568 3.496032 -2.244941 -1.1353E-4 2.69419E-4 -8.4126E-5 -1.7508E-4 .073599 -.0055 
127.25811 1.18136 1.876356 3.683406 -2.315917 -1.0246E-4 2.69419E-4 -9.1319E-5 -1.7508E-4 .068661 -.005691 
127.26911 1.140461 1.834177 3.734669 -2.334959 -9.9487E-5 2.69419E-4 -9.3248E-5 -1.7508E-4 .067336 -.005743 
128.26911 1.377668 -2.154064 3.804563 2.294465 -3.1476E-5 -1.211E-4 -1.8751E-4 5.51829E-6 .060974 -.006643 
128.28011 1.42565 -2.199188 3.754183 2.276315 -3.281E-5 -1.211E-4 -1.8745E-4 5.51829E-6 .062145 -.006609 
128.35971 1.802515 -2.52572 3.401535 2.144981 -4.247E-5 -1.211E-4 -1.8701E-4 5.51829E-6 .070619 -.006361 
128.43851 2.222212 -2.785413 3.080288 1.926742 -5.198E-5 -1.1975E-4 -1.8678E-4 1.5602E-7 .078924 -.006122 
128.52911 2.760434 -3.143223 2.743063 1.787859 -6.2851E-5 -1.1975E-4 -1.8677E-4 1.5602E-7 .088373 -.005855 
128.58911 3.152632 -3.38018 2.533616 1.695883 -7.005E-5 -1.1975E-4 -1.7939E-4 2.45366E-4 .094631 -.005685 
128.72911 4.178562 -3.933087 2.087913 1.481272 -8.6849E-5 -1.1975E-4 -1.4497E-4 2.45366E-4 .109232 -.005307 
128.78911 4.665735 -4.170046 1.91533 1.389296 -9.2761E-5 -7.6925E-5 -1.3022E-4 2.45366E-4 .115489 -.005145 
128.87981 5.456268 -4.528251 1.675438 1.250258 -9.9752E-5 -7.6925E-5 -1.0792E-4 2.45366E-4 .124944 -.004901 
129.07841 5.439742 4.60201 1.738298 -1.60002 -9.8436E-5 8.97766E-5 -7.4503E-5 9.9799E-5 .12473 -.00514 
129.12611 5.009135 4.407137 1.895927 -1.697909 -9.4145E-5 8.97766E-5 -6.9733E-5 9.9799E-5 .119657 -.005387 
129.16911 4.636923 4.231466 2.046045 -1.786152 -9.0277E-5 8.97766E-5 -6.5433E-5 9.9799E-5 .115084 -.00561 
129.22911 4.143233 3.970715 2.267423 -1.900793 -8.4882E-5 8.9699E-5 -5.9426E-5 1.00024E-4 .108715 -.00593 
129.52911 2.121662 2.754235 3.594054 -2.512371 -5.7918E-5 8.9699E-5 -2.9358E-5 1.00024E-4 .076935 -.007566 
129.58911 1.804818 2.517713 3.904623 -2.648966 -5.2522E-5 8.97758E-5 -2.3347E-5 9.99288E-5 .07057 -.00789 
129.63711 1.572035 2.322137 4.164189 -2.74772 -4.8204E-5 8.97758E-5 -1.8541E-5 9.99288E-5 .065472 -.008147 
129.67811 1.388097 2.155082 4.393423 -2.832072 -4.4516E-5 8.97758E-5 -1.4435E-5 9.99288E-5 .061117 -.008366 
129.68911 1.341083 2.110263 4.456105 -2.854703 -4.3527E-5 8.97758E-5 -1.3334E-5 9.99288E-5 .059949 -.008425 
130.68911 1.175122 -1.88648 4.587546 2.77896 -1.5668E-4 -3.3652E-4 7.55279E-5 5.99196E-5 .065944 -.008316 
130.70011 1.21718 -1.92924 4.526516 2.758003 -1.6038E-4 -3.3652E-4 7.61884E-5 5.99196E-5 .067258 -.008256 
130.77971 1.549617 -2.238669 4.098649 2.606347 -1.8723E-4 -3.3652E-4 8.09676E-5 5.99196E-5 .076766 -.00782 
130.85851 1.923287 -2.49 3.707607 2.350019 -2.1358E-4 -3.3077E-4 8.57922E-5 6.23118E-5 .086088 -.007397 
130.94911 2.406243 -2.829861 3.29542 2.190309 -2.436E-4 -3.3077E-4 9.14491E-5 6.23118E-5 .096697 -.00692 
131.00911 2.760046 -3.054934 3.038409 2.08454 -2.6349E-4 -3.3077E-4 9.12239E-5 -6.9803E-5 .103724 -.0066 
131.14911 3.690832 -3.580106 2.488177 1.837747 -3.0989E-4 -3.3077E-4 8.14316E-5 -6.9803E-5 .120118 -.005846 
131.20911 4.134847 -3.805179 2.27356 1.731979 -3.2845E-4 -2.8671E-4 7.72349E-5 -6.9803E-5 .127142 -.005522 
131.29981 4.857426 -4.145415 1.973274 1.572092 -3.5451E-4 -2.8671E-4 7.0891E-5 -6.9803E-5 .137759 -.005033 
131.49841 4.887277 4.012187 1.996652 -1.702173 -3.5235E-4 3.07849E-4 6.81145E-5 4.11219E-5 .13788 -.004758 
131.54611 4.511731 3.844975 2.163828 -1.795471 -3.3763E-4 3.07849E-4 7.008E-5 4.11219E-5 .132353 -.004879 
131.58911 4.186888 3.694239 2.322175 -1.879575 -3.2437E-4 3.07849E-4 7.18518E-5 4.11219E-5 .12737 -.004989 
131.64911 3.757598 3.434586 2.552767 -1.963644 -3.0592E-4 3.05917E-4 7.42956E-5 4.01751E-5 .120467 -.005128 
131.94911 2.000408 2.410876 3.905232 -2.535463 -2.1396E-4 3.05917E-4 8.63725E-5 4.01751E-5 .086183 -.00576 
132.00911 1.721906 2.229788 4.221659 -2.706674 -1.9553E-4 3.07035E-4 8.88234E-5 4.13447E-5 .079293 -.005903 
132.05711 1.515436 2.062976 4.486588 -2.801533 -1.8076E-4 3.07035E-4 9.08119E-5 4.13447E-5 .073756 -.006031 
132.09811 1.351783 1.920491 4.720108 -2.882558 -1.6815E-4 3.07035E-4 9.25105E-5 4.13447E-5 .069027 -.00614 
132.10911 1.309868 1.882264 4.783892 -2.904296 -1.6477E-4 3.07035E-4 9.29662E-5 4.13447E-5 .067758 -.006169 
133.10911 1.117555 -1.622861 4.644767 2.984539 -9.2078E-5 -1.4852E-4 7.78492E-5 -6.8536E-5 .067789 -.005047 
133.12011 1.153725 -1.658699 4.579234 2.961028 -9.3715E-5 -1.4852E-4 7.70938E-5 -6.8536E-5 .069057 -.004996 
133.19971 1.43901 -1.918039 4.120454 2.790894 -1.0556E-4 -1.4852E-4 7.16273E-5 -6.8536E-5 .078238 -.004622 
133.27851 1.758459 -2.12448 3.701719 2.516456 -1.1717E-4 -1.4533E-4 6.62951E-5 -6.6557E-5 .087234 -.004258 
133.36911 2.170035 -2.409119 3.261139 2.336628 -1.3036E-4 -1.4533E-4 6.02528E-5 -6.6557E-5 .097468 -.003845 
133.42911 2.471047 -2.597622 2.987336 2.217536 -1.391E-4 -1.4533E-4 5.48632E-5 -1.1273E-4 .104245 -.00357 
133.56911 3.261557 -3.037462 2.404151 1.939656 -1.5948E-4 -1.4533E-4 3.90486E-5 -1.1273E-4 .120058 -.002924 
133.62911 3.638124 -3.225965 2.178081 1.820564 -1.6785E-4 -1.3285E-4 3.22709E-5 -1.1273E-4 .126834 -.002648 
133.71981 4.250396 -3.510919 1.863523 1.640537 -1.7992E-4 -1.3285E-4 2.20252E-5 -1.1273E-4 .137078 -.00223 
133.91841 4.234583 3.581499 1.823301 -1.416733 -1.7643E-4 1.66888E-4 2.06019E-6 -9.3512E-5 .13656 -.001641 
133.96611 3.899675 3.425429 1.962499 -1.495563 -1.6846E-4 1.66888E-4 -2.4094E-6 -9.3512E-5 .130932 -.00157 
134.00911 3.610554 3.284738 2.094439 -1.566626 -1.6127E-4 1.66888E-4 -6.4385E-6 -9.3512E-5 .125858 -.001506 
134.06911 3.22872 3.067743 2.287929 -1.651139 -1.5125E-4 1.66388E-4 -1.2059E-5 -9.3453E-5 .118802 -.001417 
134.36911 1.675729 2.09843 3.427792 -2.140726 -1.0123E-4 1.66388E-4 -4.0152E-5 -9.3453E-5 .083637 -9.8007E-4 
134.42911 1.434397 1.91336 3.69222 -2.261454 -9.122E-5 1.6663E-4 -4.5778E-5 -9.3722E-5 .076589 -8.8615E-4 
134.47711 1.25786 1.757072 3.91359 -2.341101 -8.3205E-5 1.6663E-4 -5.0286E-5 -9.3722E-5 .070938 -8.0571E-4 
134.51811 1.118972 1.623576 4.108744 -2.409133 -7.636E-5 1.6663E-4 -5.4136E-5 -9.3722E-5 .066112 -7.37E-4 
134.52911 1.083576 1.58776 4.162054 -2.427386 -7.4523E-5 1.6663E-4 -5.5169E-5 -9.3722E-5 .064817 -7.1857E-4 
135.52911 1.354424 -1.953067 3.92397 2.565015 -1.1455E-4 -2.5391E-4 -1.0286E-4 7.93353E-6 .060082 9.68542E-4 
135.54011 1.39791 -1.992247 3.86766 2.543725 -1.1735E-4 -2.5391E-4 -1.0277E-4 7.93353E-6 .061263 9.83983E-4 
135.61971 1.738332 -2.275768 3.474167 2.389663 -1.376E-4 -2.5391E-4 -1.0214E-4 7.93353E-6 .069814 .001096 
135.69851 2.115401 -2.495916 3.116166 2.147914 -1.5749E-4 -2.4968E-4 -1.0163E-4 5.01028E-6 .078197 .001208 
135.78911 2.596744 -2.806177 2.741022 1.984375 -1.8015E-4 -2.4968E-4 -1.0117E-4 5.01028E-6 .087736 .001338 
135.84911 2.94652 -3.011649 2.508926 1.87607 -1.9516E-4 -2.4968E-4 -1.0049E-4 1.77906E-5 .094053 .001424 
135.98911 3.858746 -3.491082 2.018014 1.62336 -2.3019E-4 -2.4968E-4 -9.7994E-5 1.77906E-5 .108793 .001624 
136.04911 4.290878 -3.696553 1.829327 1.515056 -2.4491E-4 -2.4004E-4 -9.6924E-5 1.77906E-5 .11511 .00171 
136.13981 4.991019 -4.007157 1.568819 1.351336 -2.6673E-4 -2.4004E-4 -9.5307E-5 1.77906E-5 .124659 .001839 
136.33841 4.926408 4.295526 1.555428 -1.276826 -2.6968E-4 2.11152E-4 -1.0753E-4 -1.4407E-4 .124655 .002462 
136.38611 4.524805 4.106804 1.681347 -1.357652 -2.5959E-4 2.11152E-4 -1.1442E-4 -1.4407E-4 .119632 .002702 
136.42911 4.178235 3.936678 1.801481 -1.430513 -2.5049E-4 2.11152E-4 -1.2063E-4 -1.4407E-4 .115103 .002918 
136.48911 3.720584 3.66138 1.977959 -1.511998 -2.3783E-4 2.10248E-4 -1.2925E-4 -1.4282E-4 .108818 .003201 
136.78911 1.86919 2.49746 3.037125 -2.011421 -1.7463E-4 2.10248E-4 -1.7218E-4 -1.4282E-4 .077556 .004526 
136.84911 1.582635 2.282742 3.288863 -2.148401 -1.6199E-4 2.10156E-4 -1.8083E-4 -1.4476E-4 .07128 .004818 
136.89711 1.372127 2.093988 3.499477 -2.230526 -1.5188E-4 2.10156E-4 -1.8779E-4 -1.4476E-4 .066242 .005074 
136.93811 1.206696 1.932762 3.685632 -2.300674 -1.4324E-4 2.10156E-4 -1.9374E-4 -1.4476E-4 .061938 .005292 
136.94911 1.164566 1.889506 3.736557 -2.319494 -1.4093E-4 2.10156E-4 -1.9533E-4 -1.4476E-4 .060783 .005351 
137.94911 1.366503 -2.161872 3.779572 2.294683 -1.6987E-4 -2.7328E-4 -2.1098E-4 1.16612E-4 .068881 .006765 
137.96011 1.414665 -2.207636 3.729188 2.276411 -1.7289E-4 -2.7328E-4 -2.0969E-4 1.16612E-4 .07023 .006734 
138.03971 1.793246 -2.538803 3.376595 2.144187 -1.9468E-4 -2.7328E-4 -2.0039E-4 1.16612E-4 .079997 .006514 
138.11851 2.21539 -2.803283 3.055487 1.92578 -2.1603E-4 -2.6739E-4 -1.9141E-4 1.10991E-4 .089572 .006304 
138.20911 2.757328 -3.166288 2.71853 1.785879 -2.4031E-4 -2.6739E-4 -1.8133E-4 1.10991E-4 .100467 .00607 
138.26911 3.152506 -3.406687 2.509361 1.693229 -2.5638E-4 -2.6739E-4 -1.7063E-4 2.44924E-4 .107682 .005911 
138.40911 4.187 -3.967621 2.064623 1.477047 -2.9389E-4 -2.6739E-4 -1.3627E-4 2.44924E-4 .124517 .005532 
138.46911 4.678531 -4.208021 1.892589 1.384397 -3.1086E-4 -2.9695E-4 -1.2155E-4 2.44924E-4 .131734 .005369 
138.55981 5.47644 -4.571426 1.653679 1.244342 -3.3785E-4 -2.9695E-4 -9.9289E-5 2.44924E-4 .142643 .005123 
