.1986 5.295017 4.474483 1.63547 -1.408761 2.08829E-4 -1.9108E-4 -4.4264E-5 1.36362E-4 .137652 .005078 
.2463 4.878009 4.285497 1.77373 -1.495634 1.99733E-4 -1.9108E-4 -3.7772E-5 1.36362E-4 .132148 .005318 
.2893 4.51751 4.115134 1.905456 -1.573948 1.91533E-4 -1.9108E-4 -3.1921E-5 1.36362E-4 .127187 .005533 
.3493 4.036701 3.907849 2.101273 -1.699053 1.8007E-4 -1.9177E-4 -2.3762E-5 1.36149E-4 .120235 .005831 
.6493 2.058034 2.701037 3.284453 -2.252852 1.22654E-4 -1.9177E-4 1.70001E-5 1.36149E-4 .085336 .007307 
.7093 1.749748 2.446083 3.55901 -2.336235 1.11184E-4 -1.9134E-4 2.51479E-5 1.35989E-4 .078375 .007597 
.7573 1.524556 2.254899 3.787 -2.423158 1.02018E-4 -1.9134E-4 3.16622E-5 1.35989E-4 .07282 .007825 
.7983 1.346709 2.091596 3.988337 -2.497404 9.41892E-5 -1.9134E-4 3.72265E-5 1.35989E-4 .068076 .00802 
.8093 1.301268 2.047783 4.043387 -2.517324 9.20887E-5 -1.9134E-4 3.87194E-5 1.35989E-4 .066803 .008072 
1.8093 1.190598 -1.89806 4.075104 2.498815 1.13302E-4 2.37774E-4 1.29414E-4 2.78957E-5 .064748 .007798 
1.8203 1.232737 -1.940498 4.020455 2.4793 1.15912E-4 2.37774E-4 1.2972E-4 2.78957E-5 .065971 .00774 
1.8999 1.565437 -2.247596 3.637764 2.338086 1.34801E-4 2.37774E-4 1.31936E-4 2.78957E-5 .074823 .007317 
1.9787 1.938787 -2.496173 3.288702 2.104096 1.53341E-4 2.33639E-4 1.34279E-4 3.17147E-5 .083499 .006906 
2.0693 2.420672 -2.833393 2.9217 1.954884 1.74466E-4 2.33639E-4 1.37147E-4 3.17147E-5 .093369 .006442 
2.1293 2.773366 -3.056715 2.693504 1.856068 1.88456E-4 2.33639E-4 1.3371E-4 -1.4653E-4 .099905 .006141 
2.2693 3.700325 -3.577804 2.207068 1.625497 2.211E-4 2.33639E-4 1.13237E-4 -1.4653E-4 .115157 .005449 
2.3293 4.142168 -3.801128 2.018319 1.526681 2.35335E-4 2.4183E-4 1.04463E-4 -1.4653E-4 .121694 .005153 
2.42 4.86086 -4.13872 1.755459 1.377304 2.57225E-4 2.4183E-4 9.12E-5 -1.4653E-4 .131574 .004705 
2.6186 4.887127 4.02095 1.790226 -1.571465 2.62013E-4 -1.9487E-4 7.57934E-5 -1.3255E-5 .131333 .004442 
2.6663 4.512263 3.853722 1.944233 -1.663723 2.52736E-4 -1.9487E-4 7.51624E-5 -1.3255E-5 .126025 .004548 
2.7093 4.18798 3.702972 2.090594 -1.74689 2.44374E-4 -1.9487E-4 7.45936E-5 -1.3255E-5 .121239 .004643 
2.7693 3.753472 3.528196 2.307252 -1.884984 2.32673E-4 -1.9592E-4 7.38219E-5 -1.2527E-5 .114528 .004788 
3.0693 1.961982 2.455506 3.612853 -2.475815 1.74014E-4 -1.9592E-4 7.00714E-5 -1.2527E-5 .0808 .005575 
3.1293 1.682703 2.223592 3.915672 -2.55204 1.62306E-4 -1.9516E-4 6.92981E-5 -1.3292E-5 .074079 .00572 
3.1773 1.477775 2.054368 4.164576 -2.64395 1.52957E-4 -1.9516E-4 6.86614E-5 -1.3292E-5 .068722 .005826 
3.2183 1.315571 1.909822 4.384155 -2.722457 1.44972E-4 -1.9516E-4 6.81175E-5 -1.3292E-5 .064146 .005916 
3.2293 1.274065 1.871042 4.444159 -2.74352 1.42829E-4 -1.9516E-4 6.79716E-5 -1.3292E-5 .062919 .005941 
4.2293 1.147692 -1.700066 4.41047 2.763035 1.9085E-4 3.00261E-4 2.14458E-5 -7.0778E-5 .063375 .00464 
4.2403 1.185426 -1.737276 4.350041 2.741543 1.94146E-4 3.00261E-4 2.06688E-5 -7.0778E-5 .064613 .004591 
4.3199 1.482833 -2.006545 3.926822 2.586025 2.17998E-4 3.00261E-4 1.50462E-5 -7.0778E-5 .073572 .004231 
4.3987 1.815569 -2.221182 3.540473 2.330668 2.41357E-4 2.93669E-4 9.49526E-6 -7.0426E-5 .082355 .00388 
4.4893 2.243954 -2.516684 3.13386 2.166406 2.6791E-4 2.93669E-4 3.12751E-6 -7.0426E-5 .09235 .003481 
4.5493 2.557065 -2.71238 2.880929 2.057623 2.85495E-4 2.93669E-4 -4.7654E-6 -1.932E-4 .098969 .00322 
4.6893 3.378798 -3.169005 2.341421 1.803797 3.26525E-4 2.93669E-4 -3.1759E-5 -1.932E-4 .114413 .002621 
4.7493 3.77003 -3.364702 2.131916 1.695014 3.4438E-4 3.02687E-4 -4.3328E-5 -1.932E-4 .121032 .002365 
4.84 4.405934 -3.66053 1.839945 1.530571 3.71778E-4 3.02687E-4 -6.0816E-5 -1.932E-4 .131037 .001977 
5.0386 4.397045 3.700382 1.837781 -1.518482 3.69902E-4 -3.2109E-4 -1.1132E-4 -3.3058E-4 .131158 .001423 
5.0863 4.052313 3.541313 1.986428 -1.604111 3.54616E-4 -3.2109E-4 -1.2706E-4 -3.3058E-4 .125953 .001354 
5.1293 3.754528 3.397917 2.127416 -1.681304 3.40837E-4 -3.2109E-4 -1.4124E-4 -3.3058E-4 .121261 .001292 
5.1893 3.356467 3.243697 2.336955 -1.821239 3.21555E-4 -3.2288E-4 -1.611E-4 -3.3263E-4 .114664 .001185 
5.4893 1.721867 2.215979 3.593076 -2.374293 2.24887E-4 -3.2288E-4 -2.6069E-4 -3.3263E-4 .081444 5.39602E-4 
5.5493 1.470354 1.989336 3.88123 -2.429135 2.0553E-4 -3.2376E-4 -2.8049E-4 -3.2884E-4 .074834 4.51572E-4 
5.5973 1.2875 1.827825 4.118037 -2.514306 1.90021E-4 -3.2376E-4 -2.9624E-4 -3.2884E-4 .069572 4.13863E-4 
5.6383 1.143565 1.689868 4.326771 -2.587055 1.76774E-4 -3.2376E-4 -3.097E-4 -3.2884E-4 .065077 3.81654E-4 
5.6493 1.106869 1.652855 4.383785 -2.606573 1.7322E-4 -3.2376E-4 -3.1331E-4 -3.2884E-4 .063872 3.73012E-4 
6.6493 1.324166 -1.946845 4.196993 2.715446 8.61895E-5 1.33288E-4 -4.1733E-4 1.40891E-4 .06721 -7.0744E-4 
6.6603 1.367346 -1.986558 4.137614 2.693544 8.76527E-5 1.33288E-4 -4.1578E-4 1.40891E-4 .068497 -7.1931E-4 
6.7399 1.705797 -2.273932 3.722257 2.53505 9.8241E-5 1.33288E-4 -4.0459E-4 1.40891E-4 .077813 -8.0521E-4 
6.8187 2.081432 -2.498872 3.343707 2.282391 1.08609E-4 1.3032E-4 -3.9396E-4 1.29435E-4 .086944 -8.9072E-4 
6.9093 2.561769 -2.813566 2.946154 2.114485 1.20392E-4 1.3032E-4 -3.8226E-4 1.29435E-4 .097333 -9.8965E-4 
6.9693 2.911195 -3.021962 2.699585 2.003289 1.28195E-4 1.30319E-4 -3.6007E-4 6.11767E-4 .104213 -.00107 
7.1093 3.82358 -3.508242 2.176046 1.743831 1.46403E-4 1.30319E-4 -2.7459E-4 6.11767E-4 .120267 -.00129 
7.1693 4.256199 -3.716647 1.973867 1.632635 1.55949E-4 1.88533E-4 -2.3796E-4 6.11767E-4 .127145 -.001384 
7.26 4.957556 -4.031687 1.693519 1.464544 1.73015E-4 1.88533E-4 -1.8258E-4 6.11767E-4 .137541 -.001527 
7.4586 4.913048 4.23124 1.672404 -1.346625 1.81095E-4 -1.0929E-4 -8.5215E-5 3.98047E-4 .137413 -.002086 
7.5063 4.518921 4.04808 1.804425 -1.426707 1.75892E-4 -1.0929E-4 -6.6266E-5 3.98047E-4 .131886 -.002288 
7.5493 4.178574 3.882968 1.929972 -1.498898 1.71202E-4 -1.0929E-4 -4.9184E-5 3.98047E-4 .126904 -.00247 
7.6093 3.725303 3.677863 2.11611 -1.613989 1.64642E-4 -1.0984E-4 -2.5358E-5 3.9779E-4 .119927 -.002732 
7.9093 1.872573 2.510384 3.235255 -2.124032 1.31758E-4 -1.0984E-4 9.37379E-5 3.9779E-4 .084914 -.004066 
7.9693 1.585981 2.262587 3.492288 -2.195527 1.25187E-4 -1.0966E-4 1.17531E-4 3.96905E-4 .077933 -.004349 
8.0173 1.378064 2.077758 3.706458 -2.275364 1.19934E-4 -1.0966E-4 1.36544E-4 3.96905E-4 .072365 -.004587 
8.0583 1.214492 1.919884 3.895452 -2.343558 1.15447E-4 -1.0966E-4 1.52785E-4 3.96905E-4 .067609 -.004791 
8.0693 1.172804 1.877528 3.947107 -2.361854 1.14243E-4 -1.0966E-4 1.57142E-4 3.96905E-4 .066333 -.004846 
9.0693 1.323549 -2.081387 3.834067 2.42742 2.46852E-4 3.9993E-4 3.98686E-4 3.9572E-5 .063688 -.006132 
9.0803 1.369733 -2.125613 3.780988 2.407686 2.51242E-4 3.9993E-4 3.9912E-4 3.9572E-5 .064898 -.006105 
9.1599 1.732872 -2.44565 3.409802 2.26488 2.83012E-4 3.9993E-4 4.02264E-4 3.9572E-5 .073659 -.005909 
9.2387 2.137955 -2.701328 3.071879 2.035535 3.14133E-4 3.91361E-4 4.05831E-4 5.11646E-5 .082246 -.005723 
9.3293 2.658176 -3.052227 2.717472 1.884145 3.49519E-4 3.91361E-4 4.10457E-4 5.11646E-5 .092016 -.005516 
9.3893 3.03762 -3.2846 2.497834 1.783886 3.72953E-4 3.91359E-4 3.9964E-4 -4.1246E-4 .098486 -.005366 
9.5293 4.031212 -3.826826 2.032039 1.54995 4.27633E-4 3.91359E-4 3.42012E-4 -4.1246E-4 .113583 -.004982 
9.5893 4.503419 -4.059208 1.852423 1.449691 4.51923E-4 4.19964E-4 3.17314E-4 -4.1246E-4 .120052 -.004817 
9.68 5.270072 -4.410493 1.603698 1.298134 4.89937E-4 4.19964E-4 2.7998E-4 -4.1246E-4 .12983 -.004569 
9.8786 5.268567 4.417242 1.623286 -1.407525 4.91423E-4 -4.054E-4 2.4049E-4 2.90856E-6 .12969 -.0048 
9.9263 4.856835 4.231907 1.761455 -1.494948 4.72124E-4 -4.054E-4 2.40628E-4 2.90856E-6 .124483 -.005044 
9.9693 4.500795 4.064834 1.893143 -1.573758 4.54727E-4 -4.054E-4 2.40753E-4 2.90856E-6 .119788 -.005264 
10.0293 4.021963 3.904299 2.089727 -1.721378 4.30366E-4 -4.0823E-4 2.41059E-4 7.29182E-6 .113172 -.00554 
10.3293 2.046127 2.695129 3.290467 -2.289176 3.08143E-4 -4.0823E-4 2.43242E-4 7.29182E-6 .079769 -.006762 
10.3893 1.740978 2.420341 3.569234 -2.334538 2.83729E-4 -4.0731E-4 2.43537E-4 2.593E-6 .073137 -.007039 
10.4373 1.518133 2.231641 3.797045 -2.421105 2.64218E-4 -4.0731E-4 2.43661E-4 2.593E-6 .067869 -.007286 
10.4783 1.342103 2.07046 3.998201 -2.495048 2.47552E-4 -4.0731E-4 2.43767E-4 2.593E-6 .063368 -.007498 
10.4893 1.297119 2.027216 4.053199 -2.514886 2.4308E-4 -4.0731E-4 2.43795E-4 2.593E-6 .062161 -.007554 
11.4893 1.185244 -1.875939 4.070754 2.50491 9.93045E-5 9.26151E-5 1.17964E-4 -2.2998E-4 .064218 -.007739 
11.5003 1.226891 -1.917796 4.015973 2.485292 1.00321E-4 9.26151E-5 1.15439E-4 -2.2998E-4 .065477 -.007685 
11.5799 1.55565 -2.220686 3.63239 2.343331 1.07678E-4 9.26151E-5 9.717E-5 -2.2998E-4 .074586 -.007294 
11.6587 1.924468 -2.465505 3.282547 2.10878 1.14838E-4 8.94221E-5 7.91879E-5 -2.2745E-4 .083516 -.006915 
11.7493 2.400387 -2.798084 2.914772 1.958745 1.22923E-4 8.94221E-5 5.86227E-5 -2.2745E-4 .093678 -.006488 
11.8093 2.748668 -3.018333 2.686147 1.859384 1.28278E-4 8.94219E-5 5.1984E-5 5.71063E-6 .100408 -.006212 
11.9493 3.6639 -3.532251 2.198962 1.62754 1.40772E-4 8.94219E-5 5.27819E-5 5.71063E-6 .116112 -.005586 
12.0093 4.100104 -3.752502 2.010001 1.528179 1.45318E-4 6.24209E-5 5.31238E-5 5.71063E-6 .122842 -.005317 
12.1 4.809572 -4.085448 1.746944 1.377978 1.50968E-4 6.24209E-5 5.36407E-5 5.71063E-6 .133019 -.004911 
12.2986 4.832103 3.98443 1.778704 -1.555347 1.38845E-4 -1.8132E-4 6.37774E-5 9.94166E-5 .133145 -.004802 
12.3463 4.46067 3.818178 1.931141 -1.646853 1.30214E-4 -1.8132E-4 6.851E-5 9.94166E-5 .127853 -.004962 
12.3893 4.1394 3.668307 2.076025 -1.729343 1.22432E-4 -1.8132E-4 7.27762E-5 9.94166E-5 .123082 -.005106 
12.4493 3.711062 3.476504 2.290398 -1.855208 1.1157E-4 -1.8149E-4 7.87401E-5 9.97808E-5 .116406 -.005296 
12.7493 1.945449 2.420767 3.575112 -2.435828 5.7234E-5 -1.8149E-4 1.08614E-4 9.97808E-5 .082941 -.006197 
12.8093 1.668902 2.204702 3.873837 -2.539495 4.63577E-5 -1.818E-4 1.14577E-4 9.94041E-5 .076258 -.006394 
12.8573 1.465736 2.03648 4.121549 -2.631609 3.76487E-5 -1.818E-4 1.19339E-4 9.94041E-5 .070919 -.006565 
12.8983 1.304961 1.89279 4.340125 -2.710289 3.02098E-5 -1.818E-4 1.23406E-4 9.94041E-5 .066358 -.006711 
12.9093 1.263827 1.854239 4.399863 -2.731399 2.82139E-5 -1.818E-4 1.24498E-4 9.94041E-5 .065135 -.00675 
13.9093 1.155927 -1.708276 4.393891 2.73489 2.13467E-5 1.66774E-4 1.40305E-4 -7.084E-5 .06745 -.006038 
13.9203 1.193842 -1.745487 4.334077 2.713704 2.31775E-5 1.66774E-4 1.39528E-4 -7.084E-5 .06873 -.005985 
13.9999 1.492554 -2.014761 3.915106 2.560397 3.64259E-5 1.66774E-4 1.339E-4 -7.084E-5 .077987 -.005601 
14.0787 1.826558 -2.229086 3.532595 2.307452 4.94957E-5 1.65541E-4 1.28478E-4 -6.7076E-5 .08706 -.005227 
14.1693 2.256369 -2.524552 3.129964 2.14558 6.44635E-5 1.65541E-4 1.22413E-4 -6.7076E-5 .097383 -.004803 
14.2293 2.570421 -2.720223 2.879432 2.03838 7.43759E-5 1.65541E-4 1.13508E-4 -2.3037E-4 .10422 -.004518 
14.3693 3.394338 -3.176792 2.344785 1.788246 9.75049E-5 1.65541E-4 8.13212E-5 -2.3037E-4 .120171 -.003842 
14.4293 3.786501 -3.372465 2.137048 1.681046 1.05522E-4 1.02251E-4 6.75269E-5 -2.3037E-4 .127009 -.003552 
14.52 4.423807 -3.668256 1.847389 1.518995 1.14778E-4 1.02251E-4 4.66744E-5 -2.3037E-4 .137349 -.003113 
14.7186 4.412149 3.720525 1.852404 -1.547002 1.15852E-4 -9.1718E-5 6.32712E-6 -1.8807E-4 .137126 -.002626 
14.7663 4.06555 3.560387 2.003842 -1.634202 1.11486E-4 -9.1718E-5 -2.6259E-6 -1.8807E-4 .131585 -.002615 
14.8093 3.766169 3.416029 2.147473 -1.71281 1.0755E-4 -9.1718E-5 -1.0697E-5 -1.8807E-4 .126589 -.002606 
14.8693 3.368231 3.229129 2.359767 -1.832719 1.02051E-4 -9.1938E-5 -2.196E-5 -1.8814E-4 .119602 -.002595 
15.1693 1.73877 2.213383 3.622754 -2.385748 7.45252E-5 -9.1938E-5 -7.8289E-5 -1.8814E-4 .084591 -.002556 
15.2293 1.486273 2.003022 3.913858 -2.477562 6.90186E-5 -9.2E-5 -8.9543E-5 -1.8775E-4 .077599 -.002535 
15.2773 1.302109 1.84148 4.15541 -2.56493 6.46115E-5 -9.2E-5 -9.8537E-5 -1.8775E-4 .072015 -.002507 
15.3183 1.157058 1.703496 4.368363 -2.639558 6.08471E-5 -9.2E-5 -1.0622E-4 -1.8775E-4 .067245 -.002483 
15.3293 1.120063 1.666476 4.426536 -2.65958 5.98371E-5 -9.2E-5 -1.0828E-4 -1.8775E-4 .065965 -.002477 
16.3293 1.306889 -1.919158 4.278043 2.745786 1.79947E-4 3.54892E-4 -2.0472E-4 1.34765E-5 .062708 -8.2111E-4 
16.3403 1.349457 -1.958496 4.217998 2.723873 1.83843E-4 3.54892E-4 -2.0457E-4 1.34765E-5 .063908 -7.9382E-4 
16.4199 1.683235 -2.243163 3.797829 2.565305 2.12036E-4 3.54892E-4 -2.035E-4 1.34765E-5 .072591 -5.9633E-4 
16.4987 2.053878 -2.466213 3.414689 2.310538 2.39696E-4 3.4841E-4 -2.0267E-4 7.64959E-6 .081102 -4.0121E-4 
16.5893 2.528044 -2.77799 3.01204 2.142699 2.71198E-4 3.4841E-4 -2.0198E-4 7.64959E-6 .090786 -1.772E-4 
16.6493 2.873094 -2.984462 2.76209 2.031548 2.92061E-4 3.4841E-4 -1.9351E-4 2.75419E-4 .0972 -3.6833E-5 
16.7893 3.774371 -3.466237 2.23064 1.772194 3.4074E-4 3.4841E-4 -1.5502E-4 2.75419E-4 .112164 2.71984E-4 
16.8493 4.201844 -3.672712 2.025062 1.661042 3.6187E-4 3.5734E-4 -1.3853E-4 2.75419E-4 .118577 4.04334E-4 
16.94005 4.895381 -3.985006 1.739416 1.492926 3.94233E-4 3.5734E-4 -1.1359E-4 2.75419E-4 .128276 6.04513E-4 
17.13855 4.941917 3.77475 1.689966 -1.218107 4.0267E-4 -2.7441E-4 -7.4089E-5 1.33819E-4 .129354 .001175 
17.1863 4.589162 3.62771 1.809398 -1.288145 3.89593E-4 -2.7441E-4 -6.7712E-5 1.33819E-4 .124755 .001351 
17.2293 4.28349 3.495297 1.922662 -1.351216 3.77817E-4 -2.7441E-4 -6.1969E-5 1.33819E-4 .120614 .001509 
17.2893 3.871341 3.368503 2.091087 -1.470446 3.61302E-4 -2.7715E-4 -5.3984E-5 1.32938E-4 .114782 .001723 
17.4198 3.04803 2.953141 2.49975 -1.667395 3.25207E-4 -2.7715E-4 -3.667E-5 1.32938E-4 .101981 .00217 
17.4988 2.602199 2.701695 2.772067 -1.78662 3.03356E-4 -2.7715E-4 -2.6189E-5 1.32938E-4 .094232 .002441 
17.5893 2.140194 2.413647 3.107128 -1.923201 2.78324E-4 -2.7715E-4 -1.4183E-5 1.32938E-4 .085355 .002751 
17.6493 1.864774 2.190062 3.339618 -1.955097 2.61801E-4 -2.7478E-4 -6.2164E-6 1.33118E-4 .079514 .002957 
17.6973 1.662084 2.041162 3.530242 -2.024269 2.48638E-4 -2.7478E-4 1.60361E-7 1.33118E-4 .074875 .003122 
17.7383 1.500251 1.913976 3.698315 -2.083354 2.37395E-4 -2.7478E-4 5.60719E-6 1.33118E-4 .070913 .003263 
17.7493 1.458603 1.879853 3.74423 -2.099206 2.34379E-4 -2.7478E-4 7.06854E-6 1.33118E-4 .06985 .003301 
18.7493 .989714 -1.245553 3.436314 2.278401 2.43758E-4 2.95307E-4 1.12033E-4 5.65486E-5 .092458 .004445 
18.7603 1.017372 -1.273853 3.386508 2.258623 2.47E-4 2.95307E-4 1.12654E-4 5.65486E-5 .094065 .004429 
18.8398 1.235733 -1.478385 3.039452 2.115679 2.7043E-4 2.95307E-4 1.17141E-4 5.65486E-5 .105673 .004314 
18.9188 1.511713 -2.045521 2.663249 2.624004 2.96374E-4 3.64107E-4 1.20465E-4 2.76336E-5 .118253 .004159 
19.0093 1.909179 -2.355249 2.213414 2.35659 3.29259E-4 3.64107E-4 1.22961E-4 2.76336E-5 .133916 .003937 
19.0693 2.203535 -2.560587 1.94181 2.1793 3.51062E-4 3.64106E-4 1.12202E-4 -3.87E-4 .1443 .003803 
19.1293 2.522481 -2.765931 1.691437 2.002009 3.72864E-4 3.64106E-4 8.9029E-5 -3.87E-4 .154684 .00368 
19.1893 2.866019 -2.971274 1.462297 1.824718 3.96748E-4 4.33642E-4 6.5856E-5 -3.87E-4 .165066 .003558 
19.2293 3.108707 -3.10817 1.321332 1.706524 4.14059E-4 4.33642E-4 5.04074E-5 -3.87E-4 .171986 .003476 
19.2723 3.381786 -3.255333 1.180319 1.579466 4.32668E-4 4.33642E-4 3.38001E-5 -3.87E-4 .179425 .003388 
19.32005 3.699831 -3.418752 1.036508 1.438372 4.53333E-4 4.33642E-4 1.53582E-5 -3.87E-4 .187686 .003291 
19.51855 3.561904 4.019994 .904089 -.683193 4.46957E-4 -4.9581E-4 -6.3239E-5 -4.3336E-4 .183989 .003534 
19.6093 2.873264 3.583665 1.041146 -.830125 4.02053E-4 -4.9581E-4 -1.0249E-4 -4.3336E-4 .165024 .003952 
19.6693 2.459177 3.334384 1.147578 -.9455 3.72278E-4 -4.9862E-4 -1.2849E-4 -4.352E-4 .152407 .004208 
19.7693 1.842724 2.842606 1.352734 -1.110208 3.22517E-4 -4.9862E-4 -1.7192E-4 -4.352E-4 .131255 .0046 
19.8293 1.521468 2.516952 1.489435 -1.179135 2.92724E-4 -4.9664E-4 -1.9787E-4 -4.3149E-4 .118643 .004876 
19.8773 1.291391 2.286009 1.606087 -1.256013 2.68933E-4 -4.9664E-4 -2.1854E-4 -4.3149E-4 .108612 .005132 
19.9183 1.112388 2.088746 1.711559 -1.321681 2.48612E-4 -4.9664E-4 -2.362E-4 -4.3149E-4 .100045 .00535 
19.9293 1.067109 2.035821 1.740771 -1.339299 2.43159E-4 -4.9664E-4 -2.4093E-4 -4.3149E-4 .097746 .005408 
20.9293 1.811544 -3.043001 2.501792 .896579 -7.4634E-6 -5.1863E-5 -4.6675E-4 2.34892E-5 .002847 .006644 
20.9403 1.879037 -3.105175 2.482194 .888664 -8.0327E-6 -5.1863E-5 -4.6649E-4 2.34892E-5 .002868 .006612 
21.1593 3.506898 -4.343002 2.128186 .731078 -1.9368E-5 -5.1863E-5 -4.6136E-4 2.34892E-5 .003301 .005977 
21.2193 4.047314 -4.682121 2.043219 .687903 -2.2473E-5 -5.1863E-5 -4.4787E-4 4.27131E-4 .003419 .005791 
21.3193 5.038257 -5.247336 1.913097 .615946 -2.7649E-5 -5.1863E-5 -4.0524E-4 4.27131E-4 .003617 .005461 
21.3793 5.686974 -5.586465 1.841918 .572772 -2.9821E-5 -2.0677E-5 -3.7966E-4 4.27131E-4 .003734 .005263 
21.4223 6.176871 -5.829508 1.794086 .541831 -3.0708E-5 -2.0677E-5 -3.6133E-4 4.27131E-4 .003818 .005121 
21.46995 6.74411 -6.098833 1.744185 .507543 -3.1692E-5 -2.0677E-5 -3.4102E-4 4.27131E-4 .003911 .004964 
21.66865 7.805122 1.111467 1.917121 -1.43736 -3.255E-5 1.21678E-5 -2.8811E-4 1.15673E-4 .003897 .004822 
22.0593 6.982014 .999812 3.280943 -2.060856 -2.7806E-5 1.21678E-5 -2.4301E-4 1.15673E-4 .003087 .00554 
22.3093 6.500944 .928357 4.408844 -2.459868 -2.4771E-5 1.21678E-5 -2.1415E-4 1.15673E-4 .002569 .006 
22.5593 6.05553 .856902 5.73585 -2.85888 -2.1735E-5 1.21678E-5 -1.8529E-4 1.15673E-4 .002051 .006459 
23.1218 5.183711 .696129 9.449584 -3.756657 -1.4904E-5 1.21678E-5 -1.2036E-4 1.15673E-4 8.84348E-4 .007494 
23.1818 5.101371 .67898 9.905208 -3.85242 -1.4176E-5 1.21678E-5 -1.1343E-4 1.15673E-4 7.59939E-4 .007604 
23.3818 4.841737 .621816 11.506781 -4.17163 -1.1747E-5 1.21678E-5 -9.0341E-5 1.15673E-4 3.45242E-4 .007972 
23.3918 4.829354 .618958 11.590205 -4.18759 -1.1625E-5 1.21678E-5 -8.9187E-5 1.15673E-4 3.24507E-4 .00799 
23.48245 4.719707 .593049 12.360973 -4.332272 -1.0525E-5 1.21678E-5 -7.8722E-5 1.15673E-4 1.36546E-4 .008157 
23.68115 5.17169 -2.979454 12.31853 4.536066 -8.807E-6 5.36557E-6 -5.0822E-5 1.62307E-4 -2.7461E-4 .00794 
23.7518 5.601333 -3.114113 11.687584 4.412573 -8.4287E-6 5.36557E-6 -3.9378E-5 1.62307E-4 -4.2405E-4 .007658 
23.9518 6.920551 -3.495312 9.995892 4.062979 -8.0832E-6 -1.9036E-6 -6.9819E-6 1.62307E-4 -8.4638E-4 .00686 
24.2168 8.902909 -4.000401 7.96936 3.599768 -8.5866E-6 -1.9036E-6 3.59426E-5 1.62307E-4 -.001405 .005802 
24.5318 11.60682 -4.60079 5.879172 3.049158 -9.185E-6 -1.9036E-6 8.69662E-5 1.62307E-4 -.002069 .004545 
24.5918 12.164649 -4.71515 5.520291 2.94428 -9.299E-6 -1.9036E-6 9.66849E-5 1.62307E-4 -.002196 .004305 
24.7418 13.619139 -5.00105 4.678038 2.682085 -9.584E-6 -1.9036E-6 1.20982E-4 1.62307E-4 -.002512 .003707 
24.8618 14.844361 -5.229769 4.060756 2.472329 -1.0154E-5 -7.6167E-6 1.40419E-4 1.62307E-4 -.002764 .003228 
24.9393 15.664765 -5.377484 3.688796 2.336862 -1.0743E-5 -7.6167E-6 1.52973E-4 1.62307E-4 -.002927 .002919 
24.9993 16.315609 -5.491833 3.415218 2.231984 -1.1199E-5 -7.6167E-6 1.5679E-4 -3.4805E-5 -.003053 .002685 
25.0843 17.26108 -5.653842 3.049149 2.083407 -1.1845E-5 -7.6167E-6 1.53838E-4 -3.4805E-5 -.003232 .002362 
25.0893 17.317552 -5.663372 3.028401 2.074667 -1.1883E-5 -7.6167E-6 1.53664E-4 -3.4805E-5 -.003243 .002343 
25.22985 18.943891 -5.931259 2.480849 1.82899 -1.2952E-5 -7.6167E-6 1.48782E-4 -3.4805E-5 -.003538 .00181 
25.30875 19.267849 1.863351 2.278325 .771902 -1.3341E-5 -2.2386E-6 1.48426E-4 2.57276E-5 -.003647 .001536 
25.3593 19.080435 1.851642 2.202226 .736566 -1.3454E-5 -2.2386E-6 1.49724E-4 2.57276E-5 -.003679 .001375 
25.4593 18.713165 1.828479 2.062186 .666663 -1.3677E-5 -2.2386E-6 1.52291E-4 2.57276E-5 -.003743 .001058 
26.8593 14.056833 1.504194 1.566626 -.311976 -1.6805E-5 -2.2386E-6 1.88237E-4 2.57276E-5 -.004641 -.003387 
28.2593 10.306669 1.179908 3.805731 -1.290616 -1.9933E-5 -2.2386E-6 2.24183E-4 2.57276E-5 -.005538 -.007832 
28.3593 10.073475 1.156745 4.070309 -1.360519 -2.0156E-5 -2.2386E-6 2.26751E-4 2.57276E-5 -.005602 -.008149 
28.40985 9.957355 1.145036 4.209363 -1.395855 -2.0269E-5 -2.2386E-6 2.28049E-4 2.57276E-5 -.005635 -.00831 
28.48875 9.606464 3.283809 4.51052 -2.452297 -2.0267E-5 2.29241E-6 2.32088E-4 7.70415E-5 -.005636 -.008636 
28.5743 9.054679 3.179084 4.940596 -2.585057 -2.0071E-5 2.29241E-6 2.38665E-4 7.70415E-5 -.005583 -.009073 
28.5793 9.022983 3.172964 4.966433 -2.592816 -2.006E-5 2.29241E-6 2.3905E-4 7.70415E-5 -.00558 -.009099 
28.9693 6.738879 2.69555 7.22031 -3.198034 -1.9167E-5 2.29241E-6 2.69035E-4 7.70415E-5 -.005342 -.011092 
29.0293 6.420463 2.622102 7.608875 -3.291145 -1.903E-5 2.29241E-6 2.73649E-4 7.70415E-5 -.005305 -.011399 
29.1693 5.7117 2.450722 8.558892 -3.508403 -1.871E-5 2.29241E-6 2.84413E-4 7.70415E-5 -.005219 -.012115 
29.2293 5.422605 2.377274 8.984626 -3.601513 -1.8568E-5 2.43552E-6 2.89026E-4 7.70415E-5 -.005183 -.012421 
30.03745 2.385846 1.387987 15.805485 -4.855634 -1.6604E-5 2.43552E-6 3.51161E-4 7.70415E-5 -.004688 -.016552 
30.23615 2.245776 -.64227 15.076931 8.320519 -1.7519E-5 -1.1796E-5 3.36997E-4 -2.1784E-4 -.004961 -.016143 
30.3268 2.367132 -.69917 13.609588 7.899107 -1.8586E-5 -1.1796E-5 3.1729E-4 -2.1784E-4 -.005268 -.015312 
30.3868 2.453119 -.736832 12.680308 7.62018 -1.9293E-5 -1.1796E-5 3.04246E-4 -2.1784E-4 -.005471 -.014762 
30.97305 3.530608 -1.104818 5.358181 4.89483 -2.6194E-5 -1.1796E-5 1.76797E-4 -2.1784E-4 -.007459 -.009387 
31.22305 4.121055 -1.261742 3.205665 3.732634 -2.9137E-5 -1.1796E-5 1.22448E-4 -2.1784E-4 -.008307 -.007096 
31.47305 4.789805 -1.418665 1.633075 2.570439 -3.2081E-5 -1.1796E-5 6.80982E-5 -2.1784E-4 -.009154 -.004804 
32.04995 6.631843 -1.780782 .217342 -.111444 -3.8872E-5 -1.1796E-5 -5.7318E-5 -2.1784E-4 -.01111 4.85477E-4 
32.24865 6.053545 4.50227 .508357 -1.451719 -3.7383E-5 2.65666E-5 -1.0764E-4 -2.9824E-4 -.010693 .002422 
32.2993 5.607363 4.32466 .670738 -1.760708 -3.604E-5 2.65666E-5 -1.2272E-4 -2.9824E-4 -.010312 .002962 
32.3393 5.267687 4.184394 .821052 -2.004727 -3.4979E-5 2.65666E-5 -1.3462E-4 -2.9824E-4 -.010012 .003388 
32.3993 4.779171 3.973997 1.083051 -2.370756 -3.4468E-5 -9.4889E-6 -1.5248E-4 -2.9824E-4 -.00956 .004028 
32.8193 2.065068 2.501212 4.144425 -4.932958 -3.8445E-5 -9.4889E-6 -2.7749E-4 -2.9824E-4 -.006387 .008506 
32.8793 1.778126 2.290815 4.757103 -5.298987 -3.9013E-5 -9.4889E-6 -2.9552E-4 -3.0417E-4 -.005934 .009146 
32.9193 1.60083 2.150549 5.189908 -5.543006 -3.9392E-5 -9.4889E-6 -3.0766E-4 -3.0417E-4 -.005632 .009572 
32.96995 1.392397 1.972939 5.765901 -5.851995 -3.9872E-5 -9.4889E-6 -3.2304E-4 -3.0417E-4 -.005249 .010113 
33.16865 1.011817 .110782 6.557338 2.214428 -4.7117E-5 -6.5209E-5 -3.3983E-4 1.38594E-4 -.004373 .010817 
33.3083 1.00037 -.028649 5.957583 2.088952 -5.6205E-5 -6.5209E-5 -3.2052E-4 1.38594E-4 -.00417 .010296 
35.3303 5.189835 -2.04748 1.193003 .27218 -1.8779E-4 -6.5209E-5 -4.0845E-5 1.38594E-4 -.001223 .002743 
35.4293 5.604185 -2.146325 1.148008 .183229 -1.9423E-4 -6.5209E-5 -2.7152E-5 1.38594E-4 -.001079 .002373 
35.4893 5.864811 -2.206231 1.129293 .129319 -1.9748E-4 -4.3245E-5 -1.8853E-5 1.38594E-4 -9.9217E-4 .002149 
35.5693 6.223473 -2.286106 1.114383 .057438 -2.0093E-4 -4.3245E-5 -7.7876E-6 1.38594E-4 -8.7734E-4 .00185 
35.6693 6.689736 -2.385949 1.111885 -.032412 -2.0525E-4 -4.3245E-5 6.04383E-6 1.38594E-4 -7.338E-4 .001476 
35.8693 7.020565 .780503 1.269166 -.780029 -2.0429E-4 5.2804E-5 3.44133E-5 1.4794E-4 -4.2675E-4 7.86291E-4 
35.9993 6.821901 .750765 1.492896 -.944449 -1.9744E-4 5.2804E-5 5.36067E-5 1.4794E-4 -2.1737E-4 3.67306E-4 
36.0593 6.732813 .737041 1.610545 -1.020335 -1.9428E-4 5.2804E-5 6.00347E-5 6.67581E-5 -1.2074E-4 1.76354E-4 
38.3093 4.578517 .222358 12.582772 -3.866065 -7.5706E-5 5.2804E-5 2.09937E-4 6.67581E-5 .003503 -.006893 
38.5093 4.974058 -2.271228 12.837604 2.633168 -6.8868E-5 1.63194E-5 2.1247E-4 -4.1603E-5 .004014 -.007154 
38.5593 5.203805 -2.333009 12.576358 2.60233 -6.8053E-5 1.63194E-5 2.10394E-4 -4.1603E-5 .004191 -.007125 
39.68997 12.045344 -3.730091 7.490343 1.904991 -4.9639E-5 1.63194E-5 1.63449E-4 -4.1603E-5 .008193 -.006489 
40.7593 21.416693 -5.051379 4.12824 1.245484 -3.2223E-5 1.63194E-5 1.19052E-4 -4.1603E-5 .011978 -.005887 
40.8193 22.026075 -5.125516 3.981299 1.208479 -3.2367E-5 -2.1139E-5 1.1656E-4 -4.1603E-5 .012192 -.005853 
40.8993 22.852395 -5.224366 3.792272 1.159139 -3.4055E-5 -2.1139E-5 1.13239E-4 -4.1603E-5 .012478 -.005808 
40.9493 23.376861 -5.286147 3.67813 1.128302 -3.511E-5 -2.1139E-5 1.11163E-4 -4.1603E-5 .012657 -.00578 
41.1493 23.128401 6.48873 3.604167 -.745324 -3.7513E-5 -2.7323E-6 1.08346E-4 1.31366E-5 .012729 -.005963 
41.2793 21.476102 6.246942 3.804825 -.801317 -3.7867E-5 -2.7323E-6 1.10051E-4 1.31366E-5 .012357 -.006277 
41.3393 20.734663 6.135348 3.902336 -.82716 -3.8031E-5 -2.7323E-6 1.11846E-4 4.68264E-5 .012185 -.006423 
41.4493 19.410069 5.930759 4.089145 -.874539 -3.8331E-5 -2.7323E-6 1.16986E-4 4.68264E-5 .01187 -.006692 
41.4883 18.951226 5.858222 4.157876 -.891337 -3.8437E-5 -2.7323E-6 1.18809E-4 4.68264E-5 .011759 -.006788 
43.5103 2.897224 2.097489 9.512593 -1.762243 -4.3951E-5 -2.7323E-6 2.13301E-4 4.68264E-5 .005971 -.011736 
43.5993 2.539326 1.931957 9.829044 -1.800577 -4.4194E-5 -2.7323E-6 2.1746E-4 4.68264E-5 .005716 -.011954 
43.64995 2.348776 1.837753 10.012178 -1.822393 -4.4332E-5 -2.7323E-6 2.19827E-4 4.68264E-5 .005571 -.012078 
43.84865 2.146397 -.742305 8.590656 8.450015 -4.9893E-5 -5.4426E-5 2.04884E-4 -1.9466E-4 .005615 -.01121 
43.9393 2.286619 -.807678 7.130736 7.68755 -5.4817E-5 -5.4426E-5 1.87273E-4 -1.9466E-4 .005915 -.010212 
43.9993 2.385936 -.850947 6.24031 7.182885 -5.8076E-5 -5.4426E-5 1.7346E-4 -2.667E-4 .006114 -.009549 
45.209205 5.494464 -1.723478 1.182049 -2.993727 -1.2379E-4 -5.4426E-5 -1.4857E-4 -2.667E-4 .010122 .003862 
45.249205 5.633216 -1.752324 1.434494 -3.33017 -1.2597E-4 -5.4426E-5 -1.5922E-4 -2.667E-4 .010254 .004305 
45.299855 5.812215 -1.788851 1.792695 -3.756192 -1.2872E-4 -5.4426E-5 -1.727E-4 -2.667E-4 .010422 .004867 
45.498555 5.408017 3.693197 4.203332 -9.179999 -1.2693E-4 7.21261E-5 -2.4423E-4 -4.6675E-4 .010056 .007636 
45.589205 4.761946 3.448299 6.030343 -11.015293 -1.2041E-4 7.21261E-5 -2.8646E-4 -4.6675E-4 .009428 .009202 
45.649205 4.358691 3.286205 7.422251 -12.230049 -1.1731E-4 3.12067E-5 -3.1441E-4 -4.6675E-4 .009013 .010238 
45.909205 2.835569 2.583794 15.134918 -17.493994 -1.0922E-4 3.12067E-5 -4.3552E-4 -4.6675E-4 .007222 .014727 
45.949205 2.633596 2.475731 16.563943 -18.303832 -1.0797E-4 3.12067E-5 -4.5415E-4 -4.6675E-4 .006946 .015418 
45.999855 2.390227 2.338896 18.466217 -19.329289 -1.0639E-4 3.12067E-5 -4.7774E-4 -4.6675E-4 .006597 .016292 
46.198555 1.947764 .03655 22.558675 .058268 -1.1053E-4 -7.3643E-5 -5.2161E-4 3.17156E-5 .005846 .018007 
46.289205 1.945359 -.009958 22.548496 .054244 -1.1719E-4 -7.3643E-5 -5.1874E-4 3.17156E-5 .005775 .017978 
46.349205 1.948395 -.040741 22.542159 .05158 -1.216E-4 -7.3643E-5 -5.1327E-4 1.51022E-4 .005728 .017956 
46.909205 2.154504 -.328054 22.498398 .026722 -1.6276E-4 -7.3643E-5 -4.2887E-4 1.51022E-4 .005287 .017716 
46.949205 2.181514 -.348576 22.496336 .024947 -1.657E-4 -7.3643E-5 -4.2284E-4 1.51022E-4 .005256 .017699 
46.999855 2.218067 -.374563 22.493927 .022698 -1.6942E-4 -7.3643E-5 -4.1521E-4 1.51022E-4 .005216 .017677 
47.198555 2.697101 -2.144247 19.727127 13.324697 -1.953E-4 -1.9023E-4 -3.5958E-4 4.03869E-4 .005406 .016448 
47.269205 3.00979 -2.290585 17.893138 12.686543 -2.0872E-4 -1.9023E-4 -3.311E-4 4.03869E-4 .005598 .015614 
47.329205 3.291547 -2.414863 16.406275 12.144587 -2.1847E-4 -1.3545E-4 -3.0692E-4 4.03869E-4 .005759 .014907 
47.969855 7.227885 -3.741842 4.576597 6.357843 -3.0507E-4 -1.3545E-4 -4.8701E-5 4.03869E-4 .007465 .007348 
48.168555 6.509875 6.983633 3.451251 -.111407 -2.8517E-4 3.30828E-4 2.78292E-5 3.88176E-4 .00681 .00604 
48.259205 5.308869 6.291967 3.473809 -.137946 -2.5524E-4 3.30828E-4 6.29463E-5 3.88176E-4 .005988 .005882 
48.319205 4.582767 5.834175 3.491381 -.155511 -2.3543E-4 3.30829E-4 7.46321E-5 2.13577E-6 .005444 .00579 
48.449205 3.197629 4.842263 3.53667 -.193569 -1.9251E-4 3.30829E-4 7.49092E-5 2.13577E-6 .004265 .005614 
48.497205 2.751254 4.476019 3.555889 -.207621 -1.7666E-4 3.30829E-4 7.50115E-5 2.13577E-6 .00383 .005549 
48.538205 2.397761 4.163185 3.57337 -.219624 -1.6313E-4 3.30829E-4 7.50989E-5 2.13577E-6 .003458 .005494 
48.549205 2.307277 4.079254 3.578228 -.222844 -1.595E-4 3.30829E-4 7.51223E-5 2.13577E-6 .003359 .005479 
49.549205 1.189225 -2.566469 1.17594 1.620588 3.3081E-4 7.42312E-4 3.74322E-5 -7.023E-5 .09026 .001516 
49.560205 1.246342 -2.636503 1.14073 1.586735 3.38959E-4 7.42312E-4 3.66612E-5 -7.023E-5 .092441 .001453 
49.649205 1.765023 -3.203141 .883189 1.312835 4.04891E-4 7.42312E-4 3.04234E-5 -7.023E-5 .11009 9.39843E-4 
49.709205 2.171499 -3.585145 .737023 1.128183 4.4934E-4 7.42312E-4 2.62181E-5 -7.023E-5 .121988 5.94081E-4 
49.809205 2.950621 -4.221817 .542555 .82043 5.23422E-4 7.42312E-4 1.92093E-5 -7.023E-5 .141818 1.78098E-5 
49.869205 3.479091 -4.603821 .455359 .635778 5.67871E-4 7.42312E-4 1.5004E-5 -7.023E-5 .153716 -3.2795E-4 
49.959955 4.365328 -5.181601 .365492 .356492 6.351E-4 7.42312E-4 8.64345E-6 -7.023E-5 .171712 -8.5092E-4 
50.158455 4.492161 4.635538 .498748 -1.122896 6.4157E-4 -6.7939E-4 -4.3544E-6 -6.577E-5 .173228 -.002265 
50.206205 4.061728 4.396979 .616062 -1.338918 6.09195E-4 -6.7939E-4 -7.4886E-6 -6.577E-5 .164461 -.002695 
50.249205 3.693569 4.182151 .739325 -1.53345 5.8004E-4 -6.7939E-4 -1.0311E-5 -6.577E-5 .156567 -.003082 
50.309205 3.206054 3.956151 .940452 -1.826467 5.39162E-4 -6.8583E-4 -1.4257E-5 -6.6052E-5 .145446 -.003626 
50.399705 2.533801 3.487073 1.307985 -2.242879 4.7722E-4 -6.8583E-4 -2.0223E-5 -6.6052E-5 .128518 -.004455 
50.478705 2.0903 2.203951 1.639059 -1.907148 4.30887E-4 -4.9344E-4 -2.5067E-5 -5.6414E-5 .115817 -.0051 
50.569205 1.715047 1.950865 2.006635 -2.162674 3.86321E-4 -4.9344E-4 -3.0162E-5 -5.6414E-5 .103547 -.005745 
50.629205 1.493597 1.746696 2.272314 -2.276686 3.56912E-4 -4.8897E-4 -3.3517E-5 -5.5642E-5 .095486 -.006163 
50.677205 1.332476 1.616772 2.496679 -2.407038 3.33489E-4 -4.8897E-4 -3.6182E-5 -5.5642E-5 .089093 -.006489 
50.718205 1.204709 1.505796 2.698214 -2.51838 3.13482E-4 -4.8897E-4 -3.8459E-5 -5.5642E-5 .083632 -.006767 
50.729205 1.171975 1.476022 2.753835 -2.548252 3.08114E-4 -4.8897E-4 -3.907E-5 -5.5642E-5 .082167 -.006841 
51.729205 1.235718 -1.562335 4.412494 1.583156 1.0685E-4 4.84642E-5 -6.3991E-5 1.06159E-5 .068449 -.008838 
51.740205 1.270356 -1.592903 4.377831 1.574432 1.07382E-4 4.84642E-5 -6.3874E-5 1.06159E-5 .069588 -.008802 
51.819705 1.540644 -1.813826 4.133003 1.511385 1.11227E-4 4.84642E-5 -6.3032E-5 1.06159E-5 .077813 -.008547 
51.898705 1.885924 -2.602416 3.804706 2.617613 1.16402E-4 8.31233E-5 -6.1442E-5 2.96293E-5 .086953 -.008193 
51.989205 2.38963 -2.974647 3.348708 2.431222 1.23909E-4 8.31233E-5 -5.8766E-5 2.96293E-5 .09858 -.007674 
52.049205 2.760645 -3.22143 3.06495 2.307647 1.28887E-4 8.31233E-5 -5.6887E-5 3.31236E-5 .106288 -.00733 
52.189205 3.741279 -3.797257 2.460398 2.019308 1.405E-4 8.31233E-5 -5.2259E-5 3.31236E-5 .124274 -.006527 
52.249205 4.210808 -4.04404 2.225969 1.895733 1.46486E-4 1.16789E-4 -5.0275E-5 3.31236E-5 .131981 -.006183 
52.339955 4.977126 -4.417299 1.899515 1.708827 1.57063E-4 1.16789E-4 -4.7276E-5 3.31236E-5 .143637 -.005663 
52.538455 5.026213 4.19787 1.859561 -1.485012 1.53487E-4 -1.5185E-4 -4.8452E-5 -4.5341E-5 .144496 -.005424 
52.586205 4.634539 4.021313 2.005007 -1.567151 1.46251E-4 -1.5185E-4 -5.0613E-5 -4.5341E-5 .138764 -.00558 
52.629205 4.296226 3.862319 2.142685 -1.641119 1.39734E-4 -1.5185E-4 -5.2559E-5 -4.5341E-5 .133603 -.00572 
52.689205 3.844559 3.660997 2.345521 -1.756838 1.30632E-4 -1.5217E-4 -5.5283E-5 -4.5641E-5 .12638 -.005925 
52.829205 2.894679 3.137572 2.870454 -2.000261 1.09372E-4 -1.5217E-4 -6.1659E-5 -4.5641E-5 .109476 -.006426 
52.889205 2.532362 2.913248 3.116248 -2.104585 1.0026E-4 -1.5217E-4 -6.0465E-5 8.55279E-5 .102232 -.006644 
52.989205 1.988199 2.539372 3.553668 -2.278458 8.5074E-5 -1.5217E-4 -5.193E-5 8.55279E-5 .090158 -.007015 
53.049205 1.698745 2.306857 3.833028 -2.363555 7.59664E-5 -1.5204E-4 -4.68E-5 8.57875E-5 .082927 -.007228 
53.097205 1.486273 2.128593 4.063415 -2.445868 6.86835E-5 -1.5204E-4 -4.2691E-5 8.57875E-5 .077152 -.007391 
53.138205 1.318311 1.976326 4.266449 -2.516178 6.24626E-5 -1.5204E-4 -3.9181E-5 8.57875E-5 .072219 -.00753 
53.149205 1.275368 1.935474 4.3219 -2.535041 6.07936E-5 -1.5204E-4 -3.8239E-5 8.57875E-5 .070896 -.007568 
54.149205 1.171622 -1.795107 4.087559 2.671344 1.0968E-4 2.59034E-4 5.18644E-5 7.70284E-5 .0659 -.006339 
54.160205 1.211469 -1.83467 4.029148 2.649493 1.12523E-4 2.59034E-4 5.27101E-5 7.70284E-5 .067103 -.006278 
54.239805 1.525702 -2.120961 3.62076 2.491373 1.33101E-4 2.59034E-4 5.88291E-5 7.70284E-5 .075806 -.005837 
54.318605 1.877635 -2.350681 3.248832 2.241805 1.53315E-4 2.54924E-4 6.49552E-5 7.88042E-5 .084333 -.005407 
54.409205 2.331132 -2.664926 2.858599 2.074105 1.76364E-4 2.54924E-4 7.20805E-5 7.88042E-5 .094032 -.00492 
54.469205 2.66274 -2.873035 2.616858 1.963046 1.91629E-4 2.54924E-4 7.67992E-5 7.88042E-5 .100455 -.004597 
54.609205 3.533412 -3.358622 2.10452 1.703909 2.27246E-4 2.54924E-4 8.78095E-5 7.88042E-5 .115442 -.003845 
54.669205 3.948095 -3.566731 1.907113 1.59285 2.43146E-4 2.76153E-4 9.25282E-5 7.88042E-5 .121864 -.003522 
54.759905 4.622271 -3.881322 1.63395 1.424965 2.68143E-4 2.76153E-4 9.96614E-5 7.88042E-5 .131571 -.003035 
54.958505 4.627583 3.857505 1.610509 -1.29406 2.77653E-4 -1.8288E-4 1.32742E-4 2.64277E-4 .130974 -.002433 
55.006205 4.268096 3.694144 1.737477 -1.373116 2.68947E-4 -1.8288E-4 1.45323E-4 2.64277E-4 .125591 -.002393 
55.049205 3.95736 3.54688 1.858385 -1.444383 2.61099E-4 -1.8288E-4 1.56664E-4 2.64277E-4 .120737 -.002357 
55.109205 3.542177 3.378946 2.038372 -1.565178 2.50124E-4 -1.8367E-4 1.7254E-4 2.66006E-4 .113927 -.002284 
55.409205 1.833126 2.329402 3.127289 -2.07188 1.95135E-4 -1.8367E-4 2.5218E-4 2.66006E-4 .079693 -.001802 
55.469205 1.568611 2.099768 3.380227 -2.131654 1.84108E-4 -1.847E-4 2.68012E-4 2.62789E-4 .072876 -.001744 
55.517205 1.375352 1.934584 3.588216 -2.21022 1.7526E-4 -1.847E-4 2.80601E-4 2.62789E-4 .067445 -.001727 
55.558205 1.22281 1.793489 3.771835 -2.277329 1.67703E-4 -1.847E-4 2.91353E-4 2.62789E-4 .062807 -.001713 
55.569205 1.183848 1.755635 3.822033 -2.295334 1.65675E-4 -1.847E-4 2.94238E-4 2.62789E-4 .061562 -.00171 
56.569205 1.237594 -1.828311 3.736641 2.344907 2.40333E-4 3.48111E-4 3.5434E-4 -1.5418E-4 .059335 -3.2959E-4 
56.580205 1.278159 -1.866832 3.685367 2.325814 2.44154E-4 3.48111E-4 3.52648E-4 -1.5418E-4 .060526 -3.065E-4 
56.659805 1.596903 -2.145585 3.326819 2.187657 2.71808E-4 3.48111E-4 3.404E-4 -1.5418E-4 .069137 -1.3941E-4 
56.738605 1.951956 -2.365702 3.000511 1.964956 2.98868E-4 3.39922E-4 3.28655E-4 -1.4458E-4 .077582 2.55252E-5 
56.829205 2.407385 -2.671263 2.658423 1.818473 3.29603E-4 3.39922E-4 3.15583E-4 -1.4458E-4 .087194 2.14693E-4 
56.889205 2.739407 -2.873617 2.446455 1.721465 3.49957E-4 3.39922E-4 2.98045E-4 -4.4121E-4 .09356 3.48812E-4 
57.029205 3.608367 -3.345785 1.997043 1.495112 3.9745E-4 3.39922E-4 2.364E-4 -4.4121E-4 .108414 6.82483E-4 
57.089205 4.021169 -3.548143 1.8238 1.398103 4.19059E-4 3.81836E-4 2.09981E-4 -4.4121E-4 .114778 8.25485E-4 
57.179905 4.691193 -3.854041 1.583969 1.251459 4.53622E-4 3.81836E-4 1.70045E-4 -4.4121E-4 .124397 .001042 
57.378505 4.664434 3.974018 1.616816 -1.434894 4.53683E-4 -3.8124E-4 1.0622E-4 -2.2073E-4 .12478 .00169 
57.426205 4.294236 3.802635 1.757716 -1.524958 4.35534E-4 -3.8124E-4 9.57121E-5 -2.2073E-4 .1199 .001897 
57.469205 3.974499 3.64814 1.892082 -1.606147 4.19174E-4 -3.8124E-4 8.624E-5 -2.2073E-4 .1155 .002084 
57.529205 3.546324 3.491454 2.092999 -1.754406 3.96246E-4 -3.8453E-4 7.30644E-5 -2.1939E-4 .109305 .002357 
57.829205 1.789074 2.37788 3.318166 -2.337738 2.8112E-4 -3.8453E-4 7.37977E-6 -2.1939E-4 .078051 .003782 
57.889205 1.519351 2.128534 3.601379 -2.391082 2.58168E-4 -3.8216E-4 -5.7587E-6 -2.1941E-4 .07184 .004064 
57.937205 1.323777 1.95416 3.83474 -2.480431 2.39862E-4 -3.8216E-4 -1.6269E-5 -2.1941E-4 .066903 .004288 
57.978205 1.169954 1.805215 4.040848 -2.556749 2.24225E-4 -3.8216E-4 -2.5246E-5 -2.1941E-4 .062685 .00448 
57.989205 1.130758 1.765254 4.097208 -2.577225 2.2003E-4 -3.8216E-4 -2.7655E-5 -2.1941E-4 .061554 .004531 
58.989205 1.335861 -2.042767 4.167723 2.536396 9.20773E-5 1.02114E-4 -1.9226E-4 -7.802E-5 .071519 .005861 
59.000205 1.381178 -2.085276 4.112249 2.516817 9.31982E-5 1.02114E-4 -1.9311E-4 -7.802E-5 .072892 .005837 
59.079805 1.736921 -2.392892 3.723636 2.375133 1.0131E-4 1.02114E-4 -1.9931E-4 -7.802E-5 .082825 .005667 
59.158605 2.132744 -2.636413 3.368968 2.138379 1.09224E-4 9.90931E-5 -2.0568E-4 -8.383E-5 .092562 .005504 
59.249205 2.639975 -2.97348 2.995798 1.988818 1.18183E-4 9.90931E-5 -2.1325E-4 -8.383E-5 .103641 .005325 
59.309205 3.009439 -3.196698 2.763552 1.889771 1.24117E-4 9.90929E-5 -2.0894E-4 2.27992E-4 .110978 .005196 
59.449205 3.975482 -3.717552 2.267773 1.658662 1.37962E-4 9.90929E-5 -1.7708E-4 2.27992E-4 .128097 .004876 
59.509205 4.434055 -3.940774 2.075066 1.559615 1.44216E-4 1.09805E-4 -1.6343E-4 2.27992E-4 .135434 .004738 
59.599905 5.178013 -4.278213 1.806275 1.40989 1.54155E-4 1.09805E-4 -1.428E-4 2.27992E-4 .146524 .00453 
59.798505 5.156063 4.376628 1.843684 -1.618799 1.50428E-4 -1.4636E-4 -1.1897E-4 1.90865E-5 .146414 .004828 
59.846205 4.748233 4.190547 2.002256 -1.712281 1.43461E-4 -1.4636E-4 -1.1806E-4 1.90865E-5 .140531 .005084 
59.889205 4.395771 4.0228 2.152831 -1.796551 1.3718E-4 -1.4636E-4 -1.1724E-4 1.90865E-5 .135227 .005315 
59.949205 3.927102 3.810651 2.376069 -1.927761 1.28413E-4 -1.4644E-4 -1.1612E-4 1.84494E-5 .127804 .005618 
60.249205 1.999595 2.627354 3.708314 -2.52203 8.45688E-5 -1.4644E-4 -1.106E-4 1.84494E-5 .090579 .007048 
60.309205 1.699359 2.381258 4.015385 -2.618765 7.57945E-5 -1.4663E-4 -1.0947E-4 1.9025E-5 .083149 .007352 
60.357205 1.480226 2.193227 4.27077 -2.712509 6.87705E-5 -1.4663E-4 -1.0856E-4 1.9025E-5 .077217 .007608 
60.398205 1.307316 2.032617 4.496024 -2.792583 6.27708E-5 -1.4663E-4 -1.0778E-4 1.9025E-5 .072151 .007828 
60.409205 1.263162 1.989526 4.557572 -2.814066 6.11612E-5 -1.4663E-4 -1.0758E-4 1.9025E-5 .070791 .007887 
61.409205 1.222185 -1.93407 4.516268 2.838008 1.16743E-4 2.68281E-4 -3.5583E-5 1.11063E-4 .061813 .008106 
61.420205 1.265116 -1.97665 4.454199 2.815999 1.19688E-4 2.68281E-4 -3.4364E-5 1.11063E-4 .062956 .008051 
61.499805 1.603642 -2.284781 4.019448 2.656738 1.41E-4 2.68281E-4 -2.5541E-5 1.11063E-4 .071227 .007652 
61.578605 1.982826 -2.533117 3.622462 2.395327 1.61932E-4 2.63933E-4 -1.6833E-5 1.10455E-4 .079331 .007266 
61.669205 2.47148 -2.871319 3.204509 2.227155 1.85796E-4 2.63933E-4 -6.8456E-6 1.10455E-4 .08855 .006831 
61.729205 2.828755 -3.095292 2.944459 2.115783 2.016E-4 2.63933E-4 -6.8655E-6 -1.1112E-4 .094655 .00655 
61.869205 3.766706 -3.617899 2.389542 1.855916 2.38476E-4 2.63933E-4 -2.2391E-5 -1.1112E-4 .1089 .005909 
61.929205 4.21339 -3.841874 2.17395 1.744544 2.55524E-4 3.05454E-4 -2.9045E-5 -1.1112E-4 .115003 .005635 
62.019905 4.939547 -4.180449 1.873367 1.576187 2.83172E-4 3.05454E-4 -3.9103E-5 -1.1112E-4 .124228 .00522 
62.218505 4.956501 4.104435 1.862926 -1.517877 2.95811E-4 -1.8149E-4 -6.8838E-5 -1.9726E-4 .123793 .00514 
62.266205 4.573887 3.933033 2.011459 -1.602304 2.87171E-4 -1.8149E-4 -7.8228E-5 -1.9726E-4 .118738 .005319 
62.309205 4.242959 3.778519 2.152245 -1.678411 2.79383E-4 -1.8149E-4 -8.6693E-5 -1.9726E-4 .114182 .005481 
62.369205 3.799725 3.604949 2.36056 -1.810564 2.68474E-4 -1.8286E-4 -9.8536E-5 -1.983E-4 .107785 .005696 
62.669205 1.971282 2.502177 3.607161 -2.353171 2.13727E-4 -1.8286E-4 -1.5791E-4 -1.983E-4 .075615 .006716 
62.729205 1.687497 2.260077 3.895122 -2.410833 2.02795E-4 -1.8232E-4 -1.6972E-4 -1.9608E-4 .069213 .006941 
62.777205 1.479273 2.08669 4.130109 -2.494611 1.94061E-4 -1.8232E-4 -1.7911E-4 -1.9608E-4 .064116 .007137 
62.818205 1.314569 1.938588 4.337182 -2.56617 1.86601E-4 -1.8232E-4 -1.8713E-4 -1.9608E-4 .059763 .007304 
62.829205 1.272443 1.898854 4.393735 -2.585369 1.846E-4 -1.8232E-4 -1.8928E-4 -1.9608E-4 .058595 .007349 
63.829205 1.160159 -1.746925 4.163207 2.719381 2.73807E-4 3.77571E-4 -2.5001E-4 8.63389E-5 .062872 .006683 
63.840205 1.198935 -1.785264 4.103744 2.697244 2.77952E-4 3.77571E-4 -2.4906E-4 8.63389E-5 .064141 .006626 
63.919805 1.504615 -2.062698 3.687934 2.537056 3.07946E-4 3.77571E-4 -2.422E-4 8.63389E-5 .073329 .006209 
63.998605 1.846756 -2.28453 3.309122 2.283713 3.37281E-4 3.68312E-4 -2.3569E-4 7.94833E-5 .082338 .005804 
64.089205 2.287409 -2.589017 2.911503 2.113887 3.70583E-4 3.68312E-4 -2.285E-4 7.94833E-5 .092594 .005347 
64.149205 2.609539 -2.790661 2.665083 2.00142 3.92637E-4 3.68312E-4 -2.1738E-4 2.92057E-4 .099385 .005037 
64.289205 3.455086 -3.26117 2.142481 1.738996 4.44097E-4 3.68312E-4 -1.7657E-4 2.92057E-4 .115233 .004301 
64.349205 3.857712 -3.462816 1.940957 1.626528 4.68329E-4 4.41041E-4 -1.5908E-4 2.92057E-4 .122022 .003985 
64.439905 4.512191 -3.767638 1.661888 1.456515 5.0825E-4 4.41041E-4 -1.3265E-4 2.92057E-4 .132283 .003508 
64.638505 4.509767 3.77851 1.634186 -1.301811 5.10802E-4 -4.1602E-4 -9.3745E-5 1.11381E-4 .132759 .00301 
64.686205 4.1577 3.617249 1.761865 -1.380308 4.90998E-4 -4.1602E-4 -8.8443E-5 1.11381E-4 .127586 .003015 
64.729205 3.853483 3.471878 1.883369 -1.45107 4.73145E-4 -4.1602E-4 -8.3663E-5 1.11381E-4 .122922 .00302 
64.789205 3.445569 3.333741 2.065217 -1.588638 4.48106E-4 -4.2025E-4 -7.7041E-5 1.09859E-4 .116345 .003016 
65.089205 1.764503 2.281137 3.169421 -2.099479 3.22286E-4 -4.2025E-4 -4.4149E-5 1.09859E-4 .083127 .002946 
65.149205 1.50588 2.040551 3.422951 -2.132631 2.97216E-4 -4.1717E-4 -3.7546E-5 1.10685E-4 .076533 .002937 
65.197205 1.318251 1.876285 3.63099 -2.210275 2.77232E-4 -4.1717E-4 -3.2243E-5 1.10685E-4 .071296 .002933 
65.238205 1.170447 1.735975 3.814581 -2.276596 2.60163E-4 -4.1717E-4 -2.7715E-5 1.10685E-4 .066822 .00293 
65.249205 1.132746 1.69833 3.86476 -2.29439 2.55583E-4 -4.1717E-4 -2.6499E-5 1.10685E-4 .065622 .002929 
66.249205 1.29821 -1.922226 3.732993 2.371308 1.07726E-4 9.35615E-5 7.77679E-5 7.77213E-5 .070586 .001376 
66.260205 1.34085 -1.961927 3.681143 2.351831 1.08754E-4 9.35615E-5 7.86211E-5 7.77213E-5 .071907 .001345 
66.339805 1.675381 -2.249219 3.318683 2.210889 1.16186E-4 9.35615E-5 8.47952E-5 7.77213E-5 .08147 .001122 
66.418605 2.047197 -2.47506 2.988914 1.985766 1.2341E-4 9.01233E-5 9.10051E-5 8.02433E-5 .090842 9.01569E-4 
66.509205 2.523229 -2.789786 2.64334 1.836228 1.31559E-4 9.01233E-5 9.82605E-5 8.02433E-5 .101503 6.49806E-4 
66.569205 2.869809 -2.998211 2.429367 1.737196 1.36955E-4 9.01232E-5 9.67887E-5 -1.294E-4 .108563 4.89335E-4 
66.709205 3.775564 -3.484543 1.976218 1.506122 1.49547E-4 9.01232E-5 7.87089E-5 -1.294E-4 .125037 1.2953E-4 
66.769205 4.205346 -3.69297 1.801778 1.40709 1.56493E-4 1.41875E-4 7.09605E-5 -1.294E-4 .132096 -2.4672E-5 
66.859905 4.902419 -4.008043 1.560598 1.257387 1.69335E-4 1.41875E-4 5.92473E-5 -1.294E-4 .142764 -2.5777E-4 
67.058505 4.866489 4.169139 1.583587 -1.385773 1.69233E-4 -1.4287E-4 4.20908E-5 -4.8529E-5 .142376 -8.475E-4 
67.106205 4.478115 3.989329 1.719702 -1.473561 1.62432E-4 -1.4287E-4 3.97807E-5 -4.8529E-5 .136585 -.001016 
67.149205 4.142681 3.827237 1.849569 -1.552699 1.56301E-4 -1.4287E-4 3.76981E-5 -4.8529E-5 .131364 -.001168 
67.209205 3.695951 3.623637 2.042612 -1.675732 1.47732E-4 -1.4332E-4 3.47992E-5 -4.8302E-5 .124054 -.001374 
67.509205 1.868864 2.478959 3.213136 -2.233899 1.04822E-4 -1.4332E-4 2.03377E-5 -4.8302E-5 .087389 -.002378 
67.569205 1.586495 2.239867 3.486287 -2.322822 9.62499E-5 -1.43E-4 1.74416E-5 -4.8426E-5 .080073 -.002581 
67.617205 1.380604 2.058187 3.713037 -2.410699 8.93995E-5 -1.43E-4 1.51218E-5 -4.8426E-5 .074233 -.002746 
67.658205 1.218523 1.903003 3.913387 -2.485761 8.35482E-5 -1.43E-4 1.31404E-5 -4.8426E-5 .069245 -.002887 
67.669205 1.177199 1.861368 3.968185 -2.505899 8.19783E-5 -1.43E-4 1.26087E-5 -4.8426E-5 .067907 -.002925 
68.669205 1.303525 -2.032227 4.06249 2.450884 1.54767E-4 3.02317E-4 -3.3543E-5 -3.4969E-5 .059434 -.00422 
68.680205 1.348618 -2.075429 4.008887 2.43195 1.58085E-4 3.02317E-4 -3.3926E-5 -3.4969E-5 .060568 -.004207 
68.759805 1.703195 -2.388058 3.633386 2.294936 1.82101E-4 3.02317E-4 -3.6704E-5 -3.4969E-5 .068772 -.004117 
68.838605 2.098724 -2.637523 3.290783 2.065042 2.05662E-4 2.96752E-4 -3.9497E-5 -3.6062E-5 .076814 -.004032 
68.929205 2.606673 -2.980306 2.93043 1.920398 2.32494E-4 2.96752E-4 -4.2757E-5 -3.6062E-5 .085964 -.003939 
68.989205 2.977182 -3.207315 2.706183 1.824607 2.50263E-4 2.96752E-4 -4.3402E-5 1.4534E-5 .092023 -.00388 
69.129205 3.947425 -3.737002 2.227552 1.601095 2.91725E-4 2.96752E-4 -4.1371E-5 1.4534E-5 .106162 -.003744 
69.189205 4.408554 -3.964011 2.041544 1.505304 3.09467E-4 2.95867E-4 -4.0501E-5 1.4534E-5 .112222 -.003686 
69.279905 5.157237 -4.307172 1.78214 1.3605 3.36248E-4 2.95867E-4 -3.9185E-5 1.4534E-5 .121382 -.003598 
69.478505 5.15272 4.327424 1.832534 -1.641925 3.38703E-4 -2.7179E-4 -4.2682E-5 -5.0801E-5 .12127 -.003988 
69.526205 4.749392 4.145178 1.993428 -1.737933 3.25765E-4 -2.7179E-4 -4.5101E-5 -5.0801E-5 .1164 -.004227 
69.569205 4.400676 3.98089 2.146303 -1.824482 3.14101E-4 -2.7179E-4 -4.7281E-5 -5.0801E-5 .11201 -.004443 
69.629205 3.934495 3.80112 2.373752 -1.975283 2.97769E-4 -2.7367E-4 -5.0341E-5 -5.1415E-5 .105843 -.004751 
69.929205 2.010377 2.625567 3.74163 -2.593526 2.15834E-4 -2.7367E-4 -6.5734E-5 -5.1415E-5 .074808 -.006337 
69.989205 1.711499 2.367205 4.05633 -2.661747 1.99486E-4 -2.7241E-4 -6.8785E-5 -5.0504E-5 .06863 -.006641 
70.037205 1.493559 2.182375 4.315916 -2.757226 1.86437E-4 -2.7241E-4 -7.1205E-5 -5.0504E-5 .063709 -.006876 
70.078205 1.321425 2.024499 4.544889 -2.83878 1.7529E-4 -2.7241E-4 -7.3271E-5 -5.0504E-5 .059506 -.007076 
70.089205 1.277441 1.982142 4.607457 -2.860661 1.723E-4 -2.7241E-4 -7.3826E-5 -5.0504E-5 .058379 -.00713 
71.089205 1.192587 -1.867365 4.587966 2.872056 1.4613E-4 2.15131E-4 -7.6309E-5 4.60174E-5 .066881 -.007426 
71.100205 1.23404 -1.908669 4.525151 2.849927 1.48492E-4 2.15131E-4 -7.5804E-5 4.60174E-5 .068213 -.007378 
71.179805 1.56103 -2.207556 4.085079 2.689788 1.65582E-4 2.15131E-4 -7.2148E-5 4.60174E-5 .077854 -.007032 
71.258605 1.927463 -2.448323 3.683104 2.42577 1.82307E-4 2.10139E-4 -6.861E-5 4.39981E-5 .087306 -.006697 
71.349205 2.399871 -2.776425 3.259722 2.256764 2.01307E-4 2.10139E-4 -6.4631E-5 4.39981E-5 .098065 -.00632 
71.409205 2.74538 -2.993711 2.996158 2.14484 2.1389E-4 2.10139E-4 -5.9432E-5 1.29662E-4 .105191 -.006073 
71.549205 3.652766 -3.500712 2.433302 1.883683 2.43251E-4 2.10139E-4 -4.1316E-5 1.29662E-4 .121816 -.005503 
71.609205 4.085015 -3.717998 2.214418 1.771759 2.57423E-4 2.63247E-4 -3.3552E-5 1.29662E-4 .12894 -.005259 
71.699905 4.787831 -4.046462 1.908984 1.602567 2.81252E-4 2.63247E-4 -2.1815E-5 1.29662E-4 .139706 -.00489 
71.898505 4.80261 3.980201 1.898952 -1.546542 2.86267E-4 -2.1406E-4 1.63655E-6 1.13557E-4 .140023 -.00485 
71.946205 4.431611 3.813262 2.050242 -1.631569 2.76077E-4 -2.1406E-4 7.04232E-6 1.13557E-4 .134509 -.005025 
71.989205 4.11079 3.662772 2.193563 -1.708218 2.66892E-4 -2.1406E-4 1.19154E-5 1.13557E-4 .129538 -.005183 
72.049205 3.682393 3.492298 2.406141 -1.841006 2.54032E-4 -2.1545E-4 1.87198E-5 1.13721E-4 .122561 -.005403 
72.349205 1.912463 2.419393 3.672034 -2.387165 1.89529E-4 -2.1545E-4 5.27673E-5 1.13721E-4 .087476 -.006497 
72.409205 1.636437 2.184932 3.960758 -2.448396 1.76659E-4 -2.1445E-4 5.95569E-5 1.13051E-4 .080491 -.006723 
72.457205 1.435203 2.015913 4.199383 -2.532992 1.66385E-4 -2.1445E-4 6.49724E-5 1.13051E-4 .074927 -.006909 
72.498205 1.276139 1.871542 4.409626 -2.605252 1.57611E-4 -2.1445E-4 6.95982E-5 1.13051E-4 .070174 -.007068 
72.509205 1.235474 1.832808 4.467039 -2.624638 1.55256E-4 -2.1445E-4 7.08392E-5 1.13051E-4 .068899 -.00711 
73.509205 1.188547 -1.769313 4.221674 2.767391 1.87877E-4 2.85854E-4 1.25951E-4 -1.3465E-5 .067861 -.006474 
73.520205 1.227812 -1.807463 4.161162 2.744876 1.91015E-4 2.85854E-4 1.25803E-4 -1.3465E-5 .069111 -.006419 
73.599805 1.536911 -2.083533 3.738002 2.58195 2.13723E-4 2.85854E-4 1.24733E-4 -1.3465E-5 .078155 -.006023 
73.678605 1.882145 -2.302996 3.352445 2.324656 2.35955E-4 2.79401E-4 1.23815E-4 -9.899E-6 .087018 -.005638 
73.769205 2.325987 -2.605827 2.947684 2.151936 2.61217E-4 2.79401E-4 1.2292E-4 -9.899E-6 .097098 -.005202 
73.829205 2.650065 -2.806377 2.696822 2.037552 2.77947E-4 2.79401E-4 1.23785E-4 3.87838E-5 .103773 -.004915 
73.969205 3.499646 -3.274328 2.164748 1.770655 3.16985E-4 2.79401E-4 1.29203E-4 3.87838E-5 .11935 -.004249 
74.029205 3.903782 -3.474878 1.959547 1.656272 3.38285E-4 4.32031E-4 1.31526E-4 3.87837E-5 .126021 -.003964 
74.119905 4.560295 -3.778043 1.675357 1.483361 3.77391E-4 4.32031E-4 1.35036E-4 3.87837E-5 .136099 -.003532 
74.318505 4.546521 3.839802 1.64083 -1.290545 3.98919E-4 -2.2087E-4 1.65654E-4 2.78754E-4 .135573 -.003148 
74.366205 4.18879 3.674955 1.767381 -1.367876 3.88405E-4 -2.2087E-4 1.78924E-4 2.78754E-4 .130028 -.003186 
74.409205 3.879758 3.526351 1.887773 -1.437588 3.78926E-4 -2.2087E-4 1.90886E-4 2.78754E-4 .125029 -.00322 
74.469205 3.466723 3.372971 2.067749 -1.566738 3.65638E-4 -2.2291E-4 2.07668E-4 2.81804E-4 .117997 -.00324 
74.769205 1.767046 2.304068 3.155657 -2.066949 2.98901E-4 -2.2291E-4 2.92039E-4 2.81804E-4 .082558 -.003196 
74.829205 1.505889 2.060396 3.405482 -2.101704 2.85551E-4 -2.2307E-4 3.08742E-4 2.76078E-4 .075518 -.003232 
74.877205 1.316483 1.893542 3.610489 -2.177904 2.74866E-4 -2.2307E-4 3.21967E-4 2.76078E-4 .069923 -.003296 
74.918205 1.167357 1.751021 3.79138 -2.242992 2.65738E-4 -2.2307E-4 3.33263E-4 2.76078E-4 .065144 -.003351 
74.929205 1.129332 1.712784 3.840818 -2.260455 2.6329E-4 -2.2307E-4 3.36294E-4 2.76078E-4 .063862 -.003365 
75.929205 1.310688 -1.958075 3.680934 2.353363 3.5241E-4 4.18127E-4 3.85173E-4 -1.8774E-4 .058904 -.002467 
75.940205 1.354123 -1.998563 3.629479 2.333863 3.57E-4 4.18127E-4 3.83112E-4 -1.8774E-4 .060066 -.002435 
76.019805 1.694927 -2.29155 3.269886 2.192758 3.90216E-4 4.18127E-4 3.68198E-4 -1.8774E-4 .068474 -.002204 
76.098605 2.073791 -2.522271 2.942875 1.968793 4.22646E-4 4.06462E-4 3.53844E-4 -1.7738E-4 .076718 -.001977 
76.189205 2.558926 -2.843247 2.600395 1.818978 4.59398E-4 4.06462E-4 3.37805E-4 -1.7738E-4 .086101 -.00172 
76.249205 2.912156 -3.055813 2.388499 1.719762 4.83736E-4 4.06462E-4 3.2092E-4 -3.866E-4 .092314 -.001543 
76.389205 3.835357 -3.551803 1.940282 1.48826 5.40526E-4 4.06462E-4 2.66905E-4 -3.866E-4 .106813 -.001116 
76.449205 4.273442 -3.76437 1.767992 1.389045 5.68872E-4 5.40324E-4 2.43756E-4 -3.866E-4 .113022 -9.3339E-4 
76.539905 4.984008 -4.0857 1.530103 1.239064 6.17781E-4 5.40324E-4 2.08761E-4 -3.866E-4 .122403 -6.5684E-4 
76.738505 4.951335 4.232197 1.551141 -1.35655 6.21678E-4 -5.0211E-4 1.62799E-4 -9.0072E-5 .122633 -1.5961E-4 
76.786205 4.557053 4.050375 1.684445 -1.443716 5.97776E-4 -5.0211E-4 1.58512E-4 -9.0072E-5 .117807 -5.894E-5 
76.829205 4.216457 3.886469 1.811726 -1.522292 5.76229E-4 -5.0211E-4 1.54646E-4 -9.0072E-5 .113456 3.18106E-5 
76.889205 3.756968 3.741844 2.002057 -1.677058 5.4598E-4 -5.0811E-4 1.49359E-4 -8.6564E-5 .107309 1.79323E-4 
77.189205 1.874307 2.546374 3.176959 -2.247197 3.93856E-4 -5.0811E-4 1.23442E-4 -8.6564E-5 .076195 .001019 
77.249205 1.587142 2.270046 3.450014 -2.277365 3.6356E-4 -5.039E-4 1.18168E-4 -8.955E-5 .070027 .001168 
77.297205 1.378553 2.084333 3.672315 -2.363263 3.39422E-4 -5.039E-4 1.13878E-4 -8.955E-5 .065135 .001274 
77.338205 1.214473 1.925702 3.868714 -2.436634 3.18803E-4 -5.039E-4 1.10214E-4 -8.955E-5 .060956 .001364 
77.349205 1.17266 1.883143 3.922428 -2.456318 3.13272E-4 -5.039E-4 1.09231E-4 -8.955E-5 .059835 .001388 
78.349205 1.327947 -2.093301 3.986572 2.419324 9.73289E-5 3.12707E-5 -2.12E-5 -1.4614E-4 .069779 .002441 
78.360205 1.374396 -2.137792 3.933661 2.400453 9.76721E-5 3.12707E-5 -2.2805E-5 -1.4614E-4 .071142 .002438 
78.439805 1.739621 -2.459744 3.563128 2.263892 1.00156E-4 3.12707E-5 -3.4414E-5 -1.4614E-4 .081004 .002423 
78.518605 2.147052 -2.717057 3.225221 2.036327 1.02502E-4 2.83625E-5 -4.5949E-5 -1.4729E-4 .090673 .00241 
78.609205 2.670307 -3.070059 2.870028 1.892044 1.05066E-4 2.83625E-5 -5.9267E-5 -1.4729E-4 .101676 .002398 
78.669205 3.05197 -3.303831 2.649162 1.796493 1.06764E-4 2.83624E-5 -5.906E-5 1.54181E-4 .108963 .002382 
78.809205 4.051389 -3.849307 2.17831 1.573539 1.10727E-4 2.83624E-5 -3.7519E-5 1.54181E-4 .125966 .002322 
78.869205 4.526373 -4.083083 1.995587 1.477987 1.1319E-4 5.38981E-5 -2.8286E-5 1.54181E-4 .133252 .002296 
78.959905 5.297538 -4.436474 1.741096 1.333545 1.18069E-4 5.38981E-5 -1.433E-5 1.54181E-4 .144265 .002258 
79.158505 5.297083 4.438512 1.789628 -1.604576 1.09542E-4 -1.3753E-4 1.5492E-5 1.55108E-4 .144346 .002545 
79.206205 4.883359 4.252482 1.946922 -1.699662 1.02995E-4 -1.3753E-4 2.28757E-5 1.55108E-4 .138593 .002708 
79.249205 4.52558 4.084782 2.096477 -1.785378 9.70929E-5 -1.3753E-4 2.95319E-5 1.55108E-4 .133406 .002854 
79.309205 4.0498 3.866544 2.318172 -1.913847 8.88529E-5 -1.3768E-4 3.88235E-5 1.55239E-4 .126153 .003063 
79.609205 2.08759 2.687375 3.644462 -2.516055 4.76308E-5 -1.3768E-4 8.53012E-5 1.55239E-4 .089818 .00414 
79.669205 1.779692 2.445952 3.951237 -2.625158 3.93807E-5 -1.3789E-4 9.4589E-5 1.54984E-4 .082558 .00434 
79.717205 1.554358 2.258002 4.207327 -2.72083 3.27755E-5 -1.3789E-4 1.02013E-4 1.54984E-4 .076755 .004488 
79.758205 1.376144 2.097462 4.433329 -2.802551 2.71335E-5 -1.3789E-4 1.08355E-4 1.54984E-4 .071799 .004614 
79.769205 1.330565 2.05439 4.495101 -2.824476 2.56198E-5 -1.3789E-4 1.10056E-4 1.54984E-4 .070469 .004648 
80.769205 1.145098 -1.803473 4.537053 2.799972 6.96825E-5 2.34332E-4 1.78816E-4 -3.0733E-5 .064523 .004828 
80.780205 1.185142 -1.844241 4.475812 2.778584 7.22549E-5 2.34332E-4 1.78478E-4 -3.0733E-5 .065709 .004797 
80.859805 1.501588 -2.139252 4.04665 2.623806 9.08701E-5 2.34332E-4 1.76037E-4 -3.0733E-5 .074295 .004574 
80.938605 1.857126 -2.3782 3.654562 2.365911 1.0919E-4 2.31461E-4 1.73818E-4 -2.5714E-5 .082707 .004358 
81.029205 2.316487 -2.702251 3.241483 2.202681 1.30118E-4 2.31461E-4 1.71493E-4 -2.5714E-5 .092276 .004115 
81.089205 2.652953 -2.916853 2.984167 2.094583 1.43977E-4 2.31461E-4 1.71323E-4 2.00341E-5 .098612 .003953 
81.229205 3.537987 -3.417594 2.434108 1.842352 1.76317E-4 2.31461E-4 1.74122E-4 2.00341E-5 .113398 .003571 
81.289205 3.960122 -3.632196 2.219944 1.734254 1.92728E-4 3.16698E-4 1.75321E-4 2.00341E-5 .119732 .003407 
81.379905 4.647038 -3.956605 1.920776 1.570845 2.21395E-4 3.16698E-4 1.77135E-4 2.00341E-5 .129303 .00316 
81.578505 4.67278 3.841187 1.927681 -1.609404 2.45903E-4 -7.6315E-5 2.10855E-4 3.29674E-4 .128775 .003085 
81.626205 4.31471 3.680686 2.085129 -1.698063 2.4227E-4 -7.6315E-5 2.26548E-4 3.29674E-4 .123496 .003178 
81.669205 4.005018 3.536 2.234298 -1.777986 2.38995E-4 -7.6315E-5 2.40696E-4 3.29674E-4 .118736 .003262 
81.729205 3.592014 3.369448 2.455689 -1.914071 2.34429E-4 -7.6176E-5 2.60509E-4 3.32113E-4 .112062 .003415 
82.029205 1.882691 2.339808 3.772048 -2.48266 2.11622E-4 -7.6176E-5 3.59942E-4 3.32113E-4 .07853 .004364 
82.089205 1.615356 2.111421 4.07079 -2.538106 2.06972E-4 -7.9209E-5 3.79678E-4 3.27064E-4 .071851 .004497 
82.137205 1.420822 1.949562 4.318151 -2.62568 2.03178E-4 -7.9209E-5 3.95345E-4 3.27064E-4 .06653 .004559 
82.178205 1.266937 1.811307 4.536084 -2.700483 1.99937E-4 -7.9209E-5 4.08728E-4 3.27064E-4 .061985 .004613 
82.189205 1.227576 1.774214 4.595595 -2.720552 1.99067E-4 -7.9209E-5 4.12318E-4 3.27064E-4 .060766 .004627 
83.189205 1.180906 -1.710985 4.366336 2.853585 4.20578E-4 5.64025E-4 4.6291E-4 -2.3561E-4 .060833 .003525 
83.200205 1.218873 -1.747496 4.303936 2.830598 4.26769E-4 5.64025E-4 4.60324E-4 -2.3561E-4 .062051 .003489 
83.279805 1.517501 -2.011696 3.867428 2.664255 4.71575E-4 5.64025E-4 4.41607E-4 -2.3561E-4 .070865 .003224 
83.358605 1.850573 -2.220307 3.469466 2.400226 5.15384E-4 5.49862E-4 4.23571E-4 -2.232E-4 .079508 .002965 
83.449205 2.278278 -2.51003 3.051354 2.224026 5.65101E-4 5.49862E-4 4.0339E-4 -2.232E-4 .089347 .002671 
83.509205 2.590363 -2.701898 2.791996 2.107337 5.98026E-4 5.49862E-4 3.85448E-4 -3.7608E-4 .095863 .00248 
83.649205 3.40792 -3.149593 2.241173 1.835064 6.74851E-4 5.49862E-4 3.32903E-4 -3.7608E-4 .111066 .002047 
83.709205 3.796598 -3.341463 2.028397 1.718377 7.13526E-4 7.41885E-4 3.10384E-4 -3.7608E-4 .117576 .001861 
83.799905 4.427771 -3.631505 1.733278 1.541982 7.80679E-4 7.41885E-4 2.76343E-4 -3.7608E-4 .127408 .00158 
83.998505 4.401087 3.751139 1.692775 -1.315792 7.967E-4 -5.8475E-4 2.43847E-4 3.90664E-5 .12781 .001152 
84.046205 4.05171 3.588125 1.821705 -1.392602 7.68863E-4 -5.8475E-4 2.45707E-4 3.90664E-5 .122828 .001089 
84.089205 3.75006 3.441173 1.944199 -1.461843 7.4377E-4 -5.8475E-4 2.47383E-4 3.90664E-5 .118336 .001032 
84.149205 3.343999 3.336561 2.128796 -1.621726 7.08464E-4 -5.9432E-4 2.49946E-4 4.64894E-5 .111965 9.88804E-4 
84.449205 1.67132 2.250301 3.252718 -2.132251 5.30527E-4 -5.9432E-4 2.63865E-4 4.64894E-5 .079604 9.5077E-4 
84.509205 1.418105 1.985353 3.507758 -2.11752 4.95133E-4 -5.8804E-4 2.66381E-4 3.76198E-5 .07321 9.02483E-4 
84.557205 1.235892 1.818426 3.714218 -2.19241 4.66965E-4 -5.8804E-4 2.68183E-4 3.76198E-5 .068153 8.32029E-4 
84.598205 1.092916 1.675843 3.89625 -2.256378 4.42904E-4 -5.8804E-4 2.69722E-4 3.76198E-5 .063834 7.71849E-4 
84.609205 1.056542 1.637589 3.945979 -2.273541 4.36448E-4 -5.8804E-4 2.70135E-4 3.76198E-5 .062676 7.55703E-4 
85.609205 1.413437 -2.120485 3.697025 2.418822 1.96019E-4 6.18123E-5 1.5908E-4 -2.3831E-4 .070194 -7.5586E-4 
85.620205 1.460462 -2.163174 3.644142 2.39848 1.96697E-4 6.18123E-5 1.56464E-4 -2.3831E-4 .071537 -7.6873E-4 
85.699805 1.828685 -2.472092 3.274768 2.251276 2.01608E-4 6.18123E-5 1.37532E-4 -2.3831E-4 .081253 -8.6184E-4 
85.778605 2.236841 -2.713912 2.939026 2.02139 2.0624E-4 5.59597E-5 1.1894E-4 -2.3463E-4 .090776 -9.5516E-4 
85.869205 2.758183 -3.052054 2.587636 1.864921 2.11299E-4 5.59597E-5 9.77254E-5 -2.3463E-4 .101611 -.001064 
85.929205 3.1371 -3.275987 2.370502 1.7613 2.1465E-4 5.59596E-5 8.93086E-5 -4.6498E-5 .108787 -.001141 
86.069205 4.125531 -3.798502 1.912114 1.519517 2.22469E-4 5.59596E-5 8.28121E-5 -4.6498E-5 .125531 -.001336 
86.129205 4.593841 -4.022437 1.736344 1.415897 2.30167E-4 2.01183E-4 8.00278E-5 -4.6498E-5 .132702 -.001419 
86.219955 5.353116 -4.361138 1.494071 1.25917 2.48388E-4 2.01183E-4 7.58167E-5 -4.6498E-5 .143543 -.001545 
86.418455 5.404039 4.13106 1.468663 -1.117962 2.49192E-4 -1.9328E-4 7.80456E-5 6.95901E-5 .144691 -.002088 
86.466205 5.01791 3.971754 1.578692 -1.190963 2.39982E-4 -1.9328E-4 8.13618E-5 6.95901E-5 .139525 -.00229 
86.509205 4.683184 3.828295 1.683729 -1.256701 2.31687E-4 -1.9328E-4 8.43481E-5 6.95901E-5 .134873 -.002473 
86.569205 4.233445 3.666523 1.84037 -1.365254 2.20087E-4 -1.9417E-4 8.85391E-5 7.03928E-5 .128345 -.002713 
86.699705 3.336282 3.222189 2.222377 -1.567924 1.94798E-4 -1.9417E-4 9.77069E-5 7.03928E-5 .114067 -.003208 
86.778705 2.849409 2.953206 2.479283 -1.690613 1.79489E-4 -1.9417E-4 1.03257E-4 7.03928E-5 .105423 -.003508 
86.869205 2.343787 2.645067 2.79736 -1.831162 1.61952E-4 -1.9417E-4 1.09614E-4 7.03928E-5 .095521 -.003851 
86.929205 2.041161 2.421178 3.021327 -1.894077 1.50337E-4 -1.9379E-4 1.13795E-4 6.92552E-5 .088986 -.004098 
86.977205 1.816911 2.260134 3.206276 -1.966813 1.41054E-4 -1.9379E-4 1.17113E-4 6.92552E-5 .08378 -.00431 
87.018205 1.637582 2.122576 3.369772 -2.028941 1.33125E-4 -1.9379E-4 1.19946E-4 6.92552E-5 .079334 -.004492 
87.029205 1.591385 2.08567 3.414502 -2.045609 1.30998E-4 -1.9379E-4 1.20707E-4 6.92552E-5 .078141 -.00454 
88.029205 .903321 -1.154856 3.369796 2.071571 1.73347E-4 2.86476E-4 1.13892E-4 -8.1568E-5 .0918 -.00571 
88.040205 .928988 -1.183217 3.324502 2.054333 1.76492E-4 2.86476E-4 1.12996E-4 -8.1568E-5 .093321 -.005685 
88.119705 1.133002 -1.388188 3.008407 1.92975 1.99221E-4 2.86476E-4 1.06525E-4 -8.1568E-5 .10431 -.005501 
88.198705 1.392634 -1.926987 2.660318 2.455728 2.23784E-4 3.3782E-4 9.90931E-5 -1.0659E-4 .116261 -.005264 
88.289205 1.768323 -2.232661 2.238285 2.21704 2.54295E-4 3.3782E-4 8.94662E-5 -1.0659E-4 .131184 -.004934 
88.349205 2.047837 -2.435318 1.982253 2.058793 2.74523E-4 3.3782E-4 8.18628E-5 -1.4737E-4 .141078 -.004714 
88.409205 2.351621 -2.637974 1.745171 1.900547 2.94752E-4 3.3782E-4 7.30386E-5 -1.4737E-4 .150972 -.004492 
88.469205 2.679674 -2.840631 1.527041 1.742301 3.14997E-4 3.38394E-4 6.42143E-5 -1.4737E-4 .160866 -.004271 
88.509205 2.91186 -2.975735 1.39215 1.636804 3.28506E-4 3.38394E-4 5.83315E-5 -1.4737E-4 .167462 -.004123 
88.552205 3.173489 -3.120972 1.256535 1.523394 3.43027E-4 3.38394E-4 5.20075E-5 -1.4737E-4 .174552 -.003965 
88.599955 3.478627 -3.282253 1.117346 1.397456 3.59153E-4 3.38394E-4 4.49849E-5 -1.4737E-4 .182426 -.003788 
88.798455 3.374822 3.734754 1.028009 -.887974 3.53145E-4 -3.9697E-4 2.30601E-5 -8.1472E-5 .178212 -.00379 
88.889205 2.734662 3.333598 1.203122 -1.045539 3.17193E-4 -3.9697E-4 1.56814E-5 -8.1472E-5 .159525 -.004125 
88.949205 2.349461 3.097829 1.335562 -1.166429 2.93364E-4 -3.9889E-4 1.08083E-5 -8.1305E-5 .147111 -.004346 
89.049205 1.776065 2.647718 1.58598 -1.342818 2.53555E-4 -3.9889E-4 2.69412E-6 -8.1305E-5 .126328 -.004713 
89.109205 1.476653 2.354469 1.751507 -1.42107 2.29729E-4 -3.9698E-4 -2.1748E-6 -8.131E-5 .113916 -.004931 
89.157205 1.261248 2.142195 1.89161 -1.503651 2.10712E-4 -3.9698E-4 -6.0699E-6 -8.131E-5 .104031 -.005103 
89.198205 1.093361 1.960877 2.017547 -1.574189 1.94469E-4 -3.9698E-4 -9.3968E-6 -8.131E-5 .095587 -.005251 
89.209205 1.050843 1.912231 2.052317 -1.593114 1.90111E-4 -3.9698E-4 -1.0289E-5 -8.131E-5 .093322 -.00529 
90.209205 1.689721 -2.77657 2.84833 1.12997 2.59295E-5 3.76364E-5 -7.1268E-5 -2.8874E-5 -6.2872E-4 -.005496 
90.220205 1.751304 -2.833153 2.823617 1.121195 2.63427E-5 3.76364E-5 -7.1585E-5 -2.8874E-5 -6.1852E-4 -.00546 
90.439205 3.235932 -3.95967 2.371708 .946489 3.45685E-5 3.76364E-5 -7.7896E-5 -2.8874E-5 -4.1526E-4 -.004744 
90.499205 3.728614 -4.268304 2.261225 .898624 3.68221E-5 3.76364E-5 -7.9625E-5 -2.8874E-5 -3.5957E-4 -.004548 
90.599205 4.631889 -4.782695 2.089824 .818849 4.05781E-5 3.76364E-5 -8.2506E-5 -2.8874E-5 -2.6676E-4 -.00422 
90.659205 5.223135 -5.09133 1.994626 .770985 4.10464E-5 -2.1997E-5 -8.4235E-5 -2.8874E-5 -2.0929E-4 -.004024 
90.702205 5.669598 -5.312518 1.929927 .736682 4.01024E-5 -2.1997E-5 -8.5474E-5 -2.8874E-5 -1.6683E-4 -.003883 
90.749855 6.186516 -5.557625 1.861671 .698669 3.90563E-5 -2.1997E-5 -8.6847E-5 -2.8874E-5 -1.1978E-4 -.003727 
90.948555 7.145503 1.049837 1.976686 -1.317064 3.10043E-5 -5.7818E-5 -1.0157E-4 -1.2215E-4 8.54496E-5 -.003425 
91.160705 6.714143 .987549 2.596405 -1.609973 1.8763E-5 -5.7818E-5 -1.2743E-4 -1.2215E-4 3.06358E-4 -.003461 
91.220705 6.596931 .969934 2.794172 -1.692813 1.53009E-5 -5.7818E-5 -1.3256E-4 -4.9174E-5 3.68835E-4 -.003473 
91.339205 6.371635 .935142 3.213908 -1.856421 8.46332E-6 -5.7818E-5 -1.3838E-4 -4.9174E-5 4.92227E-4 -.003502 
91.839205 5.51163 .788343 5.411055 -2.546754 -2.0387E-5 -5.7818E-5 -1.6291E-4 -4.9174E-5 .001013 -.003624 
92.591705 4.493485 .567409 10.016424 -3.585705 -6.3807E-5 -5.7818E-5 -1.9984E-4 -4.9174E-5 .001796 -.003807 
92.651705 4.426588 .549793 10.450801 -3.668545 -6.727E-5 -5.7818E-5 -2.0267E-4 -4.5148E-5 .001859 -.003821 
92.762355 4.308752 .517306 11.277883 -3.821316 -7.3654E-5 -5.7818E-5 -2.0765E-4 -4.5148E-5 .001974 -.003849 
92.961055 4.733209 -2.758378 11.18897 4.248239 -9.0646E-5 -1.1563E-4 -2.0192E-4 1.02291E-4 .002332 -.003643 
93.011705 5.016716 -2.850313 10.763841 4.162189 -9.6491E-5 -1.1563E-4 -1.9675E-4 1.02291E-4 .002465 -.003526 
93.051705 5.24718 -2.922917 10.434251 4.094232 -1.0111E-4 -1.1563E-4 -1.9266E-4 1.02291E-4 .002569 -.003434 
94.299205 15.344226 -5.187265 2.878359 1.974835 -2.4506E-4 -1.1563E-4 -6.5313E-5 1.02291E-4 .005826 -5.7068E-4 
94.359205 15.971964 -5.296171 2.647961 1.8729 -2.5267E-4 -1.3854E-4 -5.9188E-5 1.02291E-4 .005983 -4.3294E-4 
94.509755 17.604482 -5.569436 2.123597 1.617128 -2.7349E-4 -1.3854E-4 -4.3819E-5 1.02291E-4 .006379 -8.7337E-5 
94.588655 17.914677 1.674336 1.943225 .699286 -2.7996E-4 -2.5331E-5 -3.6431E-5 8.59465E-5 .006479 9.39249E-5 
94.679205 17.6138 1.65515 1.823097 .630042 -2.8225E-4 -2.5331E-5 -2.8665E-5 8.59465E-5 .00647 3.03387E-4 
94.699205 17.547812 1.650913 1.798252 .614748 -2.8276E-4 -2.5331E-5 -2.6949E-5 8.59465E-5 .006468 3.49651E-4 
94.779205 17.285552 1.633963 1.704974 .553571 -2.8478E-4 -2.5331E-5 -2.0087E-5 8.59465E-5 .00646 5.34708E-4 
96.139205 13.241237 1.345808 1.613847 -.48643 -3.1916E-4 -2.5331E-5 9.65641E-5 8.59465E-5 .006317 .003681 
97.689755 9.58454 1.01728 4.954079 -1.672147 -3.5836E-4 -2.5331E-5 2.2956E-4 8.59465E-5 .006155 .007267 
97.768655 9.259934 3.079808 5.312827 -2.911903 -3.572E-4 5.46549E-5 2.38366E-4 1.38129E-4 .00609 .007512 
97.859205 8.712553 2.977483 5.853679 -3.073137 -3.5226E-4 5.46549E-5 2.50848E-4 1.38129E-4 .005949 .007866 
97.879205 8.594145 2.954883 5.977068 -3.108749 -3.5117E-4 5.46549E-5 2.53605E-4 1.38129E-4 .005918 .007944 
97.959205 8.129535 2.86448 6.484837 -3.251198 -3.4681E-4 5.46549E-5 2.64633E-4 1.38129E-4 .005794 .008257 
98.024205 7.762668 2.791027 6.914148 -3.366937 -3.4326E-4 5.46549E-5 2.73594E-4 1.38129E-4 .005693 .008511 
98.084205 7.43248 2.723225 7.323763 -3.473772 -3.3649E-4 1.71566E-4 2.81865E-4 1.38129E-4 .005597 .008745 
98.224205 6.693619 2.56502 8.329287 -3.723057 -3.1252E-4 1.71566E-4 3.01164E-4 1.38129E-4 .005363 .009292 
98.284205 6.390497 2.497223 8.78155 -3.829893 -3.0224E-4 1.71566E-4 3.02431E-4 -9.5816E-5 .005263 .009533 
99.317355 2.444665 1.32972 18.57608 -5.669526 -1.2535E-4 1.71566E-4 2.03638E-4 -9.5816E-5 .003541 .01381 
99.516055 2.336869 -.755833 17.705015 9.812172 -1.0104E-4 7.71505E-5 1.68325E-4 -2.552E-4 .003512 .013484 
99.546705 2.383738 -.7764 17.109882 9.644108 -9.8678E-5 7.71505E-5 1.60519E-4 -2.552E-4 .003554 .013258 
99.566705 2.414999 -.78982 16.727085 9.534441 -9.7138E-5 7.71505E-5 1.55425E-4 -2.552E-4 .003581 .013111 
99.646705 2.545401 -.843503 15.239674 9.095774 -9.0978E-5 7.71505E-5 1.3505E-4 -2.552E-4 .00369 .012521 
99.706705 2.648828 -.883763 14.170082 8.766774 -8.6358E-5 7.71506E-5 1.25192E-4 -7.4059E-5 .003771 .012073 
100.252955 3.812217 -1.250314 6.244566 5.771503 -4.43E-5 7.71506E-5 8.48193E-5 -7.4059E-5 .004515 .007948 
100.752955 5.227428 -1.58583 1.852772 3.029836 -5.8023E-6 7.71506E-5 4.78644E-5 -7.4059E-5 .005196 .004172 
101.329855 7.276346 -1.972947 .185247 -.1335 3.86161E-5 7.71506E-5 5.22596E-6 -7.4059E-5 .005982 -1.8492E-4 
101.528555 6.647821 4.930804 .514525 -1.635197 4.96971E-5 3.27192E-5 -9.4161E-6 -7.6102E-5 .00567 -.001753 
101.579205 6.159067 4.738334 .698081 -1.996125 5.13509E-5 3.27192E-5 -1.3263E-5 -7.6102E-5 .005445 -.002183 
101.619205 5.786832 4.586333 .868827 -2.281161 5.26571E-5 3.27192E-5 -1.6301E-5 -7.6102E-5 .005267 -.002523 
101.679205 5.251235 4.358333 1.167616 -2.708716 5.22852E-5 -4.5139E-5 -2.0858E-5 -7.6102E-5 .005003 -.003032 
102.099205 2.266588 2.762329 4.692823 -5.701597 3.33651E-5 -4.5139E-5 -5.2756E-5 -7.6102E-5 .003169 -.006599 
102.159205 1.94943 2.534329 5.401236 -6.129152 3.06622E-5 -4.5139E-5 -5.6211E-5 -3.9287E-5 .002907 -.00711 
102.199205 1.75316 2.382328 5.901958 -6.414188 2.88603E-5 -4.5139E-5 -5.7779E-5 -3.9287E-5 .002733 -.007451 
102.249855 1.522046 2.189858 6.568649 -6.775116 2.65786E-5 -4.5139E-5 -5.9765E-5 -3.9287E-5 .002511 -.007883 
102.448555 1.089049 .180856 7.512597 2.436589 2.07635E-5 -1.4813E-5 -5.9645E-5 4.04719E-5 .001936 -.008514 
102.588205 1.057056 .048698 6.851365 2.3079 1.8699E-5 -1.4813E-5 -5.4004E-5 4.04719E-5 .001719 -.00819 
104.610205 4.721871 -1.864831 1.297047 .444595 -1.1193E-5 -1.4813E-5 2.76651E-5 4.04719E-5 -.00142 -.0035 
104.709205 5.09962 -1.95852 1.218208 .353365 -1.2657E-5 -1.4813E-5 3.16638E-5 4.04719E-5 -.001573 -.00327 
104.769205 5.337568 -2.015301 1.179201 .298074 -1.2213E-5 2.96377E-5 3.40872E-5 4.04719E-5 -.001668 -.003131 
104.849205 5.66541 -2.09101 1.137491 .224353 -9.8466E-6 2.96377E-5 3.73184E-5 4.04719E-5 -.001796 -.002945 
104.949205 6.092213 -2.185645 1.101907 .132201 -6.8888E-6 2.96377E-5 4.13575E-5 4.04719E-5 -.001955 -.002713 
105.149205 6.399732 .693317 1.189336 -.583819 -7.4547E-7 3.14283E-5 5.14956E-5 6.19242E-5 -.00218 -.002371 
105.279205 6.223727 .6633 1.359799 -.730084 3.33196E-6 3.14283E-5 5.95295E-5 6.19242E-5 -.002262 -.002225 
105.339205 6.145121 .649451 1.451275 -.797591 5.21386E-6 3.14283E-5 5.69825E-5 -1.4699E-4 -.0023 -.002151 
107.589205 4.39507 .129922 10.717601 -3.3291 7.57848E-5 3.14283E-5 -2.7309E-4 -1.4699E-4 -.003719 8.51271E-4 
107.789205 4.810868 -2.283723 10.949967 2.204895 8.60441E-5 7.22673E-5 -2.8819E-4 -3.0081E-6 -.004041 .001057 
107.839205 5.041996 -2.34819 10.731255 2.178184 8.96502E-5 7.22673E-5 -2.8834E-4 -3.0081E-6 -.004173 .001092 
110.039205 21.58102 -5.184742 3.747007 1.00289 2.48317E-4 7.22673E-5 -2.9495E-4 -3.0081E-6 -.009948 .002635 
110.099205 22.206566 -5.262102 3.628822 .970837 2.51713E-4 4.11472E-5 -2.9513E-4 -3.0081E-6 -.010105 .002677 
110.179205 23.05504 -5.36525 3.477213 .928099 2.54998E-4 4.11472E-5 -2.9537E-4 -3.0081E-6 -.010313 .002733 
110.229205 23.593699 -5.429717 3.385924 .901388 2.57051E-4 4.11472E-5 -2.9552E-4 -3.0081E-6 -.010442 .002768 
110.429205 23.379837 6.464834 3.374978 -.844714 2.52339E-4 -8.7957E-5 -3.1108E-4 -1.5428E-4 -.01042 .003066 
110.559205 21.73318 6.227364 3.602707 -.910585 2.40928E-4 -8.7957E-5 -3.3109E-4 -1.5428E-4 -.010055 .003365 
110.619205 20.993965 6.117778 3.713577 -.940986 2.35661E-4 -8.7958E-5 -3.3394E-4 5.9389E-5 -.009886 .003497 
110.729205 19.672827 5.916841 3.926295 -.996723 2.26005E-4 -8.7958E-5 -3.2742E-4 5.9389E-5 -.009577 .003726 
110.768205 19.215017 5.8456 4.004652 -1.016484 2.22582E-4 -8.7958E-5 -3.251E-4 5.9389E-5 -.009467 .003808 
112.790205 3.076467 2.152009 10.174459 -2.041022 4.50902E-5 -8.7958E-5 -2.0526E-4 5.9389E-5 -.003781 .008033 
112.879205 2.708622 1.989433 10.541034 -2.086118 3.72777E-5 -8.7958E-5 -1.9999E-4 5.9389E-5 -.00353 .008219 
112.929855 2.512176 1.89691 10.753229 -2.111782 3.28317E-5 -8.7958E-5 -1.9698E-4 5.9389E-5 -.003388 .008325 
113.128555 2.320261 -.858103 9.28076 8.976934 1.84522E-5 -5.9822E-5 -1.6422E-4 2.64769E-4 -.003194 .0078 
113.219205 2.481646 -.925803 7.728471 8.181655 1.30403E-5 -5.9822E-5 -1.4027E-4 2.64769E-4 -.003268 .007141 
113.279205 2.595201 -.970612 6.780172 7.655271 9.45823E-6 -5.9822E-5 -1.2696E-4 1.79802E-4 -.003317 .006707 
114.48911 6.030216 -1.874204 1.109972 -2.959316 -6.2774E-5 -5.9822E-5 9.01483E-5 1.79802E-4 -.004308 -.001985 
114.52911 6.181042 -1.904077 1.360249 -3.310239 -6.5162E-5 -5.9822E-5 9.73259E-5 1.79802E-4 -.004341 -.002272 
114.57976 6.375448 -1.941904 1.717361 -3.754595 -6.8186E-5 -5.9822E-5 1.06414E-4 1.79802E-4 -.004382 -.002636 
114.77846 5.923392 4.07173 4.12695 -9.175975 -7.3193E-5 1.01645E-5 1.53659E-4 3.04586E-4 -.00413 -.00438 
114.86911 5.210965 3.803248 5.956159 -11.043618 -7.2274E-5 1.01645E-5 1.81214E-4 3.04586E-4 -.003829 -.005347 
114.92911 4.766137 3.625544 7.352741 -12.279783 -6.7231E-5 1.58269E-4 1.99452E-4 3.04586E-4 -.003635 -.005987 
115.18911 3.084466 2.855493 15.115289 -17.636506 -2.6164E-5 1.58269E-4 2.78485E-4 3.04586E-4 -.002811 -.00876 
115.22911 2.861216 2.737023 16.556262 -18.460617 -1.9846E-5 1.58269E-4 2.90644E-4 3.04586E-4 -.002684 -.009186 
115.27976 2.592098 2.587011 18.4753 -19.504148 -1.1845E-5 1.58269E-4 3.0604E-4 3.04586E-4 -.002524 -.009727 
115.47846 2.090854 .104011 22.640011 -.107107 1.93793E-5 1.61911E-4 3.35216E-4 -1.5264E-5 -.002124 -.010817 
115.56911 2.075991 .060275 22.659756 -.111149 3.40269E-5 1.61911E-4 3.33835E-4 -1.5264E-5 -.00204 -.010827 
115.62911 2.070506 .031332 22.673227 -.113824 4.3722E-5 1.61911E-4 3.21412E-4 -3.9966E-4 -.001985 -.010823 
116.18911 2.186484 -.238853 22.814406 -.138792 1.34209E-4 1.61911E-4 9.80535E-5 -3.9966E-4 -.001468 -.010673 
116.22911 2.206324 -.258152 22.825558 -.140576 1.40672E-4 1.61911E-4 8.20993E-5 -3.9966E-4 -.001431 -.010663 
116.27976 2.233657 -.282589 22.839884 -.142834 1.48857E-4 1.61911E-4 6.18973E-5 -3.9966E-4 -.001385 -.010649 
116.47846 2.673859 -2.032039 20.090841 13.40454 1.91278E-4 2.70639E-4 -1.9622E-5 -4.1346E-4 -.001297 -.00992 
116.54911 2.969943 -2.167291 18.245307 12.770449 2.1036E-4 2.70639E-4 -4.8774E-5 -4.1346E-4 -.0013 -.009427 
116.60911 3.236371 -2.282155 16.748188 12.231945 2.24217E-4 1.92215E-4 -7.3531E-5 -4.1346E-4 -.0013 -.009008 
117.24976 6.938747 -3.508616 4.783248 6.482045 3.47111E-4 1.92215E-4 -3.3788E-4 -4.1346E-4 -.001276 -.004537 
117.44846 6.220015 6.753666 3.665361 -.276997 3.31655E-4 -3.44E-4 -4.7698E-4 -.001026 -.001027 -.003732 
117.53911 5.059376 6.075716 3.717883 -.303573 3.00534E-4 -3.44E-4 -5.6982E-4 -.001026 -8.0928E-4 -.003608 
117.59911 4.358605 5.627478 3.755292 -.321163 2.79935E-4 -3.4403E-4 -5.5357E-4 .001569 -6.652E-4 -.003603 
117.72911 3.024568 4.655069 3.843571 -.359274 2.35301E-4 -3.4403E-4 -3.5005E-4 .001569 -3.5302E-4 -.003761 
117.77711 2.595782 4.296026 3.878666 -.373346 2.18821E-4 -3.4403E-4 -2.749E-4 .001569 -2.3775E-4 -.003819 
117.81811 2.256766 3.989343 3.90971 -.385366 2.04744E-4 -3.4403E-4 -2.1072E-4 .001569 -1.393E-4 -.003869 
117.82911 2.170081 3.907062 3.918207 -.388591 2.00967E-4 -3.4403E-4 -1.9349E-4 .001569 -1.1288E-4 -.003882 
118.82911 1.281833 -2.705524 1.381945 1.864886 1.06616E-4 1.37811E-4 .001189 9.28869E-4 .097937 -.002102 
118.84011 1.342017 -2.776777 1.341391 1.829315 1.08128E-4 1.37811E-4 .001199 9.28869E-4 .100268 -.002066 
118.92911 1.886492 -3.353275 1.041991 1.541517 1.20369E-4 1.37811E-4 .001281 9.28869E-4 .119125 -.001768 
118.98911 2.311334 -3.741589 .869 1.347496 1.28621E-4 1.37793E-4 .001248 -.002037 .131837 -.001478 
119.08911 3.122778 -4.389235 .632314 1.024126 1.42372E-4 1.37793E-4 .001045 -.002037 .153024 -8.4839E-4 
119.14911 3.671693 -4.777822 .521284 .830104 1.54371E-4 2.6299E-4 9.23059E-4 -.002037 .165732 -4.7033E-4 
119.23986 4.590351 -5.365561 .397501 .536646 1.78189E-4 2.6299E-4 7.38615E-4 -.002037 .184947 1.01442E-4 
119.43836 4.691885 4.928409 .460145 -.896947 1.90103E-4 -1.4714E-4 4.69351E-4 -7.8083E-4 .186131 .001324 
119.48611 4.234411 4.671556 .554537 -1.083827 1.83091E-4 -1.4714E-4 4.32141E-4 -7.8083E-4 .176569 .001638 
119.52911 3.843394 4.440254 .65478 -1.252116 1.76777E-4 -1.4714E-4 3.98633E-4 -7.8083E-4 .167959 .001921 
119.58911 3.329564 4.141846 .819156 -1.492877 1.68037E-4 -1.4485E-4 3.51959E-4 -7.7817E-4 .15591 .002392 
119.67961 2.62588 3.649378 1.120973 -1.848861 1.54954E-4 -1.4485E-4 2.81677E-4 -7.7817E-4 .137688 .003214 
119.75861 2.160971 2.316375 1.393337 -1.565229 1.46078E-4 -8.1077E-5 2.15931E-4 -8.8407E-4 .124009 .003878 
119.84911 1.766581 2.050326 1.69627 -1.788858 1.38755E-4 -8.1077E-5 1.36085E-4 -8.8407E-4 .110788 .004573 
119.90911 1.532486 1.860097 1.918398 -1.920019 1.33905E-4 -8.0869E-5 8.31163E-5 -8.8504E-4 .102051 .005007 
119.95711 1.360955 1.720685 2.107954 -2.037042 1.30031E-4 -8.0869E-5 4.07199E-5 -8.8504E-4 .095082 .005337 
119.99811 1.225016 1.601604 2.278745 -2.137 1.26722E-4 -8.0869E-5 4.50632E-6 -8.8504E-4 .08913 .005619 
120.00911 1.190202 1.569656 2.325959 -2.163817 1.25834E-4 -8.0869E-5 -5.2095E-6 -8.8504E-4 .087533 .005695 
121.00911 1.204397 -1.58879 3.831835 1.287152 2.99994E-4 4.62157E-4 -7.25E-4 -4.1562E-4 .063028 .007884 
121.02011 1.239633 -1.620913 3.803658 1.27954 3.05067E-4 4.62157E-4 -7.2956E-4 -4.1562E-4 .064034 .007859 
121.09961 1.515258 -1.853074 3.604986 1.224531 3.41735E-4 4.62157E-4 -7.6254E-4 -4.1562E-4 .071304 .007672 
121.17861 1.867095 -2.647036 3.333187 2.193891 3.8242E-4 5.72417E-4 -7.8604E-4 -1.7907E-4 .079409 .007386 
121.26911 2.380224 -3.034351 2.95112 2.036375 4.3412E-4 5.72417E-4 -8.0221E-4 -1.7907E-4 .089747 .006945 
121.32911 2.758986 -3.291058 2.7135 1.931944 4.68395E-4 5.72404E-4 -7.7425E-4 .001113 .096601 .006614 
121.46911 3.762335 -3.890195 2.207691 1.688273 5.4837E-4 5.72404E-4 -6.1877E-4 .001113 .112594 .005751 
121.52911 4.243593 -4.146968 2.01176 1.583843 5.84939E-4 6.49004E-4 -5.5213E-4 .001113 .119445 .005382 
121.61986 5.029924 -4.535337 1.739177 1.425891 6.43717E-4 6.49004E-4 -4.5134E-4 .001113 .129805 .004822 
121.81836 5.106203 4.194343 1.764175 -1.565935 6.60991E-4 -4.7963E-4 -2.9598E-4 5.0032E-4 .130307 .004425 
121.86611 4.714719 4.020828 1.917864 -1.659184 6.38135E-4 -4.7963E-4 -2.7214E-4 5.0032E-4 .12509 .00452 
121.90911 4.376331 3.864574 2.063869 -1.743157 6.17553E-4 -4.7963E-4 -2.5067E-4 5.0032E-4 .120393 .004606 
121.96911 3.921965 3.745155 2.283773 -1.91705 5.88642E-4 -4.8596E-4 -2.2089E-4 4.94472E-4 .113749 .004695 
122.10911 2.950226 3.209856 2.859425 -2.203064 5.20744E-4 -4.8596E-4 -1.518E-4 4.94472E-4 .098043 .004832 
122.16911 2.579556 2.980454 3.1306 -2.325642 4.91645E-4 -4.8596E-4 -1.3801E-4 -3.3595E-5 .091313 .004907 
122.26911 2.022826 2.598094 3.615178 -2.529937 4.43147E-4 -4.8596E-4 -1.4136E-4 -3.3595E-5 .080094 .005058 
122.32911 1.728019 2.319919 3.917984 -2.542582 4.14211E-4 -4.8063E-4 -1.4325E-4 -2.9616E-5 .073431 .005166 
122.37711 1.514231 2.143 4.165951 -2.633849 3.91188E-4 -4.8063E-4 -1.4467E-4 -2.9616E-5 .068151 .005266 
122.41811 1.345042 1.991881 4.384681 -2.711807 3.71522E-4 -4.8063E-4 -1.4588E-4 -2.9616E-5 .063641 .005351 
122.42911 1.301755 1.951337 4.44445 -2.732722 3.66245E-4 -4.8063E-4 -1.4621E-4 -2.9616E-5 .062431 .005374 
123.42911 1.139287 -1.731626 4.393581 2.762617 2.10898E-4 1.40625E-4 -9.3653E-5 1.24584E-4 .064294 .0042 
123.44011 1.177729 -1.770155 4.333163 2.741049 2.12442E-4 1.40625E-4 -9.2285E-5 1.24584E-4 .065551 .004153 
123.51971 1.481117 -2.048961 3.910066 2.584974 2.23613E-4 1.40625E-4 -8.2388E-5 1.24584E-4 .074646 .003816 
123.59851 1.82126 -2.272885 3.523888 2.329542 2.34416E-4 1.34053E-4 -7.268E-5 1.2236E-4 .083562 .003487 
123.68911 2.259954 -2.578998 3.117537 2.164642 2.46536E-4 1.34053E-4 -6.1617E-5 1.2236E-4 .093709 .003113 
123.74911 2.580949 -2.781723 2.864843 2.055436 2.54563E-4 1.34053E-4 -5.429E-5 1.2236E-4 .100429 .002866 
123.88911 3.42435 -3.254747 2.326083 1.800623 2.73293E-4 1.34053E-4 -3.7194E-5 1.2236E-4 .116109 .002288 
123.94911 3.826271 -3.457471 2.116983 1.691418 2.85227E-4 2.64544E-4 -2.9867E-5 1.2236E-4 .122825 .00204 
124.03981 4.479931 -3.763923 1.825722 1.526336 3.09172E-4 2.64544E-4 -1.8792E-5 1.2236E-4 .132971 .001666 
124.23841 4.486354 3.735122 1.820791 -1.498803 3.10021E-4 -2.5622E-4 3.6387E-6 1.10268E-4 .13307 .001082 
124.28611 4.138294 3.576478 1.967529 -1.583679 2.97824E-4 -2.5622E-4 8.88786E-6 1.10268E-4 .12778 9.89654E-4 
124.32911 3.837475 3.433466 2.106735 -1.660192 2.86829E-4 -2.5622E-4 1.36198E-5 1.10268E-4 .123011 9.06797E-4 
124.38911 3.435707 3.273236 2.313458 -1.793402 2.71438E-4 -2.5782E-4 2.0228E-5 1.10462E-4 .116316 7.93842E-4 
124.68911 1.781345 2.252446 3.550693 -2.339051 1.94249E-4 -2.5782E-4 5.32997E-5 1.10462E-4 .082635 2.43519E-4 
124.74911 1.525147 2.030068 3.834971 -2.401956 1.78843E-4 -2.5679E-4 5.98935E-5 1.09773E-4 .075929 1.24684E-4 
124.79711 1.338359 1.869217 4.069144 -2.486513 1.66542E-4 -2.5679E-4 6.5152E-5 1.09773E-4 .070586 2.25456E-5 
124.83811 1.191014 1.731824 4.275582 -2.558739 1.56035E-4 -2.5679E-4 6.96436E-5 1.09773E-4 .066022 -6.4697E-5 
124.84911 1.153396 1.694962 4.331974 -2.578117 1.53216E-4 -2.5679E-4 7.08487E-5 1.09773E-4 .064798 -8.8104E-5 
125.84911 1.263257 -1.843589 4.154608 2.681387 1.33935E-4 2.14588E-4 1.2328E-4 -1.5032E-5 .066739 -.00171 
125.86011 1.304154 -1.881816 4.095974 2.659747 1.36291E-4 2.14588E-4 1.23115E-4 -1.5032E-5 .06801 -.001719 
125.93971 1.625109 -2.158434 3.685837 2.50315 1.53338E-4 2.14588E-4 1.21921E-4 -1.5032E-5 .07721 -.001786 
126.01851 1.98195 -2.375574 3.312081 2.253276 1.70035E-4 2.09948E-4 1.20876E-4 -1.1549E-5 .086227 -.001854 
126.10911 2.438939 -2.678646 2.919612 2.087372 1.89018E-4 2.09948E-4 1.19832E-4 -1.1549E-5 .096486 -.001935 
126.16911 2.771747 -2.879354 2.676211 1.977501 2.01589E-4 2.09948E-4 1.12523E-4 -2.3255E-4 .10328 -.001983 
126.30911 3.641773 -3.347677 2.159446 1.721137 2.30923E-4 2.09948E-4 8.00323E-5 -2.3255E-4 .119133 -.002077 
126.36911 4.054702 -3.548387 1.959905 1.611267 2.4531E-4 2.70588E-4 6.61075E-5 -2.3255E-4 .125925 -.002117 
126.45981 4.724545 -3.851793 1.683245 1.445179 2.69802E-4 2.70588E-4 4.5058E-5 -2.3255E-4 .13619 -.002179 
126.65841 4.686402 4.022809 1.666892 -1.353856 2.78005E-4 -1.9014E-4 3.98644E-6 -1.9341E-4 .136021 -.002688 
126.70611 4.311709 3.848267 1.799641 -1.43476 2.68954E-4 -1.9014E-4 -5.2204E-6 -1.9341E-4 .130543 -.002907 
126.74911 3.988177 3.690922 1.925911 -1.507693 2.60795E-4 -1.9014E-4 -1.352E-5 -1.9341E-4 .125605 -.003105 
126.80911 3.55688 3.508591 2.113807 -1.631582 2.49369E-4 -1.9147E-4 -2.5107E-5 -1.9361E-4 .118677 -.003384 
127.10911 1.791404 2.388224 3.246074 -2.150268 1.92045E-4 -1.9147E-4 -8.3072E-5 -1.9361E-4 .083845 -.004799 
127.16911 1.52027 2.145901 3.507894 -2.21167 1.80608E-4 -1.9059E-4 -9.4633E-5 -1.9253E-4 .076907 -.005067 
127.21711 1.323139 1.969293 3.72364 -2.292123 1.71478E-4 -1.9059E-4 -1.0386E-4 -1.9253E-4 .07138 -.005268 
127.25811 1.168155 1.81844 3.914027 -2.360843 1.63679E-4 -1.9059E-4 -1.1173E-4 -1.9253E-4 .066658 -.00544 
127.26911 1.128674 1.777967 3.966063 -2.37928 1.61587E-4 -1.9059E-4 -1.1385E-4 -1.9253E-4 .065391 -.005486 
128.26911 1.347916 -2.074522 3.860541 2.440589 2.26668E-4 3.33039E-4 -2.1127E-4 1.64859E-5 .06311 -.006164 
128.28011 1.393937 -2.117716 3.807173 2.420808 2.30324E-4 3.33039E-4 -2.1109E-4 1.64859E-5 .064321 -.00613 
128.35971 1.755228 -2.430286 3.433929 2.277662 2.5678E-4 3.33039E-4 -2.0978E-4 1.64859E-5 .073085 -.005887 
128.43851 2.157267 -2.678011 3.094074 2.047344 2.82672E-4 3.25298E-4 -2.0872E-4 1.04822E-5 .081676 -.005653 
128.52911 2.672512 -3.020512 2.737561 1.895631 3.12085E-4 3.25298E-4 -2.0777E-4 1.04822E-5 .091451 -.005391 
128.58911 3.047825 -3.247331 2.516561 1.795159 3.31563E-4 3.25297E-4 -1.998E-4 2.55692E-4 .097924 -.005224 
128.72911 4.029189 -3.776582 2.047685 1.560723 3.77013E-4 3.25297E-4 -1.6408E-4 2.55692E-4 .113029 -.004854 
128.78911 4.495047 -4.003403 1.866792 1.460251 3.97773E-4 3.68118E-4 -1.4877E-4 2.55692E-4 .119501 -.004695 
128.87981 5.250836 -4.346282 1.616184 1.30837 4.31094E-4 3.68118E-4 -1.2562E-4 2.55692E-4 .129283 -.004454 
129.07841 5.231345 4.433674 1.63545 -1.415958 4.32137E-4 -3.5789E-4 -9.3148E-5 8.10999E-5 .129228 -.004624 
129.12611 4.818174 4.245697 1.774423 -1.503424 4.151E-4 -3.5789E-4 -8.9287E-5 8.10999E-5 .124058 -.004834 
129.16911 4.461052 4.076242 1.906841 -1.582272 3.99742E-4 -3.5789E-4 -8.5807E-5 8.10999E-5 .119398 -.005024 
129.22911 3.982227 3.902415 2.104432 -1.72539 3.78221E-4 -3.6086E-4 -8.0991E-5 7.97658E-5 .112838 -.005303 
129.52911 2.010801 2.682285 3.306975 -2.291188 2.70182E-4 -3.6086E-4 -5.711E-5 7.97658E-5 .079772 -.00677 
129.58911 1.706331 2.410134 3.585213 -2.344251 2.48638E-4 -3.5876E-4 -5.2305E-5 8.06921E-5 .073198 -.007051 
129.63711 1.484581 2.218986 3.813965 -2.43104 2.31452E-4 -3.5876E-4 -4.844E-5 8.06921E-5 .067968 -.007268 
129.67811 1.309672 2.055715 4.015942 -2.505172 2.16773E-4 -3.5876E-4 -4.5138E-5 8.06921E-5 .063501 -.007452 
129.68911 1.265018 2.01191 4.071163 -2.525061 2.12834E-4 -3.5876E-4 -4.4252E-5 8.06921E-5 .062302 -.007502 
130.68911 1.233536 -1.969366 4.085718 2.516757 1.08424E-4 1.30239E-4 4.48471E-5 8.03075E-5 .065447 -.007218 
130.70011 1.277252 -2.012781 4.030677 2.497051 1.09854E-4 1.30239E-4 4.57287E-5 8.03075E-5 .066722 -.007163 
130.77971 1.621997 -2.326949 3.645276 2.354453 1.202E-4 1.30239E-4 5.21083E-5 8.03075E-5 .075952 -.00677 
130.85851 2.008232 -2.580537 3.29376 2.118951 1.30303E-4 1.26644E-4 5.84847E-5 8.18941E-5 .085 -.006388 
130.94911 2.506062 -2.925378 2.924207 1.968246 1.41754E-4 1.26644E-4 6.58893E-5 8.18941E-5 .095297 -.005957 
131.00911 2.870074 -3.153749 2.69447 1.868441 1.49337E-4 1.26644E-4 6.68376E-5 -5.0221E-5 .102116 -.005668 
131.14911 3.825793 -3.686616 2.204899 1.635564 1.67031E-4 1.26644E-4 5.98208E-5 -5.0221E-5 .118027 -.004984 
131.20911 4.28097 -3.914987 2.015003 1.535759 1.75934E-4 1.70703E-4 5.68137E-5 -5.0221E-5 .124844 -.004691 
131.29981 5.020964 -4.260209 1.750635 1.384887 1.91385E-4 1.70703E-4 5.22678E-5 -5.0221E-5 .135148 -.004248 
131.49841 5.042047 4.165684 1.780684 -1.552697 1.93215E-4 -1.5276E-4 5.04904E-5 3.17878E-5 .135211 -.003942 
131.54611 4.653691 3.992407 1.932853 -1.643881 1.85943E-4 -1.5276E-4 5.20036E-5 3.17878E-5 .129822 -.004024 
131.58911 4.31774 3.836204 2.077469 -1.726081 1.79388E-4 -1.5276E-4 5.33677E-5 3.17878E-5 .124963 -.004098 
131.64911 3.868922 3.645411 2.291599 -1.857015 1.70223E-4 -1.5333E-4 5.52829E-5 3.21782E-5 .118157 -.004194 
131.94911 2.017143 2.539661 3.577567 -2.438208 1.24318E-4 -1.5333E-4 6.49168E-5 3.21782E-5 .083997 -.004637 
132.00911 1.727612 2.305695 3.875866 -2.524709 1.15147E-4 -1.53E-4 6.68281E-5 3.16638E-5 .077185 -.004735 
132.05711 1.515102 2.130559 4.122115 -2.615849 1.07818E-4 -1.53E-4 6.83449E-5 3.16638E-5 .07175 -.004821 
132.09811 1.346869 1.980964 4.339367 -2.693697 1.01557E-4 -1.53E-4 6.96405E-5 3.16638E-5 .067108 -.004894 
132.10911 1.303817 1.940828 4.398739 -2.714583 9.98777E-5 -1.53E-4 6.99881E-5 3.16638E-5 .065863 -.004914 
133.10911 1.132004 -1.708374 4.366991 2.732929 1.71775E-4 3.10363E-4 5.91038E-5 -5.133E-5 .066239 -.003762 
133.12011 1.16993 -1.746375 4.307221 2.71164 1.75182E-4 3.10363E-4 5.85403E-5 -5.133E-5 .067493 -.00372 
133.19971 1.469237 -2.021362 3.888637 2.557583 1.99837E-4 3.10363E-4 5.44627E-5 -5.133E-5 .076563 -.003412 
133.27851 1.804775 -2.241975 3.506568 2.304644 2.24011E-4 3.0428E-4 5.04861E-5 -4.9824E-5 .085454 -.00311 
133.36911 2.2375 -2.543893 3.104523 2.141904 2.51523E-4 3.0428E-4 4.59812E-5 -4.9824E-5 .095569 -.002768 
133.42911 2.554125 -2.743839 2.854466 2.034129 2.69743E-4 3.0428E-4 4.16153E-5 -9.6E-5 .102267 -.00254 
133.56911 3.386034 -3.21038 2.321194 1.782655 3.12256E-4 3.0428E-4 2.82023E-5 -9.6E-5 .117897 -.002005 
133.62911 3.782475 -3.410326 2.114161 1.67488 3.3085E-4 3.16759E-4 2.24539E-5 -9.6E-5 .124595 -.001776 
133.71981 4.42722 -3.712578 1.825697 1.511961 3.59522E-4 3.16759E-4 1.37642E-5 -9.6E-5 .13472 -.00143 
133.91841 4.431103 3.695166 1.826723 -1.517689 3.62224E-4 -2.9026E-4 -3.9973E-6 -8.8204E-5 .134506 -8.6923E-4 
133.96611 4.08679 3.537733 1.975316 -1.603774 3.48407E-4 -2.9026E-4 -8.1961E-6 -8.8204E-5 .129082 -7.7464E-4 
134.00911 3.789249 3.395814 2.116293 -1.681377 3.35951E-4 -2.9026E-4 -1.1981E-5 -8.8204E-5 .124192 -6.8938E-4 
134.06911 3.391605 3.243439 2.325991 -1.820983 3.18504E-4 -2.9245E-4 -1.7268E-5 -8.8401E-5 .117319 -5.7273E-4 
134.36911 1.753928 2.226517 3.582704 -2.376524 2.30945E-4 -2.9245E-4 -4.3735E-5 -8.8401E-5 .082716 -2.0242E-6 
134.42911 1.500779 2.001237 3.870437 -2.431196 2.1348E-4 -2.9091E-4 -4.9009E-5 -8.7729E-5 .075831 1.19225E-4 
134.47711 1.3167 1.841484 4.107458 -2.516728 1.99544E-4 -2.9091E-4 -5.3211E-5 -8.7729E-5 .07035 2.21945E-4 
134.51811 1.171586 1.705029 4.316403 -2.589786 1.87641E-4 -2.9091E-4 -5.6801E-5 -8.7729E-5 .065668 3.09684E-4 
134.52911 1.134553 1.668419 4.373478 -2.609387 1.84447E-4 -2.9091E-4 -5.7764E-5 -8.7729E-5 .064412 3.33224E-4 
135.52911 1.283895 -1.870461 4.201832 2.709363 1.43651E-4 2.01624E-4 -9.9067E-5 1.30973E-5 .062623 .001851 
135.54011 1.325385 -1.908927 4.142586 2.687572 1.45865E-4 2.01624E-4 -9.8923E-5 1.30973E-5 .063836 .001858 
135.61971 1.650785 -2.187274 3.728114 2.529884 1.61881E-4 2.01624E-4 -9.7883E-5 1.30973E-5 .072619 .001908 
135.69851 2.012231 -2.405257 3.350328 2.277834 1.77549E-4 1.96753E-4 -9.6963E-5 1.03021E-5 .081229 .00196 
135.78911 2.474752 -2.710145 2.953518 2.11082 1.95339E-4 1.96753E-4 -9.6031E-5 1.03021E-5 .091027 .002022 
135.84911 2.811404 -2.912058 2.707353 2.000215 2.07121E-4 1.96753E-4 -9.5032E-5 2.30825E-5 .097515 .002063 
135.98911 3.690961 -3.383187 2.184481 1.742137 2.34611E-4 1.96753E-4 -9.1807E-5 2.30825E-5 .112655 .002157 
136.04911 4.108215 -3.585099 1.982469 1.631532 2.46681E-4 2.06396E-4 -9.0424E-5 2.30825E-5 .119143 .002198 
136.13981 4.784868 -3.890323 1.70224 1.464335 2.65363E-4 2.06396E-4 -8.8335E-5 2.30825E-5 .128951 .002259 
136.33841 4.742069 4.082217 1.683947 -1.362173 2.62211E-4 -2.3731E-4 -9.8241E-5 -1.2582E-4 .128974 .002792 
136.38611 4.361852 3.90489 1.817478 -1.442897 2.50914E-4 -2.3731E-4 -1.0423E-4 -1.2582E-4 .123827 .003023 
136.42911 4.033569 3.745035 1.94444 -1.515666 2.4073E-4 -2.3731E-4 -1.0963E-4 -1.2582E-4 .119187 .003231 
136.48911 3.595487 3.555943 2.132788 -1.637405 2.26493E-4 -2.3817E-4 -1.172E-4 -1.2691E-4 .112679 .003507 
136.78911 1.806394 2.419751 3.267959 -2.154147 1.55186E-4 -2.3817E-4 -1.5519E-4 -1.2691E-4 .07997 .004808 
136.84911 1.531862 2.178382 3.531652 -2.224238 1.40922E-4 -2.3828E-4 -1.6274E-4 -1.2537E-4 .073453 .00509 
136.89711 1.331765 1.998718 3.748612 -2.304906 1.29507E-4 -2.3828E-4 -1.6875E-4 -1.2537E-4 .068258 .005334 
136.93811 1.17448 1.845255 3.940052 -2.37381 1.19758E-4 -2.3828E-4 -1.7388E-4 -1.2537E-4 .06382 .005543 
136.94911 1.134419 1.804082 3.992374 -2.392296 1.17142E-4 -2.3828E-4 -1.7526E-4 -1.2537E-4 .062629 .005599 
137.94911 1.353083 -2.099895 3.879639 2.457943 9.7696E-5 1.9572E-4 -1.8562E-4 1.06639E-4 .066929 .006711 
137.96011 1.399669 -2.143784 3.825892 2.438018 9.98446E-5 1.9572E-4 -1.8445E-4 1.06639E-4 .068224 .006677 
138.03971 1.765501 -2.461379 3.449996 2.293837 1.15392E-4 1.9572E-4 -1.7598E-4 1.06639E-4 .077589 .006433 
138.11851 2.172791 -2.713637 3.107711 2.062103 1.30649E-4 1.9219E-4 -1.6779E-4 1.01707E-4 .08677 .006198 
138.20911 2.69498 -3.061684 2.748628 1.909291 1.48026E-4 1.9219E-4 -1.586E-4 1.01707E-4 .097216 .005937 
138.26911 3.075443 -3.292178 2.526035 1.808091 1.59534E-4 1.9219E-4 -1.485E-4 2.3564E-4 .104134 .00576 
138.40911 4.070537 -3.829999 2.053782 1.571958 1.86386E-4 1.9219E-4 -1.1557E-4 2.3564E-4 .120277 .005338 
138.46911 4.543012 -4.060494 1.871588 1.470757 1.97009E-4 1.62626E-4 -1.0146E-4 2.3564E-4 .127196 .005158 
138.55981 5.309639 -4.408925 1.619178 1.317777 2.1173E-4 1.62626E-4 -8.0133E-5 2.3564E-4 .137657 .004884 
