.1986 5.545326 4.794654 1.505189 -1.306579 8.04556E-6 -4.152E-5 -5.2206E-5 1.43809E-4 .159469 .005809 
.2463 5.098056 4.588447 1.633838 -1.392311 6.06638E-6 -4.152E-5 -4.5351E-5 1.43809E-4 .153077 .006093 
.2893 4.711706 4.402559 1.756817 -1.469596 4.28222E-6 -4.152E-5 -3.9171E-5 1.43809E-4 .147315 .006349 
.3493 4.198822 4.143093 1.939314 -1.577449 1.79349E-6 -4.1495E-5 -3.0549E-5 1.43804E-4 .139274 .0067 
.6493 2.103492 2.846096 3.046807 -2.116707 -1.0647E-5 -4.1495E-5 1.25633E-5 1.43804E-4 .099064 .008427 
.7093 1.777554 2.587798 3.307038 -2.226954 -1.3135E-5 -4.15E-5 2.11861E-5 1.43817E-4 .09102 .008769 
.7573 1.539257 2.380103 3.524827 -2.313391 -1.5125E-5 -4.15E-5 2.80846E-5 1.43817E-4 .084583 .009041 
.7983 1.35149 2.202696 3.717421 -2.387223 -1.6826E-5 -4.15E-5 3.39771E-5 1.43817E-4 .079084 .009273 
.8093 1.303587 2.155099 3.770122 -2.407032 -1.7282E-5 -4.15E-5 3.5558E-5 1.43817E-4 .077609 .009335 
1.8093 1.271576 -2.111834 3.91909 2.320512 -1.2557E-5 5.18327E-5 1.34403E-4 3.45282E-5 .060537 .009137 
1.8203 1.318524 -2.159033 3.86827 2.302603 -1.1987E-5 5.18327E-5 1.34782E-4 3.45282E-5 .061602 .00907 
1.8999 1.689177 -2.500583 3.512253 2.173011 -7.8643E-6 5.18327E-5 1.37529E-4 3.45282E-5 .069309 .008585 
1.9787 2.105216 -2.778515 3.187568 1.953419 -3.7752E-6 5.19998E-5 1.40404E-4 3.85153E-5 .076857 .008114 
2.0693 2.642295 -3.15354 2.846234 1.816632 9.32802E-7 5.19998E-5 1.43891E-4 3.85153E-5 .085439 .007584 
2.1293 3.035354 -3.401898 2.633818 1.726044 4.05067E-6 5.19998E-5 1.40263E-4 -1.5953E-4 .091122 .007238 
2.2693 4.068313 -3.981406 2.180426 1.514673 1.13257E-5 5.19998E-5 1.17944E-4 -1.5953E-4 .104383 .006445 
2.3293 4.560648 -4.229767 2.00422 1.424086 1.56714E-5 9.29557E-5 1.08379E-4 -1.5953E-4 .110065 .006106 
2.42 5.361435 -4.605205 1.758479 1.287147 2.40967E-5 9.29557E-5 9.39189E-5 -1.5953E-4 .118652 .005592 
2.6186 5.404152 4.413969 1.832323 -1.699036 3.77654E-5 4.09244E-5 7.62235E-5 -2.375E-5 .117707 .005327 
2.6663 4.991958 4.233297 1.999121 -1.800148 3.97162E-5 4.09244E-5 7.50913E-5 -2.375E-5 .11275 .005466 
2.7093 4.635141 4.070426 2.157745 -1.891298 4.14747E-5 4.09244E-5 7.40708E-5 -2.375E-5 .108281 .005591 
2.7693 4.158602 3.848942 2.39151 -2.02216 4.39307E-5 4.09975E-5 7.26506E-5 -2.3621E-5 .10204 .005776 
3.0693 2.192595 2.708877 3.79524 -2.660126 5.62216E-5 4.09975E-5 6.55689E-5 -2.3621E-5 .070812 .006748 
3.1293 1.882681 2.475008 4.122772 -2.773133 5.86788E-5 4.0968E-5 6.41454E-5 -2.3865E-5 .064573 .006933 
3.1773 1.65395 2.293459 4.393662 -2.874242 6.0644E-5 4.0968E-5 6.30006E-5 -2.3865E-5 .059588 .007074 
3.2183 1.472368 2.138385 4.632728 -2.960605 6.23225E-5 4.0968E-5 6.20229E-5 -2.3865E-5 .055329 .007194 
3.2293 1.425813 2.09678 4.698071 -2.983776 6.27729E-5 4.0968E-5 6.17605E-5 -2.3865E-5 .054187 .007226 
4.2293 1.035909 -1.569793 4.779452 2.936215 2.15878E-4 2.93723E-4 9.80129E-6 -6.9881E-5 .058891 .005828 
4.2403 1.070825 -1.606554 4.715143 2.914086 2.19107E-4 2.93723E-4 9.03312E-6 -6.9881E-5 .060145 .005769 
4.3199 1.347575 -1.872569 4.264274 2.753955 2.42471E-4 2.93723E-4 3.47434E-6 -6.9881E-5 .069216 .005338 
4.3987 1.659738 -2.088457 3.852043 2.485101 2.65319E-4 2.86436E-4 -2.0265E-6 -6.9861E-5 .078116 .004918 
4.4893 2.064389 -2.380934 3.417319 2.316442 2.91253E-4 2.86436E-4 -8.3516E-6 -6.9861E-5 .08825 .004441 
4.5493 2.361521 -2.574627 3.146232 2.204748 3.08427E-4 2.86436E-4 -1.663E-5 -2.0628E-4 .094961 .004129 
4.6893 3.145156 -3.026578 2.565784 1.944128 3.48501E-4 2.86436E-4 -4.5489E-5 -2.0628E-4 .110621 .003412 
4.7493 3.519712 -3.220271 2.339344 1.832434 3.67027E-4 3.31527E-4 -5.7858E-5 -2.0628E-4 .117331 .003104 
4.84 4.130011 -3.513071 2.022471 1.66359 3.97076E-4 3.31527E-4 -7.6554E-5 -2.0628E-4 .127473 .002639 
5.0386 4.153425 3.408252 2.02342 -1.668886 3.96617E-4 -3.3602E-4 -1.3249E-4 -3.731E-4 .128416 .002022 
5.0863 3.8354 3.26346 2.186774 -1.758057 3.806E-4 -3.3602E-4 -1.5028E-4 -3.731E-4 .123523 .001963 
5.1293 3.560542 3.132935 2.341318 -1.838441 3.66161E-4 -3.3602E-4 -1.6631E-4 -3.731E-4 .119113 .001909 
5.1893 3.192441 2.99746 2.570465 -1.988909 3.45952E-4 -3.3798E-4 -1.8876E-4 -3.757E-4 .112906 .00181 
5.4893 1.676292 2.05981 3.93628 -2.566905 2.44627E-4 -3.3798E-4 -3.0139E-4 -3.757E-4 .08162 .001192 
5.5493 1.442135 1.850034 4.247532 -2.615225 2.24323E-4 -3.3938E-4 -3.2377E-4 -3.7092E-4 .075401 .001116 
5.5973 1.271709 1.702931 4.502669 -2.703756 2.08044E-4 -3.3938E-4 -3.4157E-4 -3.7092E-4 .070454 .001092 
5.6383 1.137311 1.577281 4.727325 -2.779375 1.94139E-4 -3.3938E-4 -3.5676E-4 -3.7092E-4 .066228 .001072 
5.6493 1.103005 1.54357 4.788653 -2.799664 1.90409E-4 -3.3938E-4 -3.6084E-4 -3.7092E-4 .065094 .001067 
6.6493 1.305131 -1.816818 4.482483 2.977873 -3.3168E-5 -1.4935E-4 -4.7436E-4 1.66136E-4 .077286 -1.652E-4 
6.6603 1.345472 -1.853042 4.417281 2.953674 -3.481E-5 -1.4935E-4 -4.7254E-4 1.66136E-4 .078715 -1.8332E-4 
6.7399 1.661127 -2.115172 3.961305 2.778562 -4.6691E-5 -1.4935E-4 -4.5932E-4 1.66136E-4 .08906 -3.1444E-4 
6.8187 2.010432 -2.31714 3.545676 2.503674 -5.8395E-5 -1.4785E-4 -4.4675E-4 1.53138E-4 .099197 -4.4413E-4 
6.9093 2.455981 -2.60397 3.109123 2.318077 -7.1781E-5 -1.4785E-4 -4.3289E-4 1.53138E-4 .110727 -5.9318E-4 
6.9693 2.779635 -2.79391 2.838512 2.195165 -8.0645E-5 -1.4785E-4 -4.0764E-4 6.89063E-4 .118363 -7.0796E-4 
7.1093 3.623406 -3.237131 2.264408 1.90837 -1.0133E-4 -1.4785E-4 -3.1124E-4 6.89063E-4 .13618 -.001013 
7.1693 4.022987 -3.427082 2.042929 1.78546 -1.0147E-4 1.4322E-4 -2.6992E-4 6.89063E-4 .143807 -.001144 
7.26 4.670263 -3.714226 1.736107 1.599658 -8.8487E-5 1.4322E-4 -2.0747E-4 6.89063E-4 .155323 -.001342 
7.4586 4.597782 4.03871 1.672857 -1.246865 -4.756E-5 2.57646E-4 -9.7941E-5 4.45337E-4 .154638 -.001994 
7.5063 4.221306 3.859236 1.795197 -1.31966 -3.5279E-5 2.57646E-4 -7.6713E-5 4.45337E-4 .148262 -.002214 
7.5493 3.89659 3.697446 1.91143 -1.385282 -2.4208E-5 2.57646E-4 -5.7577E-5 4.45337E-4 .142515 -.002412 
7.6093 3.466446 3.468971 2.08267 -1.475128 -8.7582E-6 2.57681E-4 -3.0873E-5 4.45369E-4 .134498 -.002696 
7.9093 1.724417 2.341745 3.104206 -1.932308 6.84937E-5 2.57681E-4 1.02646E-4 4.45369E-4 .094428 -.004153 
7.9693 1.456743 2.108146 3.338601 -2.005633 8.39371E-5 2.57431E-4 1.29334E-4 4.4479E-4 .086428 -.004463 
8.0173 1.263098 1.928878 3.534472 -2.077795 9.62853E-5 2.57431E-4 1.5067E-4 4.4479E-4 .08004 -.004728 
8.0583 1.111311 1.775753 3.707261 -2.139433 1.06833E-4 2.57431E-4 1.68894E-4 4.4479E-4 .074583 -.004954 
8.0693 1.072723 1.734671 3.754478 -2.15597 1.09663E-4 2.57431E-4 1.73783E-4 4.4479E-4 .073119 -.005015 
9.0693 1.447044 -2.240319 3.521728 2.290433 5.51149E-4 7.07674E-4 4.45954E-4 4.63243E-5 .054613 -.006623 
9.0803 1.4968 -2.286042 3.471587 2.270937 5.58928E-4 7.07674E-4 4.46463E-4 4.63243E-5 .055626 -.006597 
9.1599 1.886811 -2.616916 3.121522 2.129856 6.1522E-4 7.07674E-4 4.50148E-4 4.63243E-5 .06296 -.006406 
9.2387 2.319866 -2.878106 2.803656 1.909907 6.70233E-4 6.89228E-4 4.54306E-4 5.92993E-5 .070146 -.006225 
9.3293 2.873828 -3.240417 2.471405 1.759818 7.32635E-4 6.89228E-4 4.59675E-4 5.92993E-5 .078322 -.006026 
9.3893 3.2768 -3.480344 2.26633 1.660421 7.7396E-4 6.89224E-4 4.47787E-4 -4.5584E-4 .083736 -.005878 
9.5293 4.328961 -4.040202 1.834176 1.428494 8.70386E-4 6.89224E-4 3.84013E-4 -4.5584E-4 .096369 -.005498 
9.5893 4.827843 -4.280141 1.668833 1.329098 9.15999E-4 8.32247E-4 3.56681E-4 -4.5584E-4 .101779 -.005335 
9.68 5.636609 -4.64285 1.441518 1.178842 9.91433E-4 8.32247E-4 3.15364E-4 -4.5584E-4 .10995 -.005089 
9.8786 5.606105 4.779415 1.459997 -1.281914 9.91129E-4 -8.3522E-4 2.72649E-4 1.34153E-5 .109674 -.00542 
9.9263 5.160122 4.576684 1.586322 -1.368216 9.51316E-4 -8.3522E-4 2.73289E-4 1.34153E-5 .105248 -.005712 
9.9693 4.774648 4.393929 1.707252 -1.446014 9.15426E-4 -8.3522E-4 2.73865E-4 1.34153E-5 .101258 -.005975 
10.0293 4.251695 4.294309 1.890554 -1.623057 8.64896E-4 -8.4997E-4 2.74973E-4 2.34578E-5 .095579 -.006316 
10.3293 2.08783 2.923476 3.036503 -2.199371 6.10077E-4 -8.4997E-4 2.82005E-4 2.34578E-5 .066645 -.007891 
10.3893 1.759287 2.582923 3.301962 -2.190011 5.59378E-4 -8.4142E-4 2.83085E-4 1.26798E-5 .060937 -.008232 
10.4373 1.521528 2.373758 3.516099 -2.274211 5.19017E-4 -8.4142E-4 2.83693E-4 1.26798E-5 .056431 -.008525 
10.4783 1.334332 2.195096 3.705404 -2.346132 4.84542E-4 -8.4142E-4 2.84213E-4 1.26798E-5 .052582 -.008775 
10.4893 1.2866 2.147162 3.757196 -2.365428 4.75293E-4 -8.4142E-4 2.84352E-4 1.26798E-5 .051549 -.008843 
11.4893 1.302083 -2.168383 3.853684 2.310431 -1.7343E-4 -5.767E-4 1.45321E-4 -2.6359E-4 .066016 -.009114 
11.5003 1.350284 -2.216519 3.803088 2.292351 -1.7977E-4 -5.767E-4 1.42423E-4 -2.6359E-4 .067405 -.009051 
11.5799 1.730623 -2.564855 3.4488 2.161524 -2.2564E-4 -5.767E-4 1.21456E-4 -2.6359E-4 .077456 -.008595 
11.6587 2.157204 -2.848015 3.12588 1.942478 -2.7078E-4 -5.6958E-4 1.0083E-4 -2.604E-4 .087314 -.008153 
11.7493 2.707536 -3.230414 2.786659 1.804226 -3.2235E-4 -5.6958E-4 7.72536E-5 -2.604E-4 .098539 -.007656 
11.8093 3.110106 -3.483655 2.575789 1.712668 -3.565E-4 -5.6958E-4 6.9407E-5 -1.3333E-6 .105973 -.007334 
11.9493 4.167537 -4.074558 2.126457 1.499033 -4.3619E-4 -5.6958E-4 6.92205E-5 -1.3333E-6 .123318 -.006602 
12.0093 4.671336 -4.327802 1.952185 1.407476 -4.7439E-4 -7.0459E-4 6.91406E-5 -1.3334E-6 .130756 -.006288 
12.1 5.490564 -4.710622 1.709587 1.269071 -5.3825E-4 -7.0459E-4 6.90197E-5 -1.3334E-6 .142005 -.005814 
12.2986 5.531915 4.52549 1.775276 -1.635468 -5.8562E-4 2.40665E-4 8.02643E-5 1.17799E-4 .142795 -.005702 
12.3463 5.1093 4.3404 1.935897 -1.734138 -5.7415E-4 2.40665E-4 8.58795E-5 1.17799E-4 .137247 -.005896 
12.3893 4.743449 4.173547 2.088754 -1.823086 -5.638E-4 2.40665E-4 9.09414E-5 1.17799E-4 .132245 -.006071 
12.4493 4.262338 3.842419 2.31137 -1.894096 -5.4956E-4 2.34478E-4 9.79402E-5 1.15638E-4 .125355 -.006296 
12.7493 2.290865 2.733629 3.625443 -2.48913 -4.7927E-4 2.34478E-4 1.32608E-4 1.15638E-4 .091339 -.007325 
12.8093 1.972946 2.573702 3.93912 -2.729793 -4.65E-4 2.41146E-4 1.39667E-4 1.1983E-4 .084455 -.007561 
12.8573 1.73493 2.388344 4.205939 -2.832712 -4.5344E-4 2.41146E-4 1.45415E-4 1.1983E-4 .078886 -.007774 
12.8983 1.545706 2.230018 4.441665 -2.920621 -4.4356E-4 2.41146E-4 1.50324E-4 1.1983E-4 .074129 -.007956 
12.9093 1.497146 2.18754 4.506135 -2.944207 -4.4091E-4 2.41146E-4 1.51642E-4 1.1983E-4 .072852 -.008005 
13.9093 .984453 -1.494606 4.730533 2.813756 -3.5983E-4 -6.39E-5 1.69875E-4 -8.6924E-5 .074799 -.007332 
13.9203 1.017709 -1.530715 4.668901 2.793035 -3.6053E-4 -6.39E-5 1.6892E-4 -8.6924E-5 .076121 -.00727 
13.9999 1.282018 -1.792017 4.23648 2.643088 -3.6562E-4 -6.39E-5 1.62005E-4 -8.6924E-5 .085688 -.006821 
14.0787 1.581295 -2.005488 3.840878 2.384628 -3.7023E-4 -5.334E-5 1.55341E-4 -8.2371E-5 .095058 -.006384 
14.1693 1.970475 -2.293026 3.423347 2.227013 -3.7506E-4 -5.334E-5 1.47883E-4 -8.2371E-5 .105711 -.005891 
14.2293 2.256869 -2.483447 3.162546 2.122632 -3.7826E-4 -5.334E-5 1.37505E-4 -2.6381E-4 .112766 -.005559 
14.3693 3.013923 -2.927766 2.602688 1.879077 -3.8572E-4 -5.334E-5 1.00597E-4 -2.6381E-4 .129228 -.004771 
14.4293 3.376434 -3.118188 2.38361 1.7747 -3.9841E-4 -3.6979E-4 8.47789E-5 -2.6381E-4 .136292 -.004433 
14.52 3.967779 -3.406044 2.076201 1.61691 -4.3193E-4 -3.6979E-4 6.08677E-5 -2.6381E-4 .146986 -.003923 
14.7186 4.002637 3.249995 2.114044 -1.827995 -4.3315E-4 3.57796E-4 1.5837E-5 -2.026E-4 .145854 -.003408 
14.7663 3.699362 3.112297 2.292983 -1.925889 -4.161E-4 3.57796E-4 6.17965E-6 -2.026E-4 .139702 -.003421 
14.8093 3.43722 2.988167 2.462289 -2.014137 -4.0072E-4 3.57796E-4 -2.5261E-6 -2.026E-4 .134156 -.003433 
14.8693 3.092366 2.765443 2.708656 -2.093904 -3.7936E-4 3.5467E-4 -1.467E-5 -2.0246E-4 .126481 -.003449 
15.1693 1.685568 1.927076 4.142808 -2.689856 -2.7304E-4 3.5467E-4 -7.5367E-5 -2.0246E-4 .088416 -.00353 
15.2293 1.462904 1.784246 4.476896 -2.88495 -2.5171E-4 3.56699E-4 -8.7548E-5 -2.0385E-4 .080758 -.003534 
15.2773 1.298313 1.647071 4.758454 -2.98484 -2.346E-4 3.56699E-4 -9.7326E-5 -2.0385E-4 .074597 -.003529 
15.3183 1.168146 1.529901 5.006541 -3.070162 -2.1998E-4 3.56699E-4 -1.0568E-4 -2.0385E-4 .069334 -.003524 
15.3293 1.134856 1.498466 5.07429 -3.093054 -2.1606E-4 3.56699E-4 -1.0792E-4 -2.0385E-4 .067923 -.003522 
16.3293 1.266452 -1.676156 4.931467 3.175232 1.42663E-4 4.27512E-4 -2.1779E-4 5.58155E-6 .052032 -.001702 
16.3403 1.303666 -1.709222 4.861931 3.150529 1.47362E-4 4.27512E-4 -2.1773E-4 5.58155E-6 .053058 -.001667 
16.4199 1.594623 -1.948497 4.374927 2.971772 1.81369E-4 4.27512E-4 -2.1729E-4 5.58155E-6 .060477 -.001408 
16.4987 1.916086 -2.130531 3.930045 2.682257 2.14818E-4 4.21826E-4 -2.1709E-4 -6.4998E-7 .067751 -.001153 
16.5893 2.325573 -2.392266 3.461442 2.493476 2.53009E-4 4.21826E-4 -2.1715E-4 -6.4998E-7 .076029 -8.6113E-4 
16.6493 2.622842 -2.565597 3.169925 2.368456 2.78302E-4 4.21826E-4 -2.0827E-4 2.96872E-4 .081511 -6.7681E-4 
16.7893 3.397305 -2.970043 2.54802 2.076741 3.37317E-4 4.21826E-4 -1.6674E-4 2.96872E-4 .094304 -2.6756E-4 
16.8493 3.763861 -3.143377 2.306477 1.951721 3.63948E-4 4.66476E-4 -1.4894E-4 2.96872E-4 .099785 -9.2173E-5 
16.94005 4.357772 -3.405545 1.969629 1.762628 4.06252E-4 4.66476E-4 -1.2202E-4 2.96872E-4 .108073 1.73105E-4 
17.13855 4.347377 3.452437 1.878044 -1.254263 4.33477E-4 -1.9925E-4 -7.9313E-5 1.44977E-4 .109213 8.26862E-4 
17.1863 4.02466 3.310632 2.000864 -1.319643 4.23969E-4 -1.9925E-4 -7.2395E-5 1.44977E-4 .105386 .00101 
17.2293 3.745627 3.182934 2.116806 -1.378518 4.15407E-4 -1.9925E-4 -6.6165E-5 1.44977E-4 .101941 .001174 
17.2893 3.370267 3.060792 2.288736 -1.498522 4.03358E-4 -2.0262E-4 -5.7504E-5 1.43936E-4 .097082 .001396 
17.4198 2.624265 2.659589 2.703702 -1.683453 3.76935E-4 -2.0262E-4 -3.8733E-5 1.43936E-4 .086406 .001866 
17.4988 2.22351 2.416715 2.978345 -1.795404 3.60939E-4 -2.0262E-4 -2.737E-5 1.43936E-4 .079943 .00215 
17.5893 1.811544 2.138486 3.31469 -1.923651 3.42614E-4 -2.0262E-4 -1.4353E-5 1.43936E-4 .072539 .002475 
17.6493 1.568435 1.919801 3.546104 -1.931008 3.30577E-4 -1.9893E-4 -5.7148E-6 1.44157E-4 .067677 .00269 
17.6973 1.391133 1.776501 3.734423 -1.994973 3.21035E-4 -1.9893E-4 1.20006E-6 1.44157E-4 .063824 .002862 
17.7383 1.250574 1.654098 3.900138 -2.04961 3.12885E-4 -1.9893E-4 7.10648E-6 1.44157E-4 .060533 .003009 
17.7493 1.21457 1.621258 3.94536 -2.064269 3.10698E-4 -1.9893E-4 8.69113E-6 1.44157E-4 .05965 .003049 
18.7493 1.182549 -1.577975 3.379963 2.39251 3.29888E-4 2.40878E-4 1.21937E-4 6.01638E-5 .095826 .004452 
18.7603 1.217597 -1.610417 3.327604 2.370642 3.32536E-4 2.40878E-4 1.22598E-4 6.01638E-5 .097578 .00444 
18.8398 1.492107 -1.844882 2.963485 2.212592 3.51673E-4 2.40878E-4 1.27378E-4 6.01638E-5 .110241 .004349 
18.9188 1.834365 -2.519516 2.574299 2.684055 3.74124E-4 3.28976E-4 1.30894E-4 2.87339E-5 .123916 .004218 
19.0093 2.322851 -2.881788 2.114882 2.395833 4.03876E-4 3.28976E-4 1.33492E-4 2.87339E-5 .140893 .004023 
19.0693 2.682831 -3.121959 1.839035 2.204746 4.23601E-4 3.28974E-4 1.21403E-4 -4.3197E-4 .152148 .003908 
19.1293 3.071612 -3.362137 1.586103 2.013659 4.43326E-4 3.28974E-4 9.5503E-5 -4.3197E-4 .163404 .003806 
19.1893 3.489196 -3.602316 1.356085 1.822575 4.73474E-4 6.76657E-4 6.96026E-5 -4.3197E-4 .174649 .003705 
19.2293 3.783585 -3.762436 1.215471 1.695184 5.00522E-4 6.76657E-4 5.23357E-5 -4.3197E-4 .182139 .003637 
19.2723 4.114332 -3.934564 1.075669 1.558238 5.29599E-4 6.76657E-4 3.37738E-5 -4.3197E-4 .19019 .003564 
19.32005 4.498948 -4.125706 .934215 1.406164 5.61887E-4 6.76657E-4 1.31614E-5 -4.3197E-4 .199131 .003483 
19.51855 4.31585 4.922611 .782 -.539122 5.79816E-4 -5.0208E-4 -7.551E-5 -4.9234E-4 .19586 .003841 
19.6093 3.471086 4.392413 .893358 -.688799 5.34284E-4 -5.0208E-4 -1.2016E-4 -4.9234E-4 .17598 .004336 
19.6693 2.961702 4.104969 .983227 -.80874 5.04021E-4 -5.0725E-4 -1.4976E-4 -4.9522E-4 .162725 .004638 
19.7693 2.201457 3.502658 1.161665 -.976854 4.53331E-4 -5.0725E-4 -1.9925E-4 -4.9522E-4 .140455 .0051 
19.8293 1.805812 3.089897 1.28232 -1.040931 4.23066E-4 -5.0248E-4 -2.2876E-4 -4.8911E-4 .127212 .005427 
19.8773 1.522823 2.809727 1.38592 -1.118869 3.98963E-4 -5.0248E-4 -2.5223E-4 -4.8911E-4 .11671 .005731 
19.9183 1.302387 2.570415 1.480332 -1.185442 3.78375E-4 -5.0248E-4 -2.7227E-4 -4.8911E-4 .107739 .00599 
19.9293 1.246582 2.506209 1.50659 -1.203303 3.72852E-4 -5.0248E-4 -2.7764E-4 -4.8911E-4 .105332 .006059 
20.9293 1.929153 -3.428802 2.35784 .709305 6.67952E-5 -1.6652E-4 -5.3148E-4 3.11791E-5 .003513 .007727 
20.9403 2.005335 -3.501491 2.342323 .702298 6.49648E-5 -1.6652E-4 -5.3113E-4 3.11791E-5 .003478 .007693 
21.1593 3.85466 -4.948661 2.065459 .562781 2.85222E-5 -1.6652E-4 -5.2431E-4 3.11791E-5 .002767 .007015 
21.2193 4.471868 -5.345131 2.000263 .524557 1.85379E-5 -1.6652E-4 -5.0899E-4 4.7967E-4 .002572 .006816 
21.3193 5.606203 -6.005936 1.901789 .460851 1.89742E-6 -1.6652E-4 -4.6106E-4 4.7967E-4 .002247 .006462 
21.3793 6.350198 -6.402419 1.848816 .422628 -3.4121E-6 -1.0587E-5 -4.323E-4 4.7967E-4 .002048 .006249 
21.4223 6.912642 -6.686565 1.813672 .395234 -3.8671E-6 -1.0587E-5 -4.1169E-4 4.7967E-4 .001902 .006097 
21.46995 7.564432 -7.001439 1.777477 .364878 -4.3712E-6 -1.0587E-5 -3.8885E-4 4.7967E-4 .001739 .005928 
21.66865 8.821375 1.101565 2.018749 -1.660475 -5.9757E-6 -5.2967E-6 -3.2994E-4 1.23834E-4 9.14052E-4 .00584 
22.0593 7.999548 1.00361 3.598834 -2.387036 -8.0435E-6 -5.2967E-6 -2.816E-4 1.23834E-4 -9.4675E-4 .006866 
22.3093 7.513746 .940923 4.907703 -2.852005 -9.3667E-6 -5.2967E-6 -2.5066E-4 1.23834E-4 -.002138 .007523 
22.5593 7.059265 .878236 6.448899 -3.316974 -1.069E-5 -5.2967E-6 -2.1972E-4 1.23834E-4 -.003328 .00818 
23.1218 6.151205 .737191 10.766034 -4.363155 -1.3667E-5 -5.2967E-6 -1.5011E-4 1.23834E-4 -.006008 .009658 
23.1818 6.063705 .722146 11.295947 -4.474747 -1.3985E-5 -5.2967E-6 -1.4269E-4 1.23834E-4 -.006294 .009816 
23.3818 5.785066 .671996 13.158973 -4.846723 -1.5044E-5 -5.2967E-6 -1.1794E-4 1.23834E-4 -.007246 .010342 
23.3918 5.77166 .669489 13.256027 -4.865321 -1.5096E-5 -5.2967E-6 -1.167E-4 1.23834E-4 -.007294 .010368 
23.48245 5.652424 .646759 14.152783 -5.033919 -1.5576E-5 -5.2967E-6 -1.0548E-4 1.23834E-4 -.007726 .010606 
23.68115 6.218333 -3.630861 14.13181 5.134485 -1.7766E-5 -1.7029E-5 -7.4092E-5 1.88478E-4 -.009246 .010369 
23.7518 6.742394 -3.791894 13.416452 4.997781 -1.8969E-5 -1.7029E-5 -6.0785E-5 1.88478E-4 -.010003 .010017 
23.9518 8.34923 -4.247755 11.496045 4.610791 -2.6004E-5 -5.3375E-5 -2.3115E-5 1.88478E-4 -.012143 .00902 
24.2168 10.758965 -4.851772 9.189777 4.09803 -4.0139E-5 -5.3375E-5 2.6798E-5 1.88478E-4 -.014974 .0077 
24.5318 14.039513 -5.569755 6.801639 3.488521 -5.694E-5 -5.3375E-5 8.61282E-5 1.88478E-4 -.018339 .00613 
24.5918 14.715629 -5.706513 6.390262 3.372424 -6.0141E-5 -5.3375E-5 9.74292E-5 1.88478E-4 -.01898 .005831 
24.7418 16.477668 -6.048409 5.42273 3.082182 -6.8142E-5 -5.3375E-5 1.25682E-4 1.88478E-4 -.020583 .005084 
24.8618 17.961099 -6.321926 4.711353 2.849988 -7.6255E-5 -8.194E-5 1.48284E-4 1.88478E-4 -.021863 .004486 
24.9393 18.954012 -6.498573 4.28152 2.700029 -8.2601E-5 -8.194E-5 1.62881E-4 1.88478E-4 -.022689 .0041 
24.9993 19.741509 -6.635316 3.964697 2.583932 -8.7514E-5 -8.194E-5 1.67616E-4 -3.0535E-5 -.023328 .003807 
25.0843 20.885202 -6.829056 3.539698 2.419462 -9.4474E-5 -8.194E-5 1.65022E-4 -3.0535E-5 -.024233 .003402 
25.0893 20.953503 -6.840452 3.515568 2.409787 -9.4884E-5 -8.194E-5 1.6487E-4 -3.0535E-5 -.024287 .003378 
25.22985 22.920042 -7.160808 2.876836 2.13783 -1.0639E-4 -8.194E-5 1.60581E-4 -3.0535E-5 -.025784 .002709 
25.30875 23.309961 2.271247 2.638364 .920673 -1.1111E-4 -3.7449E-5 1.60753E-4 3.49112E-5 -.026209 .002372 
25.3593 23.081169 2.257901 2.547134 .885297 -1.1301E-4 -3.7449E-5 1.62516E-4 3.49112E-5 -.026212 .00218 
25.4593 22.632534 2.231498 2.377189 .815315 -1.1675E-4 -3.7449E-5 1.66005E-4 3.49112E-5 -.026219 .001801 
26.8593 16.905722 1.861866 1.466576 -.164434 -1.6914E-4 -3.7449E-5 2.14848E-4 3.49112E-5 -.026319 -.003513 
28.2593 12.213178 1.492233 3.297394 -1.144183 -2.2153E-4 -3.7449E-5 2.6369E-4 3.49112E-5 -.026418 -.008826 
28.3593 11.917573 1.465831 3.533068 -1.214165 -2.2528E-4 -3.7449E-5 2.67179E-4 3.49112E-5 -.026425 -.009206 
28.40985 11.770153 1.452484 3.657524 -1.249541 -2.2717E-4 -3.7449E-5 2.68942E-4 3.49112E-5 -.026429 -.009398 
28.48875 11.339337 3.977828 3.925982 -2.176233 -2.2812E-4 1.34434E-5 2.74073E-4 9.54675E-5 -.026204 -.009783 
28.5743 10.670037 3.850991 4.30876 -2.301139 -2.2697E-4 1.34434E-5 2.82235E-4 9.54675E-5 -.025712 -.010296 
28.5793 10.631591 3.843578 4.331793 -2.308439 -2.269E-4 1.34434E-5 2.82712E-4 9.54675E-5 -.025683 -.010326 
28.9693 7.860988 3.265366 6.353072 -2.877855 -2.2166E-4 1.34434E-5 3.19919E-4 9.54675E-5 -.023437 -.012663 
29.0293 7.474745 3.17641 6.703432 -2.965457 -2.2085E-4 1.34434E-5 3.25643E-4 9.54675E-5 -.023092 -.013023 
29.1693 6.614994 2.968846 7.561792 -3.169862 -2.1897E-4 1.34434E-5 3.39E-4 9.54675E-5 -.022286 -.013862 
29.2293 6.264309 2.87989 7.94717 -3.257465 -2.1815E-4 1.41589E-5 3.44724E-4 9.54675E-5 -.02194 -.014222 
30.03745 2.580343 1.681729 14.161541 -4.437395 -2.0671E-4 1.41589E-5 4.21823E-4 9.54675E-5 -.017288 -.019065 
30.23615 2.355223 -.484738 13.541167 7.383604 -2.2142E-4 -1.6439E-4 4.05351E-4 -2.5899E-4 -.017566 -.018611 
30.3268 2.447349 -.532238 12.237074 7.0122 -2.3631E-4 -1.6439E-4 3.8189E-4 -2.5899E-4 -.018345 -.017659 
30.3868 2.51306 -.563678 11.410922 6.766372 -2.4616E-4 -1.6439E-4 3.66361E-4 -2.5899E-4 -.018861 -.017029 
30.97305 3.353492 -.870872 4.889925 4.364433 -3.4247E-4 -1.6439E-4 2.14634E-4 -2.5899E-4 -.023898 -.010874 
31.22305 3.82136 -1.001871 2.965089 3.340151 -3.8354E-4 -1.6439E-4 1.49931E-4 -2.5899E-4 -.026047 -.008249 
31.47305 4.354682 -1.13287 1.552046 2.31587 -4.2461E-4 -1.6439E-4 8.52289E-5 -2.5899E-4 -.028195 -.005624 
32.04995 5.835174 -1.435164 .244464 -.047762 -5.1939E-4 -1.6439E-4 -6.4078E-5 -2.5899E-4 -.033152 4.32424E-4 
32.24865 5.278877 4.049359 .489659 -1.267629 -5.0076E-4 3.48856E-4 -1.2358E-4 -3.5045E-4 -.03165 .002638 
32.2993 4.877399 3.882548 .631622 -1.5371 -4.831E-4 3.48856E-4 -1.4132E-4 -3.5045E-4 -.030461 .00325 
32.3393 4.572272 3.750812 .763013 -1.74991 -4.6915E-4 3.48856E-4 -1.5533E-4 -3.5045E-4 -.029522 .003733 
32.3993 4.134329 3.553207 .991999 -2.069125 -4.5364E-4 1.68578E-4 -1.7634E-4 -3.5045E-4 -.028109 .004458 
32.8193 1.732226 2.169978 3.666736 -4.303631 -3.8289E-4 1.68578E-4 -3.2343E-4 -3.5045E-4 -.018177 .009534 
32.8793 1.483854 1.972373 4.201961 -4.622847 -3.7278E-4 1.68578E-4 -3.4464E-4 -3.5704E-4 -.016759 .010259 
32.9193 1.331437 1.840637 4.580044 -4.835657 -3.6604E-4 1.68578E-4 -3.5891E-4 -3.5704E-4 -.015813 .010743 
32.96995 1.153551 1.673826 5.083202 -5.105128 -3.5751E-4 1.68578E-4 -3.7698E-4 -3.5704E-4 -.014615 .011355 
33.16865 .835938 .062994 5.761535 1.991977 -3.7002E-4 -2.9742E-4 -3.97E-4 1.59955E-4 -.011606 .012164 
33.3083 .841746 -.104612 5.222347 1.871644 -4.1153E-4 -2.9742E-4 -3.7468E-4 1.59955E-4 -.010584 .011587 
35.3303 6.168138 -2.5314 1.179133 .129329 -.001013 -2.9742E-4 -5.1467E-5 1.59955E-4 .004215 .003224 
35.4293 6.680769 -2.650219 1.161983 .044022 -.001042 -2.9742E-4 -3.5642E-5 1.59955E-4 .00494 .002814 
35.4893 7.002897 -2.72223 1.159804 -.007678 -.001056 -1.876E-4 -2.6051E-5 1.59955E-4 .005376 .002566 
35.5693 7.445834 -2.818245 1.166543 -.076613 -.001071 -1.876E-4 -1.3263E-5 1.59955E-4 .005952 .002235 
35.6693 8.021093 -2.938265 1.190466 -.16278 -.00109 -1.876E-4 2.72121E-6 1.59955E-4 .006673 .001822 
35.8693 8.447437 .872158 1.409379 -.966561 -.001077 3.20635E-4 3.53085E-5 1.68741E-4 .007735 .001067 
35.9993 8.224348 .845081 1.683676 -1.144852 -.001035 3.20635E-4 5.72299E-5 1.68741E-4 .008166 6.14651E-4 
36.0593 8.123756 .832585 1.825899 -1.22714 -.001016 3.20636E-4 6.46433E-5 7.85388E-5 .008366 4.08693E-4 
38.3093 5.433392 .363946 14.28263 -4.312952 -2.9499E-4 3.20636E-4 2.41235E-4 7.85388E-5 .015838 -.007213 
38.5093 5.858061 -2.560858 14.541563 3.061955 -2.4496E-4 1.84374E-4 2.44508E-4 -4.6072E-5 .01734 -.007504 
38.5593 6.117194 -2.625324 14.237357 3.026303 -2.3575E-4 1.84374E-4 2.42206E-4 -4.6072E-5 .017931 -.007478 
39.68997 13.697058 -4.083108 8.309433 2.220106 -2.7428E-5 1.84374E-4 1.9015E-4 -4.6072E-5 .031299 -.006901 
40.7593 23.896778 -5.461805 4.379376 1.457647 1.69594E-4 1.84374E-4 1.40917E-4 -4.6072E-5 .043941 -.006354 
40.8193 24.556387 -5.539164 4.207143 1.414868 1.75034E-4 -2.9178E-6 1.38155E-4 -4.6072E-5 .044656 -.006324 
40.8993 25.450297 -5.642309 3.985478 1.357825 1.74801E-4 -2.9178E-6 1.34472E-4 -4.6072E-5 .045617 -.006283 
40.9493 26.017365 -5.706774 3.851569 1.322174 1.74655E-4 -2.9178E-6 1.3217E-4 -4.6072E-5 .046217 -.006257 
41.1493 25.671135 7.380252 3.716708 -.624779 1.65379E-4 -8.91E-5 1.29505E-4 1.91822E-5 .046286 -.006477 
41.2793 23.790041 7.09955 3.885353 -.673376 1.53804E-4 -8.91E-5 1.31997E-4 1.91822E-5 .044813 -.006832 
41.3393 22.946443 6.969995 3.967448 -.695806 1.48462E-4 -8.91E-5 1.3427E-4 5.66153E-5 .044133 -.006996 
41.4493 21.440196 6.732478 4.124942 -.736927 1.38668E-4 -8.91E-5 1.40493E-4 5.66153E-5 .042886 -.007301 
41.4883 20.918702 6.648267 4.182951 -.751506 1.35195E-4 -8.91E-5 1.427E-4 5.66153E-5 .042444 -.007408 
43.5103 2.873452 2.282263 8.747317 -1.507382 -4.4842E-5 -8.91E-5 2.57098E-4 5.66153E-5 .01953 -.012999 
43.5993 2.484577 2.09009 9.018407 -1.540653 -5.2766E-5 -8.91E-5 2.62133E-4 5.66153E-5 .018521 -.013245 
43.64995 2.278531 1.980724 9.175328 -1.559587 -5.7276E-5 -8.91E-5 2.64999E-4 5.66153E-5 .017947 -.013385 
43.84865 2.006204 -.508497 7.832486 7.81131 -8.2087E-5 -1.6556E-4 2.46993E-4 -2.3451E-4 .017647 -.012429 
43.9393 2.10348 -.565326 6.482235 7.094044 -9.7085E-5 -1.6556E-4 2.25749E-4 -2.3451E-4 .018395 -.011323 
43.9993 2.173529 -.602941 5.659994 6.619295 -1.0701E-4 -1.6556E-4 2.09289E-4 -3.1455E-4 .018891 -.010588 
45.209205 4.548632 -1.361445 1.228417 -2.954055 -3.0718E-4 -1.6556E-4 -1.7103E-4 -3.1455E-4 .02888 .004268 
45.249205 4.658476 -1.386521 1.477232 -3.270554 -3.138E-4 -1.6556E-4 -1.836E-4 -3.1455E-4 .029211 .004759 
45.299855 4.800442 -1.418274 1.828599 -3.671321 -3.2218E-4 -1.6556E-4 -1.9952E-4 -3.1455E-4 .029629 .005381 
45.498555 4.446703 3.082507 4.191054 -8.990351 -3.2335E-4 1.53999E-4 -2.836E-4 -5.4635E-4 .028366 .00845 
45.589205 3.907606 2.868563 5.980116 -10.759004 -3.094E-4 1.53999E-4 -3.3309E-4 -5.4635E-4 .026484 .010185 
45.649205 3.572102 2.726956 7.340509 -11.929647 -3.063E-4 -5.0598E-5 -3.6585E-4 -5.4635E-4 .025245 .011334 
45.909205 2.314485 2.113328 14.857741 -17.002449 -3.1944E-4 -5.0598E-5 -5.0781E-4 -5.4635E-4 .019901 .01631 
45.949205 2.149307 2.018923 16.248208 -17.78288 -3.2146E-4 -5.0598E-5 -5.2965E-4 -5.4635E-4 .019079 .017075 
45.999855 1.95098 1.899384 18.098409 -18.771101 -3.2403E-4 -5.0598E-5 -5.573E-4 -5.4635E-4 .018038 .018045 
46.198555 1.600131 -.018151 22.041262 .231212 -3.665E-4 -3.8435E-4 -6.089E-4 3.53453E-5 .015642 .01994 
46.289205 1.60855 -.074783 21.999764 .226882 -4.0132E-4 -3.8435E-4 -6.057E-4 3.53453E-5 .015283 .019906 
46.349205 1.619765 -.112266 21.972729 .224017 -4.2436E-4 -3.8435E-4 -5.9961E-4 1.67908E-4 .015046 .019878 
46.909205 1.9412 -.462115 21.736969 .19727 -6.3945E-4 -3.8435E-4 -5.0564E-4 1.67908E-4 .01283 .019588 
46.949205 1.979143 -.487104 21.721275 .195359 -6.5482E-4 -3.8435E-4 -4.9893E-4 1.67908E-4 .012672 .019568 
46.999855 2.030055 -.518746 21.701621 .19294 -6.7427E-4 -3.8435E-4 -4.9043E-4 1.67908E-4 .012471 .019542 
47.198555 2.551462 -2.219337 18.966761 12.981966 -7.9591E-4 -8.5431E-4 -4.2667E-4 4.67204E-4 .012522 .018171 
47.269205 2.876418 -2.383302 17.17821 12.350901 -8.5622E-4 -8.5431E-4 -3.9369E-4 4.67204E-4 .01284 .017244 
47.329205 3.170569 -2.52255 15.729236 11.814985 -8.9924E-4 -5.8039E-4 -3.6567E-4 4.67205E-4 .013101 .016457 
47.969855 7.3524 -4.00937 4.2646 6.092505 -.001271 -5.8039E-4 -6.6561E-5 4.67205E-4 .015803 .008052 
48.168555 6.693788 6.978589 3.155369 .056945 -.001191 .001364 2.04919E-5 4.32567E-4 .014053 .006582 
48.259205 5.490358 6.305978 3.147662 .028142 -.001067 .001364 5.96774E-5 4.32567E-4 .012118 .006393 
48.319205 4.760845 5.8608 3.14543 .009078 -9.8547E-4 .001364 7.27552E-5 3.63333E-6 .010837 .00628 
48.449205 3.36338 4.896212 3.148437 -.032227 -8.0822E-4 .001364 7.32272E-5 3.63333E-6 .008063 .006064 
48.497205 2.910746 4.540056 3.15226 -.047478 -7.4278E-4 .001364 7.34014E-5 3.63333E-6 .007038 .005984 
48.538205 2.551178 4.23584 3.156685 -.060505 -6.8687E-4 .001364 7.35503E-5 3.63333E-6 .006163 .005916 
48.549205 2.45895 4.154221 3.158053 -.064 -6.7188E-4 .001364 7.35903E-5 3.63333E-6 .005928 .005898 
49.549205 .986479 -2.163499 .972351 1.331991 6.11844E-4 .001442 3.78722E-5 -6.805E-5 .080597 .001458 
49.560205 1.03474 -2.2268 .943412 1.300628 6.27694E-4 .001442 3.71241E-5 -6.805E-5 .08261 .001389 
49.649205 1.476394 -2.738967 .734626 1.046876 7.55941E-4 .001442 3.10718E-5 -6.805E-5 .09889 8.27227E-4 
49.709205 1.82555 -3.084249 .619344 .875808 8.42399E-4 .001442 2.69916E-5 -6.805E-5 .109865 4.48479E-4 
49.809205 2.49949 -3.659717 .472793 .590693 9.86496E-4 .001442 2.01913E-5 -6.805E-5 .128158 -1.8277E-4 
49.869205 2.959062 -4.004999 .412215 .419624 .001073 .001442 1.61111E-5 -6.805E-5 .139133 -5.6151E-4 
49.959955 3.732838 -4.527237 .35957 .160883 .001204 .001442 9.93974E-6 -6.805E-5 .155733 -.001134 
50.158455 3.87999 3.894685 .581377 -1.435068 .001222 -.00126 -2.3272E-6 -6.0135E-5 .157767 -.002729 
50.206205 3.517788 3.695838 .730315 -1.686176 .001162 -.00126 -5.1967E-6 -6.0135E-5 .149975 -.003222 
50.249205 3.207856 3.516771 .884945 -1.912304 .001108 -.00126 -7.7807E-6 -6.0135E-5 .142959 -.003667 
50.309205 2.793356 3.389788 1.135997 -2.277574 .001032 -.001284 -1.1398E-5 -6.0556E-5 .132983 -.004293 
50.399705 2.216794 2.985386 1.592507 -2.770159 9.15842E-4 -.001284 -1.6875E-5 -6.0556E-5 .117668 -.005249 
50.478705 1.838383 1.863947 2.001227 -2.346246 8.29395E-4 -9.138E-4 -2.135E-5 -5.2421E-5 .106194 -.005992 
50.569205 1.521144 1.643835 2.452194 -2.640212 7.46752E-4 -9.138E-4 -2.6091E-5 -5.2421E-5 .095135 -.006732 
50.629205 1.336587 1.435144 2.772586 -2.704567 6.92478E-4 -8.9694E-4 -2.9195E-5 -5.1125E-5 .087934 -.007208 
50.677205 1.204174 1.32534 3.038948 -2.848415 6.49454E-4 -8.9694E-4 -3.1647E-5 -5.1125E-5 .082273 -.007577 
50.718205 1.099413 1.231549 3.277393 -2.971286 6.12704E-4 -8.9694E-4 -3.3742E-5 -5.1125E-5 .077438 -.007892 
50.729205 1.072614 1.206385 3.34308 -3.004252 6.02845E-4 -8.9694E-4 -3.4304E-5 -5.1125E-5 .07614 -.007977 
51.729205 1.417533 -1.672781 5.086569 1.993074 -3.3436E-5 -4.9395E-4 -5.8063E-5 8.27071E-6 .076914 -.010108 
51.740205 1.454633 -1.702235 5.042869 1.982328 -3.8866E-5 -4.9395E-4 -5.7972E-5 8.27071E-6 .078238 -.010066 
51.819705 1.742016 -1.915106 4.734063 1.904666 -7.8108E-5 -4.9395E-4 -5.7315E-5 8.27071E-6 .08781 -.009758 
51.898705 2.108259 -2.763055 4.330985 3.158017 -1.1819E-4 -5.2384E-4 -5.5975E-5 2.55758E-5 .098417 -.009337 
51.989205 2.64153 -3.13345 3.780495 2.92888 -1.6556E-4 -5.2384E-4 -5.3662E-5 2.55758E-5 .11188 -.008725 
52.049205 3.032012 -3.379015 3.438377 2.776966 -1.9697E-4 -5.2384E-4 -5.2012E-5 2.94584E-5 .120806 -.008319 
52.189205 4.057657 -3.952002 2.710947 2.422501 -2.7026E-4 -5.2384E-4 -4.7891E-5 2.94584E-5 .141633 -.007372 
52.249205 4.546299 -4.197568 2.429553 2.270588 -2.9662E-4 -3.5551E-4 -4.6125E-5 2.94584E-5 .150554 -.006967 
52.339955 5.341322 -4.568986 2.038559 2.040818 -3.2886E-4 -3.5551E-4 -4.3453E-5 2.94584E-5 .164039 -.006353 
52.538455 5.328545 4.626012 1.908083 -1.310804 -3.4219E-4 2.24998E-4 -4.4743E-5 -4.283E-5 .165258 -.006019 
52.586205 4.896633 4.425419 2.036423 -1.378781 -3.3146E-4 2.24998E-4 -4.6786E-5 -4.283E-5 .158732 -.006177 
52.629205 4.524068 4.244779 2.157548 -1.439996 -3.2179E-4 2.24998E-4 -4.8627E-5 -4.283E-5 .152855 -.006319 
52.689205 4.032402 3.939823 2.332982 -1.494711 -3.0836E-4 2.23008E-4 -5.1176E-5 -4.2184E-5 .144714 -.006524 
52.829205 3.010201 3.366583 2.778351 -1.688658 -2.7716E-4 2.23008E-4 -5.7077E-5 -4.2184E-5 .125851 -.007017 
52.889205 2.621216 3.120909 2.985836 -1.771778 -2.6379E-4 2.23008E-4 -5.5237E-5 1.03559E-4 .117768 -.007233 
52.989205 2.038376 2.711452 3.353795 -1.910312 -2.415E-4 2.23008E-4 -4.4889E-5 1.03559E-4 .104295 -.0076 
53.049205 1.726841 2.492725 3.592282 -2.049141 -2.2808E-4 2.2475E-4 -3.8699E-5 1.02919E-4 .096163 -.007815 
53.097205 1.497313 2.292347 3.792196 -2.118562 -2.173E-4 2.2475E-4 -3.3762E-5 1.02919E-4 .089621 -.007984 
53.138205 1.316481 2.121191 3.96823 -2.17786 -2.0809E-4 2.2475E-4 -2.9545E-5 1.02919E-4 .084034 -.008128 
53.149205 1.270352 2.075271 4.016285 -2.193769 -2.0562E-4 2.2475E-4 -2.8414E-5 1.02919E-4 .082534 -.008167 
54.149205 1.275087 -2.081576 3.571917 2.451455 1.49062E-6 2.2801E-4 7.06244E-5 7.57804E-5 .066107 -.006705 
54.160205 1.321356 -2.127551 3.518259 2.429883 3.99703E-6 2.2801E-4 7.14574E-5 7.57804E-5 .067209 -.006638 
54.239805 1.686296 -2.460246 3.144102 2.27378 2.21343E-5 2.2801E-4 7.74854E-5 7.57804E-5 .075181 -.006154 
54.318605 2.095308 -2.729688 2.804759 2.038941 4.00582E-5 2.27118E-4 8.35424E-5 7.80905E-5 .082985 -.005683 
54.409205 2.622654 -3.094865 2.450627 1.872462 6.0621E-5 2.27118E-4 9.06126E-5 7.80905E-5 .091853 -.005148 
54.469205 3.008286 -3.336704 2.232695 1.762212 7.42388E-5 2.27118E-4 9.52948E-5 7.80905E-5 .097726 -.004795 
54.609205 4.020874 -3.900995 1.775602 1.50496 1.06014E-4 2.27118E-4 1.0622E-4 7.80905E-5 .11143 -.003969 
54.669205 4.503176 -4.142834 1.60174 1.39471 1.22814E-4 3.33266E-4 1.10902E-4 7.80904E-5 .117299 -.003615 
54.759905 5.28731 -4.508413 1.364017 1.228048 1.53021E-4 3.33266E-4 1.1798E-4 7.80904E-5 .126168 -.00308 
54.958505 5.317128 4.374922 1.338357 -1.08492 1.91488E-4 4.35114E-5 1.54016E-4 2.95154E-4 .124639 -.00238 
55.006205 4.908651 4.19437 1.445484 -1.162459 1.93562E-4 4.35114E-5 1.68086E-4 2.95154E-4 .119262 -.002316 
55.049205 4.555175 4.031607 1.548391 -1.232358 1.95432E-4 4.35114E-5 1.80769E-4 2.95154E-4 .114415 -.002259 
55.109205 4.082897 3.83823 1.702687 -1.343529 1.98039E-4 4.34554E-5 1.98511E-4 2.96688E-4 .107623 -.002153 
55.409205 2.127838 2.683072 2.656324 -1.837425 2.11066E-4 4.34554E-5 2.87457E-4 2.96688E-4 .07353 -.0015 
55.469205 1.822394 2.426116 2.881436 -1.896762 2.13632E-4 4.20618E-5 3.05124E-4 2.92583E-4 .066742 -.001409 
55.517205 1.598339 2.244868 3.067073 -1.973301 2.15649E-4 4.20618E-5 3.19159E-4 2.92583E-4 .061335 -.001368 
55.558205 1.420728 2.090052 3.231452 -2.038677 2.17373E-4 4.20618E-5 3.31146E-4 2.92583E-4 .056717 -.001333 
55.569205 1.375235 2.048516 3.276466 -2.056217 2.17835E-4 4.20618E-5 3.34363E-4 2.92583E-4 .055478 -.001324 
56.569205 1.081666 -1.651689 3.39793 1.985331 4.68275E-4 5.05398E-4 3.97758E-4 -1.7817E-4 .050412 2.96407E-4 
56.580205 1.118395 -1.689575 3.354458 1.969345 4.7383E-4 5.05398E-4 3.95799E-4 -1.7817E-4 .051526 3.18621E-4 
56.659805 1.409001 -1.963739 3.050353 1.853663 5.14033E-4 5.05398E-4 3.81627E-4 -1.7817E-4 .059587 4.79376E-4 
56.738605 1.735998 -2.18551 2.773908 1.659692 5.53237E-4 4.90083E-4 3.68023E-4 -1.6741E-4 .067498 6.38684E-4 
56.829205 2.159019 -2.486772 2.484471 1.537145 5.97608E-4 4.90083E-4 3.52866E-4 -1.6741E-4 .07651 8.22133E-4 
56.889205 2.469192 -2.686279 2.305006 1.455988 6.26993E-4 4.90081E-4 3.32947E-4 -4.97E-4 .082478 9.53464E-4 
57.029205 3.285968 -3.151804 1.924099 1.266622 6.95558E-4 4.90081E-4 2.63415E-4 -4.97E-4 .096403 .001283 
57.089205 3.67589 -3.351315 1.777074 1.185467 7.31226E-4 6.99656E-4 2.33616E-4 -4.97E-4 .102365 .001424 
57.179905 4.310742 -3.652909 1.573296 1.062785 7.94641E-4 6.99656E-4 1.88569E-4 -4.97E-4 .111368 .001638 
57.378505 4.329208 3.570243 1.682809 -1.673622 8.00529E-4 -6.4199E-4 1.16073E-4 -2.5388E-4 .112561 .002377 
57.426205 3.996053 3.418883 1.847496 -1.78129 7.69927E-4 -6.4199E-4 1.03971E-4 -2.5388E-4 .108384 .002631 
57.469205 3.708092 3.282437 2.004754 -1.878349 7.4234E-4 -6.4199E-4 9.30614E-5 -2.5388E-4 .104618 .002859 
57.529205 3.319203 3.19008 2.241683 -2.080262 7.03524E-4 -6.5259E-4 7.79178E-5 -2.5134E-4 .099272 .003192 
57.829205 1.709097 2.180589 3.702591 -2.792745 5.07881E-4 -6.5259E-4 2.56776E-6 -2.5134E-4 .072096 .004922 
57.889205 1.462671 1.932227 4.038411 -2.806584 4.68991E-4 -6.4481E-4 -1.25E-5 -2.5118E-4 .066728 .005263 
57.937205 1.284749 1.776995 4.312717 -2.912022 4.38061E-4 -6.4481E-4 -2.4548E-5 -2.5118E-4 .062486 .005533 
57.978205 1.144567 1.6444 4.555031 -3.002083 4.11642E-4 -6.4481E-4 -3.484E-5 -2.5118E-4 .058862 .005763 
57.989205 1.108806 1.608826 4.621297 -3.026246 4.04554E-4 -6.4481E-4 -3.7601E-5 -2.5118E-4 .05789 .005825 
58.989205 1.31053 -1.88163 4.856372 2.890647 -5.2396E-5 -3.5408E-4 -2.2312E-4 -8.3518E-5 .082995 .007229 
59.000205 1.352317 -1.919716 4.793054 2.86947 -5.6288E-5 -3.5408E-4 -2.2404E-4 -8.3518E-5 .084576 .007196 
59.079805 1.67965 -2.195314 4.348735 2.716224 -8.4454E-5 -3.5408E-4 -2.3068E-4 -8.3518E-5 .096021 .006962 
59.158605 2.042566 -2.409705 3.942109 2.451598 -1.1223E-4 -3.5126E-4 -2.3752E-4 -9.0234E-5 .107238 .006738 
59.249205 2.506224 -2.711416 3.512759 2.290591 -1.4403E-4 -3.5126E-4 -2.4569E-4 -9.0234E-5 .12 .006489 
59.309205 2.843353 -2.911219 3.244468 2.183965 -1.6509E-4 -3.5126E-4 -2.4071E-4 2.56235E-4 .128452 .006314 
59.449205 3.723166 -3.377439 2.668182 1.935169 -2.1424E-4 -3.5126E-4 -2.0487E-4 2.56235E-4 .148172 .005881 
59.509205 4.140164 -3.577247 2.442513 1.828543 -2.3369E-4 -2.977E-4 -1.895E-4 2.56235E-4 .156622 .005696 
59.599905 4.816012 -3.87929 2.12565 1.667359 -2.6068E-4 -2.977E-4 -1.6628E-4 2.56235E-4 .169393 .005416 
59.798505 4.759146 4.133864 2.15839 -1.849979 -2.7543E-4 1.53202E-4 -1.4043E-4 1.14701E-5 .169055 .005698 
59.846205 4.37368 3.952686 2.339414 -1.947647 -2.6812E-4 1.53202E-4 -1.3988E-4 1.14701E-5 .16218 .005985 
59.889205 4.040999 3.789361 2.510581 -2.035692 -2.6154E-4 1.53202E-4 -1.3939E-4 1.14701E-5 .155983 .006244 
59.949205 3.602963 3.52377 2.760657 -2.130333 -2.5239E-4 1.52242E-4 -1.3866E-4 1.29391E-5 .147384 .006576 
60.249205 1.824831 2.40737 4.218296 -2.731772 -2.0674E-4 1.52242E-4 -1.3478E-4 1.29391E-5 .104617 .008099 
60.309205 1.547876 2.203989 4.555538 -2.910424 -1.9759E-4 1.52986E-4 -1.3406E-4 1.11665E-5 .096026 .008433 
60.357205 1.345144 2.022468 4.839532 -3.010144 -1.9025E-4 1.52986E-4 -1.3352E-4 1.11665E-5 .089123 .008724 
60.398205 1.185767 1.867419 5.089686 -3.095322 -1.8399E-4 1.52986E-4 -1.3307E-4 1.11665E-5 .083227 .008973 
60.409205 1.145169 1.82582 5.157988 -3.118174 -1.823E-4 1.52986E-4 -1.3294E-4 1.11665E-5 .081645 .00904 
61.409205 1.350421 -2.103148 4.967766 3.228347 -4.6739E-5 1.43372E-4 -5.3954E-5 1.31349E-4 .05561 .009221 
61.420205 1.397144 -2.147293 4.897069 3.203072 -4.5163E-5 1.43372E-4 -5.251E-5 1.31349E-4 .056564 .009157 
61.499805 1.764172 -2.466746 4.402035 3.020175 -3.3758E-5 1.43372E-4 -4.2062E-5 1.31349E-4 .06347 .008695 
61.578605 2.172998 -2.720838 3.949902 2.725995 -2.2434E-5 1.44179E-4 -3.1762E-5 1.3029E-4 .070233 .008248 
61.669205 2.697377 -3.070949 3.473785 2.532741 -9.3802E-6 1.44179E-4 -1.9966E-5 1.3029E-4 .07792 .007745 
61.729205 3.079543 -3.302807 3.177736 2.404759 -7.3536E-7 1.44179E-4 -1.9535E-5 -1.159E-4 .083011 .007419 
61.869205 4.079389 -3.843817 2.546641 2.106133 1.9436E-5 1.44179E-4 -3.575E-5 -1.159E-4 .094889 .006675 
61.929205 4.554236 -4.075678 2.301751 1.978152 3.43046E-5 3.51782E-4 -4.27E-5 -1.159E-4 .099974 .006357 
62.019905 5.32483 -4.426175 1.960694 1.784684 6.61895E-5 3.51782E-4 -5.3205E-5 -1.159E-4 .107651 .005875 
62.218505 5.311797 4.484519 1.892054 -1.401829 1.21872E-4 1.93609E-4 -8.6337E-5 -2.2726E-4 .106565 .005755 
62.266205 4.893295 4.295071 2.029259 -1.476531 1.31101E-4 1.93609E-4 -9.717E-5 -2.2726E-4 .102022 .005949 
62.309205 4.531509 4.124291 2.159048 -1.543872 1.3942E-4 1.93609E-4 -1.0694E-4 -2.2726E-4 .097926 .006124 
62.369205 4.048617 3.909408 2.349974 -1.651086 1.51024E-4 1.93442E-4 -1.2058E-4 -2.2794E-4 .092194 .006356 
62.669205 2.066054 2.703634 3.482461 -2.126439 2.09017E-4 1.93442E-4 -1.8892E-4 -2.2794E-4 .063441 .007457 
62.729205 1.759303 2.439259 3.743178 -2.171546 2.20623E-4 1.93697E-4 -2.025E-4 -2.252E-4 .057719 .007697 
62.777205 1.534382 2.249768 3.955018 -2.244789 2.29915E-4 1.93697E-4 -2.1331E-4 -2.252E-4 .053164 .007905 
62.818205 1.356658 2.087911 4.141529 -2.307351 2.37851E-4 1.93697E-4 -2.2253E-4 -2.252E-4 .049273 .008082 
62.829205 1.311233 2.044486 4.19244 -2.324136 2.3998E-4 1.93697E-4 -2.2501E-4 -2.252E-4 .048229 .00813 
63.829205 1.176274 -1.861915 3.765827 2.57108 6.85828E-4 7.80894E-4 -2.908E-4 1.06454E-4 .060019 .007231 
63.840205 1.217667 -1.903658 3.709546 2.548865 6.94412E-4 7.80894E-4 -2.8963E-4 1.06454E-4 .06134 .007166 
63.919805 1.544552 -2.205722 3.31683 2.388109 7.56529E-4 7.80894E-4 -2.8116E-4 1.06454E-4 .070902 .006696 
63.998605 1.911471 -2.450096 2.960208 2.144209 8.17146E-4 7.58312E-4 -2.7309E-4 9.85027E-5 .080284 .006239 
64.089205 2.385158 -2.781798 2.587442 1.973005 8.85803E-4 7.58312E-4 -2.6417E-4 9.85027E-5 .090973 .005722 
64.149205 2.731919 -3.001465 2.35764 1.859624 9.3127E-4 7.58311E-4 -2.5119E-4 3.34696E-4 .098051 .005373 
64.289205 3.643468 -3.514028 1.874312 1.59507 .001037 7.58311E-4 -2.0436E-4 3.34696E-4 .114567 .004541 
64.349205 4.078037 -3.733698 1.689833 1.481693 .001094 .001122 -1.8429E-4 3.34696E-4 .121634 .004185 
64.439905 4.784968 -4.065765 1.436771 1.310299 .001195 .001122 -1.5396E-4 3.34696E-4 .132301 .003646 
64.638505 4.80788 3.963186 1.39955 -1.102687 .001217 -9.0734E-4 -1.0964E-4 1.2434E-4 .133702 .003034 
64.686205 4.437945 3.797546 1.508272 -1.17816 .001174 -9.0734E-4 -1.0371E-4 1.2434E-4 .128747 .003014 
64.729205 4.117994 3.648227 1.612448 -1.246196 .001135 -9.0734E-4 -9.8367E-5 1.2434E-4 .12428 .002997 
64.789205 3.682108 3.606717 1.772108 -1.421432 .00108 -9.3238E-4 -9.1043E-5 1.20027E-4 .117879 .002962 
65.089205 1.861483 2.466156 2.777579 -1.93242 8.00407E-4 -9.3238E-4 -5.506E-5 1.20027E-4 .085063 .00274 
65.149205 1.584557 2.158939 3.006601 -1.883156 7.45096E-4 -9.1299E-4 -4.7783E-5 1.22621E-4 .078626 .0027 
65.197205 1.385659 1.98757 3.19074 -1.955687 7.01302E-4 -9.1299E-4 -4.1901E-5 1.22621E-4 .073573 .002671 
65.238205 1.228787 1.841192 3.353536 -2.017641 6.63895E-4 -9.1299E-4 -3.6877E-5 1.22621E-4 .069256 .002646 
65.249205 1.18874 1.80192 3.398076 -2.034263 6.53859E-4 -9.1299E-4 -3.5529E-5 1.22621E-4 .068098 .002639 
66.249205 1.253978 -1.890346 3.353467 2.061031 2.99258E-5 -4.509E-4 8.33499E-5 9.18567E-5 .079049 8.10455E-4 
66.260205 1.295978 -1.930437 3.308344 2.043829 2.49693E-5 -4.509E-4 8.43596E-5 9.18567E-5 .080478 7.79792E-4 
66.339805 1.626172 -2.220551 2.993089 1.919348 -1.0898E-5 -4.509E-4 9.16664E-5 9.18567E-5 .090823 5.57902E-4 
66.418605 1.994308 -2.450707 2.706841 1.718595 -4.638E-5 -4.5007E-4 9.90059E-5 9.4592E-5 .100957 3.38692E-4 
66.509205 2.466871 -2.768766 2.407616 1.586356 -8.7129E-5 -4.5007E-4 1.0757E-4 9.4592E-5 .112482 8.70555E-5 
66.569205 2.811526 -2.979399 2.222633 1.498781 -1.1411E-4 -4.5007E-4 1.06258E-4 -1.3835E-4 .120114 -7.2597E-5 
66.709205 3.713951 -3.470881 1.831849 1.294438 -1.7708E-4 -4.5007E-4 8.69028E-5 -1.3835E-4 .137922 -4.2887E-4 
66.769205 4.142803 -3.681516 1.681872 1.206864 -1.9631E-4 -1.9132E-4 7.86076E-5 -1.3835E-4 .145546 -5.8156E-4 
66.859905 4.839036 -3.999926 1.475095 1.074479 -2.1365E-4 -1.9132E-4 6.6068E-5 -1.3835E-4 .15706 -8.1237E-4 
67.058505 4.820044 4.08495 1.548056 -1.481442 -2.1584E-4 1.69912E-4 4.81543E-5 -4.7195E-5 .156073 -.001491 
67.106205 4.438943 3.910037 1.693979 -1.579812 -2.0774E-4 1.69912E-4 4.59046E-5 -4.7195E-5 .149556 -.001704 
67.149205 4.109684 3.752359 1.833561 -1.668489 -2.0044E-4 1.69912E-4 4.38766E-5 -4.7195E-5 .143682 -.001896 
67.209205 3.674115 3.50219 2.039761 -1.775695 -1.9027E-4 1.69164E-4 4.10364E-5 -4.7536E-5 .135519 -.002156 
67.509205 1.898732 2.419781 3.28745 -2.3861 -1.3956E-4 1.69164E-4 2.67853E-5 -4.7536E-5 .094871 -.003419 
67.569205 1.620821 2.217817 3.583188 -2.539761 -1.294E-4 1.69733E-4 2.39419E-5 -4.7313E-5 .086717 -.003677 
67.617205 1.416458 2.042656 3.831623 -2.639498 -1.2125E-4 1.69733E-4 2.16724E-5 -4.7313E-5 .080175 -.003888 
67.658205 1.255204 1.893039 4.051406 -2.72469 -1.143E-4 1.69733E-4 1.97339E-5 -4.7313E-5 .074587 -.004068 
67.669205 1.214027 1.852898 4.111559 -2.747546 -1.1243E-4 1.69733E-4 1.92138E-5 -4.7313E-5 .073088 -.004117 
68.669205 1.235638 -1.882018 4.444946 2.553609 8.64569E-5 2.65058E-4 -2.9549E-5 -4.067E-5 .050755 -.005563 
68.680205 1.277459 -1.922425 4.389009 2.535009 8.93706E-5 2.65058E-4 -2.9996E-5 -4.067E-5 .051715 -.005543 
68.759805 1.60656 -2.214822 3.996417 2.400416 1.10455E-4 2.65058E-4 -3.3231E-5 -4.067E-5 .058661 -.005398 
68.838605 1.974017 -2.447822 3.637349 2.16298 1.31195E-4 2.61591E-4 -3.6472E-5 -4.167E-5 .065468 -.005261 
68.929205 2.446294 -2.768503 3.258481 2.021635 1.54879E-4 2.61591E-4 -4.0245E-5 -4.167E-5 .073213 -.005109 
68.989205 2.791022 -2.980875 3.021662 1.928029 1.70564E-4 2.61591E-4 -4.1058E-5 1.45479E-5 .078341 -.005011 
69.129205 3.694427 -3.476408 2.512738 1.709616 2.07162E-4 2.61591E-4 -3.9023E-5 1.45479E-5 .090309 -.004785 
69.189205 4.124046 -3.68878 2.313337 1.61601 2.22714E-4 2.57163E-4 -3.8151E-5 1.45479E-5 .095438 -.004688 
69.279905 4.821834 -4.009814 2.033217 1.474509 2.46023E-4 2.57163E-4 -3.6832E-5 1.45479E-5 .103191 -.004542 
69.478505 4.812007 4.053805 2.117178 -1.942824 2.5547E-4 -1.6463E-4 -3.9938E-5 -4.6717E-5 .102997 -.004956 
69.526205 4.433769 3.881111 2.307521 -2.050321 2.47623E-4 -1.6463E-4 -4.2165E-5 -4.6717E-5 .098829 -.005238 
69.569205 4.10691 3.725433 2.487893 -2.147227 2.40549E-4 -1.6463E-4 -4.4172E-5 -4.6717E-5 .095071 -.005491 
69.629205 3.670865 3.543686 2.754999 -2.309355 2.30644E-4 -1.6573E-4 -4.6986E-5 -4.7158E-5 .089801 -.005852 
69.929205 1.878047 2.436441 4.346278 -2.998519 1.8096E-4 -1.6573E-4 -6.1124E-5 -4.7158E-5 .063322 -.007691 
69.989205 1.600319 2.196615 4.710881 -3.081654 1.7105E-4 -1.6484E-4 -6.393E-5 -4.6441E-5 .058046 -.008048 
70.037205 1.397963 2.022015 5.011646 -3.188533 1.63143E-4 -1.6484E-4 -6.6158E-5 -4.6441E-5 .053841 -.008326 
70.078205 1.238381 1.872878 5.276668 -3.279825 1.56389E-4 -1.6484E-4 -6.8061E-5 -4.6441E-5 .05025 -.008564 
70.089205 1.197645 1.832865 5.349044 -3.304318 1.54577E-4 -1.6484E-4 -6.8571E-5 -4.6441E-5 .049286 -.008628 
71.089205 1.253746 -1.908696 5.255276 3.358846 1.17935E-4 8.47414E-5 -7.0491E-5 4.29784E-5 .070325 -.008871 
71.100205 1.296157 -1.949406 5.181714 3.333156 1.18866E-4 8.47414E-5 -7.0018E-5 4.29784E-5 .071794 -.008812 
71.179805 1.629724 -2.243996 4.666224 3.147253 1.25607E-4 8.47414E-5 -6.66E-5 4.29784E-5 .08243 -.008385 
71.258605 2.001888 -2.478369 4.19488 2.843076 1.32136E-4 8.10428E-5 -6.3289E-5 4.1115E-5 .092861 -.007973 
71.349205 2.479909 -2.801391 3.697814 2.647035 1.39473E-4 8.10428E-5 -5.9567E-5 4.1115E-5 .104739 -.007509 
71.409205 2.828674 -3.015312 3.38817 2.517207 1.44333E-4 8.10427E-5 -5.4248E-5 1.36298E-4 .112604 -.007204 
71.549205 3.74222 -3.514463 2.726214 2.214274 1.55671E-4 8.10427E-5 -3.5179E-5 1.36298E-4 .130958 -.0065 
71.609205 4.176496 -3.728385 2.468466 2.084449 1.68491E-4 3.46584E-4 -2.7007E-5 1.36298E-4 .138816 -.006199 
71.699905 4.881675 -4.051763 2.108392 1.888191 1.99905E-4 3.46584E-4 -1.4653E-5 1.36298E-4 .150682 -.005743 
71.898505 4.868612 4.110241 2.043996 -1.529003 2.33462E-4 -1.7905E-5 1.14157E-5 1.33713E-4 .151504 -.005648 
71.946205 4.485113 3.935044 2.193475 -1.606844 2.32608E-4 -1.7905E-5 1.77895E-5 1.33713E-4 .145647 -.005841 
71.989205 4.153716 3.77711 2.334585 -1.677016 2.31839E-4 -1.7905E-5 2.35352E-5 1.33713E-4 .140368 -.006015 
72.049205 3.712012 3.592149 2.543127 -1.799273 2.30733E-4 -1.8989E-5 3.15601E-5 1.33975E-4 .132961 -.006256 
72.349205 1.89483 2.469248 3.771712 -2.298796 2.2504E-4 -1.8989E-5 7.17252E-5 1.33975E-4 .095736 -.007443 
72.409205 1.613193 2.220715 4.048689 -2.338401 2.23945E-4 -1.7532E-5 7.97255E-5 1.32866E-4 .088333 -.007691 
72.457205 1.40861 2.044344 4.276699 -2.415033 2.23104E-4 -1.7532E-5 8.60987E-5 1.32866E-4 .082443 -.007897 
72.498205 1.24726 1.893692 4.477279 -2.480489 2.22386E-4 -1.7532E-5 9.15425E-5 1.32866E-4 .077412 -.008074 
72.509205 1.206071 1.853274 4.532006 -2.498051 2.22193E-4 -1.7532E-5 9.3003E-5 1.32866E-4 .076063 -.008121 
73.509205 1.249789 -1.912274 4.024622 2.792324 4.03924E-4 4.14793E-4 1.52713E-4 -2.5127E-5 .071651 -.00728 
73.520205 1.292281 -1.953233 3.963497 2.768296 4.08484E-4 4.14793E-4 1.52436E-4 -2.5127E-5 .072892 -.007216 
73.599805 1.626601 -2.249626 3.536915 2.594424 4.41479E-4 4.14793E-4 1.50438E-4 -2.5127E-5 .081875 -.006757 
73.678605 1.999798 -2.485845 3.149273 2.332129 4.73633E-4 4.01661E-4 1.48628E-4 -2.0837E-5 .090672 -.006311 
73.769205 2.479355 -2.810885 2.743738 2.147019 5.09999E-4 4.01661E-4 1.46742E-4 -2.0837E-5 .100672 -.005805 
73.829205 2.829339 -3.026143 2.493621 2.02443 5.34082E-4 4.01661E-4 1.47114E-4 3.3255E-5 .107296 -.005472 
73.969205 3.746352 -3.528412 1.967185 1.738389 5.90276E-4 4.01661E-4 1.51767E-4 3.3255E-5 .122749 -.004699 
74.029205 4.182381 -3.74367 1.766072 1.615817 6.37238E-4 .001165 1.53761E-4 3.32535E-5 .129349 -.004368 
74.119905 4.890516 -4.069069 1.489958 1.4305 7.42815E-4 .001165 1.56775E-4 3.32535E-5 .139292 -.003867 
74.318505 4.881132 4.111049 1.420014 -1.040365 8.44369E-4 -1.7012E-4 1.89907E-4 3.09918E-4 .138016 -.003384 
74.366205 4.497538 3.936236 1.522529 -1.110266 8.3626E-4 -1.7012E-4 2.0468E-4 3.09918E-4 .132192 -.003409 
74.409205 4.166024 3.778648 1.620655 -1.17328 8.2895E-4 -1.7012E-4 2.17998E-4 3.09918E-4 .126943 -.003432 
74.469205 3.718849 3.686379 1.770454 -1.32134 8.18361E-4 -1.8301E-4 2.36808E-4 3.17617E-4 .11949 -.003433 
74.769205 1.861124 2.510252 2.702117 -1.786317 7.63497E-4 -1.8301E-4 3.32029E-4 3.17617E-4 .081607 -.003284 
74.829205 1.579125 2.195073 2.913172 -1.734835 7.52976E-4 -1.6806E-4 3.5057E-4 3.00735E-4 .07415 -.003302 
74.877205 1.377019 2.018336 3.08277 -1.800857 7.44915E-4 -1.6806E-4 3.64995E-4 3.00735E-4 .068276 -.003352 
74.918205 1.217814 1.867372 3.23265 -1.85725 7.38029E-4 -1.6806E-4 3.77317E-4 3.00735E-4 .063259 -.003396 
74.929205 1.177204 1.82687 3.273648 -1.87238 7.36181E-4 -1.6806E-4 3.80623E-4 3.00735E-4 .061913 -.003407 
75.929205 1.287902 -1.976318 3.108442 1.967857 .001056 8.66852E-4 4.26381E-4 -2.1813E-4 .048888 -.002235 
75.940205 1.331812 -2.018191 3.065368 1.950626 .001065 8.66852E-4 4.23983E-4 -2.1813E-4 .049917 -.0022 
76.019805 1.676992 -2.321195 2.764958 1.825939 .001134 8.66852E-4 4.06631E-4 -2.1813E-4 .057362 -.001951 
76.098605 2.061845 -2.562182 2.492942 1.631116 .001201 8.33335E-4 3.89908E-4 -2.067E-4 .064667 -.001707 
76.189205 2.555872 -2.894362 2.209621 1.498173 .001277 8.33335E-4 3.71194E-4 -2.067E-4 .072986 -.001429 
76.249205 2.91615 -3.114346 2.035241 1.410131 .001327 8.33334E-4 3.51831E-4 -4.3917E-4 .078495 -.001238 
76.389205 3.859389 -3.627648 1.669414 1.2047 .001443 8.33334E-4 2.90389E-4 -4.3917E-4 .09135 -7.765E-4 
76.449205 4.307601 -3.847634 1.530228 1.11667 .001513 .001503 2.64057E-4 -4.3917E-4 .096839 -5.7857E-4 
76.539905 5.035231 -4.180181 1.339865 .983579 .00165 .001503 2.24252E-4 -4.3917E-4 .105107 -2.794E-4 
76.738505 5.021638 4.241048 1.408619 -1.367063 .001671 -.00129 1.69811E-4 -1.247E-4 .105904 3.30702E-4 
76.786205 4.625908 4.06082 1.543576 -1.464145 .00161 -.00129 1.63867E-4 -1.247E-4 .101929 4.75346E-4 
76.829205 4.283895 3.89835 1.673168 -1.551662 .001554 -.00129 1.58509E-4 -1.247E-4 .098345 6.05738E-4 
76.889205 3.81247 3.906274 1.872078 -1.7892 .001475 -.001337 1.51325E-4 -1.1505E-4 .093165 8.07212E-4 
77.189205 1.853595 2.627736 3.146569 -2.461989 .001075 -.001337 1.16834E-4 -1.1505E-4 .066388 .00191 
77.249205 1.561466 2.269037 3.438225 -2.365504 9.95512E-4 -.001303 1.09702E-4 -1.227E-4 .061164 .002112 
77.297205 1.352847 2.080158 3.669573 -2.457521 9.33032E-4 -.001303 1.03817E-4 -1.227E-4 .057084 .00226 
77.338205 1.188999 1.918823 3.874173 -2.536118 8.79663E-4 -.001303 9.87893E-5 -1.227E-4 .053599 .002386 
77.349205 1.14729 1.875538 3.930162 -2.557206 8.65345E-4 -.001303 9.74405E-5 -1.227E-4 .052664 .00242 
78.349205 1.383869 -2.195665 4.150787 2.430705 -9.4446E-5 -7.9549E-4 -5.4025E-5 -1.5059E-4 .0781 .003627 
78.360205 1.432649 -2.241903 4.097549 2.41241 -1.0319E-4 -7.9549E-4 -5.5681E-5 -1.5059E-4 .079659 .003619 
78.439805 1.815933 -2.576495 3.724285 2.280018 -1.6647E-4 -7.9549E-4 -6.7659E-5 -1.5059E-4 .09094 .003557 
78.518605 2.243082 -2.843575 3.383421 2.052041 -2.289E-4 -7.8981E-4 -7.9597E-5 -1.527E-4 .102002 .003499 
78.609205 2.791192 -3.210313 3.024468 1.912601 -3.0041E-4 -7.8981E-4 -9.3422E-5 -1.527E-4 .114591 .003438 
78.669205 3.19073 -3.453181 2.800649 1.820257 -3.4777E-4 -7.8981E-4 -9.2536E-5 1.82271E-4 .122928 .003387 
78.809205 4.236248 -4.019883 2.321469 1.604786 -4.5826E-4 -7.8981E-4 -6.7035E-5 1.82271E-4 .142382 .003246 
78.869205 4.732869 -4.262756 2.134562 1.512443 -5.0179E-4 -6.6213E-4 -5.6106E-5 1.82271E-4 .150716 .003185 
78.959905 5.538884 -4.629898 1.873044 1.372849 -5.6181E-4 -6.6213E-4 -3.9586E-5 1.82271E-4 .163307 .003093 
79.158505 5.534485 4.649584 1.947772 -1.789663 -5.9746E-4 3.1289E-4 -8.0606E-6 1.44249E-4 .163509 .003403 
79.206205 5.100503 4.454773 2.123292 -1.89252 -5.8255E-4 3.1289E-4 -1.1847E-6 1.44249E-4 .156981 .003603 
79.249205 4.725199 4.279158 2.289923 -1.985242 -5.691E-4 3.1289E-4 5.01382E-6 1.44249E-4 .151096 .003784 
79.309205 4.23294 3.93695 2.532412 -2.05636 -5.5054E-4 3.06449E-4 1.36573E-5 1.44034E-4 .142987 .004035 
79.609205 2.222711 2.768375 3.950957 -2.675342 -4.5867E-4 3.06449E-4 5.68382E-5 1.44034E-4 .102946 .005287 
79.669205 1.900838 2.589806 4.285792 -2.924688 -4.401E-4 3.12916E-4 6.55273E-5 1.45827E-4 .094848 .005531 
79.717205 1.661715 2.395318 4.571501 -3.031616 -4.2509E-4 3.12916E-4 7.25222E-5 1.45827E-4 .088301 .005719 
79.758205 1.472238 2.229194 4.823666 -3.12295 -4.1227E-4 3.12916E-4 7.8497E-5 1.45827E-4 .082709 .005881 
79.769205 1.42372 2.184624 4.892594 -3.147454 -4.0883E-4 3.12916E-4 8.01001E-5 1.45827E-4 .081208 .005924 
80.769205 1.076491 -1.715271 5.030844 3.066784 -2.2191E-4 9.57169E-5 1.57173E-4 -6.7489E-6 .063941 .006122 
80.780205 1.114644 -1.755526 4.96367 3.044049 -2.2086E-4 9.57169E-5 1.57099E-4 -6.7489E-6 .065024 .006082 
80.859805 1.417106 -2.046826 4.492475 2.879526 -2.1325E-4 9.57169E-5 1.56562E-4 -6.7489E-6 .072861 .005792 
80.938605 1.758486 -2.28493 4.061297 2.600327 -2.0547E-4 1.01725E-4 1.56208E-4 -2.262E-6 .080533 .005512 
81.029205 2.201232 -2.605223 3.606104 2.427296 -1.9626E-4 1.01725E-4 1.56003E-4 -2.262E-6 .089253 .005196 
81.089205 2.526365 -2.817337 3.321897 2.312706 -1.9016E-4 1.01725E-4 1.57391E-4 4.85696E-5 .095027 .004986 
81.229205 3.383926 -3.312271 2.712187 2.045328 -1.7593E-4 1.01725E-4 1.64186E-4 4.85696E-5 .108501 .004491 
81.289205 3.793847 -3.524386 2.473786 1.930745 -1.5705E-4 5.2791E-4 1.67098E-4 4.8569E-5 .114263 .004279 
81.379905 4.461799 -3.845033 2.139487 1.757522 -1.092E-4 5.2791E-4 1.71501E-4 4.8569E-5 .122953 .003958 
81.578505 4.50453 3.653737 2.139023 -1.754932 7.33905E-6 6.13585E-4 2.10296E-4 3.53257E-4 .121526 .00385 
81.626205 4.163438 3.501885 2.310664 -1.845849 3.65871E-5 6.13585E-4 2.27135E-4 3.53257E-4 .11629 .003964 
81.669205 3.868363 3.364996 2.472821 -1.927807 6.29534E-5 6.13585E-4 2.42315E-4 3.53257E-4 .111571 .004067 
81.729205 3.475945 3.185534 2.711635 -2.052197 9.97783E-5 6.14762E-4 2.63519E-4 3.54105E-4 .104977 .004245 
82.029205 1.854168 2.224065 4.114853 -2.628378 2.84082E-4 6.14762E-4 3.69678E-4 3.54105E-4 .071954 .005305 
82.089205 1.600003 2.000336 4.429386 -2.652413 3.2089E-4 6.13034E-4 3.90691E-4 3.46599E-4 .065386 .005463 
82.137205 1.415293 1.850398 4.688018 -2.73943 3.50295E-4 6.13034E-4 4.07317E-4 3.46599E-4 .060161 .005546 
82.178205 1.268911 1.722326 4.915544 -2.813757 3.75412E-4 6.13034E-4 4.21518E-4 3.46599E-4 .055698 .005617 
82.189205 1.231423 1.687965 4.977624 -2.833698 3.82151E-4 6.13034E-4 4.25328E-4 3.46599E-4 .054501 .005636 
83.189205 1.166885 -1.600314 4.528833 3.092219 .001419 .001652 4.85024E-4 -2.387E-4 .05361 .004372 
83.200205 1.202437 -1.633861 4.461132 3.066583 .001437 .001652 4.824E-4 -2.387E-4 .054772 .004327 
83.279805 1.481681 -1.876613 3.98802 2.881072 .001568 .001652 4.63412E-4 -2.387E-4 .063182 .004004 
83.358605 1.792367 -2.065646 3.557094 2.59557 .001696 .001605 4.45133E-4 -2.2567E-4 .071436 .003687 
83.449205 2.190496 -2.331696 3.104925 2.398641 .001842 .001605 4.24701E-4 -2.2567E-4 .080838 .003328 
83.509205 2.480675 -2.507886 2.825103 2.268224 .001938 .001605 4.06077E-4 -3.9554E-4 .087064 .003095 
83.649205 3.239925 -2.919 2.233005 1.963919 .002163 .001605 3.50739E-4 -3.9554E-4 .101593 .002564 
83.709205 3.600534 -3.095192 2.005321 1.833533 .002288 .002566 3.27023E-4 -3.9554E-4 .107791 .002336 
83.799905 4.185766 -3.361536 1.690813 1.636382 .00252 .002566 2.91171E-4 -3.9554E-4 .117116 .001992 
83.998505 4.134557 3.590725 1.598691 -1.122567 .002604 -.001744 2.57028E-4 4.19167E-5 .118353 .001484 
84.046205 3.799869 3.430547 1.708924 -1.189957 .002521 -.001744 2.59026E-4 4.19167E-5 .114028 .001415 
84.089205 3.511246 3.286153 1.813801 -1.250707 .002446 -.001744 2.60827E-4 4.19167E-5 .110128 .001352 
84.149205 3.110347 3.392123 1.980499 -1.529462 .002338 -.001861 2.64118E-4 6.7722E-5 .10437 .001303 
84.449205 1.437843 2.186657 3.049094 -2.034939 .00178 -.001861 2.84421E-4 6.7722E-5 .074038 .001246 
84.509205 1.198914 1.810687 3.277719 -1.767319 .001671 -.001766 2.87509E-4 3.5522E-5 .068213 .001191 
84.557205 1.033417 1.639505 3.450161 -1.827663 .001587 -.001766 2.89212E-4 3.5522E-5 .063739 .001113 
84.598205 .905059 1.493286 3.60204 -1.879207 .001514 -.001766 2.90668E-4 3.5522E-5 .059916 .001046 
84.609205 .87266 1.454057 3.643506 -1.893035 .001495 -.001766 2.91058E-4 3.5522E-5 .058891 .001028 
85.609205 1.770174 -2.667382 3.130283 2.192587 3.69014E-4 -6.9444E-4 1.67197E-4 -2.5909E-4 .077876 -7.4968E-4 
85.620205 1.82937 -2.717775 3.082303 2.172193 3.61381E-4 -6.9444E-4 1.64349E-4 -2.5909E-4 .079373 -7.6599E-4 
85.699805 2.290753 -3.082433 2.748465 2.024616 3.06141E-4 -6.9444E-4 1.4374E-4 -2.5909E-4 .090204 -8.8404E-4 
85.778605 2.798737 -3.363344 2.446861 1.808474 2.51129E-4 -7.0243E-4 1.23493E-4 -2.5525E-4 .10082 -.001002 
85.869205 3.443821 -3.761637 2.133695 1.650454 1.87532E-4 -7.0243E-4 1.00383E-4 -2.5525E-4 .1129 -.001139 
85.929205 3.910726 -4.025404 1.94205 1.545806 1.45415E-4 -7.0243E-4 9.13454E-5 -4.6214E-5 .1209 -.001236 
86.069205 5.12318 -4.640866 1.54368 1.301626 4.71407E-5 -7.0243E-4 8.48798E-5 -4.6214E-5 .139566 -.001478 
86.129205 5.69552 -4.904636 1.393865 1.19699 2.67919E-5 2.36808E-5 8.21088E-5 -4.6215E-5 .147544 -.001581 
86.219955 6.621287 -5.303588 1.191113 1.038707 2.89395E-5 2.36808E-5 7.79177E-5 -4.6215E-5 .159578 -.001737 
86.418455 6.647148 5.186914 1.169924 -.921093 2.90787E-5 -2.2314E-5 8.05388E-5 7.33354E-5 .160748 -.002382 
86.466205 6.161693 4.986601 1.261426 -.996484 2.80139E-5 -2.2314E-5 8.40382E-5 7.33354E-5 .154965 -.002618 
86.509205 5.740889 4.806214 1.349983 -1.064375 2.70551E-5 -2.2314E-5 8.71894E-5 7.33354E-5 .149756 -.002831 
86.569205 5.178154 4.558822 1.483077 -1.160594 2.57215E-5 -2.2164E-5 9.15895E-5 7.34324E-5 .142484 -.003111 
86.699705 4.060655 4.010223 1.812699 -1.36697 2.28311E-5 -2.2164E-5 1.01166E-4 7.34324E-5 .126655 -.003687 
86.778705 3.453688 3.678121 2.038397 -1.491903 2.10813E-5 -2.2164E-5 1.06963E-4 7.34324E-5 .117072 -.004036 
86.869205 2.822808 3.297675 2.321191 -1.635022 1.90767E-5 -2.2164E-5 1.13604E-4 7.34324E-5 .106095 -.004435 
86.929205 2.443363 3.044033 2.523509 -1.727076 1.77352E-5 -2.2591E-5 1.18003E-4 7.32933E-5 .098822 -.004723 
86.977205 2.161002 2.842491 2.692827 -1.802782 1.66515E-5 -2.2591E-5 1.21519E-4 7.32933E-5 .093007 -.004971 
87.018205 1.935129 2.670341 2.843204 -1.867447 1.57259E-5 -2.2591E-5 1.24522E-4 7.32933E-5 .088041 -.005184 
87.029205 1.876929 2.624154 2.884451 -1.884797 1.54776E-5 -2.2591E-5 1.25327E-4 7.32933E-5 .086708 -.005241 
88.029205 .770688 -1.12913 3.165232 1.721708 6.31453E-5 1.26795E-4 1.19365E-4 -8.4049E-5 .090829 -.006654 
88.040205 .795869 -1.161578 3.127532 1.707941 6.45391E-5 1.26795E-4 1.18441E-4 -8.4049E-5 .09226 -.006625 
88.119705 .999065 -1.396089 2.864059 1.608439 7.46125E-5 1.26795E-4 1.11763E-4 -8.4049E-5 .102602 -.006415 
88.198705 1.260056 -1.93201 2.566407 2.136545 8.53684E-5 1.46214E-4 1.04077E-4 -1.1032E-4 .113893 -.006145 
88.289205 1.640232 -2.271689 2.197691 1.940445 9.85917E-5 1.46214E-4 9.40998E-5 -1.1032E-4 .128041 -.005766 
88.349205 1.926153 -2.496891 1.972791 1.810433 1.07359E-4 1.46214E-4 8.6127E-5 -1.5562E-4 .13742 -.005514 
88.409205 2.239079 -2.722093 1.763482 1.680422 1.16125E-4 1.46214E-4 7.67959E-5 -1.5562E-4 .146799 -.00526 
88.469205 2.579011 -2.947294 1.569764 1.55041 1.24978E-4 1.4908E-4 6.74648E-5 -1.5562E-4 .156179 -.005006 
88.509205 2.820635 -3.097429 1.44928 1.463736 1.30937E-4 1.4908E-4 6.12441E-5 -1.5562E-4 .162432 -.004836 
88.552205 3.093768 -3.258823 1.327488 1.370561 1.37343E-4 1.4908E-4 5.45568E-5 -1.5562E-4 .169153 -.004654 
88.599955 3.413326 -3.438046 1.201626 1.267093 1.44457E-4 1.4908E-4 4.71308E-5 -1.5562E-4 .176618 -.004452 
88.798455 3.391568 3.532745 1.195486 -1.232121 1.44446E-4 -1.4919E-4 2.38677E-5 -8.687E-5 .171833 -.004475 
88.889205 2.7835 3.172291 1.436288 -1.423143 1.30916E-4 -1.4919E-4 1.59896E-5 -8.687E-5 .153422 -.004881 
88.949205 2.416591 2.946541 1.615018 -1.557782 1.2196E-4 -1.4952E-4 1.07832E-5 -8.6801E-5 .141225 -.005148 
89.049205 1.867694 2.546162 1.947552 -1.769813 1.07018E-4 -1.4952E-4 2.10899E-6 -8.6801E-5 .120861 -.005589 
89.109205 1.577444 2.295417 2.166563 -1.882553 9.80641E-5 -1.4917E-4 -3.0956E-6 -8.6798E-5 .108666 -.005853 
89.157205 1.366377 2.10479 2.35199 -1.983157 9.09086E-5 -1.4917E-4 -7.259E-6 -8.6798E-5 .098927 -.006063 
89.198205 1.200573 1.941962 2.51802 -2.069089 8.47966E-5 -1.4917E-4 -1.0815E-5 -8.6798E-5 .090609 -.006243 
89.209205 1.15836 1.898276 2.563762 -2.092144 8.31568E-5 -1.4917E-4 -1.1769E-5 -8.6798E-5 .088378 -.006291 
90.209205 1.37657 -2.193198 3.600605 1.490201 2.10643E-5 1.34384E-5 -7.6518E-5 -3.0026E-5 -.00456 -.006609 
90.220205 1.425298 -2.239595 3.567951 1.480368 2.12121E-5 1.34384E-5 -7.6848E-5 -3.0026E-5 -.004561 -.006567 
90.439205 2.607728 -3.163304 2.962833 1.284608 2.41531E-5 1.34384E-5 -8.3419E-5 -3.0026E-5 -.004577 -.005723 
90.499205 3.00224 -3.416375 2.812001 1.230976 2.49588E-5 1.34384E-5 -8.522E-5 -3.0026E-5 -.004581 -.005492 
90.599205 3.7272 -3.83816 2.574906 1.141588 2.63018E-5 1.34384E-5 -8.822E-5 -3.0026E-5 -.004589 -.005106 
90.659205 4.20264 -4.091231 2.441224 1.087958 1.81686E-5 -2.8473E-4 -9.0021E-5 -3.0026E-5 -.004584 -.004875 
90.702205 4.56204 -4.272598 2.349375 1.049521 5.93348E-6 -2.8473E-4 -9.1311E-5 -3.0026E-5 -.004575 -.004709 
90.749855 4.978512 -4.473579 2.251452 1.006928 -7.6247E-6 -2.8473E-4 -9.2741E-5 -3.0026E-5 -.004564 -.004525 
90.948555 5.754352 .831925 2.314528 -1.345638 -6.1578E-5 -2.4935E-4 -1.0832E-4 -1.2956E-4 -.004075 -.004184 
91.160705 5.414823 .769583 2.939677 -1.603096 -1.1444E-4 -2.4935E-4 -1.3579E-4 -1.2956E-4 -.003099 -.00426 
91.220705 5.323593 .751953 3.136283 -1.67591 -1.2939E-4 -2.4935E-4 -1.4112E-4 -4.8473E-5 -.002823 -.004284 
91.339205 5.149625 .717131 3.550233 -1.819717 -1.5892E-4 -2.4935E-4 -1.4686E-4 -4.8473E-5 -.002277 -.004335 
91.839205 4.506396 .570203 5.671898 -2.4265 -2.8351E-4 -2.4935E-4 -1.7108E-4 -4.8473E-5 2.38351E-5 -.004554 
92.591705 3.815108 .349076 10.008019 -3.339708 -4.7102E-4 -2.4935E-4 -2.0753E-4 -4.8473E-5 .003487 -.004884 
92.651705 3.774305 .331445 10.412877 -3.412522 -4.8597E-4 -2.4935E-4 -2.1031E-4 -4.3999E-5 .003763 -.00491 
92.762355 3.704601 .29893 11.182402 -3.546803 -5.1354E-4 -2.4935E-4 -2.1517E-4 -4.3999E-5 .004272 -.004959 
92.961055 4.135264 -2.569853 11.00079 4.417604 -6.0092E-4 -6.4149E-4 -2.0868E-4 1.08583E-4 .005552 -.004714 
93.011705 4.400124 -2.662928 10.558369 4.323212 -6.3339E-4 -6.4149E-4 -2.0318E-4 1.08583E-4 .00598 -.004568 
93.051705 4.615952 -2.736432 10.215727 4.248667 -6.5903E-4 -6.4149E-4 -1.9884E-4 1.08583E-4 .006317 -.004452 
94.299205 14.29655 -5.028843 2.520806 1.923803 -.001459 -6.4149E-4 -6.3478E-5 1.08583E-4 .016851 -8.5526E-4 
94.359205 14.906212 -5.1391 2.296811 1.811986 -.001501 -7.5604E-4 -5.6968E-5 1.08583E-4 .017361 -6.8226E-4 
94.509755 16.494166 -5.415751 1.793804 1.531418 -.001614 -7.5604E-4 -4.0632E-5 1.08583E-4 .01865 -2.4817E-4 
94.588655 16.816505 1.373492 1.617288 .73246 -.001648 -8.875E-5 -3.2685E-5 9.3651E-5 .018996 -2.2957E-5 
94.679205 16.56934 1.35796 1.492509 .646492 -.001656 -8.875E-5 -2.421E-5 9.3651E-5 .019014 2.34483E-4 
94.699205 16.515127 1.35453 1.467046 .627504 -.001658 -8.875E-5 -2.2338E-5 9.3651E-5 .019018 2.91344E-4 
94.779205 16.299647 1.340807 1.372786 .551552 -.001665 -8.875E-5 -1.4852E-5 9.3651E-5 .019034 5.18789E-4 
96.139205 12.972176 1.107528 1.6284 -.739632 -.001785 -8.875E-5 1.12427E-4 9.3651E-5 .019299 .004385 
97.689755 9.952067 .841564 6.201512 -2.211724 -.001923 -8.875E-5 2.57539E-4 9.3651E-5 .019601 .008794 
97.768655 9.647741 2.994416 6.670058 -3.767328 -.001913 3.40018E-4 2.67213E-4 1.5217E-4 .019428 .009094 
97.859205 9.11428 2.900938 7.370508 -3.973439 -.001882 3.40018E-4 2.80983E-4 1.5217E-4 .019012 .009526 
97.879205 8.998734 2.880291 7.530247 -4.018963 -.001875 3.40018E-4 2.84024E-4 1.5217E-4 .01892 .009622 
97.959205 8.544803 2.797704 8.187402 -4.20106 -.001848 3.40018E-4 2.96189E-4 1.5217E-4 .018552 .010004 
98.024205 8.185708 2.730602 8.742779 -4.349013 -.001826 3.40018E-4 3.06074E-4 1.5217E-4 .018254 .010315 
98.084205 7.861972 2.668661 9.272498 -4.485533 -.001788 9.24572E-4 3.15198E-4 1.52168E-4 .017961 .010602 
98.224205 7.135475 2.524133 10.572176 -4.804195 -.001659 9.24572E-4 3.36487E-4 1.52168E-4 .017236 .01127 
98.284205 6.836497 2.462201 11.156476 -4.940764 -.001603 9.24574E-4 3.37818E-4 -1.0777E-4 .016925 .011565 
99.317355 2.853484 1.395631 23.786551 -7.292374 -6.488E-4 9.24574E-4 2.26551E-4 -1.0777E-4 .011576 .01677 
99.516055 2.784781 -1.030339 22.680933 12.54305 -5.1534E-4 4.3907E-4 1.86987E-4 -2.8498E-4 .011555 .016373 
99.546705 2.848592 -1.053015 21.919115 12.329238 -5.0189E-4 4.3907E-4 1.78258E-4 -2.8498E-4 .011707 .016098 
99.566705 2.89098 -1.067811 21.42907 12.189719 -4.9312E-4 4.3907E-4 1.72562E-4 -2.8498E-4 .011805 .015919 
99.646705 3.066445 -1.126995 19.524656 11.631646 -4.5801E-4 4.3907E-4 1.4978E-4 -2.8498E-4 .012201 .015201 
99.706705 3.204254 -1.171381 18.154904 11.21309 -4.3169E-4 4.3907E-4 1.38727E-4 -8.3705E-5 .012497 .014656 
100.252955 4.703717 -1.5755 7.993057 7.402492 -1.9201E-4 4.3907E-4 9.30344E-5 -8.3705E-5 .015197 .009643 
100.752955 6.462971 -1.945402 2.338394 3.914531 2.73775E-5 4.3907E-4 5.12105E-5 -8.3705E-5 .017667 .005055 
101.329855 8.952099 -2.372195 .144982 -.109879 2.80505E-4 4.3907E-4 2.95417E-6 -8.3705E-5 .020518 -2.3855E-4 
101.528555 8.155461 6.115815 .51842 -1.893493 3.37775E-4 1.28004E-4 -1.3913E-5 -8.9046E-5 .019514 -.002145 
101.579205 7.548414 5.877472 .73276 -2.341177 3.44254E-4 1.28004E-4 -1.842E-5 -8.9046E-5 .018761 -.002668 
101.619205 7.08606 5.689244 .934059 -2.694728 3.49371E-4 1.28004E-4 -2.1979E-5 -8.9046E-5 .018166 -.003081 
101.679205 6.420744 5.406903 1.289004 -3.225052 3.45375E-4 -2.6129E-4 -2.7318E-5 -8.9046E-5 .017286 -.003701 
102.099205 2.711554 3.430512 5.554303 -6.937333 2.35709E-4 -2.6129E-4 -6.4692E-5 -8.9046E-5 .011203 -.008041 
102.159205 2.317101 3.148171 6.418015 -7.467659 2.20043E-4 -2.6129E-4 -6.8805E-5 -4.8141E-5 .010335 -.008662 
102.199205 2.072943 2.959943 7.029153 -7.821209 2.09598E-4 -2.6129E-4 -7.073E-5 -4.8141E-5 .009755 -.009077 
102.249855 1.785368 2.7216 7.843563 -8.268893 1.96373E-4 -2.6129E-4 -7.3166E-5 -4.8141E-5 .009022 -.009602 
102.448555 1.215519 .394545 9.043061 2.763922 1.68306E-4 -2.7701E-5 -7.3027E-5 4.95111E-5 .007193 -.010366 
102.588205 1.123914 .261862 8.290229 2.630598 1.6444E-4 -2.7701E-5 -6.6118E-5 4.95111E-5 .006588 -.009967 
104.610205 3.947544 -1.659266 1.559936 .7002 1.08467E-4 -2.7701E-5 3.39258E-5 4.95111E-5 -.002168 -.004191 
104.709205 4.285161 -1.753327 1.430741 .605685 1.05726E-4 -2.7701E-5 3.88241E-5 4.95111E-5 -.002597 -.003908 
104.769205 4.498835 -1.810334 1.361543 .548404 1.10728E-4 1.94554E-4 4.17927E-5 4.9511E-5 -.002863 -.003737 
104.849205 4.794368 -1.886343 1.279964 .472028 1.26282E-4 1.94554E-4 4.57509E-5 4.9511E-5 -.003228 -.003508 
104.949205 5.180875 -1.981354 1.195163 .376559 1.45724E-4 1.94554E-4 5.06986E-5 4.9511E-5 -.003683 -.003223 
105.149205 5.494391 .46202 1.189202 -.345809 1.77291E-4 1.18797E-4 6.31228E-5 7.58074E-5 -.004402 -.002796 
105.279205 5.378075 .433329 1.29494 -.468115 1.92724E-4 1.18797E-4 7.2971E-5 7.58074E-5 -.004738 -.002609 
105.339205 5.326905 .420091 1.35446 -.524564 1.99847E-4 1.18797E-4 7.05572E-5 -1.5632E-4 -.004893 -.002516 
107.589205 4.554341 -.076496 8.473045 -2.641404 4.66959E-4 1.18797E-4 -2.8093E-4 -1.5632E-4 -.010701 .001248 
107.789205 5.075242 -2.618241 8.66247 1.726215 5.15047E-4 3.66612E-4 -2.9749E-4 -7.937E-6 -.011799 .0015 
107.839205 5.340752 -2.695576 8.491113 1.703259 5.33365E-4 3.66612E-4 -2.9789E-4 -7.937E-6 -.012224 .001541 
110.039205 24.674127 -6.098301 3.2225 .693195 .001339 3.66612E-4 -3.1534E-4 -7.937E-6 -.030926 .003342 
110.099205 25.410989 -6.191103 3.141024 .66565 .001357 2.11011E-4 -3.1582E-4 -7.9368E-6 -.031432 .003391 
110.179205 26.410784 -6.314839 3.037529 .62892 .001374 2.11011E-4 -3.1645E-4 -7.9368E-6 -.032099 .003457 
110.229205 27.045703 -6.392173 2.975827 .605964 .001384 2.11011E-4 -3.1685E-4 -7.9368E-6 -.032517 .003498 
110.429205 26.865541 7.262958 3.045266 -.965048 .001357 -4.8363E-4 -3.3451E-4 -1.7037E-4 -.032469 .003858 
110.559205 25.012222 7.003041 3.306711 -1.047438 .001294 -4.8363E-4 -3.5665E-4 -1.7037E-4 -.031323 .004223 
110.619205 24.179619 6.883102 3.434598 -1.085465 .001265 -4.8363E-4 -3.5974E-4 6.70398E-5 -.030795 .004385 
110.729205 22.690542 6.66317 3.680901 -1.15518 .001212 -4.8363E-4 -3.5237E-4 6.70398E-5 -.029825 .004668 
110.768205 22.174207 6.585194 3.771907 -1.179897 .001193 -4.8363E-4 -3.4976E-4 6.70398E-5 -.029481 .004769 
112.790205 3.730653 2.542452 11.12957 -2.461384 2.15545E-4 -4.8363E-4 -2.143E-4 6.70398E-5 -.011661 .009977 
112.879205 3.294231 2.364507 11.572416 -2.51779 1.72532E-4 -4.8363E-4 -2.0834E-4 6.70398E-5 -.010876 .010206 
112.929855 3.059995 2.263239 11.828919 -2.54989 1.48053E-4 -4.8363E-4 -2.0494E-4 6.70398E-5 -.01043 .010336 
113.128555 2.837914 -1.062648 10.287257 9.727238 6.52109E-5 -3.6663E-4 -1.698E-4 2.80126E-4 -.009806 .009683 
113.219205 3.036598 -1.130614 8.601184 8.885227 3.19986E-5 -3.6663E-4 -1.4443E-4 2.80126E-4 -.010023 .008866 
113.279205 3.174876 -1.175599 7.569098 8.327911 1.00158E-5 -3.6663E-4 -1.3046E-4 1.85719E-4 -.010166 .008328 
114.48911 7.114483 -2.082745 1.018885 -2.910403 -4.3327E-4 -3.6663E-4 9.40864E-5 1.85719E-4 -.013064 -.002468 
114.52911 7.282188 -2.112736 1.26641 -3.281947 -4.4792E-4 -3.6663E-4 1.0151E-4 1.85719E-4 -.01316 -.002825 
114.57976 7.497985 -2.150711 1.622458 -3.752414 -4.6648E-4 -3.6663E-4 1.1091E-4 1.85719E-4 -.013281 -.003276 
114.77846 6.914511 4.895764 4.036716 -9.186904 -4.9258E-4 1.08136E-4 1.59875E-4 3.1564E-4 -.012523 -.005441 
114.86911 6.057146 4.568647 5.874777 -11.103356 -4.8278E-4 1.08136E-4 1.88468E-4 3.1564E-4 -.011627 -.00664 
114.92911 5.522263 4.352132 7.282332 -12.371763 -4.541E-4 8.4866E-4 2.07393E-4 3.15638E-4 -.011056 -.007434 
115.18911 3.504465 3.413902 15.139437 -17.868424 -2.336E-4 8.4866E-4 2.89403E-4 3.15638E-4 -.008677 -.010873 
115.22911 3.237308 3.269559 16.601742 -18.714064 -1.9967E-4 8.4866E-4 3.0202E-4 3.15638E-4 -.008311 -.011403 
115.27976 2.915578 3.086784 18.550387 -19.784856 -1.5672E-4 8.4866E-4 3.17996E-4 3.15638E-4 -.007848 -.012073 
115.47846 2.28281 .306069 22.823458 -.307799 1.70991E-6 7.73739E-4 3.48187E-4 -1.6653E-5 -.006738 -.013428 
115.56911 2.231289 .262669 22.879618 -.312144 7.18017E-5 7.73739E-4 3.46679E-4 -1.6653E-5 -.006541 -.013445 
115.62911 2.201513 .23395 22.917222 -.31502 1.18194E-4 7.73739E-4 3.32876E-4 -4.4376E-4 -.00641 -.013443 
116.18911 2.089707 -.034161 23.284826 -.341862 5.51194E-4 7.73739E-4 8.45385E-5 -4.4376E-4 -.005191 -.013306 
116.22911 2.093203 -.053312 23.312233 -.34378 5.82122E-4 7.73739E-4 6.68002E-5 -4.4376E-4 -.005104 -.013296 
116.27976 2.099828 -.077561 23.347157 -.346207 6.21285E-4 7.73739E-4 4.43389E-5 -4.4376E-4 -.004993 -.013283 
116.47846 2.434053 -1.677561 20.606441 13.54925 8.18446E-4 .001234 -4.4747E-5 -4.4363E-4 -.004919 -.012392 
116.54911 2.678743 -1.788197 18.737882 12.916832 9.05566E-4 .001234 -7.6068E-5 -4.4363E-4 -.005021 -.011783 
116.60911 2.898814 -1.882154 17.221101 12.379792 9.67798E-4 8.41841E-4 -1.0267E-4 -4.4363E-4 -.005096 -.011266 
117.24976 5.951064 -2.885385 5.041136 6.645023 .001507 8.41841E-4 -3.8668E-4 -4.4363E-4 -.00577 -.005744 
117.44846 5.291252 5.859975 3.928751 -.478114 .001441 -.001487 -5.3994E-4 -.00114 -.004881 -.004779 
117.53911 4.284366 5.25495 4.017941 -.506443 .001306 -.001487 -6.4324E-4 -.00114 -.003998 -.004653 
117.59911 3.678184 4.855 4.079797 -.525193 .001217 -.001487 -6.2518E-4 .001743 -.003414 -.004656 
117.72911 2.529479 3.98716 4.221533 -.565819 .001024 -.001487 -3.9876E-4 .001743 -.002147 -.00485 
117.77711 2.162341 3.666726 4.276534 -.580819 9.52601E-4 -.001487 -3.1516E-4 .001743 -.001679 -.004921 
117.81811 1.873086 3.393023 4.324654 -.593632 8.91672E-4 -.001487 -2.4375E-4 .001743 -.00128 -.004982 
117.82911 1.799298 3.31959 4.337743 -.59707 8.75325E-4 -.001487 -2.2459E-4 .001743 -.001173 -.004999 
118.82911 1.427715 -2.818118 1.649638 2.15931 -2.9967E-4 -.001081 .001318 .00104 .104442 -.002773 
118.84011 1.490429 -2.886965 1.60258 2.121576 -3.1155E-4 -.001081 .001329 .00104 .106888 -.002726 
118.92911 2.053502 -3.443995 1.252349 1.816278 -4.077E-4 -.001081 .001422 .00104 .126681 -.002343 
118.98911 2.489002 -3.819072 1.046884 1.610459 -4.7252E-4 -.001081 .001385 -.002255 .140023 -.001985 
119.08911 3.314832 -4.444816 .759289 1.267426 -5.8055E-4 -.001081 .00116 -.002255 .162259 -.001226 
119.14911 3.870361 -4.820262 .61964 1.06161 -6.266E-4 -4.55E-4 .001025 -.002255 .175582 -7.7004E-4 
119.23986 4.796144 -5.388124 .45532 .750305 -6.6786E-4 -4.55E-4 8.20047E-4 -.002255 .195705 -8.0916E-5 
119.43836 4.82058 5.283093 .444388 -.68752 -6.1451E-4 9.73127E-4 5.21881E-4 -8.6042E-4 .196294 .001362 
119.48611 4.330043 4.99691 .517547 -.845654 -5.6807E-4 9.73127E-4 4.80824E-4 -8.6042E-4 .18598 .001724 
119.52911 3.911675 4.739196 .596343 -.988057 -5.2625E-4 9.73127E-4 4.43852E-4 -8.6042E-4 .176692 .00205 
119.58911 3.369721 4.312428 .725985 -1.172005 -4.6795E-4 9.71637E-4 3.91996E-4 -8.6897E-4 .16384 .002594 
119.67961 2.637268 3.786471 .964715 -1.467693 -3.8008E-4 9.71637E-4 3.13407E-4 -8.6897E-4 .14461 .003542 
119.75861 2.152315 2.42823 1.179622 -1.222532 -3.0937E-4 8.25572E-4 2.39912E-4 -9.8672E-4 .130177 .00431 
119.84911 1.739311 2.138453 1.418047 -1.413785 -2.3471E-4 8.25572E-4 1.50674E-4 -9.8672E-4 .116225 .005117 
119.90911 1.493104 1.966383 1.596521 -1.56247 -1.8518E-4 8.26529E-4 9.15662E-5 -9.8505E-4 .106926 .005626 
119.95711 1.311959 1.810036 1.751376 -1.665865 -1.4553E-4 8.26529E-4 4.43159E-5 -9.8505E-4 .099451 .006015 
119.99811 1.169108 1.676491 1.891503 -1.75418 -1.1167E-4 8.26529E-4 3.95624E-6 -9.8505E-4 .093066 .006347 
120.00911 1.132644 1.640661 1.930329 -1.777875 -1.0258E-4 8.26529E-4 -6.872E-6 -9.8505E-4 .091353 .006436 
121.00911 1.282931 -1.843339 3.252444 1.009208 8.89268E-4 .001342 -8.083E-4 -4.6106E-4 .057352 .009185 
121.02011 1.323871 -1.881022 3.230332 1.002386 9.04016E-4 .001342 -8.1337E-4 -4.6106E-4 .058234 .009158 
121.09961 1.644388 -2.153364 3.074978 .953081 .001011 .001342 -8.5E-4 -4.6106E-4 .064614 .008959 
121.17861 2.051176 -3.042633 2.857227 1.781879 .001129 .001668 -8.7605E-4 -1.974E-4 .071744 .008645 
121.26911 2.642423 -3.494904 2.546877 1.649727 .00128 .001668 -8.9391E-4 -1.974E-4 .080855 .008152 
121.32911 3.079504 -3.794645 2.354297 1.562112 .00138 .001667 -8.627E-4 .001238 .086896 .007782 
121.46911 4.239166 -4.494255 1.945804 1.357676 .001613 .001667 -6.8949E-4 .001238 .10099 .006819 
121.52911 4.796091 -4.794088 1.788248 1.270066 .001725 .00205 -6.1525E-4 .001238 .107019 .006406 
121.61986 5.70676 -5.247586 1.569905 1.137548 .001911 .00205 -5.0297E-4 .001238 .116121 .005782 
121.81836 5.830108 4.696932 1.660934 -1.646863 .001985 -.00132 -3.3003E-4 5.5535E-4 .116425 .005407 
121.86611 5.390862 4.508183 1.823192 -1.753511 .001922 -.00132 -3.0353E-4 5.5535E-4 .111779 .005548 
121.90911 5.010724 4.338211 1.978018 -1.84955 .001866 -.00132 -2.7967E-4 5.5535E-4 .107596 .005675 
121.96911 4.485307 4.439742 2.218297 -2.149292 .001784 -.001387 -2.4698E-4 5.35587E-4 .10152 .005831 
122.10911 3.333403 3.793717 2.869274 -2.503704 .00159 -.001387 -1.7204E-4 5.35587E-4 .086801 .006149 
122.16911 2.895064 3.516866 3.178622 -2.655595 .001507 -.001387 -1.5752E-4 -5.1154E-5 .080494 .006302 
122.26911 2.238281 3.055415 3.734678 -2.908746 .001369 -.001387 -1.6263E-4 -5.1154E-5 .06998 .006588 
122.32911 1.898565 2.614196 4.070994 -2.707833 .001287 -.00133 -1.6527E-4 -3.695E-5 .06385 .006763 
122.37711 1.657266 2.416269 4.335479 -2.806011 .001223 -.00133 -1.6704E-4 -3.695E-5 .059083 .006906 
122.41811 1.466193 2.247206 4.568851 -2.889872 .001169 -.00133 -1.6856E-4 -3.695E-5 .05501 .007028 
122.42911 1.417287 2.201847 4.632633 -2.912371 .001154 -.00133 -1.6896E-4 -3.695E-5 .053918 .007061 
123.42911 1.096575 -1.768823 4.670414 2.892014 3.40153E-4 -4.4922E-4 -1.104E-4 1.42659E-4 .062843 .005727 
123.44011 1.135918 -1.810212 4.607075 2.869975 3.35215E-4 -4.4922E-4 -1.0883E-4 1.42659E-4 .064161 .005668 
123.51971 1.447731 -2.109711 4.163172 2.710493 2.99481E-4 -4.4922E-4 -9.748E-5 1.42659E-4 .073698 .005235 
123.59851 1.799571 -2.354759 3.757517 2.444991 2.6378E-4 -4.5731E-4 -8.6353E-5 1.40022E-4 .083053 .004813 
123.68911 2.255775 -2.684039 3.330009 2.276855 2.22377E-4 -4.5731E-4 -7.3675E-5 1.40022E-4 .093705 .004334 
123.74911 2.590716 -2.902106 3.063648 2.165506 1.94957E-4 -4.5731E-4 -6.528E-5 1.40022E-4 .100759 .004017 
123.88911 3.47394 -3.410928 2.494068 1.905693 1.30978E-4 -4.5731E-4 -4.569E-5 1.40022E-4 .117218 .003277 
123.94911 3.896048 -3.628995 2.272215 1.79436 1.23118E-4 1.95151E-4 -3.7294E-5 1.40023E-4 .124253 .00296 
124.03981 4.583779 -3.958639 1.962196 1.626036 1.40807E-4 1.95151E-4 -2.4603E-5 1.40023E-4 .134857 .00248 
124.23841 4.630455 3.749678 1.959426 -1.610581 1.55234E-4 -5.3839E-5 5.84517E-7 1.20856E-4 .135553 .001791 
124.28611 4.280369 3.594644 2.117138 -1.698013 1.52668E-4 -5.3839E-5 6.34543E-6 1.20856E-4 .130301 .001702 
124.32911 3.977446 3.454886 2.266455 -1.77683 1.50354E-4 -5.3839E-5 1.15387E-5 1.20856E-4 .125566 .001622 
124.38911 3.573397 3.281638 2.486955 -1.9019 1.47113E-4 -5.4289E-5 1.87877E-5 1.20949E-4 .118937 .001513 
124.68911 1.901769 2.294246 3.794183 -2.458494 1.30837E-4 -5.4289E-5 5.50477E-5 1.20949E-4 .085682 9.80245E-4 
124.74911 1.639605 2.083321 4.094284 -2.536018 1.27595E-4 -5.3857E-5 6.22851E-5 1.20454E-4 .079052 8.64132E-4 
124.79711 1.447236 1.92709 4.341752 -2.623082 1.25011E-4 -5.3857E-5 6.8063E-5 1.20454E-4 .073764 7.63468E-4 
124.83811 1.29479 1.793643 4.559746 -2.697449 1.22805E-4 -5.3857E-5 7.29982E-5 1.20454E-4 .069247 6.77485E-4 
124.84911 1.25575 1.75784 4.619268 -2.717401 1.22213E-4 -5.3857E-5 7.43223E-5 1.20454E-4 .068036 6.54416E-4 
125.84911 1.14744 -1.611438 4.359706 2.867966 1.98508E-4 2.20642E-4 1.33705E-4 -1.3309E-5 .073704 -.001326 
125.86011 1.183246 -1.645895 4.29691 2.844706 2.00933E-4 2.20642E-4 1.33559E-4 -1.3309E-5 .075051 -.001342 
125.93971 1.464929 -1.895237 3.85773 2.676385 2.18484E-4 2.20642E-4 1.325E-4 -1.3309E-5 .084798 -.001463 
126.01851 1.779093 -2.09118 3.457453 2.410745 2.35606E-4 2.14125E-4 1.31601E-4 -9.5203E-6 .094348 -.001585 
126.10911 2.182513 -2.364614 3.037073 2.232371 2.54993E-4 2.14125E-4 1.3074E-4 -9.5203E-6 .10521 -.001727 
126.16911 2.476932 -2.545694 2.776453 2.114242 2.67832E-4 2.14125E-4 1.22807E-4 -2.5507E-4 .112404 -.001814 
126.30911 3.248355 -2.96822 2.223431 1.838609 2.97789E-4 2.14125E-4 8.71209E-5 -2.5507E-4 .129188 -.001999 
126.36911 3.615156 -3.149302 2.010031 1.720484 3.19717E-4 5.17327E-4 7.18268E-5 -2.5507E-4 .136372 -.002078 
126.45981 4.210862 -3.423038 1.714332 1.541913 3.66607E-4 5.17327E-4 4.87072E-5 -2.5507E-4 .147219 -.002198 
126.65841 4.174781 3.584564 1.667909 -1.282972 4.05906E-4 -1.3241E-4 3.47384E-6 -2.1343E-4 .1465 -.002848 
126.70611 3.840583 3.426436 1.793826 -1.358593 3.99595E-4 -1.3241E-4 -6.6999E-6 -2.1343E-4 .14046 -.003105 
126.74911 3.552236 3.283888 1.913515 -1.426763 3.93905E-4 -1.3241E-4 -1.5871E-5 -2.1343E-4 .135016 -.003337 
126.80911 3.167103 3.135693 2.092216 -1.555344 3.85872E-4 -1.3552E-4 -2.8678E-5 -2.1379E-4 .127355 -.003665 
127.10911 1.594379 2.110289 3.171666 -2.04527 3.45243E-4 -1.3552E-4 -9.2771E-5 -2.1379E-4 .088741 -.005334 
127.16911 1.355855 1.875212 3.419111 -2.067655 3.37223E-4 -1.3204E-4 -1.0552E-4 -2.1158E-4 .081075 -.005648 
127.21711 1.183621 1.71543 3.62102 -2.141661 3.30889E-4 -1.3204E-4 -1.1567E-4 -2.1158E-4 .074986 -.005883 
127.25811 1.048644 1.57895 3.799107 -2.204875 3.25479E-4 -1.3204E-4 -1.2434E-4 -2.1158E-4 .069784 -.006084 
127.26911 1.014333 1.542334 3.847768 -2.221835 3.24027E-4 -1.3204E-4 -1.2667E-4 -2.1158E-4 .068389 -.006137 
128.26911 1.45712 -2.140659 3.619927 2.353947 4.31608E-4 3.67219E-4 -2.3302E-4 1.96937E-5 .054144 -.007053 
128.28011 1.504645 -2.182773 3.568394 2.334084 4.35645E-4 3.67219E-4 -2.328E-4 1.96937E-5 .055196 -.007017 
128.35971 1.876148 -2.487523 3.208494 2.190347 4.64856E-4 3.67219E-4 -2.3124E-4 1.96937E-5 .062807 -.006752 
128.43851 2.286844 -2.723781 2.881491 1.965541 4.93238E-4 3.5347E-4 -2.2995E-4 1.30777E-5 .070269 -.006496 
128.52911 2.810236 -3.057096 2.539412 1.812731 5.25241E-4 3.5347E-4 -2.2876E-4 1.30777E-5 .07876 -.006211 
128.58911 3.190073 -3.277831 2.3281 1.711533 5.46435E-4 3.5347E-4 -2.1981E-4 2.85533E-4 .084384 -.006031 
128.72911 4.179301 -3.792887 1.882233 1.475403 5.95887E-4 3.5347E-4 -1.7986E-4 2.85533E-4 .097505 -.005628 
128.78911 4.647373 -4.013626 1.711373 1.374206 6.23499E-4 5.67571E-4 -1.6274E-4 2.85533E-4 .103122 -.005456 
128.87981 5.405194 -4.347309 1.476127 1.221227 6.74943E-4 5.67571E-4 -1.3686E-4 2.85533E-4 .111603 -.005195 
129.07841 5.337216 4.651637 1.487749 -1.286052 6.74924E-4 -5.6776E-4 -9.9974E-5 9.65301E-5 .111658 -.00544 
129.12611 4.903389 4.449456 1.614409 -1.371084 6.4786E-4 -5.6776E-4 -9.5373E-5 9.65301E-5 .107223 -.005699 
129.16911 4.528828 4.267196 1.735536 -1.447738 6.23463E-4 -5.6776E-4 -9.1225E-5 9.65301E-5 .103225 -.005932 
129.22911 4.025024 4.111829 1.917856 -1.601981 5.89195E-4 -5.7516E-4 -8.5504E-5 9.43267E-5 .097571 -.006273 
129.52911 1.959465 2.778051 3.045523 -2.159466 4.16765E-4 -5.7516E-4 -5.7225E-5 9.43267E-5 .068936 -.008054 
129.58911 1.645367 2.469303 3.306688 -2.185225 3.82436E-4 -5.7004E-4 -5.1526E-5 9.57451E-5 .063261 -.008396 
129.63711 1.4184 2.262391 3.520345 -2.269001 3.55093E-4 -5.7004E-4 -4.6933E-5 9.57451E-5 .05876 -.00866 
129.67811 1.240251 2.085653 3.709209 -2.34056 3.31737E-4 -5.7004E-4 -4.301E-5 9.57451E-5 .054916 -.008885 
129.68911 1.194919 2.038236 3.760877 -2.359759 3.25471E-4 -5.7004E-4 -4.1958E-5 9.57451E-5 .053885 -.008945 
130.68911 1.416854 -2.338349 3.843893 2.312206 -9.0857E-5 -3.4006E-4 5.83337E-5 8.52064E-5 .070123 -.008697 
130.70011 1.468814 -2.38853 3.793258 2.294057 -9.4595E-5 -3.4006E-4 5.92703E-5 8.52064E-5 .071551 -.008633 
130.77971 1.877694 -2.751653 3.43874 2.162726 -1.2165E-4 -3.4006E-4 6.60482E-5 8.52064E-5 .081878 -.008166 
130.85851 2.334472 -3.044374 3.115646 1.943476 -1.4828E-4 -3.3619E-4 7.28348E-5 8.71988E-5 .092005 -.007714 
130.94911 2.921793 -3.442609 2.776296 1.804657 -1.7872E-4 -3.3619E-4 8.07296E-5 8.71988E-5 .103533 -.007204 
131.00911 3.350438 -3.706339 2.565397 1.712724 -1.9887E-4 -3.3619E-4 8.15571E-5 -5.9596E-5 .111168 -.006861 
131.14911 4.473601 -4.321713 2.116171 1.498214 -2.4591E-4 -3.3619E-4 7.32194E-5 -5.9596E-5 .128982 -.006053 
131.20911 5.007667 -4.585444 1.94202 1.406282 -2.5946E-4 -1.159E-4 6.96461E-5 -5.9596E-5 .136609 -.005706 
131.29981 5.875036 -4.984118 1.69969 1.26731 -2.6996E-4 -1.159E-4 6.42444E-5 -5.9596E-5 .14813 -.005182 
131.49841 5.897171 4.885024 1.762933 -1.620067 -2.4906E-4 3.2064E-4 6.25025E-5 4.15541E-5 .148562 -.004849 
131.54611 5.441037 4.68405 1.922054 -1.718072 -2.3378E-4 3.2064E-4 6.44833E-5 4.15541E-5 .142704 -.004959 
131.58911 5.046268 4.502878 2.073504 -1.806421 -2.2E-4 3.2064E-4 6.62689E-5 4.15541E-5 .137424 -.005059 
131.64911 4.522839 4.209996 2.295823 -1.909684 -2.008E-4 3.19823E-4 6.87428E-5 4.09702E-5 .130092 -.005186 
131.94911 2.370643 2.968873 3.622773 -2.516491 -1.0492E-4 3.19823E-4 8.10255E-5 4.09702E-5 .093596 -.005758 
132.00911 2.029385 2.734217 3.934626 -2.662689 -8.5738E-5 3.199E-4 8.34977E-5 4.14815E-5 .086281 -.005888 
132.05711 1.776689 2.533876 4.194801 -2.761314 -7.0393E-5 3.199E-4 8.54875E-5 4.14815E-5 .080416 -.006004 
132.09811 1.576063 2.362752 4.424526 -2.845556 -5.7286E-5 3.199E-4 8.71871E-5 4.14815E-5 .075407 -.006104 
132.10911 1.524623 2.31684 4.487334 -2.868157 -5.3769E-5 3.199E-4 8.76431E-5 4.14815E-5 .074063 -.006131 
133.10911 1.003478 -1.612377 4.60737 2.797674 3.61371E-4 5.87604E-4 7.54811E-5 -6.3411E-5 .069304 -.004849 
133.12011 1.039359 -1.65181 4.546094 2.776614 3.6783E-4 5.87604E-4 7.47841E-5 -6.3411E-5 .070528 -.004797 
133.19971 1.324848 -1.937164 4.116481 2.624217 4.14571E-4 5.87604E-4 6.974E-5 -6.3411E-5 .079386 -.004419 
133.27851 1.648727 -2.172528 3.723775 2.366691 4.60359E-4 5.75049E-4 6.48238E-5 -6.148E-5 .088063 -.00405 
133.36911 2.07056 -2.48663 3.309753 2.206192 5.12423E-4 5.75049E-4 5.92575E-5 -6.148E-5 .097928 -.003632 
133.42911 2.381225 -2.694645 3.051564 2.0999 5.46903E-4 5.75049E-4 5.4033E-5 -1.1279E-4 .104462 -.003353 
133.56911 3.203118 -3.180012 2.498689 1.851888 6.27355E-4 5.75049E-4 3.82535E-5 -1.1279E-4 .119706 -.002699 
133.62911 3.596933 -3.388027 2.282987 1.745597 6.63705E-4 6.3744E-4 3.14908E-5 -1.1279E-4 .126238 -.002419 
133.71981 4.239605 -3.702476 1.981115 1.58492 7.21481E-4 6.3744E-4 2.1268E-5 -1.1279E-4 .136109 -.001995 
133.91841 4.299502 3.434324 2.00157 -1.699012 7.2724E-4 -5.8103E-4 1.22211E-6 -9.4838E-5 .135178 -.001352 
133.96611 3.978852 3.292474 2.167957 -1.791573 6.99544E-4 -5.8103E-4 -3.2986E-6 -9.4838E-5 .129553 -.001257 
134.00911 3.701387 3.1646 2.325513 -1.875014 6.74576E-4 -5.8103E-4 -7.3739E-6 -9.4838E-5 .124481 -.001172 
134.06911 3.326991 3.076049 2.561419 -2.060611 6.39468E-4 -5.8991E-4 -1.3068E-5 -9.5114E-5 .117306 -.001055 
134.36911 1.765246 2.133308 3.981025 -2.674632 4.62616E-4 -5.8991E-4 -4.1583E-5 -9.5114E-5 .080948 -4.8386E-4 
134.42911 1.523423 1.90047 4.301374 -2.672028 4.27441E-4 -5.8351E-4 -4.7247E-5 -9.3825E-5 .073745 -3.6255E-4 
134.47711 1.348068 1.755261 4.562068 -2.7628 3.99452E-4 -5.8351E-4 -5.1748E-5 -9.3825E-5 .068035 -2.5985E-4 
134.51811 1.209316 1.631228 4.791641 -2.840334 3.75544E-4 -5.8351E-4 -5.5592E-5 -9.3825E-5 .063158 -1.7212E-4 
134.52911 1.173819 1.597951 4.854314 -2.861135 3.6913E-4 -5.8351E-4 -5.6623E-5 -9.3825E-5 .06185 -1.4859E-4 
135.52911 1.223183 -1.664831 4.576486 3.023247 -3.6304E-5 -3.0277E-4 -1.0355E-4 9.1719E-6 .052791 .001618 
135.54011 1.260157 -1.698726 4.510287 2.998891 -3.9632E-5 -3.0277E-4 -1.0345E-4 9.1719E-6 .053887 .00163 
135.61971 1.549921 -1.944005 4.047208 2.822643 -6.3716E-5 -3.0277E-4 -1.0272E-4 9.1719E-6 .061819 .001716 
135.69851 1.871246 -2.133275 3.62491 2.544359 -8.7478E-5 -3.006E-4 -1.0211E-4 6.23344E-6 .0696 .001804 
135.78911 2.281849 -2.401848 3.181087 2.357689 -1.1469E-4 -3.006E-4 -1.0155E-4 6.23344E-6 .078458 .001907 
135.84911 2.580539 -2.579711 2.905769 2.234066 -1.3272E-4 -3.006E-4 -1.0075E-4 2.04338E-5 .084324 .001975 
135.98911 3.360429 -2.994724 2.321011 1.945614 -1.7477E-4 -3.006E-4 -9.789E-5 2.04338E-5 .098011 .002132 
136.04911 3.730216 -3.172587 2.095109 1.821991 -1.9135E-4 -2.5239E-4 -9.6665E-5 2.04338E-5 .103876 .002199 
136.13981 4.329702 -3.441456 1.781763 1.635115 -2.1423E-4 -2.5239E-4 -9.4813E-5 2.04338E-5 .112739 .002301 
136.33841 4.262936 3.740352 1.718236 -1.280779 -2.2781E-4 1.19389E-4 -1.0637E-4 -1.4012E-4 .113262 .002936 
136.38611 3.914339 3.572733 1.843831 -1.354029 -2.2212E-4 1.19389E-4 -1.1305E-4 -1.4012E-4 .108844 .003196 
136.42911 3.613786 3.421631 1.963036 -1.420062 -2.1699E-4 1.19389E-4 -1.1907E-4 -1.4012E-4 .104862 .003431 
136.48911 3.217181 3.182276 2.1373 -1.493092 -2.0985E-4 1.18765E-4 -1.2744E-4 -1.3903E-4 .099332 .003742 
136.78911 1.619963 2.145407 3.168345 -1.946065 -1.7424E-4 1.18765E-4 -1.6912E-4 -1.3903E-4 .071811 .005214 
136.84911 1.374898 1.953699 3.411153 -2.07575 -1.6712E-4 1.18736E-4 -1.7751E-4 -1.4096E-4 .066285 .005534 
136.89711 1.195532 1.785646 3.61387 -2.150401 -1.6142E-4 1.18736E-4 -1.8427E-4 -1.4096E-4 .061848 .005809 
136.93811 1.05509 1.6421 3.792696 -2.214166 -1.5656E-4 1.18736E-4 -1.9005E-4 -1.4096E-4 .058058 .006045 
136.94911 1.019412 1.603588 3.841562 -2.231273 -1.5525E-4 1.18736E-4 -1.916E-4 -1.4096E-4 .057041 .006108 
137.94911 1.479925 -2.225899 3.634598 2.351268 -4.3975E-5 1.24533E-4 -2.0611E-4 1.14776E-4 .077323 .007481 
137.96011 1.529348 -2.270129 3.583122 2.331523 -4.2606E-5 1.24533E-4 -2.0485E-4 1.14776E-4 .078826 .007445 
138.03971 1.915966 -2.590189 3.223562 2.188643 -3.27E-5 1.24533E-4 -1.9572E-4 1.14776E-4 .089701 .007185 
138.11851 2.343911 -2.839976 2.896795 1.964244 -2.286E-5 1.2533E-4 -1.869E-4 1.09287E-4 .100361 .006936 
138.20911 2.889868 -3.190148 2.554864 1.812401 -1.1513E-5 1.2533E-4 -1.77E-4 1.09287E-4 .112492 .00666 
138.26911 3.28633 -3.422049 2.343553 1.711843 -3.9983E-6 1.2533E-4 -1.6599E-4 2.58101E-4 .120525 .006472 
138.40911 4.319556 -3.963154 1.89739 1.477206 1.35361E-5 1.2533E-4 -1.2988E-4 2.58101E-4 .13927 .006024 
138.46911 4.808715 -4.195056 1.726275 1.376649 1.66192E-5 -2.249E-5 -1.144E-4 2.58101E-4 .147308 .005832 
138.55981 5.600955 -4.545614 1.490498 1.224638 1.45808E-5 -2.249E-5 -9.1009E-5 2.58101E-4 .159465 .005541 
