!MultiKnobScan initialize parameter file.
!row:Y24, Y46, Y22, Y26, Y66, Y44, Spare1, Spare2
!col:SF6FF, SF5FF, SD4FF, SF1FF, SD0FF, SK1FF, SK2FF, SK3FF, SK4FF
!
-4.343000 1.901000 -19.121000 0.428000 3.286000 0.000000 0.000000 0.000000 0.000000
1.641000 1.856000 43.136002 1.889000 7.961000 0.000000 0.000000 0.000000 0.000000
0.000000 0.000000 0.000000 0.000000 0.000000 0.039714 0.283143 -0.262429 2.159143
0.000000 0.000000 0.000000 0.000000 0.000000 1.092143 -0.385857 -11.855429 -16.243999
0.000000 0.000000 0.000000 0.000000 0.000000 0.177714 -0.160714 4.754428 2.794429
0.000000 0.000000 0.000000 0.000000 0.000000 -0.011714 4.323571 -1.055714 -0.329000
11.559000 -9.015000 -0.795000 0.309000 -0.448000 0.000000 0.000000 0.000000 0.000000
1.925000 1.809000 1.613000 0.391000 0.045000 0.000000 0.000000 0.000000 0.000000
