%!PS-Adobe-2.0 EPSF-2.0
%%Title: optic_10bx1by.eps
%%Creator: gnuplot 4.6 patchlevel 4
%%CreationDate: Tue Jun 13 16:15:14 2017
%%DocumentFonts: (atend)
%%BoundingBox: 50 50 410 302
%%EndComments
%%BeginProlog
/gnudict 256 dict def
gnudict begin
%
% The following true/false flags may be edited by hand if desired.
% The unit line width and grayscale image gamma correction may also be changed.
%
/Color true def
/Blacktext false def
/Solid false def
/Dashlength 1 def
/Landscape false def
/Level1 false def
/Rounded false def
/ClipToBoundingBox false def
/SuppressPDFMark false def
/TransparentPatterns false def
/gnulinewidth 5.000 def
/userlinewidth gnulinewidth def
/Gamma 1.0 def
/BackgroundColor {-1.000 -1.000 -1.000} def
%
/vshift -80 def
/dl1 {
  10.0 Dashlength mul mul
  Rounded { currentlinewidth 0.75 mul sub dup 0 le { pop 0.01 } if } if
} def
/dl2 {
  10.0 Dashlength mul mul
  Rounded { currentlinewidth 0.75 mul add } if
} def
/hpt_ 31.5 def
/vpt_ 31.5 def
/hpt hpt_ def
/vpt vpt_ def
/doclip {
  ClipToBoundingBox {
    newpath 50 50 moveto 410 50 lineto 410 302 lineto 50 302 lineto closepath
    clip
  } if
} def
%
% Gnuplot Prolog Version 4.6 (September 2012)
%
%/SuppressPDFMark true def
%
/M {moveto} bind def
/L {lineto} bind def
/R {rmoveto} bind def
/V {rlineto} bind def
/N {newpath moveto} bind def
/Z {closepath} bind def
/C {setrgbcolor} bind def
/f {rlineto fill} bind def
/g {setgray} bind def
/Gshow {show} def   % May be redefined later in the file to support UTF-8
/vpt2 vpt 2 mul def
/hpt2 hpt 2 mul def
/Lshow {currentpoint stroke M 0 vshift R 
	Blacktext {gsave 0 setgray show grestore} {show} ifelse} def
/Rshow {currentpoint stroke M dup stringwidth pop neg vshift R
	Blacktext {gsave 0 setgray show grestore} {show} ifelse} def
/Cshow {currentpoint stroke M dup stringwidth pop -2 div vshift R 
	Blacktext {gsave 0 setgray show grestore} {show} ifelse} def
/UP {dup vpt_ mul /vpt exch def hpt_ mul /hpt exch def
  /hpt2 hpt 2 mul def /vpt2 vpt 2 mul def} def
/DL {Color {setrgbcolor Solid {pop []} if 0 setdash}
 {pop pop pop 0 setgray Solid {pop []} if 0 setdash} ifelse} def
/BL {stroke userlinewidth 2 mul setlinewidth
	Rounded {1 setlinejoin 1 setlinecap} if} def
/AL {stroke userlinewidth 2 div setlinewidth
	Rounded {1 setlinejoin 1 setlinecap} if} def
/UL {dup gnulinewidth mul /userlinewidth exch def
	dup 1 lt {pop 1} if 10 mul /udl exch def} def
/PL {stroke userlinewidth setlinewidth
	Rounded {1 setlinejoin 1 setlinecap} if} def
3.8 setmiterlimit
% Default Line colors
/LCw {1 1 1} def
/LCb {0 0 0} def
/LCa {0 0 0} def
/LC0 {1 0 0} def
/LC1 {0 1 0} def
/LC2 {0 0 1} def
/LC3 {1 0 1} def
/LC4 {0 1 1} def
/LC5 {1 1 0} def
/LC6 {0 0 0} def
/LC7 {1 0.3 0} def
/LC8 {0.5 0.5 0.5} def
% Default Line Types
/LTw {PL [] 1 setgray} def
/LTb {BL [] LCb DL} def
/LTa {AL [1 udl mul 2 udl mul] 0 setdash LCa setrgbcolor} def
/LT0 {PL [] LC0 DL} def
/LT1 {PL [4 dl1 2 dl2] LC1 DL} def
/LT2 {PL [2 dl1 3 dl2] LC2 DL} def
/LT3 {PL [1 dl1 1.5 dl2] LC3 DL} def
/LT4 {PL [6 dl1 2 dl2 1 dl1 2 dl2] LC4 DL} def
/LT5 {PL [3 dl1 3 dl2 1 dl1 3 dl2] LC5 DL} def
/LT6 {PL [2 dl1 2 dl2 2 dl1 6 dl2] LC6 DL} def
/LT7 {PL [1 dl1 2 dl2 6 dl1 2 dl2 1 dl1 2 dl2] LC7 DL} def
/LT8 {PL [2 dl1 2 dl2 2 dl1 2 dl2 2 dl1 2 dl2 2 dl1 4 dl2] LC8 DL} def
/Pnt {stroke [] 0 setdash gsave 1 setlinecap M 0 0 V stroke grestore} def
/Dia {stroke [] 0 setdash 2 copy vpt add M
  hpt neg vpt neg V hpt vpt neg V
  hpt vpt V hpt neg vpt V closepath stroke
  Pnt} def
/Pls {stroke [] 0 setdash vpt sub M 0 vpt2 V
  currentpoint stroke M
  hpt neg vpt neg R hpt2 0 V stroke
 } def
/Box {stroke [] 0 setdash 2 copy exch hpt sub exch vpt add M
  0 vpt2 neg V hpt2 0 V 0 vpt2 V
  hpt2 neg 0 V closepath stroke
  Pnt} def
/Crs {stroke [] 0 setdash exch hpt sub exch vpt add M
  hpt2 vpt2 neg V currentpoint stroke M
  hpt2 neg 0 R hpt2 vpt2 V stroke} def
/TriU {stroke [] 0 setdash 2 copy vpt 1.12 mul add M
  hpt neg vpt -1.62 mul V
  hpt 2 mul 0 V
  hpt neg vpt 1.62 mul V closepath stroke
  Pnt} def
/Star {2 copy Pls Crs} def
/BoxF {stroke [] 0 setdash exch hpt sub exch vpt add M
  0 vpt2 neg V hpt2 0 V 0 vpt2 V
  hpt2 neg 0 V closepath fill} def
/TriUF {stroke [] 0 setdash vpt 1.12 mul add M
  hpt neg vpt -1.62 mul V
  hpt 2 mul 0 V
  hpt neg vpt 1.62 mul V closepath fill} def
/TriD {stroke [] 0 setdash 2 copy vpt 1.12 mul sub M
  hpt neg vpt 1.62 mul V
  hpt 2 mul 0 V
  hpt neg vpt -1.62 mul V closepath stroke
  Pnt} def
/TriDF {stroke [] 0 setdash vpt 1.12 mul sub M
  hpt neg vpt 1.62 mul V
  hpt 2 mul 0 V
  hpt neg vpt -1.62 mul V closepath fill} def
/DiaF {stroke [] 0 setdash vpt add M
  hpt neg vpt neg V hpt vpt neg V
  hpt vpt V hpt neg vpt V closepath fill} def
/Pent {stroke [] 0 setdash 2 copy gsave
  translate 0 hpt M 4 {72 rotate 0 hpt L} repeat
  closepath stroke grestore Pnt} def
/PentF {stroke [] 0 setdash gsave
  translate 0 hpt M 4 {72 rotate 0 hpt L} repeat
  closepath fill grestore} def
/Circle {stroke [] 0 setdash 2 copy
  hpt 0 360 arc stroke Pnt} def
/CircleF {stroke [] 0 setdash hpt 0 360 arc fill} def
/C0 {BL [] 0 setdash 2 copy moveto vpt 90 450 arc} bind def
/C1 {BL [] 0 setdash 2 copy moveto
	2 copy vpt 0 90 arc closepath fill
	vpt 0 360 arc closepath} bind def
/C2 {BL [] 0 setdash 2 copy moveto
	2 copy vpt 90 180 arc closepath fill
	vpt 0 360 arc closepath} bind def
/C3 {BL [] 0 setdash 2 copy moveto
	2 copy vpt 0 180 arc closepath fill
	vpt 0 360 arc closepath} bind def
/C4 {BL [] 0 setdash 2 copy moveto
	2 copy vpt 180 270 arc closepath fill
	vpt 0 360 arc closepath} bind def
/C5 {BL [] 0 setdash 2 copy moveto
	2 copy vpt 0 90 arc
	2 copy moveto
	2 copy vpt 180 270 arc closepath fill
	vpt 0 360 arc} bind def
/C6 {BL [] 0 setdash 2 copy moveto
	2 copy vpt 90 270 arc closepath fill
	vpt 0 360 arc closepath} bind def
/C7 {BL [] 0 setdash 2 copy moveto
	2 copy vpt 0 270 arc closepath fill
	vpt 0 360 arc closepath} bind def
/C8 {BL [] 0 setdash 2 copy moveto
	2 copy vpt 270 360 arc closepath fill
	vpt 0 360 arc closepath} bind def
/C9 {BL [] 0 setdash 2 copy moveto
	2 copy vpt 270 450 arc closepath fill
	vpt 0 360 arc closepath} bind def
/C10 {BL [] 0 setdash 2 copy 2 copy moveto vpt 270 360 arc closepath fill
	2 copy moveto
	2 copy vpt 90 180 arc closepath fill
	vpt 0 360 arc closepath} bind def
/C11 {BL [] 0 setdash 2 copy moveto
	2 copy vpt 0 180 arc closepath fill
	2 copy moveto
	2 copy vpt 270 360 arc closepath fill
	vpt 0 360 arc closepath} bind def
/C12 {BL [] 0 setdash 2 copy moveto
	2 copy vpt 180 360 arc closepath fill
	vpt 0 360 arc closepath} bind def
/C13 {BL [] 0 setdash 2 copy moveto
	2 copy vpt 0 90 arc closepath fill
	2 copy moveto
	2 copy vpt 180 360 arc closepath fill
	vpt 0 360 arc closepath} bind def
/C14 {BL [] 0 setdash 2 copy moveto
	2 copy vpt 90 360 arc closepath fill
	vpt 0 360 arc} bind def
/C15 {BL [] 0 setdash 2 copy vpt 0 360 arc closepath fill
	vpt 0 360 arc closepath} bind def
/Rec {newpath 4 2 roll moveto 1 index 0 rlineto 0 exch rlineto
	neg 0 rlineto closepath} bind def
/Square {dup Rec} bind def
/Bsquare {vpt sub exch vpt sub exch vpt2 Square} bind def
/S0 {BL [] 0 setdash 2 copy moveto 0 vpt rlineto BL Bsquare} bind def
/S1 {BL [] 0 setdash 2 copy vpt Square fill Bsquare} bind def
/S2 {BL [] 0 setdash 2 copy exch vpt sub exch vpt Square fill Bsquare} bind def
/S3 {BL [] 0 setdash 2 copy exch vpt sub exch vpt2 vpt Rec fill Bsquare} bind def
/S4 {BL [] 0 setdash 2 copy exch vpt sub exch vpt sub vpt Square fill Bsquare} bind def
/S5 {BL [] 0 setdash 2 copy 2 copy vpt Square fill
	exch vpt sub exch vpt sub vpt Square fill Bsquare} bind def
/S6 {BL [] 0 setdash 2 copy exch vpt sub exch vpt sub vpt vpt2 Rec fill Bsquare} bind def
/S7 {BL [] 0 setdash 2 copy exch vpt sub exch vpt sub vpt vpt2 Rec fill
	2 copy vpt Square fill Bsquare} bind def
/S8 {BL [] 0 setdash 2 copy vpt sub vpt Square fill Bsquare} bind def
/S9 {BL [] 0 setdash 2 copy vpt sub vpt vpt2 Rec fill Bsquare} bind def
/S10 {BL [] 0 setdash 2 copy vpt sub vpt Square fill 2 copy exch vpt sub exch vpt Square fill
	Bsquare} bind def
/S11 {BL [] 0 setdash 2 copy vpt sub vpt Square fill 2 copy exch vpt sub exch vpt2 vpt Rec fill
	Bsquare} bind def
/S12 {BL [] 0 setdash 2 copy exch vpt sub exch vpt sub vpt2 vpt Rec fill Bsquare} bind def
/S13 {BL [] 0 setdash 2 copy exch vpt sub exch vpt sub vpt2 vpt Rec fill
	2 copy vpt Square fill Bsquare} bind def
/S14 {BL [] 0 setdash 2 copy exch vpt sub exch vpt sub vpt2 vpt Rec fill
	2 copy exch vpt sub exch vpt Square fill Bsquare} bind def
/S15 {BL [] 0 setdash 2 copy Bsquare fill Bsquare} bind def
/D0 {gsave translate 45 rotate 0 0 S0 stroke grestore} bind def
/D1 {gsave translate 45 rotate 0 0 S1 stroke grestore} bind def
/D2 {gsave translate 45 rotate 0 0 S2 stroke grestore} bind def
/D3 {gsave translate 45 rotate 0 0 S3 stroke grestore} bind def
/D4 {gsave translate 45 rotate 0 0 S4 stroke grestore} bind def
/D5 {gsave translate 45 rotate 0 0 S5 stroke grestore} bind def
/D6 {gsave translate 45 rotate 0 0 S6 stroke grestore} bind def
/D7 {gsave translate 45 rotate 0 0 S7 stroke grestore} bind def
/D8 {gsave translate 45 rotate 0 0 S8 stroke grestore} bind def
/D9 {gsave translate 45 rotate 0 0 S9 stroke grestore} bind def
/D10 {gsave translate 45 rotate 0 0 S10 stroke grestore} bind def
/D11 {gsave translate 45 rotate 0 0 S11 stroke grestore} bind def
/D12 {gsave translate 45 rotate 0 0 S12 stroke grestore} bind def
/D13 {gsave translate 45 rotate 0 0 S13 stroke grestore} bind def
/D14 {gsave translate 45 rotate 0 0 S14 stroke grestore} bind def
/D15 {gsave translate 45 rotate 0 0 S15 stroke grestore} bind def
/DiaE {stroke [] 0 setdash vpt add M
  hpt neg vpt neg V hpt vpt neg V
  hpt vpt V hpt neg vpt V closepath stroke} def
/BoxE {stroke [] 0 setdash exch hpt sub exch vpt add M
  0 vpt2 neg V hpt2 0 V 0 vpt2 V
  hpt2 neg 0 V closepath stroke} def
/TriUE {stroke [] 0 setdash vpt 1.12 mul add M
  hpt neg vpt -1.62 mul V
  hpt 2 mul 0 V
  hpt neg vpt 1.62 mul V closepath stroke} def
/TriDE {stroke [] 0 setdash vpt 1.12 mul sub M
  hpt neg vpt 1.62 mul V
  hpt 2 mul 0 V
  hpt neg vpt -1.62 mul V closepath stroke} def
/PentE {stroke [] 0 setdash gsave
  translate 0 hpt M 4 {72 rotate 0 hpt L} repeat
  closepath stroke grestore} def
/CircE {stroke [] 0 setdash 
  hpt 0 360 arc stroke} def
/Opaque {gsave closepath 1 setgray fill grestore 0 setgray closepath} def
/DiaW {stroke [] 0 setdash vpt add M
  hpt neg vpt neg V hpt vpt neg V
  hpt vpt V hpt neg vpt V Opaque stroke} def
/BoxW {stroke [] 0 setdash exch hpt sub exch vpt add M
  0 vpt2 neg V hpt2 0 V 0 vpt2 V
  hpt2 neg 0 V Opaque stroke} def
/TriUW {stroke [] 0 setdash vpt 1.12 mul add M
  hpt neg vpt -1.62 mul V
  hpt 2 mul 0 V
  hpt neg vpt 1.62 mul V Opaque stroke} def
/TriDW {stroke [] 0 setdash vpt 1.12 mul sub M
  hpt neg vpt 1.62 mul V
  hpt 2 mul 0 V
  hpt neg vpt -1.62 mul V Opaque stroke} def
/PentW {stroke [] 0 setdash gsave
  translate 0 hpt M 4 {72 rotate 0 hpt L} repeat
  Opaque stroke grestore} def
/CircW {stroke [] 0 setdash 
  hpt 0 360 arc Opaque stroke} def
/BoxFill {gsave Rec 1 setgray fill grestore} def
/Density {
  /Fillden exch def
  currentrgbcolor
  /ColB exch def /ColG exch def /ColR exch def
  /ColR ColR Fillden mul Fillden sub 1 add def
  /ColG ColG Fillden mul Fillden sub 1 add def
  /ColB ColB Fillden mul Fillden sub 1 add def
  ColR ColG ColB setrgbcolor} def
/BoxColFill {gsave Rec PolyFill} def
/PolyFill {gsave Density fill grestore grestore} def
/h {rlineto rlineto rlineto gsave closepath fill grestore} bind def
%
% PostScript Level 1 Pattern Fill routine for rectangles
% Usage: x y w h s a XX PatternFill
%	x,y = lower left corner of box to be filled
%	w,h = width and height of box
%	  a = angle in degrees between lines and x-axis
%	 XX = 0/1 for no/yes cross-hatch
%
/PatternFill {gsave /PFa [ 9 2 roll ] def
  PFa 0 get PFa 2 get 2 div add PFa 1 get PFa 3 get 2 div add translate
  PFa 2 get -2 div PFa 3 get -2 div PFa 2 get PFa 3 get Rec
  TransparentPatterns {} {gsave 1 setgray fill grestore} ifelse
  clip
  currentlinewidth 0.5 mul setlinewidth
  /PFs PFa 2 get dup mul PFa 3 get dup mul add sqrt def
  0 0 M PFa 5 get rotate PFs -2 div dup translate
  0 1 PFs PFa 4 get div 1 add floor cvi
	{PFa 4 get mul 0 M 0 PFs V} for
  0 PFa 6 get ne {
	0 1 PFs PFa 4 get div 1 add floor cvi
	{PFa 4 get mul 0 2 1 roll M PFs 0 V} for
 } if
  stroke grestore} def
%
/languagelevel where
 {pop languagelevel} {1} ifelse
 2 lt
	{/InterpretLevel1 true def}
	{/InterpretLevel1 Level1 def}
 ifelse
%
% PostScript level 2 pattern fill definitions
%
/Level2PatternFill {
/Tile8x8 {/PaintType 2 /PatternType 1 /TilingType 1 /BBox [0 0 8 8] /XStep 8 /YStep 8}
	bind def
/KeepColor {currentrgbcolor [/Pattern /DeviceRGB] setcolorspace} bind def
<< Tile8x8
 /PaintProc {0.5 setlinewidth pop 0 0 M 8 8 L 0 8 M 8 0 L stroke} 
>> matrix makepattern
/Pat1 exch def
<< Tile8x8
 /PaintProc {0.5 setlinewidth pop 0 0 M 8 8 L 0 8 M 8 0 L stroke
	0 4 M 4 8 L 8 4 L 4 0 L 0 4 L stroke}
>> matrix makepattern
/Pat2 exch def
<< Tile8x8
 /PaintProc {0.5 setlinewidth pop 0 0 M 0 8 L
	8 8 L 8 0 L 0 0 L fill}
>> matrix makepattern
/Pat3 exch def
<< Tile8x8
 /PaintProc {0.5 setlinewidth pop -4 8 M 8 -4 L
	0 12 M 12 0 L stroke}
>> matrix makepattern
/Pat4 exch def
<< Tile8x8
 /PaintProc {0.5 setlinewidth pop -4 0 M 8 12 L
	0 -4 M 12 8 L stroke}
>> matrix makepattern
/Pat5 exch def
<< Tile8x8
 /PaintProc {0.5 setlinewidth pop -2 8 M 4 -4 L
	0 12 M 8 -4 L 4 12 M 10 0 L stroke}
>> matrix makepattern
/Pat6 exch def
<< Tile8x8
 /PaintProc {0.5 setlinewidth pop -2 0 M 4 12 L
	0 -4 M 8 12 L 4 -4 M 10 8 L stroke}
>> matrix makepattern
/Pat7 exch def
<< Tile8x8
 /PaintProc {0.5 setlinewidth pop 8 -2 M -4 4 L
	12 0 M -4 8 L 12 4 M 0 10 L stroke}
>> matrix makepattern
/Pat8 exch def
<< Tile8x8
 /PaintProc {0.5 setlinewidth pop 0 -2 M 12 4 L
	-4 0 M 12 8 L -4 4 M 8 10 L stroke}
>> matrix makepattern
/Pat9 exch def
/Pattern1 {PatternBgnd KeepColor Pat1 setpattern} bind def
/Pattern2 {PatternBgnd KeepColor Pat2 setpattern} bind def
/Pattern3 {PatternBgnd KeepColor Pat3 setpattern} bind def
/Pattern4 {PatternBgnd KeepColor Landscape {Pat5} {Pat4} ifelse setpattern} bind def
/Pattern5 {PatternBgnd KeepColor Landscape {Pat4} {Pat5} ifelse setpattern} bind def
/Pattern6 {PatternBgnd KeepColor Landscape {Pat9} {Pat6} ifelse setpattern} bind def
/Pattern7 {PatternBgnd KeepColor Landscape {Pat8} {Pat7} ifelse setpattern} bind def
} def
%
%
%End of PostScript Level 2 code
%
/PatternBgnd {
  TransparentPatterns {} {gsave 1 setgray fill grestore} ifelse
} def
%
% Substitute for Level 2 pattern fill codes with
% grayscale if Level 2 support is not selected.
%
/Level1PatternFill {
/Pattern1 {0.250 Density} bind def
/Pattern2 {0.500 Density} bind def
/Pattern3 {0.750 Density} bind def
/Pattern4 {0.125 Density} bind def
/Pattern5 {0.375 Density} bind def
/Pattern6 {0.625 Density} bind def
/Pattern7 {0.875 Density} bind def
} def
%
% Now test for support of Level 2 code
%
Level1 {Level1PatternFill} {Level2PatternFill} ifelse
%
/Symbol-Oblique /Symbol findfont [1 0 .167 1 0 0] makefont
dup length dict begin {1 index /FID eq {pop pop} {def} ifelse} forall
currentdict end definefont pop
/MFshow {
   { dup 5 get 3 ge
     { 5 get 3 eq {gsave} {grestore} ifelse }
     {dup dup 0 get findfont exch 1 get scalefont setfont
     [ currentpoint ] exch dup 2 get 0 exch R dup 5 get 2 ne {dup dup 6
     get exch 4 get {Gshow} {stringwidth pop 0 R} ifelse }if dup 5 get 0 eq
     {dup 3 get {2 get neg 0 exch R pop} {pop aload pop M} ifelse} {dup 5
     get 1 eq {dup 2 get exch dup 3 get exch 6 get stringwidth pop -2 div
     dup 0 R} {dup 6 get stringwidth pop -2 div 0 R 6 get
     show 2 index {aload pop M neg 3 -1 roll neg R pop pop} {pop pop pop
     pop aload pop M} ifelse }ifelse }ifelse }
     ifelse }
   forall} def
/Gswidth {dup type /stringtype eq {stringwidth} {pop (n) stringwidth} ifelse} def
/MFwidth {0 exch { dup 5 get 3 ge { 5 get 3 eq { 0 } { pop } ifelse }
 {dup 3 get{dup dup 0 get findfont exch 1 get scalefont setfont
     6 get Gswidth pop add} {pop} ifelse} ifelse} forall} def
/MLshow { currentpoint stroke M
  0 exch R
  Blacktext {gsave 0 setgray MFshow grestore} {MFshow} ifelse } bind def
/MRshow { currentpoint stroke M
  exch dup MFwidth neg 3 -1 roll R
  Blacktext {gsave 0 setgray MFshow grestore} {MFshow} ifelse } bind def
/MCshow { currentpoint stroke M
  exch dup MFwidth -2 div 3 -1 roll R
  Blacktext {gsave 0 setgray MFshow grestore} {MFshow} ifelse } bind def
/XYsave    { [( ) 1 2 true false 3 ()] } bind def
/XYrestore { [( ) 1 2 true false 4 ()] } bind def
Level1 SuppressPDFMark or 
{} {
/SDict 10 dict def
systemdict /pdfmark known not {
  userdict /pdfmark systemdict /cleartomark get put
} if
SDict begin [
  /Title (optic_10bx1by.eps)
  /Subject (gnuplot plot)
  /Creator (gnuplot 4.6 patchlevel 4)
  /Author (rj-yang)
%  /Producer (gnuplot)
%  /Keywords ()
  /CreationDate (Tue Jun 13 16:15:14 2017)
  /DOCINFO pdfmark
end
} ifelse
end
%%EndProlog
%%Page: 1 1
gnudict begin
gsave
doclip
50 50 translate
0.050 0.050 scale
0 setgray
newpath
(Helvetica) findfont 240 scalefont setfont
BackgroundColor 0 lt 3 1 roll 0 lt exch 0 lt or or not {BackgroundColor C 1.000 0 0 7200.00 5040.00 BoxColFill} if
1.000 UL
LTb
LCb setrgbcolor
1176 768 M
63 0 V
5528 0 R
-63 0 V
stroke
1032 768 M
[ [(Helvetica) 240.0 0.0 true true 0 ( 0)]
] -80.0 MRshow
1.000 UL
LTb
LCb setrgbcolor
1176 1432 M
63 0 V
5528 0 R
-63 0 V
stroke
1032 1432 M
[ [(Helvetica) 240.0 0.0 true true 0 ( 20)]
] -80.0 MRshow
1.000 UL
LTb
LCb setrgbcolor
1176 2096 M
63 0 V
5528 0 R
-63 0 V
stroke
1032 2096 M
[ [(Helvetica) 240.0 0.0 true true 0 ( 40)]
] -80.0 MRshow
1.000 UL
LTb
LCb setrgbcolor
1176 2760 M
63 0 V
5528 0 R
-63 0 V
stroke
1032 2760 M
[ [(Helvetica) 240.0 0.0 true true 0 ( 60)]
] -80.0 MRshow
1.000 UL
LTb
LCb setrgbcolor
1176 3423 M
63 0 V
5528 0 R
-63 0 V
stroke
1032 3423 M
[ [(Helvetica) 240.0 0.0 true true 0 ( 80)]
] -80.0 MRshow
1.000 UL
LTb
LCb setrgbcolor
1176 4087 M
63 0 V
5528 0 R
-63 0 V
stroke
1032 4087 M
[ [(Helvetica) 240.0 0.0 true true 0 ( 100)]
] -80.0 MRshow
1.000 UL
LTb
LCb setrgbcolor
1176 4751 M
63 0 V
5528 0 R
-63 0 V
stroke
1032 4751 M
[ [(Helvetica) 240.0 0.0 true true 0 ( 120)]
] -80.0 MRshow
1.000 UL
LTb
LCb setrgbcolor
1176 768 M
0 63 V
0 3920 R
0 -63 V
stroke
1176 528 M
[ [(Helvetica) 240.0 0.0 true true 0 ( 0)]
] -80.0 MCshow
1.000 UL
LTb
LCb setrgbcolor
1797 768 M
0 63 V
0 3920 R
0 -63 V
stroke
1797 528 M
[ [(Helvetica) 240.0 0.0 true true 0 ( 10)]
] -80.0 MCshow
1.000 UL
LTb
LCb setrgbcolor
2418 768 M
0 63 V
0 3920 R
0 -63 V
stroke
2418 528 M
[ [(Helvetica) 240.0 0.0 true true 0 ( 20)]
] -80.0 MCshow
1.000 UL
LTb
LCb setrgbcolor
3040 768 M
0 63 V
0 3920 R
0 -63 V
stroke
3040 528 M
[ [(Helvetica) 240.0 0.0 true true 0 ( 30)]
] -80.0 MCshow
1.000 UL
LTb
LCb setrgbcolor
3661 768 M
0 63 V
0 3920 R
0 -63 V
stroke
3661 528 M
[ [(Helvetica) 240.0 0.0 true true 0 ( 40)]
] -80.0 MCshow
1.000 UL
LTb
LCb setrgbcolor
4282 768 M
0 63 V
0 3920 R
0 -63 V
stroke
4282 528 M
[ [(Helvetica) 240.0 0.0 true true 0 ( 50)]
] -80.0 MCshow
1.000 UL
LTb
LCb setrgbcolor
4903 768 M
0 63 V
0 3920 R
0 -63 V
stroke
4903 528 M
[ [(Helvetica) 240.0 0.0 true true 0 ( 60)]
] -80.0 MCshow
1.000 UL
LTb
LCb setrgbcolor
5525 768 M
0 63 V
0 3920 R
0 -63 V
stroke
5525 528 M
[ [(Helvetica) 240.0 0.0 true true 0 ( 70)]
] -80.0 MCshow
1.000 UL
LTb
LCb setrgbcolor
6146 768 M
0 63 V
0 3920 R
0 -63 V
stroke
6146 528 M
[ [(Helvetica) 240.0 0.0 true true 0 ( 80)]
] -80.0 MCshow
1.000 UL
LTb
LCb setrgbcolor
6767 768 M
0 63 V
0 3920 R
0 -63 V
stroke
6767 528 M
[ [(Helvetica) 240.0 0.0 true true 0 ( 90)]
] -80.0 MCshow
1.000 UL
LTb
LCb setrgbcolor
1.000 UL
LTb
LCb setrgbcolor
1176 4751 N
0 -3983 V
5591 0 V
0 3983 V
-5591 0 V
Z stroke
LCb setrgbcolor
192 2759 M
currentpoint gsave translate -270 rotate 0 0 moveto
[ [(Symbol) 240.0 0.0 true true 0 (b)]
[(Helvetica) 192.0 120.0 true true 0 (1/2)]
[(Helvetica) 240.0 0.0 true true 0 ( [m])]
] -104.0 MCshow
grestore
LTb
LCb setrgbcolor
3971 168 M
[ [(Italic) 240.0 0.0 true true 0 (s)]
[(Helvetica) 240.0 0.0 true true 0 ( [m])]
] -80.0 MCshow
LTb
1.000 UP
1.000 UL
LTb
LCb setrgbcolor
% Begin plot #1
1.500 UP
3.000 UL
LT0
0.00 0.00 0.00 C LCb setrgbcolor
1896 4508 M
[ [(Symbol) 240.0 0.0 true true 0 (b)]
[(Italic) 192.0 -72.0 true true 0 (x)]
[(Helvetica) 192.0 120.0 true true 0 (1/2)]
] -80.0 MRshow
LT0
0.00 0.00 0.00 C 2040 4508 M
639 0 V
1176 852 M
16 -3 V
15 -2 V
57 -4 V
7 1 V
6 4 V
3 2 V
15 13 V
44 38 V
10 9 V
3 3 V
9 7 V
12 11 V
2 1 V
3 0 V
9 -2 V
19 -3 V
18 -4 V
13 -3 V
25 -5 V
25 -5 V
6 -2 V
6 -1 V
31 -8 V
31 -9 V
30 -10 V
8 -2 V
2 -1 V
2 0 V
3 -1 V
5 -2 V
6 -5 V
6 -10 V
1 -2 V
13 -27 V
17 -35 V
25 1 V
25 51 V
13 27 V
8 16 V
10 21 V
6 16 V
6 24 V
1 4 V
47 212 V
7 21 V
6 7 V
1 0 V
9 0 V
7 0 V
9 0 V
8 0 V
93 -1 V
128 0 V
6 -8 V
6 -21 V
2 -7 V
8 -39 V
7 -32 V
29 -133 V
2 -7 V
6 -24 V
6 -18 V
10 -21 V
8 -18 V
14 -30 V
24 -54 V
25 31 V
14 30 V
8 18 V
8 20 V
1 2 V
6 10 V
7 4 V
2 0 V
3 0 V
21 0 V
36 1 V
42 -2 V
42 -4 V
48 -7 V
2 -1 V
2 -2 V
2 -1 V
52 -44 V
38 -30 V
20 -13 V
7 -3 V
10 -3 V
6 1 V
6 3 V
1 0 V
9 6 V
8 6 V
28 24 V
15 13 V
15 14 V
16 14 V
3 4 V
7 6 V
6 5 V
10 10 V
4 3 V
stroke 2721 897 M
6 3 V
6 -2 V
10 -6 V
7 -5 V
53 -37 V
30 -19 V
21 -13 V
8 -5 V
5 -3 V
8 -4 V
2 -1 V
3 -1 V
6 -3 V
6 -2 V
6 1 V
2 0 V
59 27 V
8 4 V
9 5 V
6 2 V
6 -1 V
2 -1 V
25 -14 V
19 -10 V
8 -3 V
5 -3 V
8 -3 V
2 -1 V
3 0 V
6 -2 V
6 -1 V
7 1 V
1 1 V
33 16 V
7 4 V
10 6 V
7 1 V
6 -2 V
3 -2 V
49 -29 V
6 -2 V
6 1 V
3 1 V
18 7 V
14 8 V
7 5 V
10 6 V
6 3 V
6 -2 V
4 -2 V
19 -9 V
8 -4 V
10 -4 V
3 -1 V
2 0 V
6 -2 V
6 -1 V
7 1 V
1 1 V
59 31 V
8 5 V
9 5 V
6 2 V
7 -2 V
1 0 V
13 -8 V
52 -29 V
3 -1 V
2 -1 V
41 -8 V
8 2 V
15 5 V
7 3 V
6 5 V
1 1 V
17 16 V
25 24 V
17 16 V
8 8 V
9 9 V
6 4 V
6 0 V
2 0 V
16 -5 V
24 -6 V
19 -5 V
30 -8 V
8 -2 V
40 -10 V
1 0 V
1 0 V
48 -11 V
29 -5 V
17 -3 V
2 0 V
2 0 V
2 0 V
29 5 V
31 7 V
57 14 V
28 7 V
7 2 V
59 16 V
25 8 V
stroke 4140 892 M
3 0 V
2 -1 V
2 -1 V
17 -8 V
31 -17 V
22 -11 V
33 -16 V
113 -37 V
17 1 V
1 0 V
7 1 V
6 2 V
47 16 V
8 4 V
8 3 V
8 4 V
10 5 V
6 3 V
6 2 V
1 1 V
80 39 V
6 8 V
6 17 V
1 4 V
36 128 V
14 49 V
30 105 V
6 12 V
6 -9 V
2 -4 V
79 -252 V
6 -19 V
7 -20 V
1 -3 V
44 -117 V
42 130 V
6 19 V
6 19 V
1 4 V
53 159 V
14 43 V
13 37 V
6 21 V
6 29 V
1 6 V
30 150 V
13 65 V
6 37 V
6 47 V
1 10 V
18 153 V
49 419 V
7 40 V
6 13 V
1 0 V
24 0 V
3 0 V
4 0 V
6 0 V
19 0 V
6 -13 V
6 -40 V
2 -10 V
16 -141 V
7 -61 V
7 -61 V
68 -574 V
6 -45 V
6 -30 V
1 -5 V
5383 793 L
6 -21 V
6 21 V
1 5 V
27 103 V
19 74 V
19 75 V
40 157 V
6 31 V
6 44 V
1 11 V
67 562 V
7 61 V
7 61 V
18 151 V
6 39 V
6 14 V
1 0 V
26 1 V
2 0 V
2 0 V
7 1 V
19 1 V
6 -13 V
7 -39 V
1 -11 V
14 -116 V
53 -449 V
6 -46 V
6 -36 V
2 -5 V
24 -119 V
3 -15 V
3 -15 V
6 -30 V
20 -94 V
6 -27 V
6 -21 V
1 -3 V
17 -49 V
7 -21 V
7 -21 V
64 -187 V
19 -56 V
19 -28 V
28 80 V
6 17 V
6 13 V
1 3 V
27 51 V
19 37 V
19 37 V
15 29 V
12 25 V
6 14 V
7 16 V
1 4 V
22 66 V
8 25 V
9 27 V
53 157 V
6 22 V
6 32 V
1 8 V
237 1413 V
25 149 V
7 43 V
8 42 V
10 60 V
6 37 V
3 18 V
3 19 V
19 112 V
14 -23 V
13 -231 V
8 -182 V
18 -441 V
7 -147 V
3 -74 V
3 -74 V
18 -427 V
14 -283 V
15 -171 V
7 -56 V
28 -238 V
17 -145 V
5 -42 V
4 -35 V
27 219 V
12 107 V
5 40 V
1176 852 Pnt
1192 849 Pnt
1207 847 Pnt
1264 843 Pnt
1271 844 Pnt
1277 848 Pnt
1280 850 Pnt
1295 863 Pnt
1339 901 Pnt
1349 910 Pnt
1352 913 Pnt
1361 920 Pnt
1373 931 Pnt
1375 932 Pnt
1378 932 Pnt
1387 930 Pnt
1406 927 Pnt
1424 923 Pnt
1437 920 Pnt
1462 915 Pnt
1487 910 Pnt
1493 908 Pnt
1499 907 Pnt
1530 899 Pnt
1561 890 Pnt
1591 880 Pnt
1599 878 Pnt
1601 877 Pnt
1603 877 Pnt
1606 876 Pnt
1611 874 Pnt
1617 869 Pnt
1623 859 Pnt
1624 857 Pnt
1637 830 Pnt
1654 795 Pnt
1679 796 Pnt
1704 847 Pnt
1717 874 Pnt
1725 890 Pnt
1735 911 Pnt
1741 927 Pnt
1747 951 Pnt
1748 955 Pnt
1795 1167 Pnt
1802 1188 Pnt
1808 1195 Pnt
1809 1195 Pnt
1818 1195 Pnt
1825 1195 Pnt
1834 1195 Pnt
1842 1195 Pnt
1935 1194 Pnt
2063 1194 Pnt
2069 1186 Pnt
2075 1165 Pnt
2077 1158 Pnt
2085 1119 Pnt
2092 1087 Pnt
2121 954 Pnt
2123 947 Pnt
2129 923 Pnt
2135 905 Pnt
2145 884 Pnt
2153 866 Pnt
2167 836 Pnt
2191 782 Pnt
2216 813 Pnt
2230 843 Pnt
2238 861 Pnt
2246 881 Pnt
2247 883 Pnt
2253 893 Pnt
2260 897 Pnt
2260 897 Pnt
2262 897 Pnt
2265 897 Pnt
2286 897 Pnt
2322 898 Pnt
2364 896 Pnt
2406 892 Pnt
2454 885 Pnt
2456 884 Pnt
2458 882 Pnt
2460 881 Pnt
2512 837 Pnt
2550 807 Pnt
2570 794 Pnt
2577 791 Pnt
2587 788 Pnt
2593 789 Pnt
2599 792 Pnt
2600 792 Pnt
2609 798 Pnt
2617 804 Pnt
2645 828 Pnt
2660 841 Pnt
2675 855 Pnt
2691 869 Pnt
2694 873 Pnt
2701 879 Pnt
2707 884 Pnt
2717 894 Pnt
2721 897 Pnt
2727 900 Pnt
2733 898 Pnt
2743 892 Pnt
2750 887 Pnt
2803 850 Pnt
2833 831 Pnt
2854 818 Pnt
2862 813 Pnt
2867 810 Pnt
2875 806 Pnt
2877 805 Pnt
2880 804 Pnt
2886 801 Pnt
2892 799 Pnt
2898 800 Pnt
2900 800 Pnt
2959 827 Pnt
2967 831 Pnt
2976 836 Pnt
2982 838 Pnt
2988 837 Pnt
2990 836 Pnt
3015 822 Pnt
3034 812 Pnt
3042 809 Pnt
3047 806 Pnt
3055 803 Pnt
3057 802 Pnt
3060 802 Pnt
3066 800 Pnt
3072 799 Pnt
3079 800 Pnt
3080 801 Pnt
3113 817 Pnt
3120 821 Pnt
3130 827 Pnt
3137 828 Pnt
3143 826 Pnt
3146 824 Pnt
3195 795 Pnt
3201 793 Pnt
3207 794 Pnt
3210 795 Pnt
3228 802 Pnt
3242 810 Pnt
3249 815 Pnt
3259 821 Pnt
3265 824 Pnt
3271 822 Pnt
3275 820 Pnt
3294 811 Pnt
3302 807 Pnt
3312 803 Pnt
3315 802 Pnt
3317 802 Pnt
3323 800 Pnt
3329 799 Pnt
3336 800 Pnt
3337 801 Pnt
3396 832 Pnt
3404 837 Pnt
3413 842 Pnt
3419 844 Pnt
3426 842 Pnt
3427 842 Pnt
3440 834 Pnt
3492 805 Pnt
3495 804 Pnt
3497 803 Pnt
3538 795 Pnt
3546 797 Pnt
3561 802 Pnt
3568 805 Pnt
3574 810 Pnt
3575 811 Pnt
3592 827 Pnt
3617 851 Pnt
3634 867 Pnt
3642 875 Pnt
3651 884 Pnt
3657 888 Pnt
3663 888 Pnt
3665 888 Pnt
3681 883 Pnt
3705 877 Pnt
3724 872 Pnt
3754 864 Pnt
3762 862 Pnt
3802 852 Pnt
3803 852 Pnt
3804 852 Pnt
3852 841 Pnt
3881 836 Pnt
3898 833 Pnt
3900 833 Pnt
3902 833 Pnt
3904 833 Pnt
3933 838 Pnt
3964 845 Pnt
4021 859 Pnt
4049 866 Pnt
4056 868 Pnt
4115 884 Pnt
4140 892 Pnt
4143 892 Pnt
4145 891 Pnt
4147 890 Pnt
4164 882 Pnt
4195 865 Pnt
4217 854 Pnt
4250 838 Pnt
4363 801 Pnt
4380 802 Pnt
4381 802 Pnt
4388 803 Pnt
4394 805 Pnt
4441 821 Pnt
4449 825 Pnt
4457 828 Pnt
4465 832 Pnt
4475 837 Pnt
4481 840 Pnt
4487 842 Pnt
4488 843 Pnt
4568 882 Pnt
4574 890 Pnt
4580 907 Pnt
4581 911 Pnt
4617 1039 Pnt
4631 1088 Pnt
4661 1193 Pnt
4667 1205 Pnt
4673 1196 Pnt
4675 1192 Pnt
4754 940 Pnt
4760 921 Pnt
4767 901 Pnt
4768 898 Pnt
4812 781 Pnt
4854 911 Pnt
4860 930 Pnt
4866 949 Pnt
4867 953 Pnt
4920 1112 Pnt
4934 1155 Pnt
4947 1192 Pnt
4953 1213 Pnt
4959 1242 Pnt
4960 1248 Pnt
4990 1398 Pnt
5003 1463 Pnt
5009 1500 Pnt
5015 1547 Pnt
5016 1557 Pnt
5034 1710 Pnt
5083 2129 Pnt
5090 2169 Pnt
5096 2182 Pnt
5097 2182 Pnt
5121 2182 Pnt
5124 2182 Pnt
5128 2182 Pnt
5134 2182 Pnt
5153 2182 Pnt
5159 2169 Pnt
5165 2129 Pnt
5167 2119 Pnt
5183 1978 Pnt
5190 1917 Pnt
5197 1856 Pnt
5265 1282 Pnt
5271 1237 Pnt
5277 1207 Pnt
5278 1202 Pnt
5383 793 Pnt
5389 772 Pnt
5395 793 Pnt
5396 798 Pnt
5423 901 Pnt
5442 975 Pnt
5461 1050 Pnt
5501 1207 Pnt
5507 1238 Pnt
5513 1282 Pnt
5514 1293 Pnt
5581 1855 Pnt
5588 1916 Pnt
5595 1977 Pnt
5613 2128 Pnt
5619 2167 Pnt
5625 2181 Pnt
5626 2181 Pnt
5652 2182 Pnt
5654 2182 Pnt
5656 2182 Pnt
5663 2183 Pnt
5682 2184 Pnt
5688 2171 Pnt
5695 2132 Pnt
5696 2121 Pnt
5710 2005 Pnt
5763 1556 Pnt
5769 1510 Pnt
5775 1474 Pnt
5777 1469 Pnt
5801 1350 Pnt
5804 1335 Pnt
5807 1320 Pnt
5813 1290 Pnt
5833 1196 Pnt
5839 1169 Pnt
5845 1148 Pnt
5846 1145 Pnt
5863 1096 Pnt
5870 1075 Pnt
5877 1054 Pnt
5941 867 Pnt
5960 811 Pnt
5979 783 Pnt
6007 863 Pnt
6013 880 Pnt
6019 893 Pnt
6020 896 Pnt
6047 947 Pnt
6066 984 Pnt
6085 1021 Pnt
6100 1050 Pnt
6112 1075 Pnt
6118 1089 Pnt
6125 1105 Pnt
6126 1109 Pnt
6148 1175 Pnt
6156 1200 Pnt
6165 1227 Pnt
6218 1384 Pnt
6224 1406 Pnt
6230 1438 Pnt
6231 1446 Pnt
6468 2859 Pnt
6493 3008 Pnt
6500 3051 Pnt
6508 3093 Pnt
6518 3153 Pnt
6524 3190 Pnt
6527 3208 Pnt
6530 3227 Pnt
6549 3339 Pnt
6563 3316 Pnt
6576 3085 Pnt
6584 2903 Pnt
6602 2462 Pnt
6609 2315 Pnt
6612 2241 Pnt
6615 2167 Pnt
6633 1740 Pnt
6647 1457 Pnt
6662 1286 Pnt
6669 1230 Pnt
6697 992 Pnt
6714 847 Pnt
6719 805 Pnt
6723 770 Pnt
6750 989 Pnt
6762 1096 Pnt
2359 4508 Pnt
% End plot #1
% Begin plot #2
1.500 UP
3.000 UL
LT1
0.00 1.00 1.00 C LCb setrgbcolor
1896 4148 M
[ [(Symbol) 240.0 0.0 true true 0 (b)]
[(Italic) 192.0 -72.0 true true 0 (y)]
[(Helvetica) 192.0 120.0 true true 0 (1/2)]
] -80.0 MRshow
LT1
0.00 1.00 1.00 C 2040 4148 M
639 0 V
1176 827 M
16 9 V
15 8 V
57 31 V
7 1 V
6 -2 V
3 -3 V
15 -11 V
44 -30 V
10 -7 V
3 -2 V
9 -6 V
12 -7 V
2 -1 V
3 -1 V
9 -3 V
19 -3 V
18 0 V
13 2 V
25 7 V
25 10 V
6 3 V
6 3 V
31 15 V
31 16 V
30 16 V
8 4 V
2 1 V
2 2 V
3 1 V
5 3 V
6 6 V
6 13 V
1 3 V
13 36 V
17 46 V
25 67 V
25 67 V
13 36 V
8 22 V
10 27 V
6 6 V
6 -14 V
1 -4 V
47 -186 V
7 -21 V
6 -13 V
1 -3 V
9 -13 V
7 -12 V
9 -13 V
8 -13 V
93 -140 V
128 187 V
6 13 V
6 20 V
2 7 V
8 32 V
7 28 V
29 114 V
2 7 V
6 14 V
6 -5 V
10 -25 V
8 -19 V
14 -33 V
24 -62 V
25 -61 V
14 -33 V
8 -20 V
8 -22 V
1 -2 V
6 -11 V
7 -3 V
2 0 V
3 0 V
21 3 V
36 4 V
42 5 V
42 5 V
48 6 V
2 1 V
2 2 V
2 2 V
52 58 V
38 43 V
20 22 V
7 8 V
10 12 V
6 2 V
6 -6 V
1 -2 V
9 -16 V
8 -14 V
28 -51 V
15 -26 V
15 -28 V
16 -28 V
3 -7 V
7 -11 V
6 -12 V
10 -18 V
4 -6 V
stroke 2721 854 M
6 -10 V
6 -7 V
10 -8 V
7 -6 V
53 -35 V
30 10 V
21 15 V
8 7 V
5 4 V
8 7 V
2 2 V
3 2 V
6 5 V
6 4 V
6 -2 V
2 0 V
59 -30 V
8 -3 V
9 -4 V
6 -1 V
6 1 V
2 0 V
25 10 V
19 9 V
8 4 V
5 3 V
8 4 V
2 1 V
3 2 V
6 3 V
6 1 V
7 -2 V
1 -1 V
33 -22 V
7 -4 V
10 -6 V
7 -2 V
6 1 V
3 1 V
49 22 V
6 1 V
6 -1 V
3 -2 V
18 -8 V
14 -6 V
7 -3 V
10 -4 V
6 0 V
6 2 V
4 2 V
19 12 V
8 5 V
10 7 V
3 2 V
2 1 V
6 4 V
6 3 V
7 -2 V
1 0 V
59 -30 V
8 -3 V
9 -4 V
6 -1 V
7 1 V
1 0 V
13 5 V
52 25 V
3 1 V
2 1 V
41 22 V
8 5 V
15 8 V
7 2 V
6 -2 V
1 -1 V
17 -10 V
25 -15 V
17 -10 V
8 -4 V
9 -5 V
6 -3 V
6 0 V
2 0 V
16 1 V
24 3 V
19 3 V
30 5 V
8 2 V
40 8 V
1 1 V
1 0 V
48 12 V
29 8 V
17 4 V
2 1 V
2 0 V
2 0 V
29 -7 V
31 -7 V
57 -11 V
28 -5 V
7 -1 V
59 -8 V
25 -2 V
stroke 4140 831 M
3 0 V
2 0 V
2 1 V
17 6 V
31 12 V
22 8 V
33 14 V
113 48 V
17 8 V
1 0 V
7 3 V
6 2 V
47 21 V
8 3 V
8 4 V
8 3 V
10 5 V
6 2 V
6 3 V
1 1 V
80 39 V
6 -7 V
6 -24 V
1 -7 V
36 -191 V
14 41 V
30 158 V
6 38 V
6 50 V
2 12 V
79 739 V
6 58 V
7 57 V
1 12 V
44 417 V
42 389 V
6 61 V
6 68 V
1 14 V
53 612 V
14 165 V
13 144 V
6 49 V
6 4 V
1 -3 V
30 -86 V
13 -36 V
6 -39 V
6 -82 V
1 -20 V
18 -298 V
49 -816 V
7 -86 V
6 -56 V
1 -8 V
24 -159 V
3 -20 V
4 -21 V
6 -40 V
19 -127 V
6 -29 V
6 -7 V
2 0 V
16 11 V
7 5 V
7 5 V
68 43 V
6 -14 V
6 -51 V
1 -14 V
5383 779 L
6 69 V
6 71 V
1 15 V
27 314 V
19 226 V
19 226 V
40 474 V
6 51 V
6 9 V
1 -3 V
67 -147 V
7 -16 V
7 -16 V
18 -39 V
6 -2 V
6 21 V
1 7 V
26 134 V
2 12 V
2 11 V
7 38 V
19 103 V
6 48 V
7 78 V
1 18 V
14 210 V
53 808 V
6 73 V
6 32 V
2 2 V
24 43 V
3 6 V
3 5 V
6 11 V
20 35 V
6 -11 V
6 -54 V
1 -14 V
17 -202 V
7 -86 V
7 -87 V
64 -778 V
19 -232 V
19 -232 V
28 -337 V
6 -63 V
6 -40 V
1 -6 V
27 -123 V
19 -90 V
19 -89 V
15 -71 V
12 -60 V
6 -30 V
7 -35 V
1 -7 V
22 -127 V
8 -49 V
9 -53 V
53 179 V
6 34 V
6 30 V
1 5 V
237 1067 V
25 113 V
7 32 V
8 32 V
10 45 V
6 28 V
3 14 V
3 14 V
19 85 V
14 135 V
13 289 V
8 206 V
18 499 V
7 167 V
3 84 V
3 85 V
18 483 V
14 96 V
15 -506 V
7 -354 V
28 -1507 V
17 -915 V
5 -269 V
4 -233 V
27 1401 V
12 673 V
5 253 V
1176 827 Pnt
1192 836 Pnt
1207 844 Pnt
1264 875 Pnt
1271 876 Pnt
1277 874 Pnt
1280 871 Pnt
1295 860 Pnt
1339 830 Pnt
1349 823 Pnt
1352 821 Pnt
1361 815 Pnt
1373 808 Pnt
1375 807 Pnt
1378 806 Pnt
1387 803 Pnt
1406 800 Pnt
1424 800 Pnt
1437 802 Pnt
1462 809 Pnt
1487 819 Pnt
1493 822 Pnt
1499 825 Pnt
1530 840 Pnt
1561 856 Pnt
1591 872 Pnt
1599 876 Pnt
1601 877 Pnt
1603 879 Pnt
1606 880 Pnt
1611 883 Pnt
1617 889 Pnt
1623 902 Pnt
1624 905 Pnt
1637 941 Pnt
1654 987 Pnt
1679 1054 Pnt
1704 1121 Pnt
1717 1157 Pnt
1725 1179 Pnt
1735 1206 Pnt
1741 1212 Pnt
1747 1198 Pnt
1748 1194 Pnt
1795 1008 Pnt
1802 987 Pnt
1808 974 Pnt
1809 971 Pnt
1818 958 Pnt
1825 946 Pnt
1834 933 Pnt
1842 920 Pnt
1935 780 Pnt
2063 967 Pnt
2069 980 Pnt
2075 1000 Pnt
2077 1007 Pnt
2085 1039 Pnt
2092 1067 Pnt
2121 1181 Pnt
2123 1188 Pnt
2129 1202 Pnt
2135 1197 Pnt
2145 1172 Pnt
2153 1153 Pnt
2167 1120 Pnt
2191 1058 Pnt
2216 997 Pnt
2230 964 Pnt
2238 944 Pnt
2246 922 Pnt
2247 920 Pnt
2253 909 Pnt
2260 906 Pnt
2260 906 Pnt
2262 906 Pnt
2265 906 Pnt
2286 909 Pnt
2322 913 Pnt
2364 918 Pnt
2406 923 Pnt
2454 929 Pnt
2456 930 Pnt
2458 932 Pnt
2460 934 Pnt
2512 992 Pnt
2550 1035 Pnt
2570 1057 Pnt
2577 1065 Pnt
2587 1077 Pnt
2593 1079 Pnt
2599 1073 Pnt
2600 1071 Pnt
2609 1055 Pnt
2617 1041 Pnt
2645 990 Pnt
2660 964 Pnt
2675 936 Pnt
2691 908 Pnt
2694 901 Pnt
2701 890 Pnt
2707 878 Pnt
2717 860 Pnt
2721 854 Pnt
2727 844 Pnt
2733 837 Pnt
2743 829 Pnt
2750 823 Pnt
2803 788 Pnt
2833 798 Pnt
2854 813 Pnt
2862 820 Pnt
2867 824 Pnt
2875 831 Pnt
2877 833 Pnt
2880 835 Pnt
2886 840 Pnt
2892 844 Pnt
2898 842 Pnt
2900 842 Pnt
2959 812 Pnt
2967 809 Pnt
2976 805 Pnt
2982 804 Pnt
2988 805 Pnt
2990 805 Pnt
3015 815 Pnt
3034 824 Pnt
3042 828 Pnt
3047 831 Pnt
3055 835 Pnt
3057 836 Pnt
3060 838 Pnt
3066 841 Pnt
3072 842 Pnt
3079 840 Pnt
3080 839 Pnt
3113 817 Pnt
3120 813 Pnt
3130 807 Pnt
3137 805 Pnt
3143 806 Pnt
3146 807 Pnt
3195 829 Pnt
3201 830 Pnt
3207 829 Pnt
3210 827 Pnt
3228 819 Pnt
3242 813 Pnt
3249 810 Pnt
3259 806 Pnt
3265 806 Pnt
3271 808 Pnt
3275 810 Pnt
3294 822 Pnt
3302 827 Pnt
3312 834 Pnt
3315 836 Pnt
3317 837 Pnt
3323 841 Pnt
3329 844 Pnt
3336 842 Pnt
3337 842 Pnt
3396 812 Pnt
3404 809 Pnt
3413 805 Pnt
3419 804 Pnt
3426 805 Pnt
3427 805 Pnt
3440 810 Pnt
3492 835 Pnt
3495 836 Pnt
3497 837 Pnt
3538 859 Pnt
3546 864 Pnt
3561 872 Pnt
3568 874 Pnt
3574 872 Pnt
3575 871 Pnt
3592 861 Pnt
3617 846 Pnt
3634 836 Pnt
3642 832 Pnt
3651 827 Pnt
3657 824 Pnt
3663 824 Pnt
3665 824 Pnt
3681 825 Pnt
3705 828 Pnt
3724 831 Pnt
3754 836 Pnt
3762 838 Pnt
3802 846 Pnt
3803 847 Pnt
3804 847 Pnt
3852 859 Pnt
3881 867 Pnt
3898 871 Pnt
3900 872 Pnt
3902 872 Pnt
3904 872 Pnt
3933 865 Pnt
3964 858 Pnt
4021 847 Pnt
4049 842 Pnt
4056 841 Pnt
4115 833 Pnt
4140 831 Pnt
4143 831 Pnt
4145 831 Pnt
4147 832 Pnt
4164 838 Pnt
4195 850 Pnt
4217 858 Pnt
4250 872 Pnt
4363 920 Pnt
4380 928 Pnt
4381 928 Pnt
4388 931 Pnt
4394 933 Pnt
4441 954 Pnt
4449 957 Pnt
4457 961 Pnt
4465 964 Pnt
4475 969 Pnt
4481 971 Pnt
4487 974 Pnt
4488 975 Pnt
4568 1014 Pnt
4574 1007 Pnt
4580 983 Pnt
4581 976 Pnt
4617 785 Pnt
4631 826 Pnt
4661 984 Pnt
4667 1022 Pnt
4673 1072 Pnt
4675 1084 Pnt
4754 1823 Pnt
4760 1881 Pnt
4767 1938 Pnt
4768 1950 Pnt
4812 2367 Pnt
4854 2756 Pnt
4860 2817 Pnt
4866 2885 Pnt
4867 2899 Pnt
4920 3511 Pnt
4934 3676 Pnt
4947 3820 Pnt
4953 3869 Pnt
4959 3873 Pnt
4960 3870 Pnt
4990 3784 Pnt
5003 3748 Pnt
5009 3709 Pnt
5015 3627 Pnt
5016 3607 Pnt
5034 3309 Pnt
5083 2493 Pnt
5090 2407 Pnt
5096 2351 Pnt
5097 2343 Pnt
5121 2184 Pnt
5124 2164 Pnt
5128 2143 Pnt
5134 2103 Pnt
5153 1976 Pnt
5159 1947 Pnt
5165 1940 Pnt
5167 1940 Pnt
5183 1951 Pnt
5190 1956 Pnt
5197 1961 Pnt
5265 2004 Pnt
5271 1990 Pnt
5277 1939 Pnt
5278 1925 Pnt
5383 779 Pnt
5389 848 Pnt
5395 919 Pnt
5396 934 Pnt
5423 1248 Pnt
5442 1474 Pnt
5461 1700 Pnt
5501 2174 Pnt
5507 2225 Pnt
5513 2234 Pnt
5514 2231 Pnt
5581 2084 Pnt
5588 2068 Pnt
5595 2052 Pnt
5613 2013 Pnt
5619 2011 Pnt
5625 2032 Pnt
5626 2039 Pnt
5652 2173 Pnt
5654 2185 Pnt
5656 2196 Pnt
5663 2234 Pnt
5682 2337 Pnt
5688 2385 Pnt
5695 2463 Pnt
5696 2481 Pnt
5710 2691 Pnt
5763 3499 Pnt
5769 3572 Pnt
5775 3604 Pnt
5777 3606 Pnt
5801 3649 Pnt
5804 3655 Pnt
5807 3660 Pnt
5813 3671 Pnt
5833 3706 Pnt
5839 3695 Pnt
5845 3641 Pnt
5846 3627 Pnt
5863 3425 Pnt
5870 3339 Pnt
5877 3252 Pnt
5941 2474 Pnt
5960 2242 Pnt
5979 2010 Pnt
6007 1673 Pnt
6013 1610 Pnt
6019 1570 Pnt
6020 1564 Pnt
6047 1441 Pnt
6066 1351 Pnt
6085 1262 Pnt
6100 1191 Pnt
6112 1131 Pnt
6118 1101 Pnt
6125 1066 Pnt
6126 1059 Pnt
6148 932 Pnt
6156 883 Pnt
6165 830 Pnt
6218 1009 Pnt
6224 1043 Pnt
6230 1073 Pnt
6231 1078 Pnt
6468 2145 Pnt
6493 2258 Pnt
6500 2290 Pnt
6508 2322 Pnt
6518 2367 Pnt
6524 2395 Pnt
6527 2409 Pnt
6530 2423 Pnt
6549 2508 Pnt
6563 2643 Pnt
6576 2932 Pnt
6584 3138 Pnt
6602 3637 Pnt
6609 3804 Pnt
6612 3888 Pnt
6615 3973 Pnt
6633 4456 Pnt
6647 4552 Pnt
6662 4046 Pnt
6669 3692 Pnt
6697 2185 Pnt
6714 1270 Pnt
6719 1001 Pnt
6723 768 Pnt
6750 2169 Pnt
6762 2842 Pnt
2359 4148 Pnt
% End plot #2
1.000 UL
LTb
LCb setrgbcolor
1176 4751 N
0 -3983 V
5591 0 V
0 3983 V
-5591 0 V
Z stroke
1.000 UP
1.000 UL
LTb
LCb setrgbcolor
stroke
grestore
end
showpage
%%Trailer
%%DocumentFonts: Italic Symbol Helvetica
