0 15.5554 1.5092 0 5.6622 -3.5167 0 .0016 .0027 0 0 0 0 0 0
.25 14.9534 .9064 .0164 7.5047 -3.8306 .0383 .0026 .0053 0 0 0 0 0 0
.5 14.6434 .3364 .0333 9.4693 -4.0031 .0679 .0043 .0079 0 0 0 0 0 0
1.4231 14.087 .2663 .0977 18.3921 -5.6627 .1379 .0116 .0079 0 0 0 0 0 0
1.5225 14.5499 -4.9798 .1046 18.8501 1.1101 .1432 .0127 .0146 0 0 0 0 0 0
1.6219 16.1146 -10.9558 .1112 17.9614 7.7241 .1486 .0145 .0219 0 0 0 0 0 0
1.6687 17.1578 -11.3077 .114 17.245 7.5659 .1513 .0156 .0219 0 0 0 0 0 0
1.9183 23.2692 -13.182 .1265 13.6792 6.723 .1675 .021 .0219 0 0 0 0 0 0
2.6211 45.5087 -18.4607 .1481 5.8972 4.3493 .2458 .0364 .0219 0 0 0 0 0 0
2.789 51.9195 -19.7217 .1515 4.5319 3.7823 .2783 .0401 .0219 0 0 0 0 0 0
2.8397 53.9379 -20.1024 .1525 4.1572 3.6111 .29 .0412 .0219 0 0 0 0 0 0
2.9785 59.6605 -21.1444 .1549 3.2202 3.1425 .3279 .0442 .0219 0 0 0 0 0 0
3.1679 67.9425 -22.5674 .1579 2.1506 2.5026 .4 .0484 .0219 0 0 0 0 0 0
3.2101 69.2638 -8.6722 .1585 1.9629 1.9611 .4205 .049 .0073 0 0 0 0 0 0
3.2523 69.397 5.5215 .1591 1.8179 1.4873 .4429 .049 -.0073 0 0 0 0 0 0
3.4001 67.7744 5.4544 .1613 1.4167 1.2261 .5352 .0479 -.0073 0 0 0 0 0 0
3.7001 64.5297 5.3606 .1658 .8401 .696 .8137 .0478 .0067 0 0 0 0 0 0
4.0001 61.3426 5.2625 .1706 .5815 .1659 1.2573 .0519 .0207 0 0 0 0 0 0
4.2001 59.2563 5.169 .1739 .5859 -.1875 1.6071 .0561 .0207 0 0 0 0 0 0
4.6001 55.1179 5.1722 .1809 1.0186 -.8943 2.1513 .0718 .0576 0 0 0 0 0 0
5.0001 50.9883 5.147 .1885 2.0168 -1.6014 2.4342 .1022 .0945 0 0 0 0 0 0
5.1001 49.9643 5.0931 .1904 2.3547 -1.7781 2.4801 .1116 .0945 0 0 0 0 0 0
5.2001 48.9511 5.0391 .1925 2.728 -1.9548 2.5195 .1211 .0945 0 0 0 0 0 0
5.7001 43.4196 5.973 .2033 5.1279 -2.8427 2.6536 .1968 .2078 0 0 0 0 0 0
6.2001 37.1149 6.5785 .2157 8.4133 -3.7355 2.7298 .3284 .3182 0 0 0 0 0 0
6.6783 31.0956 6.008 .2298 12.3927 -4.5855 2.7767 .4805 .3182 0 0 0 0 0 0
6.8065 29.5754 5.8551 .234 13.597 -4.8133 2.7865 .5213 .3182 0 0 0 0 0 0
6.8401 29.1834 5.815 .2351 13.9224 -4.873 2.789 .532 .3182 0 0 0 0 0 0
6.8794 28.7278 5.7681 .2365 14.3086 -4.9429 2.7918 .5445 .3182 0 0 0 0 0 0
6.9187 28.2758 5.7212 .2379 14.7002 -5.0128 2.7945 .557 .3182 0 0 0 0 0 0
7.0001 27.3528 5.6241 .2408 15.5276 -5.1574 2.7999 .5829 .3182 0 0 0 0 0 0
7.0994 24.8664 18.9713 .2446 17.4412 -14.4502 2.8059 .5989 .0024 0 0 0 0 0 0
7.1987 20.0796 28.3793 .249 21.4718 -26.8509 2.8111 .5834 -.3135 0 0 0 0 0 0
7.2134 19.2542 27.7892 .2497 22.2682 -27.345 2.8118 .5787 -.3135 0 0 0 0 0 0
7.4274 9.1996 19.1951 .2658 35.5118 -34.5406 2.8194 .5117 -.3135 0 0 0 0 0 0
7.6987 1.7401 8.2996 .3337 56.7288 -43.663 2.8255 .4266 -.3135 0 0 0 0 0 0
8.0987 1.5308 -7.7777 3.228 97.0912 -57.1938 2.8308 .3184 -.2275 0 0 0 0 0 0
8.4987 14.1108 -23.5797 3.3141 148.2379 -70.8059 2.8342 .2449 -.1395 0 0 0 0 0 0
8.7119 25.9616 -31.9968 3.3252 179.9725 -78.019 2.8355 .2151 -.1395 0 0 0 0 0 0
8.8401 34.8099 -37.0549 3.3295 200.5228 -82.3536 2.8362 .1973 -.1395 0 0 0 0 0 0
8.9987 47.5588 -43.3164 3.3334 227.5005 -87.7194 2.8369 .1751 -.1395 0 0 0 0 0 0
9.098 59.0861 -74.5672 3.3353 234.2419 20.8952 2.8373 .1653 -.0597 0 0 0 0 0 0
9.1973 78.1102 -119.981 3.3367 219.4568 125.6629 2.8378 .1632 .0174 0 0 0 0 0 0
9.212 81.6763 -122.6895 3.3369 215.7791 124.6054 2.8378 .1635 .0174 0 0 0 0 0 0
9.9698 373.4687 -262.3601 3.3413 68.2504 70.0736 2.8441 .1766 .0174 0 0 0 0 0 0
10.0691 413.9231 -140.4824 3.3415 57.038 44.0857 2.8457 .1754 -.0418 0 0 0 0 0 0
10.1684 428.0404 -.0962 3.3418 50.3472 24.0364 2.8475 .1684 -.0996 0 0 0 0 0 0
10.1951 428.0455 -.0962 3.3418 49.0721 23.7296 2.8481 .1657 -.0996 0 0 0 0 0 0
10.3338 428.0722 -.0966 3.3421 42.7096 22.1349 2.8511 .1519 -.0996 0 0 0 0 0 0
10.4484 428.0944 -.0968 3.3424 37.7893 20.8181 2.854 .1405 -.0996 0 0 0 0 0 0
10.588 428.1215 -.0972 3.3427 32.1988 19.2128 2.858 .1266 -.0996 0 0 0 0 0 0
10.7162 428.1464 -.0975 3.343 27.4637 17.7398 2.8623 .1138 -.0996 0 0 0 0 0 0
12.2218 428.4452 -.101 3.3466 .1032 .4319 3.969 -.0362 -.0996 0 0 0 0 0 0
14.2753 428.87 -.1058 3.3513 46.7996 -23.1726 5.9044 -.2408 -.0996 0 0 0 0 0 0
14.3746 414.5945 142.2405 3.3516 53.2162 -42.1666 5.9064 -.2466 -.0167 0 0 0 0 0 0
14.4739 373.6305 265.621 3.3518 63.928 -66.9108 5.9081 -.2441 .0669 0 0 0 0 0 0
14.5006 359.5836 260.58 3.3519 67.5503 -68.7807 5.9085 -.2423 .0669 0 0 0 0 0 0
14.6353 292.7978 235.1388 3.3523 87.3547 -78.218 5.9103 -.2333 .0669 0 0 0 0 0 0
14.7498 241.4054 213.5075 3.3527 106.1936 -86.242 5.9115 -.2257 .0669 0 0 0 0 0 0
15.2197 82.4638 124.7849 3.3561 202.6955 -119.1532 5.9147 -.1942 .0669 0 0 0 0 0 0
15.2464 75.9361 119.7439 3.3564 209.107 -121.0231 5.9148 -.1925 .0669 0 0 0 0 0 0
15.3457 56.8393 75.4832 3.3579 223.6776 -23.4583 5.9153 -.1902 -.0209 0 0 0 0 0 0
15.445 45.0299 45.2452 3.3599 218.1436 78.3334 5.9157 -.1967 -.1097 0 0 0 0 0 0
15.6026 31.8965 38.0758 3.3641 194.148 73.8989 5.9165 -.2139 -.1097 0 0 0 0 0 0
15.7307 22.8852 32.2475 3.3688 175.671 70.2939 5.9172 -.228 -.1097 0 0 0 0 0 0
15.945 11.1557 22.5033 3.3822 146.8435 64.2667 5.9185 -.2515 -.1097 0 0 0 0 0 0
16.345 .4165 4.2654 3.5686 100.0179 52.9287 5.9218 -.3131 -.1977 0 0 0 0 0 0
16.745 4.3715 -14.1236 6.4097 62.1584 41.6659 5.9269 -.4094 -.2839 0 0 0 0 0 0
16.9592 12.5278 -23.9483 6.4386 45.5885 35.679 5.9309 -.4702 -.2839 0 0 0 0 0 0
17.0873 19.4184 -29.8249 6.4469 36.9034 32.098 5.934 -.5066 -.2839 0 0 0 0 0 0
17.2303 28.8809 -36.3796 6.4529 28.2988 28.1038 5.9385 -.5472 -.2839 0 0 0 0 0 0
17.245 29.96 -37.0535 6.4534 27.4789 27.6932 5.939 -.5514 -.2839 0 0 0 0 0 0
17.3443 35.8631 -21.2879 6.4564 23.6061 12.0241 5.9429 -.5641 .029 0 0 0 0 0 0
17.4436 38.1068 -.8868 6.4591 22.5241 -.928 5.9473 -.5457 .3403 0 0 0 0 0 0
17.4489 38.1163 -.887 6.4592 22.534 -.9284 5.9475 -.5438 .3403 0 0 0 0 0 0
17.4883 38.1862 -.8889 6.4602 22.6072 -.9317 5.9492 -.5305 .3403 0 0 0 0 0 0
17.5276 38.2562 -.8907 6.4613 22.6806 -.9349 5.951 -.5171 .3403 0 0 0 0 0 0
17.8623 38.8576 -.9064 6.4699 23.3157 -.9626 5.9655 -.4032 .3403 0 0 0 0 0 0
18.4498 39.9389 -.934 6.4849 24.4752 -1.0111 5.9901 -.2033 .3403 0 0 0 0 0 0
19.1248 40.0341 .7943 6.5017 25.9129 -1.0936 6.0169 -.0296 .1735 0 0 0 0 0 0
19.7998 37.8361 2.4301 6.5189 27.4278 -1.1791 6.0423 .0298 .0017 0 0 0 0 0 0
20.5648 34.2248 2.2904 6.5402 29.2829 -1.2457 6.0693 .0311 .0017 0 0 0 0 0 0
20.6041 33.7889 8.7616 6.5413 29.6024 -6.8964 6.0706 .031 -.0043 0 0 0 0 0 0
20.6435 32.8531 14.9697 6.5425 30.3734 -12.7551 6.0719 .0307 -.0102 0 0 0 0 0 0
20.6701 32.0596 14.787 6.5433 31.0575 -12.8988 6.0728 .0305 -.0102 0 0 0 0 0 0
21.5041 12.1605 9.0729 6.5856 56.3213 -17.3935 6.0927 .022 -.0102 0 0 0 0 0 0
22.1147 3.6359 4.8899 6.6775 79.5683 -20.6838 6.1018 .0158 -.0102 0 0 0 0 0 0
22.4374 1.1933 2.6788 6.8331 93.48 -22.4231 6.1056 .0125 -.0102 0 0 0 0 0 0
22.5519 .6695 1.894 6.9616 98.6878 -23.0404 6.1068 .0113 -.0102 0 0 0 0 0 0
22.7154 .2335 .7743 7.3877 106.3623 -23.9212 6.1084 .0096 -.0102 0 0 0 0 0 0
22.8147 .1518 .0561 7.9465 107.9889 7.7012 6.1093 .0088 -.0075 0 0 0 0 0 0
22.914 .2107 -.6554 8.5384 103.3626 38.4302 6.1102 .0081 -.005 0 0 0 0 0 0
22.9287 .2314 -.7551 8.605 102.2362 38.2201 6.1104 .0081 -.005 0 0 0 0 0 0
23.0676 .5722 -1.6976 8.9967 91.8924 36.2337 6.1118 .0074 -.005 0 0 0 0 0 0
23.1957 1.1186 -2.5669 9.1576 82.8411 34.4015 6.1133 .0067 -.005 0 0 0 0 0 0
23.6467 4.813 -5.6259 9.3532 54.7231 27.9541 6.12 .0045 -.005 0 0 0 0 0 0
23.8813 7.8265 -7.2177 9.3914 42.3925 24.5993 6.1248 .0033 -.005 0 0 0 0 0 0
24.1313 11.8594 -8.9136 9.4173 30.9864 21.0248 6.1317 .0021 -.005 0 0 0 0 0 0
24.3813 16.7402 -10.6096 9.4351 21.3676 17.4503 6.1415 8.01378E-4 -.005 0 0 0 0 0 0
24.4416 18.0438 -11.0185 9.4386 19.3158 16.5885 6.1444 4.99998E-4 -.005 0 0 0 0 0 0
24.5416 20.3158 -11.6982 9.4438 16.1408 15.1602 6.1501 2.1875E-4 -.0025 0 0 0 0 0 0
24.6416 22.7231 -12.3753 9.4484 13.2518 13.7297 6.1569 -1.025E-12 -3.065E-13 0 0 0 0 0 0
24.8076 27.0186 -13.5014 9.4551 9.0876 11.3558 6.1721 -1.076E-12 -3.065E-13 0 0 0 0 0 0
24.8623 28.5159 -13.8724 9.4571 7.8881 10.5737 6.1785 -1.092E-12 -3.065E-13 0 0 0 0 0 0
24.9616 30.2011 -2.883 9.4605 6.1802 6.8424 6.1928 -1.102E-12 1.1347E-13 0 0 0 0 0 0
25.0609 29.6323 8.5378 9.4638 5.101 4.1614 6.2106 -1.07E-12 5.2919E-13 0 0 0 0 0 0
25.2183 27.0061 8.1453 9.4693 3.8798 3.5961 6.246 -9.867E-13 5.2919E-13 0 0 0 0 0 0
25.3328 25.1727 7.8596 9.4737 3.1031 3.1848 6.279 -9.261E-13 5.2919E-13 0 0 0 0 0 0
26.1976 13.4446 5.7032 9.5207 .2802 .0796 7.4661 -4.685E-13 5.2919E-13 0 0 0 0 0 0
26.6723 8.5914 4.5193 9.5649 1.014 -1.6252 8.5648 -2.173E-13 5.2919E-13 0 0 0 0 0 0
27.0063 5.8512 3.6866 9.612 2.4998 -2.8243 8.7761 -4.058E-14 5.2919E-13 0 0 0 0 0 0
27.1344 4.9473 3.3671 9.6359 3.2826 -3.2844 8.8208 2.7233E-14 5.2919E-13 0 0 0 0 0 0
27.2203 4.3871 3.1528 9.6543 3.8735 -3.593 8.8449 7.2706E-14 5.2919E-13 0 0 0 0 0 0
27.346 3.634 2.8394 9.6858 4.8333 -4.0442 8.874 1.3921E-13 5.2919E-13 0 0 0 0 0 0
27.3853 3.4145 2.7413 9.697 5.157 -4.1855 8.8819 1.6002E-13 5.2919E-13 0 0 0 0 0 0
27.4247 3.2027 2.6432 9.7089 5.4918 -4.3267 8.8893 1.8084E-13 5.2919E-13 0 0 0 0 0 0
27.5271 2.6874 2.3878 9.7438 6.4158 -4.6945 8.9065 2.3504E-13 5.2919E-13 0 0 0 0 0 0
27.6263 2.3787 .7832 9.7834 6.9823 -.903 8.9212 2.949E-13 6.8306E-13 0 0 0 0 0 0
27.7256 2.3644 -.6366 9.8257 6.7606 3.0937 8.9355 3.7193E-13 8.7669E-13 0 0 0 0 0 0
27.7453 2.3898 -.6483 9.834 6.639 3.0628 8.9385 3.8925E-13 8.7669E-13 0 0 0 0 0 0
28.7019 4.174 -1.2168 10.1417 2.2101 1.567 9.1909 1.2279E-12 8.7669E-13 0 0 0 0 0 0
28.8267 4.487 -1.291 10.1705 1.8433 1.3719 9.2527 1.3373E-12 8.7669E-13 0 0 0 0 0 0
28.9771 4.8886 -1.3804 10.2027 1.4661 1.1368 9.3443 1.4691E-12 8.7669E-13 0 0 0 0 0 0
29.0763 4.9151 1.1179 10.2227 1.3241 .318 9.4162 1.5182E-12 1.0918E-13 0 0 0 0 0 0
29.1756 4.4597 3.393 10.2438 1.3356 -.4352 9.4915 1.4906E-12 -6.638E-13 0 0 0 0 0 0
29.1953 4.3267 3.3376 10.2483 1.3531 -.4528 9.5062 1.4775E-12 -6.638E-13 0 0 0 0 0 0
29.5983 2.0923 2.2069 10.3826 1.8627 -.8117 9.7629 1.21E-12 -6.638E-13 0 0 0 0 0 0
29.9053 1.0019 1.3457 10.5962 2.4449 -1.085 9.9072 1.0062E-12 -6.638E-13 0 0 0 0 0 0
30.0334 .7031 .9862 10.7495 2.7376 -1.1992 9.9568 9.2114E-13 -6.638E-13 0 0 0 0 0 0
30.1233 .5484 .7339 10.8948 2.9604 -1.2793 9.9884 8.6144E-13 -6.638E-13 0 0 0 0 0 0
30.2477 .4093 .3851 11.1604 3.2923 -1.39 10.0282 7.7891E-13 -6.638E-13 0 0 0 0 0 0
30.287 .3833 .2747 11.2598 3.403 -1.425 10.04 7.5279E-13 -6.638E-13 0 0 0 0 0 0
30.3263 .366 .1643 11.365 3.5165 -1.46 10.0513 7.2668E-13 -6.638E-13 0 0 0 0 0 0
30.4271 .3614 -.1183 11.6457 3.8198 -1.5498 10.0788 6.598E-13 -6.638E-13 0 0 0 0 0 0
30.5263 .4325 -.6098 11.9017 3.935 .4085 10.1042 6.1018E-13 -3.403E-13 0 0 0 0 0 0
30.6256 .6118 -1.2272 12.0975 3.663 2.2852 10.1301 5.9167E-13 -3.414E-14 0 0 0 0 0 0
30.6453 .6618 -1.3081 12.1286 3.5734 2.2516 10.1356 5.91E-13 -3.414E-14 0 0 0 0 0 0
31.1804 3.2349 -3.5002 12.503 1.65 1.3427 10.3578 5.7273E-13 -3.414E-14 0 0 0 0 0 0
31.295 4.0905 -3.9694 12.5345 1.3647 1.1481 10.4342 5.6882E-13 -3.414E-14 0 0 0 0 0 0
31.4603 5.5152 -4.6468 12.5693 1.0315 .8672 10.574 5.6318E-13 -3.414E-14 0 0 0 0 0 0
31.5597 6.0705 -.8136 12.5863 .9401 .0732 10.6763 5.4079E-13 -4.139E-13 0 0 0 0 0 0
31.6591 5.8242 3.2358 12.6028 1.001 -.7004 10.7801 4.8184E-13 -7.657E-13 0 0 0 0 0 0
31.7137 5.4765 3.1282 12.6125 1.082 -.7818 10.8326 4.4001E-13 -7.657E-13 0 0 0 0 0 0
32.4959 1.7879 1.5878 12.8651 3.2159 -1.9465 11.2653 -1.589E-13 -7.657E-13 0 0 0 0 0 0
32.5953 1.5731 .6098 12.9249 3.4448 -.318 11.2949 -2.397E-13 -8.665E-13 0 0 0 0 0 0
32.6946 1.5372 -.243 12.9894 3.3381 1.3736 11.3239 -3.326E-13 -1.011E-12 0 0 0 0 0 0
32.7493 1.5658 -.2807 13.0246 3.1906 1.3264 11.3407 -3.878E-13 -1.011E-12 0 0 0 0 0 0
33.0253 1.7733 -.4708 13.191 2.5244 1.0877 11.4381 -6.669E-13 -1.011E-12 0 0 0 0 0 0
33.2535 2.0241 -.6281 13.3118 2.0729 .8903 11.538 -8.977E-13 -1.011E-12 0 0 0 0 0 0
33.3681 2.177 -.707 13.3664 1.8803 .7912 11.5961 -1.013E-12 -1.011E-12 0 0 0 0 0 0
33.5314 2.4264 -.8195 13.4375 1.6449 .6499 11.6891 -1.179E-12 -1.011E-12 0 0 0 0 0 0
33.6308 2.4274 .8097 13.478 1.6329 -.5265 11.7505 -1.238E-12 -1.797E-13 0 0 0 0 0 0
33.7302 2.1189 2.2237 13.5213 1.8638 -1.8494 11.8081 -1.214E-12 6.6385E-13 0 0 0 0 0 0
33.7848 1.8844 2.0705 13.5487 2.0729 -1.979 11.8359 -1.178E-12 6.6385E-13 0 0 0 0 0 0
34.1004 .8569 1.185 13.7997 3.5583 -2.7275 11.9524 -9.682E-13 6.6385E-13 0 0 0 0 0 0
34.2252 .6049 .8349 13.9739 4.276 -3.0235 11.9844 -8.853E-13 6.6385E-13 0 0 0 0 0 0
34.3855 .4093 .385 14.302 5.3065 -3.4038 12.018 -7.789E-13 6.6385E-13 0 0 0 0 0 0
34.4249 .3833 .2747 14.4015 5.5779 -3.4971 12.0253 -7.528E-13 6.6385E-13 0 0 0 0 0 0
34.4642 .366 .1643 14.5067 5.8567 -3.5904 12.0322 -7.267E-13 6.6385E-13 0 0 0 0 0 0
34.565 .3614 -.1184 14.7874 6.6043 -3.8293 12.0484 -6.598E-13 6.6385E-13 0 0 0 0 0 0
34.6642 .4325 -.6098 15.0433 7.0321 -.4086 12.0628 -6.102E-13 3.4032E-13 0 0 0 0 0 0
34.7634 .6118 -1.2272 15.2391 6.761 3.0938 12.0771 -5.917E-13 3.4147E-14 0 0 0 0 0 0
34.7832 .6619 -1.3081 15.2702 6.6394 3.0629 12.08 -5.91E-13 3.4147E-14 0 0 0 0 0 0
35.7378 6.8923 -5.2186 15.7335 2.2166 1.5703 12.3315 -5.584E-13 3.4147E-14 0 0 0 0 0 0
35.8626 8.2586 -5.7298 15.7501 1.849 1.3752 12.3932 -5.541E-13 3.4147E-14 0 0 0 0 0 0
36.015 10.0996 -6.3539 15.7667 1.4662 1.1369 12.4858 -5.489E-13 3.4147E-14 0 0 0 0 0 0
36.1142 10.854 -1.118 15.7761 1.3242 .318 12.5577 -5.317E-13 3.1178E-13 0 0 0 0 0 0
36.2134 10.5286 4.3412 15.7854 1.3357 -.4352 12.6331 -4.876E-13 5.7365E-13 0 0 0 0 0 0
36.2332 10.3578 4.304 15.7872 1.3532 -.4528 12.6478 -4.762E-13 5.7365E-13 0 0 0 0 0 0
36.4442 8.6254 3.9063 15.8096 1.5839 -.6407 12.7924 -3.552E-13 5.7365E-13 0 0 0 0 0 0
37.2844 3.3922 2.3226 15.9655 3.2891 -1.3889 13.1693 1.2676E-13 5.7365E-13 0 0 0 0 0 0
37.3237 3.2124 2.2484 15.9774 3.3998 -1.4239 13.1811 1.4932E-13 5.7365E-13 0 0 0 0 0 0
37.363 3.0384 2.1743 15.99 3.5132 -1.4589 13.1925 1.7189E-13 5.7365E-13 0 0 0 0 0 0
38.0206 .994 .9347 16.3781 5.817 -2.0445 13.3385 5.4912E-13 5.7365E-13 0 0 0 0 0 0
38.1488 .7854 .6932 16.5236 6.3556 -2.1586 13.3595 6.2262E-13 5.7365E-13 0 0 0 0 0 0
38.3975 .5572 .2244 16.909 7.4843 -2.3801 13.3956 7.6528E-13 5.7365E-13 0 0 0 0 0 0
38.4967 .5496 -.147 17.0904 7.7028 .2032 13.4086 8.356E-13 8.4745E-13 0 0 0 0 0 0
38.5959 .6169 -.5387 17.2626 7.4054 2.7592 13.4217 9.3445E-13 1.1502E-12 0 0 0 0 0 0
38.6157 .639 -.58 17.2941 7.2969 2.7362 13.4244 9.5717E-13 1.1502E-12 0 0 0 0 0 0
38.8917 1.1185 -1.1572 17.6266 5.8751 2.4152 13.4665 1.2746E-12 1.1502E-12 0 0 0 0 0 0
39.2963 2.3974 -2.0035 17.8763 4.1109 1.9446 13.549 1.74E-12 1.1502E-12 0 0 0 0 0 0
39.5679 3.64 -2.5715 17.9684 3.1404 1.6287 13.6246 2.0524E-12 1.1502E-12 0 0 0 0 0 0
39.6927 4.3144 -2.8325 17.9999 2.752 1.4835 13.6671 2.196E-12 1.1502E-12 0 0 0 0 0 0
39.8421 5.2071 -3.1448 18.0314 2.3348 1.3098 13.726 2.3678E-12 1.1502E-12 0 0 0 0 0 0
39.9413 5.6708 -1.4766 18.0496 2.1575 .4964 13.7705 2.4429E-12 3.6009E-13 0 0 0 0 0 0
40.0406 5.7807 .3816 18.0668 2.1335 -.2517 13.817 2.4388E-12 -4.417E-13 0 0 0 0 0 0
40.0603 5.7657 .3777 18.0703 2.1436 -.2616 13.8263 2.4301E-12 -4.417E-13 0 0 0 0 0 0
40.3253 5.5794 .3252 18.117 2.3172 -.3936 13.9455 2.3131E-12 -4.417E-13 0 0 0 0 0 0
40.7113 5.3579 .2487 18.1877 2.6954 -.586 14.1005 2.1426E-12 -4.417E-13 0 0 0 0 0 0
41.0203 5.2232 .1874 18.2461 3.1051 -.74 14.2075 2.0061E-12 -4.417E-13 0 0 0 0 0 0
41.5053 5.088 .0913 18.3403 3.9401 -.9817 14.3466 1.7919E-12 -4.417E-13 0 0 0 0 0 0
41.6334 5.0679 .0659 18.3655 4.1999 -1.0456 14.3781 1.7353E-12 -4.417E-13 0 0 0 0 0 0
42.2643 5.0636 -.0591 18.4904 5.7177 -1.3601 14.5072 1.4567E-12 -4.417E-13 0 0 0 0 0 0
42.2858 5.0662 -.0634 18.4947 5.7764 -1.3708 14.511 1.4472E-12 -4.417E-13 0 0 0 0 0 0
42.3073 5.069 -.0676 18.4989 5.8356 -1.3815 14.5147 1.4377E-12 -4.417E-13 0 0 0 0 0 0
43.0707 5.2878 -.2189 18.6469 8.2351 -1.762 14.625 1.1006E-12 -4.417E-13 0 0 0 0 0 0
43.5397 5.5367 -.3119 18.7337 9.9975 -1.9957 14.6767 8.9341E-13 -4.417E-13 0 0 0 0 0 0
43.8217 5.7283 -.3677 18.7838 11.1627 -2.1363 14.7034 7.6886E-13 -4.417E-13 0 0 0 0 0 0
43.8413 5.7429 -.3716 18.7872 11.2469 -2.1461 14.7052 7.6018E-13 -4.417E-13 0 0 0 0 0 0
43.8807 5.814 -1.4407 18.794 11.335 -.0866 14.7087 7.4552E-13 -3.04E-13 0 0 0 0 0 0
43.92 5.9706 -2.5514 18.8007 11.2605 1.9753 14.7121 7.3623E-13 -1.685E-13 0 0 0 0 0 0
44.3867 8.6259 -3.1384 18.8658 9.5117 1.7722 14.7573 6.576E-13 -1.685E-13 0 0 0 0 0 0
44.8867 12.0787 -3.7673 18.9148 7.8484 1.5545 14.8152 5.7335E-13 -1.685E-13 0 0 0 0 0 0
45.7977 19.9871 -4.9132 18.9734 5.3772 1.1579 14.9559 4.1983E-13 -1.685E-13 0 0 0 0 0 0
46.2477 24.6637 -5.4792 18.9937 4.4232 .962 15.0483 3.4401E-13 -1.685E-13 0 0 0 0 0 0
46.367 25.9879 -5.6291 18.9984 4.2 .9101 15.0759 3.2392E-13 -1.685E-13 0 0 0 0 0 0
47.3044 37.6465 -6.8081 19.0284 2.8763 .5021 15.349 1.6596E-13 -1.685E-13 0 0 0 0 0 0
47.72 43.5236 -7.331 19.0387 2.5341 .3211 15.5036 9.5924E-14 -1.685E-13 0 0 0 0 0 0
47.7594 43.8343 -.5497 19.0396 2.5249 -.0878 15.5192 8.9009E-14 -1.829E-13 0 0 0 0 0 0
47.7987 43.6098 6.245 19.0405 2.548 -.4989 15.5347 8.1551E-14 -1.962E-13 0 0 0 0 0 0
47.8184 43.3645 6.227 19.0409 2.5678 -.5086 15.5424 7.7693E-14 -1.962E-13 0 0 0 0 0 0
48.0924 40.021 5.9756 19.0475 2.8833 -.6429 15.6432 2.3946E-14 -1.962E-13 0 0 0 0 0 0
48.5944 34.2526 5.5152 19.061 3.6523 -.889 15.7986 -7.453E-14 -1.962E-13 0 0 0 0 0 0
48.9444 30.5043 5.1942 19.0719 4.3346 -1.0605 15.8866 -1.432E-13 -1.962E-13 0 0 0 0 0 0
49.4844 25.1621 4.6989 19.0914 5.6229 -1.3252 15.9962 -2.491E-13 -1.962E-13 0 0 0 0 0 0
51.2977 11.1369 3.0356 19.1999 12.0408 -2.2141 16.2184 -6.048E-13 -1.962E-13 0 0 0 0 0 0
51.5797 9.4977 2.777 19.2273 13.3285 -2.3523 16.2407 -6.601E-13 -1.962E-13 0 0 0 0 0 0
51.5994 9.3883 2.7588 19.2294 13.4216 -2.362 16.2422 -6.64E-13 -1.962E-13 0 0 0 0 0 0
51.6987 8.8498 2.6678 19.2403 13.8953 -2.4106 16.2494 -6.835E-13 -1.962E-13 0 0 0 0 0 0
51.7979 8.3293 2.5768 19.2519 14.3786 -2.4593 16.2565 -7.029E-13 -1.962E-13 0 0 0 0 0 0
52.5611 4.9305 1.8768 19.3712 18.4177 -2.8333 16.3034 -8.526E-13 -1.962E-13 0 0 0 0 0 0
52.6803 4.4961 1.7675 19.3966 19.1002 -2.8918 16.3097 -8.76E-13 -1.962E-13 0 0 0 0 0 0
52.8156 4.0345 1.6433 19.4283 19.8918 -2.9581 16.3167 -9.026E-13 -1.962E-13 0 0 0 0 0 0
52.9438 3.6284 1.5258 19.4618 20.6579 -3.0209 16.323 -9.277E-13 -1.962E-13 0 0 0 0 0 0
53.0994 3.1756 1.383 19.5077 21.6105 -3.0972 16.3304 -9.582E-13 -1.962E-13 0 0 0 0 0 0
53.1987 2.9174 1.2207 19.5403 22.1766 -2.6025 16.3349 -9.789E-13 -2.199E-13 0 0 0 0 0 0
53.2979 2.6902 1.0702 19.5758 22.6419 -2.0825 16.3393 -1.002E-12 -2.441E-13 0 0 0 0 0 0
53.3177 2.6482 1.0545 19.5832 22.7243 -2.0872 16.3402 -1.007E-12 -2.441E-13 0 0 0 0 0 0
54.5994 1.2553 .0323 20.3628 28.462 -2.3893 16.3906 -1.32E-12 -2.441E-13 0 0 0 0 0 0
54.6987 1.374 -1.2643 20.4396 26.4044 22.4909 16.3942 -1.405E-12 -1.48E-12 0 0 0 0 0 0
54.7979 1.7881 -3.034 20.5039 20.064 39.4502 16.3984 -1.618E-12 -2.852E-12 0 0 0 0 0 0
54.8177 1.9102 -3.1467 20.5146 18.5357 37.9169 16.3995 -1.674E-12 -2.852E-12 0 0 0 0 0 0
55.3967 7.4674 -6.4512 20.6685 .6484 -7.0236 19.3733 -3.326E-12 -2.852E-12 0 0 0 0 0 0
55.6217 10.6593 -7.7353 20.6938 7.7384 -24.4875 19.4739 -3.967E-12 -2.852E-12 0 0 0 0 0 0
56.0995 19.3541 -10.4622 20.727 48.8582 -61.5731 19.4984 -5.33E-12 -2.852E-12 0 0 0 0 0 0
56.1987 20.4991 -.889 20.732 64.6546 -100.1491 19.5002 -5.482E-12 -2.081E-13 0 0 0 0 0 0
56.298 19.6957 8.8534 20.7369 89.9091 -158.4045 19.5015 -5.371E-12 2.4459E-12 0 0 0 0 0 0
56.3177 19.3475 8.7738 20.7379 96.2766 -163.918 19.5017 -5.323E-12 2.4459E-12 0 0 0 0 0 0
57.5995 3.4774 3.6077 20.8948 975.0026 -521.6467 19.5059 -2.188E-12 2.4459E-12 0 0 0 0 0 0
57.6987 2.8074 3.1483 20.9266 1079.0891 -526.3985 19.506 -1.947E-12 2.402E-12 0 0 0 0 0 0
57.798 2.2258 2.7155 20.9663 1183.6783 -526.709 19.5061 -1.711E-12 2.3631E-12 0 0 0 0 0 0
57.8177 2.12 2.6412 20.9754 1204.5801 -531.3391 19.5061 -1.664E-12 2.3631E-12 0 0 0 0 0 0
58.5335 .2665 -.0516 22.2359 2085.2683 -699.0934 19.5066 2.7457E-14 2.3631E-12 0 0 0 0 0 0
59.1995 2.0041 -2.5573 23.3823 3120.4188 -855.1865 19.5068 1.6013E-12 2.3631E-12 0 0 0 0 0 0
59.2987 2.5373 -2.8065 23.4263 3308.2661 -1040.6522 19.5069 1.8317E-12 2.2787E-12 0 0 0 0 0 0
59.398 3.1146 -3.001 23.4616 3534.8808 -1246.4437 19.5069 2.0532E-12 2.1833E-12 0 0 0 0 0 0
59.4177 3.2344 -3.0645 23.4678 3584.2993 -1255.1263 19.5069 2.0963E-12 2.1833E-12 0 0 0 0 0 0
60.2695 10.7855 -5.8008 23.6125 6041.2797 -1629.483 19.5071 3.9559E-12 2.1833E-12 0 0 0 0 0 0
60.4995 13.6238 -6.5397 23.6315 6814.092 -1730.5707 19.5071 4.4581E-12 2.1833E-12 0 0 0 0 0 0
60.6995 16.3682 -7.1823 23.6449 7523.9008 -1818.4732 19.5072 4.8947E-12 2.1833E-12 0 0 0 0 0 0
60.7987 18.076 -10.1082 23.6507 7777.9443 -728.997 19.5072 5.1472E-12 2.9105E-12 0 0 0 0 0 0
60.898 20.4196 -13.6189 23.6558 7810.5295 402.2431 19.5072 5.4738E-12 3.6796E-12 0 0 0 0 0 0
60.9177 20.9612 -13.7993 23.6568 7794.645 401.8338 19.5072 5.5465E-12 3.6796E-12 0 0 0 0 0 0
61.3947 36.2036 -18.1553 23.6741 7416.0089 391.9525 19.5072 7.3017E-12 3.6796E-12 0 0 0 0 0 0
61.5995 44.0212 -20.0252 23.6792 7256.369 387.7108 19.5073 8.0551E-12 3.6796E-12 0 0 0 0 0 0
61.6987 48.7612 -27.9642 23.6814 7076.4231 1416.7304 19.5073 8.4792E-12 4.877E-12 0 0 0 0 0 0
61.798 55.2293 -37.5207 23.6833 6699.3357 2364.5862 19.5073 9.0255E-12 6.1446E-12 0 0 0 0 0 0
61.8177 56.7217 -38.0246 23.6837 6606.2366 2348.0986 19.5073 9.1469E-12 6.1446E-12 0 0 0 0 0 0
62.1067 80.8304 -45.3965 23.6879 5318.7423 2106.8991 19.5074 1.0923E-11 6.1446E-12 0 0 0 0 0 0
62.8995 168.838 -65.6183 23.6947 2502.7461 1445.2654 19.5076 1.5794E-11 6.1446E-12 0 0 0 0 0 0
62.9987 178.7971 -34.1016 23.6953 2267.8611 936.2578 19.5076 1.6254E-11 3.1062E-12 0 0 0 0 0 0
63.098 182.2067 -.0378 23.6958 2126.3972 498.0594 19.5077 1.6408E-11 9.465E-15 0 0 0 0 0 0
63.1177 182.2082 -.038 23.6959 2106.7644 495.7548 19.5077 1.6409E-11 9.465E-15 0 0 0 0 0 0
63.5087 182.2387 -.0401 23.6981 1736.9543 450.1455 19.5079 1.6412E-11 9.465E-15 0 0 0 0 0 0
63.5587 182.2427 -.0404 23.6984 1692.1967 444.308 19.5079 1.6413E-11 9.465E-15 0 0 0 0 0 0
63.6088 182.2468 -.0407 23.6986 1648.0234 438.4705 19.5079 1.6413E-11 9.465E-15 0 0 0 0 0 0
63.7086 182.2549 -.0412 23.6992 1561.6734 426.8288 19.508 1.6414E-11 9.465E-15 0 0 0 0 0 0
64.0195 182.2811 -.0429 23.7009 1307.5287 390.5566 19.5082 1.6417E-11 9.465E-15 0 0 0 0 0 0
64.1187 178.8859 34.0386 23.7014 1254.9113 142.9366 19.5083 1.6264E-11 -3.089E-12 0 0 0 0 0 0
64.218 168.9371 65.5777 23.702 1250.0722 -93.8728 19.5084 1.5806E-11 -6.13E-12 0 0 0 0 0 0
64.2377 166.3561 65.0747 23.7021 1253.7839 -94.0121 19.5084 1.5685E-11 -6.13E-12 0 0 0 0 0 0
64.5037 133.5379 58.3019 23.7039 1304.2972 -95.8874 19.5086 1.4054E-11 -6.13E-12 0 0 0 0 0 0
64.6187 120.4652 55.3738 23.7048 1326.4445 -96.6982 19.5087 1.3349E-11 -6.13E-12 0 0 0 0 0 0
64.7337 108.066 52.4457 23.7058 1348.7783 -97.5089 19.5088 1.2644E-11 -6.13E-12 0 0 0 0 0 0
65.8195 24.1956 24.8005 23.7271 1568.831 -105.1636 19.5095 5.989E-12 -6.13E-12 0 0 0 0 0 0
65.9187 20.1601 16.2668 23.7316 1542.7794 365.0319 19.5096 5.4676E-12 -4.403E-12 0 0 0 0 0 0
66.018 17.6081 9.704 23.7369 1426.8004 791.8755 19.5096 5.1106E-12 -2.809E-12 0 0 0 0 0 0
66.0377 17.2268 9.5973 23.738 1395.685 783.1933 19.5097 5.0551E-12 -2.809E-12 0 0 0 0 0 0
67.7195 .2327 .5077 24.7352 4.4224 44.075 19.5311 3.3119E-13 -2.809E-12 0 0 0 0 0 0
67.8187 .1802 .0164 25.2386 .004 .8491 20.3746 4.9175E-14 -2.861E-12 0 0 0 0 0 0
67.918 .2263 -.4766 25.7497 4.0791 -42.2832 22.625 -2.342E-13 -2.836E-12 0 0 0 0 0 0
67.9377 .2473 -.5838 25.8333 5.9209 -50.9466 22.6291 -2.902E-13 -2.836E-12 0 0 0 0 0 0
68.3623 1.7207 -2.8862 26.5422 128.2517 -237.1553 22.6445 -1.494E-12 -2.836E-12 0 0 0 0 0 0
68.6688 4.0001 -4.5473 26.6593 314.5373 -371.005 22.646 -.0039 -.0249 0 0 1.3313E-18 -2.651E-21 0 0
68.9752 7.2922 -6.2087 26.716 582.9992 -503.9703 22.6467 -.0153 -.0499 -5.509E-24 -1.797E-23 1.3309E-18 0 -3.852E-34 7.4926E-37
69.6196 17.5452 -9.7032 26.773 1413.3674 -784.6915 22.6474 -.0474 -.0499 -1.709E-23 -1.797E-23 1.3309E-18 4.5294E-38 -3.847E-34 7.508E-37
69.7188 20.0934 -16.228 26.7783 1528.459 -363.4034 22.6475 -.0531 -.065 -1.861E-23 -1.258E-23 1.3508E-18 4.0281E-19 -4.742E-34 1.4505E-34
69.8181 24.1166 -24.7124 26.7829 1554.7738 100.9009 22.6476 -.0604 -.0821 -1.957E-23 -6.816E-24 1.4112E-18 8.177E-19 -4.6E-34 2.8658E-34
69.8378 25.1028 -25.2135 26.7837 1550.7897 100.7716 22.6476 -.062 -.0821 -1.971E-23 -6.816E-24 1.4274E-18 8.177E-19 -5.711E-34 3.3854E-34
70.9038 107.6809 -52.2519 26.8042 1343.3866 93.7905 22.6483 -.1495 -.0821 -2.697E-23 -6.816E-24 2.2991E-18 8.177E-19 -2.102E-34 3.3854E-34
71.0188 120.0343 -55.1688 26.8052 1321.9014 93.0374 22.6484 -.159 -.0821 -2.776E-23 -6.816E-24 2.3931E-18 8.177E-19 -1.713E-34 3.3854E-34
71.1338 133.0586 -58.0857 26.8061 1300.5894 92.2842 22.6485 -.1684 -.0821 -2.854E-23 -6.816E-24 2.4871E-18 8.177E-19 -1.323E-34 3.3854E-34
71.4196 168.3264 -65.3338 26.808 1248.3828 90.4129 22.6487 -.1918 -.0821 -3.049E-23 -6.816E-24 2.7208E-18 8.177E-19 -3.56E-35 3.3854E-34
71.5188 178.2604 -34.1392 26.8086 1253.7184 -144.5093 22.6488 -.1982 -.0453 -3.145E-23 -1.263E-23 2.7763E-18 3.0009E-19 3.4985E-35 2.9424E-34
71.6181 181.7109 -.4122 26.8091 1306.4664 -390.2852 22.6489 -.2008 -.0078 -3.3E-23 -1.868E-23 2.7802E-18 -2.231E-19 -1.656E-34 2.5602E-34
71.6378 181.7272 -.4123 26.8092 1321.9321 -392.5885 22.6489 -.201 -.0078 -3.337E-23 -1.868E-23 2.7758E-18 -2.231E-19 1.9735E-34 2.4074E-34
72.0437 182.063 -.4149 26.8115 1659.8533 -439.9144 22.6492 -.2041 -.0078 -4.096E-23 -1.868E-23 2.6852E-18 -2.231E-19 2.9507E-34 2.4074E-34
72.0788 182.0921 -.4151 26.8116 1690.8701 -444.0056 22.6492 -.2044 -.0078 -4.161E-23 -1.868E-23 2.6774E-18 -2.231E-19 1.0411E-34 2.2269E-34
72.1139 182.1213 -.4154 26.8118 1722.1739 -448.0968 22.6492 -.2047 -.0078 -4.227E-23 -1.868E-23 2.6695E-18 -2.231E-19 7.814E-36 2.2269E-34
72.2286 182.2167 -.4161 26.8125 1826.5391 -461.4747 22.6493 -.2056 -.0078 -4.441E-23 -1.868E-23 2.6439E-18 -2.231E-19 -7.075E-35 2.2269E-34
72.5396 182.4761 -.4181 26.8142 2124.7776 -497.7259 22.6494 -.208 -.0078 -5.022E-23 -1.868E-23 2.5746E-18 -2.231E-19 -1.507E-36 2.2269E-34
72.6388 179.174 33.4828 26.8147 2265.8587 -932.649 22.6495 -.2068 .0313 -5.255E-23 -2.833E-23 2.5285E-18 -7.036E-19 2.1596E-34 2.5502E-34
72.7381 169.3488 64.9 26.8153 2499.6439 -1437.6237 22.6495 -.2018 .0698 -5.586E-23 -3.85E-23 2.4353E-18 -1.171E-18 4.0796E-34 2.6705E-34
72.7578 166.7943 64.4085 26.8154 2556.7671 -1453.9576 22.6495 -.2004 .0698 -5.662E-23 -3.85E-23 2.4122E-18 -1.171E-18 5.8349E-34 2.8889E-34
72.9808 139.3052 58.8608 26.8169 3246.3493 -1638.3392 22.6496 -.1849 .0698 -6.521E-23 -3.85E-23 2.1511E-18 -1.171E-18 6.4791E-34 2.8889E-34
73.8396 56.5576 37.4969 26.8265 6669.9622 -2348.3775 22.6498 -.125 .0698 -9.827E-23 -3.85E-23 1.1454E-18 -1.171E-18 8.9599E-34 2.8889E-34
73.9388 50.1248 27.6377 26.8284 7041.8776 -1380.6548 22.6498 -.1189 .0517 -1.014E-22 -2.367E-23 1.0374E-18 -1.009E-18 9.1279E-34 1.549E-34
74.0381 45.4779 19.4147 26.8305 7212.6888 -331.9928 22.6498 -.1147 .0344 -1.03E-22 -8.494E-24 9.4462E-19 -8.624E-19 9.7257E-34 2.4724E-35
74.0578 44.7141 19.2505 26.8309 7225.8118 -332.2947 22.6498 -.114 .0344 -1.031E-22 -8.494E-24 9.2758E-19 -8.624E-19 9.8751E-34 2.4074E-35
74.4488 30.9319 16.0016 26.8414 7487.9761 -338.2692 22.6499 -.1006 .0344 -1.064E-22 -8.494E-24 5.9042E-19 -8.624E-19 9.9693E-34 2.4074E-35
74.4988 29.3513 15.5857 26.8431 7521.8677 -339.0338 22.6499 -.0988 .0344 -1.069E-22 -8.494E-24 5.4727E-19 -8.624E-19 1.0347E-33 5.1158E-35
74.5489 27.8123 15.1699 26.8449 7555.8358 -339.7985 22.6499 -.0971 .0344 -1.073E-22 -8.494E-24 5.0412E-19 -8.624E-19 1.2061E-33 4.8148E-35
74.6486 24.8674 14.3406 26.8487 7623.8063 -341.3235 22.6499 -.0937 .0344 -1.081E-22 -8.494E-24 4.1806E-19 -8.624E-19 1.2552E-33 4.8148E-35
74.9596 16.7531 11.7568 26.8639 7837.5349 -346.0748 22.6499 -.083 .0344 -1.108E-22 -8.494E-24 1.4993E-19 -8.624E-19 1.2701E-33 4.8148E-35
75.0588 14.7267 8.7614 26.8702 7790.8459 814.2053 22.6499 -.0802 .0223 -1.108E-22 7.9681E-24 6.5234E-20 -8.464E-19 1.2725E-33 -1.291E-34
75.1581 13.2407 6.2847 26.8773 7517.4758 1926.7569 22.65 -.0786 .0105 -1.092E-22 2.4313E-23 -1.85E-20 -8.43E-19 1.2615E-33 -2.245E-34
75.1778 12.9936 6.2243 26.8789 7441.5423 1917.0012 22.65 -.0784 .0105 -1.087E-22 2.4313E-23 -3.515E-20 -8.43E-19 1.2564E-33 -2.287E-34
75.4438 9.8987 5.4107 26.9023 6456.6395 1785.6411 22.65 -.0756 .0105 -1.023E-22 2.4313E-23 -2.594E-19 -8.43E-19 1.1955E-33 -2.287E-34
75.5588 8.6947 5.059 26.9147 6052.473 1728.85 22.65 -.0743 .0105 -9.946E-23 2.4313E-23 -3.563E-19 -8.43E-19 1.1692E-33 -2.287E-34
75.6738 7.5716 4.7072 26.9289 5661.3685 1672.059 22.65 -.0731 .0105 -9.667E-23 2.4313E-23 -4.533E-19 -8.43E-19 1.1429E-33 -2.287E-34
76.7024 1.1238 1.5611 27.2893 2744.0256 1164.0855 22.6503 -.0623 .0105 -7.166E-23 2.4313E-23 -1.32E-18 -8.43E-19 9.0767E-34 -2.287E-34
77.0089 .4544 .6241 27.7324 2075.9707 1014.2452 22.6504 -.0614 -.0046 2.0018E-20 4.4966E-21 -1.871E-18 3.5249E-22 7.9271E-34 -2.414E-34
77.3153 .359 -.3129 28.5936 1500.9252 863.5012 22.6506 -.0651 -.0197 4.5979E-20 9.1346E-21 -1.871E-18 0 8.89E-34 -2.42E-34
77.7597 1.2411 -1.6721 29.3221 831.5753 642.738 22.651 -.0739 -.0197 5.0038E-20 9.1346E-21 -1.871E-18 5.6233E-39 8.5542E-34 -2.42E-34
77.8589 1.563 -1.5424 29.3931 729.6082 394.0666 22.6511 -.0748 9.23329E-4 5.1637E-20 2.3152E-20 -1.845E-18 5.1463E-19 9.5208E-34 2.2076E-35
77.9581 1.8423 -1.2451 29.4514 672.2626 189.0254 22.6513 -.0737 .0215 5.4655E-20 3.7806E-20 -1.769E-18 1.0152E-18 9.881E-34 2.6764E-34
77.9779 1.892 -1.2725 29.462 664.8149 187.9753 22.6513 -.0733 .0215 5.5402E-20 3.7806E-20 -1.749E-18 1.0152E-18 1.0651E-33 2.9491E-34
78.4025 3.2222 -1.8603 29.6348 514.7671 165.4071 22.652 -.0641 .0215 7.1455E-20 3.7806E-20 -1.318E-18 1.0152E-18 1.1903E-33 2.9491E-34
78.7089 4.495 -2.2846 29.7154 417.7461 150.0604 22.6527 -.0617 -.0054 1.6955E-19 7.8896E-20 -1.318E-18 -8.155E-23 1.2812E-33 2.9219E-34
79.0154 6.0212 -2.7091 29.7743 330.8331 134.2949 22.6535 -.0675 -.0323 2.872E-19 1.1851E-19 -1.318E-18 0 1.3775E-33 2.8907E-34
79.256 7.405 -3.0423 29.8104 269.3652 121.1778 22.6543 -.0752 -.0323 3.1572E-19 1.1851E-19 -1.318E-18 4.182E-38 1.4418E-33 2.8907E-34
79.4597 8.7022 -3.3245 29.8357 222.2474 110.0696 22.6551 -.0818 -.0323 3.3986E-19 1.1851E-19 -1.318E-18 4.182E-38 1.5007E-33 2.8907E-34
79.559 9.4662 -4.3989 29.8467 198.894 124.4671 22.6556 -.0854 -.0406 3.4993E-19 8.4219E-20 -1.324E-18 -1.312E-19 1.466E-33 1.4438E-34
79.6582 10.46 -5.6474 29.8567 173.1606 133.9716 22.6561 -.0899 -.0493 3.5655E-19 4.9094E-20 -1.344E-18 -2.636E-19 1.4493E-33 -2.35E-35
79.678 10.6844 -5.7095 29.8585 167.9079 131.9238 22.6563 -.0909 -.0493 3.5752E-19 4.9094E-20 -1.349E-18 -2.636E-19 1.4435E-33 -4.815E-35
80.032 15.1208 -6.8227 29.8864 87.4957 95.2291 22.6592 -.1083 -.0493 3.749E-19 4.9094E-20 -1.443E-18 -2.636E-19 1.4265E-33 -4.815E-35
80.169 17.0492 -7.2535 29.8949 63.3485 81.028 22.661 -.1151 -.0493 3.8163E-19 4.9094E-20 -1.479E-18 -2.636E-19 1.4199E-33 -4.815E-35
80.316 19.2497 -7.7158 29.9031 41.7662 65.7904 22.6639 -.1224 -.0493 3.8884E-19 4.9094E-20 -1.517E-18 -2.636E-19 1.4128E-33 -4.815E-35
81.1597 34.5088 -10.369 29.9358 4.5403 -21.6711 25.7442 -.164 -.0493 4.3027E-19 4.9094E-20 -1.74E-18 -2.636E-19 1.3722E-33 -4.815E-35
81.259 37.1164 -16.0309 29.9386 9.7518 -30.5886 25.759 -.1701 -.0735 4.3204E-19 -1.344E-20 -1.779E-18 -5.181E-19 1.3391E-33 -2.188E-34
81.3582 40.9339 -22.6192 29.9411 16.5673 -37.7555 25.7668 -.1786 -.0987 4.2761E-19 -7.578E-20 -1.843E-18 -7.801E-19 1.4127E-33 -4.231E-34
81.378 41.8325 -22.8666 29.9416 18.0927 -39.4564 25.768 -.1806 -.0987 4.2611E-19 -7.578E-20 -1.858E-18 -7.801E-19 1.3396E-33 -4.333E-34
85.191 398.2888 -70.6179 29.9711 1570.8183 -367.7625 25.7906 -.5571 -.0987 1.3715E-19 -7.578E-20 -4.833E-18 -7.801E-19 -3.127E-34 -4.333E-34
85.594 457.2407 -75.6648 29.9721 1881.2185 -402.4615 25.7908 -.5969 -.0987 1.0661E-19 -7.578E-20 -5.147E-18 -7.801E-19 -4.873E-34 -4.333E-34
85.709 474.8092 -77.105 29.9723 1974.9234 -412.3632 25.7909 -.6082 -.0987 9.7897E-20 -7.578E-20 -5.237E-18 -7.801E-19 -5.372E-34 -4.333E-34
85.824 492.709 -78.5451 29.9726 2070.9056 -422.2649 25.7909 -.6196 -.0987 8.9182E-20 -7.578E-20 -5.327E-18 -7.801E-19 -5.87E-34 -4.333E-34
85.985 518.3251 -80.5614 29.9729 2209.1067 -436.1273 25.791 -.6355 -.0987 7.6981E-20 -7.578E-20 -5.452E-18 -7.801E-19 -6.568E-34 -4.333E-34
86.084 534.399 -81.8012 29.9731 2296.3038 -444.6514 25.7911 -.6453 -.0987 6.9479E-20 -7.578E-20 -5.53E-18 -7.801E-19 -6.997E-34 -4.333E-34
86.134 542.6105 -82.4274 29.9732 2340.9842 -448.9564 25.7911 -.6502 -.0987 6.569E-20 -7.578E-20 -5.569E-18 -7.801E-19 -1.18E-33 -4.815E-34
86.184 550.8845 -83.0535 29.9733 2386.0951 -453.2615 25.7911 -.6551 -.0987 6.1901E-20 -7.578E-20 -5.608E-18 -7.801E-19 -1.56E-33 -3.852E-34
86.4869 602.356 -86.8474 29.9738 2668.6286 -479.3461 25.7912 -.685 -.0987 3.8943E-20 -7.578E-20 -5.844E-18 -7.801E-19 -2.043E-33 -3.852E-34
86.709 591.3689 134.967 29.9742 3122.6972 -1621.1662 25.7913 -.6788 .1549 2.3493E-20 -6.433E-20 -5.777E-18 1.3814E-18 -2.304E-33 -1.245E-33
86.931 488.9282 313.6878 29.9746 4188.6066 -3309.7095 25.7914 -.6172 .396 9.9832E-21 -5.818E-20 -5.239E-18 3.4305E-18 -2.52E-33 -2.247E-33
87.053 415.4128 289.1443 29.9748 5034.738 -3628.637 25.7914 -.5689 .396 2.8876E-21 -5.818E-20 -4.82E-18 3.4305E-18 -2.184E-33 -2.119E-33
87.35 261.4139 229.3705 29.9757 7420.8353 -4405.3609 25.7914 -.4513 .396 -1.439E-20 -5.818E-20 -3.802E-18 3.4305E-18 -2.813E-33 -2.119E-33
87.449 217.9711 209.4459 29.9762 8318.7287 -4664.2688 25.7915 -.4121 .396 -2.015E-20 -5.818E-20 -3.462E-18 3.4305E-18 -3.023E-33 -2.119E-33
87.499 197.5296 199.383 29.9764 8791.6936 -4795.0304 25.7915 -.3923 .396 -2.306E-20 -5.818E-20 -3.29E-18 3.4305E-18 -2.985E-33 -1.926E-33
87.549 178.0945 189.32 29.9767 9277.7348 -4925.792 25.7915 -.3725 .396 -2.597E-20 -5.818E-20 -3.119E-18 3.4305E-18 -3.37E-33 -1.926E-33
87.8365 85.8708 131.4581 29.979 12326.2305 -5677.6712 25.7915 -.2586 .396 -4.27E-20 -5.818E-20 -2.133E-18 3.4305E-18 -4.268E-33 -2.119E-33
88.074 43.1081 58.2023 29.983 12992.2737 3026.1731 25.7915 -.1832 .2475 -5.274E-20 -2.523E-20 -1.471E-18 2.2194E-18 -4.342E-33 6.166E-34
88.3115 24.4189 24.6875 29.9905 9751.5626 9875 25.7915 -.1379 .1396 -5.436E-20 1.1749E-20 -1.05E-18 1.3723E-18 -3.898E-33 3.6456E-33
88.418 19.444 22.025 29.9954 7761.6101 8810 25.7915 -.123 .1396 -5.311E-20 1.1749E-20 -9.037E-19 1.3723E-18 -3.366E-33 3.6595E-33
88.872 4.5982 10.675 30.0434 1823.2901 4270 25.7917 -.0596 .1396 -4.778E-20 1.1749E-20 -2.807E-19 1.3723E-18 -1.704E-33 3.6595E-33
89.1478 .6115 3.78 30.2087 228.6145 1512 25.7921 -.0211 .1396 -4.454E-20 1.1749E-20 9.7806E-20 1.3723E-18 -6.952E-34 3.6595E-33
89.2288 .1632 1.755 30.4679 49.2805 702 25.7929 -.0098 .1396 -4.359E-20 1.1749E-20 2.0896E-19 1.3723E-18 -3.987E-34 3.6595E-33
89.299 .04 -3.1977E-7 31.5208 1E-4 9.5185E-10 27.3622 -1.586E-14 .1396 -4.276E-20 1.1749E-20 3.053E-19 1.3723E-18 -1.419E-34 3.6595E-33
89.721 4.4921 -10.55 32.9971 1780.8401 -4220 28.9328 .0589 .1396 -3.78E-20 1.1749E-20 8.844E-19 1.3723E-18 1.4024E-33 3.6595E-33
89.924 9.8056 -15.625 33.0277 3906.2501 -6250 28.9329 .0872 .1396 -3.542E-20 1.1749E-20 1.163E-18 1.3723E-18 2.1453E-33 3.6595E-33
90.226 21.5232 -23.175 33.0485 8593.2901 -9270 28.9329 .1294 .1396 -3.187E-20 1.1749E-20 1.5774E-18 1.3723E-18 3.2505E-33 3.6595E-33
90.799 56.29 -37.5 33.065 22500.0001 -15000 28.933 .2094 .1396 -2.514E-20 1.1749E-20 2.3637E-18 1.3723E-18 5.3473E-33 3.6595E-33
91.4774 115.8383 -49.3805 33.0733 47502.5578 -21829.7 28.933 .3596 .3018 -2.171E-18 -8.959E-19 3.2541E-18 1.2459E-18 7.8339E-33 3.6651E-33
92.1558 187.5901 -55.3049 33.0779 81739.7421 -28722.131 28.933 .6168 .4548 -6.697E-18 -2.196E-18 4.0456E-18 1.0816E-18 1.032E-32 3.676E-33
92.7904 264.3463 -65.6548 33.0808 122255.554 -35126.455 28.933 .9054 .4548 -8.091E-18 -2.196E-18 4.7319E-18 1.0816E-18 1.2653E-32 3.676E-33
92.9364 283.8652 -68.036 33.0813 132727.612 -36599.964 28.933 .9718 .4548 -8.412E-18 -2.196E-18 4.8898E-18 1.0816E-18 1.319E-32 3.676E-33
94.1558 474.0507 -87.9254 33.0846 236998.387 -48907.191 28.933 1.5263 .4548 -1.109E-17 -2.196E-18 6.2087E-18 1.0816E-18 1.7672E-32 3.676E-33
95.3058 697.8493 -106.6821 33.0866 362832.299 -60513.601 28.933 2.0493 .4548 -1.362E-17 -2.196E-18 7.4525E-18 1.0816E-18 2.19E-32 3.676E-33
