.2463	-610.6327	-156.1723
.7573	0	0
2.6663	-249.8962	157.4524
3.1773	416.7289	58.31681
5.0863	485.416	-247.8297
5.5973	329.335	-270.9908
7.5063	-697.8739	-208.6603
8.0173	79.62309	293.6774
9.9263	1551.677	434.8942
10.4373	0	0
12.3463	-463.2862	260.5125
12.8573	-637.3412	305.1794
14.7663	-756.3998	-244.6529
15.2773	-550.2413	-198.0841
17.1863	930.8348	-162.2969
17.6973	305.486	400.4534
19.2723	729.8173	-452.9913
19.8773	-227.4434	-169.5515
21.4223	-129.0872	-405.0849
25.0843	0	0
26.8593	0	0
28.5743	-160.5555	-460.5369
32.2993	175.8346	-534.7801
32.9193	-1173.889	0
35.5693	119.1982	244.5732
38.5593	-462.8358	131.7384
40.8993	-894.6296	315.3972
43.5993	-432.2368	-320.4748
45.249205	-885.8553	-622.5781
45.949205	-1256.846	-347.0574
46.949205	0	0
48.497205	2475.348	28.51899
50.206205	0	0
50.677205	-278.402	-230.1371
52.586205	-511.6298	49.70945
53.097205	-35.96006	109.9753
55.006205	332.6815	413.323
55.517205	1334.503	-101.3811
57.426205	33.59484	44.85263
57.937205	-748.5042	-284.9469
59.846205	-407.8904	44.64959
60.357205	334.9196	-393.9944
62.266205	250.385	-77.26112
62.777205	1179.093	-208.417
64.686205	690.066	59.95219
65.197205	-851.3516	-15.46254
67.106205	0	0
67.617205	940.4762	-1.19604
69.526205	-384.3482	-31.60475
70.037205	69.51891	-228.625
71.946205	72.36936	277.3576
72.457205	602.5579	9.497557
74.366205	647.4572	444.6109
74.877205	1944.796	149.3817
76.786205	996.7195	167.3432
77.297205	-976.099	-137.8152
79.206205	-627.9753	250.6275
79.717205	0	0
81.626205	342.7389	602.6202
82.137205	1522.809	458.5439
84.046205	3475.444	-1.207132
84.557205	-408.2076	327.5541
86.466205	-422.5378	231.0715
86.977205	-6.924061	-58.18696
88.552205	45.39333	-104.788
89.157205	0	0
90.702205	492.1738	98.9708
93.011705	-1913.351	-717.6805
94.699205	-1969.488	429.9487
97.879205	-96.6537	136.9464
99.566705	0	0
101.579205	-56.82613	-118.3839
102.199205	-107.485	468.1011
104.849205	739.5404	-591.3092
107.839205	1239.861	-28.54886
110.179205	1027.443	-183.4227
112.879205	0	0
114.52911	-369.2511	68.31574
115.22911	-258.5651	486.0667
116.22911	1673.408	-426.3725
117.77711	-1453.427	557.2846
119.48611	0	0
119.95711	2095.164	-333.7255
121.86611	1065.114	-153.0846
122.37711	357.709	44.41602
124.28611	0	0
124.79711	0	0
126.70611	0	0
127.21711	1262.229	-264.2671
129.12611	0	0
129.63711	-421.6906	3.60051
131.54611	-86.1212	225.1094
132.05711	296.9161	-113.4665
133.96611	369.4821	-115.8824
134.47711	0	0
136.38611	146.7767	-176.3334
