 CalibData = {{"MQF1X",
  {-195.50060195922853,41.40970235269482,3.548929595947257,25.287351509227197,4.814129638671872,25.411709298998375},
  {257.7353790283203,6.954337294812014,-20.313854217529297,5.641461347212403,-3.1342674255371037,4.919385554954748}},
 {"MQD2X",{238.19729614257812,14.268297933067352,4.408950042724612,9.691989987646366,1.0878410339355469,9.367831522090032},
  {209.7031204223633,10.369642134638942,-154.1530236244202,8.255740237477902,3.5414794921875057,6.722809232525014}},
 {"MQF3X",{-61.50714302062988,18.041889565631305,10.073581981658933,13.803781167501059,-.4133586883544922,12.2281222009895},
  {64.42727775573731,7.83728178871178,-61.03958324939013,5.782078577033795,-.7041034698486328,4.6857972070542}},
 {"MQF4X",{340.0900817871094,12.696022461830466,2.878660583496071,11.203962806945444,-4.49639892578125,12.683218924620927},
  {114.19622116088868,5.161987367065754,-27.622608184814453,5.79042216455193,.5534706115722656,5.108770372564411}},
 {"MQD5X",{-116.88942871093751,11.653548678235572,2.401827239990233,10.239344597344044,1.1616207122802749,10.288590936261464},
  {-11.397019577026368,3.3464512165670866,-40.0101321220398,3.9745655202994725,-3.147657865285873,4.68767632297796}},
 {"MQF6X",{333.9709411621094,40.19217664143554,-3.9646850585937727,27.67948806099711,-2.040425109863264,21.98281650606307},
  {.7531718097627164,6.0102108328047805,7.90286957025528,2.6665268725668945,-.17868744134902959,2.8620984785722308}},
 {"MQF7X",{-71.03603286743164,10.336686945071246,-1.3853254318237305,5.555745724111434,2.5872509002685575,4.828255715118433},
  {-108.70802078247071,5.732617840443299,139.59014053344725,5.270191879528457,-.3663337707519503,6.26115763991798}},
 {"MQD8X",{35.437057685852054,3.4005350064244406,1.1595441818237315,3.0374868651853464,-1.985079669952393,3.355630849461222},
  {-576.0460083007813,8.467950117326684,296.2515472412109,3.5263414049368085,-.9044158935546989,3.843877034618866}},
 {"MQF9X",{-132.96322021484374,7.583334059028224,2.117849731445304,4.6481021254677835,-.9015064239501953,4.747283709505369},
  {-146.77923431396485,3.17574372057108,111.55692901611329,1.647995996285025,-1.5220634460449247,1.5878545891545892}},
 {"MQD10X",{-125.3528205871582,1.7096523925954308,69.62506504058838,.8045176359648076,.6034862518310575,1.1012440161981687},
  {-173.99828186035157,1.6490120119976324,24.358654785156247,.7921491173770218,-.029328918457025566,.840734944467423}},
 {"MQF11X",{-91.63491287231446,7.143697749967829,214.04693603515625,4.1154484084367695,2.4337902069091797,4.23881041994376},
  {106.02563705444337,1.3374301242095308,-60.19831104278565,.7658174531918689,.23143844604492614,.6372410692787545}},
 {"MQD12X",{24.532773208618167,2.854749792643239,57.257096481323245,2.034132767928067,.871662902832032,1.8330881398636893},
  {84.45839462280274,4.781904425427841,-213.02482414245605,2.418032953017057,1.119192504882811,2.584444123057435}},
 {"MQF13X",{16.1232994556427,5.931077735334092,10.302495068311693,3.087323002802677,.3566931486129761,2.9586352800649323},
  {-54.12561798095703,4.398340689610816,-134.509024810791,2.7931340016694564,-1.129159545898439,3.381244902762116}},
 {"MQD14X",{33.46649913787842,1.5243511729633543,-67.40997009277343,1.2950823139183878,-1.1580294609069846,1.648271859912099},
  {427.662387084961,8.048898145489229,-171.1793182373047,4.294024060088506,-2.667985534667963,3.971579105039722}},
 {"MQF15X",{0,0,0,0,0,0},{0,0,0,0,0,0}},
 {"MQD16X",{34.61479721069336,2.86848744007523,-57.13045959472657,2.0601260096892324,-.9592494010925279,1.810972144617107},
  {-3.8098225951194764,1.5374895182932247,-43.32968769073487,.6411895829696895,-18.516793870925902,1.0662998443544902}},
 {"MQF17X",{-82.36316070556641,2.629587372817892,4.457315063476564,2.6337761394307804,-.9596969604492216,2.335020665379587},
  {8.718219995498657,1.4162200236444713,56.9489351272583,.6342001543069297,-44.03538455963135,.5793674880127981}},
 {"MQD18X",{-10.804867696762086,4.342215967682262,116.15548248291016,2.7106903503065727,1.5358842611312866,2.666800696947802},
  {52.65406112670899,7.660670443743807,331.91112213134767,3.3565907734833047,-182.63132057189944,4.169610744589627}},
 {"MQF19X",{65.21675605773926,11.031849536339688,254.98122863769532,7.203902537376429,29.349934101104736,6.795400364409434},
  {102.8563446044922,4.296290517373343,182.8485206604004,1.7078289074817312,-91.51624422669411,2.274697487574623}},
 {"MQD20X",{-216.4216293334961,4.581922509128171,57.76239776611328,3.4027971605265686,225.60192244052888,3.031316130350459},
  {-.34571072161197663,6.505069987454332,266.00944366455076,2.8379635121699627,-94.8186176300049,3.7439921027308003}},
 {"MQF21X",{175.10477294921876,3.770038934613737,-119.93498058319092,4.059958798403773,765.1799774169922,11.050032966186283},
  {46.41396789550782,1.4627428937807365,42.09281949996949,.6115053349224844,11.487131118774414,.9427898378781608}},
 {"MQM16FF",{140.74767456054687,4.42896382016879,-77.72866134643556,2.608711163930355,-76.68108386993408,2.5925401826244525},
  {100.69924926757812,1.695092323181356,-87.83174567222596,.9878567521605617,131.92356872558594,.7208025417689933}},
 {"MQM15FF",{353.148095703125,6.236660843264017,-61.84414215087892,4.950219555276596,-413.1692607879639,15.552228863637106},
  {41.08527030944825,2.938422950808036,-162.9535690307617,2.838898819040861,202.40856857299806,2.8523812895440215}},
 {"MQM14FF",{276.777783203125,2.6981265476517615,13.559357452392561,2.5894346866350295,-320.37524452209476,4.730488763529289},
  {-96.94458312988282,6.918327822672053,-370.07297210693366,3.717963414610513,437.3824523925781,4.812331966345822}},
 {"MQM13FF",{395.8788696289063,5.409694525399312,83.69840698242189,9.295412418732706,-1032.4771881103516,14.87041855432127},
  {-26.042904472351076,6.084769491637389,225.470223236084,3.540923111962251,-280.37031173706055,4.6841894070091215}},
 {"MQM12FF",{234.81326446533205,1.3223527285605408,56.15749359130858,1.5644146549176094,-314.4906394958496,1.6988437331202968},
  {209.07557373046876,19.392144921726327,1092.3187591552735,10.565759373775206,-1358.3118408203127,8.882318248540217}},
 {"MQM11FF",{281.26148986816406,3.764266315992779,41.19357757568359,3.0370328395225408,224.0049955368042,2.640798152700031},
  {-51.517688560485844,26.54598719310368,1483.5639465332033,14.124261662510973,-1836.2180603027346,15.632856060313635}},
 {"MQD10BFF",{354.1537689208985,6.901861722894756,11.558993530273426,7.324831483193223,673.2193435668946,11.220679383633021},
  {-16.306042098999026,43.29095861023794,2337.9218872070314,25.71756472541535,-2851.7079101562504,33.15547256485434}},
 {"MQD10AFF",{-257.1731918334961,10.698031509735195,.7487266540527315,9.83922140363401,1132.3768310546875,8.48641239703865},
  {181.6517105102539,37.94657773632046,2119.4400268554687,21.274610775619255,-2625.9060668945312,17.19882569624397}},
 {"MQF9BFF",{107.61052017211915,20.439115343010606,-15.705849456787114,18.63473794566981,2224.086779785156,17.60284003482178},
  {-94.0279037475586,19.996081412256,1127.5340240478517,10.726579932388722,-1396.3498779296876,9.3932103186026}},
 {"MQF9AFF",{126.0198112487793,19.080421557594963,-23.372499847412115,17.495100682036217,2090.5503784179687,16.22603237983664},
  {54.853807640075686,15.736517414106126,887.7274475097656,8.402958789343506,-1098.9847229003908,7.32599719146419}},
 {"MQD8FF",{164.23314056396487,5.43902006846186,-21.21680145263673,5.051182441502837,644.0044616699219,5.229353812081496},
  {68.00609474182129,19.589387337859552,1105.577114868164,10.471026979703018,-1364.127264404297,8.87433207931991}},
 {"MQF7FF",{-80.74642181396484,1.7556371420510735,-45.47620067596435,.9629546178039414,42.134944915771484,1.8700776747360521},
  {-34.48466911315918,.8028343711940944,-10.75438394546509,.5926840228382364,17.211361932754517,.6725196397684214}},
 {"MQD6FF",{-39.3195520401001,7.493399053752651,-20.207927006483075,6.882817957107231,-676.8624847412109,6.166859490400104},
  {200.6708969116211,17.69329082317435,-985.7234100341798,9.905681782668038,1227.5253326416016,7.7565343372361975}},
 {"MQF5BFF",{77.24773616790772,22.997951095119628,-23.3524600148201,21.129208952536178,-2097.8107055664063,19.662398092378826},
  {-18.74384346008301,15.656341853465898,-867.959603881836,8.361605696855394,1076.2510070800781,7.064077826740979}},
 {"MQF5AFF",{253.80367279052734,22.688181169528217,-14.218820190429696,20.705847427666566,-2048.0882568359375,18.8369517953022},
  {63.02575798034668,22.687010871406713,-1249.9929443359376,11.953751928493759,1548.1454833984376,9.825763614474473}},
 {"MQD4BFF",{231.45064849853517,10.955985534309828,3.6008193969726534,10.015996107608121,-997.4177551269531,9.390922808649629},
  {29.398138451576234,41.603849719279,-2303.779089355469,19.0792894557939,2811.4213745117186,25.778824951412354}},
 {"MQD4AFF",{220.23797454833985,6.4571548328695005,19.606555175781253,5.996127186903408,-590.1187530517578,5.700758470433993},
  {-1.232447636127472,42.48393316909084,-2353.9553344726564,19.446992631612705,2844.8660400390627,32.969238833536764}},
 {"MQF3FF",{399.4420806884766,7.577268024211443,76.30257110595701,3.7554723619768096,39.861309814453136,2.8851397101720724},
  {-226.54095306396485,12.630998584657657,-710.4027053833008,6.825781546472727,876.4080230712891,6.06508624114434}},
 {"MQD2BFF",{-180.9498519897461,9.558963424489884,37.83748703002931,5.306804825028759,413.03759765625,3.5852596394884735},
  {88.83911819458008,9.394791722367394,-524.8939498901367,5.311509569276976,644.5078216552735,4.475115781545482}},
 {"MQD2AFF",{71.35768241882325,19.416118720293834,21.91216907501221,10.702153882962564,952.1566528320313,8.266161269073928},
  {-193.5878143310547,1.831146197931497,-105.86655769348145,1.5424600970789006,124.10995674133301,2.128347628079548}}};
