 CalibData = {{"MQF1X",
  {-1244.0041870117188,49.69743280518849,14.06591796875,26.501568933907528,25.750500488281205,30.504660240314152},
  {531.5284637451172,24.820246685961326,13.0308837890625,13.48008204047102,-16.38915100097654,17.378703077127405}},
 {"MQD2X",{-220.68585357666018,27.56630796191373,-3.6801605224609375,17.351219316619627,.6241455078125,15.012101698935043},
  {1174.5519897460938,35.351057315502494,.45752563476560226,27.03417392943069,2.0154846191405795,18.073181283760277}},
 {"MQF3X",{-703.7479309082032,37.80467986340582,13.041748046875,16.14660831240328,4.402130126953125,21.984146560137525},
  {387.0194946289063,20.33454284439587,-18.341177368164068,18.03582820832821,3.2762222290039062,18.10236492581994}},
 {"MQF4X",{453.09258117675785,20.47280011416771,-9.684272766113281,18.930334220545397,-2.0045364379882926,14.746741832976895},
  {-176.83448333740236,29.625909426806103,-76.80124416351319,15.592609707209052,-7.9666969299316435,27.643515855294744}},
 {"MQD5X",{100.20039672851563,25.447398026640695,-5.586572265624994,17.46048046067152,-1.9003124237060547,15.422651139917196},
  {-552.8515563964844,13.47684510397585,-134.86666412353517,17.823749469529858,-.379519653320358,13.38521944644376}},
 {"MQF6X",{1402.1934204101562,36.229959740006414,-17.764721679687455,29.401887797688133,3.9915405273437727,25.87611274312832},
  {-245.08144531250002,14.823481280506627,-29.073893737792986,13.073042045903257,-3.6647140502929716,11.755406877748696}},
 {"MQF7X",{-210.3035415649414,30.630981078576422,-14.29632415771485,10.345233508867329,12.082205963134754,11.056864285368727},
  {-507.30299072265626,19.848150709550524,106.40486450195311,17.386794292585645,-9.484254455566429,16.644630864925425}},
 {"MQD8X",{-130.87529678344728,14.497339884389339,5.615207672119141,7.194620916298413,-1.113182830810544,7.585842047504985},
  {-1284.0006347656251,12.347818042041494,230.8121795654297,8.414593613770178,-6.883746337890557,10.221401440490652}},
 {"MQF9X",{-533.7391662597656,10.701249847234221,-3.1013916015625114,5.999583067782907,-2.234127807617142,6.069825809827002},
  {-379.25439758300786,6.146911149417594,102.47554702758788,4.641634240074613,-.47117767333983807,4.9846691666312095}},
 {"MQD10X",{-175.733251953125,1.910063489588003,363.24908142089845,1.556504208180252,.0011512756347542563,1.8091990826600968},
  {-129.53772354125977,2.96552723083436,63.99233589172364,1.4264000158080123,-1.0245105743408232,2.054947268686068}},
 {"MQF11X",{-87.21819686889648,8.219403142469302,1143.8960327148438,6.354217090136284,1.7618141174316406,5.467025470615692},
  {116.54508361816407,1.7756241367034553,-61.68568859100343,1.2188607265900282,.18125839233398722,.9568545374930787}},
 {"MQD12X",{61.93091659545899,3.9061675135299403,279.1983757019043,2.8653835285999225,.7054243087768555,2.4364823812864707},
  {97.58370056152344,4.339343982777965,-256.0981811523437,2.295425423650171,.6196308135986328,2.4705395866290893}},
 {"MQF13X",{103.93590469360352,13.397287293903181,2.498971557617189,6.305642899564429,4.196517562866212,5.268675342193158},
  {-66.30759391784669,13.816433270651027,-169.85952758789062,7.685833376785094,-1.2223617553710895,5.728679798672536}},
 {"MQD14X",{39.32815341949463,8.548464705721765,-363.0329528808594,3.6610259078144387,2.5603172302246087,4.01210024562321},
  {368.7643218994141,17.423180253460014,-227.69074745178227,11.924828489270308,-5.659609985351551,12.609179040697585}},
 {"MQF15X",{0,0,0,0,0,0},{0,0,0,0,0,0}},
 {"MQD16X",{45.45800895690918,3.4315912614079993,-259.4186706542969,1.9383619151966358,-.7820041656494148,1.9616689992685994},
  {-4.751025837659836,2.8135550831623664,-81.56043853759766,1.2266953004468717,-7.257607701420784,1.7493483309811304}},
 {"MQF17X",{-31.632634162902832,5.335052537623459,116.62266731262207,1.9357371379420245,-1.3266457557678226,2.1054686046972693},
  {28.07465705871582,.8852740430231503,65.17313089370728,.7790315021820731,-15.631084299087526,.8524914722476824}},
 {"MQD18X",{28.58866767883301,5.452238224123579,589.0303283691406,3.6436842195208965,1.3003628015518203,2.9554006357583997},
  {168.76414794921877,5.088787045150641,414.4770812988282,3.6331502483219933,-67.87939262390137,4.163785988438693}},
 {"MQF19X",{129.20974197387696,14.045352189897027,1239.5505432128907,8.938854028157944,29.14266548156739,7.047403223839996},
  {166.06475982666018,3.339756477205977,229.04819583892825,2.2766688039898217,-33.40638275146485,2.6061872225238463}},
 {"MQD20X",{-225.8593521118164,5.42241662776083,179.65334911346437,3.4122922932371353,225.45155051350594,2.760020043381098},
  {40.163007545471196,3.800639608269502,333.3062484741211,2.8126864965602296,-31.84750633239746,3.4081714861149077}},
 {"MQF21X",{-65.15078392028809,4.939078804078979,-950.739080810547,7.316760750859543,796.8465423583984,3.344699808407726},
  {23.73544216156006,.7868877767558768,46.925036907196045,.6767890346709174,6.928235149383545,.7034262330476981}},
 {"MQM16FF",{-196.55880584716797,4.478408981800399,-401.80478134155277,2.928714934014046,-25.519775390625,2.4974661894945673},
  {-126.87300949096681,2.004597895760775,-134.7482791196555,1.167224887169967,54.78013153076173,1.2433734189949888}},
 {"MQM15FF",{215.9353729248047,8.1552632225585,-195.37153688073158,4.249713515711473,-359.6174789428711,3.77478818385281},
  {23.149065399169924,4.136910065165197,-252.1444465637207,1.9391156257051794,88.74237861633301,2.3838003201040423}},
 {"MQM14FF",{221.14877319335938,3.2367585805710255,203.12089877128602,1.4319448858592265,-326.0641307830811,1.5701011229080575},
  {95.14787216186524,8.867361520779646,-571.4350814819336,4.109633672647239,194.37592849731448,5.4152526913630705}},
 {"MQM13FF",{635.1851867675782,8.76319679133216,997.9736862182618,10.504426582779082,-1067.3271469116212,9.950858763956084},
  {149.83854064941406,4.323100888723427,352.5638656616211,5.2831560667874164,-120.65236530303955,3.303331828296569}},
 {"MQM12FF",{252.1246551513672,2.0167438112293907,406.5433990478516,1.4870836182673866,-301.2271438598633,1.734728654587907},
  {494.6609283447266,23.35202091928239,1632.5992858886718,12.466433441424766,-565.4846606969834,15.099766213700908}},
 {"MQM11FF",{82.21212921142579,4.864914046231669,73.61119298934938,2.574945663208431,251.28772048950196,2.0488153614246025},
  {262.06427307128905,32.01862638350765,2311.518389892578,17.49426288879407,-798.281527709961,21.76753904321815}},
 {"MQD10BFF",{68.21536178588867,8.863581868596585,-277.8500328063965,4.163043809567933,720.5096832275391,4.075053200757733},
  {388.32971496582036,45.76698872596585,3535.621960449219,43.8171086138739,-1218.0441192626954,30.051227130054677}},
 {"MQD10AFF",{-189.95667114257813,13.73887315031439,-558.3224441528321,6.592278951141759,1200.5003875732423,6.442283909195193},
  {534.3022766113281,48.737527873374965,3340.3737915039064,25.013550953436127,-1157.2425201416017,31.474073663837018}},
 {"MQF9BFF",{-288.04873504638675,27.034569418172936,-1161.108657836914,12.203638703082014,2319.894415283203,11.508674293222565},
  {41.26982650756836,24.344442305004826,1729.296520996094,12.954047973312038,-597.0220581054688,16.478151035795808}},
 {"MQF9AFF",{-428.93304138183595,24.26872170858303,-1132.8676361083985,11.176088268150984,2188.222686767578,10.536239905921985},
  {101.7928466796875,18.90089628021051,1320.6377807617187,9.61473395512418,-454.5838363647461,12.180986914595431}},
 {"MQD8FF",{13.84098123908043,7.7114856339538855,-429.0937255859375,3.2416580387603533,706.6481842041017,3.206259469666693},
  {-23.26745640896261,22.592061165312202,1547.3960083007814,10.629917799783865,-532.3717178344726,14.73078439732194}},
 {"MQF7FF",{-27.57983741760254,1.2328242432240109,-286.01396560668945,1.3369504062461903,152.65751667022707,1.4466276234934186},
  {-177.6353286743164,2.423998732266989,-115.16776237487795,1.2445855552125547,41.9241958618164,1.476801737201195}},
 {"MQD6FF",{74.48680305480957,8.328974918888948,203.77726287841796,3.6689382462692715,-641.2801300048828,4.436482099315931},
  {-159.25598602294923,24.897027777475035,-1703.9130249023438,12.23428824390634,591.0963119506837,16.17315849801554}},
 {"MQF5BFF",{317.5784851074219,24.800767529744128,852.383511352539,10.824916788143076,-2079.69111328125,13.945022041544279},
  {-193.99478912353516,20.23265139259464,-1360.7889221191408,10.445871584239562,469.86970825195317,13.006399034796123}},
 {"MQF5AFF",{471.16797485351566,25.22640051920718,905.2503524780274,10.62547466255302,-2100.1715393066406,14.21012813014515},
  {-94.92947158813477,28.058194078408775,-1912.858740234375,13.761278050583403,661.0556350708008,18.577606338744953}},
 {"MQD4BFF",{289.5465118408203,12.054227392269425,484.3182266235352,5.276927975323867,-1011.4622528076172,6.7132483055469105},
  {-194.1027572631836,50.82543243923087,-3486.134521484375,24.496648917996215,1204.367364501953,32.99631270773924}},
 {"MQD4AFF",{194.69461059570312,7.195728366486399,371.6574783325196,3.129162258709187,-605.9617767333984,4.414056111270999},
  {-187.08281326293945,51.5023603930433,-3503.698168945313,25.02293037198419,1208.0977691650392,33.16547283660852}},
 {"MQF3FF",{-144.7732681274414,5.527820175098753,360.32027130126954,4.659032648120688,-10.032435226440427,3.4650089292057205},
  {-178.38701782226565,14.150523866980134,-984.0597839355469,7.131192945691233,338.3395015716553,9.475771291742031}},
 {"MQD2BFF",{-540.2540222167969,8.820672419583577,-16.616534423828114,5.802940857823379,393.05030860900877,4.919270065988286},
  {303.52190856933595,9.19144042583085,-601.1760528564454,4.464452603725044,205.94368114471436,6.15348411202459}},
 {"MQD2AFF",{-39.86469745635986,16.442817324917844,-372.8909378051758,10.97701571638391,956.7383880615234,8.990432654620307},
  {113.16626358032227,1.925332736825085,72.12712850570679,2.3435574043742817,-27.883899307250978,.7036453940939532}}};
