 CalibData = {{"MQF1X",
  {-161.21742477416993,59.3665897451867,5.44840583801269,25.26932462514785,-5.384089279174802,24.597449417103537},
  {194.5749282836914,3.95174978283885,-.3600708007812443,3.187134691109008,1.3436973571777315,2.521080282419795}},
 {"MQD2X",{515.9030822753906,19.14711315367601,4.624552917480457,10.724163900548053,-5.307342529296875,10.06343708207462},
  {165.10872497558594,12.077307555895642,-6.447587585449213,7.921720087892608,.48841094970703125,5.672791348280144}},
 {"MQF3X",{481.97820739746095,23.890233095963367,3.7495956420898438,16.115442917896125,-8.677903747558616,14.537361142759991},
  {38.34164829254151,5.308574902653475,-12.567255288362503,5.18915407705023,.43940277099609304,2.8963840668082104}},
 {"MQF4X",{656.9568908691407,22.15448562118345,1.4426788330077898,10.680383253205717,-2.258093261718784,11.912165775999759},
  {31.943959426879886,4.81635452788085,-87.77540187835693,4.166247081123986,-2.228497886657717,3.9623787312458747}},
 {"MQD5X",{28.07485730648041,22.63034785354686,.2465529441833496,8.361861351057422,-.7858218252658844,9.48118548099414},
  {-153.05329132080078,6.464461173143576,-148.31324008256198,3.9942225093521904,.4919254302978544,4.21722702407718}},
 {"MQF6X",{116.36459159851074,55.15674074115938,-8.964536666870117,21.140721089237594,-2.4370346069335938,24.732080239379627},
  {-44.727728652954106,4.425703394229961,-32.980627578496936,3.2602288746458905,-10.233803367614746,2.1994687526035235}},
 {"MQF7X",{-68.40008659362793,5.013423505317014,1.542208290100099,4.065170954217813,-1.1230243682861314,4.088052620687328},
  {-41.18340892791748,6.509205686247577,112.91926803588868,2.910219291782845,-73.6757140159607,3.018781556215658}},
 {"MQD8X",{82.224129486084,2.730653569893747,.6960987091064439,2.8444424961242363,-.5985210418701143,1.9068744038578558},
  {-359.5399627685547,5.82316173918598,255.69347305297856,2.9652104128320023,-150.76590728759766,3.4376759934634977}},
 {"MQF9X",{42.750474548339845,5.2350267872497565,3.198036384582519,5.14676979250528,-4.038963413238527,4.347979863272234},
  {-84.89803390502931,2.5620388785386554,105.53440923690796,1.8785902600737523,-56.29323682785035,1.4665095621557709}},
 {"MQD10X",{-31.52915019989014,1.041559291709032,290.4181900024414,.9801632197539945,.043264675140379794,1.4014511098554947},
  {20.183772468566897,1.7091132112679428,66.6825387954712,.8383173671289931,-12.307174279540778,1.116670961810334}},
 {"MQF11X",{104.43582916259766,4.752039992311745,903.4111511230469,4.649248280060436,28.37181987762451,5.8186915435141495},
  {326.771923828125,1.1936593875928412,-65.40371704101562,.6102542749688569,30.531967163085938,.6445000474558501}},
 {"MQD12X",{-9.641731834411623,2.2773107834798316,241.2954055786133,2.054205485646749,98.40086784362794,2.4331525846102866},
  {656.3435546875,3.692252987907627,-263.3278793334961,2.3128213994320888,107.87211914062499,2.6927734007696698}},
 {"MQF13X",{-155.32771911621094,3.0265922474488556,42.91301803588867,2.7616009594120245,155.98828983306885,155.90132348240948},
  {265.5656372070313,2.1156265595192987,-175.70547065734863,2.675891934906146,67.35866699218752,2.8438951386431723}},
 {"MQD14X",{-58.89469261169434,1.7334306885177524,-280.6718605041504,.9945458002667318,40.054536771774295,1.6834055043911242},
  {896.5732482910157,3.3739581219027643,-237.06870727539064,4.814258184471273,119.88864440917968,148.51954478539443}},
 {"MQF15X",{0,0,0,0,0,0},{0,0,0,0,0,0}},
 {"MQD16X",{41.82298583984375,2.2665866541331106,-240.02619094848635,1.9811997095716385,-98.59796943664551,2.5024223727423816},
  {45.57629089355469,1.656873807224846,-92.5878517150879,1.199402969336576,21.945553112030034,1.2991007706118765}},
 {"MQF17X",{79.67079544067383,3.2890561739169724,15.024101066589353,2.4166330805573204,-247.97715148925784,2.904330091775912},
  {-3.112157988548279,.894793260346831,59.757661247253424,.6502097601177693,-28.80985975265503,.6450507087389117}},
 {"MQD18X",{31.515061759948733,3.3811544289177657,486.47974853515626,2.885704642542151,71.34844007492066,3.664529196437359},
  {-58.78167762756348,5.343270852626875,411.98778533935547,3.7110402491100967,-167.47270965576172,4.038792141364655}},
 {"MQF19X",{87.2031135559082,8.664559574907555,1069.4013793945314,7.560141592466358,287.46384277343753,9.370164166368264},
  {40.084279251098636,2.9615586945589363,234.7562309265137,2.2304074527396205,-92.09309844970704,2.218888136929806}},
 {"MQD20X",{-215.1436294555664,4.074159186977111,243.65595531463626,3.2958213413173096,238.4775477409363,3.9862658409853466},
  {-83.29827270507813,4.883218577140706,374.56906433105473,3.576471651631986,-133.8737277030945,4.010031203750339}},
 {"MQF21X",{72.35817222595215,5.227334222473925,-470.84388580322263,2.8226448510056388,484.79843750000003,4.086803180262576},
  {40.99654617309571,1.1904924428822758,80.68678188323975,.9215725607322023,-20.60982303619385,1.0271399437988267}},
 {"MQM16FF",{-17.75607967376709,3.3196437126504734,-317.9541839599609,2.9139774665629754,-143.21326065063477,3.1453293719986326},
  {141.01935729980468,1.9443768512568305,-43.48115921020508,1.0873134191074927,46.67112197875977,1.11731482335459}},
 {"MQM15FF",{203.28890228271484,6.7939984206640665,-253.5648277282715,6.397985671011634,-398.04945678710936,5.602066711335428},
  {97.78298721313477,3.047693649901733,-104.44083912372591,1.7289095550188043,81.35189483165742,2.304149869841826}},
 {"MQM14FF",{131.91892471313477,3.1320549091991254,56.46607151031494,2.2977608636875826,-242.89891357421877,2.36670228272804},
  {-23.327095603942873,6.775246151301666,-266.4957557678223,3.964081509610755,194.39115676879885,4.04516851963985}},
 {"MQM13FF",{258.2910858154297,8.148606759944016,435.28185958862304,5.896161025029323,-713.9909683227539,9.812924834514922},
  {44.69432678222657,4.347661593108362,151.486979675293,4.204894408097757,-113.55986785888673,3.7942606306502746}},
 {"MQM12FF",{119.23187561035157,1.9802342682086596,232.73853759765626,1.506313110341655,-189.56143341064455,1.6574043771588738},
  {372.2764373779297,19.26992878783191,766.8730819702149,10.570176938869144,-574.1522087097168,11.406832270322722}},
 {"MQM11FF",{113.4909149169922,3.5695872088257317,173.90691471099854,2.610850266981599,220.54027023315433,3.3253323291963985},
  {107.83394851684571,26.219986095680767,1040.6532440185547,16.751708410753544,-778.5377410888673,15.539485333859991}},
 {"MQD10BFF",{189.1909362792969,7.216507512773653,54.707389068603504,6.0503083418798775,517.1546157836915,42.744073724158056},
  {171.83880462646485,38.77520619892811,1545.109295654297,36.10259542931856,-1136.970199584961,44.26803534058484}},
 {"MQD10AFF",{26.09813508987427,11.63973800795708,8.23841934204102,8.562265644905017,898.2629180908204,10.538007418201055},
  {362.1311004638672,37.33861824199449,1499.8637939453124,20.007363063995655,-1116.9551544189453,21.968470235103435}},
 {"MQF9BFF",{194.96351470947266,21.83620082896952,-55.9182632446289,16.25550028836781,1737.045544433594,23.995090050798613},
  {-16.776333045959472,19.79050348979183,793.4811645507813,10.745454653182831,-591.4886138916015,11.642808593047729}},
 {"MQF9AFF",{-34.310896730422975,20.315287870677896,-87.57421550750733,14.975157778237383,1631.418768310547,18.36925573235768},
  {83.38360290527345,15.708966656806977,626.0727386474609,8.329255323781487,-465.4352432250977,9.104820328915485}},
 {"MQD8FF",{123.83940200805665,6.015753142401133,-85.78509006500245,4.322595068900835,485.95477294921875,5.684174858166316},
  {30.648346424102783,19.3004308422949,779.6619171142579,10.18549932146584,-576.5534210205078,11.171675652789913}},
 {"MQF7FF",{-60.30076789855957,1.2788137670429192,-191.18737411499023,1.2523191804999179,-18.200741577148435,1.3907306632096446},
  {-105.05601654052735,.5700359000822304,-8.12252426147461,.5923751966965048,8.435411071777338,.6522944821506089}},
 {"MQD6FF",{-57.84366035461426,8.898272245260523,-92.3263094842434,6.507037518930918,-559.6950607299805,6.458188153986895},
  {21.135902690887452,17.613389121575302,-692.0860992431642,9.788377409897082,519.916227722168,10.564581599734922}},
 {"MQF5BFF",{-33.741971302032475,28.801927279566744,-125.00588754564524,19.989483835781147,-1682.856622314453,20.135685636812937},
  {-107.12032165527344,15.383558856376432,-611.0775451660156,8.355281452881442,455.8577194213867,9.07506050221766}},
 {"MQF5AFF",{126.24405822753907,28.689129312934437,-87.25775635242464,20.2558653508961,-1666.5137084960938,20.359720073450358},
  {-17.29687080383301,22.050831824490956,-878.4945343017578,11.816175699628756,654.5023986816407,12.849911682603599}},
 {"MQD4BFF",{154.54940338134767,14.325072130603656,.5110462188720675,9.653739186367403,-786.1824523925782,9.984637631983734},
  {-82.72514123916626,40.89087392031242,-1621.5897399902344,22.570114895490203,1210.5870178222658,23.61882622960338}},
 {"MQD4AFF",{150.12734985351562,9.141564717127862,71.9216049194336,5.996748377978094,-444.0619369506836,6.490324649323055},
  {-96.45246582031251,41.509934516113,-1660.2012512207032,21.839859132177093,1234.7980346679688,24.02411384159394}},
 {"MQF3FF",{314.01129150390625,9.106064661676449,309.82632026672366,5.147368228505394,119.3942901611328,5.777574110161784},
  {-205.68289642333986,12.469762339487723,-501.2001846313477,6.622727829790332,372.28517761230466,7.198054005316525}},
 {"MQD2BFF",{-159.17930145263674,11.226662978383183,152.08886296749117,5.994374980687061,368.985368347168,6.689358962345962},
  {194.78481750488282,9.080268838372085,-374.48280334472656,5.111375425076021,277.00175285339355,5.457607219589903}},
 {"MQD2AFF",{213.9181610107422,22.264767493166808,79.006453704834,10.82706553160904,763.0310852050782,13.000896278732831},
  {-38.15897674560547,1.93841873634061,-81.0338270187378,2.0941543146919037,58.31745567321778,2.1116686158394304}}};
