 CalibData = {{"MQF1X",
  {-68.51071949005127,35.62325956054533,6.6385802984237685,29.519115652989694,-3.7940468132495866,30.751477485967552},
  {200.67693786621095,5.557872272964114,-1.4749702453613338,3.841016546811589,1.066613006591794,3.680700341706301}},
 {"MQD2X",{522.6567291259765,9.378487795643162,.026310729980423275,9.800269970711382,-3.7208084106445085,9.286012825680253},
  {87.05426635742188,8.845495212302858,-3.2695978164672823,7.205183288202686,1.8815977096557575,7.564917665605495}},
 {"MQF3X",{415.3863830566406,14.444657902691292,1.2486785888671648,11.88124489668512,-3.098086547851551,11.685967705602337},
  {5.385963875055314,3.9289315376695595,-14.558482313156128,3.2145361439731728,.9925975531339644,3.4562575967748606}},
 {"MQF4X",{571.2189514160157,18.890919800715864,-3.5819458007812273,11.658029184454612,-1.1143920898437614,12.959971215916152},
  {27.14184856414795,3.9514418778080302,-89.41465148925782,3.200474208810912,-1.5148775100708036,2.9389975360032587}},
 {"MQD5X",{-42.22766609191895,15.907881867367351,131.78611421585083,402.51842067082873,-3.2322687864303603,8.943185474672257},
  {-243.10937652587893,7.370520986040769,-149.37581367492677,3.9599886025516953,.17584381103516478,5.1238410898613}},
 {"MQF6X",{206.40604248046876,29.642831180992992,-4.360914611816398,25.77641467275056,4.396298217773435,22.68472874384368},
  {-84.91373138427736,3.4769361180811615,-116.94248046875002,247.93921915070817,-9.450302696228029,2.5942217305198243}},
 {"MQF7X",{-55.675811004638675,5.02769852361466,-1.598163223266603,4.609314800429933,2.1628360748291016,2.951406678557862},
  {-76.8014129638672,3.5817024429593767,112.84741382598878,3.094896185078315,-73.58372032642365,2.5951487156130524}},
 {"MQD8X",{92.6166877746582,1.7920738785533454,1.5759483337402358,2.2916078702106386,-.9404811859130859,2.2602164639327196},
  {-513.7007934570313,4.979115953242456,255.53221130371097,2.8013244853215626,-149.32961730957032,2.673690337884801}},
 {"MQF9X",{43.727493667602545,4.835922657502125,-.2414232254028299,5.350261224865054,-1.704164981842041,5.267512155274137},
  {-116.80027694702149,1.6336472839518705,105.29892601966858,1.6754929154695102,-56.02458362579346,1.4731759964899982}},
 {"MQD10X",{-36.96717376708985,1.5073893935900513,289.70746917724614,1.2222595451053813,.15454254150390767,.744080432546658},
  {38.61734237670899,1.1298780207583368,67.1731737136841,1.169210813230694,-11.233783340454103,1.0692470204426145}},
 {"MQF11X",{89.36562652587891,6.7527571658625405,901.514208984375,5.062710652369161,27.77998542785645,3.5687318454305137},
  {346.2130889892578,.6459517528240533,-65.87697143554686,.7349680894048287,30.028302001953108,.6760265871218546}},
 {"MQD12X",{-19.30375089645386,2.8941150514245724,241.17304306030275,2.1435636192019745,98.23769454956056,1.6982209857490673},
  {703.4517333984376,1.5888049609490582,-264.8721603393555,2.96018564410919,105.10283813476565,2.7947563288136057}},
 {"MQF13X",{-245.0375961303711,2.706610481403706,45.46219787597656,2.5137759876526755,207.2799634933472,2.890719038656555},
  {375.2027252197266,2.3734165139809478,-177.2812705993652,2.052259816557499,66.41609039306641,1.590863322988087}},
 {"MQD14X",{35.48598403930664,2.6256978471813732,-373.49169998168946,278.7057548311646,40.355062294006345,1.1044092892119806},
  {2509.9672607421876,4.281895681336014,-233.2000793457031,3.8406394423431696,83.8419372558593,3.9027720508097055}},
 {"MQF15X",{0,0,0,0,0,0},{0,0,0,0,0,0}},
 {"MQD16X",{50.98754234313965,2.924476070321575,-240.10784606933595,2.206431685916494,-98.50506629943848,1.709846557038283},
  {47.06274871826172,1.3656152012696254,-93.71470355987549,1.3962116358878454,21.589010429382324,1.1976028641211278}},
 {"MQF17X",{93.88710174560548,3.700480868740496,13.410804367065431,2.3886895732487954,-247.9795204162598,2.3540300653062145},
  {8.189142847061158,.5601359442204604,59.84043159484864,.5519942074732985,-28.04916696548462,.6204719304633957}},
 {"MQD18X",{19.72436285018921,4.398086554341795,485.8256790161133,3.075145594686561,71.03076362609863,2.410889625580364},
  {-6.265604388713837,2.880690295610729,413.6883148193359,4.4283763748701785,-163.48485984802247,3.946925249150064}},
 {"MQF19X",{53.40418319702149,11.24686361189133,1068.6529724121094,8.026122741666724,286.66329116821294,6.287663753181151},
  {67.40759429931641,1.313990535155331,235.8601371765137,2.572307127800803,-89.90059986114503,2.361417704645067}},
 {"MQD20X",{-243.28890380859377,4.9668974021883745,244.9259515821934,3.4336844490701224,238.30149400234225,3.093293669105044},
  {-51.4092456817627,2.336229234308934,377.20115356445314,4.455025180194122,-130.72980918884278,3.926788096384627}},
 {"MQF21X",{24.768648147583008,5.607934325616499,-461.84178009033207,2.876388253303413,481.81587066650394,3.5077649557425015},
  {43.4975772857666,.7875627306022959,81.70031414031982,1.2224960508191067,-20.080926656723022,.9659420312136069}},
 {"MQM16FF",{.8182578176259995,4.151277913025277,-316.1050308227539,3.010580645829788,-140.391272354126,2.297330414410533},
  {118.70126495361329,2.011764318038638,-41.31026268005371,.895581864299073,45.67749633789063,.861587250910055}},
 {"MQM15FF",{242.5546081542969,6.960128115395373,-254.47849130630496,5.250757523075216,-391.52733001708987,4.802557997652843},
  {60.478576278686525,2.927985001349382,-100.95297288894655,1.298669390185456,77.82267928123474,2.2052937581482865}},
 {"MQM14FF",{157.59793090820312,3.5361793948642157,53.848361587524415,2.2817040641889745,-239.75841751098636,2.572336259611413},
  {-107.64237518310547,6.9239534205237545,-257.5399772644043,3.1111782662301124,191.73945503234864,3.2154905659790045}},
 {"MQM13FF",{320.8571960449219,9.128843182142706,416.1524002075196,4.709196759381735,-697.5405319213868,12.172990050220962},
  {86.56683883666993,2.9418954268965605,144.0271463394165,3.2212552257520137,-109.32452096939087,3.6449499175934044}},
 {"MQM12FF",{135.0833511352539,1.8277465090138172,230.57299880981446,1.113446795416265,-190.00465030670168,1.3389397007919468},
  {614.7620910644532,21.17848080512456,747.8848052978517,8.512063301079957,-559.7822407722474,9.670492229252286}},
 {"MQM11FF",{87.56688919067383,4.419056750359875,175.9236888885498,3.119592110740806,219.32452201843262,2.601539094080827},
  {435.55452270507817,28.412533089435033,995.4113952636719,11.297586453641438,-741.2211624145508,11.62975477761334}},
 {"MQD10BFF",{131.09383850097657,8.513530086304128,61.503276443481454,4.761947776474717,491.0786376953125,35.1953317282236},
  {666.2553283691407,41.1614520937394,1483.1724884033204,49.160384602909105,-1096.5974807739258,73.77030858459337}},
 {"MQD10AFF",{-66.86884269714356,13.578655558183495,17.30138854463585,8.785788360396284,898.2732452392579,8.46369660474255},
  {836.5490966796875,39.94556165212368,1466.3147583007815,15.635794648014622,-1089.889128112793,18.65063681621642}},
 {"MQF9BFF",{14.712424063682557,25.580067297656523,-38.42265667915344,16.88076466160979,1739.7097290039064,16.062200662842454},
  {233.28651428222656,21.79026815443122,775.0390380859376,8.737914040400588,-576.9985382080079,9.883471381502284}},
 {"MQF9AFF",{-200.80249938964846,24.063645189954876,-71.15216560363771,15.576861031199268,1631.9739074707031,14.759046653581276},
  {280.97568359375003,17.235846380427425,611.2169204711914,6.805544101191969,-454.1936637878418,7.724736110129302}},
 {"MQD8FF",{75.40934791564942,6.975378121615541,-81.33661811053753,4.369772574623017,492.2175170898438,4.323660336075896},
  {273.77440032958987,20.946499725876745,761.3023101806641,8.186563844605525,-562.4290817260743,9.620627672306139}},
 {"MQF7FF",{-51.429511642456056,1.2890164155893786,-192.2256004333496,1.2029612101083123,2.6540443420410185,1.4855611910735251},
  {-110.5757926940918,.5820120015822817,-7.963747024536133,.48756115234686787,8.670530700683592,.4423533058253643}},
 {"MQD6FF",{-5.22058072090149,10.854873616574844,-97.88679199218751,6.316647198146157,-546.143229675293,5.732983903930595},
  {-203.20144653320312,18.627128952528626,-676.2518264770508,7.909448364518511,508.0301971435547,8.633031373150311}},
 {"MQF5BFF",{117.78213996887207,34.19931734648544,-141.09346981048586,19.141338053445903,-1658.1274108886719,17.426123067749177},
  {-301.5606353759766,16.12350380128438,-597.5361129760743,6.646338622240195,445.5381668090821,7.615732697107704}},
 {"MQF5AFF",{273.99572906494143,34.063949211582056,-102.61581153869629,18.949379969721882,-1629.5494689941406,20.036573439003046},
  {-296.82439880371095,23.40081870426181,-858.6784576416017,9.519237948831728,639.3851974487304,10.833776023315739}},
 {"MQD4BFF",{224.821484375,16.336317369759396,-6.637048339843744,9.008725337961812,-781.6447631835938,8.187044507903652},
  {-599.773046875,43.32407693127048,-1568.9784118652344,20.270059694451568,1182.2640991210938,20.113004071924728}},
 {"MQD4AFF",{187.74637603759766,9.887174480904159,67.851904296875,5.214441445771621,-449.5466682434082,4.891219416723141},
  {-623.6260131835938,44.726466881064276,-1606.1003784179688,22.81315386596387,1205.8621948242187,20.488674058726065}},
 {"MQF3FF",{290.3508972167969,3.604125957047788,308.1946151077747,4.183263870829305,85.34773406982421,4.4974321451472035},
  {-363.96009521484376,13.846154258035977,-494.6259262084961,5.389609320878641,366.0620956361294,6.274528070993891}},
 {"MQD2BFF",{-211.22648925781252,3.449236965028744,154.44398069381714,5.50678755913451,351.539608001709,5.4419161840235795},
  {76.98922462463379,9.74167886483062,-377.9491714477539,3.993106130465507,277.2436889648438,4.896782998451022}},
 {"MQD2AFF",{105.07641906738282,6.270177042204909,86.98058862686158,10.504489369857804,752.3073303222657,9.959350243525083},
  {-61.77555770874024,2.101871429620374,-93.6473991394043,1.3497348072082374,65.09517725110055,1.8017038464512187}}};
