 CalibData = {{"MQF1X",{$$$$$$$$$, 43.41218,  2.13075, 16.29941,  0.54780, 21.71340},
  {222.18507,  3.31056, -0.39927,  2.75752, -0.70176,  2.37054}},
 {"MQD2X",{$$$$$$$$$, 13.94872, -0.11987,  9.10032, -1.66498, 10.01859},
  {702.19281,  6.83179, -7.54576,  4.76991,  1.43390,  4.92257}},
 {"MQF3X",{950.64392, 15.33702, -2.55023, 11.83529, -2.66705, 17.97839},
  {316.35667,  4.50165,-15.54843,  2.93427,  1.03522,  3.53486}},
 {"MQF4X",{$$$$$$$$$, 16.74668, -2.47695, 11.92822, -0.99877, 12.47017},
  {$$$$$$$$$,  4.03325,-86.77290,  3.28972,  0.78153,  3.60178}},
 {"MQD5X",{301.81717, 14.95265, -0.94628,  5.58117, -2.04126,  8.11156},
  {361.60591,  9.07016,$$$$$$$$$,  5.61197, -2.20965,  6.11446}},
 {"MQF6X",{ 21.00034, 30.96327, -1.01097, 13.80155,  0.98825, 18.89003},
  {-31.96083,  4.23764,-44.03754,  3.13164, -0.64667,  2.53626}},
 {"MQF7X",{$$$$$$$$$,  6.74302,  0.04810,  4.41819,  0.96526,  5.21707},
  {241.84649,  4.10553, 23.83365,  4.52855,  0.38288,  4.50151}},
 {"MQD8X",{$$$$$$$$$,  5.40316, -0.54828,  4.00220,  2.44079,  3.07282},
  {$$$$$$$$$,  5.66112, 77.54828,  3.57729, -0.23032,  3.63515}},
 {"MQF9X",{356.34619, 10.86590, -0.12232,  5.17587,  0.18245,  4.76157},
  {$$$$$$$$$,  2.82214, 37.81596,  1.60387,  0.34044,  1.24356}},
 {"MQD10X",{$$$$$$$$$,$$$$$$$$$,$$$$$$$$$,$$$$$$$$$,$$$$$$$$$,$$$$$$$$$},
  {$$$$$$$$$,$$$$$$$$$,$$$$$$$$$,$$$$$$$$$,787.98236,$$$$$$$$$}},
 {"MQF11X",{209.47418,$$$$$$$$$,$$$$$$$$$,$$$$$$$$$,620.22510,$$$$$$$$$},
  {$$$$$$$$$,$$$$$$$$$,286.33838,852.86038,$$$$$$$$$,$$$$$$$$$}},
 {"MQD12X",{210.06233,967.90585, 38.57930,689.17424,$$$$$$$$$,456.11370},
  {$$$$$$$$$,$$$$$$$$$,109.52634,590.56100,$$$$$$$$$,770.49793}},
 {"MQF13X",{$$$$$$$$$,569.41789, 26.90088,288.01231, -8.74964,391.25416},
  {-45.11013,277.66468,-58.48435,332.60372,-38.46592,352.55949}},
 {"MQD14X",{161.61269,251.44596,-90.89040,300.88025,$$$$$$$$$,276.90741},
  {$$$$$$$$$,573.55237,-75.97760,282.40475,-28.97857,329.56516}},
 {"MQF15X",{  0.00000,  0.00000,  0.00000,  0.00000,  0.00000,  0.00000},
  {  0.00000,  0.00000,  0.00000,  0.00000,  0.00000,  0.00000}},
 {"MQD16X",{387.52243,767.98676,-64.58089,751.35683,$$$$$$$$$,734.57101},
  {$$$$$$$$$,$$$$$$$$$,-51.91355,359.84087,-37.67599,660.49290}},
 {"MQF17X",{$$$$$$$$$,$$$$$$$$$,-83.81289,$$$$$$$$$,226.64946,676.75661},
  {$$$$$$$$$,$$$$$$$$$,$$$$$$$$$,626.68102,253.54143,$$$$$$$$$}},
 {"MQD18X",{-43.89798,811.38449,207.39695,625.76883,$$$$$$$$$,884.55054},
  {$$$$$$$$$,725.43174,-59.53862,442.74869,$$$$$$$$$,$$$$$$$$$}},
 {"MQF19X",{$$$$$$$$$,$$$$$$$$$,-66.84199,912.45767,161.01272,832.42366},
  {$$$$$$$$$,$$$$$$$$$,-51.97816,550.43071,343.00601,880.28485}},
 {"MQD20X",{235.55872,$$$$$$$$$,$$$$$$$$$,$$$$$$$$$, 84.80741,$$$$$$$$$},
  {$$$$$$$$$,$$$$$$$$$,101.61552,512.29047,239.28803,641.77033}},
 {"MQF21X",{-23.19319,346.91975,  0.91952,239.17059,-12.40427,324.15468},
  {-53.37512,335.82524,-38.96989,136.15962,-76.04444,225.49878}},
 {"MQM16FF",{$$$$$$$$$,117.90506, 61.05386,161.80931, 11.99025,263.40742},
  { -7.37808,115.08491,-14.10630, 60.67171,-32.82625,123.77200}},
 {"MQM15FF",{$$$$$$$$$,172.99719, 14.81280,128.49525,-24.92827,150.02789},
  {$$$$$$$$$,153.14469, -2.78620, 50.11352,-56.09848,157.46174}},
 {"MQM14FF",{148.36435, 92.81801, 28.90221, 83.53234,-12.65072,132.88222},
  {-79.15733,110.56875,-23.18670, 85.31974, 93.30583,159.76934}},
 {"MQM13FF",{$$$$$$$$$,170.04662, 24.77014, 78.46796, -9.71819, 63.27816},
  {$$$$$$$$$, 91.14831, 20.28723, 67.49565,-28.35925, 87.92932}},
 {"MQM12FF",{$$$$$$$$$,$$$$$$$$$,825.98191,$$$$$$$$$,-97.31062,$$$$$$$$$},
  {$$$$$$$$$,$$$$$$$$$, 80.50245,746.61251,263.05479,845.42203}},
 {"MQM11FF",{$$$$$$$$$,$$$$$$$$$,147.79187,$$$$$$$$$, 89.27792,$$$$$$$$$},
  {$$$$$$$$$,$$$$$$$$$,$$$$$$$$$,$$$$$$$$$,$$$$$$$$$,$$$$$$$$$}},
 {"MQD10BFF",{160.55730,462.74841, -8.82298,171.28494,  9.61639,238.03483},
  {$$$$$$$$$,578.79318, 53.61881,213.52003, 18.65167,352.79880}},
 {"MQD10AFF",{$$$$$$$$$,$$$$$$$$$,$$$$$$$$$,$$$$$$$$$,$$$$$$$$$,$$$$$$$$$},
  {907.66533,$$$$$$$$$,473.77007,$$$$$$$$$,$$$$$$$$$,$$$$$$$$$}},
 {"MQF9BFF",{128.89008,947.69423,$$$$$$$$$,$$$$$$$$$,256.99264,$$$$$$$$$},
  {$$$$$$$$$,$$$$$$$$$,$$$$$$$$$,382.19640,$$$$$$$$$,772.95496}},
 {"MQF9AFF",{130.27182,$$$$$$$$$,-50.72749,882.49035, 50.85935,565.05273},
  {  1.02983,$$$$$$$$$,$$$$$$$$$,471.48777, 47.42566,990.98133}},
 {"MQD8FF",{$$$$$$$$$,$$$$$$$$$,$$$$$$$$$,$$$$$$$$$,335.48053,909.05628},
  {$$$$$$$$$,$$$$$$$$$,$$$$$$$$$,752.46134,-69.93398,864.19653}},
 {"MQF7FF",{345.80317,688.26700,-92.91634,660.66098,$$$$$$$$$,395.53035},
  {-97.47489,555.24996, 53.58384,307.81904,182.45460,668.35235}},
 {"MQD6FF",{$$$$$$$$$,$$$$$$$$$,$$$$$$$$$,746.84735,-59.51566,501.03824},
  {$$$$$$$$$,$$$$$$$$$,103.03023,560.59524,179.71081,741.68347}},
 {"MQF5BFF",{294.95772,$$$$$$$$$,$$$$$$$$$,876.76353,375.26199,$$$$$$$$$},
  {$$$$$$$$$,413.97878, 52.44897,404.75564, -0.03005,441.05084}},
 {"MQF5AFF",{$$$$$$$$$,757.79821,485.39851,949.55673,204.97590,446.89945},
  {$$$$$$$$$,$$$$$$$$$,-35.93230,415.31903,$$$$$$$$$,802.04727}},
 {"MQD4BFF",{889.93686,641.30092,$$$$$$$$$,$$$$$$$$$,$$$$$$$$$,706.44017},
  {$$$$$$$$$,894.98314,137.13477,513.88702, 61.33271,701.16572}},
 {"MQD4AFF",{$$$$$$$$$,$$$$$$$$$,$$$$$$$$$,616.75116,367.36287,$$$$$$$$$},
  {-45.90997,$$$$$$$$$,$$$$$$$$$,652.77795,272.32468,834.45418}},
 {"MQF3FF",{$$$$$$$$$,676.76523,$$$$$$$$$,984.61838, 79.31676,900.15635},
  {$$$$$$$$$,$$$$$$$$$,$$$$$$$$$,515.15874,132.29053,$$$$$$$$$}},
 {"MQD2BFF",{169.87472,938.10150,112.54888,655.99025, 70.31827,608.13165},
  {$$$$$$$$$,$$$$$$$$$, 28.72319,413.42393,487.16065,745.05701}},
 {"MQD2AFF",{665.72832,724.72137, 89.83044,723.83878,  5.85723,557.73753},
  {594.17497,$$$$$$$$$,$$$$$$$$$,792.53287,624.32992,$$$$$$$$$}}};
