 CalibData = {{"MQF1X",{$$$$$$$$$, 60.43202, -1.87526, 33.64344,  3.84998, 32.00919},
  {166.94874,  3.36053,  0.74641,  1.70940,  0.80396,  1.95481}},
 {"MQD2X",{$$$$$$$$$, 23.24139,  6.41986,  8.11046, -1.30450, 13.38064},
  {110.62134,  3.45903, -3.83840,  3.80404,  1.82099,  5.38515}},
 {"MQF3X",{$$$$$$$$$, 25.68359, 23.31876, 13.53829, -3.14233, 18.30824},
  { 78.85627,  3.23917,-13.60383,  1.67758,  0.96229,  2.00603}},
 {"MQF4X",{$$$$$$$$$, 12.10943, 17.29306, 18.22102, -3.87302, 16.20781},
  {486.32294,  3.91805,-84.10628,  2.65206, -1.09189,  3.66429}},
 {"MQD5X",{$$$$$$$$$, 13.97550, 10.79380, 17.15357, -6.77930, 10.47291},
  {675.93087,  8.42982,$$$$$$$$$,  3.09266, -1.00476,  4.69003}},
 {"MQF6X",{  3.44497, 50.29192, -7.69977, 24.09909, -2.60609, 26.48754},
  {266.81185,  1.29634,-44.55902,  2.15378, -0.20702,  2.32873}},
 {"MQF7X",{$$$$$$$$$,  6.55128, -4.65397,  8.88987,  0.16903,  7.63590},
  {249.11299,  6.09460, 22.29853,  4.06942, -1.66438,  4.72838}},
 {"MQD8X",{$$$$$$$$$,  6.10596, -1.26327,  5.26723,  0.99325,  5.16974},
  {135.18007,  5.54229, 73.03283,  3.51225, -2.34117,  4.95033}},
 {"MQF9X",{$$$$$$$$$,  4.78934,  5.47919,  4.58596,  3.81545,  5.35261},
  { 20.10520,  2.45434, 34.03710,  1.44782, -0.80934,  2.30778}},
 {"MQD10X",{$$$$$$$$$,  0.80530,409.73459,  1.62901, -2.01706,  2.36938},
  {$$$$$$$$$,  0.85371, 41.31730,  0.94451, -0.07555,  1.45066}},
 {"MQF11X",{$$$$$$$$$,  2.75677,$$$$$$$$$,  3.89466, -7.01891,  6.76664},
  {167.94359,  0.47607,-31.76101,  0.49983,  0.30075,  0.56832}},
 {"MQD12X",{ -3.48909,  1.56466,303.75625,  1.51825, -2.91918,  2.41918},
  {391.21807,  1.63485,$$$$$$$$$,  1.56024,  0.85634,  1.48478}},
 {"MQF13X",{ 86.01601,  3.79198, 43.38806,  2.54602, -1.79670,  2.62637},
  {129.79456,  1.59649,-89.62644,  1.40127,  0.09436,  1.75225}},
 {"MQD14X",{432.28887,  2.25023,$$$$$$$$$,  2.52124,  2.34899,  2.82178},
  {221.64761,  2.80580,$$$$$$$$$,  3.73509,  1.05285,  3.11062}},
 {"MQF15X",{  0.00000,  0.00000,  0.00000,  0.00000,  0.00000,  0.00000},
  {  0.00000,  0.00000,  0.00000,  0.00000,  0.00000,  0.00000}},
 {"MQD16X",{ 67.42002,  1.50296,$$$$$$$$$,  1.51389,  2.87090,  2.40981},
  {239.55261,  1.14401,-46.80418,  0.87385, -6.90958,  1.15954}},
 {"MQF17X",{$$$$$$$$$,  1.96438, 95.49595,  2.34554,  1.85566,  2.36088},
  { 52.68904,  0.66029, 31.39412,  0.54393,-17.25190,  0.51344}},
 {"MQD18X",{-87.22462,  2.02870,641.98939,  2.63100, -5.14866,  4.41450},
  {$$$$$$$$$,  1.91279,158.34602,  1.75845,-51.98483,  1.60194}},
 {"MQF19X",{-50.82391,  5.47351,$$$$$$$$$,  6.19229, 14.89274, 10.54503},
  { 65.21176,  1.39152,118.47304,  1.13916,-33.98516,  1.15242}},
 {"MQD20X",{$$$$$$$$$,  2.61943,222.76020,  2.53362,223.99940,  3.34147},
  {-88.18456,  2.13684,179.61850,  1.84335,-32.21231,  2.02815}},
 {"MQF21X",{$$$$$$$$$,  2.55917,$$$$$$$$$,  5.81106,645.83865,  5.79054},
  {-54.54609,  0.86496, 34.37667,  0.72439,  6.63544,  0.88909}},
 {"MQM16FF",{ 31.79857,  2.42638,$$$$$$$$$,  4.19310,377.73485,  4.58118},
  {$$$$$$$$$,  2.07561,-61.69199,  1.98083, 51.62061,  1.69703}},
 {"MQM15FF",{282.02188, 63.79115,$$$$$$$$$,  9.35994,185.08673, 47.53817},
  {$$$$$$$$$,  2.90081,$$$$$$$$$,  2.49643, 78.23996,  2.46710}},
 {"MQM14FF",{ 36.42780,  1.68879,$$$$$$$$$,  1.64792,-97.33152,  2.55167},
  {$$$$$$$$$,  5.66538,$$$$$$$$$,  4.77958,147.02209,  4.58288}},
 {"MQM13FF",{ 40.85626,  2.21658,218.97760,  3.02204,$$$$$$$$$,  3.00452},
  { 63.45246,  4.72397,$$$$$$$$$,  4.72512,133.50751,  3.88376}},
 {"MQM12FF",{$$$$$$$$$,  0.70597,465.52029,  2.17654,$$$$$$$$$,  2.74566},
  { 66.16408, 11.80560,$$$$$$$$$, 10.16517,320.71907,  9.75989}},
 {"MQM11FF",{$$$$$$$$$,  1.97552,135.20277,  2.13801,236.13268,  2.77479},
  { 75.59334, 35.92592,$$$$$$$$$, 29.88060,953.42201, 27.87026}},
 {"MQD10BFF",{-75.36969,  4.33032,$$$$$$$$$,  5.15225,688.78030,  5.88868},
  {$$$$$$$$$, 56.35371,$$$$$$$$$, 46.15374,$$$$$$$$$, 44.83521}},
 {"MQD10AFF",{$$$$$$$$$,  6.81851,$$$$$$$$$,  8.99658,$$$$$$$$$,  9.71451},
  {183.23068, 47.29775,$$$$$$$$$, 43.07190,$$$$$$$$$, 39.79458}},
 {"MQF9BFF",{$$$$$$$$$, 13.13809,$$$$$$$$$, 16.86991,$$$$$$$$$, 16.66858},
  {-83.56998, 26.75212,$$$$$$$$$, 22.84842,717.26246, 21.51232}},
 {"MQF9AFF",{$$$$$$$$$, 12.24511,$$$$$$$$$, 16.15918,$$$$$$$$$, 15.91966},
  { 63.09761, 21.08863,$$$$$$$$$, 17.81797,562.20694, 16.92903}},
 {"MQD8FF",{ 59.50204,  3.70745,$$$$$$$$$,  4.72498,672.42778,  5.26644},
  {102.55407, 31.27448,$$$$$$$$$, 26.51168,846.98849, 25.52458}},
 {"MQF7FF",{$$$$$$$$$,  1.67054,$$$$$$$$$,  1.33274, 57.14722,  3.41469},
  {-42.06977,  0.31261,  5.97263,  0.83710, -4.37344,  0.89313}},
 {"MQD6FF",{-12.71755,  8.96643,108.26791,  5.87288,$$$$$$$$$,  5.81417},
  {172.03266, 22.98344,$$$$$$$$$, 19.82106,$$$$$$$$$, 19.16473}},
 {"MQF5BFF",{157.40789, 30.64201,507.17591, 18.54687,$$$$$$$$$, 17.38392},
  {-65.64855, 20.21498,891.78171, 17.21092,$$$$$$$$$, 16.74543}},
 {"MQF5AFF",{320.53429, 30.40142,531.61305, 18.28360,$$$$$$$$$, 17.16043},
  {  6.63719, 29.25037,$$$$$$$$$, 23.95830,$$$$$$$$$, 23.96522}},
 {"MQD4BFF",{255.95408, 15.36153,306.70347,  8.92906,$$$$$$$$$,  9.19752},
  {-81.43558, 53.99251,$$$$$$$$$, 46.05997,$$$$$$$$$, 43.79104}},
 {"MQD4AFF",{240.13062, 10.12552,239.99859,  5.37473,$$$$$$$$$,  6.00758},
  {$$$$$$$$$, 55.38873,$$$$$$$$$, 42.23273,$$$$$$$$$, 44.65598}},
 {"MQF3FF",{$$$$$$$$$,  9.47725,223.66659,  5.52355, 38.95816,  8.46900},
  {-58.83341, 16.80924,740.34942, 14.44205,$$$$$$$$$, 13.57918}},
 {"MQD2BFF",{$$$$$$$$$,  7.98363,-11.41788,  5.32742,418.49427,  7.00915},
  {241.86661, 13.06393,571.09644, 10.96817,$$$$$$$$$, 10.75176}},
 {"MQD2AFF",{$$$$$$$$$, 13.82386,$$$$$$$$$,  9.59314,947.44743, 12.29632},
  {104.51130,  4.45764,146.74747,  4.27840,-88.09148,  3.32145}}};
