 CalibData = {{"MQF1X",
  {-672.8108032226563,31.23464974767252,-13.81529846191404,24.602627308276762,-14.251715087890659,28.04034564201322},
  {268.3874938964844,3.1376904294403105,-.3503005981445426,2.147012341510269,1.0371139526367017,1.8231377585898174}},
 {"MQD2X",{79.56427688598633,7.548874474218651,-4.836495399475098,8.468995360223191,-7.679401969909669,8.571233503787912},
  {9.607036789506674,8.062016657006048,-6.5376133739948274,3.9876415966461183,.588345479592681,3.6554368653017706}},
 {"MQF3X",{-203.55512084960938,15.056802190711908,-5.507942199707031,10.400641078765283,-13.417707824707023,12.783495616965425},
  {-13.467894649505617,2.082001562720206,-13.960133056342602,2.0674829928713816,.4446382284164425,2.1552856872407307}},
 {"MQF4X",{496.58135070800785,19.22113766787142,4.238487243652344,9.170087857332765,-1.1208450317382699,9.190425363796038},
  {121.01924057006836,3.282171841205127,-84.49097328186035,2.397074770436223,-.4659694671630845,2.3508828294617152}},
 {"MQD5X",{35.77311191558838,16.05024859173319,7.395462322235108,7.087217355933984,-2.2147035598754883,7.82737202287405},
  {11.34910523891449,4.503981976579321,-138.6246536254883,2.0267845921779064,-.3055710315704343,2.4868781054068543}},
 {"MQF6X",{741.949774169922,45.27883715825014,8.476861572265591,22.293804259726063,6.133724975585949,22.932900339053628},
  {-5.7557971477508545,1.8643880757504483,-32.44936733245849,1.496478450829636,.05859882831573504,1.6270530487377326}},
 {"MQF7X",{-253.96201171875,3.2912479789519438,-1.7091827392578125,2.443947467131697,1.5455741882324219,2.136127100191962},
  {-193.8764358520508,2.9167408504802026,101.87351455688477,3.245722006838412,-.11423797607422159,3.8765209244334}},
 {"MQD8X",{-139.2103698730469,1.3863259023277466,-.9482604980468778,2.5133461678960334,.06434936523437784,2.1593358136468086},
  {-760.9529113769531,4.94979395555342,235.15072479248047,2.668905259886809,.042877197265625,3.047335593316761}},
 {"MQF9X",{-491.56410217285156,4.394316482006004,-3.1986145019531307,4.530476056192501,-2.8147750854492415,3.9380903601051056},
  {-232.98946990966797,1.9685836145676578,97.76371116638184,1.6696574769605848,-.0608726501464929,2.0364635079745788}},
 {"MQD10X",{-119.8853973388672,1.0500903965975694,365.3163284301758,1.1119797594087608,.01499061584472372,.8529029298793727},
  {-261.5073944091797,2.1743357696309213,65.1883285522461,1.1832694577371856,-.03163070678712643,1.7195785406986885}},
 {"MQF11X",{68.4528347015381,4.5854925295616065,1143.7098449707032,4.436100234335838,.6468832015991239,3.7243764647829836},
  {78.18921432495118,.8883614279889731,-61.286302518844614,.6597798316467308,.05407752990722514,.5632264199406556}},
 {"MQD12X",{89.48838729858399,1.930563752903048,283.078687286377,1.6557565231371447,.4534957885742159,1.6778626445366587},
  {73.19206085205079,3.631961341079159,-257.8152534484864,2.2782794522688206,-.14113769531250142,2.522517720747623}},
 {"MQF13X",{88.1345199584961,2.6959433487973774,15.807747459411623,1.541080069811537,.9765838623046861,1.8960201417155649},
  {-55.13341369628907,2.9820284856422217,-169.67000770568848,1.6834757496791466,-.3248001098632791,1.698980002043424}},
 {"MQD14X",{-14.343986415863037,1.7000090763510267,-359.7985076904297,1.2280894022612612,-.06977238655090368,.8949896535891015},
  {440.0420562744141,4.4566922597046785,-226.32873840332033,2.495928844330698,-.19893951416014488,2.059015858136782}},
 {"MQF15X",{0,0,0,0,0,0},{0,0,0,0,0,0}},
 {"MQD16X",{20.508204078674318,2.008645225313953,-264.69563751220704,1.5894414036880051,-.4930130004882809,1.6382479096606357},
  {82.46615295410157,1.4731521004562018,-85.33232679367066,.8225792227884204,-7.841916275024417,1.2416193512330598}},
 {"MQF17X",{13.079307079315186,2.388531919984002,104.92208366394044,1.6778047510647494,-.75900845527649,1.9846232370911991},
  {35.785360717773436,.6669036429748503,63.99215288162232,.5931814082100548,-16.23267993927002,.6337550537515426}},
 {"MQD18X",{97.15293197631837,2.939414728061714,593.0286666870118,2.6361563121281586,.5593200683593764,2.3744855100950226},
  {96.01417617797853,5.567425785337808,413.88220977783203,3.553346961772383,-67.77297039031983,4.108895855573933}},
 {"MQF19X",{266.91441192626957,7.532596646845161,1256.044287109375,6.3280201380777585,27.134349060058582,6.172184816316008},
  {113.19870681762696,3.1809693712350704,230.14660224914553,2.00847029596451,-33.372856521606444,2.254295303184282}},
 {"MQD20X",{-159.17310028076173,2.9563011956372782,197.19105491638186,2.3021442891143518,223.71525554656984,2.5643234265518076},
  {-96.30036010742188,5.10222018809008,341.41504516601566,2.759992422144715,-31.902369117736814,3.5816670780923134}},
 {"MQF21X",{32.74198589324951,3.336858575455284,-829.1252410888671,3.470856802442293,729.3870056152343,5.527542739186049},
  {-29.77655544281006,1.0100111714259528,53.09320259094238,.5071182309775049,6.791316032409668,.7668911062257738}},
 {"MQM16FF",{-193.44951782226565,2.6113147268240455,-391.6633583068848,2.441521195655118,-22.952903747558594,2.0860334925299804},
  {-184.5972625732422,1.4533495792570057,-109.86085739135743,1.8624084826638732,49.80669326782227,1.3179611311964399}},
 {"MQM15FF",{163.80496520996095,4.258171283271566,-208.13597068786623,3.2614307793988155,-329.2150459289551,3.975210501509534},
  {-6.635699009895325,4.533916782785945,-174.12824554443358,12.537542401205112,77.9850227355957,2.9451548762805473}},
 {"MQM14FF",{184.2477233886719,1.9850927588676979,162.72511341571808,1.7798260469317797,-285.50246276855466,4.01950476938946},
  {174.29236450195313,6.355083357575633,-448.2903503417969,7.228549610589899,163.25051388740542,5.21342760532975}},
 {"MQM13FF",{422.49659423828126,5.363854987222932,801.5769790649415,6.4539377129650495,-916.8183654785157,9.608848937362707},
  {64.33989067077637,3.3873556766066106,252.78948516845708,5.590252650035352,-93.44259412288666,5.560597257751753}},
 {"MQM12FF",{213.92640533447266,2.1867958279802915,386.6537712097168,1.6305185993279014,-302.0766712188721,1.4682119906445907},
  {460.37834472656255,18.22292404611361,1404.5885894775392,20.007659897978474,-552.9716660678387,13.906113677221862}},
 {"MQM11FF",{104.57694473266602,2.634970785401234,99.02671520709991,2.337339559026681,240.75547943115237,2.630243870457522},
  {182.07835845947267,25.88269515338559,1857.251153564453,105.67350313268851,-763.723211669922,22.968245633414924}},
 {"MQD10BFF",{142.56588592529297,5.124862255074237,-209.63926544189457,3.9181012721107566,678.4037750244141,4.579632383146545},
  {179.46580390930177,90.77695897882279,2935.0000732421877,43.25314666188226,-1136.9578918457032,29.076166163260293}},
 {"MQD10AFF",{-60.00185966491699,8.162397007598996,-461.27757263183594,6.432142221804361,1182.5399719238283,8.11105313338306},
  {407.4555572509766,37.76703408335918,2832.0063354492186,35.18168573193758,-1137.2472946166993,28.918539194028217}},
 {"MQF9BFF",{-24.146718525886538,16.075968077306687,-966.5337219238281,11.914609297775218,2175.270068359375,17.73511115871199},
  {-37.17321848869324,19.458529354804746,1484.4292785644534,19.44592814122775,-584.9610992431641,14.536355757708197}},
 {"MQF9AFF",{-182.58645782470705,14.550755525763787,-946.8856719970703,10.896972526957198,2026.387829589844,19.472483862665765},
  {22.96577250957489,14.842245924353046,1187.8864868164064,15.694866927227391,-450.23487091064453,11.204523639788105}},
 {"MQD8FF",{94.50724182128907,4.478973155553676,-370.0541442871094,3.220445217853302,689.8979736328126,4.739786835166542},
  {-145.93228454589845,17.69510340894945,1417.4578125,18.050452107964148,-535.5563735961914,13.502407073416498}},
 {"MQF7FF",{-20.469565200805665,1.2408111897122363,-271.71168518066406,1.2536733445998496,140.059916973114,2.1870074780201016},
  {-205.65691680908205,1.4237867673453686,-79.59540901184081,1.7178581464342562,31.868331146240237,1.0825252941184782}},
 {"MQD6FF",{-60.736038589477545,6.170511909592236,153.1819641113281,4.14676940407806,-631.9824356079101,5.780091826641256},
  {-132.1049057006836,18.61409213220723,-1474.4769897460938,19.93905763474143,562.8094512939454,14.057346864759511}},
 {"MQF5BFF",{-128.4369613647461,19.379364737663828,688.3171173095704,13.499435381706794,-2008.1132263183595,18.90474721598686},
  {-143.88414306640627,15.451196759896625,-1207.183413696289,16.005634658127708,459.0793617248535,11.647968370348243}},
 {"MQF5AFF",{16.44182162284851,19.79819879036614,737.8903839111329,13.530605732952795,-2000.6285217285158,23.102697933938504},
  {-1.6376176595687868,21.476140218097864,-1655.338800048828,24.917219303813877,648.2131637573243,16.285244436735333}},
 {"MQD4BFF",{65.6431053161621,9.156710087406719,403.73846893310554,6.702359778711453,-988.2349700927736,7.900172804123116},
  {-.8293817520141602,39.507607605786944,-2746.312451171875,93.5160128982326,1187.8986694335938,29.91911484846568}},
 {"MQD4AFF",{53.41551856994629,5.793333991821344,326.2924713134766,3.851289883818147,-595.2654174804688,4.577886182019957},
  {17.82869657278061,39.711654220077556,-2963.372399902344,40.09366999426588,1193.4100158691408,30.061602245711182}},
 {"MQF3FF",{-196.11288146972657,4.593834498288834,370.9105964660645,4.286812759100902,-17.161685276031495,4.704485182220516},
  {-96.70133972167969,11.141953301957136,-883.9612121582031,11.316910474479357,333.0948135375977,8.270359528279265}},
 {"MQD2BFF",{-561.8704528808594,6.943231103050255,23.82900085449222,5.471061993392314,384.09767379760746,5.314592744822713},
  {393.469027709961,7.308775903544239,-538.5655639648438,7.165198777173001,199.54172363281248,5.335224469111277}},
 {"MQD2AFF",{-96.4314178466797,12.279357243529331,-280.6183090209961,9.533274606324817,943.690087890625,10.80837693685677},
  {177.20379638671875,1.2239922116711037,70.54163284301758,3.498812410102625,-32.65592880249024,1.540862327603361}}};
