 CalibData = {{"MQF1X",{146.94980, 47.71589, 21.78442, 31.79507,  9.91879, 34.93003},
  {299.60733,  1.77806,  0.59135,  1.34420,  0.65066,  1.16527}},
 {"MQD2X",{111.43166, 20.86365,  1.72172, 16.09215, -3.97848, 13.97044},
  {102.84764,  3.91203, -5.71862,  4.13163,  0.94040,  6.21939}},
 {"MQF3X",{$$$$$$$$$, 31.24307, -2.81891, 26.51699,-10.87640, 22.81657},
  { 20.45877,  2.33399,-14.33058,  1.59459,  0.65055,  1.89531}},
 {"MQF4X",{232.65059,  4.87680,-13.25965, 12.69948,-14.95363, 18.24599},
  { 71.95953,  4.06053,-82.39311,  2.99694, -0.69781,  1.92771}},
 {"MQD5X",{$$$$$$$$$,  8.12683,-10.17363,  8.98629, -8.88320, 12.55535},
  {-22.51176,  6.16914,$$$$$$$$$,  4.73209, -0.60912,  4.82806}},
 {"MQF6X",{117.09978, 45.65638,-12.55284, 30.31657, -2.61324, 29.36574},
  { 44.15001,  2.52632,-43.17044,  1.42704,  0.26993,  2.29913}},
 {"MQF7X",{$$$$$$$$$,  1.44125,  5.35902,  4.49546,  5.01299,  6.45477},
  {183.28550,  5.68718, 22.48605,  3.56421,  0.11570,  2.92682}},
 {"MQD8X",{149.62921,  1.41495,  2.13968,  1.81954,  0.94188,  2.49740},
  {124.79538,  6.05275, 76.27626,  4.00400, -1.72125,  5.79793}},
 {"MQF9X",{266.56666,  2.68992,  2.57962,  3.88180, -0.59756,  5.72419},
  { 66.85041,  2.12395, 36.03671,  1.37981, -0.62088,  1.87418}},
 {"MQD10X",{ 42.80128,  1.44102,403.72837,  2.67016, -2.30346,  2.43415},
  {$$$$$$$$$,  1.32382, 41.47925,  0.72551,  0.01695,  1.26306}},
 {"MQF11X",{240.82339,  5.72515,$$$$$$$$$,  6.79966, -6.13543,  7.29118},
  { 81.64988,  0.57785,-32.04525,  0.50366,  0.25103,  0.58429}},
 {"MQD12X",{ 18.54682,  2.72553,300.43966,  2.06726, -1.79090,  2.72060},
  {-31.90409,  1.39876,$$$$$$$$$,  1.69237,  1.06757,  1.30165}},
 {"MQF13X",{$$$$$$$$$,  2.74653, 42.38701,  1.87067,  0.51164,  3.07365},
  {$$$$$$$$$,  1.00251,-91.59134,  1.32528,  1.05988,  0.82531}},
 {"MQD14X",{199.49217,  1.27023,$$$$$$$$$,  2.05201,  1.92038,  1.94557},
  {$$$$$$$$$,  3.64716,$$$$$$$$$,  2.42476,  2.03220,  2.33548}},
 {"MQF15X",{  0.00000,  0.00000,  0.00000,  0.00000,  0.00000,  0.00000},
  {  0.00000,  0.00000,  0.00000,  0.00000,  0.00000,  0.00000}},
 {"MQD16X",{ 68.49826,  2.91120,$$$$$$$$$,  2.10119,  1.81125,  2.78954},
  { -9.23331,  0.80453,-52.41826,  0.78821, -6.73472,  1.16989}},
 {"MQF17X",{235.11593,  2.86383, 78.53936,  1.63759, -0.38729,  2.75606},
  {-38.23449,  0.46324, 29.96125,  0.50239,-17.32348,  0.62882}},
 {"MQD18X",{ 82.81829,  4.27004,636.59052,  4.27379, -3.75667,  4.92746},
  {$$$$$$$$$,  1.77399,159.15297,  1.96057,-52.67023,  1.42947}},
 {"MQF19X",{187.50538, 11.26324,$$$$$$$$$,  9.49893, 19.25518, 11.95695},
  {-12.09360,  1.19367,120.13607,  1.38395,-34.42392,  0.94995}},
 {"MQD20X",{$$$$$$$$$,  4.07954,234.01211,  2.24818,226.46280,  3.91706},
  {$$$$$$$$$,  1.48370,188.56134,  2.07780,-33.11637,  1.49789}},
 {"MQF21X",{$$$$$$$$$,  2.46391,$$$$$$$$$,  5.32983,647.98134,  5.78759},
  {-54.83559,  0.71560, 39.40976,  0.57680,  6.32358,  0.91207}},
 {"MQM16FF",{-65.86484,  3.05353,$$$$$$$$$,  5.45967,376.45021,  5.26432},
  {-18.64083,  2.00422,-54.17707,  1.31154, 51.99650,  2.29060}},
 {"MQM15FF",{148.20792, 11.60455,$$$$$$$$$,  7.26122,191.39193, 33.73648},
  {-23.66428,  2.73137,$$$$$$$$$,  2.07883, 74.44194,  3.18444}},
 {"MQM14FF",{127.17101,  3.05984,$$$$$$$$$,  1.99074,-98.11606,  3.04061},
  {-20.83459,  5.46905,$$$$$$$$$,  3.48606,148.03056,  5.78653}},
 {"MQM13FF",{ 35.09023,  2.79697,194.90651,  2.21015,$$$$$$$$$,  3.30190},
  { 98.30838,  5.08552,$$$$$$$$$,  3.65646,132.92736,  5.50668}},
 {"MQM12FF",{-49.46309,  1.19924,450.52823,  2.89846,$$$$$$$$$,  2.79984},
  { 70.72661, 11.64130,$$$$$$$$$,  8.53578,321.22616, 12.44801}},
 {"MQM11FF",{-64.90816,  3.82353,149.04816,  1.94396,238.03829,  3.42488},
  { 52.52833, 34.04489,$$$$$$$$$, 24.94709,942.75822, 36.81144}},
 {"MQD10BFF",{ 32.36642,  7.03876,-86.76691,  3.99467,702.13868,  7.02599},
  {$$$$$$$$$, 55.16329,$$$$$$$$$, 78.03068,$$$$$$$$$, 62.44930}},
 {"MQD10AFF",{-61.90096, 11.16563,$$$$$$$$$,  6.15263,$$$$$$$$$, 10.40709},
  {141.54919, 45.89680,$$$$$$$$$, 34.43698,$$$$$$$$$, 50.22428}},
 {"MQF9BFF",{113.79895, 20.65464,$$$$$$$$$, 12.24725,$$$$$$$$$, 18.21626},
  {$$$$$$$$$, 25.66391,$$$$$$$$$, 18.58729,718.37885, 27.58917}},
 {"MQF9AFF",{$$$$$$$$$, 19.28897,$$$$$$$$$, 11.66075,$$$$$$$$$, 17.24517},
  { 40.58629, 20.15718,$$$$$$$$$, 14.58268,565.96798, 21.83572}},
 {"MQD8FF",{119.09480,  5.39784,$$$$$$$$$,  3.56090,668.74647,  5.51118},
  { 63.46299, 30.44879,$$$$$$$$$, 22.36653,855.88699, 33.00993}},
 {"MQF7FF",{$$$$$$$$$,  1.94917,$$$$$$$$$,  1.63411, 33.04506,  1.94247},
  {-52.08140,  0.60839, -0.61487,  0.44754, -0.87207,  0.49874}},
 {"MQD6FF",{-90.66550,  7.79435, 49.40703,  5.22353,$$$$$$$$$,  8.06785},
  {172.90902, 22.51017,932.09846, 16.28374,$$$$$$$$$, 24.26261}},
 {"MQF5BFF",{-34.63334, 23.64779,342.90633, 16.91759,$$$$$$$$$, 23.59826},
  {-56.00384, 19.78908,823.73321, 14.32607,$$$$$$$$$, 21.44870}},
 {"MQF5AFF",{144.91450, 22.85151,377.04343, 16.65563,$$$$$$$$$, 23.14822},
  { 28.48320, 28.47517,$$$$$$$$$, 19.94338,$$$$$$$$$, 31.01696}},
 {"MQD4BFF",{191.78722, 11.05210,231.03688,  8.19701,$$$$$$$$$, 11.82572},
  {-32.87330, 52.75522,$$$$$$$$$, 37.47635,$$$$$$$$$, 52.25598}},
 {"MQD4AFF",{219.28132,  6.22954,217.48357,  4.99748,$$$$$$$$$,  6.69806},
  {-69.18302, 53.95397,$$$$$$$$$, 32.68873,$$$$$$$$$, 48.08657}},
 {"MQF3FF",{-44.26048,  5.41370,348.82874,  4.48794, 69.76606,  4.69304},
  {$$$$$$$$$, 15.92911,671.35732, 11.57555,$$$$$$$$$, 17.07205}},
 {"MQD2BFF",{$$$$$$$$$,  7.19149, 86.49461,  5.51977,439.48232,  5.47734},
  { 24.99228, 11.56470,487.59944,  8.57990,$$$$$$$$$, 12.50988}},
 {"MQD2AFF",{$$$$$$$$$, 13.30807,$$$$$$$$$, 11.35952,969.05901,  9.23379},
  {$$$$$$$$$,  1.85056, 82.90838,  1.72145,-52.10369,  1.97624}}};
