 CalibData = {{"MQF1X",{277.96255,  0.00000,  0.00000,  0.00000,  0.00000,  0.00000},
  { 32.05570,  0.00000,  0.00000,  0.00000,  0.00000,  0.00000}},
 {"MQD2X",{551.28229,  0.00000,  0.00000,  0.00000,  0.00000,  0.00000},
  {141.85612,  0.00000,  0.00000,  0.00000,  0.00000,  0.00000}},
 {"MQF3X",{448.46939,  0.00000,  0.00000,  0.00000,  0.00000,  0.00000},
  {-17.21074,  0.00000,  0.00000,  0.00000,  0.00000,  0.00000}},
 {"MQF4X",{397.85028,  0.00000,  0.00000,  0.00000,  0.00000,  0.00000},
  {$$$$$$$$$,  0.00000,  0.00000,  0.00000,  0.00000,  0.00000}},
 {"MQD5X",{$$$$$$$$$,  0.00000,  0.00000,  0.00000,  0.00000,  0.00000},
  {$$$$$$$$$,  0.00000,  0.00000,  0.00000,  0.00000,  0.00000}},
 {"MQF6X",{$$$$$$$$$,  0.00000,  0.00000,  0.00000,  0.00000,  0.00000},
  {$$$$$$$$$,  0.00000,  0.00000,  0.00000,  0.00000,  0.00000}},
 {"MQF7X",{127.13624,  0.00000,  0.00000,  0.00000,  0.00000,  0.00000},
  {-63.39074,  0.00000,  0.00000,  0.00000,  0.00000,  0.00000}},
 {"MQD8X",{140.74336,  0.00000,  0.00000,  0.00000,  0.00000,  0.00000},
  {$$$$$$$$$,  0.00000,  0.00000,  0.00000,  0.00000,  0.00000}},
 {"MQF9X",{ -6.55275,  0.00000,  0.00000,  0.00000,  0.00000,  0.00000},
  {$$$$$$$$$,  0.00000,  0.00000,  0.00000,  0.00000,  0.00000}},
 {"MQD10X",{ -8.12157,  2.92429,375.05753, 13.07142,  2.56011,  3.39450},
  {$$$$$$$$$,  1.82905,107.39767,  1.12894, -0.21854,  1.77403}},
 {"MQF11X",{227.27370,  9.18915,$$$$$$$$$, 39.55372,  6.94987, 10.67629},
  {208.07172,  0.96727,-83.45794,  0.79499, -0.18766,  0.98266}},
 {"MQD12X",{135.53602,  3.00668,293.62786, 12.19034,  1.87561,  3.57358},
  {513.87323,  3.93439,$$$$$$$$$,  2.96135, -0.14002,  4.27523}},
 {"MQF13X",{ 90.61238,  0.00000,  0.00000,  0.00000,  0.00000,  0.00000},
  {184.81430,  0.00000,  0.00000,  0.00000,  0.00000,  0.00000}},
 {"MQD14X",{-27.39078,  0.00000,  0.00000,  0.00000,  0.00000,  0.00000},
  {679.70898,  0.00000,  0.00000,  0.00000,  0.00000,  0.00000}},
 {"MQF15X",{  0.00000,  0.00000,  0.00000,  0.00000,  0.00000,  0.00000},
  {  0.00000,  0.00000,  0.00000,  0.00000,  0.00000,  0.00000}},
 {"MQD16X",{ 34.10542,  2.81668,$$$$$$$$$, 11.43703, -1.67597,  3.29587},
  {-27.57893,  1.86180,$$$$$$$$$,  1.20446, -6.95910,  1.82978}},
 {"MQF17X",{184.31801,  1.30972, 66.66540,  1.84921,  0.72777,  1.34835},
  { 50.91905,  1.00511, 85.85620,  0.76936,-16.92639,  1.02421}},
 {"MQD18X",{192.10605,  5.53641,614.62418, 23.84039,  4.14524,  6.69946},
  {285.96831,  6.65491,563.90504,  5.16051,-67.61864,  7.36300}},
 {"MQF19X",{417.55745, 12.51578,$$$$$$$$$, 53.48886, 33.75324, 14.98425},
  {240.09028,  3.79130,313.50950,  2.92766,-32.90923,  4.13940}},
 {"MQD20X",{$$$$$$$$$,  3.26205,228.54495, 11.59198,217.64344,  3.88733},
  {163.15018,  5.86487,473.30019,  4.38910,-30.72063,  6.48910}},
 {"MQF21X",{$$$$$$$$$,  3.45100,$$$$$$$$$, 19.55515,657.35431,  4.19627},
  { 70.66800,  1.26845, 86.47097,  0.90927,  7.44877,  1.33947}},
 {"MQM16FF",{-55.84277,  6.54097,$$$$$$$$$, 27.82419,362.85518,  7.61527},
  {-32.54825,  2.11253,$$$$$$$$$,  1.83097, 53.60570,  2.11969}},
 {"MQM15FF",{229.13306, 12.32802,$$$$$$$$$, 72.32317,220.20280, 29.56810},
  {$$$$$$$$$,  3.74977,$$$$$$$$$,  2.97764, 75.18868,  3.74408}},
 {"MQM14FF",{-48.41522,  2.69436,$$$$$$$$$, 10.44896,-88.46071,  3.44049},
  {$$$$$$$$$,  8.97826,$$$$$$$$$,  8.46762,201.93729, 10.32895}},
 {"MQM13FF",{-16.09491,  1.57741,183.15049,  3.41596,$$$$$$$$$,  1.35172},
  { 53.71332,  8.18975,$$$$$$$$$,  6.09488,136.86117,  7.72812}},
 {"MQM12FF",{-50.05012,  2.41699,352.28680, 11.64967,$$$$$$$$$,  2.99518},
  { -7.30587, 21.82647,$$$$$$$$$, 17.58051,422.77343, 22.91603}},
 {"MQM11FF",{$$$$$$$$$,  3.08252,178.27813, 10.38885,268.85972,  3.82793},
  {$$$$$$$$$, 44.90519,$$$$$$$$$, 38.90671,869.45786, 47.09173}},
 {"MQD10BFF",{-35.33909,  4.02575,-67.05553,  7.39441,784.88511,  4.72610},
  {$$$$$$$$$, 81.31377,$$$$$$$$$,$$$$$$$$$,$$$$$$$$$, 89.98345}},
 {"MQD10AFF",{$$$$$$$$$,  7.65860,$$$$$$$$$, 11.83725,$$$$$$$$$, 14.10220},
  {$$$$$$$$$,107.71073,$$$$$$$$$, 39.57791,$$$$$$$$$,107.23020}},
 {"MQF9BFF",{-81.80991,  9.88365,$$$$$$$$$, 13.74108,$$$$$$$$$,  9.16377},
  {$$$$$$$$$, 37.37827,$$$$$$$$$, 58.40490,722.57056, 39.45095}},
 {"MQF9AFF",{$$$$$$$$$,  9.70979,$$$$$$$$$, 12.89825,$$$$$$$$$,  9.72818},
  {  7.25028, 30.67826,$$$$$$$$$, 19.17623,592.75395, 32.43623}},
 {"MQD8FF",{ 70.07601,  2.70107,$$$$$$$$$,  3.88589,684.12414,  2.49607},
  { 43.20553, 38.42292,$$$$$$$$$, 28.54126,741.30907, 40.62528}},
 {"MQF7FF",{$$$$$$$$$,  1.89713,$$$$$$$$$,  8.58061, 71.11732,  3.04046},
  {-14.73851,  0.29219,-18.66941,  4.19656, -2.45883,  0.54456}},
 {"MQD6FF",{-48.21956,  9.04328, 18.47921,  8.20174,$$$$$$$$$,  4.53191},
  {281.03806, 34.02723,$$$$$$$$$, 18.66464,$$$$$$$$$, 35.72459}},
 {"MQF5BFF",{ 48.57145, 29.65441,256.41682, 19.01370,$$$$$$$$$, 11.41829},
  { 13.64578, 30.13710,$$$$$$$$$, 17.32104,$$$$$$$$$, 31.57943}},
 {"MQF5AFF",{223.80548, 30.17864,303.17671, 17.90515,$$$$$$$$$, 12.79689},
  { 98.55616, 43.20298,$$$$$$$$$, 22.81328,$$$$$$$$$, 45.59848}},
 {"MQD4BFF",{203.64948, 14.66131,200.85537,  7.25240,$$$$$$$$$,  5.22831},
  { 82.08515, 79.56545,$$$$$$$$$, 36.21444,$$$$$$$$$, 81.56537}},
 {"MQD4AFF",{201.42326,  9.36426,206.23111,  3.59807,$$$$$$$$$,  2.81064},
  { 37.41000, 81.88824,$$$$$$$$$, 31.89829,$$$$$$$$$, 81.90553}},
 {"MQF3FF",{764.90953,  6.99686,374.46421, 15.98217, 12.83686,  6.43728},
  {$$$$$$$$$, 24.59044,$$$$$$$$$, 11.26350,$$$$$$$$$, 26.26182}},
 {"MQD2BFF",{ 94.61170,  7.92619,107.33919, 10.56975,418.94348,  5.45981},
  {121.82909, 18.94038,$$$$$$$$$, 17.27713,$$$$$$$$$, 20.73519}},
 {"MQD2AFF",{  9.46663, 15.22686,-82.85276, 12.01014,894.93582,  7.06478},
  {$$$$$$$$$,  4.57179,512.47072,  5.74504,$$$$$$$$$,  5.69742}}};
