 CalibData = {{"MQF1X",
  {-735.9633666992188,40.68895743477235,-2.5013580322265625,25.237536684742985,13.040362548828114,28.143630432017183},
  {277.8024139404297,2.0388835104604013,-.934234619140625,2.119993892688434,-1.4172042846679744,2.4999459871239917}},
 {"MQD2X",{-130.82900695800782,17.70588597074341,-1.6512130737304673,9.829852548492184,9.024039840698237,13.22677349350056},
  {23.083821773529053,8.954706376769924,-9.059670809190722,4.291180003459065,-2.384535217285156,4.134175864576788}},
 {"MQF3X",{-627.9949035644531,43.13722047473634,-4.4848510742187955,18.50315477794317,15.774417114257801,23.602441117580323},
  {-12.540750360488893,3.7865270490982086,-14.801292490959167,3.0361429888782623,-.6515202045440667,2.652681251361565}},
 {"MQF4X",{247.34234771728518,39.58826410676135,-1.4638557434082031,16.55300234946649,3.945755767822277,13.851734049657113},
  {96.3249725341797,2.65213757901401,-85.02699434757234,2.4487528187548167,-1.6227249145507798,2.579744724968438}},
 {"MQD5X",{-85.11554260253907,14.211770831913181,1.0512819290161133,12.137734056419594,-1.9694528579711914,9.351462077081639},
  {-28.039052963256836,3.2131472861744337,-139.59320945739748,4.278829929915447,.7057210922241222,3.2076814513835763}},
 {"MQF6X",{999.5888122558595,36.761652936608485,.30523681640625,21.76781658248176,-15.41895446777346,21.795014149538826},
  {-18.00194721221924,2.3283972783597253,-32.56865983009338,1.078161399042697,-.039137458801270064,2.109242367254493}},
 {"MQF7X",{-98.75646591186523,5.9975671123247265,-1.2773097991943345,4.947827004398224,-1.5168182373046903,4.819373014316298},
  {-181.87566528320315,1.6804840583621632,106.8289966583252,2.3764021992482927,1.075679016113284,2.4138115151123007}},
 {"MQD8X",{-13.160916614532471,6.009300866562348,-1.986182886362076,2.8042272895790483,2.320968270301819,3.3348118455566325},
  {-731.335693359375,4.422854985281912,240.03829956054688,2.9805572689183557,2.2056488037109148,2.033100730736652}},
 {"MQF9X",{-251.7303421020508,12.591587113923918,-4.518563842773446,7.088580895114218,7.1613098144531335,8.274500909232069},
  {-217.9757080078125,1.941167610620287,100.59229736328126,1.2104175758221938,.7895797729492244,1.116540420271081}},
 {"MQD10X",{-67.51074447631837,4.451827015406108,371.0098236083985,1.4544745288536718,-.39294738769531534,1.8929584262215957},
  {-235.11175842285158,1.3733591590725533,65.55383453369141,2.1732975995792554,-.6276817321777344,1.2876758274262723}},
 {"MQF11X",{122.11940689086914,15.58352070814589,1150.02392578125,5.4398435005867,-5.017639541625975,7.994982070811818},
  {54.78691787719727,.8758862140154535,-63.45661811828614,.6686631443149884,-.06410560607909943,.47887950095084336}},
 {"MQD12X",{57.71311416625977,5.551649813585084,286.2007286071778,2.089980578651037,-2.80819664001465,3.1898268912305143},
  {-3.839269119501114,3.7630834465696923,-265.5621849060059,2.504790860083949,-.25689993500709507,1.87533198521211}},
 {"MQF13X",{-14.074552965164186,6.509423784027178,14.217789655923845,2.8176470844914103,-2.9742302179336555,4.217347652169277},
  {-80.28611602783204,2.558603457603075,-171.47592697143557,1.9885878754704724,.10894088745116903,1.8384079983102193}},
 {"MQD14X",{-55.36794700622559,3.8955187140986114,-359.49203338623045,1.8619354204161402,.49385223388672017,2.3448656176629754},
  {425.90032653808595,5.537203197045159,-228.51884078979492,4.06616855966229,1.1786102294921932,3.113122123934046}},
 {"MQF15X",{0,0,0,0,0,0},{0,0,0,0,0,0}},
 {"MQD16X",{51.50040626525879,5.291896389060436,-266.2319969177246,2.073538673272657,2.822778129577639,3.175082423015185},
  {88.87431640625,1.76766791105178,-86.80838423520326,1.0686844114867515,-7.685740661621097,1.162259954877348}},
 {"MQF17X",{137.60254516601563,5.558209210829875,106.29873886108399,2.9468332666872956,3.8743064880371065,3.4850104142472893},
  {33.017879295349125,.8374936216685175,65.7615029335022,.7296312261803938,-15.843838596343994,.4945166462722277}},
 {"MQD18X",{113.11027374267579,9.250705613866884,595.2363189697267,3.190986636754584,-3.7890193939209027,5.091862995883941},
  {80.03974533081055,5.957431882351994,424.83021240234376,4.030868095516888,-66.25462837219239,3.031389764155016}},
 {"MQF19X",{237.67008209228516,21.93297723810049,1256.7003448486328,7.941203658228955,15.2210708618164,12.541695864787831},
  {103.11587753295899,3.319651765981177,234.17536582946778,2.2095882985357913,-32.61710395812988,1.7197499233515905}},
 {"MQD20X",{-181.56556396484376,7.433878343208935,195.02352579832078,3.3984543169410255,217.31551866531373,4.81794557875973},
  {-70.17257919311524,5.2668236053488995,347.4038909912109,3.596277606402343,-31.048321723937992,2.837473127250107}},
 {"MQF21X",{-46.16823253631592,11.706295763143231,-866.4694122314454,6.156255377986327,754.2795623779298,4.478565373380435},
  {-10.665486335754395,1.1300981374748524,53.886891746521,.7848132312112394,6.575319314002991,.7112723545223416}},
 {"MQM16FF",{-187.344645690918,7.47002371462435,-404.00867080688477,2.727162636255976,-18.536182403564453,4.32982657373665},
  {-158.19243011474612,2.031637726816914,-120.23569679260254,1.8045171204622152,53.21839561462403,1.020389749975479}},
 {"MQM15FF",{210.63973236083984,11.022764059438542,-183.5860666871071,20.8194988239345,-287.795906829834,24.863998876578567},
  {-18.80011396408081,3.198091791587851,-223.7367088317871,2.5966483119003225,80.1034423828125,1.666827839548013}},
 {"MQM14FF",{207.32368927001954,4.898544127152559,167.78077297210694,2.580000377997116,-295.28066902160646,2.6267159227913766},
  {30.73099021911621,6.581611245448132,-489.71131896972656,5.278995142538626,174.62728042602538,3.866458337160402}},
 {"MQM13FF",{520.9278076171876,11.581681798864128,841.8756011962892,13.823730426452617,-954.9016830444336,8.212238440565903},
  {121.3224708557129,6.3866281666464175,283.55383377075196,4.857228731480938,-102.92564487457275,2.768107258134738}},
 {"MQM12FF",{233.13464660644533,4.768860517661462,392.2455024719238,2.503513863932883,-304.4718955993652,2.24862387085517},
  {670.346240234375,22.785574245784684,1501.5021667480469,19.197755853417235,-535.8691642761231,8.999314375926593}},
 {"MQM11FF",{82.82087860107423,6.541914546559997,97.7151752948761,3.098709743120128,239.29100570678713,4.178828892900738},
  {510.0372985839844,32.38358689011162,2082.9815368652344,27.814318074151718,-748.0367618560791,13.668895666600996}},
 {"MQD10BFF",{81.82838516235353,12.673532342420305,-220.55266647338868,6.622578130425164,675.8025848388672,16.39260991319334},
  {749.2496704101563,46.00947539572588,3225.506689453125,39.374992221869356,-1155.3345451354983,22.825231263753068}},
 {"MQD10AFF",{-163.17027740478517,20.079179744550682,-474.11370315551767,11.218827836892702,1162.241796875,14.033045294331359},
  {893.5933776855469,45.6911000270489,2922.7691894531254,85.06545711426634,-1109.5909915924071,20.370026718180004}},
 {"MQF9BFF",{-234.54968414306643,38.28658140338298,-999.6130981445312,21.726529569675485,2209.442761230469,19.154117564757225},
  {233.5085220336914,24.129906183754546,1593.6205993652343,20.128705661263,-580.880500793457,11.529420582273259}},
 {"MQF9AFF",{-375.0125274658203,35.68552008585574,-983.9877517700196,20.48253823013624,2142.0711975097656,21.432005024619016},
  {250.1434753417969,18.655478238839876,1237.2955200195313,15.682873672075965,-447.57779121398926,8.767951928248152}},
 {"MQD8FF",{35.326464557647704,11.139969977502325,-386.5501052856446,6.603118590774211,703.4642547607423,7.070479685035069},
  {160.1520378112793,22.00831663620158,1471.2802124023438,18.580104847592764,-529.2747055053711,10.572513304764632}},
 {"MQF7FF",{-15.281841945648194,3.2039534468054534,-290.6599578857422,2.0584518201302417,167.3437171459198,4.007518569347067},
  {-183.16285247802736,1.161425960847757,-88.60731620788576,1.415907746135485,32.4992088317871,.790813695261883}},
 {"MQD6FF",{20.94241886138916,14.069219565687462,151.2314350128174,6.852739749207142,-623.4696044921875,5.3817616761994955},
  {-338.86219177246096,23.047347385511692,-1557.718115234375,22.845120752294804,559.8153930664063,11.074080191962764}},
 {"MQF5BFF",{123.7254997253418,44.65619097244189,699.4630981445313,22.27455672729639,-2008.2783203125,16.7063659802842},
  {-341.3958648681641,18.59582545038715,-1265.1498321533204,16.023888454615513,455.99927949905396,9.120656051507888}},
 {"MQF5AFF",{270.13912200927734,44.97995518538328,752.4342346191407,22.45776133603539,-2006.312585449219,15.168248455878587},
  {-306.5416534423828,26.42407858346419,-1774.255926513672,22.560064887796504,643.9402282714844,12.78959830458329}},
 {"MQD4BFF",{189.3308853149414,21.27003312376733,415.55172195434574,11.005153191110582,-1000.1238708496094,8.126927918376946},
  {-581.2539093017579,48.330784817881266,-3169.6916015625,37.79262715767348,1158.5849334716797,20.609746825053147}},
 {"MQD4AFF",{129.8492317199707,12.485579269669568,337.4933166503906,6.899791880656676,-610.9841781616211,5.087972362242721},
  {-579.6259582519532,48.703811989945805,-3198.9755615234376,38.83915966610092,1157.86533203125,22.337503418994253}},
 {"MQF3FF",{-197.39373168945315,6.6670188792156635,391.5433486938477,4.353568117192999,-61.94961566925049,7.602439151044872},
  {-290.2724273681641,13.83385323741064,-940.3133239746094,11.936613596407412,331.5576386213303,6.922353766694659}},
 {"MQD2BFF",{-595.1604248046875,10.037569945005288,28.03064575195316,5.281135858716259,360.33887100219727,7.401056079914151},
  {235.88667755126954,7.996939291339728,-579.4717346191406,7.247191570969262,199.16810482814907,4.435281100542961}},
 {"MQD2AFF",{-150.05923156738282,20.344340362908206,-291.54229125976565,11.070935862483905,923.3130645751953,14.896024052206405},
  {116.16814880371095,1.1249516419100056,56.981833076477045,2.8244625250679807,-28.552034759521476,1.1638316747864164}}};
