 CalibData = {{"MQF1X",
  {-703.2518981933595,24.213239619811734,3.8362854003906364,25.243772405518435,3.831057739257801,33.45624065434017},
  {266.1844116210938,3.760788593456633,-1.3692619323730355,2.4909891513143916,-3.2412826538085824,2.3419114573614745}},
 {"MQD2X",{-105.62240066528321,14.951999799788089,7.0548671722412095,8.5767367122335,3.9682346343994084,10.237037074434562},
  {-21.071456480026246,10.494901037691724,-9.384868097305299,5.129406884723055,-16.8521826043725,4.325864101885207}},
 {"MQF3X",{-582.0205017089844,27.49263574398558,13.859893798828125,15.496223783960751,7.363003540039074,16.351140409703806},
  {-20.965227031707766,4.410727280001786,-14.100241470336915,2.0039174750505073,-6.107832288742065,2.8860108181316066}},
 {"MQF4X",{260.77440032958987,17.338352904050694,6.235195159912109,17.217330833497453,3.7554122924804574,18.029865148603733},
  {135.98370208740235,3.0722737808329206,-83.5106803894043,2.0555301356704256,3.461538314819336,2.712004465465571}},
 {"MQD5X",{-78.75281982421876,12.136519173051324,2.6669157028198285,12.996188267267424,1.7483587265014648,13.733224480245076},
  {36.323455047607425,2.6592694238205548,-139.65749282836913,3.394587211057414,8.320008182525637,3.2067233938345936}},
 {"MQF6X",{955.4656127929688,27.318361697135156,-8.497128295898449,23.018722829049864,-5.508297729492199,27.743473546913375},
  {2.847362846136093,2.3483463338083506,-31.268741321563724,1.3837912285930778,3.3613891176879407,1.7903919043642196}},
 {"MQF7X",{-111.35272293090821,3.75790704588137,-.6724060058593722,4.529639759642127,-1.9614509582519517,4.27909396287734},
  {-207.57894897460938,6.118324729989638,104.73503189086915,3.1290912862114504,2.5934226989746065,2.9375064116583993}},
 {"MQD8X",{-25.942296028137207,4.032174335375865,1.2279709815979007,2.1483675424695394,-2.123542594909668,2.4696405304063367},
  {-797.1281127929688,5.336029883013639,237.68825683593747,2.8951856995034184,4.230868530273426,2.2409877837395586}},
 {"MQF9X",{-275.53767242431644,11.637372351878236,2.2588562011718807,5.193082349278198,-4.00371398925779,6.445257026728052},
  {-245.7864486694336,3.2788696013975542,99.30655364990236,1.576320664322575,1.101571655273446,1.175760770504325}},
 {"MQD10X",{-63.28158111572266,1.1060671371724973,369.4463073730469,1.3230782717075875,1.3286209106445312,1.6384339356466713},
  {-260.7166717529297,2.5190137710790586,63.60904617309572,1.8597973568983726,-1.7201484680175696,1.8566298822551555}},
 {"MQF11X",{143.8008575439453,6.5708508892349915,1140.527182006836,5.756817511124601,5.311861801147465,6.21271922311481},
  {75.28849411010742,.9631238550047422,-62.436605715751654,.6484662373097038,.0809173583984375,.6933410973087437}},
 {"MQD12X",{66.41479415893555,3.450742919503948,282.39595336914067,2.5613171474289684,1.8326528549194343,2.408585223251114},
  {86.74543914794923,3.4144016840270384,-262.19754486083986,2.6575854430663313,1.9131910324096673,2.7091108175459913}},
 {"MQF13X",{-5.395504730939866,6.296432662787029,11.614738702774048,2.4334282655224913,2.095037707686424,2.961780238585828},
  {-20.086662101745606,2.455827656478071,-170.5297565460205,1.950219935131998,.9730398178100614,1.6808251673247454}},
 {"MQD14X",{-55.9580623626709,1.3647414906429793,-359.3436508178711,1.527327069322696,-1.910230255126951,1.9626989488935105},
  {508.27162170410156,4.034638497191755,-228.84351577758787,3.2412192426397435,1.569429016113304,2.1658728953195734}},
 {"MQF15X",{0,0,0,0,0,0},{0,0,0,0,0,0}},
 {"MQD16X",{42.58543014526367,3.3565531429415385,-262.6298828125,2.4259462595027257,-1.681628990173337,2.2777282481992756},
  {125.60039825439453,1.2930480400473257,-85.66395778656008,1.0648859047945614,-5.134613037109375,1.0182482182347563}},
 {"MQF17X",{128.5686637878418,5.092015235245098,109.96056754589081,2.8140249331253013,-.7905544281005774,2.4028113287515223},
  {16.30280637741089,.9488632545856677,64.950341796875,.6420291791843744,-15.812449145317078,.6892921914284011}},
 {"MQD18X",{125.97389068603516,4.760401043611805,589.4797897338867,3.9237011175433443,3.198526382446289,3.8420125383265566},
  {-44.947228622436526,5.459698619633121,418.98005371093757,3.964811438519259,-69.12887649536134,4.3620484198824325}},
 {"MQF19X",{271.75618743896484,12.941633036430881,1243.7227783203125,9.84819236945561,32.985015869140625,9.36043306495376},
  {32.346109008789064,2.991759689063973,231.22175064086915,2.236557177238452,-34.384463691711424,2.3979011523585987}},
 {"MQD20X",{-167.205810546875,6.025503808551307,189.39898862838749,3.823870844562699,224.39318447113038,3.4308340253640166},
  {-185.1333770751953,4.076540245538771,342.52767715454104,3.413444582259971,-35.7850685119629,3.5667787049804756}},
 {"MQF21X",{-36.171050453186034,6.848046309879476,-859.1211090087891,3.556046009709186,747.7538177490235,4.221778707189037},
  {-35.219804000854495,.75178269552691,53.059666538238524,.7514724074344211,4.834878540039062,.6243524359957229}},
 {"MQM16FF",{-198.05230712890625,4.471605968877808,-395.2416229248047,3.3220504570324376,-24.939427947998055,3.178165461823394},
  {-141.93939819335938,2.6262141418623304,-117.60100345611572,1.6096215779941916,50.8080551147461,1.5072552383684195}},
 {"MQM15FF",{191.41900024414065,8.899644459781914,-199.27633018493654,5.417796855832647,-326.93483505249026,8.636960519951348},
  {15.618893051147461,4.199172556520858,-217.73207321166993,2.762164265634797,73.52747249603271,2.5256259195406607}},
 {"MQM14FF",{202.29358520507813,4.460657896465978,171.0425866007805,2.3308246355786504,-295.0872207641602,2.6962502801876003},
  {111.89479522705079,8.872585918093051,-475.5580169677735,5.652902690492462,161.55437736511232,5.901463749873202}},
 {"MQM13FF",{496.41684265136723,11.969815619636439,837.3401870727539,5.008867779957769,-957.4368835449219,8.284908060812816},
  {67.6626190185547,6.768439406588439,282.9291412353516,4.637256369247454,-99.547180891037,3.9912800860299154}},
 {"MQM12FF",{230.7802917480469,2.6921790714697234,393.00158767700196,1.4823305603354882,-305.7188266754151,2.0863405388421956},
  {405.96165466308594,28.25765731622727,1476.7531768798829,18.289808883383895,-527.488544845581,17.07721899415119}},
 {"MQM11FF",{96.05492095947267,5.4461236459571145,92.5520978331566,3.2680753601909114,245.263419342041,2.9231321567548414},
  {133.07014389038088,39.738309085052414,2048.420678710938,26.95676686864141,-720.9451187133789,23.530684040477357}},
 {"MQD10BFF",{104.88170776367188,10.877502929693783,-227.64347190856932,6.0254362759117255,686.9403045654298,10.633550586186567},
  {175.738045501709,59.971524002654725,3158.8831787109375,38.83890689512596,-1105.8368927001954,35.8138735978228}},
 {"MQD10AFF",{-126.77963790893556,18.04662692219231,-488.59263610839844,9.565473672751088,1182.4993957519532,14.016939417144538},
  {347.91826171875005,57.87204860410182,2973.2254638671875,48.93586823006868,-1078.787498474121,34.98938329553248}},
 {"MQF9BFF",{-164.3957160949707,34.63519385407861,-1026.000765991211,18.064895109443444,2216.573291015625,18.04333396819484},
  {-49.6401632130146,29.978543542299164,1568.117144775391,19.403991565908633,-560.9424697875977,18.42891679898369}},
 {"MQF9AFF",{-310.96728820800786,32.35240159106261,-1007.3112976074219,16.724603836866542,2150.4978149414064,21.51611429264123},
  {31.509684896469118,23.181197892193673,1217.2169708251954,15.034730424978594,-431.8949111938477,14.195002756589975}},
 {"MQD8FF",{54.426429748535156,9.926695700204762,-389.7248001098633,4.7940105282598156,708.203271484375,5.274306608668897},
  {-99.27600059509278,27.46186371272886,1472.5240539550782,17.84329010604301,-510.66700744628906,16.76861787021833}},
 {"MQF7FF",{-16.583886432647706,.9355512167422784,-277.97318878173826,1.5966299661089456,152.4095228254795,2.652607277433787},
  {-167.97012329101562,1.710030055786901,-88.15835418701172,1.6003244316295915,31.074114990234378,.9470618408296095}},
 {"MQD6FF",{-3.858526399731636,9.281574742544043,166.39911918640138,7.533939920611389,-641.280844116211,7.31270918035271},
  {-67.21706657409668,28.838493150378053,-1541.3702270507813,21.756739071357657,539.5456604003907,17.452893039974683}},
 {"MQF5BFF",{43.4873174905777,27.541654169893015,733.7116088867188,22.889686115173994,-2031.516815185547,23.9919454995066},
  {-120.35931930541993,23.55814175853471,-1244.071374511719,15.650510249444189,439.49885787963865,14.22937168144992}},
 {"MQF5AFF",{190.66676025390626,27.423994914348558,783.9342071533204,22.81052832236243,-2017.7224609375003,22.486829167336044},
  {7.292785781621934,33.24882790855156,-1728.4889770507812,19.599341610440817,620.8630523681641,20.167099059107926}},
 {"MQD4BFF",{148.35020141601564,12.793299324539854,426.94178161621096,10.672402670415812,-1013.2449554443359,10.990068784351042},
  {-5.919551658630372,61.00006201167422,-3090.946215820313,39.82244474056501,1136.5201782226563,36.940592050935514}},
 {"MQD4AFF",{104.65794219970704,7.010235694025928,339.7712562561035,6.096033549205406,-611.6968765258789,6.940500320782086},
  {-1.1816490173339844,61.19656389623149,-3124.4426391601564,39.093928139226975,1140.2017059326172,36.51939104948423}},
 {"MQF3FF",{-196.4061447143555,5.611055854241902,372.789380645752,4.357913479861493,-30.896299821138385,5.442781507683252},
  {-126.62385940551758,17.237332180032933,-926.4433959960937,11.872129820363647,319.4377773284912,10.428593632681022}},
 {"MQD2BFF",{-582.1738220214844,10.882833559390024,13.171957397460972,5.030205077716976,384.26022205352785,5.215813350755863},
  {336.68632812500005,10.340446780760061,-568.7784011840821,8.060886031442854,190.86436805725097,6.107575657288439}},
 {"MQD2AFF",{-121.92336883544922,21.037346889785404,-310.2070365905762,8.338680545579502,951.7052520751954,10.171735138737768},
  {106.48116760253907,1.5175391099299782,60.369336891174314,2.5341982667477256,-28.686181640625,1.3395906758169127}}};
