 CalibData = {{"MQF1X",
  {-95.48914508819581,45.67368263745498,-1.2526932716369643,22.12348620288753,1.124976539611822,33.3393598901669},
  {275.8201354980469,5.549409189229824,.7265304565429744,3.397583994170911,.372346496582054,3.320901597673102}},
 {"MQD2X",{348.54844360351564,14.85225156316811,1.9918930053711108,8.807934690352418,-.8294174194336108,9.871170416014223},
  {422.7863677978516,3.9674006761381975,-5.372581481933594,5.901444951046655,-3.1249557495117415,6.257139131959728}},
 {"MQF3X",{103.77383651733399,15.498621333398852,3.2381511688232436,13.150979462513227,1.6707193374633817,13.60414570561061},
  {99.65895919799806,4.893538498175423,-14.238213729858394,3.7322687303534003,-1.594918823242189,2.5476743885008686}},
 {"MQF4X",{362.53704223632815,16.598926601989035,3.927438354492182,7.803198771774076,3.0212646484374943,15.815683629052538},
  {-15.305131816864014,3.780512540527132,-87.62844696044922,3.6285077384730227,.6590159654617311,3.1297271909402986}},
 {"MQD5X",{-124.88416061401368,13.683907591179242,.9769809722900362,7.7147163914693,73.44261779785157,117.2788260123138},
  {-240.83461914062502,6.286377294095133,-146.92024650573734,3.890219708900376,-.8460945129394588,3.67467979820499}},
 {"MQF6X",{218.44755706787112,32.96026174055365,-1.7842163085937557,22.40839251377785,3.8404296874999915,36.783269369096445},
  {-69.21439208984376,3.4593317457265087,-33.001268005371095,2.4822682878181745,-.6692314147949219,2.7796673941812866}},
 {"MQF7X",{-31.512279510498047,4.5154408757908255,.06762361526489258,2.456322894866797,-2.431012535095215,3.5797334326312686},
  {-3.619036835432053,4.275489419255433,110.38429679870606,3.24696937353658,-.33422469496727025,2.8352833989977526}},
 {"MQD8X",{61.55409049987793,2.607076667233185,.27997283935546946,1.4244232451344792,.5668466567993171,1.7858326534724878},
  {-327.21038513183595,4.844487079241709,251.66043128967286,2.4123121423413534,-.26336975097655113,3.554976977990632}},
 {"MQF9X",{-72.42345504760742,4.070525208285683,1.0145202636718764,3.7672460837630597,3.0617733001708984,4.633860941409509},
  {-28.95758686065674,1.8713940499197885,103.25395393371582,1.0737810643384846,-.02670412063598704,1.3378323503205216}},
 {"MQD10X",{-57.08857650756836,1.7446429194765865,364.83189239501957,.7917848251265809,.47835311889648224,1.5004754601373091},
  {54.142360305786134,1.2127498929067277,66.04912662506104,1.2679651144825155,.20634975433349823,.8123971264489364}},
 {"MQF11X",{72.23963775634766,6.547610811846722,1134.4710754394532,2.737265869617982,.4916761398315401,6.316397037273187},
  {314.325146484375,1.077460398956525,-64.56060485839843,.5318764097356191,-.06692810058595455,.5152230146542434}},
 {"MQD12X",{4.040595328807831,2.5587711766809433,304.3031051635743,1.3673539346522339,-.319722426682711,2.5358818663684004},
  {589.9040893554687,4.118282194770305,-260.34349212646487,2.0248701691336493,-.5525329589843864,1.9147814212864476}},
 {"MQF13X",{-105.97571563720703,3.139396941105331,27.758774948120116,54.59942168627437,-2.407034301757811,2.49156054309448},
  {216.52765655517578,3.97214820987175,-175.90761585235595,1.6484154080732571,-.5868164062499943,1.496309855628416}},
 {"MQD14X",{-42.485252380371094,1.6706096111856226,-351.7985061645508,1.107545117971808,.5437156677246087,1.6112710600978573},
  {762.7448791503907,4.984200476820529,-236.28067626953128,3.1621939198311173,14.205496215820347,3.2597562742084873}},
 {"MQF15X",{0,0,0,0,0,0},{0,0,0,0,0,0}},
 {"MQD16X",{30.76114025115967,2.573006027447797,-302.78441009521487,1.2351825670487364,.29013338088989293,2.5774752042848497},
  {7.275179862976074,1.7856875546693558,-91.48651008605958,1.0522533004137382,-7.841997815296054,.9514488530451451}},
 {"MQF17X",{27.666622924804688,2.5506620464991747,16.45409482717514,1.8887040660538703,1.3027204036712643,2.817855246123981},
  {11.408279609680177,.8925502739302018,58.99280796051026,.4619061443769469,-16.465126848220827,.4398044487891757}},
 {"MQD18X",{31.77725524902344,3.9369000091363473,612.0501495361328,1.9083755284017634,-.014286708831786399,3.9961367907581797},
  {65.48348388671876,6.52265927908308,406.46592864990237,3.116715991714866,-68.02347438335418,3.058655304137922}},
 {"MQF19X",{107.44154434204103,9.615808407634187,1347.9593322753908,4.9617482111097795,25.10787048339843,9.922919362282553},
  {115.38806228637696,3.606719491085162,232.0081611633301,1.9242991424729055,-34.0757511138916,1.801299850415587}},
 {"MQD20X",{-230.06325836181642,3.8090953956258184,309.19509773254396,2.3674625023377316,223.39495021402837,3.9967872270080194},
  {55.01306228637696,5.910586385407885,370.34567565917973,3.190935128346064,-34.5253947854042,2.8454558521939393}},
 {"MQF21X",{-21.181935405731203,3.779029628072093,-574.1507934570313,4.077921678859163,741.0902770996095,3.774051084001607},
  {76.61253814697265,1.4889860210761308,80.24604856967927,.9102294984049515,4.660431289672857,.7834179813406991}},
 {"MQM16FF",{-162.14861297607422,3.4931219702777554,-395.3643119812012,1.635912364361147,-75.91059150695801,3.5901319294678977},
  {4.256362748146057,1.2496109527784318,-39.771677589416505,1.2759601503052485,50.124471473693845,1.1467826296035986}},
 {"MQM15FF",{246.22046203613283,5.091751941646166,-304.75993423461915,30.197315869484644,-391.4989990234375,31.144188906338556},
  {91.50844192504883,1.694806159477607,-98.76261372566223,1.9505049037960946,72.32304949760437,1.7594876009282978}},
 {"MQM14FF",{170.99148712158205,2.4691792596972175,62.92118873596191,1.9292478937296684,-308.85004196166994,2.4803114733274714},
  {-42.29055976867676,5.033820338342254,-249.37986145019534,3.880361745886573,167.74317932128906,3.264633595386679}},
 {"MQM13FF",{382.9413055419922,6.3396999068264135,510.97392044067385,6.497992706431403,-976.3839233398438,8.145053541362762},
  {48.3560977935791,3.9078303248931268,140.7791976928711,2.8677140656609352,-102.88142757415771,2.221881815890943}},
 {"MQM12FF",{158.53555297851562,1.45394223824979,289.80348892211913,1.3826101854127315,-312.7592338562012,1.5212155767093332},
  {422.14478149414066,14.395541849503047,727.7023529052734,11.75559926841344,-514.4293140411378,11.101935366491377}},
 {"MQM11FF",{81.56674118041992,3.365842306319406,224.03335189819336,2.027522416604025,218.78674812316893,3.6604018112796073},
  {173.4180130004883,19.24795874308433,963.7875946044921,15.609929108479253,-690.8089645385743,13.68092203189365}},
 {"MQD10BFF",{99.30672988891602,6.274866656906672,80.81813974380493,4.162064233675617,630.0162536621094,16.860488071253602},
  {268.1977035522461,29.09926547898802,1467.5921142578127,24.238859934216446,-1031.6981231689454,21.250722038344996}},
 {"MQD10AFF",{-125.00548324584962,9.956995424060505,29.55431270599366,6.7530422991928845,1122.2513061523437,10.22046465526996},
  {459.88423461914067,28.028221085281942,1425.2206176757813,22.299524869557736,-997.1405563354492,21.127106360229575}},
 {"MQF9BFF",{-100.95442352294923,18.308762500002793,-32.93067026138306,13.009207207272066,2118.8936706542972,21.691622270999673},
  {32.0918173789978,15.018876308483026,751.4313781738282,12.048599531012908,-527.6980331420899,11.188256707325559}},
 {"MQF9AFF",{-312.0076843261719,17.298816201137107,-75.0673599243164,12.181658281566671,2064.6201110839843,24.904314000735837},
  {121.772216796875,11.628090622920352,592.9448165893555,9.469093443395824,-414.5811767578125,8.866477791148165}},
 {"MQD8FF",{37.4371223449707,4.796576738364924,-97.79929752349855,3.6204852344066834,646.5972534179688,5.369864620979985},
  {75.00532760620118,14.327537275134723,737.9467864990235,11.462057400405847,-511.9446502685547,11.016034871309246}},
 {"MQF7FF",{-67.05218353271485,1.2643398887355413,-242.07918167114258,.7379079414926374,72.74782180786133,1.6567573983259163},
  {-107.47531661987306,.39714896457369836,-8.551443862915036,.4914111057114238,9.107234954833984,.6302439349604682}},
 {"MQD6FF",{30.729439735412598,5.1483661046292335,-128.83609008789062,3.536786685015604,-650.5367095947266,7.859150588558388},
  {-25.137929391860965,12.815833471854335,-658.188348388672,10.899914212740114,467.0856369018555,10.021700422854147}},
 {"MQF5BFF",{238.9976013183594,14.950056798034616,-194.3547638297081,10.387507396438727,-1997.0427734375,25.662726222451347},
  {-144.72964324951172,11.469809781780802,-579.6062896728516,9.30920925614443,407.22519226074223,8.75665245139282}},
 {"MQF5AFF",{398.6823669433594,14.803964167741107,-145.98836135864258,10.40568232514489,-1969.6764160156251,23.20311204026885},
  {-71.1839023590088,16.236090986914395,-832.7083465576172,13.162451033773767,583.6879058837891,12.562008296852508}},
 {"MQD4BFF",{283.8788787841797,6.837251991107505,-16.24545974731444,4.853029286956325,-981.1908508300783,11.722177612070954},
  {-183.00782318115236,30.12619807180603,-1535.158203125,26.656117409849283,1079.5659210205079,23.203626779276526}},
 {"MQD4AFF",{224.98931732177735,3.5015448032647662,81.28554763793946,2.8989430289342115,-591.7821685791016,7.307817207366107},
  {-200.35876922607423,30.513381994786588,-1575.5631103515625,24.674023765412503,1101.2073638916015,23.71922621536918}},
 {"MQF3FF",{299.5064666748047,5.0284402224087605,393.94227104187013,3.3758863693011705,-11.508523559570307,5.355842837678165},
  {-238.10899353027344,9.321275119663659,-480.78933944702146,7.584730688004992,333.66581802368165,7.201683732228927}},
 {"MQD2BFF",{-221.24862518310547,6.982761938121892,200.83704371452333,4.866729781778961,379.30993881225584,5.9331142329877835},
  {169.50210876464845,6.983803920798455,-369.6512641906738,5.69948959044611,251.9558429718018,5.334135132176209}},
 {"MQD2AFF",{81.28993759155274,13.571459499270548,117.11057469248772,9.831718594815538,905.4537811279297,11.338574541348875},
  {-44.74509239196777,1.8566300774881739,-93.84466705322265,1.8018804275166171,57.80912714004516,1.2919410565637572}}};
