 CalibData = {{"MQF1X",
  {85.53963947296143,36.6582276624636,-5.328319048881532,23.107385131792245,-19.72103395462036,27.46070586654014},
  {156.0766342163086,3.0309761589003177,.07870178222655966,2.3058529986262855,-.06908416748046875,1.4780057078794462}},
 {"MQD2X",{380.69012451171875,16.837347352586054,5.87518768310548,8.119653134660126,-8.95056610107423,8.119594399614567},
  {4.3783834159374235,5.048892467930092,-8.634511768817902,5.990462245261817,1.4999641999602318,3.528855868948343}},
 {"MQF3X",{197.93858184814454,24.03180369234228,11.790043640136716,12.382181181402183,-12.380953979492176,12.250373510572503},
  {41.80013370513916,206.17486961199072,-15.794854211807252,2.084449001947123,1.294317817687988,1.6649019485699021}},
 {"MQF4X",{339.4777038574219,9.28207526809787,10.525527954101562,12.861598982077671,15.566378784179705,44.30200752690187},
  {-52.65213432312012,2.8685566511474283,-85.12121553421021,2.7552207370651995,-2.8093959808349602,2.1434763006558395}},
 {"MQD5X",{-190.82331085205078,10.696944990042923,5.669933319091797,10.322214776627474,-.3460044860839844,8.233995108281704},
  {-261.9985260009766,3.607715831996585,-145.19057235717776,3.0892663012516857,35.9400619506836,74.14366073855194}},
 {"MQF6X",{57.702699470520024,27.872947185299623,12.32509956359863,28.71967037957078,2.6716882705688505,22.476692274426373},
  {-95.51450271606446,3.1082937858812616,-33.59071025848388,1.655713968811232,-9.662673187255862,1.2819999947436165}},
 {"MQF7X",{24.226960372924808,3.201906676299398,-.3385275840759281,3.1458461103669078,1.0749925851821898,3.4885428681549033},
  {-63.18605690002442,3.3415159944766364,111.0312604904175,2.8847338821612856,-72.63721985816956,2.556885601367799}},
 {"MQD8X",{77.23609695434571,3.600148509940033,2.010218811035159,2.1192987138068724,-1.3044443130493164,1.863425913364798},
  {-497.505697631836,5.978918742333087,250.76613082885746,3.070334215768463,-147.299089050293,2.959355355998744}},
 {"MQF9X",{26.252349948883058,8.365704267995149,5.725771926343442,4.961463456204129,-5.114546568691731,4.406932821998911},
  {-100.31960906982422,2.1878102090122913,103.72400397062303,1.3337963000666038,-54.87585010528565,1.3319192160867181}},
 {"MQD10X",{-42.16540222167969,1.0435410060889112,290.1533401489258,1.1831037525148023,-.23520145416259908,.971121463345952},
  {53.78035926818848,1.2046303981609623,66.23515243530274,1.0517204817451484,-12.162472534179688,.7782686483954467}},
 {"MQF11X",{87.0379753112793,5.972642987951082,901.5438995361328,5.065258523397225,28.650486755371098,4.855540180987541},
  {335.7182556152344,1.1809007419100472,-64.80847930908203,.5797104908730313,29.875213623046875,.5353540268212932}},
 {"MQD12X",{-8.552699995040895,2.9884321635359155,241.49075012207032,2.2531178887438927,99.24953536987306,2.2332495080450085},
  {656.5233215332032,3.694666994368541,-261.18745727539067,2.5410801766407682,105.75861206054691,2.181542670647244}},
 {"MQF13X",{-141.39104614257812,3.5847737022353905,44.2460792541504,2.7726072634193075,208.63872146606445,2.2992821694400423},
  {257.867333984375,2.480555843155297,-147.9466636657715,54.29124311298305,66.07773895263672,1.7900415551007747}},
 {"MQD14X",{-53.34644622802735,1.8835190840583433,-278.6329338073731,1.4417179097961665,40.117940521240236,1.0267050270525235},
  {1024.9461242675782,3.5259451236220243,-234.2706237792969,3.5049103854676638,33.06170349121089,89.01740027787328}},
 {"MQF15X",{0,0,0,0,0,0},{0,0,0,0,0,0}},
 {"MQD16X",{40.53778915405274,3.0152086021293787,-240.6654479980469,2.2857019653247126,-99.13236255645752,2.208133073942911},
  {30.14372501373291,1.6879948112374286,-93.3472002029419,1.1039616549537437,22.492244529724122,.8350190889884083}},
 {"MQF17X",{64.16760330200195,3.8861592278268104,12.249916648864748,2.856176448020929,-250.12818603515626,2.9650465230682697},
  {11.803518104553223,1.0684212808346851,58.71135578155518,.5248789177182206,-28.101820755004887,.5241912442116047}},
 {"MQD18X",{24.28711109161377,4.047890822058428,485.834750366211,3.270815019118411,71.6286024093628,3.178558852753891},
  {35.19447898864746,6.21176430816687,407.61741638183594,3.787413174027107,-164.45963973999025,3.1589455166638274}},
 {"MQF19X",{78.74065246582032,10.945620063722174,1069.8263916015626,8.491347617310092,289.2332954406738,8.423928968327568},
  {93.19502716064454,3.4640437610407697,233.10021286010743,2.1701172434633746,-90.76460610479117,1.8227184110995864}},
 {"MQD20X",{-229.9897888183594,5.143954214194899,247.84161815643313,3.9598047244305055,240.73745722770693,4.017566461876998},
  {-3.0339015275239944,5.416231942487943,374.2973007202149,3.6800392694528714,-132.6133762359619,2.9490480581448453}},
 {"MQF21X",{60.267675781250006,5.230237022548859,-446.0672302246094,4.399606997274132,480.9770919799805,3.593971737395075},
  {62.69697189331055,1.4241314351426404,82.8614013671875,.8790938026310827,-21.435223960876467,.6985845206385218}},
 {"MQM16FF",{-9.749959087371828,4.078144703230801,-315.99319610595705,3.117412379972962,-137.33250579833987,3.2003975733938277},
  {148.5826873779297,2.124639220412977,-35.830674743652345,1.2728324307002568,40.56670532226563,1.3917395729315305}},
 {"MQM15FF",{197.4222396850586,10.59724613563125,-253.31807670593264,20.578002966605247,-379.3562255859375,17.01115443624604},
  {91.37271270751954,2.852154922979615,-93.07731302082539,1.8615373582529617,73.26353187561035,1.56054981875908}},
 {"MQM14FF",{138.7265640258789,3.6459802579864737,47.967518997192386,2.9336781249610695,-235.2917060852051,2.3640684585335077},
  {-24.28187847137451,7.570688347473652,-231.6550704956055,3.564711975583365,172.2478183746338,3.5011649260178994}},
 {"MQM13FF",{261.0504592895508,9.521134385314202,394.75765762329104,8.195697526040036,-685.1729385375977,9.133739705228338},
  {28.217608642578128,4.864920924718789,119.4226661682129,2.826387960857852,-94.9269989013672,2.7020206975053416}},
 {"MQM12FF",{121.8762092590332,1.7278207462527482,226.48623237609866,1.8952148441003198,-193.13545608520508,1.5275080430257573},
  {364.2432037353516,22.77384056839619,607.2882446289063,13.97501536866901,-524.7842880249024,11.16547847102947}},
 {"MQM11FF",{104.33833007812501,4.551547645794916,181.78845443725587,3.413978443644414,217.9416297912598,3.214041448772778},
  {99.52173728942871,31.036642243642067,712.5728729248048,26.070882459524917,-692.1946014404298,15.661462984644595}},
 {"MQD10BFF",{167.52510833740234,8.41457506817875,73.3758113861084,6.52883495570403,508.8378524780274,23.6300008333342},
  {161.75320129394532,45.51719977166433,1032.2657531738282,43.967514889413614,-1050.084017944336,23.225198143117808}},
 {"MQD10AFF",{-.5565057873725892,14.014362810897522,38.785397875308995,11.033983713999064,881.509912109375,9.15072461465049},
  {361.2993103027344,44.03844343945834,1136.0046203613283,30.588743143268886,-1025.9955322265625,21.39894236411863}},
 {"MQF9BFF",{146.27022171020508,26.708166654685566,5.079332733154303,21.189893672308585,1676.1363891601563,17.54878698087315},
  {-20.7856851041317,23.83916510067722,566.5672195434571,19.331014581028587,-542.1648086547852,11.542211267721092}},
 {"MQF9AFF",{-78.76974525451661,24.868399392695267,-30.37282694578171,19.766073465249693,1604.0754516601564,22.602974987247514},
  {81.96294441223145,18.691598841522733,447.2999313354493,15.45532205983329,-427.3721099853516,9.196842405911354}},
 {"MQD8FF",{110.7376823425293,7.181986294641286,-68.863777923584,5.757552303464479,497.45223846435545,5.233169408606218},
  {31.83160445690155,22.634023719552427,585.2568176269532,16.901804420669336,-531.4251113891602,11.213290669798264}},
 {"MQF7FF",{-57.12821159362793,.9322686777071637,-192.0063919067383,1.048963788371297,12.326616287231445,2.2108258391528612},
  {-103.33158950805665,.49313783969480873,-35.485967636108406,3.2503722514392894,5.939898681640628,.5172304306236594}},
 {"MQD6FF",{-55.90386543273926,10.297651789340959,-109.35416865348817,8.025726590450745,-542.7881515502929,7.244575454706177},
  {26.860418128967286,20.160895942993534,-527.110987854004,13.914180002041764,472.95057525634763,10.235824463583603}},
 {"MQF5BFF",{-38.683229804039,31.531098441238417,-174.47532957158984,25.000638259734895,-1623.3079528808594,22.242938910479175},
  {-104.54796524047852,17.578366504341506,-488.02188873291016,10.692183947554415,417.4190048217773,8.792374340198604}},
 {"MQF5AFF",{119.32285804748535,31.743158086929526,-135.7084617614746,24.905432456364284,-1589.1618713378907,19.976715887963916},
  {-14.456125652790071,25.263605572992912,-687.8592529296875,16.573128196017915,600.1588958740235,12.727451477907401}},
 {"MQD4BFF",{147.93819732666017,15.051490439251888,-22.05869750976563,12.074917677912946,-785.0294860839845,9.982254505184603},
  {-80.12249145507813,47.367442723137536,-1226.7805725097658,31.849422253804494,1090.5401275634767,22.999776845774008}},
 {"MQD4AFF",{142.6090057373047,8.974861052587709,60.197978591918954,7.31266700683992,-457.39218597412116,5.858780695431958},
  {-93.42126181125641,48.3225890921305,-1239.722412109375,32.09724330019596,1133.5551666259767,23.733056754052193}},
 {"MQF3FF",{288.85077209472655,3.532433584611312,318.8399710416794,4.588064583555762,57.5263717651367,5.7530958508608405},
  {-205.73104248046877,14.93091081682925,-351.68521881103516,12.724576354918781,340.64812583923344,7.317776363576579}},
 {"MQD2BFF",{-191.8874450683594,4.966877434963559,170.27162224426866,5.8125791439201135,337.08069839477537,6.975352586190697},
  {192.17872619628906,10.359907447039648,-306.7915657043457,6.095650285487579,251.8326910018921,5.421262501969645}},
 {"MQD2AFF",{149.02205200195314,10.740841503886136,115.42140884399413,11.387887182279837,743.0185287475587,12.130702438984317},
  {-41.26121444702149,2.05446253960386,-54.36130084991456,2.214171408059105,49.94164823293686,1.4654169824287007}}};
