 CalibData = {{"MQF1X",
  {-601.7896362304688,54.27766905109705,-21.79157714843751,27.016435443058587,15.068667602539051,35.21479867650967},
  {261.2843276977539,12.10556192617643,-2.3744873046875057,10.4875999910351,6.373688507080061,8.500604017765145}},
 {"MQD2X",{-111.43170394897462,19.223956392535662,-1.9621726989746122,12.564691463683157,4.942142868041991,13.26123454603742},
  {-10.119001865386963,24.01631481530304,-9.984027630090715,12.488672351693193,4.027473378181458,17.82927155215537}},
 {"MQF3X",{-635.6516357421875,26.309224009765913,-6.682812500000011,15.37508946742606,8.784521484375034,15.176496649442734},
  {-16.88714485168457,12.724510857687896,-14.667163586616516,10.051023015530266,-.3663505882024767,7.479631781042546}},
 {"MQF4X",{170.40973739624025,27.038233026437076,3.993748474121091,14.354103875492147,-4.657695007324222,16.538628765712872},
  {109.3085090637207,12.496711540831273,-90.6022110849619,11.563552871829701,-.36173782348632955,10.897570217040105}},
 {"MQD5X",{-150.56947021484376,21.455308104706,6.286093139648443,9.46659350394712,-13.332663345336925,12.449157404891768},
  {-13.785089111328126,10.196740181474999,-150.8632579803467,7.510231773133739,2.9949567317962646,7.037470791861874}},
 {"MQF6X",{905.6084716796876,38.71767187689774,1.3614990234374886,21.974001275371997,12.783059692382778,22.925366652620074},
  {-13.479909944534302,6.011086858182687,-38.44108157157898,5.68410274074653,-1.4597713261842724,5.1970894213439705}},
 {"MQF7X",{-68.52853469848633,10.385829854361551,-5.1996236801147475,10.316959700119831,5.749769783020021,5.773108962191126},
  {-190.90935363769532,10.858049862540492,110.49589729309082,10.537826249136682,1.5448776245117273,9.98490245770669}},
 {"MQD8X",{13.756460690498352,9.852834652169477,-.0823929071426388,4.073803759343959,-.17579612731933558,2.4546287755079184},
  {-750.2441345214844,7.650583226584533,249.67877197265625,7.674067714857775,-.42455444335939774,8.614615167417378}},
 {"MQF9X",{-185.5849365234375,8.851022016020726,1.7981178283691435,5.567542837509772,5.361096954345697,8.845017204560342},
  {-218.86687622070315,3.52336489278031,104.19059219360354,3.410792998400711,1.0204307556152372,3.0721365946863366}},
 {"MQD10X",{-40.56954383850098,2.575260720273605,370.7634689331055,1.5256665642603837,-1.0208250045776381,1.6048839376648636},
  {-232.44610900878908,3.0914206400897988,68.35875854492188,2.175521240436028,.7688018798828153,2.3693861604776854}},
 {"MQF11X",{181.22893371582032,10.221931407445233,1150.9192626953127,5.296349765803066,-4.989203643798831,7.333389792371989},
  {87.40046157836915,1.0580860091703745,-64.84639925956726,.676063334699389,.03895492553710511,.9014767678271439}},
 {"MQD12X",{62.137337875366214,3.3020911169344696,283.3803283691406,1.8775829026584014,-1.8044059753418011,3.376394564079248},
  {99.23165893554688,4.501861396640391,-273.0887741088867,2.234087496405883,1.1953231811523466,2.3360026463492813}},
 {"MQF13X",{-43.664808464050296,7.539178804149203,10.115431594848634,4.247086318834465,-1.391316986083984,5.574850306565772},
  {-25.925589561462402,5.952510193672975,-178.36987380981446,4.361528779173189,-1.2853391647338857,2.8504611788526177}},
 {"MQD14X",{-71.77624130249023,3.207124572515242,-360.99817199707036,2.058109234965941,.6469188690185561,3.512776673398456},
  {497.34827575683596,9.410230557771142,-238.52742614746097,10.152390006630181,-3.96020050048827,6.151718497759462}},
 {"MQF15X",{0,0,0,0,0,0},{0,0,0,0,0,0}},
 {"MQD16X",{50.330459976196295,3.5509012806661118,-263.3489479064941,2.1299437072875036,1.6731246948242209,3.043860899717374},
  {110.0147705078125,2.5539111081003045,-86.8910782814026,1.2591412734768324,-6.899364471435547,1.5424206697686333}},
 {"MQF17X",{171.26880950927736,4.435459796620245,112.01824760437012,2.677684825908417,1.2330657958984403,3.379846585300238},
  {29.870931243896486,1.3143544914718321,68.10673370361329,.6013173890474447,-17.07271032333374,.6148933728829121}},
 {"MQD18X",{131.97215576171877,6.098164784190466,594.5365463256836,2.84157788195201,-3.042821502685541,4.484405746328402},
  {27.981332206726076,8.410719040680636,437.6833450317383,3.9945420663832967,-72.98866300582887,2.9540431157425497}},
 {"MQF19X",{268.1494338989258,15.192778545059825,1253.038674926758,7.052666085253169,18.406146240234392,12.125187270351702},
  {75.20630645751953,4.322094521341487,241.90518188476565,2.2227436398281055,-36.23770084381104,1.6706376512265768}},
 {"MQD20X",{-147.19193420410156,5.883669555594807,187.92558364868165,3.103203719839509,224.20643424987796,4.85728111218095},
  {-120.9582504272461,6.919548749698006,355.32863311767585,3.282994176905142,-35.78471450805664,2.813294509820731}},
 {"MQF21X",{41.21338253021241,7.323746307845539,-903.5644836425781,8.201972697812334,780.4964324951172,6.04625678960998},
  {-14.940234565734864,1.443719208669931,53.007479476928715,.5498191324823408,6.845732843875886,.7160330924181054}},
 {"MQM16FF",{-200.81169891357422,5.062034742730607,-409.2876762390137,3.4750250021507525,-21.145957946777344,4.1919580192379335},
  {-136.81265563964845,2.8997553004380032,-134.71016607284548,1.821715473090825,57.994246673583994,.6371590247796828}},
 {"MQM15FF",{167.46329193115236,7.748550995487904,-211.3485986709595,4.524398362136274,-359.50927810668946,6.957492968441638},
  {22.778488349914554,4.778349436959596,-253.33827590942383,4.381896944735111,93.0538995742798,1.107499144122712}},
 {"MQM14FF",{169.5956268310547,3.4591471626684576,192.4450167655945,4.165957021002178,-321.60855865478516,3.095432314754844},
  {120.20294189453125,10.572657093855598,-558.8794677734375,7.634122060596978,202.99089508056642,5.151631236456512}},
 {"MQM13FF",{443.17290344238285,12.882812849466474,952.4317443847658,9.023209320642977,-1067.9803039550782,7.943317858484548},
  {105.52162094116211,10.570499154233557,333.6345840454102,5.16797895121766,-119.08360520601273,5.68237863439491}},
 {"MQM12FF",{201.31853637695315,2.7285323356268254,402.73403091430663,2.608948974170571,-311.73668022155766,1.010332761006658},
  {434.88133239746094,31.433978338930647,1652.7729187011719,19.60895735778164,-597.4194801330566,6.746075304939925}},
 {"MQM11FF",{123.3047981262207,4.425460351119331,86.66233806610109,3.064862655587173,246.7158168792725,4.531942908987368},
  {177.5817077636719,45.5260682461591,2334.3171447753907,27.14956804095457,-843.5057342529298,9.992580528683709}},
 {"MQD10BFF",{177.56168060302736,8.94759806545696,-249.4252048492432,6.129000475143588,702.2611587524414,9.928193173270811},
  {241.38115692138672,66.62913805917086,3492.340600585938,42.002340546876,-1269.2071594238282,16.283471846595482}},
 {"MQD10AFF",{-5.438979804515839,14.489381330058245,-514.8667236328125,10.27615418343826,1205.111981201172,11.914520240465649},
  {411.80999755859375,63.51679739617134,3369.807568359375,40.249429216865494,-1217.1621215820314,14.138716423411354}},
 {"MQF9BFF",{68.315549659729,26.914849296541423,-1083.3025512695312,19.724504277720552,2345.0792846679688,23.591634593149355},
  {-14.395924377441407,33.66010901323133,1755.9774658203128,20.947022760241563,-633.3106445312501,7.728894648475273}},
 {"MQF9AFF",{-88.60200996398926,25.229831423058357,-1057.9925720214844,18.349982933079048,2205.09423828125,21.874503575713938},
  {60.0990686416626,26.000505041347033,1359.7056762695313,15.89208338896493,-488.3233627319336,5.8698583285653685}},
 {"MQD8FF",{130.89640884399415,7.371624719201883,-392.0493865966797,5.589448306779047,679.6101379394531,5.819289485317412},
  {-68.06692008972168,31.044623668530793,1628.9361633300782,19.262555970058077,-584.7604156494141,7.457207980495844}},
 {"MQF7FF",{14.542768287658692,1.8028763235687066,-239.08714523315433,2.0831416851977105,49.527847671508795,4.042701078508706},
  {-169.75411224365234,1.4908160580427623,-80.65779838562011,1.588187684631671,30.413406372070312,.9028974122766928}},
 {"MQD6FF",{-65.97869186401367,9.306680640804307,209.6102668762207,6.7031446471358285,-712.1821044921876,8.835384607381867},
  {-101.48866920471193,31.886723004187964,-1663.6966186523437,20.031894728560726,601.9348602294922,7.3312984043257}},
 {"MQF5BFF",{-176.5902053833008,29.54017378681752,835.0096313476563,20.76835617385219,-2211.7623291015625,25.537197074935023},
  {-148.68511352539062,25.155277055729094,-1369.6476562500002,16.751189728664137,492.89149475097656,6.134599774538524}},
 {"MQF5AFF",{-36.03478059768677,29.584200794046605,879.173031616211,20.94072763010107,-2213.4666076660155,25.416814222791878},
  {-31.599532699584962,36.64510301451325,-1948.81455078125,23.40970904712587,702.3055816650391,8.77582364605529}},
 {"MQD4BFF",{37.0172498703003,13.821134239082566,462.1919128417969,10.009484890711088,-1041.3406982421875,11.48246749998801},
  {-74.99274482727051,67.6190817207893,-3574.1585693359375,42.396824169638094,1287.1663696289065,15.893963212629991}},
 {"MQD4AFF",{32.995590400695804,8.301626613700128,344.73562774658205,6.004789705310943,-587.8876724243164,6.229700339261732},
  {-70.07620964050294,67.42631743239556,-3555.348852539063,56.30787246754207,1289.6354919433595,15.909780868282123}},
 {"MQF3FF",{-228.53921051025392,7.2714158840225265,303.4451141357422,4.524046912564651,140.5513813018799,11.031685943315724},
  {-149.35044021606447,18.62501805240503,-973.7070281982423,11.832121296515504,348.4387657165528,4.222552033956268}},
 {"MQD2BFF",{-570.8444274902344,9.88069799232422,-30.69390563964845,5.710595487749353,475.00800323486334,9.941996252869039},
  {318.97482604980473,10.118307435657206,-526.1878448486328,7.227736344333588,183.2628761291504,2.6195884230491733}},
 {"MQD2AFF",{-64.03164920806886,19.081375495428272,-350.79038085937503,11.130964714151093,1009.2668548583986,16.253714169539},
  {99.30891113281251,3.5364794011747,182.21762313842774,2.655282832500004,-73.1975359916687,1.3530148539341047}}};
