{"QM10R.2",5.333347,0.854047,0,{2.000000,1.000000,0.000000,-1.000000,-2.000000},{0.181764,0.177980,0.174684,0.170900,0.166627},{0.549191,0.549802,0.550412,0.550900,0.551633}},
{"QM11R.2",0.979781,9.461933,0,{2.000000,1.000000,0.000000,-1.000000,-2.000000},{0.172731,0.173585,0.173341,0.174196,0.174562},{0.558835,0.555173,0.551511,0.547116,0.542233}},
{"QM12R.2",8.773608,0.637778,0,{2.000000,1.000000,0.000000,-1.000000,-2.000000},{0.185914,0.179689,0.174318,0.167360,0.161012},{0.549557,0.550046,0.550168,0.550900,0.551389}},
{"QM13R.2",4.941845,18.934517,0,{2.000000,1.000000,0.000000,-1.000000,-2.000000},{0.165528,0.168702,0.172364,0.176149,0.179567},{0.572385,0.562863,0.552243,0.538449,0.516476}},
{"QM14R.2",23.914091,8.037340,0,{2.000000,1.000000,0.000000,-1.000000,-2.000000},{0.201417,0.190675,0.175172,0.158204,0.132813},{0.539425,0.544186,0.549679,0.554806,0.562619}},
{"QM15R.2",2.159529,15.686604,0,{2.000000,1.000000,0.000000,-1.000000,-2.000000},{0.170411,0.171510,0.172120,0.172731,0.174196},{0.562985,0.557370,0.551511,0.545773,0.536862}},
{"QM16R.2",4.583893,3.102414,0,{2.000000,1.000000,0.000000,-1.000000,-2.000000},{0.179933,0.177003,0.173951,0.170533,0.167115},{0.545651,0.547604,0.549679,0.551999,0.554318}},
{"QM17R.2",1.830072,18.684208,0,{3.000000,2.000000,1.000000,0.000000,-1.000000},{0.169313,0.170655,0.172120,0.172975,0.174562},{0.590329,0.580563,0.569333,0.555661,0.537350}},
{"QM18R.2",2.548565,19.254997,0,{3.000000,2.000000,1.000000,0.000000,-1.000000},{0.167237,0.169313,0.171510,0.172487,0.174684},{0.595334,0.584592,0.572629,0.558469,0.540158}},
{"QM19R.2",8.894008,5.261996,0,{2.000000,1.000000,0.000000,-1.000000,-2.000000},{0.186525,0.181886,0.175538,0.168946,0.162355},{0.547726,0.550778,0.554806,0.558469,0.562009}},
{"QM1R.2",4.147439,3.070856,0,{2.176000,1.176000,0.176000,-0.824000,-1.824000},{0.179811,0.177369,0.174073,0.171144,0.168580},{0.543210,0.545163,0.547360,0.549557,0.551633}},
{"QM20R.2",3.948682,0.705166,0,{-0.785000,-1.785000,-2.785000,-3.785000,-4.785000},{0.177858,0.175782,0.173341,0.170411,0.168580},{0.555051,0.555295,0.555661,0.556393,0.556638}},
{"QM21R.2",2.012257,1.028490,0,{2.119000,1.119000,0.119000,-0.881000,-1.881000},{0.173951,0.173463,0.172731,0.172120,0.171876},{0.555417,0.555661,0.555905,0.556515,0.556393}},
{"QM22R.2",1.959866,2.003361,0,{1.510000,0.510000,-0.490000,-1.490000,-2.490000},{0.171144,0.171632,0.171998,0.172975,0.173219},{0.557248,0.556760,0.556271,0.555539,0.555051}},
{"QM23R.2",6.123655,1.270614,0,{1.920000,0.920000,-0.080000,-1.080000,-2.080000},{0.181520,0.181398,0.174684,0.170289,0.165895},{0.553952,0.554806,0.555417,0.556515,0.557492}},
{"QM2R.2",4.156310,6.882185,0,{2.000000,1.000000,0.000000,-1.000000,-2.000000},{0.171754,0.172975,0.173219,0.174073,0.175050},{0.550656,0.549191,0.548337,0.546872,0.545407}},
{"QM3R.2",1.545212,2.403765,0,{3.916000,2.916000,1.916000,0.916000,-0.084000},{0.157716,0.158448,0.159059,0.159181,0.159547},{0.560056,0.559567,0.558835,0.558102,0.557370}},
{"QM4R.2",2.983993,0.452111,0,{3.574000,1.574000,-0.426000,0.574000,-0.426000},{0.163087,0.159791,0.155030,0.186281,0.184083},{0.557980,0.558347,0.559201,0.545163,0.545651}},
{"QM5R.2",7.451001,2.396531,0,{1.971000,-0.029000,-2.029000,-1.029000,-2.029000},{0.169313,0.159547,0.148439,0.183107,0.177125},{0.555539,0.558835,0.562253,0.545651,0.546750}},
{"QM6R.2",5.088550,15.265621,0,{1.000000,0.000000,-1.000000,-1.000000,-2.000000},{0.155275,0.158082,0.162477,0.190431,0.193971},{0.569089,0.559933,0.547482,0.536862,0.525998}},
{"QM7R.2",20.512314,3.035107,0,{0.000000,-2.000000,-4.000000,-3.000000,-4.000000},{0.170289,0.158937,0.146363,0.181886,0.175905},{0.557370,0.558957,0.560910,0.544797,0.545529}},
{"QM8R.2",10.399388,5.331908,0,{2.000000,1.000000,0.000000,-1.000000,-2.000000},{0.178956,0.175905,0.173219,0.170289,0.167360},{0.544797,0.546506,0.547848,0.549313,0.550778}},
{"QM9R.2",2.126307,13.102448,0,{3.000000,2.000000,1.000000,0.000000,-1.000000},{0.168946,0.169923,0.171022,0.173219,0.174806},{0.577390,0.569821,0.562131,0.552243,0.539914}}
