Option = {
  BeamLine -> "Ring",
  OpticsName -> "SR_Betafit",
  Command -> "Save",
  RingMomentum ->  0.12820E+10,
  CODCorrect ->{
  NSteerX ->     0,
  NSteerY ->     8 
  },
  ATFBump ->{
  Name -> "M.68      ",
  Offset ->  0.00000E+00,
  NSteerX ->     0,
  NSteerY ->     4,
  OrbitBump ->{-0.30000E-02,"Null"      ,"Null"      ,"Null"      },
  DispersionBump ->{"Null"      ,"Null"      ,"Null"      ,"Null"      } 
  },
  EtaCorrect ->{
  FrequencyChange ->  0.70000E+04,
  MomentumCompaction ->  0.21400E-02,
  NSteerX ->     0,
  NSteerY ->     8 
  },
  SkewCorrect ->{
  SD1R -> "OFF",
  SF1R -> "ON",
  sdcalib -> -0.20000E-02,
  sfcalib -> -0.20000E-02,
  steer1 -> "ZH26R",
  steer2 -> "ZH28R",
  steerchange1 ->  0.10000E+01,
  steerchange2 ->  0.70000E+00 
  },
  FixSteer ->{
      "ZH100R",
      "ZH101R",
      "ZH102R",
      "ZV100R"
  },
  Tolerance ->  0.17783E-08 
};
ATFData = {
 {
  ATFTune ->{ 0.15176E+02, 0.85530E+01},
  ATFBPM->{
     {"M.1",-0.21287E-04,-0.15120E-05, 0.73818E+03},
     {"M.2", 0.58008E-04, 0.51639E-05, 0.14282E+04},
     {"M.3",-0.84075E-05,-0.73035E-05, 0.71589E+03},
     {"M.4", 0.13997E-05,-0.51250E-05, 0.14982E+04},
     {"M.5",-0.59278E-05,-0.75873E-05, 0.72073E+03},
     {"M.6", 0.19478E-04, 0.45319E-04, 0.16028E+04},
     {"M.7", 0.44085E-05,-0.44256E-05, 0.42806E+03},
     {"M.8",-0.20141E-04,-0.24166E-05, 0.15880E+04},
     {"M.9",-0.31990E-04,-0.59136E-05, 0.69194E+03},
     {"M.10",-0.18559E-04,-0.17248E-04, 0.17729E+04},
     {"M.11", 0.65541E-05,-0.24448E-05, 0.83050E+03},
     {"M.12", 0.15977E-04, 0.22872E-05, 0.18813E+04},
     {"M.13",-0.18917E-04, 0.19127E-05, 0.69240E+03},
     {"M.14",-0.46812E-05, 0.50709E-05, 0.19524E+04},
     {"M.15",-0.10045E-04,-0.20515E-05, 0.74159E+03},
     {"M.16", 0.41525E-05,-0.42225E-04, 0.19896E+04},
     {"M.18", 0.29528E-04,-0.13734E-04, 0.17842E+04},
     {"M.19",-0.19436E-04,-0.28111E-04, 0.18345E+04},
     {"M.20",-0.26761E-04,-0.21439E-04, 0.88978E+04},
     {"M.21", 0.24812E-04,-0.15809E-04, 0.10745E+05},
     {"M.22",-0.15631E-04,-0.13622E-04, 0.17313E+04},
     {"M.23", 0.41274E-05,-0.31562E-05, 0.15181E+04},
     {"M.24",-0.43514E-04, 0.31316E-04, 0.18327E+04},
     {"M.25", 0.36393E-04,-0.46378E-05, 0.18765E+04},
     {"M.26", 0.17602E-04, 0.10809E-04, 0.20876E+04},
     {"M.27",-0.28762E-04,-0.54127E-05, 0.14529E+04},
     {"M.28", 0.83472E-05, 0.15132E-05, 0.19984E+04},
     {"M.29",-0.11073E-05,-0.23750E-04, 0.20058E+04},
     {"M.30",-0.21876E-05,-0.75732E-05, 0.18864E+04},
     {"M.31", 0.12256E-06,-0.13786E-04, 0.67782E+03},
     {"M.32", 0.18310E-04, 0.66012E-05, 0.63086E+03},
     {"M.33", 0.15862E-04, 0.42325E-05, 0.75818E+03},
     {"M.34", 0.87001E-05,-0.28008E-04, 0.79280E+03},
     {"M.35",-0.54932E-09,-0.10818E-04, 0.89427E+03},
     {"M.36",-0.10759E-04, 0.24889E-05, 0.41756E+04},
     {"M.37", 0.30271E-05, 0.21746E-04, 0.80374E+03},
     {"M.38", 0.66754E-06, 0.22517E-05, 0.38292E+04},
     {"M.39", 0.21570E-05, 0.23362E-04, 0.73514E+03},
     {"M.40",-0.19628E-04,-0.45058E-05, 0.36999E+04},
     {"M.41",-0.66104E-05, 0.13803E-04, 0.78038E+03},
     {"M.42", 0.14349E-04,-0.12337E-04, 0.37524E+04},
     {"M.44",-0.23793E-04,-0.17103E-04, 0.78910E+04},
     {"M.45",-0.17231E-04,-0.16486E-04, 0.72565E+03},
     {"M.46",-0.17269E-04,-0.15701E-04, 0.12893E+05},
     {"M.48", 0.12422E-04,-0.20584E-04, 0.71322E+04},
     {"M.49", 0.49842E-04,-0.54038E-05, 0.13691E+04},
     {"M.51", 0.94296E-05, 0.19878E-05, 0.86313E+03},
     {"M.52",-0.22472E-05, 0.14900E-04, 0.77444E+04},
     {"M.53", 0.12561E-04, 0.22026E-04, 0.13236E+04},
     {"M.55", 0.42163E-04,-0.10271E-04, 0.13943E+04},
     {"M.56",-0.22239E-04,-0.45334E-05, 0.75490E+04},
     {"M.57", 0.70507E-04,-0.45859E-05, 0.14525E+04},
     {"M.58", 0.95778E-05,-0.16738E-04, 0.15242E+04},
     {"M.60", 0.78094E-05,-0.21182E-04, 0.15292E+04},
     {"M.61", 0.34331E-05,-0.16446E-04, 0.15364E+04},
     {"M.63", 0.35024E-04,-0.26647E-04, 0.99392E+03},
     {"M.64", 0.10039E-04,-0.98521E-05, 0.15909E+04},
     {"M.65", 0.16027E-04, 0.27956E-04, 0.15634E+04},
     {"M.66",-0.27457E-04, 0.52948E-08, 0.15804E+04},
     {"M.67",-0.15293E-04, 0.60235E-04, 0.16442E+04},
     {"M.68",-0.18229E-04, 0.40345E-04, 0.16352E+04},
     {"M.69",-0.13716E-06, 0.11304E-04, 0.17732E+04},
     {"M.70", 0.88574E-05,-0.11429E-04, 0.19320E+04},
     {"M.71",-0.50280E-04, 0.13918E-04, 0.18507E+04},
     {"M.72",-0.73830E-05, 0.84088E-05, 0.17164E+04},
     {"M.73",-0.86648E-05, 0.28914E-04, 0.21134E+04},
     {"M.74", 0.11826E-04, 0.28633E-04, 0.23046E+04},
     {"M.75", 0.27642E-04, 0.35805E-04, 0.23923E+04},
     {"M.76", 0.36629E-04,-0.10822E-04, 0.22137E+04},
     {"M.77",-0.55320E-05,-0.51537E-05, 0.23276E+04},
     {"M.78", 0.75095E-05,-0.84691E-05, 0.23964E+04},
     {"M.79", 0.37625E-05, 0.14875E-04, 0.18018E+04},
     {"M.80", 0.24129E-05, 0.22607E-05, 0.18840E+04},
     {"M.81",-0.15561E-04, 0.22075E-04, 0.18984E+04},
     {"M.82",-0.39260E-04, 0.18007E-04, 0.18038E+04},
     {"M.83", 0.18269E-04,-0.34003E-05, 0.18149E+04},
     {"M.84", 0.11434E-04, 0.28099E-04, 0.19653E+04},
     {"M.85", 0.14009E-04, 0.16500E-04, 0.20036E+04},
     {"M.86", 0.46126E-05,-0.78531E-05, 0.19320E+04},
     {"M.87",-0.14734E-04,-0.22683E-04, 0.20158E+04},
     {"M.88", 0.56945E-05,-0.24581E-04, 0.20644E+04},
     {"M.89", 0.19307E-04,-0.16850E-04, 0.21533E+04},
     {"M.90", 0.11867E-04,-0.21269E-04, 0.21203E+04},
     {"M.91", 0.94447E-05,-0.29587E-04, 0.22076E+04},
     {"M.92", 0.37066E-04,-0.31972E-04, 0.18858E+04},
     {"M.93",-0.46126E-05,-0.99872E-05, 0.73141E+03},
     {"M.94", 0.16968E-04,-0.11482E-04, 0.19286E+04},
     {"M.95", 0.12855E-04,-0.19841E-06, 0.69081E+03},
     {"M.96", 0.24220E-05,-0.37706E-04, 0.20805E+04}},
  ATFQuad->{
     {"QM1R", 0.15559E+01},
     {"QM2R", 0.00000E+00},
     {"QM3R",-0.24305E+00},
     {"QM4R", 0.19983E+01},
     {"QM5R", 0.10060E+01},
     {"QM6R",-0.71174E+00},
     {"QM7R", 0.40822E+00},
     {"QM8R", 0.22178E+00},
     {"QM9R",-0.85397E+00},
     {"QM10R", 0.99016E+00},
     {"QM11R",-0.13078E+01},
     {"QM12R", 0.47122E+00},
     {"QM13R",-0.50895E+00},
     {"QM14R", 0.50141E+00},
     {"QM15R",-0.10298E+01},
     {"QM16R", 0.97450E+00},
     {"QM17R",-0.98185E+00},
     {"QM18R",-0.64593E+00},
     {"QM19R", 0.15407E+01},
     {"QM20R", 0.21767E+01},
     {"QM21R",-0.41186E+00},
     {"QM22R",-0.30498E+00},
     {"QM23R", 0.16976E+01},
     {"QF1R", 0.19158E-01},
     {"QF2R", 0.16309E+01},
     {"QM7AR", 0.42945E+00},
     {"QF1R.1", 0.28709E-03},
     {"QF1R.2", 0.28709E-03},
     {"QF1R.3", 0.28709E-03},
     {"QF1R.4", 0.28709E-03},
     {"QF1R.5", 0.28709E-03},
     {"QF1R.6", 0.28709E-03},
     {"QF1R.7", 0.00000E+00},
     {"QF1R.8", 0.00000E+00},
     {"QF1R.9", 0.00000E+00},
     {"QF1R.10", 0.00000E+00},
     {"QF1R.11", 0.00000E+00},
     {"QF1R.12", 0.00000E+00},
     {"QF1R.13", 0.00000E+00},
     {"QF1R.14", 0.00000E+00},
     {"QF1R.15", 0.00000E+00},
     {"QF1R.16", 0.00000E+00},
     {"QF1R.17", 0.00000E+00},
     {"QF1R.18", 0.00000E+00},
     {"QF1R.19", 0.00000E+00},
     {"QF1R.20", 0.00000E+00},
     {"QF1R.21", 0.00000E+00},
     {"QF1R.22", 0.00000E+00},
     {"QF1R.23", 0.00000E+00},
     {"QF1R.24", 0.00000E+00},
     {"QF1R.25", 0.00000E+00},
     {"QF1R.26", 0.00000E+00},
     {"QF1R.27", 0.00000E+00},
     {"QF1R.28", 0.00000E+00},
     {"QF2R.1", 0.00000E+00},
     {"QF2R.2", 0.00000E+00},
     {"QF2R.3", 0.00000E+00},
     {"QF2R.4", 0.00000E+00},
     {"QF2R.5", 0.00000E+00},
     {"QF2R.6", 0.00000E+00},
     {"QF2R.7", 0.00000E+00},
     {"QF2R.8", 0.00000E+00},
     {"QF2R.9", 0.00000E+00},
     {"QF2R.10", 0.00000E+00},
     {"QF2R.11", 0.00000E+00},
     {"QF2R.12", 0.00000E+00},
     {"QF2R.13", 0.00000E+00},
     {"QF2R.14", 0.00000E+00},
     {"QF2R.15", 0.00000E+00},
     {"QF2R.16", 0.00000E+00},
     {"QF2R.17", 0.00000E+00},
     {"QF2R.18", 0.00000E+00},
     {"QF2R.19", 0.00000E+00},
     {"QF2R.20", 0.00000E+00},
     {"QF2R.21", 0.00000E+00},
     {"QF2R.22", 0.00000E+00},
     {"QF2R.23", 0.00000E+00},
     {"QF2R.24", 0.00000E+00},
     {"QF2R.25", 0.00000E+00},
     {"QF2R.26", 0.00000E+00},
     {"QM1R.1", 0.48602E-02},
     {"QM3R.1",-0.18912E-02},
     {"QM4R.1", 0.11179E-01},
     {"QM5R.1", 0.00000E+00},
     {"QM6R.1", 0.00000E+00},
     {"QM7R.1", 0.00000E+00},
     {"QM8R.1", 0.00000E+00},
     {"QM9R.1", 0.00000E+00},
     {"QM10R.1", 0.00000E+00},
     {"QM11R.1", 0.00000E+00},
     {"QM12R.1", 0.00000E+00},
     {"QM13R.1", 0.00000E+00},
     {"QM14R.1", 0.00000E+00},
     {"QM15R.1", 0.00000E+00},
     {"QM16R.1", 0.00000E+00},
     {"QM17R.1", 0.00000E+00},
     {"QM18R.1", 0.17870E-01},
     {"QM19R.1", 0.00000E+00},
     {"QM20R.1",-0.10719E-01},
     {"QM21R.1", 0.47319E-02},
     {"QM22R.1", 0.87920E-03},
     {"QM23R.1",-0.26035E-03},
     {"QM1R.2", 0.13713E-01},
     {"QM2R.2", 0.00000E+00},
     {"QM3R.2",-0.34255E-02},
     {"QM4R.2", 0.50843E-03},
     {"QM5R.2", 0.00000E+00},
     {"QM6R.2", 0.00000E+00},
     {"QM7R.2", 0.00000E+00},
     {"QM8R.2", 0.00000E+00},
     {"QM9R.2", 0.00000E+00},
     {"QM10R.2", 0.00000E+00},
     {"QM11R.2", 0.00000E+00},
     {"QM12R.2", 0.00000E+00},
     {"QM13R.2",-0.47612E-02},
     {"QM14R.2", 0.47131E-02},
     {"QM15R.2",-0.21333E-01},
     {"QM16R.2", 0.00000E+00},
     {"QM17R.2", 0.00000E+00},
     {"QM18R.2", 0.00000E+00},
     {"QM19R.2", 0.00000E+00},
     {"QM20R.2",-0.31168E-02},
     {"QM21R.2", 0.54914E-02},
     {"QM22R.2", 0.38686E-03},
     {"QM23R.2",-0.46000E-02},
     {"QF1X", 0.10752E+01},
     {"QF3X", 0.67155E+00},
     {"QF4X", 0.68262E+00},
     {"QF6X", 0.11220E+01},
     {"QF7X", 0.39091E+00},
     {"QF9X", 0.73809E+00},
     {"QF21X", 0.30249E+00},
     {"QD2X",-0.94455E+00},
     {"QD5X",-0.93031E+00},
     {"QD8X",-0.59164E+00},
     {"QD14X", 0.10191E+01},
     {"QD20X", 0.30331E+00},
     {"QK1X", 0.00000E+00},
     {"QK2X", 0.00000E+00},
     {"QK3X", 0.00000E+00},
     {"QK4X", 0.00000E+00},
     {"QS1X",-0.10263E-02},
     {"QS2X",-0.10263E-02},
     {"QM16FF", 0.00000E+00},
     {"QM15FF", 0.41670E+00},
     {"QM14FF", 0.37544E+00},
     {"QM13FF", 0.64340E+00},
     {"QM12FF", 0.32391E+00},
     {"QM11FF", 0.20457E+00},
     {"QD10AFF", 0.29337E+00},
     {"QD10BFF", 0.29326E+00},
     {"QF9AFF", 0.38285E+00},
     {"QF9BFF", 0.38298E+00},
     {"QD8FF", 0.61120E+00},
     {"QF7FF", 0.55624E+00},
     {"QD6FF", 0.60914E+00},
     {"QF5AFF", 0.38033E+00},
     {"QF5BFF", 0.38033E+00},
     {"QD4AFF", 0.30017E+00},
     {"QD4BFF", 0.30011E+00},
     {"QF3FF", 0.55900E+00},
     {"QD2AFF", 0.29291E+00},
     {"QD2BFF", 0.20101E+00},
     {"QF1FF", 0.71799E+00},
     {"QD0FF", 0.13186E+01}},
  ATFSext->{
     {"SD1R", 0.64929E+02},
     {"SF1R", 0.43240E+02},
     {"SD1R.1", 0.13000E-02},
     {"SD1R.2", 0.76200E-02},
     {"SD1R.3", 0.78600E-02},
     {"SD1R.4",-0.15840E-01},
     {"SD1R.5",-0.18800E-02},
     {"SD1R.6", 0.13000E-01},
     {"SD1R.7", 0.10200E-01},
     {"SD1R.8",-0.14940E-01},
     {"SD1R.9",-0.75800E-02},
     {"SD1R.10", 0.10000E-01},
     {"SD1R.11", 0.13000E-02},
     {"SD1R.12",-0.10580E-01},
     {"SD1R.13",-0.50000E-02},
     {"SD1R.14", 0.88000E-02},
     {"SD1R.15", 0.84600E-02},
     {"SD1R.16",-0.62400E-02},
     {"SD1R.17",-0.91000E-02},
     {"SD1R.18", 0.26200E-02},
     {"SD1R.19", 0.48800E-02},
     {"SD1R.20", 0.29000E-02},
     {"SD1R.21",-0.24800E-02},
     {"SD1R.22",-0.82000E-03},
     {"SD1R.23", 0.43600E-02},
     {"SD1R.24",-0.23200E-02},
     {"SD1R.25",-0.65400E-02},
     {"SD1R.26",-0.63600E-02},
     {"SD1R.27", 0.30000E-02},
     {"SD1R.28", 0.38200E-02},
     {"SD1R.29",-0.57600E-02},
     {"SD1R.30", 0.15000E-02},
     {"SD1R.31",-0.67400E-02},
     {"SD1R.32",-0.37400E-02},
     {"SD1R.33",-0.37200E-02},
     {"SD1R.34",-0.16480E-01},
     {"SF1R.1",-0.17000E-01},
     {"SF1R.2", 0.38295E-02},
     {"SF1R.3", 0.15242E-01},
     {"SF1R.4",-0.42886E-02},
     {"SF1R.5",-0.10968E-01},
     {"SF1R.6", 0.16498E-01},
     {"SF1R.7",-0.27723E-02},
     {"SF1R.8", 0.17764E-02},
     {"SF1R.9",-0.46487E-02},
     {"SF1R.10", 0.93082E-02},
     {"SF1R.11",-0.17729E-02},
     {"SF1R.12", 0.61570E-03},
     {"SF1R.13",-0.77140E-02},
     {"SF1R.14", 0.14377E-01},
     {"SF1R.15",-0.39443E-02},
     {"SF1R.16", 0.18215E-02},
     {"SF1R.17",-0.86038E-02},
     {"SF1R.18", 0.10376E-01},
     {"SF1R.19",-0.13233E-01},
     {"SF1R.20", 0.99920E-02},
     {"SF1R.21",-0.13070E-01},
     {"SF1R.22", 0.16524E-01},
     {"SF1R.23",-0.17000E-01},
     {"SF1R.24", 0.17000E-01},
     {"SF1R.25",-0.88892E-02},
     {"SF1R.26", 0.73545E-02},
     {"SF1R.27",-0.40070E-02},
     {"SF1R.28", 0.40802E-02},
     {"SF1R.29", 0.12108E-01},
     {"SF1R.30",-0.67315E-02},
     {"SF1R.31",-0.17000E-01},
     {"SF1R.32", 0.59584E-02},
     {"SF1R.33", 0.10964E-01},
     {"SF1R.34", 0.22332E-02},
     {"SF6FF", 0.00000E+00},
     {"SF5FF", 0.00000E+00},
     {"SD4FF", 0.00000E+00},
     {"SF1FF", 0.00000E+00},
     {"SD0FF", 0.00000E+00}},
  ATFSteer->{
     {"BS1X.1", 0.00000E+00},
     {"ZH1R", 0.19433E-03},
     {"ZH2R",-0.19282E-03},
     {"ZH3R", 0.44891E-03},
     {"ZH4R", 0.43987E-03},
     {"ZH5R", 0.48657E-03},
     {"ZH6R",-0.22822E-03},
     {"ZH7R", 0.66282E-04},
     {"ZH8R", 0.15064E-04},
     {"ZH9R",-0.34843E-03},
     {"ZH10R", 0.12331E-04},
     {"ZH11R", 0.21770E-03},
     {"ZH12R", 0.00000E+00},
     {"ZH13R", 0.48224E-03},
     {"ZH14R",-0.36237E-03},
     {"ZH16R", 0.45945E-03},
     {"ZH17R",-0.14931E-03},
     {"ZH18R", 0.20487E-03},
     {"ZH19R",-0.65001E-03},
     {"ZH20R",-0.25383E-03},
     {"ZH21R",-0.72307E-04},
     {"ZH22R", 0.12202E-03},
     {"ZH23R", 0.11449E-03},
     {"ZH24R", 0.22596E-05},
     {"ZH25R",-0.12202E-03},
     {"ZH26R", 0.22974E-03},
     {"ZH27R",-0.25389E-03},
     {"ZH28R",-0.21090E-03},
     {"ZH29R",-0.39920E-03},
     {"ZH30R",-0.60407E-03},
     {"ZH31R",-0.10801E-02},
     {"ZH32R",-0.25609E-03},
     {"ZH33R", 0.16420E-03},
     {"ZH34R", 0.00000E+00},
     {"ZH35R",-0.10196E-03},
     {"ZH36R", 0.28590E-03},
     {"ZH37R", 0.00000E+00},
     {"ZH38R", 0.78536E-04},
     {"ZH39R",-0.54461E-03},
     {"ZH40R", 0.48205E-04},
     {"ZH41R",-0.18077E-04},
     {"ZH42R", 0.28622E-03},
     {"ZH43R", 0.51218E-04},
     {"ZH44R", 0.00000E+00},
     {"ZH45R", 0.00000E+00},
     {"ZH46R",-0.30344E-03},
     {"ZH47R",-0.28923E-03},
     {"ZH48R", 0.18077E-04},
     {"ZV1R", 0.16927E-03},
     {"ZV2R", 0.37288E-03},
     {"ZV3R",-0.55605E-03},
     {"ZV4R", 0.34999E-03},
     {"ZV5R", 0.58549E-03},
     {"ZV6R",-0.38924E-03},
     {"ZV7R",-0.59285E-03},
     {"ZV8R", 0.55033E-03},
     {"ZV9R",-0.38269E-03},
     {"ZV10R", 0.37565E-03},
     {"ZV11R",-0.16422E-03},
     {"ZV12R", 0.42184E-03},
     {"ZV13R",-0.32844E-04},
     {"ZV14R", 0.30894E-03},
     {"ZV15R",-0.73222E-03},
     {"ZV17R", 0.27148E-03},
     {"ZV18R",-0.34696E-03},
     {"ZV19R", 0.13574E-03},
     {"ZV20R", 0.20443E-03},
     {"ZV21R",-0.48654E-03},
     {"ZV22R",-0.29193E-03},
     {"ZV23R", 0.42358E-03},
     {"ZV24R", 0.50699E-04},
     {"ZV25R",-0.69179E-03},
     {"ZV26R", 0.57731E-03},
     {"ZV27R",-0.62147E-03},
     {"ZV28R", 0.74968E-03},
     {"ZV29R",-0.10491E-02},
     {"ZV30R", 0.11113E-02},
     {"ZV31R",-0.11882E-02},
     {"ZV32R", 0.71142E-03},
     {"ZV33R",-0.70692E-03},
     {"ZV34R", 0.28169E-03},
     {"ZV35R",-0.38701E-03},
     {"ZV36R", 0.30242E-03},
     {"ZV37R", 0.51166E-04},
     {"ZV38R",-0.16217E-03},
     {"ZV39R",-0.10264E-03},
     {"ZV40R",-0.22683E-03},
     {"ZV41R", 0.80056E-04},
     {"ZV42R",-0.83587E-04},
     {"ZV43R",-0.95510E-03},
     {"ZV44R", 0.59974E-03},
     {"ZV45R",-0.47919E-03},
     {"ZV46R",-0.27394E-03},
     {"ZV47R", 0.15756E-03},
     {"ZV48R",-0.10794E-03},
     {"ZV49R", 0.11448E-04},
     {"ZV50R",-0.14399E-03},
     {"ZV51R",-0.66236E-04},
     {"ZH1X", 0.00000E+00},
     {"ZH2X", 0.00000E+00},
     {"ZH3X", 0.00000E+00},
     {"ZH4X", 0.60256E-04},
     {"ZH5X", 0.00000E+00},
     {"ZH6X", 0.00000E+00},
     {"ZH7X", 0.00000E+00},
     {"ZH8X",-0.90384E-04},
     {"ZH9X", 0.00000E+00},
     {"ZV1X",-0.26115E-02},
     {"ZV2X", 0.37288E-03},
     {"ZV3X", 0.00000E+00},
     {"ZV4X", 0.00000E+00},
     {"ZV5X", 0.22896E-03},
     {"ZV6X", 0.00000E+00},
     {"ZV7X", 0.00000E+00},
     {"ZV8X", 0.00000E+00},
     {"ZV9X", 0.00000E+00},
     {"ZV10X", 0.81772E-04},
     {"ZH10X", 0.15064E-04},
     {"ZH1FF", 0.21090E-03},
     {"ZV11X", 0.65418E-04},
     {"ZV1FF", 0.00000E+00}} 
 },
 {
  ATFBPM->{
     {"M.1",-0.99984E-03,-0.94483E-04, 0.91364E+03},
     {"M.2", 0.17876E-02,-0.61175E-05, 0.17783E+04},
     {"M.3",-0.33160E-03, 0.20209E-03, 0.88670E+03},
     {"M.4", 0.35014E-03, 0.10241E-03, 0.18641E+04},
     {"M.5", 0.32553E-03, 0.31708E-04, 0.89297E+03},
     {"M.6", 0.69854E-03, 0.48209E-03, 0.19859E+04},
     {"M.7",-0.36973E-03, 0.61081E-04, 0.53015E+03},
     {"M.8", 0.62258E-03, 0.78223E-04, 0.19639E+04},
     {"M.9",-0.84669E-03,-0.35010E-03, 0.85756E+03},
     {"M.10", 0.58237E-03,-0.58196E-04, 0.21932E+04},
     {"M.11",-0.10392E-02,-0.24901E-03, 0.10294E+04},
     {"M.12", 0.16903E-03, 0.20168E-03, 0.23022E+04},
     {"M.13",-0.55136E-03, 0.24956E-04, 0.85754E+03},
     {"M.14", 0.71607E-03, 0.41670E-03, 0.24064E+04},
     {"M.15",-0.34685E-05,-0.27592E-03, 0.91845E+03},
     {"M.16", 0.57240E-03,-0.71032E-04, 0.24478E+04},
     {"M.18", 0.12111E-03, 0.14178E-03, 0.21987E+04},
     {"M.19",-0.20327E-03,-0.49412E-03, 0.22528E+04},
     {"M.20", 0.15461E-03, 0.37683E-03, 0.11144E+05},
     {"M.21", 0.22328E-03,-0.26487E-03, 0.13019E+05},
     {"M.22",-0.22833E-03,-0.52276E-03, 0.21467E+04},
     {"M.23",-0.34171E-04,-0.12023E-04, 0.18960E+04},
     {"M.24",-0.44690E-03,-0.14333E-04, 0.22470E+04},
     {"M.25", 0.42970E-03,-0.22233E-04, 0.23257E+04},
     {"M.26", 0.14760E-03,-0.21246E-03, 0.25842E+04},
     {"M.27",-0.14483E-02, 0.31520E-03, 0.18116E+04},
     {"M.28", 0.43535E-03,-0.84736E-04, 0.24727E+04},
     {"M.29",-0.42867E-05,-0.10731E-03, 0.24791E+04},
     {"M.30", 0.10188E-03,-0.12416E-03, 0.23399E+04},
     {"M.31", 0.15685E-04,-0.25233E-03, 0.85639E+03},
     {"M.32", 0.20858E-03, 0.26358E-03, 0.79938E+03},
     {"M.33", 0.76973E-03, 0.33107E-03, 0.96044E+03},
     {"M.34", 0.96452E-03,-0.87567E-03, 0.10036E+04},
     {"M.35", 0.30380E-04, 0.29663E-03, 0.11265E+04},
     {"M.36",-0.19347E-03,-0.41229E-03, 0.53131E+04},
     {"M.37", 0.74810E-03, 0.41316E-03, 0.10141E+04},
     {"M.38",-0.34512E-03,-0.48455E-03, 0.48662E+04},
     {"M.39", 0.31564E-03,-0.89996E-04, 0.93145E+03},
     {"M.40",-0.54423E-03,-0.18967E-03, 0.47029E+04},
     {"M.41", 0.57263E-03, 0.37740E-03, 0.98645E+03},
     {"M.42",-0.31989E-03,-0.95963E-05, 0.47683E+04},
     {"M.44",-0.22871E-03,-0.29505E-03, 0.10045E+05},
     {"M.45", 0.14894E-03, 0.31802E-03, 0.90606E+03},
     {"M.46", 0.11486E-03,-0.55846E-03, 0.16426E+05},
     {"M.48", 0.22714E-04,-0.19232E-03, 0.91004E+04},
     {"M.49", 0.34702E-03, 0.33049E-03, 0.17106E+04},
     {"M.51", 0.64350E-03,-0.84267E-04, 0.10929E+04},
     {"M.52",-0.73848E-04,-0.13181E-03, 0.98628E+04},
     {"M.53", 0.33150E-03, 0.26077E-03, 0.16490E+04},
     {"M.55", 0.15868E-03,-0.20990E-05, 0.17325E+04},
     {"M.56",-0.91252E-03,-0.71164E-03, 0.96094E+04},
     {"M.57", 0.62409E-03, 0.66979E-03, 0.18034E+04},
     {"M.58", 0.10990E-03,-0.33090E-04, 0.18886E+04},
     {"M.60", 0.47886E-03,-0.43860E-03, 0.18969E+04},
     {"M.61",-0.45369E-03, 0.12279E-03, 0.19112E+04},
     {"M.63", 0.11584E-02, 0.21416E-03, 0.12577E+04},
     {"M.64", 0.53647E-03,-0.22577E-03, 0.19694E+04},
     {"M.65", 0.13291E-03,-0.17191E-04, 0.19391E+04},
     {"M.66",-0.34695E-03,-0.21383E-03, 0.19578E+04},
     {"M.67", 0.19881E-03, 0.37873E-04, 0.20304E+04},
     {"M.68",-0.62747E-03, 0.12241E-03, 0.20176E+04},
     {"M.69",-0.20940E-03, 0.24258E-04, 0.21912E+04},
     {"M.70", 0.59458E-03,-0.10520E-03, 0.23787E+04},
     {"M.71",-0.64697E-03, 0.29009E-03, 0.22918E+04},
     {"M.72", 0.43684E-03,-0.40693E-03, 0.21247E+04},
     {"M.73",-0.37742E-03, 0.65355E-03, 0.26124E+04},
     {"M.74", 0.49420E-03,-0.34705E-03, 0.28480E+04},
     {"M.75", 0.20289E-03, 0.43198E-04, 0.29463E+04},
     {"M.76", 0.29165E-03,-0.78252E-04, 0.27139E+04},
     {"M.77",-0.16584E-03,-0.22570E-03, 0.28564E+04},
     {"M.78", 0.39993E-04,-0.18693E-03, 0.29427E+04},
     {"M.79",-0.60708E-03, 0.54166E-03, 0.22231E+04},
     {"M.80", 0.71860E-03,-0.30985E-03, 0.23417E+04},
     {"M.81", 0.92807E-04, 0.33668E-03, 0.23612E+04},
     {"M.82", 0.86241E-05, 0.58790E-04, 0.22386E+04},
     {"M.83", 0.98842E-03,-0.15527E-03, 0.22529E+04},
     {"M.84",-0.43656E-03, 0.24251E-03, 0.24324E+04},
     {"M.85",-0.20813E-04,-0.30163E-03, 0.24767E+04},
     {"M.86", 0.30219E-03, 0.87894E-05, 0.23886E+04},
     {"M.87", 0.42308E-03,-0.61081E-04, 0.24925E+04},
     {"M.88",-0.65599E-04, 0.40499E-04, 0.25474E+04},
     {"M.89", 0.45998E-04,-0.29434E-03, 0.26488E+04},
     {"M.90", 0.68536E-04, 0.36643E-04, 0.26093E+04},
     {"M.91",-0.22147E-03,-0.24762E-03, 0.27109E+04},
     {"M.92", 0.28967E-05, 0.14793E-03, 0.23248E+04},
     {"M.93", 0.22200E-03,-0.90203E-04, 0.90618E+03},
     {"M.94", 0.45886E-03, 0.13029E-03, 0.23687E+04},
     {"M.95", 0.25063E-03,-0.68192E-04, 0.85541E+03},
     {"M.96", 0.47076E-03, 0.40319E-03, 0.25292E+04}} 
 } 
};
