beta = {
{"QM7R.2",   19.538692,    1.593259},
{"QM6R.2",    5.027493,    6.807003},
{"QM5R.2",    7.541373,    1.099772},
{"QM4R.2",    3.515956,    1.196144},
{"QM3R.2",    1.633669,    3.955207}
};
name = "SR2";
offset =   0.0000000E+00;
