%!PS-Adobe-2.0 EPSF-2.0
%%Title: ./figures/Testjitter_ver.eps
%%Creator: gnuplot 5.2 patchlevel 4
%%CreationDate: Thu Jan 10 10:26:42 2019
%%DocumentFonts: (atend)
%%BoundingBox: 50 50 410 302
%%EndComments
%%BeginProlog
/gnudict 256 dict def
gnudict begin
%
% The following true/false flags may be edited by hand if desired.
% The unit line width and grayscale image gamma correction may also be changed.
%
/Color true def
/Blacktext false def
/Solid false def
/Dashlength 1 def
/Landscape false def
/Level1 false def
/Level3 false def
/Rounded false def
/ClipToBoundingBox false def
/SuppressPDFMark false def
/TransparentPatterns false def
/gnulinewidth 5.000 def
/userlinewidth gnulinewidth def
/Gamma 1.0 def
/BackgroundColor {-1.000 -1.000 -1.000} def
%
/vshift -80 def
/dl1 {
  10.0 Dashlength userlinewidth gnulinewidth div mul mul mul
  Rounded { currentlinewidth 0.75 mul sub dup 0 le { pop 0.01 } if } if
} def
/dl2 {
  10.0 Dashlength userlinewidth gnulinewidth div mul mul mul
  Rounded { currentlinewidth 0.75 mul add } if
} def
/hpt_ 31.5 def
/vpt_ 31.5 def
/hpt hpt_ def
/vpt vpt_ def
/doclip {
  ClipToBoundingBox {
    newpath 50 50 moveto 410 50 lineto 410 302 lineto 50 302 lineto closepath
    clip
  } if
} def
%
% Gnuplot Prolog Version 5.2 (Dec 2017)
%
%/SuppressPDFMark true def
%
/M {moveto} bind def
/L {lineto} bind def
/R {rmoveto} bind def
/V {rlineto} bind def
/N {newpath moveto} bind def
/Z {closepath} bind def
/C {setrgbcolor} bind def
/f {rlineto fill} bind def
/g {setgray} bind def
/Gshow {show} def   % May be redefined later in the file to support UTF-8
/vpt2 vpt 2 mul def
/hpt2 hpt 2 mul def
/Lshow {currentpoint stroke M 0 vshift R 
	Blacktext {gsave 0 setgray textshow grestore} {textshow} ifelse} def
/Rshow {currentpoint stroke M dup stringwidth pop neg vshift R
	Blacktext {gsave 0 setgray textshow grestore} {textshow} ifelse} def
/Cshow {currentpoint stroke M dup stringwidth pop -2 div vshift R 
	Blacktext {gsave 0 setgray textshow grestore} {textshow} ifelse} def
/UP {dup vpt_ mul /vpt exch def hpt_ mul /hpt exch def
  /hpt2 hpt 2 mul def /vpt2 vpt 2 mul def} def
/DL {Color {setrgbcolor Solid {pop []} if 0 setdash}
 {pop pop pop 0 setgray Solid {pop []} if 0 setdash} ifelse} def
/BL {stroke userlinewidth 2 mul setlinewidth
	Rounded {1 setlinejoin 1 setlinecap} if} def
/AL {stroke userlinewidth 2 div setlinewidth
	Rounded {1 setlinejoin 1 setlinecap} if} def
/UL {dup gnulinewidth mul /userlinewidth exch def
	dup 1 lt {pop 1} if 10 mul /udl exch def} def
/PL {stroke userlinewidth setlinewidth
	Rounded {1 setlinejoin 1 setlinecap} if} def
3.8 setmiterlimit
% Classic Line colors (version 5.0)
/LCw {1 1 1} def
/LCb {0 0 0} def
/LCa {0 0 0} def
/LC0 {1 0 0} def
/LC1 {0 1 0} def
/LC2 {0 0 1} def
/LC3 {1 0 1} def
/LC4 {0 1 1} def
/LC5 {1 1 0} def
/LC6 {0 0 0} def
/LC7 {1 0.3 0} def
/LC8 {0.5 0.5 0.5} def
% Default dash patterns (version 5.0)
/LTB {BL [] LCb DL} def
/LTw {PL [] 1 setgray} def
/LTb {PL [] LCb DL} def
/LTa {AL [1 udl mul 2 udl mul] 0 setdash LCa setrgbcolor} def
/LT0 {PL [] LC0 DL} def
/LT1 {PL [2 dl1 3 dl2] LC1 DL} def
/LT2 {PL [1 dl1 1.5 dl2] LC2 DL} def
/LT3 {PL [6 dl1 2 dl2 1 dl1 2 dl2] LC3 DL} def
/LT4 {PL [1 dl1 2 dl2 6 dl1 2 dl2 1 dl1 2 dl2] LC4 DL} def
/LT5 {PL [4 dl1 2 dl2] LC5 DL} def
/LT6 {PL [1.5 dl1 1.5 dl2 1.5 dl1 1.5 dl2 1.5 dl1 6 dl2] LC6 DL} def
/LT7 {PL [3 dl1 3 dl2 1 dl1 3 dl2] LC7 DL} def
/LT8 {PL [2 dl1 2 dl2 2 dl1 6 dl2] LC8 DL} def
/SL {[] 0 setdash} def
/Pnt {stroke [] 0 setdash gsave 1 setlinecap M 0 0 V stroke grestore} def
/Dia {stroke [] 0 setdash 2 copy vpt add M
  hpt neg vpt neg V hpt vpt neg V
  hpt vpt V hpt neg vpt V closepath stroke
  Pnt} def
/Pls {stroke [] 0 setdash vpt sub M 0 vpt2 V
  currentpoint stroke M
  hpt neg vpt neg R hpt2 0 V stroke
 } def
/Box {stroke [] 0 setdash 2 copy exch hpt sub exch vpt add M
  0 vpt2 neg V hpt2 0 V 0 vpt2 V
  hpt2 neg 0 V closepath stroke
  Pnt} def
/Crs {stroke [] 0 setdash exch hpt sub exch vpt add M
  hpt2 vpt2 neg V currentpoint stroke M
  hpt2 neg 0 R hpt2 vpt2 V stroke} def
/TriU {stroke [] 0 setdash 2 copy vpt 1.12 mul add M
  hpt neg vpt -1.62 mul V
  hpt 2 mul 0 V
  hpt neg vpt 1.62 mul V closepath stroke
  Pnt} def
/Star {2 copy Pls Crs} def
/BoxF {stroke [] 0 setdash exch hpt sub exch vpt add M
  0 vpt2 neg V hpt2 0 V 0 vpt2 V
  hpt2 neg 0 V closepath fill} def
/TriUF {stroke [] 0 setdash vpt 1.12 mul add M
  hpt neg vpt -1.62 mul V
  hpt 2 mul 0 V
  hpt neg vpt 1.62 mul V closepath fill} def
/TriD {stroke [] 0 setdash 2 copy vpt 1.12 mul sub M
  hpt neg vpt 1.62 mul V
  hpt 2 mul 0 V
  hpt neg vpt -1.62 mul V closepath stroke
  Pnt} def
/TriDF {stroke [] 0 setdash vpt 1.12 mul sub M
  hpt neg vpt 1.62 mul V
  hpt 2 mul 0 V
  hpt neg vpt -1.62 mul V closepath fill} def
/DiaF {stroke [] 0 setdash vpt add M
  hpt neg vpt neg V hpt vpt neg V
  hpt vpt V hpt neg vpt V closepath fill} def
/Pent {stroke [] 0 setdash 2 copy gsave
  translate 0 hpt M 4 {72 rotate 0 hpt L} repeat
  closepath stroke grestore Pnt} def
/PentF {stroke [] 0 setdash gsave
  translate 0 hpt M 4 {72 rotate 0 hpt L} repeat
  closepath fill grestore} def
/Circle {stroke [] 0 setdash 2 copy
  hpt 0 360 arc stroke Pnt} def
/CircleF {stroke [] 0 setdash hpt 0 360 arc fill} def
/C0 {BL [] 0 setdash 2 copy moveto vpt 90 450 arc} bind def
/C1 {BL [] 0 setdash 2 copy moveto
	2 copy vpt 0 90 arc closepath fill
	vpt 0 360 arc closepath} bind def
/C2 {BL [] 0 setdash 2 copy moveto
	2 copy vpt 90 180 arc closepath fill
	vpt 0 360 arc closepath} bind def
/C3 {BL [] 0 setdash 2 copy moveto
	2 copy vpt 0 180 arc closepath fill
	vpt 0 360 arc closepath} bind def
/C4 {BL [] 0 setdash 2 copy moveto
	2 copy vpt 180 270 arc closepath fill
	vpt 0 360 arc closepath} bind def
/C5 {BL [] 0 setdash 2 copy moveto
	2 copy vpt 0 90 arc
	2 copy moveto
	2 copy vpt 180 270 arc closepath fill
	vpt 0 360 arc} bind def
/C6 {BL [] 0 setdash 2 copy moveto
	2 copy vpt 90 270 arc closepath fill
	vpt 0 360 arc closepath} bind def
/C7 {BL [] 0 setdash 2 copy moveto
	2 copy vpt 0 270 arc closepath fill
	vpt 0 360 arc closepath} bind def
/C8 {BL [] 0 setdash 2 copy moveto
	2 copy vpt 270 360 arc closepath fill
	vpt 0 360 arc closepath} bind def
/C9 {BL [] 0 setdash 2 copy moveto
	2 copy vpt 270 450 arc closepath fill
	vpt 0 360 arc closepath} bind def
/C10 {BL [] 0 setdash 2 copy 2 copy moveto vpt 270 360 arc closepath fill
	2 copy moveto
	2 copy vpt 90 180 arc closepath fill
	vpt 0 360 arc closepath} bind def
/C11 {BL [] 0 setdash 2 copy moveto
	2 copy vpt 0 180 arc closepath fill
	2 copy moveto
	2 copy vpt 270 360 arc closepath fill
	vpt 0 360 arc closepath} bind def
/C12 {BL [] 0 setdash 2 copy moveto
	2 copy vpt 180 360 arc closepath fill
	vpt 0 360 arc closepath} bind def
/C13 {BL [] 0 setdash 2 copy moveto
	2 copy vpt 0 90 arc closepath fill
	2 copy moveto
	2 copy vpt 180 360 arc closepath fill
	vpt 0 360 arc closepath} bind def
/C14 {BL [] 0 setdash 2 copy moveto
	2 copy vpt 90 360 arc closepath fill
	vpt 0 360 arc} bind def
/C15 {BL [] 0 setdash 2 copy vpt 0 360 arc closepath fill
	vpt 0 360 arc closepath} bind def
/Rec {newpath 4 2 roll moveto 1 index 0 rlineto 0 exch rlineto
	neg 0 rlineto closepath} bind def
/Square {dup Rec} bind def
/Bsquare {vpt sub exch vpt sub exch vpt2 Square} bind def
/S0 {BL [] 0 setdash 2 copy moveto 0 vpt rlineto BL Bsquare} bind def
/S1 {BL [] 0 setdash 2 copy vpt Square fill Bsquare} bind def
/S2 {BL [] 0 setdash 2 copy exch vpt sub exch vpt Square fill Bsquare} bind def
/S3 {BL [] 0 setdash 2 copy exch vpt sub exch vpt2 vpt Rec fill Bsquare} bind def
/S4 {BL [] 0 setdash 2 copy exch vpt sub exch vpt sub vpt Square fill Bsquare} bind def
/S5 {BL [] 0 setdash 2 copy 2 copy vpt Square fill
	exch vpt sub exch vpt sub vpt Square fill Bsquare} bind def
/S6 {BL [] 0 setdash 2 copy exch vpt sub exch vpt sub vpt vpt2 Rec fill Bsquare} bind def
/S7 {BL [] 0 setdash 2 copy exch vpt sub exch vpt sub vpt vpt2 Rec fill
	2 copy vpt Square fill Bsquare} bind def
/S8 {BL [] 0 setdash 2 copy vpt sub vpt Square fill Bsquare} bind def
/S9 {BL [] 0 setdash 2 copy vpt sub vpt vpt2 Rec fill Bsquare} bind def
/S10 {BL [] 0 setdash 2 copy vpt sub vpt Square fill 2 copy exch vpt sub exch vpt Square fill
	Bsquare} bind def
/S11 {BL [] 0 setdash 2 copy vpt sub vpt Square fill 2 copy exch vpt sub exch vpt2 vpt Rec fill
	Bsquare} bind def
/S12 {BL [] 0 setdash 2 copy exch vpt sub exch vpt sub vpt2 vpt Rec fill Bsquare} bind def
/S13 {BL [] 0 setdash 2 copy exch vpt sub exch vpt sub vpt2 vpt Rec fill
	2 copy vpt Square fill Bsquare} bind def
/S14 {BL [] 0 setdash 2 copy exch vpt sub exch vpt sub vpt2 vpt Rec fill
	2 copy exch vpt sub exch vpt Square fill Bsquare} bind def
/S15 {BL [] 0 setdash 2 copy Bsquare fill Bsquare} bind def
/D0 {gsave translate 45 rotate 0 0 S0 stroke grestore} bind def
/D1 {gsave translate 45 rotate 0 0 S1 stroke grestore} bind def
/D2 {gsave translate 45 rotate 0 0 S2 stroke grestore} bind def
/D3 {gsave translate 45 rotate 0 0 S3 stroke grestore} bind def
/D4 {gsave translate 45 rotate 0 0 S4 stroke grestore} bind def
/D5 {gsave translate 45 rotate 0 0 S5 stroke grestore} bind def
/D6 {gsave translate 45 rotate 0 0 S6 stroke grestore} bind def
/D7 {gsave translate 45 rotate 0 0 S7 stroke grestore} bind def
/D8 {gsave translate 45 rotate 0 0 S8 stroke grestore} bind def
/D9 {gsave translate 45 rotate 0 0 S9 stroke grestore} bind def
/D10 {gsave translate 45 rotate 0 0 S10 stroke grestore} bind def
/D11 {gsave translate 45 rotate 0 0 S11 stroke grestore} bind def
/D12 {gsave translate 45 rotate 0 0 S12 stroke grestore} bind def
/D13 {gsave translate 45 rotate 0 0 S13 stroke grestore} bind def
/D14 {gsave translate 45 rotate 0 0 S14 stroke grestore} bind def
/D15 {gsave translate 45 rotate 0 0 S15 stroke grestore} bind def
/DiaE {stroke [] 0 setdash vpt add M
  hpt neg vpt neg V hpt vpt neg V
  hpt vpt V hpt neg vpt V closepath stroke} def
/BoxE {stroke [] 0 setdash exch hpt sub exch vpt add M
  0 vpt2 neg V hpt2 0 V 0 vpt2 V
  hpt2 neg 0 V closepath stroke} def
/TriUE {stroke [] 0 setdash vpt 1.12 mul add M
  hpt neg vpt -1.62 mul V
  hpt 2 mul 0 V
  hpt neg vpt 1.62 mul V closepath stroke} def
/TriDE {stroke [] 0 setdash vpt 1.12 mul sub M
  hpt neg vpt 1.62 mul V
  hpt 2 mul 0 V
  hpt neg vpt -1.62 mul V closepath stroke} def
/PentE {stroke [] 0 setdash gsave
  translate 0 hpt M 4 {72 rotate 0 hpt L} repeat
  closepath stroke grestore} def
/CircE {stroke [] 0 setdash 
  hpt 0 360 arc stroke} def
/Opaque {gsave closepath 1 setgray fill grestore 0 setgray closepath} def
/DiaW {stroke [] 0 setdash vpt add M
  hpt neg vpt neg V hpt vpt neg V
  hpt vpt V hpt neg vpt V Opaque stroke} def
/BoxW {stroke [] 0 setdash exch hpt sub exch vpt add M
  0 vpt2 neg V hpt2 0 V 0 vpt2 V
  hpt2 neg 0 V Opaque stroke} def
/TriUW {stroke [] 0 setdash vpt 1.12 mul add M
  hpt neg vpt -1.62 mul V
  hpt 2 mul 0 V
  hpt neg vpt 1.62 mul V Opaque stroke} def
/TriDW {stroke [] 0 setdash vpt 1.12 mul sub M
  hpt neg vpt 1.62 mul V
  hpt 2 mul 0 V
  hpt neg vpt -1.62 mul V Opaque stroke} def
/PentW {stroke [] 0 setdash gsave
  translate 0 hpt M 4 {72 rotate 0 hpt L} repeat
  Opaque stroke grestore} def
/CircW {stroke [] 0 setdash 
  hpt 0 360 arc Opaque stroke} def
/BoxFill {gsave Rec 1 setgray fill grestore} def
/Density {
  /Fillden exch def
  currentrgbcolor
  /ColB exch def /ColG exch def /ColR exch def
  /ColR ColR Fillden mul Fillden sub 1 add def
  /ColG ColG Fillden mul Fillden sub 1 add def
  /ColB ColB Fillden mul Fillden sub 1 add def
  ColR ColG ColB setrgbcolor} def
/BoxColFill {gsave Rec PolyFill} def
/PolyFill {gsave Density fill grestore grestore} def
/h {rlineto rlineto rlineto closepath gsave fill grestore stroke} bind def
%
% PostScript Level 1 Pattern Fill routine for rectangles
% Usage: x y w h s a XX PatternFill
%	x,y = lower left corner of box to be filled
%	w,h = width and height of box
%	  a = angle in degrees between lines and x-axis
%	 XX = 0/1 for no/yes cross-hatch
%
/PatternFill {gsave /PFa [ 9 2 roll ] def
  PFa 0 get PFa 2 get 2 div add PFa 1 get PFa 3 get 2 div add translate
  PFa 2 get -2 div PFa 3 get -2 div PFa 2 get PFa 3 get Rec
  TransparentPatterns {} {gsave 1 setgray fill grestore} ifelse
  clip
  currentlinewidth 0.5 mul setlinewidth
  /PFs PFa 2 get dup mul PFa 3 get dup mul add sqrt def
  0 0 M PFa 5 get rotate PFs -2 div dup translate
  0 1 PFs PFa 4 get div 1 add floor cvi
	{PFa 4 get mul 0 M 0 PFs V} for
  0 PFa 6 get ne {
	0 1 PFs PFa 4 get div 1 add floor cvi
	{PFa 4 get mul 0 2 1 roll M PFs 0 V} for
 } if
  stroke grestore} def
%
/languagelevel where
 {pop languagelevel} {1} ifelse
dup 2 lt
	{/InterpretLevel1 true def
	 /InterpretLevel3 false def}
	{/InterpretLevel1 Level1 def
	 2 gt
	    {/InterpretLevel3 Level3 def}
	    {/InterpretLevel3 false def}
	 ifelse }
 ifelse
%
% PostScript level 2 pattern fill definitions
%
/Level2PatternFill {
/Tile8x8 {/PaintType 2 /PatternType 1 /TilingType 1 /BBox [0 0 8 8] /XStep 8 /YStep 8}
	bind def
/KeepColor {currentrgbcolor [/Pattern /DeviceRGB] setcolorspace} bind def
<< Tile8x8
 /PaintProc {0.5 setlinewidth pop 0 0 M 8 8 L 0 8 M 8 0 L stroke} 
>> matrix makepattern
/Pat1 exch def
<< Tile8x8
 /PaintProc {0.5 setlinewidth pop 0 0 M 8 8 L 0 8 M 8 0 L stroke
	0 4 M 4 8 L 8 4 L 4 0 L 0 4 L stroke}
>> matrix makepattern
/Pat2 exch def
<< Tile8x8
 /PaintProc {0.5 setlinewidth pop 0 0 M 0 8 L
	8 8 L 8 0 L 0 0 L fill}
>> matrix makepattern
/Pat3 exch def
<< Tile8x8
 /PaintProc {0.5 setlinewidth pop -4 8 M 8 -4 L
	0 12 M 12 0 L stroke}
>> matrix makepattern
/Pat4 exch def
<< Tile8x8
 /PaintProc {0.5 setlinewidth pop -4 0 M 8 12 L
	0 -4 M 12 8 L stroke}
>> matrix makepattern
/Pat5 exch def
<< Tile8x8
 /PaintProc {0.5 setlinewidth pop -2 8 M 4 -4 L
	0 12 M 8 -4 L 4 12 M 10 0 L stroke}
>> matrix makepattern
/Pat6 exch def
<< Tile8x8
 /PaintProc {0.5 setlinewidth pop -2 0 M 4 12 L
	0 -4 M 8 12 L 4 -4 M 10 8 L stroke}
>> matrix makepattern
/Pat7 exch def
<< Tile8x8
 /PaintProc {0.5 setlinewidth pop 8 -2 M -4 4 L
	12 0 M -4 8 L 12 4 M 0 10 L stroke}
>> matrix makepattern
/Pat8 exch def
<< Tile8x8
 /PaintProc {0.5 setlinewidth pop 0 -2 M 12 4 L
	-4 0 M 12 8 L -4 4 M 8 10 L stroke}
>> matrix makepattern
/Pat9 exch def
/Pattern1 {PatternBgnd KeepColor Pat1 setpattern} bind def
/Pattern2 {PatternBgnd KeepColor Pat2 setpattern} bind def
/Pattern3 {PatternBgnd KeepColor Pat3 setpattern} bind def
/Pattern4 {PatternBgnd KeepColor Landscape {Pat5} {Pat4} ifelse setpattern} bind def
/Pattern5 {PatternBgnd KeepColor Landscape {Pat4} {Pat5} ifelse setpattern} bind def
/Pattern6 {PatternBgnd KeepColor Landscape {Pat9} {Pat6} ifelse setpattern} bind def
/Pattern7 {PatternBgnd KeepColor Landscape {Pat8} {Pat7} ifelse setpattern} bind def
} def
%
%
%End of PostScript Level 2 code
%
/PatternBgnd {
  TransparentPatterns {} {gsave 1 setgray fill grestore} ifelse
} def
%
% Substitute for Level 2 pattern fill codes with
% grayscale if Level 2 support is not selected.
%
/Level1PatternFill {
/Pattern1 {0.250 Density} bind def
/Pattern2 {0.500 Density} bind def
/Pattern3 {0.750 Density} bind def
/Pattern4 {0.125 Density} bind def
/Pattern5 {0.375 Density} bind def
/Pattern6 {0.625 Density} bind def
/Pattern7 {0.875 Density} bind def
} def
%
% Now test for support of Level 2 code
%
Level1 {Level1PatternFill} {Level2PatternFill} ifelse
%
/Symbol-Oblique /Symbol findfont [1 0 .167 1 0 0] makefont
dup length dict begin {1 index /FID eq {pop pop} {def} ifelse} forall
currentdict end definefont pop
%
/Metrics {ExtendTextBox Gswidth} def
/Lwidth {currentpoint stroke M 0 vshift R Metrics} def
/Rwidth {currentpoint stroke M dup stringwidth pop neg vshift R Metrics} def
/Cwidth {currentpoint stroke M dup stringwidth pop -2 div vshift R Metrics} def
/GLwidth {currentpoint stroke M 0 vshift R {ExtendTextBox} forall} def
/GRwidth {currentpoint stroke M dup Gwidth vshift R {ExtendTextBox} forall} def
/GCwidth {currentpoint stroke M dup Gwidth 2 div vshift R {ExtendTextBox} forall} def
/GLwidth2 {0 Gwidth AddGlyphWidth} def
/GRwidth2 {Gwidth -1 mul 0 AddGlyphWidth} def
/GCwidth2 {Gwidth 2 div dup -1 mul AddGlyphWidth} def
/AddGlyphWidth { dup TBx2 gt {userdict /TBx2 3 -1 roll put} {pop} ifelse
                 dup TBx1 lt {userdict /TBx1 3 -1 roll put} {pop} ifelse } def
/MFshow {
   { dup 5 get 3 ge
     { 5 get 3 eq {gsave} {grestore} ifelse }
     {dup dup 0 get findfont exch 1 get scalefont setfont
     [ currentpoint ] exch dup 2 get 0 exch R dup 5 get 2 ne {dup dup 6
     get exch 4 get {textshow} {Metrics pop 0 R} ifelse }if dup 5 get 0 eq
     {dup 3 get {2 get neg 0 exch R pop} {pop aload pop M} ifelse} {dup 5
     get 1 eq {dup 2 get exch dup 3 get exch 6 get Gswidth pop -2 div
     dup 0 R} {dup 6 get Gswidth pop -2 div 0 R 6 get
     textshow 2 index {aload pop M neg 3 -1 roll neg R pop pop} {pop pop pop
     pop aload pop M} ifelse }ifelse }ifelse }
     ifelse }
   forall} def
/Gswidth {dup type /stringtype eq {stringwidth} {pop (n) stringwidth} ifelse} def
/MFwidth {0 exch { dup 5 get 3 ge { 5 get 3 eq { 0 } { pop } ifelse }
 {dup 3 get{dup dup 0 get findfont exch 1 get scalefont setfont
     6 get Gswidth pop add} {pop} ifelse} ifelse} forall} def
/MLshow { currentpoint stroke M
  0 exch R
  Blacktext {gsave 0 setgray MFshow grestore} {MFshow} ifelse } bind def
/MRshow { currentpoint stroke M
  exch dup MFwidth neg 3 -1 roll R
  Blacktext {gsave 0 setgray MFshow grestore} {MFshow} ifelse } bind def
/MCshow { currentpoint stroke M
  exch dup MFwidth -2 div 3 -1 roll R
  Blacktext {gsave 0 setgray MFshow grestore} {MFshow} ifelse } bind def
/XYsave    { [( ) 1 2 true false 3 ()] } bind def
/XYrestore { [( ) 1 2 true false 4 ()] } bind def
Level1 SuppressPDFMark or 
{} {
/SDict 10 dict def
systemdict /pdfmark known not {
  userdict /pdfmark systemdict /cleartomark get put
} if
SDict begin [
  /Title (./figures/Testjitter_ver.eps)
  /Subject (gnuplot plot)
  /Creator (gnuplot 5.2 patchlevel 4)
%  /Producer (gnuplot)
%  /Keywords ()
  /CreationDate (Thu Jan 10 10:26:42 2019)
  /DOCINFO pdfmark
end
} ifelse
%
% Support for boxed text - Ethan A Merritt Sep 2016
%
/InitTextBox { userdict /TBy2 3 -1 roll put userdict /TBx2 3 -1 roll put
           userdict /TBy1 3 -1 roll put userdict /TBx1 3 -1 roll put
	   /Boxing true def } def
/ExtendTextBox { dup type /stringtype eq
    { Boxing { gsave dup false charpath pathbbox
      dup TBy2 gt {userdict /TBy2 3 -1 roll put} {pop} ifelse
      dup TBx2 gt {userdict /TBx2 3 -1 roll put} {pop} ifelse
      dup TBy1 lt {userdict /TBy1 3 -1 roll put} {pop} ifelse
      dup TBx1 lt {userdict /TBx1 3 -1 roll put} {pop} ifelse
      grestore } if }
    {} ifelse} def
/PopTextBox { newpath TBx1 TBxmargin sub TBy1 TBymargin sub M
               TBx1 TBxmargin sub TBy2 TBymargin add L
	       TBx2 TBxmargin add TBy2 TBymargin add L
	       TBx2 TBxmargin add TBy1 TBymargin sub L closepath } def
/DrawTextBox { PopTextBox stroke /Boxing false def} def
/FillTextBox { gsave PopTextBox fill grestore /Boxing false def} def
0 0 0 0 InitTextBox
/TBxmargin 20 def
/TBymargin 20 def
/Boxing false def
/textshow { ExtendTextBox Gshow } def
%
end
%%EndProlog
%%Page: 1 1
gnudict begin
gsave
doclip
50 50 translate
0.050 0.050 scale
0 setgray
newpath
(Helvetica) findfont 240 scalefont setfont
BackgroundColor 0 lt 3 1 roll 0 lt exch 0 lt or or not {BackgroundColor C 1.000 0 0 7200.00 5040.00 BoxColFill} if
2.000 UL
LTb
LCb setrgbcolor
1176 768 M
63 0 V
5528 0 R
-63 0 V
stroke
1032 768 M
[ [(Helvetica) 240.0 0.0 true true 0 (-200)]
] -80.0 MRshow
/Helvetica findfont 240 scalefont setfont
/vshift -80 def
2.000 UL
LTb
LCb setrgbcolor
1176 1216 M
63 0 V
5528 0 R
-63 0 V
stroke
1032 1216 M
[ [(Helvetica) 240.0 0.0 true true 0 (-100)]
] -80.0 MRshow
/Helvetica findfont 240 scalefont setfont
2.000 UL
LTb
LCb setrgbcolor
1176 1664 M
63 0 V
5528 0 R
-63 0 V
stroke
1032 1664 M
[ [(Helvetica) 240.0 0.0 true true 0 ( 0)]
] -80.0 MRshow
/Helvetica findfont 240 scalefont setfont
2.000 UL
LTb
LCb setrgbcolor
1176 2112 M
63 0 V
5528 0 R
-63 0 V
stroke
1032 2112 M
[ [(Helvetica) 240.0 0.0 true true 0 ( 100)]
] -80.0 MRshow
/Helvetica findfont 240 scalefont setfont
2.000 UL
LTb
LCb setrgbcolor
1176 2560 M
63 0 V
5528 0 R
-63 0 V
stroke
1032 2560 M
[ [(Helvetica) 240.0 0.0 true true 0 ( 200)]
] -80.0 MRshow
/Helvetica findfont 240 scalefont setfont
2.000 UL
LTb
LCb setrgbcolor
1176 3007 M
63 0 V
5528 0 R
-63 0 V
stroke
1032 3007 M
[ [(Helvetica) 240.0 0.0 true true 0 ( 300)]
] -80.0 MRshow
/Helvetica findfont 240 scalefont setfont
2.000 UL
LTb
LCb setrgbcolor
1176 3455 M
63 0 V
5528 0 R
-63 0 V
stroke
1032 3455 M
[ [(Helvetica) 240.0 0.0 true true 0 ( 400)]
] -80.0 MRshow
/Helvetica findfont 240 scalefont setfont
2.000 UL
LTb
LCb setrgbcolor
1176 3903 M
63 0 V
5528 0 R
-63 0 V
stroke
1032 3903 M
[ [(Helvetica) 240.0 0.0 true true 0 ( 500)]
] -80.0 MRshow
/Helvetica findfont 240 scalefont setfont
2.000 UL
LTb
LCb setrgbcolor
1176 4351 M
63 0 V
5528 0 R
-63 0 V
stroke
1032 4351 M
[ [(Helvetica) 240.0 0.0 true true 0 ( 600)]
] -80.0 MRshow
/Helvetica findfont 240 scalefont setfont
2.000 UL
LTb
LCb setrgbcolor
1176 4799 M
63 0 V
5528 0 R
-63 0 V
stroke
1032 4799 M
[ [(Helvetica) 240.0 0.0 true true 0 ( 700)]
] -80.0 MRshow
/Helvetica findfont 240 scalefont setfont
2.000 UL
LTb
LCb setrgbcolor
1176 768 M
0 63 V
0 3968 R
0 -63 V
stroke
1176 528 M
[ [(Helvetica) 240.0 0.0 true true 0 ( 0)]
] -80.0 MCshow
/Helvetica findfont 240 scalefont setfont
2.000 UL
LTb
LCb setrgbcolor
1735 768 M
0 63 V
0 3968 R
0 -63 V
stroke
1735 528 M
[ [(Helvetica) 240.0 0.0 true true 0 ( 10)]
] -80.0 MCshow
/Helvetica findfont 240 scalefont setfont
2.000 UL
LTb
LCb setrgbcolor
2294 768 M
0 63 V
0 3968 R
0 -63 V
stroke
2294 528 M
[ [(Helvetica) 240.0 0.0 true true 0 ( 20)]
] -80.0 MCshow
/Helvetica findfont 240 scalefont setfont
2.000 UL
LTb
LCb setrgbcolor
2853 768 M
0 63 V
0 3968 R
0 -63 V
stroke
2853 528 M
[ [(Helvetica) 240.0 0.0 true true 0 ( 30)]
] -80.0 MCshow
/Helvetica findfont 240 scalefont setfont
2.000 UL
LTb
LCb setrgbcolor
3412 768 M
0 63 V
0 3968 R
0 -63 V
stroke
3412 528 M
[ [(Helvetica) 240.0 0.0 true true 0 ( 40)]
] -80.0 MCshow
/Helvetica findfont 240 scalefont setfont
2.000 UL
LTb
LCb setrgbcolor
3972 768 M
0 63 V
0 3968 R
0 -63 V
stroke
3972 528 M
[ [(Helvetica) 240.0 0.0 true true 0 ( 50)]
] -80.0 MCshow
/Helvetica findfont 240 scalefont setfont
2.000 UL
LTb
LCb setrgbcolor
4531 768 M
0 63 V
0 3968 R
0 -63 V
stroke
4531 528 M
[ [(Helvetica) 240.0 0.0 true true 0 ( 60)]
] -80.0 MCshow
/Helvetica findfont 240 scalefont setfont
2.000 UL
LTb
LCb setrgbcolor
5090 768 M
0 63 V
0 3968 R
0 -63 V
stroke
5090 528 M
[ [(Helvetica) 240.0 0.0 true true 0 ( 70)]
] -80.0 MCshow
/Helvetica findfont 240 scalefont setfont
2.000 UL
LTb
LCb setrgbcolor
5649 768 M
0 63 V
0 3968 R
0 -63 V
stroke
5649 528 M
[ [(Helvetica) 240.0 0.0 true true 0 ( 80)]
] -80.0 MCshow
/Helvetica findfont 240 scalefont setfont
2.000 UL
LTb
LCb setrgbcolor
6208 768 M
0 63 V
0 3968 R
0 -63 V
stroke
6208 528 M
[ [(Helvetica) 240.0 0.0 true true 0 ( 90)]
] -80.0 MCshow
/Helvetica findfont 240 scalefont setfont
2.000 UL
LTb
LCb setrgbcolor
6767 768 M
0 63 V
0 3968 R
0 -63 V
stroke
6767 528 M
[ [(Helvetica) 240.0 0.0 true true 0 ( 100)]
] -80.0 MCshow
/Helvetica findfont 240 scalefont setfont
2.000 UL
LTb
LCb setrgbcolor
2.000 UL
LTB
LCb setrgbcolor
1176 4799 N
0 -4031 V
5591 0 V
0 4031 V
-5591 0 V
Z stroke
1.000 UP
2.000 UL
LTb
LCb setrgbcolor
LCb setrgbcolor
216 2783 M
currentpoint gsave translate -270 rotate 0 0 moveto
[ [(Helvetica) 240.0 0.0 true true 0 (Ver. Jitter [um])]
] -80.0 MCshow
grestore
/Helvetica findfont 240 scalefont setfont
LTb
LCb setrgbcolor
3971 168 M
[ [(Italic) 240.0 0.0 true true 0 (s)]
[(Helvetica) 240.0 0.0 true true 0 ( [m])]
] -80.0 MCshow
/Helvetica findfont 240 scalefont setfont
LTb
% Begin plot #1
1.500 UP
5.000 UL
LTb
0.00 0.00 0.00 C LCb setrgbcolor
2184 4556 M
[ [(Helvetica) 240.0 0.0 true true 0 (Jitter)]
] -80.0 MRshow
/Helvetica findfont 240 scalefont setfont
1.500 UP
5.000 UL
LTb
0.00 0.00 0.00 C 2328 4556 M
639 0 V
-639 31 R
0 -62 V
639 62 R
0 -62 V
1461 1651 M
0 26 V
-31 -26 R
62 0 V
-62 26 R
62 0 V
87 -37 R
0 52 V
-31 -52 R
62 0 V
-62 52 R
62 0 V
-19 -64 R
0 67 V
-31 -67 R
62 0 V
-62 67 R
62 0 V
69 -114 R
0 163 V
-31 -163 R
62 0 V
-62 163 R
62 0 V
24 -118 R
0 77 V
-31 -77 R
62 0 V
-62 77 R
62 0 V
82 -42 R
0 6 V
-31 -6 R
62 0 V
-62 6 R
62 0 V
97 -55 R
0 103 V
-31 -103 R
62 0 V
-62 103 R
62 0 V
9 -134 R
0 167 V
-31 -167 R
62 0 V
-62 167 R
62 0 V
81 -115 R
0 63 V
-31 -63 R
62 0 V
-62 63 R
62 0 V
162 -54 R
0 43 V
-31 -43 R
62 0 V
-62 43 R
62 0 V
95 -56 R
0 69 V
-31 -69 R
62 0 V
-62 69 R
62 0 V
50 -49 R
0 29 V
-31 -29 R
62 0 V
-62 29 R
62 0 V
-7 -22 R
0 16 V
-31 -16 R
62 0 V
-62 16 R
62 0 V
133 -27 R
0 38 V
-31 -38 R
62 0 V
-62 38 R
62 0 V
50 -21 R
0 4 V
-31 -4 R
62 0 V
-62 4 R
62 0 V
50 -21 R
0 36 V
-31 -36 R
62 0 V
-62 36 R
62 0 V
29 -32 R
0 29 V
-31 -29 R
62 0 V
-62 29 R
62 0 V
27 -40 R
0 50 V
-31 -50 R
62 0 V
-62 50 R
62 0 V
27 -38 R
0 31 V
-31 -31 R
62 0 V
-62 31 R
62 0 V
25 -36 R
0 40 V
-31 -40 R
62 0 V
-62 40 R
62 0 V
50 -23 R
0 3 V
-31 -3 R
62 0 V
-62 3 R
62 0 V
-19 -5 R
0 8 V
-31 -8 R
62 0 V
-62 8 R
62 0 V
90 -34 R
0 59 V
-31 -59 R
62 0 V
-62 59 R
62 0 V
-16 -55 R
0 55 V
-31 -55 R
62 0 V
-62 55 R
62 0 V
35 -50 R
0 44 V
-31 -44 R
62 0 V
-62 44 R
62 0 V
-16 -47 R
0 47 V
-31 -47 R
62 0 V
-62 47 R
62 0 V
148 -59 R
0 74 V
-31 -74 R
62 0 V
-62 74 R
62 0 V
-15 -79 R
0 79 V
-31 -79 R
62 0 V
-62 79 R
62 0 V
-28 -75 R
0 78 V
-31 -78 R
62 0 V
-62 78 R
62 0 V
190 -65 R
0 49 V
-31 -49 R
62 0 V
-62 49 R
62 0 V
-16 -48 R
0 46 V
-31 -46 R
62 0 V
-62 46 R
62 0 V
164 -34 R
0 22 V
-31 -22 R
62 0 V
-62 22 R
62 0 V
66 -22 R
0 21 V
-31 -21 R
62 0 V
-62 21 R
62 0 V
53 -22 R
0 25 V
-31 -25 R
62 0 V
-62 25 R
62 0 V
14 -26 R
0 26 V
-31 -26 R
62 0 V
-62 26 R
62 0 V
8 -50 R
0 79 V
-31 -79 R
62 0 V
-62 79 R
62 0 V
53 -182 R
0 260 V
-31 -260 R
62 0 V
-62 260 R
62 0 V
9 -318 R
0 364 V
-31 -364 R
62 0 V
-62 364 R
62 0 V
18 -452 R
0 577 V
-31 -577 R
62 0 V
-62 577 R
62 0 V
53 -737 R
0 833 V
-31 -833 R
62 0 V
-62 833 R
62 0 V
-4 -842 R
0 874 V
-31 -874 R
62 0 V
stroke 4640 1209 M
-62 874 R
62 0 V
-8 -808 R
0 808 V
-31 -808 R
62 0 V
-62 808 R
62 0 V
-15 -790 R
0 727 V
-31 -727 R
62 0 V
-62 727 R
62 0 V
26 -579 R
0 450 V
-31 -450 R
62 0 V
-62 450 R
62 0 V
2 -429 R
0 412 V
-31 -412 R
62 0 V
-62 412 R
62 0 V
-1 -422 R
0 404 V
-31 -404 R
62 0 V
-62 404 R
62 0 V
69 -438 R
0 471 V
-31 -471 R
62 0 V
-62 471 R
62 0 V
75 -239 R
0 29 V
-31 -29 R
62 0 V
-62 29 R
62 0 V
76 -208 R
0 332 V
-31 -332 R
62 0 V
-62 332 R
62 0 V
69 -347 R
0 359 V
-31 -359 R
62 0 V
-62 359 R
62 0 V
2 -356 R
0 425 V
-31 -425 R
62 0 V
-62 425 R
62 0 V
-1 -467 R
0 519 V
-31 -519 R
62 0 V
-62 519 R
62 0 V
-19 -553 R
0 628 V
-31 -628 R
62 0 V
-62 628 R
62 0 V
30 -809 R
0 953 V
-31 -953 R
62 0 V
-62 953 R
62 0 V
2 -969 R
0 940 V
-31 -940 R
62 0 V
-62 940 R
62 0 V
-2 -897 R
0 922 V
-31 -922 R
62 0 V
-62 922 R
62 0 V
126 -640 R
0 306 V
-31 -306 R
62 0 V
-62 306 R
62 0 V
40 -283 R
0 265 V
-31 -265 R
62 0 V
-62 265 R
62 0 V
-7 -242 R
0 224 V
-31 -224 R
62 0 V
-62 224 R
62 0 V
-11 -215 R
0 192 V
-31 -192 R
62 0 V
-62 192 R
62 0 V
-16 -182 R
0 171 V
-31 -171 R
62 0 V
-62 171 R
62 0 V
29 -115 R
0 60 V
-31 -60 R
62 0 V
-62 60 R
62 0 V
182 -225 R
0 391 V
-31 -391 R
62 0 V
-62 391 R
62 0 V
13 -473 R
0 502 V
-31 -502 R
62 0 V
-62 502 R
62 0 V
29 -628 R
0 738 V
-31 -738 R
62 0 V
-62 738 R
62 0 V
-14 -805 R
0 970 V
-31 -970 R
62 0 V
-62 970 R
62 0 V
28 -984 R
0 986 V
-31 -986 R
62 0 V
-62 986 R
62 0 V
-5 -740 R
0 463 V
-31 -463 R
62 0 V
-62 463 R
62 0 V
-7 -223 R
-31 0 R
62 0 V
-62 0 R
62 0 V
-31 0 R
-31 0 R
62 0 V
-62 0 R
62 0 V
-8 -220 R
0 463 V
-31 -463 R
62 0 V
-62 463 R
62 0 V
-19 -580 R
0 681 V
-31 -681 R
62 0 V
-62 681 R
62 0 V
-14 -881 R
0 1044 V
6190 1127 M
62 0 V
-62 1044 R
62 0 V
1461 1664 BoxF
1579 1666 BoxF
1591 1661 BoxF
1691 1662 BoxF
1746 1665 BoxF
1859 1664 BoxF
1987 1664 BoxF
2027 1664 BoxF
2139 1664 BoxF
2332 1663 BoxF
2458 1664 BoxF
2539 1664 BoxF
2563 1664 BoxF
2727 1664 BoxF
2808 1664 BoxF
2889 1663 BoxF
2949 1664 BoxF
3007 1663 BoxF
3065 1665 BoxF
3121 1665 BoxF
3202 1664 BoxF
3214 1664 BoxF
3335 1664 BoxF
3350 1666 BoxF
3416 1665 BoxF
3431 1663 BoxF
3610 1665 BoxF
3626 1663 BoxF
3629 1666 BoxF
3850 1664 BoxF
3865 1664 BoxF
4060 1664 BoxF
4157 1664 BoxF
4241 1664 BoxF
4286 1664 BoxF
4325 1666 BoxF
4409 1654 BoxF
4449 1648 BoxF
4498 1666 BoxF
4582 1634 BoxF
4609 1646 BoxF
4632 1679 BoxF
4648 1657 BoxF
4705 1666 BoxF
4738 1668 BoxF
4768 1654 BoxF
4868 1654 BoxF
4974 1664 BoxF
5081 1637 BoxF
5181 1635 BoxF
5214 1671 BoxF
5244 1676 BoxF
5256 1697 BoxF
5317 1679 BoxF
5350 1656 BoxF
5379 1690 BoxF
5536 1664 BoxF
5607 1666 BoxF
5631 1669 BoxF
5651 1662 BoxF
5666 1662 BoxF
5726 1662 BoxF
5939 1663 BoxF
5983 1636 BoxF
6043 1628 BoxF
6060 1677 BoxF
6119 1671 BoxF
6145 1656 BoxF
6169 1664 BoxF
6169 1664 BoxF
6192 1675 BoxF
6204 1667 BoxF
6221 1649 BoxF
2647 4556 BoxF
% End plot #1
% Begin plot #2
5.000 UL
LTb
1.00 0.00 0.00 C LCb setrgbcolor
2184 4196 M
[ [(Helvetica) 240.0 0.0 true true 0 (SIGY)]
] -80.0 MRshow
/Helvetica findfont 240 scalefont setfont
5.000 UL
LTb
1.00 0.00 0.00 C 2328 4196 M
639 0 V
1461 1689 M
118 38 V
12 17 V
100 113 V
55 -102 V
113 -86 V
128 110 V
40 83 V
112 -126 V
193 -8 V
126 48 V
81 -63 V
24 -18 V
164 10 V
81 -31 V
81 22 V
60 -6 V
58 19 V
58 -16 V
56 12 V
81 -31 V
12 2 V
121 40 V
15 -3 V
66 -14 V
15 3 V
179 30 V
16 3 V
3 1 V
221 -24 V
15 -1 V
195 -8 V
97 14 V
84 18 V
45 -1 V
39 140 V
84 505 V
40 393 V
49 493 V
84 843 V
27 -51 V
23 -123 V
16 -222 V
57 -716 V
33 -146 V
30 -83 V
100 206 V
4974 1744 L
107 856 V
100 77 V
33 228 V
30 266 V
12 205 V
61 898 V
33 94 V
29 -19 V
5536 2568 L
71 -176 V
24 -67 V
20 -116 V
15 -46 V
60 -319 V
213 942 V
44 266 V
60 788 V
17 484 V
59 74 V
26 -1409 V
24 -1325 V
23 1310 V
12 629 V
17 937 V
% End plot #2
stroke
2.000 UL
LTb
LCb setrgbcolor
2.000 UL
LTB
LCb setrgbcolor
1176 4799 N
0 -4031 V
5591 0 V
0 4031 V
-5591 0 V
Z stroke
1.000 UP
2.000 UL
LTb
LCb setrgbcolor
stroke
grestore
end
showpage
%%Trailer
%%DocumentFonts: Italic Helvetica
