%!PS-Adobe-2.0 EPSF-2.0
%%Title: ./figures/Testjitter_averagePos.eps
%%Creator: gnuplot 5.2 patchlevel 4
%%CreationDate: Thu Jan 10 10:26:42 2019
%%DocumentFonts: (atend)
%%BoundingBox: 50 50 410 302
%%EndComments
%%BeginProlog
/gnudict 256 dict def
gnudict begin
%
% The following true/false flags may be edited by hand if desired.
% The unit line width and grayscale image gamma correction may also be changed.
%
/Color true def
/Blacktext false def
/Solid false def
/Dashlength 1 def
/Landscape false def
/Level1 false def
/Level3 false def
/Rounded false def
/ClipToBoundingBox false def
/SuppressPDFMark false def
/TransparentPatterns false def
/gnulinewidth 5.000 def
/userlinewidth gnulinewidth def
/Gamma 1.0 def
/BackgroundColor {-1.000 -1.000 -1.000} def
%
/vshift -80 def
/dl1 {
  10.0 Dashlength userlinewidth gnulinewidth div mul mul mul
  Rounded { currentlinewidth 0.75 mul sub dup 0 le { pop 0.01 } if } if
} def
/dl2 {
  10.0 Dashlength userlinewidth gnulinewidth div mul mul mul
  Rounded { currentlinewidth 0.75 mul add } if
} def
/hpt_ 31.5 def
/vpt_ 31.5 def
/hpt hpt_ def
/vpt vpt_ def
/doclip {
  ClipToBoundingBox {
    newpath 50 50 moveto 410 50 lineto 410 302 lineto 50 302 lineto closepath
    clip
  } if
} def
%
% Gnuplot Prolog Version 5.2 (Dec 2017)
%
%/SuppressPDFMark true def
%
/M {moveto} bind def
/L {lineto} bind def
/R {rmoveto} bind def
/V {rlineto} bind def
/N {newpath moveto} bind def
/Z {closepath} bind def
/C {setrgbcolor} bind def
/f {rlineto fill} bind def
/g {setgray} bind def
/Gshow {show} def   % May be redefined later in the file to support UTF-8
/vpt2 vpt 2 mul def
/hpt2 hpt 2 mul def
/Lshow {currentpoint stroke M 0 vshift R 
	Blacktext {gsave 0 setgray textshow grestore} {textshow} ifelse} def
/Rshow {currentpoint stroke M dup stringwidth pop neg vshift R
	Blacktext {gsave 0 setgray textshow grestore} {textshow} ifelse} def
/Cshow {currentpoint stroke M dup stringwidth pop -2 div vshift R 
	Blacktext {gsave 0 setgray textshow grestore} {textshow} ifelse} def
/UP {dup vpt_ mul /vpt exch def hpt_ mul /hpt exch def
  /hpt2 hpt 2 mul def /vpt2 vpt 2 mul def} def
/DL {Color {setrgbcolor Solid {pop []} if 0 setdash}
 {pop pop pop 0 setgray Solid {pop []} if 0 setdash} ifelse} def
/BL {stroke userlinewidth 2 mul setlinewidth
	Rounded {1 setlinejoin 1 setlinecap} if} def
/AL {stroke userlinewidth 2 div setlinewidth
	Rounded {1 setlinejoin 1 setlinecap} if} def
/UL {dup gnulinewidth mul /userlinewidth exch def
	dup 1 lt {pop 1} if 10 mul /udl exch def} def
/PL {stroke userlinewidth setlinewidth
	Rounded {1 setlinejoin 1 setlinecap} if} def
3.8 setmiterlimit
% Classic Line colors (version 5.0)
/LCw {1 1 1} def
/LCb {0 0 0} def
/LCa {0 0 0} def
/LC0 {1 0 0} def
/LC1 {0 1 0} def
/LC2 {0 0 1} def
/LC3 {1 0 1} def
/LC4 {0 1 1} def
/LC5 {1 1 0} def
/LC6 {0 0 0} def
/LC7 {1 0.3 0} def
/LC8 {0.5 0.5 0.5} def
% Default dash patterns (version 5.0)
/LTB {BL [] LCb DL} def
/LTw {PL [] 1 setgray} def
/LTb {PL [] LCb DL} def
/LTa {AL [1 udl mul 2 udl mul] 0 setdash LCa setrgbcolor} def
/LT0 {PL [] LC0 DL} def
/LT1 {PL [2 dl1 3 dl2] LC1 DL} def
/LT2 {PL [1 dl1 1.5 dl2] LC2 DL} def
/LT3 {PL [6 dl1 2 dl2 1 dl1 2 dl2] LC3 DL} def
/LT4 {PL [1 dl1 2 dl2 6 dl1 2 dl2 1 dl1 2 dl2] LC4 DL} def
/LT5 {PL [4 dl1 2 dl2] LC5 DL} def
/LT6 {PL [1.5 dl1 1.5 dl2 1.5 dl1 1.5 dl2 1.5 dl1 6 dl2] LC6 DL} def
/LT7 {PL [3 dl1 3 dl2 1 dl1 3 dl2] LC7 DL} def
/LT8 {PL [2 dl1 2 dl2 2 dl1 6 dl2] LC8 DL} def
/SL {[] 0 setdash} def
/Pnt {stroke [] 0 setdash gsave 1 setlinecap M 0 0 V stroke grestore} def
/Dia {stroke [] 0 setdash 2 copy vpt add M
  hpt neg vpt neg V hpt vpt neg V
  hpt vpt V hpt neg vpt V closepath stroke
  Pnt} def
/Pls {stroke [] 0 setdash vpt sub M 0 vpt2 V
  currentpoint stroke M
  hpt neg vpt neg R hpt2 0 V stroke
 } def
/Box {stroke [] 0 setdash 2 copy exch hpt sub exch vpt add M
  0 vpt2 neg V hpt2 0 V 0 vpt2 V
  hpt2 neg 0 V closepath stroke
  Pnt} def
/Crs {stroke [] 0 setdash exch hpt sub exch vpt add M
  hpt2 vpt2 neg V currentpoint stroke M
  hpt2 neg 0 R hpt2 vpt2 V stroke} def
/TriU {stroke [] 0 setdash 2 copy vpt 1.12 mul add M
  hpt neg vpt -1.62 mul V
  hpt 2 mul 0 V
  hpt neg vpt 1.62 mul V closepath stroke
  Pnt} def
/Star {2 copy Pls Crs} def
/BoxF {stroke [] 0 setdash exch hpt sub exch vpt add M
  0 vpt2 neg V hpt2 0 V 0 vpt2 V
  hpt2 neg 0 V closepath fill} def
/TriUF {stroke [] 0 setdash vpt 1.12 mul add M
  hpt neg vpt -1.62 mul V
  hpt 2 mul 0 V
  hpt neg vpt 1.62 mul V closepath fill} def
/TriD {stroke [] 0 setdash 2 copy vpt 1.12 mul sub M
  hpt neg vpt 1.62 mul V
  hpt 2 mul 0 V
  hpt neg vpt -1.62 mul V closepath stroke
  Pnt} def
/TriDF {stroke [] 0 setdash vpt 1.12 mul sub M
  hpt neg vpt 1.62 mul V
  hpt 2 mul 0 V
  hpt neg vpt -1.62 mul V closepath fill} def
/DiaF {stroke [] 0 setdash vpt add M
  hpt neg vpt neg V hpt vpt neg V
  hpt vpt V hpt neg vpt V closepath fill} def
/Pent {stroke [] 0 setdash 2 copy gsave
  translate 0 hpt M 4 {72 rotate 0 hpt L} repeat
  closepath stroke grestore Pnt} def
/PentF {stroke [] 0 setdash gsave
  translate 0 hpt M 4 {72 rotate 0 hpt L} repeat
  closepath fill grestore} def
/Circle {stroke [] 0 setdash 2 copy
  hpt 0 360 arc stroke Pnt} def
/CircleF {stroke [] 0 setdash hpt 0 360 arc fill} def
/C0 {BL [] 0 setdash 2 copy moveto vpt 90 450 arc} bind def
/C1 {BL [] 0 setdash 2 copy moveto
	2 copy vpt 0 90 arc closepath fill
	vpt 0 360 arc closepath} bind def
/C2 {BL [] 0 setdash 2 copy moveto
	2 copy vpt 90 180 arc closepath fill
	vpt 0 360 arc closepath} bind def
/C3 {BL [] 0 setdash 2 copy moveto
	2 copy vpt 0 180 arc closepath fill
	vpt 0 360 arc closepath} bind def
/C4 {BL [] 0 setdash 2 copy moveto
	2 copy vpt 180 270 arc closepath fill
	vpt 0 360 arc closepath} bind def
/C5 {BL [] 0 setdash 2 copy moveto
	2 copy vpt 0 90 arc
	2 copy moveto
	2 copy vpt 180 270 arc closepath fill
	vpt 0 360 arc} bind def
/C6 {BL [] 0 setdash 2 copy moveto
	2 copy vpt 90 270 arc closepath fill
	vpt 0 360 arc closepath} bind def
/C7 {BL [] 0 setdash 2 copy moveto
	2 copy vpt 0 270 arc closepath fill
	vpt 0 360 arc closepath} bind def
/C8 {BL [] 0 setdash 2 copy moveto
	2 copy vpt 270 360 arc closepath fill
	vpt 0 360 arc closepath} bind def
/C9 {BL [] 0 setdash 2 copy moveto
	2 copy vpt 270 450 arc closepath fill
	vpt 0 360 arc closepath} bind def
/C10 {BL [] 0 setdash 2 copy 2 copy moveto vpt 270 360 arc closepath fill
	2 copy moveto
	2 copy vpt 90 180 arc closepath fill
	vpt 0 360 arc closepath} bind def
/C11 {BL [] 0 setdash 2 copy moveto
	2 copy vpt 0 180 arc closepath fill
	2 copy moveto
	2 copy vpt 270 360 arc closepath fill
	vpt 0 360 arc closepath} bind def
/C12 {BL [] 0 setdash 2 copy moveto
	2 copy vpt 180 360 arc closepath fill
	vpt 0 360 arc closepath} bind def
/C13 {BL [] 0 setdash 2 copy moveto
	2 copy vpt 0 90 arc closepath fill
	2 copy moveto
	2 copy vpt 180 360 arc closepath fill
	vpt 0 360 arc closepath} bind def
/C14 {BL [] 0 setdash 2 copy moveto
	2 copy vpt 90 360 arc closepath fill
	vpt 0 360 arc} bind def
/C15 {BL [] 0 setdash 2 copy vpt 0 360 arc closepath fill
	vpt 0 360 arc closepath} bind def
/Rec {newpath 4 2 roll moveto 1 index 0 rlineto 0 exch rlineto
	neg 0 rlineto closepath} bind def
/Square {dup Rec} bind def
/Bsquare {vpt sub exch vpt sub exch vpt2 Square} bind def
/S0 {BL [] 0 setdash 2 copy moveto 0 vpt rlineto BL Bsquare} bind def
/S1 {BL [] 0 setdash 2 copy vpt Square fill Bsquare} bind def
/S2 {BL [] 0 setdash 2 copy exch vpt sub exch vpt Square fill Bsquare} bind def
/S3 {BL [] 0 setdash 2 copy exch vpt sub exch vpt2 vpt Rec fill Bsquare} bind def
/S4 {BL [] 0 setdash 2 copy exch vpt sub exch vpt sub vpt Square fill Bsquare} bind def
/S5 {BL [] 0 setdash 2 copy 2 copy vpt Square fill
	exch vpt sub exch vpt sub vpt Square fill Bsquare} bind def
/S6 {BL [] 0 setdash 2 copy exch vpt sub exch vpt sub vpt vpt2 Rec fill Bsquare} bind def
/S7 {BL [] 0 setdash 2 copy exch vpt sub exch vpt sub vpt vpt2 Rec fill
	2 copy vpt Square fill Bsquare} bind def
/S8 {BL [] 0 setdash 2 copy vpt sub vpt Square fill Bsquare} bind def
/S9 {BL [] 0 setdash 2 copy vpt sub vpt vpt2 Rec fill Bsquare} bind def
/S10 {BL [] 0 setdash 2 copy vpt sub vpt Square fill 2 copy exch vpt sub exch vpt Square fill
	Bsquare} bind def
/S11 {BL [] 0 setdash 2 copy vpt sub vpt Square fill 2 copy exch vpt sub exch vpt2 vpt Rec fill
	Bsquare} bind def
/S12 {BL [] 0 setdash 2 copy exch vpt sub exch vpt sub vpt2 vpt Rec fill Bsquare} bind def
/S13 {BL [] 0 setdash 2 copy exch vpt sub exch vpt sub vpt2 vpt Rec fill
	2 copy vpt Square fill Bsquare} bind def
/S14 {BL [] 0 setdash 2 copy exch vpt sub exch vpt sub vpt2 vpt Rec fill
	2 copy exch vpt sub exch vpt Square fill Bsquare} bind def
/S15 {BL [] 0 setdash 2 copy Bsquare fill Bsquare} bind def
/D0 {gsave translate 45 rotate 0 0 S0 stroke grestore} bind def
/D1 {gsave translate 45 rotate 0 0 S1 stroke grestore} bind def
/D2 {gsave translate 45 rotate 0 0 S2 stroke grestore} bind def
/D3 {gsave translate 45 rotate 0 0 S3 stroke grestore} bind def
/D4 {gsave translate 45 rotate 0 0 S4 stroke grestore} bind def
/D5 {gsave translate 45 rotate 0 0 S5 stroke grestore} bind def
/D6 {gsave translate 45 rotate 0 0 S6 stroke grestore} bind def
/D7 {gsave translate 45 rotate 0 0 S7 stroke grestore} bind def
/D8 {gsave translate 45 rotate 0 0 S8 stroke grestore} bind def
/D9 {gsave translate 45 rotate 0 0 S9 stroke grestore} bind def
/D10 {gsave translate 45 rotate 0 0 S10 stroke grestore} bind def
/D11 {gsave translate 45 rotate 0 0 S11 stroke grestore} bind def
/D12 {gsave translate 45 rotate 0 0 S12 stroke grestore} bind def
/D13 {gsave translate 45 rotate 0 0 S13 stroke grestore} bind def
/D14 {gsave translate 45 rotate 0 0 S14 stroke grestore} bind def
/D15 {gsave translate 45 rotate 0 0 S15 stroke grestore} bind def
/DiaE {stroke [] 0 setdash vpt add M
  hpt neg vpt neg V hpt vpt neg V
  hpt vpt V hpt neg vpt V closepath stroke} def
/BoxE {stroke [] 0 setdash exch hpt sub exch vpt add M
  0 vpt2 neg V hpt2 0 V 0 vpt2 V
  hpt2 neg 0 V closepath stroke} def
/TriUE {stroke [] 0 setdash vpt 1.12 mul add M
  hpt neg vpt -1.62 mul V
  hpt 2 mul 0 V
  hpt neg vpt 1.62 mul V closepath stroke} def
/TriDE {stroke [] 0 setdash vpt 1.12 mul sub M
  hpt neg vpt 1.62 mul V
  hpt 2 mul 0 V
  hpt neg vpt -1.62 mul V closepath stroke} def
/PentE {stroke [] 0 setdash gsave
  translate 0 hpt M 4 {72 rotate 0 hpt L} repeat
  closepath stroke grestore} def
/CircE {stroke [] 0 setdash 
  hpt 0 360 arc stroke} def
/Opaque {gsave closepath 1 setgray fill grestore 0 setgray closepath} def
/DiaW {stroke [] 0 setdash vpt add M
  hpt neg vpt neg V hpt vpt neg V
  hpt vpt V hpt neg vpt V Opaque stroke} def
/BoxW {stroke [] 0 setdash exch hpt sub exch vpt add M
  0 vpt2 neg V hpt2 0 V 0 vpt2 V
  hpt2 neg 0 V Opaque stroke} def
/TriUW {stroke [] 0 setdash vpt 1.12 mul add M
  hpt neg vpt -1.62 mul V
  hpt 2 mul 0 V
  hpt neg vpt 1.62 mul V Opaque stroke} def
/TriDW {stroke [] 0 setdash vpt 1.12 mul sub M
  hpt neg vpt 1.62 mul V
  hpt 2 mul 0 V
  hpt neg vpt -1.62 mul V Opaque stroke} def
/PentW {stroke [] 0 setdash gsave
  translate 0 hpt M 4 {72 rotate 0 hpt L} repeat
  Opaque stroke grestore} def
/CircW {stroke [] 0 setdash 
  hpt 0 360 arc Opaque stroke} def
/BoxFill {gsave Rec 1 setgray fill grestore} def
/Density {
  /Fillden exch def
  currentrgbcolor
  /ColB exch def /ColG exch def /ColR exch def
  /ColR ColR Fillden mul Fillden sub 1 add def
  /ColG ColG Fillden mul Fillden sub 1 add def
  /ColB ColB Fillden mul Fillden sub 1 add def
  ColR ColG ColB setrgbcolor} def
/BoxColFill {gsave Rec PolyFill} def
/PolyFill {gsave Density fill grestore grestore} def
/h {rlineto rlineto rlineto closepath gsave fill grestore stroke} bind def
%
% PostScript Level 1 Pattern Fill routine for rectangles
% Usage: x y w h s a XX PatternFill
%	x,y = lower left corner of box to be filled
%	w,h = width and height of box
%	  a = angle in degrees between lines and x-axis
%	 XX = 0/1 for no/yes cross-hatch
%
/PatternFill {gsave /PFa [ 9 2 roll ] def
  PFa 0 get PFa 2 get 2 div add PFa 1 get PFa 3 get 2 div add translate
  PFa 2 get -2 div PFa 3 get -2 div PFa 2 get PFa 3 get Rec
  TransparentPatterns {} {gsave 1 setgray fill grestore} ifelse
  clip
  currentlinewidth 0.5 mul setlinewidth
  /PFs PFa 2 get dup mul PFa 3 get dup mul add sqrt def
  0 0 M PFa 5 get rotate PFs -2 div dup translate
  0 1 PFs PFa 4 get div 1 add floor cvi
	{PFa 4 get mul 0 M 0 PFs V} for
  0 PFa 6 get ne {
	0 1 PFs PFa 4 get div 1 add floor cvi
	{PFa 4 get mul 0 2 1 roll M PFs 0 V} for
 } if
  stroke grestore} def
%
/languagelevel where
 {pop languagelevel} {1} ifelse
dup 2 lt
	{/InterpretLevel1 true def
	 /InterpretLevel3 false def}
	{/InterpretLevel1 Level1 def
	 2 gt
	    {/InterpretLevel3 Level3 def}
	    {/InterpretLevel3 false def}
	 ifelse }
 ifelse
%
% PostScript level 2 pattern fill definitions
%
/Level2PatternFill {
/Tile8x8 {/PaintType 2 /PatternType 1 /TilingType 1 /BBox [0 0 8 8] /XStep 8 /YStep 8}
	bind def
/KeepColor {currentrgbcolor [/Pattern /DeviceRGB] setcolorspace} bind def
<< Tile8x8
 /PaintProc {0.5 setlinewidth pop 0 0 M 8 8 L 0 8 M 8 0 L stroke} 
>> matrix makepattern
/Pat1 exch def
<< Tile8x8
 /PaintProc {0.5 setlinewidth pop 0 0 M 8 8 L 0 8 M 8 0 L stroke
	0 4 M 4 8 L 8 4 L 4 0 L 0 4 L stroke}
>> matrix makepattern
/Pat2 exch def
<< Tile8x8
 /PaintProc {0.5 setlinewidth pop 0 0 M 0 8 L
	8 8 L 8 0 L 0 0 L fill}
>> matrix makepattern
/Pat3 exch def
<< Tile8x8
 /PaintProc {0.5 setlinewidth pop -4 8 M 8 -4 L
	0 12 M 12 0 L stroke}
>> matrix makepattern
/Pat4 exch def
<< Tile8x8
 /PaintProc {0.5 setlinewidth pop -4 0 M 8 12 L
	0 -4 M 12 8 L stroke}
>> matrix makepattern
/Pat5 exch def
<< Tile8x8
 /PaintProc {0.5 setlinewidth pop -2 8 M 4 -4 L
	0 12 M 8 -4 L 4 12 M 10 0 L stroke}
>> matrix makepattern
/Pat6 exch def
<< Tile8x8
 /PaintProc {0.5 setlinewidth pop -2 0 M 4 12 L
	0 -4 M 8 12 L 4 -4 M 10 8 L stroke}
>> matrix makepattern
/Pat7 exch def
<< Tile8x8
 /PaintProc {0.5 setlinewidth pop 8 -2 M -4 4 L
	12 0 M -4 8 L 12 4 M 0 10 L stroke}
>> matrix makepattern
/Pat8 exch def
<< Tile8x8
 /PaintProc {0.5 setlinewidth pop 0 -2 M 12 4 L
	-4 0 M 12 8 L -4 4 M 8 10 L stroke}
>> matrix makepattern
/Pat9 exch def
/Pattern1 {PatternBgnd KeepColor Pat1 setpattern} bind def
/Pattern2 {PatternBgnd KeepColor Pat2 setpattern} bind def
/Pattern3 {PatternBgnd KeepColor Pat3 setpattern} bind def
/Pattern4 {PatternBgnd KeepColor Landscape {Pat5} {Pat4} ifelse setpattern} bind def
/Pattern5 {PatternBgnd KeepColor Landscape {Pat4} {Pat5} ifelse setpattern} bind def
/Pattern6 {PatternBgnd KeepColor Landscape {Pat9} {Pat6} ifelse setpattern} bind def
/Pattern7 {PatternBgnd KeepColor Landscape {Pat8} {Pat7} ifelse setpattern} bind def
} def
%
%
%End of PostScript Level 2 code
%
/PatternBgnd {
  TransparentPatterns {} {gsave 1 setgray fill grestore} ifelse
} def
%
% Substitute for Level 2 pattern fill codes with
% grayscale if Level 2 support is not selected.
%
/Level1PatternFill {
/Pattern1 {0.250 Density} bind def
/Pattern2 {0.500 Density} bind def
/Pattern3 {0.750 Density} bind def
/Pattern4 {0.125 Density} bind def
/Pattern5 {0.375 Density} bind def
/Pattern6 {0.625 Density} bind def
/Pattern7 {0.875 Density} bind def
} def
%
% Now test for support of Level 2 code
%
Level1 {Level1PatternFill} {Level2PatternFill} ifelse
%
/Symbol-Oblique /Symbol findfont [1 0 .167 1 0 0] makefont
dup length dict begin {1 index /FID eq {pop pop} {def} ifelse} forall
currentdict end definefont pop
%
/Metrics {ExtendTextBox Gswidth} def
/Lwidth {currentpoint stroke M 0 vshift R Metrics} def
/Rwidth {currentpoint stroke M dup stringwidth pop neg vshift R Metrics} def
/Cwidth {currentpoint stroke M dup stringwidth pop -2 div vshift R Metrics} def
/GLwidth {currentpoint stroke M 0 vshift R {ExtendTextBox} forall} def
/GRwidth {currentpoint stroke M dup Gwidth vshift R {ExtendTextBox} forall} def
/GCwidth {currentpoint stroke M dup Gwidth 2 div vshift R {ExtendTextBox} forall} def
/GLwidth2 {0 Gwidth AddGlyphWidth} def
/GRwidth2 {Gwidth -1 mul 0 AddGlyphWidth} def
/GCwidth2 {Gwidth 2 div dup -1 mul AddGlyphWidth} def
/AddGlyphWidth { dup TBx2 gt {userdict /TBx2 3 -1 roll put} {pop} ifelse
                 dup TBx1 lt {userdict /TBx1 3 -1 roll put} {pop} ifelse } def
/MFshow {
   { dup 5 get 3 ge
     { 5 get 3 eq {gsave} {grestore} ifelse }
     {dup dup 0 get findfont exch 1 get scalefont setfont
     [ currentpoint ] exch dup 2 get 0 exch R dup 5 get 2 ne {dup dup 6
     get exch 4 get {textshow} {Metrics pop 0 R} ifelse }if dup 5 get 0 eq
     {dup 3 get {2 get neg 0 exch R pop} {pop aload pop M} ifelse} {dup 5
     get 1 eq {dup 2 get exch dup 3 get exch 6 get Gswidth pop -2 div
     dup 0 R} {dup 6 get Gswidth pop -2 div 0 R 6 get
     textshow 2 index {aload pop M neg 3 -1 roll neg R pop pop} {pop pop pop
     pop aload pop M} ifelse }ifelse }ifelse }
     ifelse }
   forall} def
/Gswidth {dup type /stringtype eq {stringwidth} {pop (n) stringwidth} ifelse} def
/MFwidth {0 exch { dup 5 get 3 ge { 5 get 3 eq { 0 } { pop } ifelse }
 {dup 3 get{dup dup 0 get findfont exch 1 get scalefont setfont
     6 get Gswidth pop add} {pop} ifelse} ifelse} forall} def
/MLshow { currentpoint stroke M
  0 exch R
  Blacktext {gsave 0 setgray MFshow grestore} {MFshow} ifelse } bind def
/MRshow { currentpoint stroke M
  exch dup MFwidth neg 3 -1 roll R
  Blacktext {gsave 0 setgray MFshow grestore} {MFshow} ifelse } bind def
/MCshow { currentpoint stroke M
  exch dup MFwidth -2 div 3 -1 roll R
  Blacktext {gsave 0 setgray MFshow grestore} {MFshow} ifelse } bind def
/XYsave    { [( ) 1 2 true false 3 ()] } bind def
/XYrestore { [( ) 1 2 true false 4 ()] } bind def
Level1 SuppressPDFMark or 
{} {
/SDict 10 dict def
systemdict /pdfmark known not {
  userdict /pdfmark systemdict /cleartomark get put
} if
SDict begin [
  /Title (./figures/Testjitter_averagePos.eps)
  /Subject (gnuplot plot)
  /Creator (gnuplot 5.2 patchlevel 4)
%  /Producer (gnuplot)
%  /Keywords ()
  /CreationDate (Thu Jan 10 10:26:42 2019)
  /DOCINFO pdfmark
end
} ifelse
%
% Support for boxed text - Ethan A Merritt Sep 2016
%
/InitTextBox { userdict /TBy2 3 -1 roll put userdict /TBx2 3 -1 roll put
           userdict /TBy1 3 -1 roll put userdict /TBx1 3 -1 roll put
	   /Boxing true def } def
/ExtendTextBox { dup type /stringtype eq
    { Boxing { gsave dup false charpath pathbbox
      dup TBy2 gt {userdict /TBy2 3 -1 roll put} {pop} ifelse
      dup TBx2 gt {userdict /TBx2 3 -1 roll put} {pop} ifelse
      dup TBy1 lt {userdict /TBy1 3 -1 roll put} {pop} ifelse
      dup TBx1 lt {userdict /TBx1 3 -1 roll put} {pop} ifelse
      grestore } if }
    {} ifelse} def
/PopTextBox { newpath TBx1 TBxmargin sub TBy1 TBymargin sub M
               TBx1 TBxmargin sub TBy2 TBymargin add L
	       TBx2 TBxmargin add TBy2 TBymargin add L
	       TBx2 TBxmargin add TBy1 TBymargin sub L closepath } def
/DrawTextBox { PopTextBox stroke /Boxing false def} def
/FillTextBox { gsave PopTextBox fill grestore /Boxing false def} def
0 0 0 0 InitTextBox
/TBxmargin 20 def
/TBymargin 20 def
/Boxing false def
/textshow { ExtendTextBox Gshow } def
%
end
%%EndProlog
%%Page: 1 1
gnudict begin
gsave
doclip
50 50 translate
0.050 0.050 scale
0 setgray
newpath
(Helvetica) findfont 240 scalefont setfont
BackgroundColor 0 lt 3 1 roll 0 lt exch 0 lt or or not {BackgroundColor C 1.000 0 0 7200.00 5040.00 BoxColFill} if
2.000 UL
LTb
LCb setrgbcolor
1032 768 M
63 0 V
5672 0 R
-63 0 V
stroke
888 768 M
[ [(Helvetica) 240.0 0.0 true true 0 (-30)]
] -80.0 MRshow
/Helvetica findfont 240 scalefont setfont
/vshift -80 def
2.000 UL
LTb
LCb setrgbcolor
1032 1440 M
63 0 V
5672 0 R
-63 0 V
stroke
888 1440 M
[ [(Helvetica) 240.0 0.0 true true 0 (-20)]
] -80.0 MRshow
/Helvetica findfont 240 scalefont setfont
2.000 UL
LTb
LCb setrgbcolor
1032 2112 M
63 0 V
5672 0 R
-63 0 V
stroke
888 2112 M
[ [(Helvetica) 240.0 0.0 true true 0 (-10)]
] -80.0 MRshow
/Helvetica findfont 240 scalefont setfont
2.000 UL
LTb
LCb setrgbcolor
1032 2784 M
63 0 V
5672 0 R
-63 0 V
stroke
888 2784 M
[ [(Helvetica) 240.0 0.0 true true 0 ( 0)]
] -80.0 MRshow
/Helvetica findfont 240 scalefont setfont
2.000 UL
LTb
LCb setrgbcolor
1032 3455 M
63 0 V
5672 0 R
-63 0 V
stroke
888 3455 M
[ [(Helvetica) 240.0 0.0 true true 0 ( 10)]
] -80.0 MRshow
/Helvetica findfont 240 scalefont setfont
2.000 UL
LTb
LCb setrgbcolor
1032 4127 M
63 0 V
5672 0 R
-63 0 V
stroke
888 4127 M
[ [(Helvetica) 240.0 0.0 true true 0 ( 20)]
] -80.0 MRshow
/Helvetica findfont 240 scalefont setfont
2.000 UL
LTb
LCb setrgbcolor
1032 4799 M
63 0 V
5672 0 R
-63 0 V
stroke
888 4799 M
[ [(Helvetica) 240.0 0.0 true true 0 ( 30)]
] -80.0 MRshow
/Helvetica findfont 240 scalefont setfont
2.000 UL
LTb
LCb setrgbcolor
1032 768 M
0 63 V
0 3968 R
0 -63 V
stroke
1032 528 M
[ [(Helvetica) 240.0 0.0 true true 0 ( 0)]
] -80.0 MCshow
/Helvetica findfont 240 scalefont setfont
2.000 UL
LTb
LCb setrgbcolor
1606 768 M
0 63 V
0 3968 R
0 -63 V
stroke
1606 528 M
[ [(Helvetica) 240.0 0.0 true true 0 ( 10)]
] -80.0 MCshow
/Helvetica findfont 240 scalefont setfont
2.000 UL
LTb
LCb setrgbcolor
2179 768 M
0 63 V
0 3968 R
0 -63 V
stroke
2179 528 M
[ [(Helvetica) 240.0 0.0 true true 0 ( 20)]
] -80.0 MCshow
/Helvetica findfont 240 scalefont setfont
2.000 UL
LTb
LCb setrgbcolor
2753 768 M
0 63 V
0 3968 R
0 -63 V
stroke
2753 528 M
[ [(Helvetica) 240.0 0.0 true true 0 ( 30)]
] -80.0 MCshow
/Helvetica findfont 240 scalefont setfont
2.000 UL
LTb
LCb setrgbcolor
3326 768 M
0 63 V
0 3968 R
0 -63 V
stroke
3326 528 M
[ [(Helvetica) 240.0 0.0 true true 0 ( 40)]
] -80.0 MCshow
/Helvetica findfont 240 scalefont setfont
2.000 UL
LTb
LCb setrgbcolor
3900 768 M
0 63 V
0 3968 R
0 -63 V
stroke
3900 528 M
[ [(Helvetica) 240.0 0.0 true true 0 ( 50)]
] -80.0 MCshow
/Helvetica findfont 240 scalefont setfont
2.000 UL
LTb
LCb setrgbcolor
4473 768 M
0 63 V
0 3968 R
0 -63 V
stroke
4473 528 M
[ [(Helvetica) 240.0 0.0 true true 0 ( 60)]
] -80.0 MCshow
/Helvetica findfont 240 scalefont setfont
2.000 UL
LTb
LCb setrgbcolor
5047 768 M
0 63 V
0 3968 R
0 -63 V
stroke
5047 528 M
[ [(Helvetica) 240.0 0.0 true true 0 ( 70)]
] -80.0 MCshow
/Helvetica findfont 240 scalefont setfont
2.000 UL
LTb
LCb setrgbcolor
5620 768 M
0 63 V
0 3968 R
0 -63 V
stroke
5620 528 M
[ [(Helvetica) 240.0 0.0 true true 0 ( 80)]
] -80.0 MCshow
/Helvetica findfont 240 scalefont setfont
2.000 UL
LTb
LCb setrgbcolor
6194 768 M
0 63 V
0 3968 R
0 -63 V
stroke
6194 528 M
[ [(Helvetica) 240.0 0.0 true true 0 ( 90)]
] -80.0 MCshow
/Helvetica findfont 240 scalefont setfont
2.000 UL
LTb
LCb setrgbcolor
6767 768 M
0 63 V
0 3968 R
0 -63 V
stroke
6767 528 M
[ [(Helvetica) 240.0 0.0 true true 0 ( 100)]
] -80.0 MCshow
/Helvetica findfont 240 scalefont setfont
2.000 UL
LTb
LCb setrgbcolor
2.000 UL
LTB
LCb setrgbcolor
1032 4799 N
0 -4031 V
5735 0 V
0 4031 V
-5735 0 V
Z stroke
1.000 UP
2.000 UL
LTb
LCb setrgbcolor
LCb setrgbcolor
216 2783 M
currentpoint gsave translate -270 rotate 0 0 moveto
[ [(Helvetica) 240.0 0.0 true true 0 (Orbit [um])]
] -80.0 MCshow
grestore
/Helvetica findfont 240 scalefont setfont
LTb
LCb setrgbcolor
3899 168 M
[ [(Italic) 240.0 0.0 true true 0 (s)]
[(Helvetica) 240.0 0.0 true true 0 ( [m])]
] -80.0 MCshow
/Helvetica findfont 240 scalefont setfont
LTb
% Begin plot #1
1.500 UP
5.000 UL
LTb
0.00 0.00 1.00 C LCb setrgbcolor
1608 4556 M
[ [(Helvetica) 240.0 0.0 true true 0 (<x>)]
] -80.0 MRshow
/Helvetica findfont 240 scalefont setfont
1.500 UP
5.000 UL
LTb
0.00 0.00 1.00 C 1752 4556 M
639 0 V
1324 2713 M
122 -39 V
12 -7 V
102 116 V
57 -551 V
116 236 V
131 739 V
41 -428 V
115 56 V
197 168 V
130 -176 V
83 -49 V
25 7 V
168 0 V
83 -220 V
84 212 V
61 49 V
59 -93 V
60 203 V
57 -178 V
83 27 V
12 6 V
125 66 V
15 0 V
67 -23 V
16 11 V
184 -79 V
16 8 V
4 20 V
225 -38 V
16 -81 V
200 351 V
100 -333 V
86 133 V
46 -65 V
40 -111 V
86 162 V
41 -20 V
51 -44 V
86 82 V
27 -388 V
24 160 V
17 229 V
58 -310 V
34 665 V
30 -440 V
103 77 V
109 -56 V
109 126 V
103 568 V
34 -1383 V
31 535 V
12 -127 V
62 410 V
34 -142 V
30 -18 V
161 117 V
73 -11 V
25 77 V
20 65 V
16 -206 V
61 -121 V
219 -176 V
45 1736 V
61 -1521 V
18 -15 V
61 125 V
26 110 V
24 -151 V
0 19 V
24 20 V
12 46 V
17 -270 V
1324 2713 BoxF
1446 2674 BoxF
1458 2667 BoxF
1560 2783 BoxF
1617 2232 BoxF
1733 2468 BoxF
1864 3207 BoxF
1905 2779 BoxF
2020 2835 BoxF
2217 3003 BoxF
2347 2827 BoxF
2430 2778 BoxF
2455 2785 BoxF
2623 2785 BoxF
2706 2565 BoxF
2790 2777 BoxF
2851 2826 BoxF
2910 2733 BoxF
2970 2936 BoxF
3027 2758 BoxF
3110 2785 BoxF
3122 2791 BoxF
3247 2857 BoxF
3262 2857 BoxF
3329 2834 BoxF
3345 2845 BoxF
3529 2766 BoxF
3545 2774 BoxF
3549 2794 BoxF
3774 2756 BoxF
3790 2675 BoxF
3990 3026 BoxF
4090 2693 BoxF
4176 2826 BoxF
4222 2761 BoxF
4262 2650 BoxF
4348 2812 BoxF
4389 2792 BoxF
4440 2748 BoxF
4526 2830 BoxF
4553 2442 BoxF
4577 2602 BoxF
4594 2831 BoxF
4652 2521 BoxF
4686 3186 BoxF
4716 2746 BoxF
4819 2823 BoxF
4928 2767 BoxF
5037 2893 BoxF
5140 3461 BoxF
5174 2078 BoxF
5205 2613 BoxF
5217 2486 BoxF
5279 2896 BoxF
5313 2754 BoxF
5343 2736 BoxF
5504 2853 BoxF
5577 2842 BoxF
5602 2919 BoxF
5622 2984 BoxF
5638 2778 BoxF
5699 2657 BoxF
5918 2481 BoxF
5963 4217 BoxF
6024 2696 BoxF
6042 2681 BoxF
6103 2806 BoxF
6129 2916 BoxF
6153 2765 BoxF
6153 2784 BoxF
6177 2804 BoxF
6189 2850 BoxF
6206 2580 BoxF
2071 4556 BoxF
% End plot #1
% Begin plot #2
1.500 UP
5.000 UL
LTb
1.00 0.65 0.00 C LCb setrgbcolor
1608 4196 M
[ [(Helvetica) 240.0 0.0 true true 0 (<y>)]
] -80.0 MRshow
/Helvetica findfont 240 scalefont setfont
1.500 UP
5.000 UL
LTb
1.00 0.65 0.00 C 1752 4196 M
639 0 V
1324 2783 M
122 32 V
12 -70 V
102 18 V
57 31 V
116 -11 V
131 -3 V
41 12 V
115 0 V
197 -13 V
130 4 V
83 -2 V
25 6 V
168 6 V
83 -9 V
84 -12 V
61 8 V
59 -11 V
60 36 V
57 -4 V
83 -17 V
12 4 V
125 -7 V
15 32 V
67 -9 V
16 -28 V
184 26 V
16 -37 V
4 53 V
225 -24 V
16 -2 V
200 -9 V
100 2 V
86 9 V
46 -14 V
40 42 V
86 -183 V
41 -94 V
51 273 V
86 -475 V
27 174 V
24 492 V
17 -335 V
58 145 V
34 25 V
30 -207 V
103 -7 V
109 163 V
109 -410 V
103 -24 V
34 537 V
31 75 V
12 312 V
62 -275 V
34 -339 V
30 509 V
161 -395 V
73 36 V
25 46 V
20 -112 V
16 -1 V
61 6 V
219 9 V
45 -403 V
61 -120 V
18 734 V
61 -82 V
26 -236 V
24 123 V
0 1 V
24 171 V
12 -117 V
17 -280 V
1324 2783 CircleF
1446 2815 CircleF
1458 2745 CircleF
1560 2763 CircleF
1617 2794 CircleF
1733 2783 CircleF
1864 2780 CircleF
1905 2792 CircleF
2020 2792 CircleF
2217 2779 CircleF
2347 2783 CircleF
2430 2781 CircleF
2455 2787 CircleF
2623 2793 CircleF
2706 2784 CircleF
2790 2772 CircleF
2851 2780 CircleF
2910 2769 CircleF
2970 2805 CircleF
3027 2801 CircleF
3110 2784 CircleF
3122 2788 CircleF
3247 2781 CircleF
3262 2813 CircleF
3329 2804 CircleF
3345 2776 CircleF
3529 2802 CircleF
3545 2765 CircleF
3549 2818 CircleF
3774 2794 CircleF
3790 2792 CircleF
3990 2783 CircleF
4090 2785 CircleF
4176 2794 CircleF
4222 2780 CircleF
4262 2822 CircleF
4348 2639 CircleF
4389 2545 CircleF
4440 2818 CircleF
4526 2343 CircleF
4553 2517 CircleF
4577 3009 CircleF
4594 2674 CircleF
4652 2819 CircleF
4686 2844 CircleF
4716 2637 CircleF
4819 2630 CircleF
4928 2793 CircleF
5037 2383 CircleF
5140 2359 CircleF
5174 2896 CircleF
5205 2971 CircleF
5217 3283 CircleF
5279 3008 CircleF
5313 2669 CircleF
5343 3178 CircleF
5504 2783 CircleF
5577 2819 CircleF
5602 2865 CircleF
5622 2753 CircleF
5638 2752 CircleF
5699 2758 CircleF
5918 2767 CircleF
5963 2364 CircleF
6024 2244 CircleF
6042 2978 CircleF
6103 2896 CircleF
6129 2660 CircleF
6153 2783 CircleF
6153 2784 CircleF
6177 2955 CircleF
6189 2838 CircleF
6206 2558 CircleF
2071 4196 CircleF
% End plot #2
2.000 UL
LTb
LCb setrgbcolor
2.000 UL
LTB
LCb setrgbcolor
1032 4799 N
0 -4031 V
5735 0 V
0 4031 V
-5735 0 V
Z stroke
1.000 UP
2.000 UL
LTb
LCb setrgbcolor
stroke
grestore
end
showpage
%%Trailer
%%DocumentFonts: Italic Helvetica
