x,Curve1
145.989,1.561
147.777,47.902
148.841,10.049
153.119,-31.22
153.835,-19.122
155.839,-13.171
159.361,-12.39
161.581,-48.39
163.418,4.878
166.296,7.122
167.789,1.756
169.203,-0.976
170.489,-0.683
171.442,-8.585
172.521,-6.049
173.548,-1.366
174.936,0.195
177.248,5.073
178.662,3.024
182.362,12.098
186.503,4.195
190.154,2.146
192.03,1.659
193.496,0.195
194.962,-1.463
196.403,-8.585
197.998,-13.366
200.493,-17.268
202.959,-9.268
204.579,-13.268
206.633,-2.439
210.307,7.122
212.591,20.488
216.478,-0.878
218.378,8
220.025,2.537
