%!PS-Adobe-2.0 EPSF-2.0
%%Title: Dispersion_10bx1by.eps
%%Creator: gnuplot 4.6 patchlevel 4
%%CreationDate: Mon Jun  5 20:33:26 2017
%%DocumentFonts: (atend)
%%BoundingBox: 50 50 410 302
%%EndComments
%%BeginProlog
/gnudict 256 dict def
gnudict begin
%
% The following true/false flags may be edited by hand if desired.
% The unit line width and grayscale image gamma correction may also be changed.
%
/Color true def
/Blacktext false def
/Solid false def
/Dashlength 1 def
/Landscape false def
/Level1 false def
/Rounded false def
/ClipToBoundingBox false def
/SuppressPDFMark false def
/TransparentPatterns false def
/gnulinewidth 5.000 def
/userlinewidth gnulinewidth def
/Gamma 1.0 def
/BackgroundColor {-1.000 -1.000 -1.000} def
%
/vshift -73 def
/dl1 {
  10.0 Dashlength mul mul
  Rounded { currentlinewidth 0.75 mul sub dup 0 le { pop 0.01 } if } if
} def
/dl2 {
  10.0 Dashlength mul mul
  Rounded { currentlinewidth 0.75 mul add } if
} def
/hpt_ 31.5 def
/vpt_ 31.5 def
/hpt hpt_ def
/vpt vpt_ def
/doclip {
  ClipToBoundingBox {
    newpath 50 50 moveto 410 50 lineto 410 302 lineto 50 302 lineto closepath
    clip
  } if
} def
%
% Gnuplot Prolog Version 4.6 (September 2012)
%
%/SuppressPDFMark true def
%
/M {moveto} bind def
/L {lineto} bind def
/R {rmoveto} bind def
/V {rlineto} bind def
/N {newpath moveto} bind def
/Z {closepath} bind def
/C {setrgbcolor} bind def
/f {rlineto fill} bind def
/g {setgray} bind def
/Gshow {show} def   % May be redefined later in the file to support UTF-8
/vpt2 vpt 2 mul def
/hpt2 hpt 2 mul def
/Lshow {currentpoint stroke M 0 vshift R 
	Blacktext {gsave 0 setgray show grestore} {show} ifelse} def
/Rshow {currentpoint stroke M dup stringwidth pop neg vshift R
	Blacktext {gsave 0 setgray show grestore} {show} ifelse} def
/Cshow {currentpoint stroke M dup stringwidth pop -2 div vshift R 
	Blacktext {gsave 0 setgray show grestore} {show} ifelse} def
/UP {dup vpt_ mul /vpt exch def hpt_ mul /hpt exch def
  /hpt2 hpt 2 mul def /vpt2 vpt 2 mul def} def
/DL {Color {setrgbcolor Solid {pop []} if 0 setdash}
 {pop pop pop 0 setgray Solid {pop []} if 0 setdash} ifelse} def
/BL {stroke userlinewidth 2 mul setlinewidth
	Rounded {1 setlinejoin 1 setlinecap} if} def
/AL {stroke userlinewidth 2 div setlinewidth
	Rounded {1 setlinejoin 1 setlinecap} if} def
/UL {dup gnulinewidth mul /userlinewidth exch def
	dup 1 lt {pop 1} if 10 mul /udl exch def} def
/PL {stroke userlinewidth setlinewidth
	Rounded {1 setlinejoin 1 setlinecap} if} def
3.8 setmiterlimit
% Default Line colors
/LCw {1 1 1} def
/LCb {0 0 0} def
/LCa {0 0 0} def
/LC0 {1 0 0} def
/LC1 {0 1 0} def
/LC2 {0 0 1} def
/LC3 {1 0 1} def
/LC4 {0 1 1} def
/LC5 {1 1 0} def
/LC6 {0 0 0} def
/LC7 {1 0.3 0} def
/LC8 {0.5 0.5 0.5} def
% Default Line Types
/LTw {PL [] 1 setgray} def
/LTb {BL [] LCb DL} def
/LTa {AL [1 udl mul 2 udl mul] 0 setdash LCa setrgbcolor} def
/LT0 {PL [] LC0 DL} def
/LT1 {PL [4 dl1 2 dl2] LC1 DL} def
/LT2 {PL [2 dl1 3 dl2] LC2 DL} def
/LT3 {PL [1 dl1 1.5 dl2] LC3 DL} def
/LT4 {PL [6 dl1 2 dl2 1 dl1 2 dl2] LC4 DL} def
/LT5 {PL [3 dl1 3 dl2 1 dl1 3 dl2] LC5 DL} def
/LT6 {PL [2 dl1 2 dl2 2 dl1 6 dl2] LC6 DL} def
/LT7 {PL [1 dl1 2 dl2 6 dl1 2 dl2 1 dl1 2 dl2] LC7 DL} def
/LT8 {PL [2 dl1 2 dl2 2 dl1 2 dl2 2 dl1 2 dl2 2 dl1 4 dl2] LC8 DL} def
/Pnt {stroke [] 0 setdash gsave 1 setlinecap M 0 0 V stroke grestore} def
/Dia {stroke [] 0 setdash 2 copy vpt add M
  hpt neg vpt neg V hpt vpt neg V
  hpt vpt V hpt neg vpt V closepath stroke
  Pnt} def
/Pls {stroke [] 0 setdash vpt sub M 0 vpt2 V
  currentpoint stroke M
  hpt neg vpt neg R hpt2 0 V stroke
 } def
/Box {stroke [] 0 setdash 2 copy exch hpt sub exch vpt add M
  0 vpt2 neg V hpt2 0 V 0 vpt2 V
  hpt2 neg 0 V closepath stroke
  Pnt} def
/Crs {stroke [] 0 setdash exch hpt sub exch vpt add M
  hpt2 vpt2 neg V currentpoint stroke M
  hpt2 neg 0 R hpt2 vpt2 V stroke} def
/TriU {stroke [] 0 setdash 2 copy vpt 1.12 mul add M
  hpt neg vpt -1.62 mul V
  hpt 2 mul 0 V
  hpt neg vpt 1.62 mul V closepath stroke
  Pnt} def
/Star {2 copy Pls Crs} def
/BoxF {stroke [] 0 setdash exch hpt sub exch vpt add M
  0 vpt2 neg V hpt2 0 V 0 vpt2 V
  hpt2 neg 0 V closepath fill} def
/TriUF {stroke [] 0 setdash vpt 1.12 mul add M
  hpt neg vpt -1.62 mul V
  hpt 2 mul 0 V
  hpt neg vpt 1.62 mul V closepath fill} def
/TriD {stroke [] 0 setdash 2 copy vpt 1.12 mul sub M
  hpt neg vpt 1.62 mul V
  hpt 2 mul 0 V
  hpt neg vpt -1.62 mul V closepath stroke
  Pnt} def
/TriDF {stroke [] 0 setdash vpt 1.12 mul sub M
  hpt neg vpt 1.62 mul V
  hpt 2 mul 0 V
  hpt neg vpt -1.62 mul V closepath fill} def
/DiaF {stroke [] 0 setdash vpt add M
  hpt neg vpt neg V hpt vpt neg V
  hpt vpt V hpt neg vpt V closepath fill} def
/Pent {stroke [] 0 setdash 2 copy gsave
  translate 0 hpt M 4 {72 rotate 0 hpt L} repeat
  closepath stroke grestore Pnt} def
/PentF {stroke [] 0 setdash gsave
  translate 0 hpt M 4 {72 rotate 0 hpt L} repeat
  closepath fill grestore} def
/Circle {stroke [] 0 setdash 2 copy
  hpt 0 360 arc stroke Pnt} def
/CircleF {stroke [] 0 setdash hpt 0 360 arc fill} def
/C0 {BL [] 0 setdash 2 copy moveto vpt 90 450 arc} bind def
/C1 {BL [] 0 setdash 2 copy moveto
	2 copy vpt 0 90 arc closepath fill
	vpt 0 360 arc closepath} bind def
/C2 {BL [] 0 setdash 2 copy moveto
	2 copy vpt 90 180 arc closepath fill
	vpt 0 360 arc closepath} bind def
/C3 {BL [] 0 setdash 2 copy moveto
	2 copy vpt 0 180 arc closepath fill
	vpt 0 360 arc closepath} bind def
/C4 {BL [] 0 setdash 2 copy moveto
	2 copy vpt 180 270 arc closepath fill
	vpt 0 360 arc closepath} bind def
/C5 {BL [] 0 setdash 2 copy moveto
	2 copy vpt 0 90 arc
	2 copy moveto
	2 copy vpt 180 270 arc closepath fill
	vpt 0 360 arc} bind def
/C6 {BL [] 0 setdash 2 copy moveto
	2 copy vpt 90 270 arc closepath fill
	vpt 0 360 arc closepath} bind def
/C7 {BL [] 0 setdash 2 copy moveto
	2 copy vpt 0 270 arc closepath fill
	vpt 0 360 arc closepath} bind def
/C8 {BL [] 0 setdash 2 copy moveto
	2 copy vpt 270 360 arc closepath fill
	vpt 0 360 arc closepath} bind def
/C9 {BL [] 0 setdash 2 copy moveto
	2 copy vpt 270 450 arc closepath fill
	vpt 0 360 arc closepath} bind def
/C10 {BL [] 0 setdash 2 copy 2 copy moveto vpt 270 360 arc closepath fill
	2 copy moveto
	2 copy vpt 90 180 arc closepath fill
	vpt 0 360 arc closepath} bind def
/C11 {BL [] 0 setdash 2 copy moveto
	2 copy vpt 0 180 arc closepath fill
	2 copy moveto
	2 copy vpt 270 360 arc closepath fill
	vpt 0 360 arc closepath} bind def
/C12 {BL [] 0 setdash 2 copy moveto
	2 copy vpt 180 360 arc closepath fill
	vpt 0 360 arc closepath} bind def
/C13 {BL [] 0 setdash 2 copy moveto
	2 copy vpt 0 90 arc closepath fill
	2 copy moveto
	2 copy vpt 180 360 arc closepath fill
	vpt 0 360 arc closepath} bind def
/C14 {BL [] 0 setdash 2 copy moveto
	2 copy vpt 90 360 arc closepath fill
	vpt 0 360 arc} bind def
/C15 {BL [] 0 setdash 2 copy vpt 0 360 arc closepath fill
	vpt 0 360 arc closepath} bind def
/Rec {newpath 4 2 roll moveto 1 index 0 rlineto 0 exch rlineto
	neg 0 rlineto closepath} bind def
/Square {dup Rec} bind def
/Bsquare {vpt sub exch vpt sub exch vpt2 Square} bind def
/S0 {BL [] 0 setdash 2 copy moveto 0 vpt rlineto BL Bsquare} bind def
/S1 {BL [] 0 setdash 2 copy vpt Square fill Bsquare} bind def
/S2 {BL [] 0 setdash 2 copy exch vpt sub exch vpt Square fill Bsquare} bind def
/S3 {BL [] 0 setdash 2 copy exch vpt sub exch vpt2 vpt Rec fill Bsquare} bind def
/S4 {BL [] 0 setdash 2 copy exch vpt sub exch vpt sub vpt Square fill Bsquare} bind def
/S5 {BL [] 0 setdash 2 copy 2 copy vpt Square fill
	exch vpt sub exch vpt sub vpt Square fill Bsquare} bind def
/S6 {BL [] 0 setdash 2 copy exch vpt sub exch vpt sub vpt vpt2 Rec fill Bsquare} bind def
/S7 {BL [] 0 setdash 2 copy exch vpt sub exch vpt sub vpt vpt2 Rec fill
	2 copy vpt Square fill Bsquare} bind def
/S8 {BL [] 0 setdash 2 copy vpt sub vpt Square fill Bsquare} bind def
/S9 {BL [] 0 setdash 2 copy vpt sub vpt vpt2 Rec fill Bsquare} bind def
/S10 {BL [] 0 setdash 2 copy vpt sub vpt Square fill 2 copy exch vpt sub exch vpt Square fill
	Bsquare} bind def
/S11 {BL [] 0 setdash 2 copy vpt sub vpt Square fill 2 copy exch vpt sub exch vpt2 vpt Rec fill
	Bsquare} bind def
/S12 {BL [] 0 setdash 2 copy exch vpt sub exch vpt sub vpt2 vpt Rec fill Bsquare} bind def
/S13 {BL [] 0 setdash 2 copy exch vpt sub exch vpt sub vpt2 vpt Rec fill
	2 copy vpt Square fill Bsquare} bind def
/S14 {BL [] 0 setdash 2 copy exch vpt sub exch vpt sub vpt2 vpt Rec fill
	2 copy exch vpt sub exch vpt Square fill Bsquare} bind def
/S15 {BL [] 0 setdash 2 copy Bsquare fill Bsquare} bind def
/D0 {gsave translate 45 rotate 0 0 S0 stroke grestore} bind def
/D1 {gsave translate 45 rotate 0 0 S1 stroke grestore} bind def
/D2 {gsave translate 45 rotate 0 0 S2 stroke grestore} bind def
/D3 {gsave translate 45 rotate 0 0 S3 stroke grestore} bind def
/D4 {gsave translate 45 rotate 0 0 S4 stroke grestore} bind def
/D5 {gsave translate 45 rotate 0 0 S5 stroke grestore} bind def
/D6 {gsave translate 45 rotate 0 0 S6 stroke grestore} bind def
/D7 {gsave translate 45 rotate 0 0 S7 stroke grestore} bind def
/D8 {gsave translate 45 rotate 0 0 S8 stroke grestore} bind def
/D9 {gsave translate 45 rotate 0 0 S9 stroke grestore} bind def
/D10 {gsave translate 45 rotate 0 0 S10 stroke grestore} bind def
/D11 {gsave translate 45 rotate 0 0 S11 stroke grestore} bind def
/D12 {gsave translate 45 rotate 0 0 S12 stroke grestore} bind def
/D13 {gsave translate 45 rotate 0 0 S13 stroke grestore} bind def
/D14 {gsave translate 45 rotate 0 0 S14 stroke grestore} bind def
/D15 {gsave translate 45 rotate 0 0 S15 stroke grestore} bind def
/DiaE {stroke [] 0 setdash vpt add M
  hpt neg vpt neg V hpt vpt neg V
  hpt vpt V hpt neg vpt V closepath stroke} def
/BoxE {stroke [] 0 setdash exch hpt sub exch vpt add M
  0 vpt2 neg V hpt2 0 V 0 vpt2 V
  hpt2 neg 0 V closepath stroke} def
/TriUE {stroke [] 0 setdash vpt 1.12 mul add M
  hpt neg vpt -1.62 mul V
  hpt 2 mul 0 V
  hpt neg vpt 1.62 mul V closepath stroke} def
/TriDE {stroke [] 0 setdash vpt 1.12 mul sub M
  hpt neg vpt 1.62 mul V
  hpt 2 mul 0 V
  hpt neg vpt -1.62 mul V closepath stroke} def
/PentE {stroke [] 0 setdash gsave
  translate 0 hpt M 4 {72 rotate 0 hpt L} repeat
  closepath stroke grestore} def
/CircE {stroke [] 0 setdash 
  hpt 0 360 arc stroke} def
/Opaque {gsave closepath 1 setgray fill grestore 0 setgray closepath} def
/DiaW {stroke [] 0 setdash vpt add M
  hpt neg vpt neg V hpt vpt neg V
  hpt vpt V hpt neg vpt V Opaque stroke} def
/BoxW {stroke [] 0 setdash exch hpt sub exch vpt add M
  0 vpt2 neg V hpt2 0 V 0 vpt2 V
  hpt2 neg 0 V Opaque stroke} def
/TriUW {stroke [] 0 setdash vpt 1.12 mul add M
  hpt neg vpt -1.62 mul V
  hpt 2 mul 0 V
  hpt neg vpt 1.62 mul V Opaque stroke} def
/TriDW {stroke [] 0 setdash vpt 1.12 mul sub M
  hpt neg vpt 1.62 mul V
  hpt 2 mul 0 V
  hpt neg vpt -1.62 mul V Opaque stroke} def
/PentW {stroke [] 0 setdash gsave
  translate 0 hpt M 4 {72 rotate 0 hpt L} repeat
  Opaque stroke grestore} def
/CircW {stroke [] 0 setdash 
  hpt 0 360 arc Opaque stroke} def
/BoxFill {gsave Rec 1 setgray fill grestore} def
/Density {
  /Fillden exch def
  currentrgbcolor
  /ColB exch def /ColG exch def /ColR exch def
  /ColR ColR Fillden mul Fillden sub 1 add def
  /ColG ColG Fillden mul Fillden sub 1 add def
  /ColB ColB Fillden mul Fillden sub 1 add def
  ColR ColG ColB setrgbcolor} def
/BoxColFill {gsave Rec PolyFill} def
/PolyFill {gsave Density fill grestore grestore} def
/h {rlineto rlineto rlineto gsave closepath fill grestore} bind def
%
% PostScript Level 1 Pattern Fill routine for rectangles
% Usage: x y w h s a XX PatternFill
%	x,y = lower left corner of box to be filled
%	w,h = width and height of box
%	  a = angle in degrees between lines and x-axis
%	 XX = 0/1 for no/yes cross-hatch
%
/PatternFill {gsave /PFa [ 9 2 roll ] def
  PFa 0 get PFa 2 get 2 div add PFa 1 get PFa 3 get 2 div add translate
  PFa 2 get -2 div PFa 3 get -2 div PFa 2 get PFa 3 get Rec
  TransparentPatterns {} {gsave 1 setgray fill grestore} ifelse
  clip
  currentlinewidth 0.5 mul setlinewidth
  /PFs PFa 2 get dup mul PFa 3 get dup mul add sqrt def
  0 0 M PFa 5 get rotate PFs -2 div dup translate
  0 1 PFs PFa 4 get div 1 add floor cvi
	{PFa 4 get mul 0 M 0 PFs V} for
  0 PFa 6 get ne {
	0 1 PFs PFa 4 get div 1 add floor cvi
	{PFa 4 get mul 0 2 1 roll M PFs 0 V} for
 } if
  stroke grestore} def
%
/languagelevel where
 {pop languagelevel} {1} ifelse
 2 lt
	{/InterpretLevel1 true def}
	{/InterpretLevel1 Level1 def}
 ifelse
%
% PostScript level 2 pattern fill definitions
%
/Level2PatternFill {
/Tile8x8 {/PaintType 2 /PatternType 1 /TilingType 1 /BBox [0 0 8 8] /XStep 8 /YStep 8}
	bind def
/KeepColor {currentrgbcolor [/Pattern /DeviceRGB] setcolorspace} bind def
<< Tile8x8
 /PaintProc {0.5 setlinewidth pop 0 0 M 8 8 L 0 8 M 8 0 L stroke} 
>> matrix makepattern
/Pat1 exch def
<< Tile8x8
 /PaintProc {0.5 setlinewidth pop 0 0 M 8 8 L 0 8 M 8 0 L stroke
	0 4 M 4 8 L 8 4 L 4 0 L 0 4 L stroke}
>> matrix makepattern
/Pat2 exch def
<< Tile8x8
 /PaintProc {0.5 setlinewidth pop 0 0 M 0 8 L
	8 8 L 8 0 L 0 0 L fill}
>> matrix makepattern
/Pat3 exch def
<< Tile8x8
 /PaintProc {0.5 setlinewidth pop -4 8 M 8 -4 L
	0 12 M 12 0 L stroke}
>> matrix makepattern
/Pat4 exch def
<< Tile8x8
 /PaintProc {0.5 setlinewidth pop -4 0 M 8 12 L
	0 -4 M 12 8 L stroke}
>> matrix makepattern
/Pat5 exch def
<< Tile8x8
 /PaintProc {0.5 setlinewidth pop -2 8 M 4 -4 L
	0 12 M 8 -4 L 4 12 M 10 0 L stroke}
>> matrix makepattern
/Pat6 exch def
<< Tile8x8
 /PaintProc {0.5 setlinewidth pop -2 0 M 4 12 L
	0 -4 M 8 12 L 4 -4 M 10 8 L stroke}
>> matrix makepattern
/Pat7 exch def
<< Tile8x8
 /PaintProc {0.5 setlinewidth pop 8 -2 M -4 4 L
	12 0 M -4 8 L 12 4 M 0 10 L stroke}
>> matrix makepattern
/Pat8 exch def
<< Tile8x8
 /PaintProc {0.5 setlinewidth pop 0 -2 M 12 4 L
	-4 0 M 12 8 L -4 4 M 8 10 L stroke}
>> matrix makepattern
/Pat9 exch def
/Pattern1 {PatternBgnd KeepColor Pat1 setpattern} bind def
/Pattern2 {PatternBgnd KeepColor Pat2 setpattern} bind def
/Pattern3 {PatternBgnd KeepColor Pat3 setpattern} bind def
/Pattern4 {PatternBgnd KeepColor Landscape {Pat5} {Pat4} ifelse setpattern} bind def
/Pattern5 {PatternBgnd KeepColor Landscape {Pat4} {Pat5} ifelse setpattern} bind def
/Pattern6 {PatternBgnd KeepColor Landscape {Pat9} {Pat6} ifelse setpattern} bind def
/Pattern7 {PatternBgnd KeepColor Landscape {Pat8} {Pat7} ifelse setpattern} bind def
} def
%
%
%End of PostScript Level 2 code
%
/PatternBgnd {
  TransparentPatterns {} {gsave 1 setgray fill grestore} ifelse
} def
%
% Substitute for Level 2 pattern fill codes with
% grayscale if Level 2 support is not selected.
%
/Level1PatternFill {
/Pattern1 {0.250 Density} bind def
/Pattern2 {0.500 Density} bind def
/Pattern3 {0.750 Density} bind def
/Pattern4 {0.125 Density} bind def
/Pattern5 {0.375 Density} bind def
/Pattern6 {0.625 Density} bind def
/Pattern7 {0.875 Density} bind def
} def
%
% Now test for support of Level 2 code
%
Level1 {Level1PatternFill} {Level2PatternFill} ifelse
%
/Symbol-Oblique /Symbol findfont [1 0 .167 1 0 0] makefont
dup length dict begin {1 index /FID eq {pop pop} {def} ifelse} forall
currentdict end definefont pop
/MFshow {
   { dup 5 get 3 ge
     { 5 get 3 eq {gsave} {grestore} ifelse }
     {dup dup 0 get findfont exch 1 get scalefont setfont
     [ currentpoint ] exch dup 2 get 0 exch R dup 5 get 2 ne {dup dup 6
     get exch 4 get {Gshow} {stringwidth pop 0 R} ifelse }if dup 5 get 0 eq
     {dup 3 get {2 get neg 0 exch R pop} {pop aload pop M} ifelse} {dup 5
     get 1 eq {dup 2 get exch dup 3 get exch 6 get stringwidth pop -2 div
     dup 0 R} {dup 6 get stringwidth pop -2 div 0 R 6 get
     show 2 index {aload pop M neg 3 -1 roll neg R pop pop} {pop pop pop
     pop aload pop M} ifelse }ifelse }ifelse }
     ifelse }
   forall} def
/Gswidth {dup type /stringtype eq {stringwidth} {pop (n) stringwidth} ifelse} def
/MFwidth {0 exch { dup 5 get 3 ge { 5 get 3 eq { 0 } { pop } ifelse }
 {dup 3 get{dup dup 0 get findfont exch 1 get scalefont setfont
     6 get Gswidth pop add} {pop} ifelse} ifelse} forall} def
/MLshow { currentpoint stroke M
  0 exch R
  Blacktext {gsave 0 setgray MFshow grestore} {MFshow} ifelse } bind def
/MRshow { currentpoint stroke M
  exch dup MFwidth neg 3 -1 roll R
  Blacktext {gsave 0 setgray MFshow grestore} {MFshow} ifelse } bind def
/MCshow { currentpoint stroke M
  exch dup MFwidth -2 div 3 -1 roll R
  Blacktext {gsave 0 setgray MFshow grestore} {MFshow} ifelse } bind def
/XYsave    { [( ) 1 2 true false 3 ()] } bind def
/XYrestore { [( ) 1 2 true false 4 ()] } bind def
Level1 SuppressPDFMark or 
{} {
/SDict 10 dict def
systemdict /pdfmark known not {
  userdict /pdfmark systemdict /cleartomark get put
} if
SDict begin [
  /Title (Dispersion_10bx1by.eps)
  /Subject (gnuplot plot)
  /Creator (gnuplot 4.6 patchlevel 4)
  /Author (rj-yang)
%  /Producer (gnuplot)
%  /Keywords ()
  /CreationDate (Mon Jun  5 20:33:26 2017)
  /DOCINFO pdfmark
end
} ifelse
end
%%EndProlog
%%Page: 1 1
gnudict begin
gsave
doclip
50 50 translate
0.050 0.050 scale
0 setgray
newpath
(Helvetica) findfont 220 scalefont setfont
BackgroundColor 0 lt 3 1 roll 0 lt exch 0 lt or or not {BackgroundColor C 1.000 0 0 7200.00 5040.00 BoxColFill} if
1.000 UL
LTb
LCb setrgbcolor
1078 704 M
63 0 V
5662 0 R
-63 0 V
stroke
946 704 M
[ [(Helvetica) 220.0 0.0 true true 0 (-0.8)]
] -73.3 MRshow
1.000 UL
LTb
LCb setrgbcolor
1078 1286 M
63 0 V
5662 0 R
-63 0 V
stroke
946 1286 M
[ [(Helvetica) 220.0 0.0 true true 0 (-0.6)]
] -73.3 MRshow
1.000 UL
LTb
LCb setrgbcolor
1078 1867 M
63 0 V
5662 0 R
-63 0 V
stroke
946 1867 M
[ [(Helvetica) 220.0 0.0 true true 0 (-0.4)]
] -73.3 MRshow
1.000 UL
LTb
LCb setrgbcolor
1078 2449 M
63 0 V
5662 0 R
-63 0 V
stroke
946 2449 M
[ [(Helvetica) 220.0 0.0 true true 0 (-0.2)]
] -73.3 MRshow
1.000 UL
LTb
LCb setrgbcolor
1078 3030 M
63 0 V
5662 0 R
-63 0 V
stroke
946 3030 M
[ [(Helvetica) 220.0 0.0 true true 0 ( 0)]
] -73.3 MRshow
1.000 UL
LTb
LCb setrgbcolor
1078 3612 M
63 0 V
5662 0 R
-63 0 V
stroke
946 3612 M
[ [(Helvetica) 220.0 0.0 true true 0 ( 0.2)]
] -73.3 MRshow
1.000 UL
LTb
LCb setrgbcolor
1078 4193 M
63 0 V
5662 0 R
-63 0 V
stroke
946 4193 M
[ [(Helvetica) 220.0 0.0 true true 0 ( 0.4)]
] -73.3 MRshow
1.000 UL
LTb
LCb setrgbcolor
1078 4775 M
63 0 V
5662 0 R
-63 0 V
stroke
946 4775 M
[ [(Helvetica) 220.0 0.0 true true 0 ( 0.6)]
] -73.3 MRshow
1.000 UL
LTb
LCb setrgbcolor
1078 704 M
0 63 V
0 4008 R
0 -63 V
stroke
1078 484 M
[ [(Helvetica) 220.0 0.0 true true 0 ( 0)]
] -73.3 MCshow
1.000 UL
LTb
LCb setrgbcolor
1714 704 M
0 63 V
0 4008 R
0 -63 V
stroke
1714 484 M
[ [(Helvetica) 220.0 0.0 true true 0 ( 10)]
] -73.3 MCshow
1.000 UL
LTb
LCb setrgbcolor
2350 704 M
0 63 V
0 4008 R
0 -63 V
stroke
2350 484 M
[ [(Helvetica) 220.0 0.0 true true 0 ( 20)]
] -73.3 MCshow
1.000 UL
LTb
LCb setrgbcolor
2986 704 M
0 63 V
0 4008 R
0 -63 V
stroke
2986 484 M
[ [(Helvetica) 220.0 0.0 true true 0 ( 30)]
] -73.3 MCshow
1.000 UL
LTb
LCb setrgbcolor
3622 704 M
0 63 V
0 4008 R
0 -63 V
stroke
3622 484 M
[ [(Helvetica) 220.0 0.0 true true 0 ( 40)]
] -73.3 MCshow
1.000 UL
LTb
LCb setrgbcolor
4259 704 M
0 63 V
0 4008 R
0 -63 V
stroke
4259 484 M
[ [(Helvetica) 220.0 0.0 true true 0 ( 50)]
] -73.3 MCshow
1.000 UL
LTb
LCb setrgbcolor
4895 704 M
0 63 V
0 4008 R
0 -63 V
stroke
4895 484 M
[ [(Helvetica) 220.0 0.0 true true 0 ( 60)]
] -73.3 MCshow
1.000 UL
LTb
LCb setrgbcolor
5531 704 M
0 63 V
0 4008 R
0 -63 V
stroke
5531 484 M
[ [(Helvetica) 220.0 0.0 true true 0 ( 70)]
] -73.3 MCshow
1.000 UL
LTb
LCb setrgbcolor
6167 704 M
0 63 V
0 4008 R
0 -63 V
stroke
6167 484 M
[ [(Helvetica) 220.0 0.0 true true 0 ( 80)]
] -73.3 MCshow
1.000 UL
LTb
LCb setrgbcolor
6803 704 M
0 63 V
0 4008 R
0 -63 V
stroke
6803 484 M
[ [(Helvetica) 220.0 0.0 true true 0 ( 90)]
] -73.3 MCshow
1.000 UL
LTb
LCb setrgbcolor
1.000 UL
LTb
LCb setrgbcolor
1078 4775 N
0 -4071 V
5725 0 V
0 4071 V
-5725 0 V
Z stroke
LCb setrgbcolor
176 2739 M
currentpoint gsave translate -270 rotate 0 0 moveto
[ [(Symbol) 220.0 0.0 true true 0 (h)]
[(Helvetica) 220.0 0.0 true true 0 ( [m])]
] -73.3 MCshow
grestore
LTb
LCb setrgbcolor
3940 154 M
[ [(Italic) 220.0 0.0 true true 0 (s)]
[(Helvetica) 220.0 0.0 true true 0 ( [m])]
] -73.3 MCshow
LTb
1.000 UP
1.000 UL
LTb
LCb setrgbcolor
% Begin plot #1
1.500 UP
3.000 UL
LT0
0.00 1.00 0.00 C LCb setrgbcolor
1342 4547 M
[ [(Symbol) 220.0 0.0 true true 0 (h)]
[(Italic) 176.0 -66.0 true true 0 (x)]
] -51.3 MRshow
LT0
0.00 1.00 0.00 C 1474 4547 M
591 0 V
1078 3017 M
16 1 V
16 2 V
59 14 V
6 2 V
6 2 V
3 2 V
16 8 V
45 22 V
10 6 V
4 1 V
8 5 V
13 6 V
2 1 V
3 -1 V
9 -2 V
19 0 V
19 13 V
13 13 V
26 47 V
25 89 V
6 28 V
7 28 V
32 222 V
31 386 V
31 446 V
8 120 V
2 31 V
3 37 V
2 36 V
5 76 V
7 48 V
6 -41 V
1 -13 V
13 -185 V
18 -235 V
25 -295 V
26 -195 V
13 -76 V
8 -46 V
10 -57 V
7 -24 V
6 1 V
1 2 V
48 95 V
7 2 V
6 -18 V
2 -7 V
8 -39 V
8 -33 V
9 -39 V
8 -36 V
95 -423 V
131 -577 V
6 -18 V
7 1 V
1 3 V
9 15 V
7 13 V
30 52 V
2 4 V
6 -1 V
6 -23 V
10 -54 V
9 -45 V
13 -74 V
26 -191 V
25 -291 V
14 -184 V
8 -109 V
9 -122 V
1 -13 V
6 -39 V
7 52 V
0 6 V
2 39 V
3 39 V
21 331 V
38 581 V
43 505 V
42 173 V
49 4 V
3 -1 V
2 0 V
2 -1 V
53 -25 V
39 -18 V
20 -9 V
8 -4 V
10 -5 V
6 -2 V
7 -2 V
1 0 V
8 -2 V
9 -2 V
28 -7 V
15 -3 V
16 -4 V
16 -3 V
4 -1 V
6 -1 V
6 -1 V
11 0 V
stroke 2656 3030 M
4 0 V
6 0 V
6 0 V
10 0 V
7 0 V
55 0 V
31 0 V
21 0 V
8 0 V
6 0 V
8 0 V
2 0 V
3 0 V
6 0 V
6 0 V
7 0 V
1 0 V
61 0 V
8 0 V
9 0 V
7 0 V
6 0 V
1 0 V
26 0 V
19 0 V
8 0 V
6 0 V
8 0 V
3 0 V
2 0 V
7 0 V
6 0 V
6 0 V
1 0 V
34 0 V
8 0 V
10 0 V
7 0 V
6 0 V
3 0 V
50 0 V
6 0 V
7 0 V
3 0 V
18 0 V
14 0 V
8 0 V
10 0 V
6 0 V
7 0 V
3 0 V
20 0 V
8 0 V
10 0 V
3 0 V
2 0 V
7 0 V
6 0 V
6 0 V
2 0 V
60 0 V
8 0 V
10 0 V
6 0 V
7 0 V
1 0 V
13 0 V
54 0 V
2 0 V
3 0 V
42 0 V
8 0 V
16 0 V
6 0 V
6 0 V
1 0 V
18 0 V
26 0 V
17 0 V
8 0 V
9 0 V
7 0 V
6 0 V
1 0 V
17 0 V
25 0 V
19 0 V
31 0 V
8 0 V
40 0 V
2 0 V
1 0 V
49 0 V
30 0 V
18 0 V
1 0 V
2 0 V
3 0 V
29 0 V
32 0 V
58 0 V
29 0 V
7 0 V
60 0 V
stroke 4087 3030 M
27 0 V
2 0 V
3 0 V
1 0 V
17 0 V
32 0 V
22 0 V
35 0 V
115 0 V
18 0 V
1 0 V
7 0 V
6 0 V
48 0 V
8 0 V
9 0 V
8 0 V
10 0 V
6 0 V
6 0 V
2 0 V
81 0 V
6 0 V
7 0 V
1 0 V
37 0 V
14 0 V
31 0 V
6 0 V
6 0 V
1 0 V
82 0 V
6 0 V
7 0 V
1 0 V
45 0 V
43 0 V
6 0 V
6 0 V
2 0 V
54 0 V
14 0 V
13 0 V
6 0 V
7 0 V
1 0 V
30 0 V
13 0 V
7 0 V
6 0 V
1 0 V
19 0 V
50 0 V
6 0 V
7 0 V
1 0 V
25 0 V
3 0 V
3 0 V
7 0 V
19 0 V
7 0 V
6 0 V
1 0 V
17 0 V
7 0 V
8 0 V
69 0 V
6 0 V
6 0 V
2 0 V
107 0 V
6 0 V
6 0 V
2 0 V
27 0 V
19 -11 V
20 -33 V
41 -94 V
6 -16 V
6 -21 V
1 -5 V
68 -254 V
8 -28 V
7 -27 V
18 -69 V
6 -18 V
7 -8 V
1 0 V
26 -9 V
2 -1 V
2 -1 V
8 -3 V
19 -7 V
7 4 V
6 14 V
1 5 V
14 45 V
55 174 V
6 18 V
7 12 V
1 2 V
25 39 V
3 5 V
stroke 5817 2743 M
3 5 V
6 10 V
20 31 V
7 8 V
6 5 V
1 0 V
17 8 V
7 4 V
8 4 V
65 31 V
20 2 V
19 -10 V
28 -26 V
7 -2 V
6 3 V
1 1 V
27 27 V
20 7 V
19 -17 V
16 -22 V
13 -20 V
6 -10 V
6 -13 V
1 -3 V
23 -51 V
9 -19 V
9 -22 V
54 -121 V
6 -17 V
6 -25 V
2 -6 V
6497 1410 L
26 -115 V
7 -33 V
7 -33 V
11 -47 V
6 -28 V
3 -14 V
3 -15 V
20 -87 V
14 18 V
14 179 V
8 140 V
18 341 V
7 114 V
3 57 V
3 58 V
18 330 V
15 218 V
16 132 V
6 42 V
29 183 V
18 111 V
5 33 V
4 28 V
27 170 V
13 81 V
5 31 V
1078 3017 Pnt
1094 3018 Pnt
1110 3020 Pnt
1169 3034 Pnt
1175 3036 Pnt
1181 3038 Pnt
1184 3040 Pnt
1200 3048 Pnt
1245 3070 Pnt
1255 3076 Pnt
1259 3077 Pnt
1267 3082 Pnt
1280 3088 Pnt
1282 3089 Pnt
1285 3088 Pnt
1294 3086 Pnt
1313 3086 Pnt
1332 3099 Pnt
1345 3112 Pnt
1371 3159 Pnt
1396 3248 Pnt
1402 3276 Pnt
1409 3304 Pnt
1441 3526 Pnt
1472 3912 Pnt
1503 4358 Pnt
1511 4478 Pnt
1513 4509 Pnt
1516 4546 Pnt
1518 4582 Pnt
1523 4658 Pnt
1530 4706 Pnt
1536 4665 Pnt
1537 4652 Pnt
1550 4467 Pnt
1568 4232 Pnt
1593 3937 Pnt
1619 3742 Pnt
1632 3666 Pnt
1640 3620 Pnt
1650 3563 Pnt
1657 3539 Pnt
1663 3540 Pnt
1664 3542 Pnt
1712 3637 Pnt
1719 3639 Pnt
1725 3621 Pnt
1727 3614 Pnt
1735 3575 Pnt
1743 3542 Pnt
1752 3503 Pnt
1760 3467 Pnt
1855 3044 Pnt
1986 2467 Pnt
1992 2449 Pnt
1999 2450 Pnt
2000 2453 Pnt
2009 2468 Pnt
2016 2481 Pnt
2046 2533 Pnt
2048 2537 Pnt
2054 2536 Pnt
2060 2513 Pnt
2070 2459 Pnt
2079 2414 Pnt
2092 2340 Pnt
2118 2149 Pnt
2143 1858 Pnt
2157 1674 Pnt
2165 1565 Pnt
2174 1443 Pnt
2175 1430 Pnt
2181 1391 Pnt
2188 1443 Pnt
2188 1449 Pnt
2190 1488 Pnt
2193 1527 Pnt
2214 1858 Pnt
2252 2439 Pnt
2295 2944 Pnt
2337 3117 Pnt
2386 3121 Pnt
2389 3120 Pnt
2391 3120 Pnt
2393 3119 Pnt
2446 3094 Pnt
2485 3076 Pnt
2505 3067 Pnt
2513 3063 Pnt
2523 3058 Pnt
2529 3056 Pnt
2536 3054 Pnt
2537 3054 Pnt
2545 3052 Pnt
2554 3050 Pnt
2582 3043 Pnt
2597 3040 Pnt
2613 3036 Pnt
2629 3033 Pnt
2633 3032 Pnt
2639 3031 Pnt
2645 3030 Pnt
2656 3030 Pnt
2660 3030 Pnt
2666 3030 Pnt
2672 3030 Pnt
2682 3030 Pnt
2689 3030 Pnt
2744 3030 Pnt
2775 3030 Pnt
2796 3030 Pnt
2804 3030 Pnt
2810 3030 Pnt
2818 3030 Pnt
2820 3030 Pnt
2823 3030 Pnt
2829 3030 Pnt
2835 3030 Pnt
2842 3030 Pnt
2843 3030 Pnt
2904 3030 Pnt
2912 3030 Pnt
2921 3030 Pnt
2928 3030 Pnt
2934 3030 Pnt
2935 3030 Pnt
2961 3030 Pnt
2980 3030 Pnt
2988 3030 Pnt
2994 3030 Pnt
3002 3030 Pnt
3005 3030 Pnt
3007 3030 Pnt
3014 3030 Pnt
3020 3030 Pnt
3026 3030 Pnt
3027 3030 Pnt
3061 3030 Pnt
3069 3030 Pnt
3079 3030 Pnt
3086 3030 Pnt
3092 3030 Pnt
3095 3030 Pnt
3145 3030 Pnt
3151 3030 Pnt
3158 3030 Pnt
3161 3030 Pnt
3179 3030 Pnt
3193 3030 Pnt
3201 3030 Pnt
3211 3030 Pnt
3217 3030 Pnt
3224 3030 Pnt
3227 3030 Pnt
3247 3030 Pnt
3255 3030 Pnt
3265 3030 Pnt
3268 3030 Pnt
3270 3030 Pnt
3277 3030 Pnt
3283 3030 Pnt
3289 3030 Pnt
3291 3030 Pnt
3351 3030 Pnt
3359 3030 Pnt
3369 3030 Pnt
3375 3030 Pnt
3382 3030 Pnt
3383 3030 Pnt
3396 3030 Pnt
3450 3030 Pnt
3452 3030 Pnt
3455 3030 Pnt
3497 3030 Pnt
3505 3030 Pnt
3521 3030 Pnt
3527 3030 Pnt
3533 3030 Pnt
3534 3030 Pnt
3552 3030 Pnt
3578 3030 Pnt
3595 3030 Pnt
3603 3030 Pnt
3612 3030 Pnt
3619 3030 Pnt
3625 3030 Pnt
3626 3030 Pnt
3643 3030 Pnt
3668 3030 Pnt
3687 3030 Pnt
3718 3030 Pnt
3726 3030 Pnt
3766 3030 Pnt
3768 3030 Pnt
3769 3030 Pnt
3818 3030 Pnt
3848 3030 Pnt
3866 3030 Pnt
3867 3030 Pnt
3869 3030 Pnt
3872 3030 Pnt
3901 3030 Pnt
3933 3030 Pnt
3991 3030 Pnt
4020 3030 Pnt
4027 3030 Pnt
4087 3030 Pnt
4114 3030 Pnt
4116 3030 Pnt
4119 3030 Pnt
4120 3030 Pnt
4137 3030 Pnt
4169 3030 Pnt
4191 3030 Pnt
4226 3030 Pnt
4341 3030 Pnt
4359 3030 Pnt
4360 3030 Pnt
4367 3030 Pnt
4373 3030 Pnt
4421 3030 Pnt
4429 3030 Pnt
4438 3030 Pnt
4446 3030 Pnt
4456 3030 Pnt
4462 3030 Pnt
4468 3030 Pnt
4470 3030 Pnt
4551 3030 Pnt
4557 3030 Pnt
4564 3030 Pnt
4565 3030 Pnt
4602 3030 Pnt
4616 3030 Pnt
4647 3030 Pnt
4653 3030 Pnt
4659 3030 Pnt
4660 3030 Pnt
4742 3030 Pnt
4748 3030 Pnt
4755 3030 Pnt
4756 3030 Pnt
4801 3030 Pnt
4844 3030 Pnt
4850 3030 Pnt
4856 3030 Pnt
4858 3030 Pnt
4912 3030 Pnt
4926 3030 Pnt
4939 3030 Pnt
4945 3030 Pnt
4952 3030 Pnt
4953 3030 Pnt
4983 3030 Pnt
4996 3030 Pnt
5003 3030 Pnt
5009 3030 Pnt
5010 3030 Pnt
5029 3030 Pnt
5079 3030 Pnt
5085 3030 Pnt
5092 3030 Pnt
5093 3030 Pnt
5118 3030 Pnt
5121 3030 Pnt
5124 3030 Pnt
5131 3030 Pnt
5150 3030 Pnt
5157 3030 Pnt
5163 3030 Pnt
5164 3030 Pnt
5181 3030 Pnt
5188 3030 Pnt
5196 3030 Pnt
5265 3030 Pnt
5271 3030 Pnt
5277 3030 Pnt
5279 3030 Pnt
5386 3030 Pnt
5392 3030 Pnt
5398 3030 Pnt
5400 3030 Pnt
5427 3030 Pnt
5446 3019 Pnt
5466 2986 Pnt
5507 2892 Pnt
5513 2876 Pnt
5519 2855 Pnt
5520 2850 Pnt
5588 2596 Pnt
5596 2568 Pnt
5603 2541 Pnt
5621 2472 Pnt
5627 2454 Pnt
5634 2446 Pnt
5635 2446 Pnt
5661 2437 Pnt
5663 2436 Pnt
5665 2435 Pnt
5673 2432 Pnt
5692 2425 Pnt
5699 2429 Pnt
5705 2443 Pnt
5706 2448 Pnt
5720 2493 Pnt
5775 2667 Pnt
5781 2685 Pnt
5788 2697 Pnt
5789 2699 Pnt
5814 2738 Pnt
5817 2743 Pnt
5820 2748 Pnt
5826 2758 Pnt
5846 2789 Pnt
5853 2797 Pnt
5859 2802 Pnt
5860 2802 Pnt
5877 2810 Pnt
5884 2814 Pnt
5892 2818 Pnt
5957 2849 Pnt
5977 2851 Pnt
5996 2841 Pnt
6024 2815 Pnt
6031 2813 Pnt
6037 2816 Pnt
6038 2817 Pnt
6065 2844 Pnt
6085 2851 Pnt
6104 2834 Pnt
6120 2812 Pnt
6133 2792 Pnt
6139 2782 Pnt
6145 2769 Pnt
6146 2766 Pnt
6169 2715 Pnt
6178 2696 Pnt
6187 2674 Pnt
6241 2553 Pnt
6247 2536 Pnt
6253 2511 Pnt
6255 2505 Pnt
6497 1410 Pnt
6523 1295 Pnt
6530 1262 Pnt
6537 1229 Pnt
6548 1182 Pnt
6554 1154 Pnt
6557 1140 Pnt
6560 1125 Pnt
6580 1038 Pnt
6594 1056 Pnt
6608 1235 Pnt
6616 1375 Pnt
6634 1716 Pnt
6641 1830 Pnt
6644 1887 Pnt
6647 1945 Pnt
6665 2275 Pnt
6680 2493 Pnt
6696 2625 Pnt
6702 2667 Pnt
6731 2850 Pnt
6749 2961 Pnt
6754 2994 Pnt
6758 3022 Pnt
6785 3192 Pnt
6798 3273 Pnt
1769 4547 Pnt
% End plot #1
% Begin plot #2
1.500 UP
3.000 UL
LT1
1.00 0.00 0.00 C LCb setrgbcolor
1342 4217 M
[ [(Symbol) 220.0 0.0 true true 0 (h)]
[(Italic) 176.0 -66.0 true true 0 (y)]
] -51.3 MRshow
LT1
1.00 0.00 0.00 C 1474 4217 M
591 0 V
1078 3030 M
16 0 V
16 0 V
59 0 V
6 0 V
6 0 V
3 0 V
16 0 V
45 0 V
10 0 V
4 0 V
8 0 V
13 0 V
2 0 V
3 0 V
9 0 V
19 0 V
19 0 V
13 0 V
26 0 V
25 0 V
6 0 V
7 0 V
32 0 V
31 0 V
31 0 V
8 0 V
2 0 V
3 0 V
2 0 V
5 0 V
7 0 V
6 0 V
1 0 V
13 0 V
18 0 V
25 0 V
26 0 V
13 0 V
8 0 V
10 0 V
7 0 V
6 0 V
1 0 V
48 0 V
7 0 V
6 0 V
2 0 V
8 0 V
8 0 V
9 0 V
8 0 V
95 0 V
131 0 V
6 0 V
7 0 V
1 0 V
9 0 V
7 0 V
30 0 V
2 0 V
6 0 V
6 0 V
10 0 V
9 0 V
13 0 V
26 0 V
25 0 V
14 0 V
8 0 V
9 0 V
1 0 V
6 0 V
7 0 V
2 0 V
3 0 V
21 0 V
38 0 V
43 0 V
42 0 V
49 0 V
3 0 V
2 0 V
2 0 V
53 0 V
39 0 V
20 0 V
8 0 V
10 0 V
6 0 V
7 0 V
1 0 V
8 0 V
9 0 V
28 0 V
15 0 V
16 0 V
16 0 V
4 0 V
6 0 V
6 0 V
11 0 V
4 0 V
stroke 2660 3030 M
6 0 V
6 0 V
10 0 V
7 0 V
55 0 V
31 0 V
21 0 V
8 0 V
6 0 V
8 0 V
2 0 V
3 0 V
6 0 V
6 0 V
7 0 V
1 0 V
61 0 V
8 0 V
9 0 V
7 0 V
6 0 V
1 0 V
26 0 V
19 0 V
8 0 V
6 0 V
8 0 V
3 0 V
2 0 V
7 0 V
6 0 V
6 0 V
1 0 V
34 0 V
8 0 V
10 0 V
7 0 V
6 0 V
3 0 V
50 0 V
6 0 V
7 0 V
3 0 V
18 0 V
14 0 V
8 0 V
10 0 V
6 0 V
7 0 V
3 0 V
20 0 V
8 0 V
10 0 V
3 0 V
2 0 V
7 0 V
6 0 V
6 0 V
2 0 V
60 0 V
8 0 V
10 0 V
6 0 V
7 0 V
1 0 V
13 0 V
54 0 V
2 0 V
3 0 V
42 0 V
8 0 V
16 0 V
6 0 V
6 0 V
1 0 V
18 0 V
26 0 V
17 0 V
8 0 V
9 0 V
7 0 V
6 0 V
1 0 V
17 0 V
25 0 V
19 0 V
31 0 V
8 0 V
40 0 V
2 0 V
1 0 V
49 0 V
30 0 V
18 0 V
1 0 V
2 0 V
3 0 V
29 0 V
32 0 V
58 0 V
29 0 V
7 0 V
60 0 V
27 0 V
stroke 4114 3030 M
2 0 V
3 0 V
1 0 V
17 0 V
32 0 V
22 0 V
35 0 V
115 0 V
18 0 V
1 0 V
7 0 V
6 0 V
48 0 V
8 0 V
9 0 V
8 0 V
10 0 V
6 0 V
6 0 V
2 0 V
81 0 V
6 0 V
7 0 V
1 0 V
37 0 V
14 0 V
31 0 V
6 0 V
6 0 V
1 0 V
82 0 V
6 0 V
7 0 V
1 0 V
45 0 V
43 0 V
6 0 V
6 0 V
2 0 V
54 0 V
14 0 V
13 0 V
6 0 V
7 0 V
1 0 V
30 0 V
13 0 V
7 0 V
6 0 V
1 0 V
19 0 V
50 0 V
6 0 V
7 0 V
1 0 V
25 0 V
3 0 V
3 0 V
7 0 V
19 0 V
7 0 V
6 0 V
1 0 V
17 0 V
7 0 V
8 0 V
69 0 V
6 0 V
6 0 V
2 0 V
107 0 V
6 0 V
6 0 V
2 0 V
27 0 V
19 0 V
20 0 V
41 0 V
6 0 V
6 0 V
1 0 V
68 0 V
8 0 V
7 0 V
18 0 V
6 0 V
7 0 V
1 0 V
26 0 V
2 0 V
2 0 V
8 0 V
19 0 V
7 0 V
6 0 V
1 0 V
14 0 V
55 0 V
6 0 V
7 0 V
1 0 V
25 0 V
3 0 V
3 0 V
stroke 5820 3030 M
6 0 V
20 0 V
7 0 V
6 0 V
1 0 V
17 0 V
7 0 V
8 0 V
65 0 V
20 0 V
19 0 V
28 0 V
7 0 V
6 0 V
1 0 V
27 0 V
20 0 V
19 0 V
16 0 V
13 0 V
6 0 V
6 0 V
1 0 V
23 0 V
9 0 V
9 0 V
54 0 V
6 0 V
6 0 V
2 0 V
242 0 V
26 0 V
7 0 V
7 0 V
11 0 V
6 0 V
3 0 V
3 0 V
20 0 V
14 0 V
14 0 V
8 0 V
18 0 V
7 0 V
3 0 V
3 0 V
18 0 V
15 0 V
16 0 V
6 0 V
29 0 V
18 0 V
5 0 V
4 0 V
27 0 V
13 0 V
5 0 V
1078 3030 Pnt
1094 3030 Pnt
1110 3030 Pnt
1169 3030 Pnt
1175 3030 Pnt
1181 3030 Pnt
1184 3030 Pnt
1200 3030 Pnt
1245 3030 Pnt
1255 3030 Pnt
1259 3030 Pnt
1267 3030 Pnt
1280 3030 Pnt
1282 3030 Pnt
1285 3030 Pnt
1294 3030 Pnt
1313 3030 Pnt
1332 3030 Pnt
1345 3030 Pnt
1371 3030 Pnt
1396 3030 Pnt
1402 3030 Pnt
1409 3030 Pnt
1441 3030 Pnt
1472 3030 Pnt
1503 3030 Pnt
1511 3030 Pnt
1513 3030 Pnt
1516 3030 Pnt
1518 3030 Pnt
1523 3030 Pnt
1530 3030 Pnt
1536 3030 Pnt
1537 3030 Pnt
1550 3030 Pnt
1568 3030 Pnt
1593 3030 Pnt
1619 3030 Pnt
1632 3030 Pnt
1640 3030 Pnt
1650 3030 Pnt
1657 3030 Pnt
1663 3030 Pnt
1664 3030 Pnt
1712 3030 Pnt
1719 3030 Pnt
1725 3030 Pnt
1727 3030 Pnt
1735 3030 Pnt
1743 3030 Pnt
1752 3030 Pnt
1760 3030 Pnt
1855 3030 Pnt
1986 3030 Pnt
1992 3030 Pnt
1999 3030 Pnt
2000 3030 Pnt
2009 3030 Pnt
2016 3030 Pnt
2046 3030 Pnt
2048 3030 Pnt
2054 3030 Pnt
2060 3030 Pnt
2070 3030 Pnt
2079 3030 Pnt
2092 3030 Pnt
2118 3030 Pnt
2143 3030 Pnt
2157 3030 Pnt
2165 3030 Pnt
2174 3030 Pnt
2175 3030 Pnt
2181 3030 Pnt
2188 3030 Pnt
2188 3030 Pnt
2190 3030 Pnt
2193 3030 Pnt
2214 3030 Pnt
2252 3030 Pnt
2295 3030 Pnt
2337 3030 Pnt
2386 3030 Pnt
2389 3030 Pnt
2391 3030 Pnt
2393 3030 Pnt
2446 3030 Pnt
2485 3030 Pnt
2505 3030 Pnt
2513 3030 Pnt
2523 3030 Pnt
2529 3030 Pnt
2536 3030 Pnt
2537 3030 Pnt
2545 3030 Pnt
2554 3030 Pnt
2582 3030 Pnt
2597 3030 Pnt
2613 3030 Pnt
2629 3030 Pnt
2633 3030 Pnt
2639 3030 Pnt
2645 3030 Pnt
2656 3030 Pnt
2660 3030 Pnt
2666 3030 Pnt
2672 3030 Pnt
2682 3030 Pnt
2689 3030 Pnt
2744 3030 Pnt
2775 3030 Pnt
2796 3030 Pnt
2804 3030 Pnt
2810 3030 Pnt
2818 3030 Pnt
2820 3030 Pnt
2823 3030 Pnt
2829 3030 Pnt
2835 3030 Pnt
2842 3030 Pnt
2843 3030 Pnt
2904 3030 Pnt
2912 3030 Pnt
2921 3030 Pnt
2928 3030 Pnt
2934 3030 Pnt
2935 3030 Pnt
2961 3030 Pnt
2980 3030 Pnt
2988 3030 Pnt
2994 3030 Pnt
3002 3030 Pnt
3005 3030 Pnt
3007 3030 Pnt
3014 3030 Pnt
3020 3030 Pnt
3026 3030 Pnt
3027 3030 Pnt
3061 3030 Pnt
3069 3030 Pnt
3079 3030 Pnt
3086 3030 Pnt
3092 3030 Pnt
3095 3030 Pnt
3145 3030 Pnt
3151 3030 Pnt
3158 3030 Pnt
3161 3030 Pnt
3179 3030 Pnt
3193 3030 Pnt
3201 3030 Pnt
3211 3030 Pnt
3217 3030 Pnt
3224 3030 Pnt
3227 3030 Pnt
3247 3030 Pnt
3255 3030 Pnt
3265 3030 Pnt
3268 3030 Pnt
3270 3030 Pnt
3277 3030 Pnt
3283 3030 Pnt
3289 3030 Pnt
3291 3030 Pnt
3351 3030 Pnt
3359 3030 Pnt
3369 3030 Pnt
3375 3030 Pnt
3382 3030 Pnt
3383 3030 Pnt
3396 3030 Pnt
3450 3030 Pnt
3452 3030 Pnt
3455 3030 Pnt
3497 3030 Pnt
3505 3030 Pnt
3521 3030 Pnt
3527 3030 Pnt
3533 3030 Pnt
3534 3030 Pnt
3552 3030 Pnt
3578 3030 Pnt
3595 3030 Pnt
3603 3030 Pnt
3612 3030 Pnt
3619 3030 Pnt
3625 3030 Pnt
3626 3030 Pnt
3643 3030 Pnt
3668 3030 Pnt
3687 3030 Pnt
3718 3030 Pnt
3726 3030 Pnt
3766 3030 Pnt
3768 3030 Pnt
3769 3030 Pnt
3818 3030 Pnt
3848 3030 Pnt
3866 3030 Pnt
3867 3030 Pnt
3869 3030 Pnt
3872 3030 Pnt
3901 3030 Pnt
3933 3030 Pnt
3991 3030 Pnt
4020 3030 Pnt
4027 3030 Pnt
4087 3030 Pnt
4114 3030 Pnt
4116 3030 Pnt
4119 3030 Pnt
4120 3030 Pnt
4137 3030 Pnt
4169 3030 Pnt
4191 3030 Pnt
4226 3030 Pnt
4341 3030 Pnt
4359 3030 Pnt
4360 3030 Pnt
4367 3030 Pnt
4373 3030 Pnt
4421 3030 Pnt
4429 3030 Pnt
4438 3030 Pnt
4446 3030 Pnt
4456 3030 Pnt
4462 3030 Pnt
4468 3030 Pnt
4470 3030 Pnt
4551 3030 Pnt
4557 3030 Pnt
4564 3030 Pnt
4565 3030 Pnt
4602 3030 Pnt
4616 3030 Pnt
4647 3030 Pnt
4653 3030 Pnt
4659 3030 Pnt
4660 3030 Pnt
4742 3030 Pnt
4748 3030 Pnt
4755 3030 Pnt
4756 3030 Pnt
4801 3030 Pnt
4844 3030 Pnt
4850 3030 Pnt
4856 3030 Pnt
4858 3030 Pnt
4912 3030 Pnt
4926 3030 Pnt
4939 3030 Pnt
4945 3030 Pnt
4952 3030 Pnt
4953 3030 Pnt
4983 3030 Pnt
4996 3030 Pnt
5003 3030 Pnt
5009 3030 Pnt
5010 3030 Pnt
5029 3030 Pnt
5079 3030 Pnt
5085 3030 Pnt
5092 3030 Pnt
5093 3030 Pnt
5118 3030 Pnt
5121 3030 Pnt
5124 3030 Pnt
5131 3030 Pnt
5150 3030 Pnt
5157 3030 Pnt
5163 3030 Pnt
5164 3030 Pnt
5181 3030 Pnt
5188 3030 Pnt
5196 3030 Pnt
5265 3030 Pnt
5271 3030 Pnt
5277 3030 Pnt
5279 3030 Pnt
5386 3030 Pnt
5392 3030 Pnt
5398 3030 Pnt
5400 3030 Pnt
5427 3030 Pnt
5446 3030 Pnt
5466 3030 Pnt
5507 3030 Pnt
5513 3030 Pnt
5519 3030 Pnt
5520 3030 Pnt
5588 3030 Pnt
5596 3030 Pnt
5603 3030 Pnt
5621 3030 Pnt
5627 3030 Pnt
5634 3030 Pnt
5635 3030 Pnt
5661 3030 Pnt
5663 3030 Pnt
5665 3030 Pnt
5673 3030 Pnt
5692 3030 Pnt
5699 3030 Pnt
5705 3030 Pnt
5706 3030 Pnt
5720 3030 Pnt
5775 3030 Pnt
5781 3030 Pnt
5788 3030 Pnt
5789 3030 Pnt
5814 3030 Pnt
5817 3030 Pnt
5820 3030 Pnt
5826 3030 Pnt
5846 3030 Pnt
5853 3030 Pnt
5859 3030 Pnt
5860 3030 Pnt
5877 3030 Pnt
5884 3030 Pnt
5892 3030 Pnt
5957 3030 Pnt
5977 3030 Pnt
5996 3030 Pnt
6024 3030 Pnt
6031 3030 Pnt
6037 3030 Pnt
6038 3030 Pnt
6065 3030 Pnt
6085 3030 Pnt
6104 3030 Pnt
6120 3030 Pnt
6133 3030 Pnt
6139 3030 Pnt
6145 3030 Pnt
6146 3030 Pnt
6169 3030 Pnt
6178 3030 Pnt
6187 3030 Pnt
6241 3030 Pnt
6247 3030 Pnt
6253 3030 Pnt
6255 3030 Pnt
6497 3030 Pnt
6523 3030 Pnt
6530 3030 Pnt
6537 3030 Pnt
6548 3030 Pnt
6554 3030 Pnt
6557 3030 Pnt
6560 3030 Pnt
6580 3030 Pnt
6594 3030 Pnt
6608 3030 Pnt
6616 3030 Pnt
6634 3030 Pnt
6641 3030 Pnt
6644 3030 Pnt
6647 3030 Pnt
6665 3030 Pnt
6680 3030 Pnt
6696 3030 Pnt
6702 3030 Pnt
6731 3030 Pnt
6749 3030 Pnt
6754 3030 Pnt
6758 3030 Pnt
6785 3030 Pnt
6798 3030 Pnt
1769 4217 Pnt
% End plot #2
1.000 UL
LTb
LCb setrgbcolor
1078 4775 N
0 -4071 V
5725 0 V
0 4071 V
-5725 0 V
Z stroke
1.000 UP
1.000 UL
LTb
LCb setrgbcolor
stroke
grestore
end
showpage
%%Trailer
%%DocumentFonts: Italic Symbol Helvetica
