.25 5.78323E-4 1.99077E-5 
.5 .0017 1.96313E-5 
1.4231 .0061 1.82742E-5 
1.5225 .0066 1.7799E-5 
1.6219 .0074 1.66811E-5 
1.6687 .0079 1.60081E-5 
1.9183 .0103 1.24237E-5 
2.6211 .017 2.32878E-6 
2.789 .0186 -8.2805E-8 
2.8397 .0191 -8.1077E-7 
2.9785 .0204 -2.8035E-6 
3.1679 .0222 -5.5249E-6 
3.2101 .0225 -6.1557E-6 
3.2523 .0226 -6.8394E-6 
3.4001 -2.963E-10 -9.334E-6 
3.7001 -2.842E-10 -1.4396E-5 
4.0001 -2.738E-10 -1.9459E-5 
4.2001 -2.644E-10 -2.2834E-5 
4.6001 -2.629E-10 -2.9585E-5 
5.0001 -2.674E-10 -3.6336E-5 
5.1001 -2.636E-10 -3.8025E-5 
5.2001 -2.598E-10 -3.9713E-5 
5.7001 -3.319E-10 -4.8172E-5 
6.2001 -4.284E-10 -5.6631E-5 
6.6783 -4.246E-10 -6.4746E-5 
6.8065 -4.237E-10 -6.6921E-5 
6.8401 -4.234E-10 -6.7491E-5 
6.8794 -4.231E-10 -6.8158E-5 
6.9187 -4.228E-10 -6.8826E-5 
7.0001 -4.222E-10 -7.0206E-5 
7.0994 -4.099E-10 -7.3828E-5 
7.1987 -3.755E-10 -8.1491E-5 
7.2134 -3.688E-10 -8.2942E-5 
7.4274 -2.718E-10 -1.0407E-4 
7.6987 -1.487E-10 -1.3085E-4 
8.0987 -2.0994E-9 -1.7039E-4 
8.4987 -6.7472E-9 -2.0993E-4 
8.7119 -9.1932E-9 -2.3104E-4 
8.8401 -1.0663E-8 -2.4373E-4 
8.9987 -1.2483E-8 -2.5944E-4 
9.098 -1.3924E-8 -2.6316E-4 
9.1973 -1.6018E-8 -2.5462E-4 
9.212 -1.6381E-8 -2.5246E-4 
9.9698 -3.5085E-8 -1.4121E-4 
10.0691 -3.694E-8 -1.289E-4 
10.1684 -3.7568E-8 -1.2091E-4 
10.1951 -3.7569E-8 -1.1931E-4 
10.3338 -3.7575E-8 -1.11E-4 
10.4484 -3.758E-8 -1.0414E-4 
10.588 -3.7586E-8 -9.5782E-5 
10.7162 -3.7591E-8 -8.811E-5 
12.2218 -3.7654E-8 2.03484E-6 
14.2753 -3.774E-8 1.24975E-4 
14.3746 -3.7109E-8 1.33066E-4 
14.4739 -3.5232E-8 1.45656E-4 
14.5006 -3.4564E-8 1.49679E-4 
14.6353 -3.1194E-8 1.69985E-4 
14.7498 -2.8329E-8 1.8725E-4 
15.2197 -1.6578E-8 2.58064E-4 
15.2464 -1.591E-8 2.62088E-4 
15.3457 -1.3773E-8 2.7097E-4 
15.445 -1.2268E-8 2.67506E-4 
15.6026 -1.0341E-8 2.52216E-4 
15.7307 -8.7739E-9 2.39787E-4 
15.945 -6.1545E-9 2.19007E-4 
16.345 -1.1888E-9 1.80287E-4 
16.745 6.73934E-9 1.41566E-4 
16.9592 1.22109E-8 1.20855E-4 
17.0873 1.54836E-8 1.08466E-4 
17.2303 1.9134E-8 9.46483E-5 
17.245 1.95093E-8 9.32276E-5 
17.3443 2.14808E-8 8.61482E-5 
17.4436 2.22604E-8 8.38933E-5 
17.4489 2.22693E-8 8.38984E-5 
17.4883 2.23341E-8 8.39354E-5 
17.5276 2.23989E-8 8.39724E-5 
17.8623 2.29502E-8 8.42872E-5 
18.4498 2.3918E-8 8.48397E-5 
19.1248 2.47025E-8 8.55337E-5 
19.7998 2.47902E-8 8.62277E-5 
20.5648 2.44747E-8 8.70823E-5 
20.6041 2.43665E-8 8.7454E-5 
20.6435 2.40752E-8 8.84841E-5 
20.6701 2.3816E-8 8.94069E-5 
21.5041 1.57089E-8 1.18271E-4 
22.1147 9.77423E-9 1.39401E-4 
22.4374 6.63712E-9 1.50571E-4 
22.5519 5.52362E-9 1.54535E-4 
22.7154 3.93506E-9 1.60191E-4 
22.8147 3.02279E-9 1.61272E-4 
22.914 2.19927E-9 1.5764E-4 
22.9287 2.08275E-9 1.56758E-4 
23.0676 9.8117E-10 1.48415E-4 
23.1957 -3.487E-11 1.40721E-4 
23.6467 -3.6103E-9 1.13644E-4 
23.8813 -5.4707E-9 9.95545E-5 
24.1313 -7.453E-9 8.45424E-5 
24.3813 -9.4353E-9 6.95304E-5 
24.4416 -9.9132E-9 6.5911E-5 
24.5416 -1.0697E-8 5.99056E-5 
24.6416 -1.1482E-8 5.39002E-5 
24.8076 -1.28E-8 4.39315E-5 
24.8623 -1.3234E-8 4.06469E-5 
24.9616 -1.3767E-8 3.54182E-5 
25.0609 -1.3781E-8 3.15358E-5 
25.2183 -1.3387E-8 2.63642E-5 
25.3328 -1.31E-8 2.2601E-5 
26.1976 -1.0936E-8 -5.8071E-6 
26.6723 -9.7485E-9 -2.1404E-5 
27.0063 -8.913E-9 -3.2374E-5 
27.1344 -8.5924E-9 -3.6584E-5 
27.2203 -8.3773E-9 -3.9407E-5 
27.346 -8.0629E-9 -4.3535E-5 
27.3853 -7.9645E-9 -4.4827E-5 
27.4247 -7.8661E-9 -4.612E-5 
27.5271 -7.6098E-9 -4.9484E-5 
27.6263 -7.5853E-9 -5.1287E-5 
27.7256 -8.0126E-9 -5.0135E-5 
27.7453 -8.1438E-9 -4.9613E-5 
28.7019 -1.4496E-8 -2.4333E-5 
28.8267 -1.5325E-8 -2.1035E-5 
28.9771 -1.6323E-8 -1.7062E-5 
29.0763 -1.6564E-8 -1.4852E-5 
29.1756 -1.5966E-8 -1.3399E-5 
29.1953 -1.5765E-8 -1.318E-5 
29.5983 -1.1664E-8 -8.7069E-6 
29.9053 -8.5402E-9 -5.3002E-6 
30.0334 -7.2361E-9 -3.878E-6 
30.1233 -6.3209E-9 -2.8798E-6 
30.2477 -5.0556E-9 -1.4998E-6 
30.287 -4.6553E-9 -1.0632E-6 
30.3263 -4.255E-9 -6.2666E-7 
30.4271 -3.2296E-9 4.91644E-7 
30.5263 -2.2933E-9 1.57146E-6 
30.6256 -1.4741E-9 2.57181E-6 
30.6453 -1.3198E-9 2.75957E-6 
31.1804 2.85941E-9 7.84574E-6 
31.295 3.75402E-9 8.9345E-6 
31.4604 5.04539E-9 1.05061E-5 
31.5597 5.64217E-9 1.18205E-5 
31.6591 5.85756E-9 1.3943E-5 
31.7137 5.86723E-9 1.53558E-5 
32.4959 6.00577E-9 3.55841E-5 
32.5953 6.17566E-9 3.72386E-5 
32.6946 6.65844E-9 3.70222E-5 
32.7493 7.01357E-9 3.63867E-5 
33.0253 8.80781E-9 3.31757E-5 
33.2535 1.02917E-8 3.05201E-5 
33.3681 1.10364E-8 2.91875E-5 
33.5314 1.20983E-8 2.72871E-5 
33.6308 1.23281E-8 2.70506E-5 
33.7302 1.17246E-8 2.86636E-5 
33.7848 1.11687E-8 3.00729E-5 
34.1004 7.95695E-9 3.8215E-5 
34.2252 6.68692E-9 4.14347E-5 
34.3855 5.05534E-9 4.5571E-5 
34.4249 4.65505E-9 4.65858E-5 
34.4642 4.25476E-9 4.76006E-5 
34.565 3.22942E-9 5.01999E-5 
34.6642 2.2913E-9 5.14695E-5 
34.7634 1.46596E-9 5.01365E-5 
34.7832 1.31005E-9 4.96144E-5 
35.7378 -6.2237E-9 2.43874E-5 
35.8626 -7.2086E-9 2.10893E-5 
36.015 -8.411E-9 1.7063E-5 
36.1142 -8.975E-9 1.48531E-5 
36.2134 -9.0852E-9 1.34006E-5 
36.2332 -9.0613E-9 1.31814E-5 
36.4442 -8.8052E-9 1.08396E-5 
37.2844 -7.7856E-9 1.51514E-6 
37.3237 -7.7379E-9 1.07858E-6 
37.363 -7.6901E-9 6.42027E-7 
38.0206 -6.8921E-9 -6.6562E-6 
38.1488 -6.7366E-9 -8.0784E-6 
38.3975 -6.4348E-9 -1.0838E-5 
38.4967 -6.4235E-9 -1.175E-5 
38.5959 -6.6315E-9 -1.2262E-5 
38.6157 -6.6951E-9 -1.2323E-5 
38.8917 -7.5833E-9 -1.3174E-5 
39.2963 -8.8855E-9 -1.4422E-5 
39.5679 -9.7596E-9 -1.5259E-5 
39.6927 -1.0161E-8 -1.5644E-5 
39.8421 -1.0642E-8 -1.6104E-5 
39.9413 -1.0787E-8 -1.6674E-5 
40.0406 -1.0582E-8 -1.7788E-5 
40.0603 -1.0507E-8 -1.8066E-5 
40.3253 -9.4972E-9 -2.1794E-5 
40.7113 -8.0262E-9 -2.7224E-5 
41.0203 -6.8486E-9 -3.1571E-5 
41.5053 -5.0005E-9 -3.8392E-5 
41.6334 -4.5121E-9 -4.0195E-5 
42.2643 -2.1077E-9 -4.907E-5 
42.2858 -2.0257E-9 -4.9373E-5 
42.3073 -1.9438E-9 -4.9675E-5 
43.0707 9.6528E-10 -6.0413E-5 
43.5397 2.75264E-9 -6.701E-5 
43.8217 3.82735E-9 -7.0977E-5 
43.8413 3.90229E-9 -7.1254E-5 
43.8807 4.0679E-9 -7.1524E-5 
43.92 4.26583E-9 -7.1226E-5 
44.3867 6.81183E-9 -6.4331E-5 
44.8867 9.53968E-9 -5.6944E-5 
45.7977 1.45102E-8 -4.3483E-5 
46.2477 1.69653E-8 -3.6835E-5 
46.367 1.76156E-8 -3.5074E-5 
47.3044 2.27298E-8 -2.1224E-5 
47.72 2.49976E-8 -1.5083E-5 
47.7594 2.51351E-8 -1.4547E-5 
47.7987 2.5118E-8 -1.4102E-5 
47.8184 2.50709E-8 -1.3901E-5 
48.0924 2.44135E-8 -1.1101E-5 
48.5944 2.32092E-8 -5.9707E-6 
48.9444 2.23696E-8 -2.394E-6 
49.4844 2.10741E-8 3.12431E-6 
51.2977 1.67239E-8 2.1655E-5 
51.5797 1.60474E-8 2.45368E-5 
51.5994 1.6E-8 2.47387E-5 
51.6987 1.57619E-8 2.57529E-5 
51.7979 1.55238E-8 2.67671E-5 
52.5611 1.3693E-8 3.45658E-5 
52.6803 1.3407E-8 3.5784E-5 
52.8156 1.30824E-8 3.71669E-5 
52.9438 1.27749E-8 3.84764E-5 
53.0994 1.24015E-8 4.00674E-5 
53.1987 1.21027E-8 4.12809E-5 
53.2979 1.16847E-8 4.29017E-5 
53.3177 1.15899E-8 4.32658E-5 
54.5994 5.43844E-9 6.68922E-5 
54.6987 5.15939E-9 6.6329E-5 
54.7979 5.2659E-9 6.1064E-5 
54.8177 5.3253E-9 5.95675E-5 
55.3967 7.06608E-9 1.57051E-5 
55.6217 7.74255E-9 -1.3399E-6 
56.0995 9.17908E-9 -3.7536E-5 
56.1987 9.25761E-9 -4.601E-5 
56.298 8.89746E-9 -5.6683E-5 
56.3177 8.78291E-9 -5.9058E-5 
57.5995 1.35029E-9 -2.1315E-4 
57.6987 7.8353E-10 -2.2449E-4 
57.798 2.3336E-10 -2.3458E-4 
57.8177 1.2541E-10 -2.3647E-4 
58.5335 -3.7858E-9 -3.0468E-4 
59.1995 -7.4251E-9 -3.6815E-4 
59.2987 -7.9424E-9 -3.7878E-4 
59.398 -8.4075E-9 -3.9178E-4 
59.4177 -8.4947E-9 -3.9461E-4 
60.2695 -1.2253E-8 -5.1668E-4 
60.4995 -1.3268E-8 -5.4965E-4 
60.6995 -1.415E-8 -5.7831E-4 
60.7987 -1.4648E-8 -5.8834E-4 
60.898 -1.5265E-8 -5.8992E-4 
60.9177 -1.5401E-8 -5.8939E-4 
61.3947 -1.8672E-8 -5.7655E-4 
61.5995 -2.0076E-8 -5.7104E-4 
61.6987 -2.0822E-8 -5.6428E-4 
61.798 -2.1711E-8 -5.494E-4 
61.8177 -2.1904E-8 -5.4564E-4 
62.1067 -2.4723E-8 -4.9068E-4 
62.8995 -3.2457E-8 -3.3993E-4 
62.9987 -3.3293E-8 -3.242E-4 
63.098 -3.3821E-8 -3.1456E-4 
63.1177 -3.3893E-8 -3.1324E-4 
63.5087 -3.532E-8 -2.8703E-4 
63.5587 -3.1263E-8 -2.8368E-4 
63.6088 -1.886E-8 -2.8033E-4 
63.7086 1.40668E-8 -2.7364E-4 
64.0195 1.16658E-7 -2.528E-4 
64.1187 1.48258E-7 -2.4851E-4 
64.218 1.77174E-7 -2.4889E-4 
64.2377 1.82625E-7 -2.4943E-4 
64.5037 2.56031E-7 -2.5671E-4 
64.6187 2.87765E-7 -2.5986E-4 
64.7337 3.19498E-7 -2.63E-4 
65.8195 6.19086E-7 -2.9273E-4 
65.9187 6.55944E-7 -2.9106E-4 
66.018 7.12583E-7 -2.8068E-4 
66.0377 7.25928E-7 -2.7776E-4 
67.7195 1.86199E-6 -2.9484E-5 
67.8187 1.90338E-6 -1.5169E-5 
67.918 1.89292E-6 -1.2687E-6 
67.9377 1.88567E-6 1.48215E-6 
68.3623 1.7299E-6 6.06079E-5 
68.6688 1.61835E-6 1.03242E-4 
68.9752 1.50586E-6 1.45875E-4 
69.6196 1.26911E-6 2.35342E-4 
69.7188 1.2516E-6 2.45544E-4 
69.8181 1.27184E-6 2.48425E-4 
69.8378 1.27965E-6 2.48261E-4 
70.9038 1.70103E-6 2.3938E-4 
71.0188 1.7465E-6 2.38422E-4 
71.1338 1.79197E-6 2.37462E-4 
71.4196 1.90498E-6 2.35078E-4 
71.5188 1.92632E-6 2.36445E-4 
71.6181 1.91169E-6 2.4223E-4 
71.6378 1.9052E-6 2.43827E-4 
72.0437 1.77193E-6 2.76645E-4 
72.0788 1.76016E-6 2.79482E-4 
72.1139 1.7479E-6 2.82319E-4 
72.2286 1.70698E-6 2.91596E-4 
72.5396 1.59608E-6 3.16734E-4 
72.6388 1.54595E-6 3.27743E-4 
72.7381 1.46705E-6 3.44877E-4 
72.7578 1.44858E-6 3.48917E-4 
72.9808 1.24E-6 3.94517E-4 
73.8396 4.36777E-7 5.70121E-4 
73.9388 3.46379E-7 5.86172E-4 
74.0381 2.59898E-7 5.936E-4 
74.0578 2.42985E-7 5.94211E-4 
74.4488 -9.1729E-8 6.06303E-4 
74.4988 -1.0428E-7 6.07851E-4 
74.5489 -5.6046E-8 6.09398E-4 
74.6486 1.00964E-7 6.12485E-4 
74.9596 5.90164E-7 6.22101E-4 
75.0588 7.50622E-7 6.20588E-4 
75.1581 9.21301E-7 6.09948E-4 
75.1778 9.56459E-7 6.0693E-4 
75.4438 1.42986E-6 5.6629E-4 
75.5588 1.63453E-6 5.4872E-4 
75.6738 1.8392E-6 5.3115E-4 
76.7024 3.66988E-6 3.73993E-4 
77.0089 4.21477E-6 3.27097E-4 
77.3153 4.7588E-6 2.80198E-4 
77.7597 5.54965E-6 2.12092E-4 
77.8589 5.6495E-6 1.99727E-4 
77.9581 5.59469E-6 1.92853E-4 
77.9779 5.56842E-6 1.92016E-4 
78.4025 5.00373E-6 1.74029E-4 
78.7089 4.59769E-6 1.60928E-4 
79.0154 4.18805E-6 1.47823E-4 
79.256 3.86762E-6 1.37454E-4 
79.4597 3.59626E-6 1.28673E-4 
79.559 3.4816E-6 1.23769E-4 
79.6582 3.40128E-6 1.17646E-4 
79.678 3.38865E-6 1.1631E-4 
80.032 3.16235E-6 9.23618E-5 
80.169 3.07477E-6 8.30938E-5 
80.316 2.9808E-6 7.31494E-5 
81.1597 2.44142E-6 1.607E-5 
81.259 2.3954E-6 9.25687E-6 
81.3582 2.38385E-6 2.31078E-6 
81.378 2.38497E-6 9.21517E-7 
85.191 2.60014E-6 -2.6723E-4 
85.594 2.62288E-6 -2.9557E-4 
85.709 2.62937E-6 -3.0366E-4 
85.824 2.63586E-6 -3.1174E-4 
85.985 2.64495E-6 -3.2307E-4 
86.084 2.65053E-6 -3.3003E-4 
86.134 2.65156E-6 -3.3354E-4 
86.184 2.64895E-6 -3.3706E-4 
86.4869 2.62197E-6 -3.5836E-4 
86.709 2.49562E-6 -3.89E-4 
86.931 2.16586E-6 -4.5178E-4 
87.053 1.93312E-6 -4.9591E-4 
87.35 1.36628E-6 -6.0337E-4 
87.449 1.17734E-6 -6.3919E-4 
87.499 1.09262E-6 -6.5728E-4 
87.549 1.03014E-6 -6.7537E-4 
87.8365 7.37136E-7 -7.794E-4 
88.074 5.48167E-7 -8.0068E-4 
88.3115 4.47383E-7 -6.9385E-4 
88.418 4.19125E-7 -6.1905E-4 
88.872 2.9866E-7 -3.0017E-4 
89.1478 2.25478E-7 -1.0646E-4 
89.2288 2.03986E-7 -4.9567E-5 
89.299 1.85359E-7 -2.6062E-7 
89.721 7.33846E-8 2.96138E-4 
89.924 1.95202E-8 4.38718E-4 
90.226 -6.0613E-8 6.50833E-4 
90.799 -2.1265E-7 .0011 
91.4774 -5.6393E-7 .0015 
92.1558 -9.9505E-7 .002 
93.4558 -1.4212E-6 .0029 
93.4858 -1.431E-6 .0029 
93.7458 -1.5163E-6 .0031 
94.7458 -1.8441E-6 .0038 
95.8958 -2.2211E-6 .0046 
