%!PS-Adobe-2.0 EPSF-2.0
%%Title: Orbit_DY=2e-5.eps
%%Creator: gnuplot 4.6 patchlevel 4
%%CreationDate: Tue Jun 13 16:12:37 2017
%%DocumentFonts: (atend)
%%BoundingBox: 50 50 410 302
%%EndComments
%%BeginProlog
/gnudict 256 dict def
gnudict begin
%
% The following true/false flags may be edited by hand if desired.
% The unit line width and grayscale image gamma correction may also be changed.
%
/Color true def
/Blacktext false def
/Solid false def
/Dashlength 1 def
/Landscape false def
/Level1 false def
/Rounded false def
/ClipToBoundingBox false def
/SuppressPDFMark false def
/TransparentPatterns false def
/gnulinewidth 5.000 def
/userlinewidth gnulinewidth def
/Gamma 1.0 def
/BackgroundColor {-1.000 -1.000 -1.000} def
%
/vshift -80 def
/dl1 {
  10.0 Dashlength mul mul
  Rounded { currentlinewidth 0.75 mul sub dup 0 le { pop 0.01 } if } if
} def
/dl2 {
  10.0 Dashlength mul mul
  Rounded { currentlinewidth 0.75 mul add } if
} def
/hpt_ 31.5 def
/vpt_ 31.5 def
/hpt hpt_ def
/vpt vpt_ def
/doclip {
  ClipToBoundingBox {
    newpath 50 50 moveto 410 50 lineto 410 302 lineto 50 302 lineto closepath
    clip
  } if
} def
%
% Gnuplot Prolog Version 4.6 (September 2012)
%
%/SuppressPDFMark true def
%
/M {moveto} bind def
/L {lineto} bind def
/R {rmoveto} bind def
/V {rlineto} bind def
/N {newpath moveto} bind def
/Z {closepath} bind def
/C {setrgbcolor} bind def
/f {rlineto fill} bind def
/g {setgray} bind def
/Gshow {show} def   % May be redefined later in the file to support UTF-8
/vpt2 vpt 2 mul def
/hpt2 hpt 2 mul def
/Lshow {currentpoint stroke M 0 vshift R 
	Blacktext {gsave 0 setgray show grestore} {show} ifelse} def
/Rshow {currentpoint stroke M dup stringwidth pop neg vshift R
	Blacktext {gsave 0 setgray show grestore} {show} ifelse} def
/Cshow {currentpoint stroke M dup stringwidth pop -2 div vshift R 
	Blacktext {gsave 0 setgray show grestore} {show} ifelse} def
/UP {dup vpt_ mul /vpt exch def hpt_ mul /hpt exch def
  /hpt2 hpt 2 mul def /vpt2 vpt 2 mul def} def
/DL {Color {setrgbcolor Solid {pop []} if 0 setdash}
 {pop pop pop 0 setgray Solid {pop []} if 0 setdash} ifelse} def
/BL {stroke userlinewidth 2 mul setlinewidth
	Rounded {1 setlinejoin 1 setlinecap} if} def
/AL {stroke userlinewidth 2 div setlinewidth
	Rounded {1 setlinejoin 1 setlinecap} if} def
/UL {dup gnulinewidth mul /userlinewidth exch def
	dup 1 lt {pop 1} if 10 mul /udl exch def} def
/PL {stroke userlinewidth setlinewidth
	Rounded {1 setlinejoin 1 setlinecap} if} def
3.8 setmiterlimit
% Default Line colors
/LCw {1 1 1} def
/LCb {0 0 0} def
/LCa {0 0 0} def
/LC0 {1 0 0} def
/LC1 {0 1 0} def
/LC2 {0 0 1} def
/LC3 {1 0 1} def
/LC4 {0 1 1} def
/LC5 {1 1 0} def
/LC6 {0 0 0} def
/LC7 {1 0.3 0} def
/LC8 {0.5 0.5 0.5} def
% Default Line Types
/LTw {PL [] 1 setgray} def
/LTb {BL [] LCb DL} def
/LTa {AL [1 udl mul 2 udl mul] 0 setdash LCa setrgbcolor} def
/LT0 {PL [] LC0 DL} def
/LT1 {PL [4 dl1 2 dl2] LC1 DL} def
/LT2 {PL [2 dl1 3 dl2] LC2 DL} def
/LT3 {PL [1 dl1 1.5 dl2] LC3 DL} def
/LT4 {PL [6 dl1 2 dl2 1 dl1 2 dl2] LC4 DL} def
/LT5 {PL [3 dl1 3 dl2 1 dl1 3 dl2] LC5 DL} def
/LT6 {PL [2 dl1 2 dl2 2 dl1 6 dl2] LC6 DL} def
/LT7 {PL [1 dl1 2 dl2 6 dl1 2 dl2 1 dl1 2 dl2] LC7 DL} def
/LT8 {PL [2 dl1 2 dl2 2 dl1 2 dl2 2 dl1 2 dl2 2 dl1 4 dl2] LC8 DL} def
/Pnt {stroke [] 0 setdash gsave 1 setlinecap M 0 0 V stroke grestore} def
/Dia {stroke [] 0 setdash 2 copy vpt add M
  hpt neg vpt neg V hpt vpt neg V
  hpt vpt V hpt neg vpt V closepath stroke
  Pnt} def
/Pls {stroke [] 0 setdash vpt sub M 0 vpt2 V
  currentpoint stroke M
  hpt neg vpt neg R hpt2 0 V stroke
 } def
/Box {stroke [] 0 setdash 2 copy exch hpt sub exch vpt add M
  0 vpt2 neg V hpt2 0 V 0 vpt2 V
  hpt2 neg 0 V closepath stroke
  Pnt} def
/Crs {stroke [] 0 setdash exch hpt sub exch vpt add M
  hpt2 vpt2 neg V currentpoint stroke M
  hpt2 neg 0 R hpt2 vpt2 V stroke} def
/TriU {stroke [] 0 setdash 2 copy vpt 1.12 mul add M
  hpt neg vpt -1.62 mul V
  hpt 2 mul 0 V
  hpt neg vpt 1.62 mul V closepath stroke
  Pnt} def
/Star {2 copy Pls Crs} def
/BoxF {stroke [] 0 setdash exch hpt sub exch vpt add M
  0 vpt2 neg V hpt2 0 V 0 vpt2 V
  hpt2 neg 0 V closepath fill} def
/TriUF {stroke [] 0 setdash vpt 1.12 mul add M
  hpt neg vpt -1.62 mul V
  hpt 2 mul 0 V
  hpt neg vpt 1.62 mul V closepath fill} def
/TriD {stroke [] 0 setdash 2 copy vpt 1.12 mul sub M
  hpt neg vpt 1.62 mul V
  hpt 2 mul 0 V
  hpt neg vpt -1.62 mul V closepath stroke
  Pnt} def
/TriDF {stroke [] 0 setdash vpt 1.12 mul sub M
  hpt neg vpt 1.62 mul V
  hpt 2 mul 0 V
  hpt neg vpt -1.62 mul V closepath fill} def
/DiaF {stroke [] 0 setdash vpt add M
  hpt neg vpt neg V hpt vpt neg V
  hpt vpt V hpt neg vpt V closepath fill} def
/Pent {stroke [] 0 setdash 2 copy gsave
  translate 0 hpt M 4 {72 rotate 0 hpt L} repeat
  closepath stroke grestore Pnt} def
/PentF {stroke [] 0 setdash gsave
  translate 0 hpt M 4 {72 rotate 0 hpt L} repeat
  closepath fill grestore} def
/Circle {stroke [] 0 setdash 2 copy
  hpt 0 360 arc stroke Pnt} def
/CircleF {stroke [] 0 setdash hpt 0 360 arc fill} def
/C0 {BL [] 0 setdash 2 copy moveto vpt 90 450 arc} bind def
/C1 {BL [] 0 setdash 2 copy moveto
	2 copy vpt 0 90 arc closepath fill
	vpt 0 360 arc closepath} bind def
/C2 {BL [] 0 setdash 2 copy moveto
	2 copy vpt 90 180 arc closepath fill
	vpt 0 360 arc closepath} bind def
/C3 {BL [] 0 setdash 2 copy moveto
	2 copy vpt 0 180 arc closepath fill
	vpt 0 360 arc closepath} bind def
/C4 {BL [] 0 setdash 2 copy moveto
	2 copy vpt 180 270 arc closepath fill
	vpt 0 360 arc closepath} bind def
/C5 {BL [] 0 setdash 2 copy moveto
	2 copy vpt 0 90 arc
	2 copy moveto
	2 copy vpt 180 270 arc closepath fill
	vpt 0 360 arc} bind def
/C6 {BL [] 0 setdash 2 copy moveto
	2 copy vpt 90 270 arc closepath fill
	vpt 0 360 arc closepath} bind def
/C7 {BL [] 0 setdash 2 copy moveto
	2 copy vpt 0 270 arc closepath fill
	vpt 0 360 arc closepath} bind def
/C8 {BL [] 0 setdash 2 copy moveto
	2 copy vpt 270 360 arc closepath fill
	vpt 0 360 arc closepath} bind def
/C9 {BL [] 0 setdash 2 copy moveto
	2 copy vpt 270 450 arc closepath fill
	vpt 0 360 arc closepath} bind def
/C10 {BL [] 0 setdash 2 copy 2 copy moveto vpt 270 360 arc closepath fill
	2 copy moveto
	2 copy vpt 90 180 arc closepath fill
	vpt 0 360 arc closepath} bind def
/C11 {BL [] 0 setdash 2 copy moveto
	2 copy vpt 0 180 arc closepath fill
	2 copy moveto
	2 copy vpt 270 360 arc closepath fill
	vpt 0 360 arc closepath} bind def
/C12 {BL [] 0 setdash 2 copy moveto
	2 copy vpt 180 360 arc closepath fill
	vpt 0 360 arc closepath} bind def
/C13 {BL [] 0 setdash 2 copy moveto
	2 copy vpt 0 90 arc closepath fill
	2 copy moveto
	2 copy vpt 180 360 arc closepath fill
	vpt 0 360 arc closepath} bind def
/C14 {BL [] 0 setdash 2 copy moveto
	2 copy vpt 90 360 arc closepath fill
	vpt 0 360 arc} bind def
/C15 {BL [] 0 setdash 2 copy vpt 0 360 arc closepath fill
	vpt 0 360 arc closepath} bind def
/Rec {newpath 4 2 roll moveto 1 index 0 rlineto 0 exch rlineto
	neg 0 rlineto closepath} bind def
/Square {dup Rec} bind def
/Bsquare {vpt sub exch vpt sub exch vpt2 Square} bind def
/S0 {BL [] 0 setdash 2 copy moveto 0 vpt rlineto BL Bsquare} bind def
/S1 {BL [] 0 setdash 2 copy vpt Square fill Bsquare} bind def
/S2 {BL [] 0 setdash 2 copy exch vpt sub exch vpt Square fill Bsquare} bind def
/S3 {BL [] 0 setdash 2 copy exch vpt sub exch vpt2 vpt Rec fill Bsquare} bind def
/S4 {BL [] 0 setdash 2 copy exch vpt sub exch vpt sub vpt Square fill Bsquare} bind def
/S5 {BL [] 0 setdash 2 copy 2 copy vpt Square fill
	exch vpt sub exch vpt sub vpt Square fill Bsquare} bind def
/S6 {BL [] 0 setdash 2 copy exch vpt sub exch vpt sub vpt vpt2 Rec fill Bsquare} bind def
/S7 {BL [] 0 setdash 2 copy exch vpt sub exch vpt sub vpt vpt2 Rec fill
	2 copy vpt Square fill Bsquare} bind def
/S8 {BL [] 0 setdash 2 copy vpt sub vpt Square fill Bsquare} bind def
/S9 {BL [] 0 setdash 2 copy vpt sub vpt vpt2 Rec fill Bsquare} bind def
/S10 {BL [] 0 setdash 2 copy vpt sub vpt Square fill 2 copy exch vpt sub exch vpt Square fill
	Bsquare} bind def
/S11 {BL [] 0 setdash 2 copy vpt sub vpt Square fill 2 copy exch vpt sub exch vpt2 vpt Rec fill
	Bsquare} bind def
/S12 {BL [] 0 setdash 2 copy exch vpt sub exch vpt sub vpt2 vpt Rec fill Bsquare} bind def
/S13 {BL [] 0 setdash 2 copy exch vpt sub exch vpt sub vpt2 vpt Rec fill
	2 copy vpt Square fill Bsquare} bind def
/S14 {BL [] 0 setdash 2 copy exch vpt sub exch vpt sub vpt2 vpt Rec fill
	2 copy exch vpt sub exch vpt Square fill Bsquare} bind def
/S15 {BL [] 0 setdash 2 copy Bsquare fill Bsquare} bind def
/D0 {gsave translate 45 rotate 0 0 S0 stroke grestore} bind def
/D1 {gsave translate 45 rotate 0 0 S1 stroke grestore} bind def
/D2 {gsave translate 45 rotate 0 0 S2 stroke grestore} bind def
/D3 {gsave translate 45 rotate 0 0 S3 stroke grestore} bind def
/D4 {gsave translate 45 rotate 0 0 S4 stroke grestore} bind def
/D5 {gsave translate 45 rotate 0 0 S5 stroke grestore} bind def
/D6 {gsave translate 45 rotate 0 0 S6 stroke grestore} bind def
/D7 {gsave translate 45 rotate 0 0 S7 stroke grestore} bind def
/D8 {gsave translate 45 rotate 0 0 S8 stroke grestore} bind def
/D9 {gsave translate 45 rotate 0 0 S9 stroke grestore} bind def
/D10 {gsave translate 45 rotate 0 0 S10 stroke grestore} bind def
/D11 {gsave translate 45 rotate 0 0 S11 stroke grestore} bind def
/D12 {gsave translate 45 rotate 0 0 S12 stroke grestore} bind def
/D13 {gsave translate 45 rotate 0 0 S13 stroke grestore} bind def
/D14 {gsave translate 45 rotate 0 0 S14 stroke grestore} bind def
/D15 {gsave translate 45 rotate 0 0 S15 stroke grestore} bind def
/DiaE {stroke [] 0 setdash vpt add M
  hpt neg vpt neg V hpt vpt neg V
  hpt vpt V hpt neg vpt V closepath stroke} def
/BoxE {stroke [] 0 setdash exch hpt sub exch vpt add M
  0 vpt2 neg V hpt2 0 V 0 vpt2 V
  hpt2 neg 0 V closepath stroke} def
/TriUE {stroke [] 0 setdash vpt 1.12 mul add M
  hpt neg vpt -1.62 mul V
  hpt 2 mul 0 V
  hpt neg vpt 1.62 mul V closepath stroke} def
/TriDE {stroke [] 0 setdash vpt 1.12 mul sub M
  hpt neg vpt 1.62 mul V
  hpt 2 mul 0 V
  hpt neg vpt -1.62 mul V closepath stroke} def
/PentE {stroke [] 0 setdash gsave
  translate 0 hpt M 4 {72 rotate 0 hpt L} repeat
  closepath stroke grestore} def
/CircE {stroke [] 0 setdash 
  hpt 0 360 arc stroke} def
/Opaque {gsave closepath 1 setgray fill grestore 0 setgray closepath} def
/DiaW {stroke [] 0 setdash vpt add M
  hpt neg vpt neg V hpt vpt neg V
  hpt vpt V hpt neg vpt V Opaque stroke} def
/BoxW {stroke [] 0 setdash exch hpt sub exch vpt add M
  0 vpt2 neg V hpt2 0 V 0 vpt2 V
  hpt2 neg 0 V Opaque stroke} def
/TriUW {stroke [] 0 setdash vpt 1.12 mul add M
  hpt neg vpt -1.62 mul V
  hpt 2 mul 0 V
  hpt neg vpt 1.62 mul V Opaque stroke} def
/TriDW {stroke [] 0 setdash vpt 1.12 mul sub M
  hpt neg vpt 1.62 mul V
  hpt 2 mul 0 V
  hpt neg vpt -1.62 mul V Opaque stroke} def
/PentW {stroke [] 0 setdash gsave
  translate 0 hpt M 4 {72 rotate 0 hpt L} repeat
  Opaque stroke grestore} def
/CircW {stroke [] 0 setdash 
  hpt 0 360 arc Opaque stroke} def
/BoxFill {gsave Rec 1 setgray fill grestore} def
/Density {
  /Fillden exch def
  currentrgbcolor
  /ColB exch def /ColG exch def /ColR exch def
  /ColR ColR Fillden mul Fillden sub 1 add def
  /ColG ColG Fillden mul Fillden sub 1 add def
  /ColB ColB Fillden mul Fillden sub 1 add def
  ColR ColG ColB setrgbcolor} def
/BoxColFill {gsave Rec PolyFill} def
/PolyFill {gsave Density fill grestore grestore} def
/h {rlineto rlineto rlineto gsave closepath fill grestore} bind def
%
% PostScript Level 1 Pattern Fill routine for rectangles
% Usage: x y w h s a XX PatternFill
%	x,y = lower left corner of box to be filled
%	w,h = width and height of box
%	  a = angle in degrees between lines and x-axis
%	 XX = 0/1 for no/yes cross-hatch
%
/PatternFill {gsave /PFa [ 9 2 roll ] def
  PFa 0 get PFa 2 get 2 div add PFa 1 get PFa 3 get 2 div add translate
  PFa 2 get -2 div PFa 3 get -2 div PFa 2 get PFa 3 get Rec
  TransparentPatterns {} {gsave 1 setgray fill grestore} ifelse
  clip
  currentlinewidth 0.5 mul setlinewidth
  /PFs PFa 2 get dup mul PFa 3 get dup mul add sqrt def
  0 0 M PFa 5 get rotate PFs -2 div dup translate
  0 1 PFs PFa 4 get div 1 add floor cvi
	{PFa 4 get mul 0 M 0 PFs V} for
  0 PFa 6 get ne {
	0 1 PFs PFa 4 get div 1 add floor cvi
	{PFa 4 get mul 0 2 1 roll M PFs 0 V} for
 } if
  stroke grestore} def
%
/languagelevel where
 {pop languagelevel} {1} ifelse
 2 lt
	{/InterpretLevel1 true def}
	{/InterpretLevel1 Level1 def}
 ifelse
%
% PostScript level 2 pattern fill definitions
%
/Level2PatternFill {
/Tile8x8 {/PaintType 2 /PatternType 1 /TilingType 1 /BBox [0 0 8 8] /XStep 8 /YStep 8}
	bind def
/KeepColor {currentrgbcolor [/Pattern /DeviceRGB] setcolorspace} bind def
<< Tile8x8
 /PaintProc {0.5 setlinewidth pop 0 0 M 8 8 L 0 8 M 8 0 L stroke} 
>> matrix makepattern
/Pat1 exch def
<< Tile8x8
 /PaintProc {0.5 setlinewidth pop 0 0 M 8 8 L 0 8 M 8 0 L stroke
	0 4 M 4 8 L 8 4 L 4 0 L 0 4 L stroke}
>> matrix makepattern
/Pat2 exch def
<< Tile8x8
 /PaintProc {0.5 setlinewidth pop 0 0 M 0 8 L
	8 8 L 8 0 L 0 0 L fill}
>> matrix makepattern
/Pat3 exch def
<< Tile8x8
 /PaintProc {0.5 setlinewidth pop -4 8 M 8 -4 L
	0 12 M 12 0 L stroke}
>> matrix makepattern
/Pat4 exch def
<< Tile8x8
 /PaintProc {0.5 setlinewidth pop -4 0 M 8 12 L
	0 -4 M 12 8 L stroke}
>> matrix makepattern
/Pat5 exch def
<< Tile8x8
 /PaintProc {0.5 setlinewidth pop -2 8 M 4 -4 L
	0 12 M 8 -4 L 4 12 M 10 0 L stroke}
>> matrix makepattern
/Pat6 exch def
<< Tile8x8
 /PaintProc {0.5 setlinewidth pop -2 0 M 4 12 L
	0 -4 M 8 12 L 4 -4 M 10 8 L stroke}
>> matrix makepattern
/Pat7 exch def
<< Tile8x8
 /PaintProc {0.5 setlinewidth pop 8 -2 M -4 4 L
	12 0 M -4 8 L 12 4 M 0 10 L stroke}
>> matrix makepattern
/Pat8 exch def
<< Tile8x8
 /PaintProc {0.5 setlinewidth pop 0 -2 M 12 4 L
	-4 0 M 12 8 L -4 4 M 8 10 L stroke}
>> matrix makepattern
/Pat9 exch def
/Pattern1 {PatternBgnd KeepColor Pat1 setpattern} bind def
/Pattern2 {PatternBgnd KeepColor Pat2 setpattern} bind def
/Pattern3 {PatternBgnd KeepColor Pat3 setpattern} bind def
/Pattern4 {PatternBgnd KeepColor Landscape {Pat5} {Pat4} ifelse setpattern} bind def
/Pattern5 {PatternBgnd KeepColor Landscape {Pat4} {Pat5} ifelse setpattern} bind def
/Pattern6 {PatternBgnd KeepColor Landscape {Pat9} {Pat6} ifelse setpattern} bind def
/Pattern7 {PatternBgnd KeepColor Landscape {Pat8} {Pat7} ifelse setpattern} bind def
} def
%
%
%End of PostScript Level 2 code
%
/PatternBgnd {
  TransparentPatterns {} {gsave 1 setgray fill grestore} ifelse
} def
%
% Substitute for Level 2 pattern fill codes with
% grayscale if Level 2 support is not selected.
%
/Level1PatternFill {
/Pattern1 {0.250 Density} bind def
/Pattern2 {0.500 Density} bind def
/Pattern3 {0.750 Density} bind def
/Pattern4 {0.125 Density} bind def
/Pattern5 {0.375 Density} bind def
/Pattern6 {0.625 Density} bind def
/Pattern7 {0.875 Density} bind def
} def
%
% Now test for support of Level 2 code
%
Level1 {Level1PatternFill} {Level2PatternFill} ifelse
%
/Symbol-Oblique /Symbol findfont [1 0 .167 1 0 0] makefont
dup length dict begin {1 index /FID eq {pop pop} {def} ifelse} forall
currentdict end definefont pop
/MFshow {
   { dup 5 get 3 ge
     { 5 get 3 eq {gsave} {grestore} ifelse }
     {dup dup 0 get findfont exch 1 get scalefont setfont
     [ currentpoint ] exch dup 2 get 0 exch R dup 5 get 2 ne {dup dup 6
     get exch 4 get {Gshow} {stringwidth pop 0 R} ifelse }if dup 5 get 0 eq
     {dup 3 get {2 get neg 0 exch R pop} {pop aload pop M} ifelse} {dup 5
     get 1 eq {dup 2 get exch dup 3 get exch 6 get stringwidth pop -2 div
     dup 0 R} {dup 6 get stringwidth pop -2 div 0 R 6 get
     show 2 index {aload pop M neg 3 -1 roll neg R pop pop} {pop pop pop
     pop aload pop M} ifelse }ifelse }ifelse }
     ifelse }
   forall} def
/Gswidth {dup type /stringtype eq {stringwidth} {pop (n) stringwidth} ifelse} def
/MFwidth {0 exch { dup 5 get 3 ge { 5 get 3 eq { 0 } { pop } ifelse }
 {dup 3 get{dup dup 0 get findfont exch 1 get scalefont setfont
     6 get Gswidth pop add} {pop} ifelse} ifelse} forall} def
/MLshow { currentpoint stroke M
  0 exch R
  Blacktext {gsave 0 setgray MFshow grestore} {MFshow} ifelse } bind def
/MRshow { currentpoint stroke M
  exch dup MFwidth neg 3 -1 roll R
  Blacktext {gsave 0 setgray MFshow grestore} {MFshow} ifelse } bind def
/MCshow { currentpoint stroke M
  exch dup MFwidth -2 div 3 -1 roll R
  Blacktext {gsave 0 setgray MFshow grestore} {MFshow} ifelse } bind def
/XYsave    { [( ) 1 2 true false 3 ()] } bind def
/XYrestore { [( ) 1 2 true false 4 ()] } bind def
Level1 SuppressPDFMark or 
{} {
/SDict 10 dict def
systemdict /pdfmark known not {
  userdict /pdfmark systemdict /cleartomark get put
} if
SDict begin [
  /Title (Orbit_DY=2e-5.eps)
  /Subject (gnuplot plot)
  /Creator (gnuplot 4.6 patchlevel 4)
  /Author (rj-yang)
%  /Producer (gnuplot)
%  /Keywords ()
  /CreationDate (Tue Jun 13 16:12:37 2017)
  /DOCINFO pdfmark
end
} ifelse
end
%%EndProlog
%%Page: 1 1
gnudict begin
gsave
doclip
50 50 translate
0.050 0.050 scale
0 setgray
newpath
(Helvetica) findfont 240 scalefont setfont
BackgroundColor 0 lt 3 1 roll 0 lt exch 0 lt or or not {BackgroundColor C 1.000 0 0 7200.00 5040.00 BoxColFill} if
1.000 UL
LTb
LCb setrgbcolor
888 768 M
63 0 V
5816 0 R
-63 0 V
stroke
744 768 M
[ [(Helvetica) 240.0 0.0 true true 0 (-4)]
] -80.0 MRshow
1.000 UL
LTb
LCb setrgbcolor
888 1211 M
63 0 V
5816 0 R
-63 0 V
stroke
744 1211 M
[ [(Helvetica) 240.0 0.0 true true 0 (-3)]
] -80.0 MRshow
1.000 UL
LTb
LCb setrgbcolor
888 1653 M
63 0 V
5816 0 R
-63 0 V
stroke
744 1653 M
[ [(Helvetica) 240.0 0.0 true true 0 (-2)]
] -80.0 MRshow
1.000 UL
LTb
LCb setrgbcolor
888 2096 M
63 0 V
5816 0 R
-63 0 V
stroke
744 2096 M
[ [(Helvetica) 240.0 0.0 true true 0 (-1)]
] -80.0 MRshow
1.000 UL
LTb
LCb setrgbcolor
888 2538 M
63 0 V
5816 0 R
-63 0 V
stroke
744 2538 M
[ [(Helvetica) 240.0 0.0 true true 0 ( 0)]
] -80.0 MRshow
1.000 UL
LTb
LCb setrgbcolor
888 2981 M
63 0 V
5816 0 R
-63 0 V
stroke
744 2981 M
[ [(Helvetica) 240.0 0.0 true true 0 ( 1)]
] -80.0 MRshow
1.000 UL
LTb
LCb setrgbcolor
888 3423 M
63 0 V
5816 0 R
-63 0 V
stroke
744 3423 M
[ [(Helvetica) 240.0 0.0 true true 0 ( 2)]
] -80.0 MRshow
1.000 UL
LTb
LCb setrgbcolor
888 3866 M
63 0 V
5816 0 R
-63 0 V
stroke
744 3866 M
[ [(Helvetica) 240.0 0.0 true true 0 ( 3)]
] -80.0 MRshow
1.000 UL
LTb
LCb setrgbcolor
888 4308 M
63 0 V
5816 0 R
-63 0 V
stroke
744 4308 M
[ [(Helvetica) 240.0 0.0 true true 0 ( 4)]
] -80.0 MRshow
1.000 UL
LTb
LCb setrgbcolor
888 4751 M
63 0 V
5816 0 R
-63 0 V
stroke
744 4751 M
[ [(Helvetica) 240.0 0.0 true true 0 ( 5)]
] -80.0 MRshow
1.000 UL
LTb
LCb setrgbcolor
888 768 M
0 63 V
0 3920 R
0 -63 V
stroke
888 528 M
[ [(Helvetica) 240.0 0.0 true true 0 ( 0)]
] -80.0 MCshow
1.000 UL
LTb
LCb setrgbcolor
1541 768 M
0 63 V
0 3920 R
0 -63 V
stroke
1541 528 M
[ [(Helvetica) 240.0 0.0 true true 0 ( 10)]
] -80.0 MCshow
1.000 UL
LTb
LCb setrgbcolor
2194 768 M
0 63 V
0 3920 R
0 -63 V
stroke
2194 528 M
[ [(Helvetica) 240.0 0.0 true true 0 ( 20)]
] -80.0 MCshow
1.000 UL
LTb
LCb setrgbcolor
2848 768 M
0 63 V
0 3920 R
0 -63 V
stroke
2848 528 M
[ [(Helvetica) 240.0 0.0 true true 0 ( 30)]
] -80.0 MCshow
1.000 UL
LTb
LCb setrgbcolor
3501 768 M
0 63 V
0 3920 R
0 -63 V
stroke
3501 528 M
[ [(Helvetica) 240.0 0.0 true true 0 ( 40)]
] -80.0 MCshow
1.000 UL
LTb
LCb setrgbcolor
4154 768 M
0 63 V
0 3920 R
0 -63 V
stroke
4154 528 M
[ [(Helvetica) 240.0 0.0 true true 0 ( 50)]
] -80.0 MCshow
1.000 UL
LTb
LCb setrgbcolor
4807 768 M
0 63 V
0 3920 R
0 -63 V
stroke
4807 528 M
[ [(Helvetica) 240.0 0.0 true true 0 ( 60)]
] -80.0 MCshow
1.000 UL
LTb
LCb setrgbcolor
5461 768 M
0 63 V
0 3920 R
0 -63 V
stroke
5461 528 M
[ [(Helvetica) 240.0 0.0 true true 0 ( 70)]
] -80.0 MCshow
1.000 UL
LTb
LCb setrgbcolor
6114 768 M
0 63 V
0 3920 R
0 -63 V
stroke
6114 528 M
[ [(Helvetica) 240.0 0.0 true true 0 ( 80)]
] -80.0 MCshow
1.000 UL
LTb
LCb setrgbcolor
6767 768 M
0 63 V
0 3920 R
0 -63 V
stroke
6767 528 M
[ [(Helvetica) 240.0 0.0 true true 0 ( 90)]
] -80.0 MCshow
1.000 UL
LTb
LCb setrgbcolor
1.000 UL
LTb
LCb setrgbcolor
888 4751 N
888 768 L
5879 0 V
0 3983 V
-5879 0 V
Z stroke
LCb setrgbcolor
192 2759 M
currentpoint gsave translate -270 rotate 0 0 moveto
[ [(Symbol) 240.0 0.0 true true 0 (D)]
[(Italic) 192.0 -72.0 true true 0 (y)]
[(Helvetica) 240.0 0.0 true true 0 ( [mm])]
] -56.0 MCshow
grestore
LTb
LCb setrgbcolor
3827 168 M
[ [(Italic) 240.0 0.0 true true 0 (s)]
[(Helvetica) 240.0 0.0 true true 0 ( [m])]
] -80.0 MCshow
LTb
1.000 UP
1.000 UL
LTb
LCb setrgbcolor
% Begin plot #1
1.500 UP
3.000 UL
LT0
1.00 0.00 0.00 C LCb setrgbcolor
1752 4508 M
[ [(Symbol) 240.0 0.0 true true 0 (d)]
[(Helvetica) 192.0 -72.0 true true 0 (p)]
[(Helvetica) 240.0 0.0 true true 0 (=0)]
] -56.0 MRshow
LT0
1.00 0.00 0.00 C 1896 4508 M
639 0 V
904 2547 M
17 0 V
60 -1 V
6 0 V
7 0 V
3 -1 V
16 -1 V
46 -5 V
11 -1 V
3 0 V
10 -1 V
12 -1 V
3 -1 V
2 0 V
10 -1 V
20 -2 V
19 -2 V
13 -2 V
26 -3 V
27 -3 V
6 -1 V
7 0 V
32 -4 V
33 -4 V
31 -3 V
9 -1 V
2 -1 V
2 0 V
3 0 V
5 -1 V
7 -1 V
6 -4 V
1 0 V
14 -10 V
18 -12 V
26 -17 V
26 -18 V
14 -9 V
8 -6 V
11 -7 V
6 -1 V
7 4 V
1 0 V
49 50 V
7 5 V
6 4 V
2 0 V
9 4 V
8 3 V
9 4 V
8 3 V
98 40 V
134 55 V
7 3 V
6 6 V
2 1 V
9 9 V
7 8 V
31 31 V
2 2 V
6 4 V
7 -1 V
10 -7 V
9 -6 V
14 -9 V
26 -17 V
26 -17 V
14 -9 V
8 -6 V
10 -6 V
0 -1 V
7 -3 V
6 -1 V
1 0 V
2 0 V
3 0 V
22 1 V
38 0 V
44 0 V
44 0 V
50 1 V
3 0 V
2 0 V
2 1 V
55 13 V
40 9 V
21 5 V
7 2 V
11 2 V
6 1 V
7 -2 V
1 0 V
9 -4 V
8 -4 V
30 -11 V
15 -7 V
16 -6 V
17 -7 V
4 -2 V
6 -2 V
7 -3 V
10 -4 V
4 -2 V
stroke 2512 2556 M
7 -2 V
6 -2 V
10 -2 V
8 -2 V
56 -12 V
31 -7 V
22 -5 V
8 -2 V
6 -1 V
8 -2 V
3 -1 V
2 0 V
7 -2 V
7 0 V
6 0 V
1 0 V
63 11 V
8 2 V
10 2 V
6 1 V
7 0 V
1 0 V
26 2 V
20 2 V
9 1 V
6 0 V
8 1 V
2 0 V
3 0 V
7 0 V
6 1 V
7 0 V
1 0 V
35 3 V
7 0 V
11 1 V
7 0 V
6 1 V
4 1 V
51 9 V
6 1 V
7 0 V
3 -1 V
18 -1 V
15 -1 V
8 -1 V
10 -1 V
7 0 V
6 1 V
4 1 V
21 3 V
8 2 V
10 1 V
3 1 V
2 0 V
7 1 V
6 1 V
7 -1 V
1 0 V
62 -11 V
9 -1 V
10 -2 V
6 -1 V
7 -1 V
1 0 V
14 -1 V
54 -4 V
3 0 V
3 0 V
43 -4 V
8 0 V
16 -2 V
7 0 V
6 0 V
1 0 V
18 -1 V
27 0 V
18 -1 V
8 0 V
10 0 V
6 0 V
7 -1 V
1 0 V
17 -1 V
25 -3 V
21 -2 V
31 -3 V
9 -1 V
41 -3 V
1 -1 V
2 0 V
49 -5 V
31 -2 V
19 -2 V
1 0 V
2 0 V
3 0 V
30 3 V
33 3 V
60 6 V
29 3 V
8 1 V
61 6 V
27 3 V
stroke 4005 2532 M
3 0 V
2 0 V
2 0 V
18 1 V
32 3 V
23 1 V
35 3 V
119 8 V
18 1 V
2 0 V
6 1 V
7 0 V
49 4 V
8 0 V
9 1 V
8 0 V
11 1 V
6 0 V
7 1 V
1 0 V
84 11 V
6 0 V
7 -3 V
1 0 V
38 -20 V
14 -7 V
32 -16 V
6 -4 V
7 -5 V
1 -1 V
84 -68 V
6 -5 V
6 -5 V
2 0 V
47 -31 V
43 -28 V
7 -4 V
6 -6 V
1 -1 V
56 -54 V
15 -15 V
13 -13 V
7 -4 V
6 -1 V
1 0 V
31 6 V
14 3 V
6 2 V
7 7 V
1 2 V
19 24 V
52 67 V
6 7 V
7 4 V
1 1 V
26 11 V
3 2 V
3 1 V
7 3 V
20 9 V
6 2 V
7 0 V
1 0 V
18 -3 V
7 -2 V
8 -1 V
70 -13 V
7 0 V
6 5 V
2 1 V
110 110 V
6 7 V
7 6 V
1 1 V
28 26 V
20 19 V
20 19 V
42 39 V
6 5 V
7 1 V
1 0 V
70 -4 V
7 0 V
8 -1 V
18 -1 V
7 1 V
6 2 V
2 1 V
26 15 V
2 1 V
3 1 V
7 4 V
20 11 V
7 5 V
6 8 V
2 2 V
14 20 V
56 78 V
7 7 V
6 3 V
2 0 V
25 6 V
3 0 V
4 1 V
stroke 5758 2808 M
6 1 V
21 5 V
6 -1 V
6 -5 V
2 -1 V
17 -18 V
8 -8 V
7 -8 V
67 -69 V
20 -21 V
20 -21 V
29 -30 V
7 -5 V
6 -3 V
2 -1 V
27 -8 V
20 -6 V
20 -5 V
16 -5 V
13 -4 V
7 -2 V
6 -3 V
2 0 V
23 -11 V
9 -4 V
9 -4 V
56 -26 V
6 -3 V
6 -3 V
2 0 V
249 -119 V
26 -13 V
8 -3 V
7 -4 V
11 -5 V
6 -3 V
3 -1 V
4 -2 V
20 -9 V
14 -14 V
15 -28 V
7 -19 V
20 -48 V
6 -16 V
4 -8 V
3 -8 V
19 -46 V
15 -9 V
16 47 V
7 33 V
29 141 V
18 86 V
6 25 V
4 22 V
28 131 V
13 63 V
5 24 V
904 2547 Pnt
921 2547 Pnt
981 2546 Pnt
987 2546 Pnt
994 2546 Pnt
997 2545 Pnt
1013 2544 Pnt
1059 2539 Pnt
1070 2538 Pnt
1073 2538 Pnt
1083 2537 Pnt
1095 2536 Pnt
1098 2535 Pnt
1100 2535 Pnt
1110 2534 Pnt
1130 2532 Pnt
1149 2530 Pnt
1162 2528 Pnt
1188 2525 Pnt
1215 2522 Pnt
1221 2521 Pnt
1228 2521 Pnt
1260 2517 Pnt
1293 2513 Pnt
1324 2510 Pnt
1333 2509 Pnt
1335 2508 Pnt
1337 2508 Pnt
1340 2508 Pnt
1345 2507 Pnt
1352 2506 Pnt
1358 2502 Pnt
1359 2502 Pnt
1373 2492 Pnt
1391 2480 Pnt
1417 2463 Pnt
1443 2445 Pnt
1457 2436 Pnt
1465 2430 Pnt
1476 2423 Pnt
1482 2422 Pnt
1489 2426 Pnt
1490 2426 Pnt
1539 2476 Pnt
1546 2481 Pnt
1552 2485 Pnt
1554 2485 Pnt
1563 2489 Pnt
1571 2492 Pnt
1580 2496 Pnt
1588 2499 Pnt
1686 2539 Pnt
1820 2594 Pnt
1827 2597 Pnt
1833 2603 Pnt
1835 2604 Pnt
1844 2613 Pnt
1851 2621 Pnt
1882 2652 Pnt
1884 2654 Pnt
1890 2658 Pnt
1897 2657 Pnt
1907 2650 Pnt
1916 2644 Pnt
1930 2635 Pnt
1956 2618 Pnt
1982 2601 Pnt
1996 2592 Pnt
2004 2586 Pnt
2014 2580 Pnt
2014 2579 Pnt
2021 2576 Pnt
2027 2575 Pnt
2028 2575 Pnt
2030 2575 Pnt
2033 2575 Pnt
2055 2576 Pnt
2093 2576 Pnt
2137 2576 Pnt
2181 2576 Pnt
2231 2577 Pnt
2234 2577 Pnt
2236 2577 Pnt
2238 2578 Pnt
2293 2591 Pnt
2333 2600 Pnt
2354 2605 Pnt
2361 2607 Pnt
2372 2609 Pnt
2378 2610 Pnt
2385 2608 Pnt
2386 2608 Pnt
2395 2604 Pnt
2403 2600 Pnt
2433 2589 Pnt
2448 2582 Pnt
2464 2576 Pnt
2481 2569 Pnt
2485 2567 Pnt
2491 2565 Pnt
2498 2562 Pnt
2508 2558 Pnt
2512 2556 Pnt
2519 2554 Pnt
2525 2552 Pnt
2535 2550 Pnt
2543 2548 Pnt
2599 2536 Pnt
2630 2529 Pnt
2652 2524 Pnt
2660 2522 Pnt
2666 2521 Pnt
2674 2519 Pnt
2677 2518 Pnt
2679 2518 Pnt
2686 2516 Pnt
2693 2516 Pnt
2699 2516 Pnt
2700 2516 Pnt
2763 2527 Pnt
2771 2529 Pnt
2781 2531 Pnt
2787 2532 Pnt
2794 2532 Pnt
2795 2532 Pnt
2821 2534 Pnt
2841 2536 Pnt
2850 2537 Pnt
2856 2537 Pnt
2864 2538 Pnt
2866 2538 Pnt
2869 2538 Pnt
2876 2538 Pnt
2882 2539 Pnt
2889 2539 Pnt
2890 2539 Pnt
2925 2542 Pnt
2932 2542 Pnt
2943 2543 Pnt
2950 2543 Pnt
2956 2544 Pnt
2960 2545 Pnt
3011 2554 Pnt
3017 2555 Pnt
3024 2555 Pnt
3027 2554 Pnt
3045 2553 Pnt
3060 2552 Pnt
3068 2551 Pnt
3078 2550 Pnt
3085 2550 Pnt
3091 2551 Pnt
3095 2552 Pnt
3116 2555 Pnt
3124 2557 Pnt
3134 2558 Pnt
3137 2559 Pnt
3139 2559 Pnt
3146 2560 Pnt
3152 2561 Pnt
3159 2560 Pnt
3160 2560 Pnt
3222 2549 Pnt
3231 2548 Pnt
3241 2546 Pnt
3247 2545 Pnt
3254 2544 Pnt
3255 2544 Pnt
3269 2543 Pnt
3323 2539 Pnt
3326 2539 Pnt
3329 2539 Pnt
3372 2535 Pnt
3380 2535 Pnt
3396 2533 Pnt
3403 2533 Pnt
3409 2533 Pnt
3410 2533 Pnt
3428 2532 Pnt
3455 2532 Pnt
3473 2531 Pnt
3481 2531 Pnt
3491 2531 Pnt
3497 2531 Pnt
3504 2530 Pnt
3505 2530 Pnt
3522 2529 Pnt
3547 2526 Pnt
3568 2524 Pnt
3599 2521 Pnt
3608 2520 Pnt
3649 2517 Pnt
3650 2516 Pnt
3652 2516 Pnt
3701 2511 Pnt
3732 2509 Pnt
3751 2507 Pnt
3752 2507 Pnt
3754 2507 Pnt
3757 2507 Pnt
3787 2510 Pnt
3820 2513 Pnt
3880 2519 Pnt
3909 2522 Pnt
3917 2523 Pnt
3978 2529 Pnt
4005 2532 Pnt
4008 2532 Pnt
4010 2532 Pnt
4012 2532 Pnt
4030 2533 Pnt
4062 2536 Pnt
4085 2537 Pnt
4120 2540 Pnt
4239 2548 Pnt
4257 2549 Pnt
4259 2549 Pnt
4265 2550 Pnt
4272 2550 Pnt
4321 2554 Pnt
4329 2554 Pnt
4338 2555 Pnt
4346 2555 Pnt
4357 2556 Pnt
4363 2556 Pnt
4370 2557 Pnt
4371 2557 Pnt
4455 2568 Pnt
4461 2568 Pnt
4468 2565 Pnt
4469 2565 Pnt
4507 2545 Pnt
4521 2538 Pnt
4553 2522 Pnt
4559 2518 Pnt
4566 2513 Pnt
4567 2512 Pnt
4651 2444 Pnt
4657 2439 Pnt
4663 2434 Pnt
4665 2434 Pnt
4712 2403 Pnt
4755 2375 Pnt
4762 2371 Pnt
4768 2365 Pnt
4769 2364 Pnt
4825 2310 Pnt
4840 2295 Pnt
4853 2282 Pnt
4860 2278 Pnt
4866 2277 Pnt
4867 2277 Pnt
4898 2283 Pnt
4912 2286 Pnt
4918 2288 Pnt
4925 2295 Pnt
4926 2297 Pnt
4945 2321 Pnt
4997 2388 Pnt
5003 2395 Pnt
5010 2399 Pnt
5011 2400 Pnt
5037 2411 Pnt
5040 2413 Pnt
5043 2414 Pnt
5050 2417 Pnt
5070 2426 Pnt
5076 2428 Pnt
5083 2428 Pnt
5084 2428 Pnt
5102 2425 Pnt
5109 2423 Pnt
5117 2422 Pnt
5187 2409 Pnt
5194 2409 Pnt
5200 2414 Pnt
5202 2415 Pnt
5312 2525 Pnt
5318 2532 Pnt
5325 2538 Pnt
5326 2539 Pnt
5354 2565 Pnt
5374 2584 Pnt
5394 2603 Pnt
5436 2642 Pnt
5442 2647 Pnt
5449 2648 Pnt
5450 2648 Pnt
5520 2644 Pnt
5527 2644 Pnt
5535 2643 Pnt
5553 2642 Pnt
5560 2643 Pnt
5566 2645 Pnt
5568 2646 Pnt
5594 2661 Pnt
5596 2662 Pnt
5599 2663 Pnt
5606 2667 Pnt
5626 2678 Pnt
5633 2683 Pnt
5639 2691 Pnt
5641 2693 Pnt
5655 2713 Pnt
5711 2791 Pnt
5718 2798 Pnt
5724 2801 Pnt
5726 2801 Pnt
5751 2807 Pnt
5754 2807 Pnt
5758 2808 Pnt
5764 2809 Pnt
5785 2814 Pnt
5791 2813 Pnt
5797 2808 Pnt
5799 2807 Pnt
5816 2789 Pnt
5824 2781 Pnt
5831 2773 Pnt
5898 2704 Pnt
5918 2683 Pnt
5938 2662 Pnt
5967 2632 Pnt
5974 2627 Pnt
5980 2624 Pnt
5982 2623 Pnt
6009 2615 Pnt
6029 2609 Pnt
6049 2604 Pnt
6065 2599 Pnt
6078 2595 Pnt
6085 2593 Pnt
6091 2590 Pnt
6093 2590 Pnt
6116 2579 Pnt
6125 2575 Pnt
6134 2571 Pnt
6190 2545 Pnt
6196 2542 Pnt
6202 2539 Pnt
6204 2539 Pnt
6453 2420 Pnt
6479 2407 Pnt
6487 2404 Pnt
6494 2400 Pnt
6505 2395 Pnt
6511 2392 Pnt
6514 2391 Pnt
6518 2389 Pnt
6538 2380 Pnt
6552 2366 Pnt
6567 2338 Pnt
6574 2319 Pnt
6594 2271 Pnt
6600 2255 Pnt
6604 2247 Pnt
6607 2239 Pnt
6626 2193 Pnt
6641 2184 Pnt
6657 2231 Pnt
6664 2264 Pnt
6693 2405 Pnt
6711 2491 Pnt
6717 2516 Pnt
6721 2538 Pnt
6749 2669 Pnt
6762 2732 Pnt
2215 4508 Pnt
% End plot #1
% Begin plot #2
1.500 UP
3.000 UL
LT1
0.00 0.00 1.00 C LCb setrgbcolor
1752 4148 M
[ [(Symbol) 240.0 0.0 true true 0 (d)]
[(Helvetica) 192.0 -72.0 true true 0 (p)]
[(Helvetica) 240.0 0.0 true true 0 (=1%)]
] -56.0 MRshow
LT1
0.00 0.00 1.00 C 1896 4148 M
639 0 V
904 2547 M
17 0 V
60 -1 V
6 0 V
7 0 V
3 -1 V
16 -1 V
46 -5 V
11 -1 V
3 0 V
10 -1 V
12 -1 V
3 0 V
2 -1 V
10 -1 V
20 -2 V
19 -2 V
13 -2 V
26 -3 V
27 -3 V
6 0 V
7 -1 V
32 -4 V
33 -3 V
31 -4 V
9 -1 V
2 0 V
2 0 V
3 -1 V
5 0 V
7 -2 V
6 -3 V
1 -1 V
14 -9 V
18 -12 V
26 -17 V
26 -17 V
14 -9 V
8 -5 V
11 -7 V
6 -2 V
7 4 V
1 1 V
49 47 V
7 6 V
6 3 V
2 1 V
9 3 V
8 3 V
9 4 V
8 3 V
98 37 V
134 51 V
7 4 V
6 5 V
2 1 V
9 9 V
7 7 V
31 28 V
2 2 V
6 3 V
7 -1 V
10 -6 V
9 -5 V
14 -8 V
26 -15 V
26 -15 V
14 -8 V
8 -4 V
10 -6 V
7 -3 V
6 0 V
1 0 V
2 0 V
3 0 V
22 1 V
38 3 V
44 3 V
44 2 V
50 4 V
3 0 V
2 1 V
2 0 V
55 20 V
40 14 V
21 7 V
7 3 V
11 4 V
6 1 V
7 -2 V
1 -1 V
9 -5 V
8 -4 V
30 -16 V
15 -8 V
16 -8 V
17 -9 V
4 -2 V
6 -4 V
7 -3 V
10 -6 V
4 -2 V
7 -3 V
stroke 2519 2565 M
6 -2 V
10 -2 V
8 -1 V
56 -13 V
31 -6 V
22 -5 V
8 -2 V
6 -1 V
8 -2 V
3 0 V
2 -1 V
7 -1 V
7 -1 V
6 -1 V
1 0 V
63 -2 V
8 0 V
10 0 V
6 -1 V
7 -1 V
1 0 V
26 -7 V
20 -5 V
9 -2 V
6 -2 V
8 -2 V
2 0 V
3 -1 V
7 -2 V
6 0 V
7 1 V
1 0 V
35 11 V
7 2 V
11 4 V
7 1 V
6 0 V
4 0 V
51 -2 V
6 0 V
7 1 V
3 1 V
18 5 V
15 3 V
8 2 V
10 3 V
7 1 V
6 1 V
4 1 V
21 4 V
8 1 V
10 2 V
3 1 V
2 0 V
7 1 V
6 1 V
7 1 V
1 0 V
62 2 V
9 1 V
10 0 V
6 1 V
7 1 V
1 0 V
14 4 V
54 14 V
3 1 V
3 0 V
43 11 V
8 2 V
16 4 V
7 1 V
6 -1 V
1 0 V
18 -5 V
27 -8 V
18 -5 V
8 -2 V
10 -3 V
6 -1 V
7 -1 V
1 0 V
17 0 V
25 0 V
21 -1 V
31 0 V
9 0 V
41 -1 V
1 0 V
2 0 V
49 -1 V
31 -1 V
19 0 V
1 0 V
2 0 V
3 0 V
30 -5 V
33 -5 V
60 -9 V
29 -4 V
8 -1 V
61 -9 V
27 -5 V
3 0 V
stroke 4008 2522 M
2 -1 V
2 0 V
18 -4 V
32 -7 V
23 -6 V
35 -8 V
119 -26 V
18 -5 V
2 0 V
6 -1 V
7 -2 V
49 -11 V
8 -2 V
9 -2 V
8 -2 V
11 -2 V
6 -2 V
7 -3 V
1 -1 V
84 -43 V
6 2 V
7 11 V
1 4 V
38 96 V
14 38 V
32 79 V
6 19 V
7 24 V
1 5 V
84 353 V
6 0 V
6 44 V
2 0 V
47 133 V
43 177 V
7 0 V
6 44 V
1 0 V
56 266 V
15 88 V
13 45 V
7 44 V
6 0 V
1 0 V
31 -44 V
14 0 V
6 -45 V
7 0 V
1 -44 V
19 -88 V
52 -354 V
6 0 V
7 -45 V
1 0 V
26 -44 V
3 0 V
3 -44 V
7 0 V
20 -44 V
6 0 V
7 0 V
1 0 V
18 44 V
7 0 V
8 0 V
70 88 V
7 0 V
6 -44 V
2 0 V
110 -556 V
6 -32 V
7 -30 V
1 -6 V
28 -127 V
20 -91 V
20 -91 V
42 -173 V
6 -45 V
7 0 V
1 0 V
70 0 V
7 0 V
8 0 V
18 0 V
7 -44 V
6 0 V
2 0 V
26 -88 V
2 0 V
3 0 V
7 -45 V
20 -44 V
7 -44 V
6 -44 V
2 0 V
14 -89 V
56 -442 V
7 0 V
6 -45 V
2 0 V
25 -44 V
3 0 V
4 0 V
6 0 V
stroke 5764 1122 M
21 0 V
6 0 V
6 0 V
2 44 V
17 89 V
8 44 V
7 44 V
67 354 V
20 133 V
20 89 V
29 177 V
7 21 V
6 19 V
2 2 V
27 57 V
20 41 V
20 41 V
16 32 V
13 27 V
7 15 V
6 16 V
2 3 V
23 61 V
9 23 V
9 25 V
56 145 V
6 16 V
6 15 V
2 3 V
249 544 V
26 44 V
8 45 V
7 0 V
11 0 V
6 44 V
3 0 V
4 0 V
20 44 V
14 89 V
15 132 V
7 89 V
20 265 V
6 89 V
4 44 V
3 0 V
19 266 V
15 44 V
16 -266 V
7 -177 V
29 -708 V
18 -460 V
6 -131 V
4 -114 V
28 -667 V
13 -354 V
5 -122 V
904 2547 Pnt
921 2547 Pnt
981 2546 Pnt
987 2546 Pnt
994 2546 Pnt
997 2545 Pnt
1013 2544 Pnt
1059 2539 Pnt
1070 2538 Pnt
1073 2538 Pnt
1083 2537 Pnt
1095 2536 Pnt
1098 2536 Pnt
1100 2535 Pnt
1110 2534 Pnt
1130 2532 Pnt
1149 2530 Pnt
1162 2528 Pnt
1188 2525 Pnt
1215 2522 Pnt
1221 2522 Pnt
1228 2521 Pnt
1260 2517 Pnt
1293 2514 Pnt
1324 2510 Pnt
1333 2509 Pnt
1335 2509 Pnt
1337 2509 Pnt
1340 2508 Pnt
1345 2508 Pnt
1352 2506 Pnt
1358 2503 Pnt
1359 2502 Pnt
1373 2493 Pnt
1391 2481 Pnt
1417 2464 Pnt
1443 2447 Pnt
1457 2438 Pnt
1465 2433 Pnt
1476 2426 Pnt
1482 2424 Pnt
1489 2428 Pnt
1490 2429 Pnt
1539 2476 Pnt
1546 2482 Pnt
1552 2485 Pnt
1554 2486 Pnt
1563 2489 Pnt
1571 2492 Pnt
1580 2496 Pnt
1588 2499 Pnt
1686 2536 Pnt
1820 2587 Pnt
1827 2591 Pnt
1833 2596 Pnt
1835 2597 Pnt
1844 2606 Pnt
1851 2613 Pnt
1882 2641 Pnt
1884 2643 Pnt
1890 2646 Pnt
1897 2645 Pnt
1907 2639 Pnt
1916 2634 Pnt
1930 2626 Pnt
1956 2611 Pnt
1982 2596 Pnt
1996 2588 Pnt
2004 2584 Pnt
2014 2578 Pnt
2014 2578 Pnt
2021 2575 Pnt
2027 2575 Pnt
2028 2575 Pnt
2030 2575 Pnt
2033 2575 Pnt
2055 2576 Pnt
2093 2579 Pnt
2137 2582 Pnt
2181 2584 Pnt
2231 2588 Pnt
2234 2588 Pnt
2236 2589 Pnt
2238 2589 Pnt
2293 2609 Pnt
2333 2623 Pnt
2354 2630 Pnt
2361 2633 Pnt
2372 2637 Pnt
2378 2638 Pnt
2385 2636 Pnt
2386 2635 Pnt
2395 2630 Pnt
2403 2626 Pnt
2433 2610 Pnt
2448 2602 Pnt
2464 2594 Pnt
2481 2585 Pnt
2485 2583 Pnt
2491 2579 Pnt
2498 2576 Pnt
2508 2570 Pnt
2512 2568 Pnt
2519 2565 Pnt
2525 2563 Pnt
2535 2561 Pnt
2543 2560 Pnt
2599 2547 Pnt
2630 2541 Pnt
2652 2536 Pnt
2660 2534 Pnt
2666 2533 Pnt
2674 2531 Pnt
2677 2531 Pnt
2679 2530 Pnt
2686 2529 Pnt
2693 2528 Pnt
2699 2527 Pnt
2700 2527 Pnt
2763 2525 Pnt
2771 2525 Pnt
2781 2525 Pnt
2787 2524 Pnt
2794 2523 Pnt
2795 2523 Pnt
2821 2516 Pnt
2841 2511 Pnt
2850 2509 Pnt
2856 2507 Pnt
2864 2505 Pnt
2866 2505 Pnt
2869 2504 Pnt
2876 2502 Pnt
2882 2502 Pnt
2889 2503 Pnt
2890 2503 Pnt
2925 2514 Pnt
2932 2516 Pnt
2943 2520 Pnt
2950 2521 Pnt
2956 2521 Pnt
2960 2521 Pnt
3011 2519 Pnt
3017 2519 Pnt
3024 2520 Pnt
3027 2521 Pnt
3045 2526 Pnt
3060 2529 Pnt
3068 2531 Pnt
3078 2534 Pnt
3085 2535 Pnt
3091 2536 Pnt
3095 2537 Pnt
3116 2541 Pnt
3124 2542 Pnt
3134 2544 Pnt
3137 2545 Pnt
3139 2545 Pnt
3146 2546 Pnt
3152 2547 Pnt
3159 2548 Pnt
3160 2548 Pnt
3222 2550 Pnt
3231 2551 Pnt
3241 2551 Pnt
3247 2552 Pnt
3254 2553 Pnt
3255 2553 Pnt
3269 2557 Pnt
3323 2571 Pnt
3326 2572 Pnt
3329 2572 Pnt
3372 2583 Pnt
3380 2585 Pnt
3396 2589 Pnt
3403 2590 Pnt
3409 2589 Pnt
3410 2589 Pnt
3428 2584 Pnt
3455 2576 Pnt
3473 2571 Pnt
3481 2569 Pnt
3491 2566 Pnt
3497 2565 Pnt
3504 2564 Pnt
3505 2564 Pnt
3522 2564 Pnt
3547 2564 Pnt
3568 2563 Pnt
3599 2563 Pnt
3608 2563 Pnt
3649 2562 Pnt
3650 2562 Pnt
3652 2562 Pnt
3701 2561 Pnt
3732 2560 Pnt
3751 2560 Pnt
3752 2560 Pnt
3754 2560 Pnt
3757 2560 Pnt
3787 2555 Pnt
3820 2550 Pnt
3880 2541 Pnt
3909 2537 Pnt
3917 2536 Pnt
3978 2527 Pnt
4005 2522 Pnt
4008 2522 Pnt
4010 2521 Pnt
4012 2521 Pnt
4030 2517 Pnt
4062 2510 Pnt
4085 2504 Pnt
4120 2496 Pnt
4239 2470 Pnt
4257 2465 Pnt
4259 2465 Pnt
4265 2464 Pnt
4272 2462 Pnt
4321 2451 Pnt
4329 2449 Pnt
4338 2447 Pnt
4346 2445 Pnt
4357 2443 Pnt
4363 2441 Pnt
4370 2438 Pnt
4371 2437 Pnt
4455 2394 Pnt
4461 2396 Pnt
4468 2407 Pnt
4469 2411 Pnt
4507 2507 Pnt
4521 2545 Pnt
4553 2624 Pnt
4559 2643 Pnt
4566 2667 Pnt
4567 2672 Pnt
4651 3025 Pnt
4657 3025 Pnt
4663 3069 Pnt
4665 3069 Pnt
4712 3202 Pnt
4755 3379 Pnt
4762 3379 Pnt
4768 3423 Pnt
4769 3423 Pnt
4825 3689 Pnt
4840 3777 Pnt
4853 3822 Pnt
4860 3866 Pnt
4866 3866 Pnt
4867 3866 Pnt
4898 3822 Pnt
4912 3822 Pnt
4918 3777 Pnt
4925 3777 Pnt
4926 3733 Pnt
4945 3645 Pnt
4997 3291 Pnt
5003 3291 Pnt
5010 3246 Pnt
5011 3246 Pnt
5037 3202 Pnt
5040 3202 Pnt
5043 3158 Pnt
5050 3158 Pnt
5070 3114 Pnt
5076 3114 Pnt
5083 3114 Pnt
5084 3114 Pnt
5102 3158 Pnt
5109 3158 Pnt
5117 3158 Pnt
5187 3246 Pnt
5194 3246 Pnt
5200 3202 Pnt
5202 3202 Pnt
5312 2646 Pnt
5318 2614 Pnt
5325 2584 Pnt
5326 2578 Pnt
5354 2451 Pnt
5374 2360 Pnt
5394 2269 Pnt
5436 2096 Pnt
5442 2051 Pnt
5449 2051 Pnt
5450 2051 Pnt
5520 2051 Pnt
5527 2051 Pnt
5535 2051 Pnt
5553 2051 Pnt
5560 2007 Pnt
5566 2007 Pnt
5568 2007 Pnt
5594 1919 Pnt
5596 1919 Pnt
5599 1919 Pnt
5606 1874 Pnt
5626 1830 Pnt
5633 1786 Pnt
5639 1742 Pnt
5641 1742 Pnt
5655 1653 Pnt
5711 1211 Pnt
5718 1211 Pnt
5724 1166 Pnt
5726 1166 Pnt
5751 1122 Pnt
5754 1122 Pnt
5758 1122 Pnt
5764 1122 Pnt
5785 1122 Pnt
5791 1122 Pnt
5797 1122 Pnt
5799 1166 Pnt
5816 1255 Pnt
5824 1299 Pnt
5831 1343 Pnt
5898 1697 Pnt
5918 1830 Pnt
5938 1919 Pnt
5967 2096 Pnt
5974 2117 Pnt
5980 2136 Pnt
5982 2138 Pnt
6009 2195 Pnt
6029 2236 Pnt
6049 2277 Pnt
6065 2309 Pnt
6078 2336 Pnt
6085 2351 Pnt
6091 2367 Pnt
6093 2370 Pnt
6116 2431 Pnt
6125 2454 Pnt
6134 2479 Pnt
6190 2624 Pnt
6196 2640 Pnt
6202 2655 Pnt
6204 2658 Pnt
6453 3202 Pnt
6479 3246 Pnt
6487 3291 Pnt
6494 3291 Pnt
6505 3291 Pnt
6511 3335 Pnt
6514 3335 Pnt
6518 3335 Pnt
6538 3379 Pnt
6552 3468 Pnt
6567 3600 Pnt
6574 3689 Pnt
6594 3954 Pnt
6600 4043 Pnt
6604 4087 Pnt
6607 4087 Pnt
6626 4353 Pnt
6641 4397 Pnt
6657 4131 Pnt
6664 3954 Pnt
6693 3246 Pnt
6711 2786 Pnt
6717 2655 Pnt
6721 2541 Pnt
6749 1874 Pnt
6762 1520 Pnt
2215 4148 Pnt
% End plot #2
% Begin plot #3
1.500 UP
3.000 UL
LT2
0.00 0.00 0.00 C LCb setrgbcolor
1752 3788 M
[ [(Symbol) 240.0 0.0 true true 0 (d)]
[(Helvetica) 192.0 -72.0 true true 0 (p)]
[(Helvetica) 240.0 0.0 true true 0 (=-1%)]
] -56.0 MRshow
LT2
0.00 0.00 0.00 C 1896 3788 M
639 0 V
904 2547 M
17 0 V
60 -1 V
6 0 V
7 0 V
3 -1 V
16 -1 V
46 -5 V
11 -1 V
3 0 V
10 -1 V
12 -1 V
3 0 V
2 -1 V
10 -1 V
20 -2 V
19 -2 V
13 -2 V
26 -3 V
27 -3 V
6 0 V
7 -1 V
32 -4 V
33 -3 V
31 -4 V
9 -1 V
2 0 V
2 0 V
3 -1 V
5 0 V
7 -2 V
6 -3 V
1 -1 V
14 -9 V
18 -12 V
26 -17 V
26 -17 V
14 -9 V
8 -5 V
11 -7 V
6 -2 V
7 4 V
1 1 V
49 47 V
7 6 V
6 3 V
2 1 V
9 3 V
8 3 V
9 4 V
8 3 V
98 37 V
134 51 V
7 4 V
6 5 V
2 1 V
9 9 V
7 7 V
31 28 V
2 2 V
6 3 V
7 -1 V
10 -6 V
9 -5 V
14 -8 V
26 -15 V
26 -15 V
14 -8 V
8 -4 V
10 -6 V
7 -3 V
6 0 V
1 0 V
2 0 V
3 0 V
22 1 V
38 3 V
44 3 V
44 2 V
50 4 V
3 0 V
2 1 V
2 0 V
55 20 V
40 14 V
21 7 V
7 3 V
11 4 V
6 1 V
7 -2 V
1 -1 V
9 -5 V
8 -4 V
30 -16 V
15 -8 V
16 -8 V
17 -9 V
4 -2 V
6 -4 V
7 -3 V
10 -6 V
4 -2 V
7 -3 V
stroke 2519 2565 M
6 -2 V
10 -2 V
8 -1 V
56 -13 V
31 -6 V
22 -5 V
8 -2 V
6 -1 V
8 -2 V
3 0 V
2 -1 V
7 -1 V
7 -1 V
6 -1 V
1 0 V
63 -2 V
8 0 V
10 0 V
6 -1 V
7 -1 V
1 0 V
26 -7 V
20 -5 V
9 -2 V
6 -2 V
8 -2 V
2 0 V
3 -1 V
7 -2 V
6 0 V
7 1 V
1 0 V
35 11 V
7 2 V
11 4 V
7 1 V
6 0 V
4 0 V
51 -2 V
6 0 V
7 1 V
3 1 V
18 5 V
15 3 V
8 2 V
10 3 V
7 1 V
6 1 V
4 1 V
21 4 V
8 1 V
10 2 V
3 1 V
2 0 V
7 1 V
6 1 V
7 1 V
1 0 V
62 2 V
9 1 V
10 0 V
6 1 V
7 1 V
1 0 V
14 4 V
54 14 V
3 1 V
3 0 V
43 11 V
8 2 V
16 4 V
7 1 V
6 -1 V
1 0 V
18 -5 V
27 -8 V
18 -5 V
8 -2 V
10 -3 V
6 -1 V
7 -1 V
1 0 V
17 0 V
25 0 V
21 -1 V
31 0 V
9 0 V
41 -1 V
1 0 V
2 0 V
49 -1 V
31 -1 V
19 0 V
1 0 V
2 0 V
3 0 V
30 -5 V
33 -5 V
60 -9 V
29 -4 V
8 -1 V
61 -9 V
27 -5 V
3 0 V
stroke 4008 2522 M
2 -1 V
2 0 V
18 -4 V
32 -7 V
23 -6 V
35 -8 V
119 -26 V
18 -5 V
2 0 V
6 -1 V
7 -2 V
49 -11 V
8 -2 V
9 -2 V
8 -2 V
11 -2 V
6 -2 V
7 -3 V
1 -1 V
84 -43 V
6 2 V
7 11 V
1 4 V
38 96 V
14 38 V
32 79 V
6 19 V
7 24 V
1 5 V
84 353 V
6 0 V
6 44 V
2 0 V
47 133 V
43 177 V
7 0 V
6 44 V
1 0 V
56 266 V
15 88 V
13 45 V
7 44 V
6 0 V
1 0 V
31 -44 V
14 0 V
6 -45 V
7 0 V
1 -44 V
19 -88 V
52 -354 V
6 0 V
7 -45 V
1 0 V
26 -44 V
3 0 V
3 -44 V
7 0 V
20 -44 V
6 0 V
7 0 V
1 0 V
18 44 V
7 0 V
8 0 V
70 88 V
7 0 V
6 -44 V
2 0 V
110 -556 V
6 -32 V
7 -30 V
1 -6 V
28 -127 V
20 -91 V
20 -91 V
42 -173 V
6 -45 V
7 0 V
1 0 V
70 0 V
7 0 V
8 0 V
18 0 V
7 -44 V
6 0 V
2 0 V
26 -88 V
2 0 V
3 0 V
7 -45 V
20 -44 V
7 -44 V
6 -44 V
2 0 V
14 -89 V
56 -442 V
7 0 V
6 -45 V
2 0 V
25 -44 V
3 0 V
4 0 V
6 0 V
stroke 5764 1122 M
21 0 V
6 0 V
6 0 V
2 44 V
17 89 V
8 44 V
7 44 V
67 354 V
20 133 V
20 89 V
29 177 V
7 21 V
6 19 V
2 2 V
27 57 V
20 41 V
20 41 V
16 32 V
13 27 V
7 15 V
6 16 V
2 3 V
23 61 V
9 23 V
9 25 V
56 145 V
6 16 V
6 15 V
2 3 V
249 544 V
26 44 V
8 45 V
7 0 V
11 0 V
6 44 V
3 0 V
4 0 V
20 44 V
14 89 V
15 132 V
7 89 V
20 265 V
6 89 V
4 44 V
3 0 V
19 266 V
15 44 V
16 -266 V
7 -177 V
29 -708 V
18 -460 V
6 -131 V
4 -114 V
28 -667 V
13 -354 V
5 -122 V
904 2547 Pnt
921 2547 Pnt
981 2546 Pnt
987 2546 Pnt
994 2546 Pnt
997 2545 Pnt
1013 2544 Pnt
1059 2539 Pnt
1070 2538 Pnt
1073 2538 Pnt
1083 2537 Pnt
1095 2536 Pnt
1098 2536 Pnt
1100 2535 Pnt
1110 2534 Pnt
1130 2532 Pnt
1149 2530 Pnt
1162 2528 Pnt
1188 2525 Pnt
1215 2522 Pnt
1221 2522 Pnt
1228 2521 Pnt
1260 2517 Pnt
1293 2514 Pnt
1324 2510 Pnt
1333 2509 Pnt
1335 2509 Pnt
1337 2509 Pnt
1340 2508 Pnt
1345 2508 Pnt
1352 2506 Pnt
1358 2503 Pnt
1359 2502 Pnt
1373 2493 Pnt
1391 2481 Pnt
1417 2464 Pnt
1443 2447 Pnt
1457 2438 Pnt
1465 2433 Pnt
1476 2426 Pnt
1482 2424 Pnt
1489 2428 Pnt
1490 2429 Pnt
1539 2476 Pnt
1546 2482 Pnt
1552 2485 Pnt
1554 2486 Pnt
1563 2489 Pnt
1571 2492 Pnt
1580 2496 Pnt
1588 2499 Pnt
1686 2536 Pnt
1820 2587 Pnt
1827 2591 Pnt
1833 2596 Pnt
1835 2597 Pnt
1844 2606 Pnt
1851 2613 Pnt
1882 2641 Pnt
1884 2643 Pnt
1890 2646 Pnt
1897 2645 Pnt
1907 2639 Pnt
1916 2634 Pnt
1930 2626 Pnt
1956 2611 Pnt
1982 2596 Pnt
1996 2588 Pnt
2004 2584 Pnt
2014 2578 Pnt
2014 2578 Pnt
2021 2575 Pnt
2027 2575 Pnt
2028 2575 Pnt
2030 2575 Pnt
2033 2575 Pnt
2055 2576 Pnt
2093 2579 Pnt
2137 2582 Pnt
2181 2584 Pnt
2231 2588 Pnt
2234 2588 Pnt
2236 2589 Pnt
2238 2589 Pnt
2293 2609 Pnt
2333 2623 Pnt
2354 2630 Pnt
2361 2633 Pnt
2372 2637 Pnt
2378 2638 Pnt
2385 2636 Pnt
2386 2635 Pnt
2395 2630 Pnt
2403 2626 Pnt
2433 2610 Pnt
2448 2602 Pnt
2464 2594 Pnt
2481 2585 Pnt
2485 2583 Pnt
2491 2579 Pnt
2498 2576 Pnt
2508 2570 Pnt
2512 2568 Pnt
2519 2565 Pnt
2525 2563 Pnt
2535 2561 Pnt
2543 2560 Pnt
2599 2547 Pnt
2630 2541 Pnt
2652 2536 Pnt
2660 2534 Pnt
2666 2533 Pnt
2674 2531 Pnt
2677 2531 Pnt
2679 2530 Pnt
2686 2529 Pnt
2693 2528 Pnt
2699 2527 Pnt
2700 2527 Pnt
2763 2525 Pnt
2771 2525 Pnt
2781 2525 Pnt
2787 2524 Pnt
2794 2523 Pnt
2795 2523 Pnt
2821 2516 Pnt
2841 2511 Pnt
2850 2509 Pnt
2856 2507 Pnt
2864 2505 Pnt
2866 2505 Pnt
2869 2504 Pnt
2876 2502 Pnt
2882 2502 Pnt
2889 2503 Pnt
2890 2503 Pnt
2925 2514 Pnt
2932 2516 Pnt
2943 2520 Pnt
2950 2521 Pnt
2956 2521 Pnt
2960 2521 Pnt
3011 2519 Pnt
3017 2519 Pnt
3024 2520 Pnt
3027 2521 Pnt
3045 2526 Pnt
3060 2529 Pnt
3068 2531 Pnt
3078 2534 Pnt
3085 2535 Pnt
3091 2536 Pnt
3095 2537 Pnt
3116 2541 Pnt
3124 2542 Pnt
3134 2544 Pnt
3137 2545 Pnt
3139 2545 Pnt
3146 2546 Pnt
3152 2547 Pnt
3159 2548 Pnt
3160 2548 Pnt
3222 2550 Pnt
3231 2551 Pnt
3241 2551 Pnt
3247 2552 Pnt
3254 2553 Pnt
3255 2553 Pnt
3269 2557 Pnt
3323 2571 Pnt
3326 2572 Pnt
3329 2572 Pnt
3372 2583 Pnt
3380 2585 Pnt
3396 2589 Pnt
3403 2590 Pnt
3409 2589 Pnt
3410 2589 Pnt
3428 2584 Pnt
3455 2576 Pnt
3473 2571 Pnt
3481 2569 Pnt
3491 2566 Pnt
3497 2565 Pnt
3504 2564 Pnt
3505 2564 Pnt
3522 2564 Pnt
3547 2564 Pnt
3568 2563 Pnt
3599 2563 Pnt
3608 2563 Pnt
3649 2562 Pnt
3650 2562 Pnt
3652 2562 Pnt
3701 2561 Pnt
3732 2560 Pnt
3751 2560 Pnt
3752 2560 Pnt
3754 2560 Pnt
3757 2560 Pnt
3787 2555 Pnt
3820 2550 Pnt
3880 2541 Pnt
3909 2537 Pnt
3917 2536 Pnt
3978 2527 Pnt
4005 2522 Pnt
4008 2522 Pnt
4010 2521 Pnt
4012 2521 Pnt
4030 2517 Pnt
4062 2510 Pnt
4085 2504 Pnt
4120 2496 Pnt
4239 2470 Pnt
4257 2465 Pnt
4259 2465 Pnt
4265 2464 Pnt
4272 2462 Pnt
4321 2451 Pnt
4329 2449 Pnt
4338 2447 Pnt
4346 2445 Pnt
4357 2443 Pnt
4363 2441 Pnt
4370 2438 Pnt
4371 2437 Pnt
4455 2394 Pnt
4461 2396 Pnt
4468 2407 Pnt
4469 2411 Pnt
4507 2507 Pnt
4521 2545 Pnt
4553 2624 Pnt
4559 2643 Pnt
4566 2667 Pnt
4567 2672 Pnt
4651 3025 Pnt
4657 3025 Pnt
4663 3069 Pnt
4665 3069 Pnt
4712 3202 Pnt
4755 3379 Pnt
4762 3379 Pnt
4768 3423 Pnt
4769 3423 Pnt
4825 3689 Pnt
4840 3777 Pnt
4853 3822 Pnt
4860 3866 Pnt
4866 3866 Pnt
4867 3866 Pnt
4898 3822 Pnt
4912 3822 Pnt
4918 3777 Pnt
4925 3777 Pnt
4926 3733 Pnt
4945 3645 Pnt
4997 3291 Pnt
5003 3291 Pnt
5010 3246 Pnt
5011 3246 Pnt
5037 3202 Pnt
5040 3202 Pnt
5043 3158 Pnt
5050 3158 Pnt
5070 3114 Pnt
5076 3114 Pnt
5083 3114 Pnt
5084 3114 Pnt
5102 3158 Pnt
5109 3158 Pnt
5117 3158 Pnt
5187 3246 Pnt
5194 3246 Pnt
5200 3202 Pnt
5202 3202 Pnt
5312 2646 Pnt
5318 2614 Pnt
5325 2584 Pnt
5326 2578 Pnt
5354 2451 Pnt
5374 2360 Pnt
5394 2269 Pnt
5436 2096 Pnt
5442 2051 Pnt
5449 2051 Pnt
5450 2051 Pnt
5520 2051 Pnt
5527 2051 Pnt
5535 2051 Pnt
5553 2051 Pnt
5560 2007 Pnt
5566 2007 Pnt
5568 2007 Pnt
5594 1919 Pnt
5596 1919 Pnt
5599 1919 Pnt
5606 1874 Pnt
5626 1830 Pnt
5633 1786 Pnt
5639 1742 Pnt
5641 1742 Pnt
5655 1653 Pnt
5711 1211 Pnt
5718 1211 Pnt
5724 1166 Pnt
5726 1166 Pnt
5751 1122 Pnt
5754 1122 Pnt
5758 1122 Pnt
5764 1122 Pnt
5785 1122 Pnt
5791 1122 Pnt
5797 1122 Pnt
5799 1166 Pnt
5816 1255 Pnt
5824 1299 Pnt
5831 1343 Pnt
5898 1697 Pnt
5918 1830 Pnt
5938 1919 Pnt
5967 2096 Pnt
5974 2117 Pnt
5980 2136 Pnt
5982 2138 Pnt
6009 2195 Pnt
6029 2236 Pnt
6049 2277 Pnt
6065 2309 Pnt
6078 2336 Pnt
6085 2351 Pnt
6091 2367 Pnt
6093 2370 Pnt
6116 2431 Pnt
6125 2454 Pnt
6134 2479 Pnt
6190 2624 Pnt
6196 2640 Pnt
6202 2655 Pnt
6204 2658 Pnt
6453 3202 Pnt
6479 3246 Pnt
6487 3291 Pnt
6494 3291 Pnt
6505 3291 Pnt
6511 3335 Pnt
6514 3335 Pnt
6518 3335 Pnt
6538 3379 Pnt
6552 3468 Pnt
6567 3600 Pnt
6574 3689 Pnt
6594 3954 Pnt
6600 4043 Pnt
6604 4087 Pnt
6607 4087 Pnt
6626 4353 Pnt
6641 4397 Pnt
6657 4131 Pnt
6664 3954 Pnt
6693 3246 Pnt
6711 2786 Pnt
6717 2655 Pnt
6721 2541 Pnt
6749 1874 Pnt
6762 1520 Pnt
2215 3788 Pnt
% End plot #3
1.000 UL
LTb
LCb setrgbcolor
888 4751 N
888 768 L
5879 0 V
0 3983 V
-5879 0 V
Z stroke
1.000 UP
1.000 UL
LTb
LCb setrgbcolor
stroke
grestore
end
showpage
%%Trailer
%%DocumentFonts: Italic Symbol Helvetica
