     1.0676113e-01	     1.2119764e-01	     1.3758630e-01	     1.5619108e-01	     1.7731164e-01	     2.0128817e-01	     2.2850688e-01	     2.5940617e-01	     2.9448374e-01	     3.3430459e-01	     3.7951012e-01	     4.3082846e-01	     4.8908619e-01	     5.5522169e-01	     6.3030020e-01	     7.1553102e-01	     8.1228697e-01	     9.2212651e-01	     1.0468188e+00	     1.1883724e+00	     1.3490672e+00	     1.5314915e+00	     1.7385837e+00	     1.9736795e+00	     2.2405655e+00	     2.5435406e+00	     2.8874847e+00	     3.2779378e+00	     3.7211890e+00	     4.2243778e+00	     4.7956091e+00	     5.4440837e+00	     6.1802467e+00	     7.0159556e+00	     7.9646712e+00	     9.0416746e+00	     1.0264313e+01	     1.1652280e+01	     1.3227931e+01	     1.5016646e+01	     1.7047236e+01	     1.9352407e+01	     2.1969290e+01	     2.4940034e+01	     2.8312490e+01	     3.2140977e+01	     3.6487163e+01	     4.1421052e+01	     4.7022113e+01	
     4.7194455e-11	     6.1801642e-11	     8.0480119e-11	     1.0426649e-10	     1.3459999e-10	     1.7350594e-10	     2.2351649e-10	     2.8631979e-10	     3.5770311e-10	     4.1882682e-10	     4.4213711e-10	     4.2395485e-10	     3.8852227e-10	     3.5855669e-10	     3.4686778e-10	     3.6345549e-10	     4.2060405e-10	     5.3536544e-10	     7.3443463e-10	     1.0656105e-09	     1.6210422e-09	     2.5867737e-09	     4.3490153e-09	     7.6436471e-09	     1.3136224e-08	     1.9361287e-08	     2.4634359e-08	     2.9153616e-08	     2.5323246e-08	     1.5511488e-08	     9.3557308e-09	     6.2287842e-09	     4.6604230e-09	     4.0157392e-09	     4.2329202e-09	     5.3078971e-09	     6.6425382e-09	     7.3091405e-09	     6.8662833e-09	     6.4024682e-09	     5.6130748e-09	     3.6262752e-09	     2.5015563e-09	     1.9557609e-09	     1.3732337e-09	     1.1092850e-09	     8.8146431e-10	     6.8923233e-10	     5.6932757e-10	
     4.5316743e-11	     5.9342787e-11	     7.7278164e-11	     1.0011825e-10	     1.2924507e-10	     1.6660341e-10	     2.1462478e-10	     2.7493031e-10	     3.4347509e-10	     4.0216912e-10	     4.2455480e-10	     4.0709965e-10	     3.7308332e-10	     3.4432411e-10	     3.3313260e-10	     3.4913117e-10	     4.0415063e-10	     5.1462661e-10	     7.0631482e-10	     1.0253755e-09	     1.5608812e-09	     2.4928677e-09	     4.1956436e-09	     7.3843060e-09	     1.2713117e-08	     1.8780574e-08	     2.3967416e-08	     2.8475469e-08	     2.4857318e-08	     1.5329670e-08	     9.3354062e-09	     6.3025443e-09	     4.7947173e-09	     4.1314350e-09	     4.1786905e-09	     5.0774762e-09	     6.4844946e-09	     7.4897643e-09	     7.1987061e-09	     6.1976413e-09	     5.4382743e-09	     3.8139257e-09	     2.4162361e-09	     1.9833653e-09	     1.3546390e-09	     1.1385549e-09	     8.5145657e-10	     6.9348963e-10	     5.7719275e-10	
     4.3439023e-11	     5.6883916e-11	     7.4076184e-11	     9.5969980e-11	     1.2389009e-10	     1.5970077e-10	     2.0573287e-10	     2.6354051e-10	     3.2924653e-10	     3.8551061e-10	     4.0697132e-10	     3.9024285e-10	     3.5764197e-10	     3.3008744e-10	     3.1938940e-10	     3.3479029e-10	     3.8766316e-10	     4.9381990e-10	     6.7806223e-10	     9.8488035e-10	     1.5002009e-09	     2.3978871e-09	     4.0399426e-09	     7.1197051e-09	     1.2278445e-08	     1.8178152e-08	     2.3265320e-08	     2.7744684e-08	     2.4334352e-08	     1.5104539e-08	     9.2835192e-09	     6.3538351e-09	     4.9214171e-09	     4.2746670e-09	     4.1872339e-09	     4.8662616e-09	     6.2495636e-09	     7.5501201e-09	     7.5783963e-09	     6.1933017e-09	     5.1610443e-09	     3.9353538e-09	     2.4360678e-09	     1.9268230e-09	     1.4018970e-09	     1.1153217e-09	     8.4498435e-10	     7.1368831e-10	     5.7609834e-10	
     4.1561237e-11	     5.4424957e-11	     7.0874083e-11	     9.1821540e-11	     1.1853487e-10	     1.5279780e-10	     1.9684051e-10	     2.5215005e-10	     3.1501704e-10	     3.6885082e-10	     3.8938620e-10	     3.7338399e-10	     3.4219787e-10	     3.1584640e-10	     3.0563811e-10	     3.2043306e-10	     3.7114252e-10	     4.7294737e-10	     6.4968120e-10	     9.4413404e-10	     1.4390189e-09	     2.3018685e-09	     3.8819904e-09	     6.8500143e-09	     1.1832560e-08	     1.7554618e-08	     2.2528898e-08	     2.6962198e-08	     2.3754904e-08	     1.4835952e-08	     9.1991644e-09	     6.3804103e-09	     5.0351461e-09	     4.4358490e-09	     4.2615000e-09	     4.7041918e-09	     5.9627898e-09	     7.4743349e-09	     7.9129797e-09	     6.4047494e-09	     4.8830645e-09	     3.9262145e-09	     2.5566490e-09	     1.8243796e-09	     1.4718068e-09	     1.0638467e-09	     8.7762539e-10	     7.1017788e-10	     5.6316918e-10	
     3.9683499e-11	     5.1966057e-11	     6.7672055e-11	     8.7673185e-11	     1.1317975e-10	     1.4589494e-10	     1.8794823e-10	     2.4075963e-10	     3.0078749e-10	     3.5219078e-10	     3.7180053e-10	     3.5652416e-10	     3.2675203e-10	     3.0160203e-10	     2.9187988e-10	     3.0606104e-10	     3.5459105e-10	     4.5201296e-10	     6.2117869e-10	     9.0314911e-10	     1.3773590e-09	     2.2048580e-09	     3.7218813e-09	     6.5754327e-09	     1.1375867e-08	     1.6910663e-08	     2.1759116e-08	     2.6129168e-08	     2.3119793e-08	     1.4524015e-08	     9.0816909e-09	     6.3803526e-09	     5.1309819e-09	     4.6044501e-09	     4.3962662e-09	     4.6188961e-09	     5.6607722e-09	     7.2655681e-09	     8.1249478e-09	     6.7671525e-09	     4.7249930e-09	     3.7798005e-09	     2.7028941e-09	     1.7597431e-09	     1.4907137e-09	     1.0512593e-09	     9.0111138e-10	     6.8336849e-10	     5.6870325e-10	
     3.7680570e-11	     4.9343216e-11	     6.4256533e-11	     8.3248231e-11	     1.0746756e-10	     1.3853176e-10	     1.7846294e-10	     2.2860953e-10	     2.8560878e-10	     3.3441928e-10	     3.5304137e-10	     3.3853879e-10	     3.1027416e-10	     2.8640407e-10	     2.7719668e-10	     2.9071483e-10	     3.3690317e-10	     4.2961710e-10	     5.9064712e-10	     8.5917904e-10	     1.3110822e-09	     2.1003298e-09	     3.5488127e-09	     6.2773578e-09	     1.0877243e-08	     1.6202019e-08	     2.0902345e-08	     2.5186274e-08	     2.2382090e-08	     1.4143839e-08	     8.9194173e-09	     6.3491555e-09	     5.2085539e-09	     4.7805970e-09	     4.5926029e-09	     4.6335823e-09	     5.3741567e-09	     6.9232427e-09	     8.1595226e-09	     7.1886283e-09	     4.7808834e-09	     3.5387959e-09	     2.7811045e-09	     1.8004539e-09	     1.4258590e-09	     1.1045457e-09	     8.6883791e-10	     6.8718494e-10	     5.8584688e-10	
     3.5802816e-11	     4.6884290e-11	     6.1054459e-11	     7.9099800e-11	     1.0211231e-10	     1.3162869e-10	     1.6957031e-10	     2.1721853e-10	     2.7137829e-10	     3.1775780e-10	     3.3545365e-10	     3.2167612e-10	     2.9482410e-10	     2.7215245e-10	     2.6342426e-10	     2.7631343e-10	     3.2029131e-10	     4.0856217e-10	     5.6190855e-10	     8.1773098e-10	     1.2484948e-09	     2.0013938e-09	     3.3845111e-09	     5.9932522e-09	     1.0399444e-08	     1.5518026e-08	     2.0066804e-08	     2.4252847e-08	     2.1635267e-08	     1.3743501e-08	     8.7324481e-09	     6.2893984e-09	     5.2541398e-09	     4.9317849e-09	     4.8077097e-09	     4.7505674e-09	     5.1920080e-09	     6.5386648e-09	     7.9939708e-09	     7.4893066e-09	     5.0334210e-09	     3.3503844e-09	     2.7263303e-09	     1.9161450e-09	     1.3445945e-09	     1.1532379e-09	     8.3117722e-10	     7.2018971e-10	     5.6961111e-10	
     3.4676160e-11	     4.5408928e-11	     5.9133205e-11	     7.6610725e-11	     9.8899133e-11	     1.2748679e-10	     1.6423466e-10	     2.1038381e-10	     2.6283979e-10	     3.0776060e-10	     3.2490058e-10	     3.1155790e-10	     2.8555315e-10	     2.6359990e-10	     2.5515774e-10	     2.6766622e-10	     3.1031110e-10	     3.9590305e-10	     5.4461416e-10	     7.9276155e-10	     1.2107407e-09	     1.9416130e-09	     3.2850160e-09	     5.8207078e-09	     1.0108140e-08	     1.5098826e-08	     1.9550947e-08	     2.3670458e-08	     2.1162105e-08	     1.3483198e-08	     8.6041016e-09	     6.2389643e-09	     5.2674829e-09	     5.0121525e-09	     4.9430166e-09	     4.8639318e-09	     5.1419645e-09	     6.3063480e-09	     7.8088471e-09	     7.5858564e-09	     5.2370366e-09	     3.3049567e-09	     2.6391036e-09	     1.9825037e-09	     1.3257548e-09	     1.1497115e-09	     8.3577812e-10	     7.2489800e-10	     5.5613928e-10	
     3.3048764e-11	     4.3277843e-11	     5.6358047e-11	     7.3015374e-11	     9.4257845e-11	     1.2150400e-10	     1.5652751e-10	     2.0051127e-10	     2.5050615e-10	     2.9331980e-10	     3.0965668e-10	     2.9694191e-10	     2.7216061e-10	     2.5124423e-10	     2.4321331e-10	     2.5516774e-10	     2.9587862e-10	     3.7758448e-10	     5.1956834e-10	     7.5656685e-10	     1.1559508e-09	     1.8547302e-09	     3.1401379e-09	     5.5688263e-09	     9.6814674e-09	     1.4482060e-08	     1.8787196e-08	     2.2800506e-08	     2.0446257e-08	     1.3081053e-08	     8.3974341e-09	     6.1464577e-09	     5.2667556e-09	     5.1103242e-09	     5.1367491e-09	     5.0725246e-09	     5.1625268e-09	     6.0108517e-09	     7.4526416e-09	     7.5858063e-09	     5.5282712e-09	     3.3613970e-09	     2.4817713e-09	     2.0249509e-09	     1.3627554e-09	     1.0986215e-09	     8.7795832e-10	     6.9697033e-10	     5.6334624e-10	
     3.2286132e-11	     4.2279170e-11	     5.5057548e-11	     7.1330512e-11	     9.2082831e-11	     1.1870032e-10	     1.5291575e-10	     1.9588473e-10	     2.4472626e-10	     2.8655240e-10	     3.0251287e-10	     2.9009226e-10	     2.6588415e-10	     2.4545334e-10	     2.3761438e-10	     2.4930752e-10	     2.8910873e-10	     3.6898697e-10	     5.0780579e-10	     7.3955503e-10	     1.1301743e-09	     1.8138053e-09	     3.0717869e-09	     5.4497443e-09	     9.4791915e-09	     1.4188583e-08	     1.8421910e-08	     2.2381425e-08	     2.0097892e-08	     1.2882131e-08	     8.2919965e-09	     6.0950405e-09	     5.2578988e-09	     5.1478796e-09	     5.2239158e-09	     5.1836325e-09	     5.2109811e-09	     5.9024455e-09	     7.2618186e-09	     7.5260642e-09	     5.6420522e-09	     3.4344354e-09	     2.4145080e-09	     2.0146667e-09	     1.4007203e-09	     1.0675521e-09	     8.9922918e-10	     6.8008964e-10	     5.7640390e-10	
     3.1646695e-11	     4.1441824e-11	     5.3967131e-11	     6.9917821e-11	     9.0259166e-11	     1.1634955e-10	     1.4988741e-10	     1.9200555e-10	     2.3988001e-10	     2.8087814e-10	     2.9652297e-10	     2.8434897e-10	     2.6062137e-10	     2.4059754e-10	     2.3291918e-10	     2.4439245e-10	     2.8342935e-10	     3.6177210e-10	     4.9793116e-10	     7.2526734e-10	     1.1085137e-09	     1.7793913e-09	     3.0142583e-09	     5.3493989e-09	     9.3084762e-09	     1.3940381e-08	     1.8112091e-08	     2.2024554e-08	     1.9799576e-08	     1.2710271e-08	     8.1994023e-09	     6.0479425e-09	     5.2461438e-09	     5.1747643e-09	     5.2940567e-09	     5.2811110e-09	     5.2699056e-09	     5.8318545e-09	     7.0967401e-09	     7.4473469e-09	     5.7185800e-09	     3.5128943e-09	     2.3701212e-09	     1.9908381e-09	     1.4363860e-09	     1.0454131e-09	     9.1082106e-10	     6.7086229e-10	     5.8682287e-10	
     3.1040494e-11	     4.0647998e-11	     5.2933388e-11	     6.8578553e-11	     8.8530281e-11	     1.1412094e-10	     1.4701647e-10	     1.8832796e-10	     2.3528561e-10	     2.7549874e-10	     2.9084432e-10	     2.7890406e-10	     2.5563196e-10	     2.3599381e-10	     2.2846741e-10	     2.3973160e-10	     2.7804258e-10	     3.5492708e-10	     4.8855970e-10	     7.1170245e-10	     1.0879391e-09	     1.7466832e-09	     2.9595389e-09	     5.2538557e-09	     9.1457118e-09	     1.3703314e-08	     1.7815441e-08	     2.1681680e-08	     1.9511590e-08	     1.2543118e-08	     8.1081161e-09	     5.9999295e-09	     5.2312856e-09	     5.1961464e-09	     5.3574637e-09	     5.3758732e-09	     5.3401512e-09	     5.7846608e-09	     6.9403721e-09	     7.3500556e-09	     5.7718820e-09	     3.5969833e-09	     2.3424777e-09	     1.9569503e-09	     1.4689191e-09	     1.0317382e-09	     9.1373969e-10	     6.6909400e-10	     5.9243575e-10	
     2.9393364e-11	     3.8491067e-11	     5.0124567e-11	     6.4939577e-11	     8.3832658e-11	     1.0806550e-10	     1.3921567e-10	     1.7833538e-10	     2.2280185e-10	     2.6088195e-10	     2.7541428e-10	     2.6410900e-10	     2.4207422e-10	     2.2348344e-10	     2.1636852e-10	     2.2706151e-10	     2.6339378e-10	     3.3630378e-10	     4.6304817e-10	     6.7475045e-10	     1.0318457e-09	     1.6574159e-09	     2.8099950e-09	     4.9922779e-09	     8.6990497e-09	     1.3050723e-08	     1.6995337e-08	     2.0728182e-08	     1.8704186e-08	     1.2068528e-08	     7.8430492e-09	     5.8529472e-09	     5.1722515e-09	     5.2326126e-09	     5.5105877e-09	     5.6359288e-09	     5.5910608e-09	     5.7663590e-09	     6.5510640e-09	     6.9922315e-09	     5.8061934e-09	     3.8345990e-09	     2.3561803e-09	     1.8317884e-09	     1.5222516e-09	     1.0458345e-09	     8.7995129e-10	     6.9894078e-10	     5.7589298e-10	
     2.7014838e-11	     3.5376363e-11	     4.6068500e-11	     5.9684720e-11	     7.7049050e-11	     9.9321110e-11	     1.2795086e-10	     1.6390542e-10	     2.0477436e-10	     2.3977403e-10	     2.5313170e-10	     2.4274296e-10	     2.2249425e-10	     2.0541440e-10	     1.9889021e-10	     2.0875081e-10	     2.4221026e-10	     3.0935091e-10	     4.2609064e-10	     6.2115852e-10	     9.5037909e-10	     1.5275399e-09	     2.5919236e-09	     4.6096905e-09	     8.0431880e-09	     1.2087506e-08	     1.5776293e-08	     1.9297081e-08	     1.7476272e-08	     1.1332132e-08	     7.4173119e-09	     5.5983183e-09	     5.0376097e-09	     5.2243907e-09	     5.6678017e-09	     5.9834028e-09	     6.0516302e-09	     6.0321109e-09	     6.2285587e-09	     6.3558613e-09	     5.5554003e-09	     4.0553532e-09	     2.5745493e-09	     1.7029490e-09	     1.4544268e-09	     1.1499423e-09	     8.1472488e-10	     7.3362905e-10	     5.4906264e-10	
     2.4636200e-11	     3.2261509e-11	     4.2012232e-11	     5.4429593e-11	     7.0265077e-11	     9.0576224e-11	     1.1668536e-10	     1.4947452e-10	     1.8674558e-10	     2.1866442e-10	     2.3084703e-10	     2.2137444e-10	     2.0291113e-10	     1.8734062e-10	     1.8140340e-10	     1.9042327e-10	     2.2099282e-10	     2.8233092e-10	     3.8900212e-10	     5.6730980e-10	     8.6839754e-10	     1.3965917e-09	     2.3715062e-09	     4.2217354e-09	     7.3753141e-09	     1.1101201e-08	     1.4518646e-08	     1.7805617e-08	     1.6179031e-08	     1.0538253e-08	     6.9426883e-09	     5.2944965e-09	     4.8434765e-09	     5.1379068e-09	     5.7301348e-09	     6.2484576e-09	     6.5275829e-09	     6.5606485e-09	     6.3599954e-09	     5.8647646e-09	     5.0439576e-09	     3.9848657e-09	     2.8153862e-09	     1.8001121e-09	     1.3072256e-09	     1.1617539e-09	     8.7611561e-10	     6.7009204e-10	     5.9770833e-10	
     2.3028500e-11	     3.0156206e-11	     3.9270632e-11	     5.0877689e-11	     6.5679829e-11	     8.4665593e-11	     1.0907104e-10	     1.3972067e-10	     1.7455986e-10	     2.0439625e-10	     2.1578449e-10	     2.0693089e-10	     1.8967391e-10	     1.7512269e-10	     1.6958023e-10	     1.7802752e-10	     2.0663495e-10	     2.6403394e-10	     3.6386679e-10	     5.3078101e-10	     8.1271962e-10	     1.3075270e-09	     2.2213043e-09	     3.9567141e-09	     6.9176103e-09	     1.0422439e-08	     1.3648275e-08	     1.6765630e-08	     1.5265412e-08	     9.9709509e-09	     6.5955018e-09	     5.0621066e-09	     4.6785276e-09	     5.0328106e-09	     5.7102983e-09	     6.3585464e-09	     6.8054935e-09	     6.9808157e-09	     6.7044150e-09	     5.7875591e-09	     4.6846514e-09	     3.7682352e-09	     2.8650233e-09	     1.9495000e-09	     1.2901687e-09	     1.0818628e-09	     9.2846121e-10	     6.6298061e-10	     5.8545882e-10	
     2.2382844e-11	     2.9310711e-11	     3.8169598e-11	     4.9451234e-11	     6.3838378e-11	     8.2291860e-11	     1.0601309e-10	     1.3580348e-10	     1.6966599e-10	     1.9866604e-10	     2.0973522e-10	     2.0113017e-10	     1.8435757e-10	     1.7021551e-10	     1.6483117e-10	     1.7304758e-10	     2.0086513e-10	     2.5667851e-10	     3.5375798e-10	     5.1608262e-10	     7.9030222e-10	     1.2716393e-09	     2.1607216e-09	     3.8496813e-09	     6.7324492e-09	     1.0147249e-08	     1.3294369e-08	     1.6341106e-08	     1.4890559e-08	     9.7364689e-09	     6.4503200e-09	     4.9628173e-09	     4.6046993e-09	     4.9798059e-09	     5.6872788e-09	     6.3841679e-09	     6.8998047e-09	     7.1482065e-09	     6.8848471e-09	     5.8316388e-09	     4.5693354e-09	     3.6550900e-09	     2.8480848e-09	     2.0046459e-09	     1.3148512e-09	     1.0447737e-09	     9.3094053e-10	     6.8033178e-10	     5.6697573e-10	
     2.1601485e-11	     2.8287511e-11	     3.6837150e-11	     4.7724967e-11	     6.1609890e-11	     7.9419214e-11	     1.0231242e-10	     1.3106295e-10	     1.6374351e-10	     1.9173141e-10	     2.0241445e-10	     1.9411014e-10	     1.7792367e-10	     1.6427664e-10	     1.5908333e-10	     1.6701967e-10	     1.9387993e-10	     2.4777173e-10	     3.4151396e-10	     4.9827415e-10	     7.6313133e-10	     1.2281214e-09	     2.0872138e-09	     3.7197121e-09	     6.5073816e-09	     9.8123092e-09	     1.2862865e-08	     1.5822294e-08	     1.4431055e-08	     9.4477769e-09	     6.2703479e-09	     4.8381963e-09	     4.5096093e-09	     4.9073456e-09	     5.6475288e-09	     6.3997579e-09	     6.9975713e-09	     7.3424381e-09	     7.1236263e-09	     5.9419887e-09	     4.4689323e-09	     3.5096452e-09	     2.7989194e-09	     2.0559182e-09	     1.3643060e-09	     1.0096525e-09	     9.1571465e-10	     7.0952332e-10	     5.4589936e-10	
     2.0980752e-11	     2.7474653e-11	     3.5778617e-11	     4.6353573e-11	     5.9839517e-11	     7.7137102e-11	     9.9372496e-11	     1.2729693e-10	     1.5903851e-10	     1.8622232e-10	     1.9659856e-10	     1.8853314e-10	     1.7281226e-10	     1.5955839e-10	     1.5451661e-10	     1.6222994e-10	     1.8832867e-10	     2.4069188e-10	     3.3177898e-10	     4.8411087e-10	     7.4151435e-10	     1.1934834e-09	     2.0286719e-09	     3.6161272e-09	     6.3278316e-09	     9.5447748e-09	     1.2517629e-08	     1.5406291e-08	     1.4061551e-08	     9.2146798e-09	     6.1241083e-09	     4.7357710e-09	     4.4296296e-09	     4.8432925e-09	     5.6065286e-09	     6.3995944e-09	     7.0610356e-09	     7.4867265e-09	     7.3225605e-09	     6.0701818e-09	     4.4271327e-09	     3.3953547e-09	     2.7393081e-09	     2.0799800e-09	     1.4127008e-09	     9.9608467e-10	     8.9129605e-10	     7.3157522e-10	     5.3767250e-10	
     1.9353322e-11	     2.5343509e-11	     3.3003362e-11	     4.2758059e-11	     5.5197959e-11	     7.1153861e-11	     9.1664597e-11	     1.1742315e-10	     1.4670285e-10	     1.7177844e-10	     1.8135028e-10	     1.7391108e-10	     1.5941068e-10	     1.4718719e-10	     1.4254175e-10	     1.4966833e-10	     1.7376625e-10	     2.2211367e-10	     3.0622384e-10	     4.4691459e-10	     6.8471207e-10	     1.1024042e-09	     1.8746040e-09	     3.3432090e-09	     5.8540749e-09	     8.8375281e-09	     1.1602675e-08	     1.4300127e-08	     1.3074786e-08	     8.5883713e-09	     5.7274477e-09	     4.4532546e-09	     4.2016375e-09	     4.6482288e-09	     5.4588543e-09	     6.3438204e-09	     7.1600939e-09	     7.8035708e-09	     7.8422890e-09	     6.5343701e-09	     4.5014227e-09	     3.1574281e-09	     2.5216549e-09	     2.0575522e-09	     1.5315635e-09	     1.0376918e-09	     8.1138534e-10	     7.4474751e-10	     5.6816845e-10	
     1.8590674e-11	     2.4344811e-11	     3.1702820e-11	     4.1073125e-11	     5.3022824e-11	     6.8349982e-11	     8.8052500e-11	     1.1279606e-10	     1.4092206e-10	     1.6500966e-10	     1.7420450e-10	     1.6705870e-10	     1.5313017e-10	     1.4138933e-10	     1.3692919e-10	     1.4377982e-10	     1.6693814e-10	     2.1339980e-10	     2.9423297e-10	     4.2945369e-10	     6.5803305e-10	     1.0595965e-09	     1.8021277e-09	     3.2146775e-09	     5.6306307e-09	     8.5033273e-09	     1.1169238e-08	     1.3774375e-08	     1.2603778e-08	     8.2876143e-09	     5.5352082e-09	     4.3141177e-09	     4.0858845e-09	     4.5434439e-09	     5.3694958e-09	     6.2891299e-09	     7.1698259e-09	     7.9131266e-09	     8.0662831e-09	     6.7895558e-09	     4.6255016e-09	     3.1040552e-09	     2.4086527e-09	     2.0041927e-09	     1.5629180e-09	     1.0867033e-09	     7.9064692e-10	     7.2209684e-10	     5.9422012e-10	
     1.7951226e-11	     2.3507444e-11	     3.0612367e-11	     3.9660375e-11	     5.1199060e-11	     6.5999039e-11	     8.5023895e-11	     1.0891643e-10	     1.3607508e-10	     1.5933427e-10	     1.6821299e-10	     1.6131319e-10	     1.4786409e-10	     1.3652785e-10	     1.3222286e-10	     1.3884168e-10	     1.6121124e-10	     2.0608995e-10	     2.8417202e-10	     4.1479945e-10	     6.3563563e-10	     1.0236452e-09	     1.7412298e-09	     3.1066115e-09	     5.4426121e-09	     8.2218170e-09	     1.0803632e-08	     1.3330093e-08	     1.2204824e-08	     8.0320279e-09	     5.3710233e-09	     4.1942566e-09	     3.9845646e-09	     4.4491102e-09	     5.2846587e-09	     6.2288849e-09	     7.1586738e-09	     7.9823244e-09	     8.2362113e-09	     7.0083264e-09	     4.7655558e-09	     3.0981434e-09	     2.3212545e-09	     1.9420449e-09	     1.5702923e-09	     1.1314470e-09	     7.9154811e-10	     6.9375436e-10	     6.0899780e-10	
     1.7345012e-11	     2.2713598e-11	     2.9578591e-11	     3.8321052e-11	     4.9470084e-11	     6.3770283e-11	     8.2152697e-11	     1.0523842e-10	     1.3148000e-10	     1.5395384e-10	     1.6253286e-10	     1.5586623e-10	     1.4287161e-10	     1.3191887e-10	     1.2776080e-10	     1.3415948e-10	     1.5578052e-10	     1.9915711e-10	     2.7462821e-10	     4.0089551e-10	     6.1437944e-10	     9.8951457e-10	     1.6833921e-09	     3.0039204e-09	     5.2638213e-09	     7.9538837e-09	     1.0455247e-08	     1.2906083e-08	     1.1823317e-08	     7.7869392e-09	     5.2129185e-09	     4.0779988e-09	     3.8849916e-09	     4.3542996e-09	     5.1959180e-09	     6.1595356e-09	     7.1312850e-09	     8.0272008e-09	     8.3782307e-09	     7.2123821e-09	     4.9214498e-09	     3.1274312e-09	     2.2527453e-09	     1.8727621e-09	     1.5597035e-09	     1.1697563e-09	     8.0883011e-10	     6.6589242e-10	     6.1150991e-10	
     1.4445872e-11	     1.8917128e-11	     2.4634678e-11	     3.1915895e-11	     4.1201448e-11	     5.3111490e-11	     6.8421463e-11	     8.7648678e-11	     1.0950436e-10	     1.2822218e-10	     1.3536773e-10	     1.2981603e-10	     1.1899451e-10	     1.0987488e-10	     1.0641734e-10	     1.1175862e-10	     1.2979059e-10	     1.6596514e-10	     2.2891448e-10	     3.3426042e-10	     5.1243990e-10	     8.2569419e-10	     1.4054816e-09	     2.5098026e-09	     4.4019929e-09	     6.6593783e-09	     8.7669229e-09	     1.0843093e-08	     9.9576584e-09	     6.5798773e-09	     4.4259115e-09	     3.4887306e-09	     3.3637642e-09	     3.8311662e-09	     4.6620013e-09	     5.6627329e-09	     6.7642902e-09	     7.9288592e-09	     8.7116545e-09	     7.9669957e-09	     5.7467856e-09	     3.6376414e-09	     2.2840258e-09	     1.5969761e-09	     1.3233728e-09	     1.1677285e-09	     9.5603056e-10	     6.9276049e-10	     5.2202914e-10	
     1.2317577e-11	     1.6130089e-11	     2.1005283e-11	     2.7213775e-11	     3.5131313e-11	     4.5286690e-11	     5.8341111e-11	     7.4735686e-11	     9.3371533e-11	     1.0933187e-10	     1.1542493e-10	     1.1069149e-10	     1.0146487e-10	     9.3690101e-11	     9.0744863e-11	     9.5305615e-11	     1.1069402e-10	     1.4156440e-10	     1.9528846e-10	     2.8521075e-10	     4.3733887e-10	     7.0487515e-10	     1.2002401e-09	     2.1442462e-09	     3.7629593e-09	     5.6967378e-09	     7.5066436e-09	     9.2955082e-09	     8.5492800e-09	     5.6607265e-09	     3.8188388e-09	     3.0243071e-09	     2.9375400e-09	     3.3786456e-09	     4.1603902e-09	     5.1282173e-09	     6.2422187e-09	     7.4982392e-09	     8.5039437e-09	     8.0978457e-09	     6.1416181e-09	     4.1028276e-09	     2.6417929e-09	     1.7121366e-09	     1.2010911e-09	     9.8997330e-10	     8.9725091e-10	     7.7330006e-10	     5.8760893e-10	
     1.0189381e-11	     1.3343181e-11	     1.7376056e-11	     2.2511869e-11	     2.9061450e-11	     3.7462230e-11	     4.8261182e-11	     6.1823209e-11	     7.7239305e-11	     9.0442201e-11	     9.5482692e-11	     9.1567311e-11	     8.3935250e-11	     7.7504667e-11	     7.5070324e-11	     7.8847530e-11	     9.1586259e-11	     1.1714062e-10	     1.6161648e-10	     2.3606968e-10	     3.6205254e-10	     5.8366648e-10	     9.9413813e-10	     1.7767026e-09	     3.1194318e-09	     4.7253565e-09	     6.2315361e-09	     7.7243159e-09	     7.1131784e-09	     4.7178694e-09	     3.1906068e-09	     2.5367023e-09	     2.4791557e-09	     2.8747725e-09	     3.5748912e-09	     4.4602684e-09	     5.5138882e-09	     6.7576473e-09	     7.8659886e-09	     7.7459465e-09	     6.1367805e-09	     4.3344991e-09	     2.9759292e-09	     2.0247524e-09	     1.3688975e-09	     9.5248369e-10	     7.4702637e-10	     6.7547877e-10	     6.1963591e-10	
     4.6382296e-12	     6.0738477e-12	     7.9096246e-12	     1.0247463e-11	     1.3228857e-11	     1.7052927e-11	     2.1968662e-11	     2.8142175e-11	     3.5159692e-11	     4.1169790e-11	     4.3464370e-11	     4.1682260e-11	     3.8208445e-11	     3.5281921e-11	     3.4175388e-11	     3.5898260e-11	     4.1704074e-11	     5.3350307e-11	     7.3622507e-11	     1.0756655e-10	     1.6502307e-10	     2.6613863e-10	     4.5353034e-10	     8.1105737e-10	     1.4251671e-09	     2.1611010e-09	     2.8537797e-09	     3.5435251e-09	     3.2702187e-09	     2.1753308e-09	     1.4773426e-09	     1.1824695e-09	     1.1678627e-09	     1.3730851e-09	     1.7360144e-09	     2.2104559e-09	     2.8040440e-09	     3.5525895e-09	     4.3157412e-09	     4.4893468e-09	     3.8204500e-09	     2.9650086e-09	     2.3017860e-09	     1.8309358e-09	     1.4879996e-09	     1.2245030e-09	     1.0101803e-09	     8.2683031e-10	     6.6425091e-10	
     4.0248067e-12	     5.2705591e-12	     6.8635480e-12	     8.8921992e-12	     1.1479293e-11	     1.4797617e-11	     1.9063229e-11	     2.4420275e-11	     3.0509705e-11	     3.5724950e-11	     3.7716071e-11	     3.6169662e-11	     3.3155290e-11	     3.0615848e-11	     2.9655747e-11	     3.1150958e-11	     3.6189330e-11	     4.6296082e-11	     6.3888705e-11	     9.3346483e-11	     1.4321027e-10	     2.3096617e-10	     3.9360516e-10	     7.0392097e-10	     1.2369749e-09	     1.8758549e-09	     2.4773212e-09	     3.0764208e-09	     2.8395364e-09	     1.8891982e-09	     1.2833678e-09	     1.0276552e-09	     1.0156469e-09	     1.1951784e-09	     1.5126803e-09	     1.9285732e-09	     2.4504562e-09	     3.1110915e-09	     3.7894809e-09	     3.9552976e-09	     3.3807545e-09	     2.6388312e-09	     2.0639062e-09	     1.6577341e-09	     1.3644049e-09	     1.1415308e-09	     9.6235502e-10	     8.1029681e-10	     6.7516405e-10	
     3.5203602e-12	     4.6099771e-12	     6.0033099e-12	     7.7777016e-12	     1.0040544e-11	     1.2942968e-11	     1.6673954e-11	     2.1359580e-11	     2.6685797e-11	     3.1247398e-11	     3.2988968e-11	     3.1636383e-11	     2.8999826e-11	     2.6778688e-11	     2.5938976e-11	     2.7246908e-11	     3.1654049e-11	     4.0494563e-11	     5.5883163e-11	     8.1650723e-11	     1.2526868e-10	     2.0203407e-10	     3.4430792e-10	     6.1577627e-10	     1.0821221e-09	     1.6411014e-09	     2.1674321e-09	     2.6918047e-09	     2.4847832e-09	     1.6533964e-09	     1.1234013e-09	     8.9984033e-10	     8.8975588e-10	     1.0476974e-09	     1.3270224e-09	     1.6934327e-09	     2.1541928e-09	     2.7390321e-09	     3.3426373e-09	     3.4973384e-09	     2.9986569e-09	     2.3501300e-09	     1.8478542e-09	     1.4944321e-09	     1.2410371e-09	     1.0504790e-09	     8.9917813e-10	     7.7234002e-10	     6.6051870e-10	
     2.3159854e-12	     3.0328260e-12	     3.9494762e-12	     5.1168187e-12	     6.6055047e-12	     8.5149614e-12	     1.0969515e-11	     1.4052111e-11	     1.7556143e-11	     2.0557147e-11	     2.1702902e-11	     2.0813067e-11	     1.9078534e-11	     1.7617315e-11	     1.7064950e-11	     1.7925565e-11	     2.0825252e-11	     2.6641867e-11	     3.6766905e-11	     5.3721199e-11	     8.2421362e-11	     1.3293410e-10	     2.2655689e-10	     4.0520694e-10	     7.1213176e-10	     1.0800849e-09	     1.4266513e-09	     1.7720657e-09	     1.6360805e-09	     1.0889325e-09	     7.4014113e-10	     5.9318883e-10	     5.8706495e-10	     6.9208336e-10	     8.7782020e-10	     1.1221053e-09	     1.4304800e-09	     1.8238304e-09	     2.2335394e-09	     2.3472964e-09	     2.0241392e-09	     1.5982265e-09	     1.2688395e-09	     1.0390653e-09	     8.7696777e-10	     7.5807750e-10	     6.6687618e-10	     5.9359573e-10	     5.3186426e-10	
     1.8308804e-12	     2.3975720e-12	     3.1222211e-12	     4.0450528e-12	     5.2219195e-12	     6.7314227e-12	     8.6718471e-12	     1.1108765e-11	     1.3878844e-11	     1.6251261e-11	     1.7157028e-11	     1.6453580e-11	     1.5082364e-11	     1.3927218e-11	     1.3490566e-11	     1.4170951e-11	     1.6463339e-11	     2.1061743e-11	     2.9066254e-11	     4.2469820e-11	     6.5159514e-11	     1.0509417e-10	     1.7911204e-10	     3.2035472e-10	     5.6301925e-10	     8.5394866e-10	     1.1279919e-09	     1.4011553e-09	     1.2937011e-09	     8.6111488e-10	     5.8535484e-10	     4.6921141e-10	     4.6448605e-10	     5.4775957e-10	     6.9504026e-10	     8.8889194e-10	     1.1338696e-09	     1.4467895e-09	     1.7735646e-09	     1.8662499e-09	     1.6119386e-09	     1.2754526e-09	     1.0153609e-09	     8.3443013e-10	     7.0747423e-10	     6.1517613e-10	     5.4530920e-10	     4.9020951e-10	     4.4490648e-10	
