! Few definition of element parameters in SAD
! 
1. Type:
   QUAD, quadrupole
   BEND, dipole,
   SEXT, sextupole
   OCT, Octupole
   DRIFT, drift session
   MONI, marker
   MARK, marker
   MULT, multiple component
2. Setting
   ANGLE: The bending angle. If positive, it bends the orbit in x-s plane toward negative-x-direction.
          ANGLE determines the geometry of the beam line, while K0 represents a dipole kick
          on top of the bending angle given by ANGLE, i.e., the total deflection of the beam
          is given of ANGLE + K0.
   K0: K0 = B^(0)L/(Brho)
   K1: K1 = B^(1)L/(Brho)
3. Aperture
   
   AX: radius of x as ellipse
   AY: radius of y as ellipse
   X_min, X_max, Y_min, Y_max: width and height as rectangle