%!PS-Adobe-2.0 EPSF-2.0
%%Title: Orbit_DY=2e-5.eps
%%Creator: gnuplot 4.6 patchlevel 4
%%CreationDate: Tue Jun 13 16:17:00 2017
%%DocumentFonts: (atend)
%%BoundingBox: 50 50 410 302
%%EndComments
%%BeginProlog
/gnudict 256 dict def
gnudict begin
%
% The following true/false flags may be edited by hand if desired.
% The unit line width and grayscale image gamma correction may also be changed.
%
/Color true def
/Blacktext false def
/Solid false def
/Dashlength 1 def
/Landscape false def
/Level1 false def
/Rounded false def
/ClipToBoundingBox false def
/SuppressPDFMark false def
/TransparentPatterns false def
/gnulinewidth 5.000 def
/userlinewidth gnulinewidth def
/Gamma 1.0 def
/BackgroundColor {-1.000 -1.000 -1.000} def
%
/vshift -80 def
/dl1 {
  10.0 Dashlength mul mul
  Rounded { currentlinewidth 0.75 mul sub dup 0 le { pop 0.01 } if } if
} def
/dl2 {
  10.0 Dashlength mul mul
  Rounded { currentlinewidth 0.75 mul add } if
} def
/hpt_ 31.5 def
/vpt_ 31.5 def
/hpt hpt_ def
/vpt vpt_ def
/doclip {
  ClipToBoundingBox {
    newpath 50 50 moveto 410 50 lineto 410 302 lineto 50 302 lineto closepath
    clip
  } if
} def
%
% Gnuplot Prolog Version 4.6 (September 2012)
%
%/SuppressPDFMark true def
%
/M {moveto} bind def
/L {lineto} bind def
/R {rmoveto} bind def
/V {rlineto} bind def
/N {newpath moveto} bind def
/Z {closepath} bind def
/C {setrgbcolor} bind def
/f {rlineto fill} bind def
/g {setgray} bind def
/Gshow {show} def   % May be redefined later in the file to support UTF-8
/vpt2 vpt 2 mul def
/hpt2 hpt 2 mul def
/Lshow {currentpoint stroke M 0 vshift R 
	Blacktext {gsave 0 setgray show grestore} {show} ifelse} def
/Rshow {currentpoint stroke M dup stringwidth pop neg vshift R
	Blacktext {gsave 0 setgray show grestore} {show} ifelse} def
/Cshow {currentpoint stroke M dup stringwidth pop -2 div vshift R 
	Blacktext {gsave 0 setgray show grestore} {show} ifelse} def
/UP {dup vpt_ mul /vpt exch def hpt_ mul /hpt exch def
  /hpt2 hpt 2 mul def /vpt2 vpt 2 mul def} def
/DL {Color {setrgbcolor Solid {pop []} if 0 setdash}
 {pop pop pop 0 setgray Solid {pop []} if 0 setdash} ifelse} def
/BL {stroke userlinewidth 2 mul setlinewidth
	Rounded {1 setlinejoin 1 setlinecap} if} def
/AL {stroke userlinewidth 2 div setlinewidth
	Rounded {1 setlinejoin 1 setlinecap} if} def
/UL {dup gnulinewidth mul /userlinewidth exch def
	dup 1 lt {pop 1} if 10 mul /udl exch def} def
/PL {stroke userlinewidth setlinewidth
	Rounded {1 setlinejoin 1 setlinecap} if} def
3.8 setmiterlimit
% Default Line colors
/LCw {1 1 1} def
/LCb {0 0 0} def
/LCa {0 0 0} def
/LC0 {1 0 0} def
/LC1 {0 1 0} def
/LC2 {0 0 1} def
/LC3 {1 0 1} def
/LC4 {0 1 1} def
/LC5 {1 1 0} def
/LC6 {0 0 0} def
/LC7 {1 0.3 0} def
/LC8 {0.5 0.5 0.5} def
% Default Line Types
/LTw {PL [] 1 setgray} def
/LTb {BL [] LCb DL} def
/LTa {AL [1 udl mul 2 udl mul] 0 setdash LCa setrgbcolor} def
/LT0 {PL [] LC0 DL} def
/LT1 {PL [4 dl1 2 dl2] LC1 DL} def
/LT2 {PL [2 dl1 3 dl2] LC2 DL} def
/LT3 {PL [1 dl1 1.5 dl2] LC3 DL} def
/LT4 {PL [6 dl1 2 dl2 1 dl1 2 dl2] LC4 DL} def
/LT5 {PL [3 dl1 3 dl2 1 dl1 3 dl2] LC5 DL} def
/LT6 {PL [2 dl1 2 dl2 2 dl1 6 dl2] LC6 DL} def
/LT7 {PL [1 dl1 2 dl2 6 dl1 2 dl2 1 dl1 2 dl2] LC7 DL} def
/LT8 {PL [2 dl1 2 dl2 2 dl1 2 dl2 2 dl1 2 dl2 2 dl1 4 dl2] LC8 DL} def
/Pnt {stroke [] 0 setdash gsave 1 setlinecap M 0 0 V stroke grestore} def
/Dia {stroke [] 0 setdash 2 copy vpt add M
  hpt neg vpt neg V hpt vpt neg V
  hpt vpt V hpt neg vpt V closepath stroke
  Pnt} def
/Pls {stroke [] 0 setdash vpt sub M 0 vpt2 V
  currentpoint stroke M
  hpt neg vpt neg R hpt2 0 V stroke
 } def
/Box {stroke [] 0 setdash 2 copy exch hpt sub exch vpt add M
  0 vpt2 neg V hpt2 0 V 0 vpt2 V
  hpt2 neg 0 V closepath stroke
  Pnt} def
/Crs {stroke [] 0 setdash exch hpt sub exch vpt add M
  hpt2 vpt2 neg V currentpoint stroke M
  hpt2 neg 0 R hpt2 vpt2 V stroke} def
/TriU {stroke [] 0 setdash 2 copy vpt 1.12 mul add M
  hpt neg vpt -1.62 mul V
  hpt 2 mul 0 V
  hpt neg vpt 1.62 mul V closepath stroke
  Pnt} def
/Star {2 copy Pls Crs} def
/BoxF {stroke [] 0 setdash exch hpt sub exch vpt add M
  0 vpt2 neg V hpt2 0 V 0 vpt2 V
  hpt2 neg 0 V closepath fill} def
/TriUF {stroke [] 0 setdash vpt 1.12 mul add M
  hpt neg vpt -1.62 mul V
  hpt 2 mul 0 V
  hpt neg vpt 1.62 mul V closepath fill} def
/TriD {stroke [] 0 setdash 2 copy vpt 1.12 mul sub M
  hpt neg vpt 1.62 mul V
  hpt 2 mul 0 V
  hpt neg vpt -1.62 mul V closepath stroke
  Pnt} def
/TriDF {stroke [] 0 setdash vpt 1.12 mul sub M
  hpt neg vpt 1.62 mul V
  hpt 2 mul 0 V
  hpt neg vpt -1.62 mul V closepath fill} def
/DiaF {stroke [] 0 setdash vpt add M
  hpt neg vpt neg V hpt vpt neg V
  hpt vpt V hpt neg vpt V closepath fill} def
/Pent {stroke [] 0 setdash 2 copy gsave
  translate 0 hpt M 4 {72 rotate 0 hpt L} repeat
  closepath stroke grestore Pnt} def
/PentF {stroke [] 0 setdash gsave
  translate 0 hpt M 4 {72 rotate 0 hpt L} repeat
  closepath fill grestore} def
/Circle {stroke [] 0 setdash 2 copy
  hpt 0 360 arc stroke Pnt} def
/CircleF {stroke [] 0 setdash hpt 0 360 arc fill} def
/C0 {BL [] 0 setdash 2 copy moveto vpt 90 450 arc} bind def
/C1 {BL [] 0 setdash 2 copy moveto
	2 copy vpt 0 90 arc closepath fill
	vpt 0 360 arc closepath} bind def
/C2 {BL [] 0 setdash 2 copy moveto
	2 copy vpt 90 180 arc closepath fill
	vpt 0 360 arc closepath} bind def
/C3 {BL [] 0 setdash 2 copy moveto
	2 copy vpt 0 180 arc closepath fill
	vpt 0 360 arc closepath} bind def
/C4 {BL [] 0 setdash 2 copy moveto
	2 copy vpt 180 270 arc closepath fill
	vpt 0 360 arc closepath} bind def
/C5 {BL [] 0 setdash 2 copy moveto
	2 copy vpt 0 90 arc
	2 copy moveto
	2 copy vpt 180 270 arc closepath fill
	vpt 0 360 arc} bind def
/C6 {BL [] 0 setdash 2 copy moveto
	2 copy vpt 90 270 arc closepath fill
	vpt 0 360 arc closepath} bind def
/C7 {BL [] 0 setdash 2 copy moveto
	2 copy vpt 0 270 arc closepath fill
	vpt 0 360 arc closepath} bind def
/C8 {BL [] 0 setdash 2 copy moveto
	2 copy vpt 270 360 arc closepath fill
	vpt 0 360 arc closepath} bind def
/C9 {BL [] 0 setdash 2 copy moveto
	2 copy vpt 270 450 arc closepath fill
	vpt 0 360 arc closepath} bind def
/C10 {BL [] 0 setdash 2 copy 2 copy moveto vpt 270 360 arc closepath fill
	2 copy moveto
	2 copy vpt 90 180 arc closepath fill
	vpt 0 360 arc closepath} bind def
/C11 {BL [] 0 setdash 2 copy moveto
	2 copy vpt 0 180 arc closepath fill
	2 copy moveto
	2 copy vpt 270 360 arc closepath fill
	vpt 0 360 arc closepath} bind def
/C12 {BL [] 0 setdash 2 copy moveto
	2 copy vpt 180 360 arc closepath fill
	vpt 0 360 arc closepath} bind def
/C13 {BL [] 0 setdash 2 copy moveto
	2 copy vpt 0 90 arc closepath fill
	2 copy moveto
	2 copy vpt 180 360 arc closepath fill
	vpt 0 360 arc closepath} bind def
/C14 {BL [] 0 setdash 2 copy moveto
	2 copy vpt 90 360 arc closepath fill
	vpt 0 360 arc} bind def
/C15 {BL [] 0 setdash 2 copy vpt 0 360 arc closepath fill
	vpt 0 360 arc closepath} bind def
/Rec {newpath 4 2 roll moveto 1 index 0 rlineto 0 exch rlineto
	neg 0 rlineto closepath} bind def
/Square {dup Rec} bind def
/Bsquare {vpt sub exch vpt sub exch vpt2 Square} bind def
/S0 {BL [] 0 setdash 2 copy moveto 0 vpt rlineto BL Bsquare} bind def
/S1 {BL [] 0 setdash 2 copy vpt Square fill Bsquare} bind def
/S2 {BL [] 0 setdash 2 copy exch vpt sub exch vpt Square fill Bsquare} bind def
/S3 {BL [] 0 setdash 2 copy exch vpt sub exch vpt2 vpt Rec fill Bsquare} bind def
/S4 {BL [] 0 setdash 2 copy exch vpt sub exch vpt sub vpt Square fill Bsquare} bind def
/S5 {BL [] 0 setdash 2 copy 2 copy vpt Square fill
	exch vpt sub exch vpt sub vpt Square fill Bsquare} bind def
/S6 {BL [] 0 setdash 2 copy exch vpt sub exch vpt sub vpt vpt2 Rec fill Bsquare} bind def
/S7 {BL [] 0 setdash 2 copy exch vpt sub exch vpt sub vpt vpt2 Rec fill
	2 copy vpt Square fill Bsquare} bind def
/S8 {BL [] 0 setdash 2 copy vpt sub vpt Square fill Bsquare} bind def
/S9 {BL [] 0 setdash 2 copy vpt sub vpt vpt2 Rec fill Bsquare} bind def
/S10 {BL [] 0 setdash 2 copy vpt sub vpt Square fill 2 copy exch vpt sub exch vpt Square fill
	Bsquare} bind def
/S11 {BL [] 0 setdash 2 copy vpt sub vpt Square fill 2 copy exch vpt sub exch vpt2 vpt Rec fill
	Bsquare} bind def
/S12 {BL [] 0 setdash 2 copy exch vpt sub exch vpt sub vpt2 vpt Rec fill Bsquare} bind def
/S13 {BL [] 0 setdash 2 copy exch vpt sub exch vpt sub vpt2 vpt Rec fill
	2 copy vpt Square fill Bsquare} bind def
/S14 {BL [] 0 setdash 2 copy exch vpt sub exch vpt sub vpt2 vpt Rec fill
	2 copy exch vpt sub exch vpt Square fill Bsquare} bind def
/S15 {BL [] 0 setdash 2 copy Bsquare fill Bsquare} bind def
/D0 {gsave translate 45 rotate 0 0 S0 stroke grestore} bind def
/D1 {gsave translate 45 rotate 0 0 S1 stroke grestore} bind def
/D2 {gsave translate 45 rotate 0 0 S2 stroke grestore} bind def
/D3 {gsave translate 45 rotate 0 0 S3 stroke grestore} bind def
/D4 {gsave translate 45 rotate 0 0 S4 stroke grestore} bind def
/D5 {gsave translate 45 rotate 0 0 S5 stroke grestore} bind def
/D6 {gsave translate 45 rotate 0 0 S6 stroke grestore} bind def
/D7 {gsave translate 45 rotate 0 0 S7 stroke grestore} bind def
/D8 {gsave translate 45 rotate 0 0 S8 stroke grestore} bind def
/D9 {gsave translate 45 rotate 0 0 S9 stroke grestore} bind def
/D10 {gsave translate 45 rotate 0 0 S10 stroke grestore} bind def
/D11 {gsave translate 45 rotate 0 0 S11 stroke grestore} bind def
/D12 {gsave translate 45 rotate 0 0 S12 stroke grestore} bind def
/D13 {gsave translate 45 rotate 0 0 S13 stroke grestore} bind def
/D14 {gsave translate 45 rotate 0 0 S14 stroke grestore} bind def
/D15 {gsave translate 45 rotate 0 0 S15 stroke grestore} bind def
/DiaE {stroke [] 0 setdash vpt add M
  hpt neg vpt neg V hpt vpt neg V
  hpt vpt V hpt neg vpt V closepath stroke} def
/BoxE {stroke [] 0 setdash exch hpt sub exch vpt add M
  0 vpt2 neg V hpt2 0 V 0 vpt2 V
  hpt2 neg 0 V closepath stroke} def
/TriUE {stroke [] 0 setdash vpt 1.12 mul add M
  hpt neg vpt -1.62 mul V
  hpt 2 mul 0 V
  hpt neg vpt 1.62 mul V closepath stroke} def
/TriDE {stroke [] 0 setdash vpt 1.12 mul sub M
  hpt neg vpt 1.62 mul V
  hpt 2 mul 0 V
  hpt neg vpt -1.62 mul V closepath stroke} def
/PentE {stroke [] 0 setdash gsave
  translate 0 hpt M 4 {72 rotate 0 hpt L} repeat
  closepath stroke grestore} def
/CircE {stroke [] 0 setdash 
  hpt 0 360 arc stroke} def
/Opaque {gsave closepath 1 setgray fill grestore 0 setgray closepath} def
/DiaW {stroke [] 0 setdash vpt add M
  hpt neg vpt neg V hpt vpt neg V
  hpt vpt V hpt neg vpt V Opaque stroke} def
/BoxW {stroke [] 0 setdash exch hpt sub exch vpt add M
  0 vpt2 neg V hpt2 0 V 0 vpt2 V
  hpt2 neg 0 V Opaque stroke} def
/TriUW {stroke [] 0 setdash vpt 1.12 mul add M
  hpt neg vpt -1.62 mul V
  hpt 2 mul 0 V
  hpt neg vpt 1.62 mul V Opaque stroke} def
/TriDW {stroke [] 0 setdash vpt 1.12 mul sub M
  hpt neg vpt 1.62 mul V
  hpt 2 mul 0 V
  hpt neg vpt -1.62 mul V Opaque stroke} def
/PentW {stroke [] 0 setdash gsave
  translate 0 hpt M 4 {72 rotate 0 hpt L} repeat
  Opaque stroke grestore} def
/CircW {stroke [] 0 setdash 
  hpt 0 360 arc Opaque stroke} def
/BoxFill {gsave Rec 1 setgray fill grestore} def
/Density {
  /Fillden exch def
  currentrgbcolor
  /ColB exch def /ColG exch def /ColR exch def
  /ColR ColR Fillden mul Fillden sub 1 add def
  /ColG ColG Fillden mul Fillden sub 1 add def
  /ColB ColB Fillden mul Fillden sub 1 add def
  ColR ColG ColB setrgbcolor} def
/BoxColFill {gsave Rec PolyFill} def
/PolyFill {gsave Density fill grestore grestore} def
/h {rlineto rlineto rlineto gsave closepath fill grestore} bind def
%
% PostScript Level 1 Pattern Fill routine for rectangles
% Usage: x y w h s a XX PatternFill
%	x,y = lower left corner of box to be filled
%	w,h = width and height of box
%	  a = angle in degrees between lines and x-axis
%	 XX = 0/1 for no/yes cross-hatch
%
/PatternFill {gsave /PFa [ 9 2 roll ] def
  PFa 0 get PFa 2 get 2 div add PFa 1 get PFa 3 get 2 div add translate
  PFa 2 get -2 div PFa 3 get -2 div PFa 2 get PFa 3 get Rec
  TransparentPatterns {} {gsave 1 setgray fill grestore} ifelse
  clip
  currentlinewidth 0.5 mul setlinewidth
  /PFs PFa 2 get dup mul PFa 3 get dup mul add sqrt def
  0 0 M PFa 5 get rotate PFs -2 div dup translate
  0 1 PFs PFa 4 get div 1 add floor cvi
	{PFa 4 get mul 0 M 0 PFs V} for
  0 PFa 6 get ne {
	0 1 PFs PFa 4 get div 1 add floor cvi
	{PFa 4 get mul 0 2 1 roll M PFs 0 V} for
 } if
  stroke grestore} def
%
/languagelevel where
 {pop languagelevel} {1} ifelse
 2 lt
	{/InterpretLevel1 true def}
	{/InterpretLevel1 Level1 def}
 ifelse
%
% PostScript level 2 pattern fill definitions
%
/Level2PatternFill {
/Tile8x8 {/PaintType 2 /PatternType 1 /TilingType 1 /BBox [0 0 8 8] /XStep 8 /YStep 8}
	bind def
/KeepColor {currentrgbcolor [/Pattern /DeviceRGB] setcolorspace} bind def
<< Tile8x8
 /PaintProc {0.5 setlinewidth pop 0 0 M 8 8 L 0 8 M 8 0 L stroke} 
>> matrix makepattern
/Pat1 exch def
<< Tile8x8
 /PaintProc {0.5 setlinewidth pop 0 0 M 8 8 L 0 8 M 8 0 L stroke
	0 4 M 4 8 L 8 4 L 4 0 L 0 4 L stroke}
>> matrix makepattern
/Pat2 exch def
<< Tile8x8
 /PaintProc {0.5 setlinewidth pop 0 0 M 0 8 L
	8 8 L 8 0 L 0 0 L fill}
>> matrix makepattern
/Pat3 exch def
<< Tile8x8
 /PaintProc {0.5 setlinewidth pop -4 8 M 8 -4 L
	0 12 M 12 0 L stroke}
>> matrix makepattern
/Pat4 exch def
<< Tile8x8
 /PaintProc {0.5 setlinewidth pop -4 0 M 8 12 L
	0 -4 M 12 8 L stroke}
>> matrix makepattern
/Pat5 exch def
<< Tile8x8
 /PaintProc {0.5 setlinewidth pop -2 8 M 4 -4 L
	0 12 M 8 -4 L 4 12 M 10 0 L stroke}
>> matrix makepattern
/Pat6 exch def
<< Tile8x8
 /PaintProc {0.5 setlinewidth pop -2 0 M 4 12 L
	0 -4 M 8 12 L 4 -4 M 10 8 L stroke}
>> matrix makepattern
/Pat7 exch def
<< Tile8x8
 /PaintProc {0.5 setlinewidth pop 8 -2 M -4 4 L
	12 0 M -4 8 L 12 4 M 0 10 L stroke}
>> matrix makepattern
/Pat8 exch def
<< Tile8x8
 /PaintProc {0.5 setlinewidth pop 0 -2 M 12 4 L
	-4 0 M 12 8 L -4 4 M 8 10 L stroke}
>> matrix makepattern
/Pat9 exch def
/Pattern1 {PatternBgnd KeepColor Pat1 setpattern} bind def
/Pattern2 {PatternBgnd KeepColor Pat2 setpattern} bind def
/Pattern3 {PatternBgnd KeepColor Pat3 setpattern} bind def
/Pattern4 {PatternBgnd KeepColor Landscape {Pat5} {Pat4} ifelse setpattern} bind def
/Pattern5 {PatternBgnd KeepColor Landscape {Pat4} {Pat5} ifelse setpattern} bind def
/Pattern6 {PatternBgnd KeepColor Landscape {Pat9} {Pat6} ifelse setpattern} bind def
/Pattern7 {PatternBgnd KeepColor Landscape {Pat8} {Pat7} ifelse setpattern} bind def
} def
%
%
%End of PostScript Level 2 code
%
/PatternBgnd {
  TransparentPatterns {} {gsave 1 setgray fill grestore} ifelse
} def
%
% Substitute for Level 2 pattern fill codes with
% grayscale if Level 2 support is not selected.
%
/Level1PatternFill {
/Pattern1 {0.250 Density} bind def
/Pattern2 {0.500 Density} bind def
/Pattern3 {0.750 Density} bind def
/Pattern4 {0.125 Density} bind def
/Pattern5 {0.375 Density} bind def
/Pattern6 {0.625 Density} bind def
/Pattern7 {0.875 Density} bind def
} def
%
% Now test for support of Level 2 code
%
Level1 {Level1PatternFill} {Level2PatternFill} ifelse
%
/Symbol-Oblique /Symbol findfont [1 0 .167 1 0 0] makefont
dup length dict begin {1 index /FID eq {pop pop} {def} ifelse} forall
currentdict end definefont pop
/MFshow {
   { dup 5 get 3 ge
     { 5 get 3 eq {gsave} {grestore} ifelse }
     {dup dup 0 get findfont exch 1 get scalefont setfont
     [ currentpoint ] exch dup 2 get 0 exch R dup 5 get 2 ne {dup dup 6
     get exch 4 get {Gshow} {stringwidth pop 0 R} ifelse }if dup 5 get 0 eq
     {dup 3 get {2 get neg 0 exch R pop} {pop aload pop M} ifelse} {dup 5
     get 1 eq {dup 2 get exch dup 3 get exch 6 get stringwidth pop -2 div
     dup 0 R} {dup 6 get stringwidth pop -2 div 0 R 6 get
     show 2 index {aload pop M neg 3 -1 roll neg R pop pop} {pop pop pop
     pop aload pop M} ifelse }ifelse }ifelse }
     ifelse }
   forall} def
/Gswidth {dup type /stringtype eq {stringwidth} {pop (n) stringwidth} ifelse} def
/MFwidth {0 exch { dup 5 get 3 ge { 5 get 3 eq { 0 } { pop } ifelse }
 {dup 3 get{dup dup 0 get findfont exch 1 get scalefont setfont
     6 get Gswidth pop add} {pop} ifelse} ifelse} forall} def
/MLshow { currentpoint stroke M
  0 exch R
  Blacktext {gsave 0 setgray MFshow grestore} {MFshow} ifelse } bind def
/MRshow { currentpoint stroke M
  exch dup MFwidth neg 3 -1 roll R
  Blacktext {gsave 0 setgray MFshow grestore} {MFshow} ifelse } bind def
/MCshow { currentpoint stroke M
  exch dup MFwidth -2 div 3 -1 roll R
  Blacktext {gsave 0 setgray MFshow grestore} {MFshow} ifelse } bind def
/XYsave    { [( ) 1 2 true false 3 ()] } bind def
/XYrestore { [( ) 1 2 true false 4 ()] } bind def
Level1 SuppressPDFMark or 
{} {
/SDict 10 dict def
systemdict /pdfmark known not {
  userdict /pdfmark systemdict /cleartomark get put
} if
SDict begin [
  /Title (Orbit_DY=2e-5.eps)
  /Subject (gnuplot plot)
  /Creator (gnuplot 4.6 patchlevel 4)
  /Author (rj-yang)
%  /Producer (gnuplot)
%  /Keywords ()
  /CreationDate (Tue Jun 13 16:17:00 2017)
  /DOCINFO pdfmark
end
} ifelse
end
%%EndProlog
%%Page: 1 1
gnudict begin
gsave
doclip
50 50 translate
0.050 0.050 scale
0 setgray
newpath
(Helvetica) findfont 240 scalefont setfont
BackgroundColor 0 lt 3 1 roll 0 lt exch 0 lt or or not {BackgroundColor C 1.000 0 0 7200.00 5040.00 BoxColFill} if
1.000 UL
LTb
LCb setrgbcolor
888 768 M
63 0 V
5816 0 R
-63 0 V
stroke
744 768 M
[ [(Helvetica) 240.0 0.0 true true 0 (-3)]
] -80.0 MRshow
1.000 UL
LTb
LCb setrgbcolor
888 1432 M
63 0 V
5816 0 R
-63 0 V
stroke
744 1432 M
[ [(Helvetica) 240.0 0.0 true true 0 (-2)]
] -80.0 MRshow
1.000 UL
LTb
LCb setrgbcolor
888 2096 M
63 0 V
5816 0 R
-63 0 V
stroke
744 2096 M
[ [(Helvetica) 240.0 0.0 true true 0 (-1)]
] -80.0 MRshow
1.000 UL
LTb
LCb setrgbcolor
888 2760 M
63 0 V
5816 0 R
-63 0 V
stroke
744 2760 M
[ [(Helvetica) 240.0 0.0 true true 0 ( 0)]
] -80.0 MRshow
1.000 UL
LTb
LCb setrgbcolor
888 3423 M
63 0 V
5816 0 R
-63 0 V
stroke
744 3423 M
[ [(Helvetica) 240.0 0.0 true true 0 ( 1)]
] -80.0 MRshow
1.000 UL
LTb
LCb setrgbcolor
888 4087 M
63 0 V
5816 0 R
-63 0 V
stroke
744 4087 M
[ [(Helvetica) 240.0 0.0 true true 0 ( 2)]
] -80.0 MRshow
1.000 UL
LTb
LCb setrgbcolor
888 4751 M
63 0 V
5816 0 R
-63 0 V
stroke
744 4751 M
[ [(Helvetica) 240.0 0.0 true true 0 ( 3)]
] -80.0 MRshow
1.000 UL
LTb
LCb setrgbcolor
888 768 M
0 63 V
0 3920 R
0 -63 V
stroke
888 528 M
[ [(Helvetica) 240.0 0.0 true true 0 ( 0)]
] -80.0 MCshow
1.000 UL
LTb
LCb setrgbcolor
1541 768 M
0 63 V
0 3920 R
0 -63 V
stroke
1541 528 M
[ [(Helvetica) 240.0 0.0 true true 0 ( 10)]
] -80.0 MCshow
1.000 UL
LTb
LCb setrgbcolor
2194 768 M
0 63 V
0 3920 R
0 -63 V
stroke
2194 528 M
[ [(Helvetica) 240.0 0.0 true true 0 ( 20)]
] -80.0 MCshow
1.000 UL
LTb
LCb setrgbcolor
2848 768 M
0 63 V
0 3920 R
0 -63 V
stroke
2848 528 M
[ [(Helvetica) 240.0 0.0 true true 0 ( 30)]
] -80.0 MCshow
1.000 UL
LTb
LCb setrgbcolor
3501 768 M
0 63 V
0 3920 R
0 -63 V
stroke
3501 528 M
[ [(Helvetica) 240.0 0.0 true true 0 ( 40)]
] -80.0 MCshow
1.000 UL
LTb
LCb setrgbcolor
4154 768 M
0 63 V
0 3920 R
0 -63 V
stroke
4154 528 M
[ [(Helvetica) 240.0 0.0 true true 0 ( 50)]
] -80.0 MCshow
1.000 UL
LTb
LCb setrgbcolor
4807 768 M
0 63 V
0 3920 R
0 -63 V
stroke
4807 528 M
[ [(Helvetica) 240.0 0.0 true true 0 ( 60)]
] -80.0 MCshow
1.000 UL
LTb
LCb setrgbcolor
5461 768 M
0 63 V
0 3920 R
0 -63 V
stroke
5461 528 M
[ [(Helvetica) 240.0 0.0 true true 0 ( 70)]
] -80.0 MCshow
1.000 UL
LTb
LCb setrgbcolor
6114 768 M
0 63 V
0 3920 R
0 -63 V
stroke
6114 528 M
[ [(Helvetica) 240.0 0.0 true true 0 ( 80)]
] -80.0 MCshow
1.000 UL
LTb
LCb setrgbcolor
6767 768 M
0 63 V
0 3920 R
0 -63 V
stroke
6767 528 M
[ [(Helvetica) 240.0 0.0 true true 0 ( 90)]
] -80.0 MCshow
1.000 UL
LTb
LCb setrgbcolor
1.000 UL
LTb
LCb setrgbcolor
888 4751 N
888 768 L
5879 0 V
0 3983 V
-5879 0 V
Z stroke
LCb setrgbcolor
192 2759 M
currentpoint gsave translate -270 rotate 0 0 moveto
[ [(Symbol) 240.0 0.0 true true 0 (D)]
[(Italic) 192.0 -72.0 true true 0 (y)]
[(Helvetica) 240.0 0.0 true true 0 ( [mm])]
] -56.0 MCshow
grestore
LTb
LCb setrgbcolor
3827 168 M
[ [(Italic) 240.0 0.0 true true 0 (s)]
[(Helvetica) 240.0 0.0 true true 0 ( [m])]
] -80.0 MCshow
LTb
1.000 UP
1.000 UL
LTb
LCb setrgbcolor
% Begin plot #1
1.500 UP
3.000 UL
LT0
1.00 0.00 0.00 C LCb setrgbcolor
1752 4508 M
[ [(Symbol) 240.0 0.0 true true 0 (d)]
[(Helvetica) 192.0 -72.0 true true 0 (p)]
[(Helvetica) 240.0 0.0 true true 0 (=0)]
] -56.0 MRshow
LT0
1.00 0.00 0.00 C 1896 4508 M
639 0 V
904 2773 M
17 0 V
60 -1 V
6 -1 V
7 0 V
3 -1 V
16 -2 V
46 -7 V
11 -2 V
3 0 V
10 -1 V
12 -2 V
3 -1 V
2 0 V
10 -2 V
20 -3 V
19 -3 V
13 -3 V
26 -4 V
27 -5 V
6 -1 V
7 -1 V
32 -5 V
33 -6 V
31 -5 V
9 -2 V
2 0 V
2 -1 V
3 0 V
5 -1 V
7 -3 V
6 -5 V
1 -1 V
14 -14 V
18 -17 V
26 -27 V
26 -26 V
14 -14 V
8 -8 V
11 -11 V
6 -2 V
7 5 V
1 2 V
49 74 V
7 8 V
6 5 V
2 1 V
9 6 V
8 4 V
9 6 V
8 5 V
98 60 V
134 81 V
7 6 V
6 8 V
2 3 V
9 13 V
7 12 V
31 47 V
2 2 V
6 6 V
7 -2 V
10 -10 V
9 -8 V
14 -14 V
26 -26 V
26 -26 V
14 -13 V
8 -8 V
10 -10 V
0 -1 V
7 -4 V
6 -2 V
1 0 V
2 0 V
3 0 V
22 0 V
38 1 V
44 0 V
44 1 V
50 0 V
3 1 V
2 0 V
2 1 V
55 19 V
40 14 V
21 7 V
7 3 V
11 4 V
6 1 V
7 -3 V
1 0 V
9 -6 V
8 -5 V
30 -18 V
15 -9 V
16 -10 V
17 -10 V
4 -3 V
6 -4 V
7 -4 V
10 -6 V
4 -3 V
stroke 2512 2786 M
7 -3 V
6 -3 V
10 -3 V
8 -2 V
56 -19 V
31 -11 V
22 -7 V
8 -3 V
6 -2 V
8 -2 V
3 -1 V
2 -1 V
7 -2 V
7 -2 V
6 1 V
1 1 V
63 16 V
8 3 V
10 2 V
6 2 V
7 1 V
1 0 V
26 3 V
20 2 V
9 1 V
6 1 V
8 1 V
2 0 V
3 0 V
7 1 V
6 1 V
7 0 V
1 0 V
35 4 V
7 0 V
11 1 V
7 1 V
6 2 V
4 1 V
51 13 V
6 1 V
7 0 V
3 0 V
18 -2 V
15 -2 V
8 -1 V
10 -1 V
7 -1 V
6 2 V
4 0 V
21 6 V
8 2 V
10 3 V
3 0 V
2 1 V
7 2 V
6 1 V
7 -1 V
1 -1 V
62 -16 V
9 -3 V
10 -2 V
6 -2 V
7 -1 V
1 0 V
14 -1 V
54 -6 V
3 -1 V
3 0 V
43 -5 V
8 -1 V
16 -2 V
7 0 V
6 -1 V
1 0 V
18 0 V
27 -1 V
18 -1 V
8 0 V
10 0 V
6 -1 V
7 0 V
1 0 V
17 -3 V
25 -4 V
21 -2 V
31 -5 V
9 -1 V
41 -6 V
1 0 V
2 0 V
49 -8 V
31 -4 V
19 -3 V
1 0 V
2 0 V
3 0 V
30 2 V
33 3 V
60 5 V
29 2 V
8 1 V
61 5 V
27 2 V
stroke 4005 2732 M
3 0 V
2 0 V
2 0 V
18 -2 V
32 -3 V
23 -2 V
35 -3 V
119 -11 V
18 -2 V
2 0 V
6 0 V
7 -1 V
49 -5 V
8 0 V
9 -1 V
8 -1 V
11 -1 V
6 0 V
7 -1 V
1 0 V
84 -9 V
6 2 V
7 7 V
1 2 V
38 55 V
14 21 V
32 46 V
6 11 V
7 14 V
1 4 V
84 214 V
6 16 V
6 17 V
2 3 V
47 121 V
43 113 V
7 18 V
6 19 V
1 4 V
56 179 V
15 66 V
13 0 V
7 67 V
6 0 V
1 0 V
31 -67 V
14 0 V
6 0 V
7 -66 V
1 0 V
19 -66 V
52 -231 V
6 -25 V
7 -16 V
1 -2 V
26 -46 V
3 -6 V
3 -6 V
7 -12 V
20 -37 V
6 -8 V
7 -2 V
1 0 V
18 3 V
7 1 V
8 2 V
70 12 V
7 -4 V
6 -15 V
2 -4 V
110 -338 V
6 -20 V
7 -21 V
1 -4 V
28 -91 V
20 -66 V
20 -65 V
42 -138 V
6 -15 V
7 -2 V
1 1 V
70 43 V
7 4 V
8 5 V
18 11 V
7 1 V
6 -6 V
2 -2 V
26 -39 V
2 -3 V
3 -3 V
7 -11 V
20 -30 V
7 -14 V
6 -23 V
2 -5 V
14 -61 V
56 -239 V
7 0 V
6 0 V
2 0 V
25 -66 V
3 0 V
4 0 V
stroke 5758 1897 M
6 0 V
21 0 V
6 0 V
6 0 V
2 66 V
17 0 V
8 66 V
7 0 V
67 237 V
20 67 V
20 67 V
29 98 V
7 18 V
6 12 V
2 2 V
27 35 V
20 27 V
20 26 V
16 20 V
13 18 V
7 9 V
6 9 V
2 3 V
23 36 V
9 15 V
9 15 V
56 88 V
6 10 V
6 8 V
2 2 V
249 308 V
26 33 V
8 9 V
7 9 V
11 13 V
6 8 V
3 4 V
4 4 V
20 25 V
14 39 V
15 83 V
7 37 V
20 199 V
6 0 V
4 67 V
3 0 V
19 133 V
15 66 V
16 -199 V
7 -67 V
29 -452 V
18 -265 V
6 -78 V
4 -68 V
28 -405 V
13 -196 V
5 -66 V
904 2773 Pnt
921 2773 Pnt
981 2772 Pnt
987 2771 Pnt
994 2771 Pnt
997 2770 Pnt
1013 2768 Pnt
1059 2761 Pnt
1070 2759 Pnt
1073 2759 Pnt
1083 2758 Pnt
1095 2756 Pnt
1098 2755 Pnt
1100 2755 Pnt
1110 2753 Pnt
1130 2750 Pnt
1149 2747 Pnt
1162 2744 Pnt
1188 2740 Pnt
1215 2735 Pnt
1221 2734 Pnt
1228 2733 Pnt
1260 2728 Pnt
1293 2722 Pnt
1324 2717 Pnt
1333 2715 Pnt
1335 2715 Pnt
1337 2714 Pnt
1340 2714 Pnt
1345 2713 Pnt
1352 2710 Pnt
1358 2705 Pnt
1359 2704 Pnt
1373 2690 Pnt
1391 2673 Pnt
1417 2646 Pnt
1443 2620 Pnt
1457 2606 Pnt
1465 2598 Pnt
1476 2587 Pnt
1482 2585 Pnt
1489 2590 Pnt
1490 2592 Pnt
1539 2666 Pnt
1546 2674 Pnt
1552 2679 Pnt
1554 2680 Pnt
1563 2686 Pnt
1571 2690 Pnt
1580 2696 Pnt
1588 2701 Pnt
1686 2761 Pnt
1820 2842 Pnt
1827 2848 Pnt
1833 2856 Pnt
1835 2859 Pnt
1844 2872 Pnt
1851 2884 Pnt
1882 2931 Pnt
1884 2933 Pnt
1890 2939 Pnt
1897 2937 Pnt
1907 2927 Pnt
1916 2919 Pnt
1930 2905 Pnt
1956 2879 Pnt
1982 2853 Pnt
1996 2840 Pnt
2004 2832 Pnt
2014 2822 Pnt
2014 2821 Pnt
2021 2817 Pnt
2027 2815 Pnt
2028 2815 Pnt
2030 2815 Pnt
2033 2815 Pnt
2055 2815 Pnt
2093 2816 Pnt
2137 2816 Pnt
2181 2817 Pnt
2231 2817 Pnt
2234 2818 Pnt
2236 2818 Pnt
2238 2819 Pnt
2293 2838 Pnt
2333 2852 Pnt
2354 2859 Pnt
2361 2862 Pnt
2372 2866 Pnt
2378 2867 Pnt
2385 2864 Pnt
2386 2864 Pnt
2395 2858 Pnt
2403 2853 Pnt
2433 2835 Pnt
2448 2826 Pnt
2464 2816 Pnt
2481 2806 Pnt
2485 2803 Pnt
2491 2799 Pnt
2498 2795 Pnt
2508 2789 Pnt
2512 2786 Pnt
2519 2783 Pnt
2525 2780 Pnt
2535 2777 Pnt
2543 2775 Pnt
2599 2756 Pnt
2630 2745 Pnt
2652 2738 Pnt
2660 2735 Pnt
2666 2733 Pnt
2674 2731 Pnt
2677 2730 Pnt
2679 2729 Pnt
2686 2727 Pnt
2693 2725 Pnt
2699 2726 Pnt
2700 2727 Pnt
2763 2743 Pnt
2771 2746 Pnt
2781 2748 Pnt
2787 2750 Pnt
2794 2751 Pnt
2795 2751 Pnt
2821 2754 Pnt
2841 2756 Pnt
2850 2757 Pnt
2856 2758 Pnt
2864 2759 Pnt
2866 2759 Pnt
2869 2759 Pnt
2876 2760 Pnt
2882 2761 Pnt
2889 2761 Pnt
2890 2761 Pnt
2925 2765 Pnt
2932 2765 Pnt
2943 2766 Pnt
2950 2767 Pnt
2956 2769 Pnt
2960 2770 Pnt
3011 2783 Pnt
3017 2784 Pnt
3024 2784 Pnt
3027 2784 Pnt
3045 2782 Pnt
3060 2780 Pnt
3068 2779 Pnt
3078 2778 Pnt
3085 2777 Pnt
3091 2779 Pnt
3095 2779 Pnt
3116 2785 Pnt
3124 2787 Pnt
3134 2790 Pnt
3137 2790 Pnt
3139 2791 Pnt
3146 2793 Pnt
3152 2794 Pnt
3159 2793 Pnt
3160 2792 Pnt
3222 2776 Pnt
3231 2773 Pnt
3241 2771 Pnt
3247 2769 Pnt
3254 2768 Pnt
3255 2768 Pnt
3269 2767 Pnt
3323 2761 Pnt
3326 2760 Pnt
3329 2760 Pnt
3372 2755 Pnt
3380 2754 Pnt
3396 2752 Pnt
3403 2752 Pnt
3409 2751 Pnt
3410 2751 Pnt
3428 2751 Pnt
3455 2750 Pnt
3473 2749 Pnt
3481 2749 Pnt
3491 2749 Pnt
3497 2748 Pnt
3504 2748 Pnt
3505 2748 Pnt
3522 2745 Pnt
3547 2741 Pnt
3568 2739 Pnt
3599 2734 Pnt
3608 2733 Pnt
3649 2727 Pnt
3650 2727 Pnt
3652 2727 Pnt
3701 2719 Pnt
3732 2715 Pnt
3751 2712 Pnt
3752 2712 Pnt
3754 2712 Pnt
3757 2712 Pnt
3787 2714 Pnt
3820 2717 Pnt
3880 2722 Pnt
3909 2724 Pnt
3917 2725 Pnt
3978 2730 Pnt
4005 2732 Pnt
4008 2732 Pnt
4010 2732 Pnt
4012 2732 Pnt
4030 2730 Pnt
4062 2727 Pnt
4085 2725 Pnt
4120 2722 Pnt
4239 2711 Pnt
4257 2709 Pnt
4259 2709 Pnt
4265 2709 Pnt
4272 2708 Pnt
4321 2703 Pnt
4329 2703 Pnt
4338 2702 Pnt
4346 2701 Pnt
4357 2700 Pnt
4363 2700 Pnt
4370 2699 Pnt
4371 2699 Pnt
4455 2690 Pnt
4461 2692 Pnt
4468 2699 Pnt
4469 2701 Pnt
4507 2756 Pnt
4521 2777 Pnt
4553 2823 Pnt
4559 2834 Pnt
4566 2848 Pnt
4567 2852 Pnt
4651 3066 Pnt
4657 3082 Pnt
4663 3099 Pnt
4665 3102 Pnt
4712 3223 Pnt
4755 3336 Pnt
4762 3354 Pnt
4768 3373 Pnt
4769 3377 Pnt
4825 3556 Pnt
4840 3622 Pnt
4853 3622 Pnt
4860 3689 Pnt
4866 3689 Pnt
4867 3689 Pnt
4898 3622 Pnt
4912 3622 Pnt
4918 3622 Pnt
4925 3556 Pnt
4926 3556 Pnt
4945 3490 Pnt
4997 3259 Pnt
5003 3234 Pnt
5010 3218 Pnt
5011 3216 Pnt
5037 3170 Pnt
5040 3164 Pnt
5043 3158 Pnt
5050 3146 Pnt
5070 3109 Pnt
5076 3101 Pnt
5083 3099 Pnt
5084 3099 Pnt
5102 3102 Pnt
5109 3103 Pnt
5117 3105 Pnt
5187 3117 Pnt
5194 3113 Pnt
5200 3098 Pnt
5202 3094 Pnt
5312 2756 Pnt
5318 2736 Pnt
5325 2715 Pnt
5326 2711 Pnt
5354 2620 Pnt
5374 2554 Pnt
5394 2489 Pnt
5436 2351 Pnt
5442 2336 Pnt
5449 2334 Pnt
5450 2335 Pnt
5520 2378 Pnt
5527 2382 Pnt
5535 2387 Pnt
5553 2398 Pnt
5560 2399 Pnt
5566 2393 Pnt
5568 2391 Pnt
5594 2352 Pnt
5596 2349 Pnt
5599 2346 Pnt
5606 2335 Pnt
5626 2305 Pnt
5633 2291 Pnt
5639 2268 Pnt
5641 2263 Pnt
5655 2202 Pnt
5711 1963 Pnt
5718 1963 Pnt
5724 1963 Pnt
5726 1963 Pnt
5751 1897 Pnt
5754 1897 Pnt
5758 1897 Pnt
5764 1897 Pnt
5785 1897 Pnt
5791 1897 Pnt
5797 1897 Pnt
5799 1963 Pnt
5816 1963 Pnt
5824 2029 Pnt
5831 2029 Pnt
5898 2266 Pnt
5918 2333 Pnt
5938 2400 Pnt
5967 2498 Pnt
5974 2516 Pnt
5980 2528 Pnt
5982 2530 Pnt
6009 2565 Pnt
6029 2592 Pnt
6049 2618 Pnt
6065 2638 Pnt
6078 2656 Pnt
6085 2665 Pnt
6091 2674 Pnt
6093 2677 Pnt
6116 2713 Pnt
6125 2728 Pnt
6134 2743 Pnt
6190 2831 Pnt
6196 2841 Pnt
6202 2849 Pnt
6204 2851 Pnt
6453 3159 Pnt
6479 3192 Pnt
6487 3201 Pnt
6494 3210 Pnt
6505 3223 Pnt
6511 3231 Pnt
6514 3235 Pnt
6518 3239 Pnt
6538 3264 Pnt
6552 3303 Pnt
6567 3386 Pnt
6574 3423 Pnt
6594 3622 Pnt
6600 3622 Pnt
6604 3689 Pnt
6607 3689 Pnt
6626 3822 Pnt
6641 3888 Pnt
6657 3689 Pnt
6664 3622 Pnt
6693 3170 Pnt
6711 2905 Pnt
6717 2827 Pnt
6721 2759 Pnt
6749 2354 Pnt
6762 2158 Pnt
2215 4508 Pnt
% End plot #1
% Begin plot #2
1.500 UP
3.000 UL
LT1
0.00 0.00 1.00 C LCb setrgbcolor
1752 4148 M
[ [(Symbol) 240.0 0.0 true true 0 (d)]
[(Helvetica) 192.0 -72.0 true true 0 (p)]
[(Helvetica) 240.0 0.0 true true 0 (=1%)]
] -56.0 MRshow
LT1
0.00 0.00 1.00 C 1896 4148 M
639 0 V
904 2773 M
17 0 V
60 -1 V
6 -1 V
7 0 V
3 -1 V
16 -2 V
46 -7 V
11 -1 V
3 -1 V
10 -1 V
12 -2 V
3 0 V
2 -1 V
10 -2 V
20 -3 V
19 -3 V
13 -2 V
26 -5 V
27 -4 V
6 -1 V
7 -1 V
32 -6 V
33 -5 V
31 -6 V
9 -1 V
2 -1 V
2 0 V
3 0 V
5 -1 V
7 -3 V
6 -5 V
1 -1 V
14 -13 V
18 -18 V
26 -25 V
26 -26 V
14 -14 V
8 -8 V
11 -10 V
6 -2 V
7 5 V
1 2 V
49 71 V
7 8 V
6 5 V
2 1 V
9 5 V
8 4 V
9 5 V
8 5 V
98 57 V
134 76 V
7 5 V
6 8 V
2 2 V
9 13 V
7 10 V
31 43 V
2 2 V
6 5 V
7 -1 V
10 -9 V
9 -7 V
14 -12 V
26 -23 V
26 -22 V
14 -12 V
8 -7 V
10 -8 V
0 -1 V
7 -4 V
6 -1 V
1 0 V
2 0 V
3 1 V
22 2 V
38 3 V
44 5 V
44 4 V
50 5 V
3 0 V
2 1 V
2 1 V
55 29 V
40 22 V
21 11 V
7 4 V
11 5 V
6 2 V
7 -3 V
1 -1 V
9 -7 V
8 -7 V
30 -23 V
15 -13 V
16 -13 V
17 -13 V
4 -3 V
6 -5 V
7 -5 V
10 -9 V
4 -3 V
stroke 2512 2804 M
7 -4 V
6 -3 V
10 -3 V
8 -2 V
56 -19 V
31 -10 V
22 -7 V
8 -2 V
6 -2 V
8 -3 V
3 -1 V
2 0 V
7 -3 V
7 -1 V
6 -1 V
1 0 V
63 -3 V
8 0 V
10 -1 V
6 -1 V
7 -1 V
1 -1 V
26 -10 V
20 -7 V
9 -4 V
6 -2 V
8 -3 V
2 -1 V
3 -1 V
7 -2 V
6 -1 V
7 1 V
1 1 V
35 16 V
7 4 V
11 5 V
7 2 V
6 0 V
4 0 V
51 -3 V
6 0 V
7 2 V
3 1 V
18 7 V
15 5 V
8 3 V
10 4 V
7 2 V
6 2 V
4 1 V
21 5 V
8 3 V
10 2 V
3 1 V
2 1 V
7 2 V
6 1 V
7 1 V
1 0 V
62 4 V
9 0 V
10 1 V
6 1 V
7 2 V
1 0 V
14 6 V
54 21 V
3 1 V
3 1 V
43 16 V
8 3 V
16 6 V
7 2 V
6 -2 V
1 0 V
18 -8 V
27 -11 V
18 -8 V
8 -3 V
10 -4 V
6 -3 V
7 0 V
1 0 V
17 -1 V
25 0 V
21 -1 V
31 -1 V
9 0 V
41 -1 V
1 0 V
2 0 V
49 -1 V
31 -1 V
19 -1 V
1 0 V
2 0 V
3 0 V
30 -6 V
33 -5 V
60 -11 V
29 -5 V
8 -2 V
61 -10 V
27 -5 V
stroke 4005 2748 M
3 -1 V
2 0 V
2 -1 V
18 -4 V
32 -9 V
23 -5 V
35 -9 V
119 -30 V
18 -5 V
2 0 V
6 -2 V
7 -2 V
49 -12 V
8 -2 V
9 -2 V
8 -3 V
11 -2 V
6 -2 V
7 -2 V
1 0 V
84 -23 V
6 3 V
7 12 V
1 4 V
38 97 V
14 38 V
32 80 V
6 19 V
7 26 V
1 5 V
84 370 V
6 29 V
6 29 V
2 6 V
47 206 V
43 199 V
7 0 V
6 67 V
1 0 V
56 332 V
15 66 V
13 66 V
7 0 V
6 0 V
1 0 V
31 0 V
14 -66 V
6 0 V
7 0 V
1 -66 V
19 -133 V
52 -399 V
6 0 V
7 -66 V
1 0 V
26 -66 V
3 0 V
3 0 V
7 -67 V
20 -34 V
6 -13 V
7 -1 V
1 1 V
18 12 V
7 5 V
8 6 V
70 24 V
7 0 V
6 -7 V
2 -7 V
110 -607 V
6 -35 V
7 -36 V
1 -7 V
28 -151 V
20 -110 V
20 -109 V
42 -230 V
6 -26 V
7 -2 V
1 0 V
70 36 V
7 4 V
8 4 V
18 11 V
7 -2 V
6 -14 V
2 -3 V
26 -103 V
2 0 V
3 0 V
7 0 V
20 -66 V
7 0 V
6 -66 V
2 0 V
14 -133 V
56 -399 V
7 -66 V
6 0 V
2 0 V
25 -66 V
3 0 V
4 0 V
stroke 5758 1233 M
6 0 V
21 0 V
6 0 V
6 0 V
2 66 V
17 66 V
8 67 V
7 66 V
67 399 V
20 132 V
20 105 V
29 180 V
7 34 V
6 23 V
2 4 V
27 76 V
20 55 V
20 55 V
16 43 V
13 37 V
7 19 V
6 19 V
2 4 V
23 71 V
9 27 V
9 29 V
56 169 V
6 18 V
6 15 V
2 3 V
249 475 V
26 66 V
8 0 V
7 66 V
11 0 V
6 0 V
3 0 V
4 0 V
20 67 V
14 66 V
15 133 V
7 133 V
20 265 V
6 67 V
4 66 V
3 66 V
19 200 V
15 66 V
16 -266 V
7 -199 V
29 -796 V
18 -462 V
6 -141 V
4 -123 V
28 -735 V
13 -332 V
5 -133 V
904 2773 Pnt
921 2773 Pnt
981 2772 Pnt
987 2771 Pnt
994 2771 Pnt
997 2770 Pnt
1013 2768 Pnt
1059 2761 Pnt
1070 2760 Pnt
1073 2759 Pnt
1083 2758 Pnt
1095 2756 Pnt
1098 2756 Pnt
1100 2755 Pnt
1110 2753 Pnt
1130 2750 Pnt
1149 2747 Pnt
1162 2745 Pnt
1188 2740 Pnt
1215 2736 Pnt
1221 2735 Pnt
1228 2734 Pnt
1260 2728 Pnt
1293 2723 Pnt
1324 2717 Pnt
1333 2716 Pnt
1335 2715 Pnt
1337 2715 Pnt
1340 2715 Pnt
1345 2714 Pnt
1352 2711 Pnt
1358 2706 Pnt
1359 2705 Pnt
1373 2692 Pnt
1391 2674 Pnt
1417 2649 Pnt
1443 2623 Pnt
1457 2609 Pnt
1465 2601 Pnt
1476 2591 Pnt
1482 2589 Pnt
1489 2594 Pnt
1490 2596 Pnt
1539 2667 Pnt
1546 2675 Pnt
1552 2680 Pnt
1554 2681 Pnt
1563 2686 Pnt
1571 2690 Pnt
1580 2695 Pnt
1588 2700 Pnt
1686 2757 Pnt
1820 2833 Pnt
1827 2838 Pnt
1833 2846 Pnt
1835 2848 Pnt
1844 2861 Pnt
1851 2871 Pnt
1882 2914 Pnt
1884 2916 Pnt
1890 2921 Pnt
1897 2920 Pnt
1907 2911 Pnt
1916 2904 Pnt
1930 2892 Pnt
1956 2869 Pnt
1982 2847 Pnt
1996 2835 Pnt
2004 2828 Pnt
2014 2820 Pnt
2014 2819 Pnt
2021 2815 Pnt
2027 2814 Pnt
2028 2814 Pnt
2030 2814 Pnt
2033 2815 Pnt
2055 2817 Pnt
2093 2820 Pnt
2137 2825 Pnt
2181 2829 Pnt
2231 2834 Pnt
2234 2834 Pnt
2236 2835 Pnt
2238 2836 Pnt
2293 2865 Pnt
2333 2887 Pnt
2354 2898 Pnt
2361 2902 Pnt
2372 2907 Pnt
2378 2909 Pnt
2385 2906 Pnt
2386 2905 Pnt
2395 2898 Pnt
2403 2891 Pnt
2433 2868 Pnt
2448 2855 Pnt
2464 2842 Pnt
2481 2829 Pnt
2485 2826 Pnt
2491 2821 Pnt
2498 2816 Pnt
2508 2807 Pnt
2512 2804 Pnt
2519 2800 Pnt
2525 2797 Pnt
2535 2794 Pnt
2543 2792 Pnt
2599 2773 Pnt
2630 2763 Pnt
2652 2756 Pnt
2660 2754 Pnt
2666 2752 Pnt
2674 2749 Pnt
2677 2748 Pnt
2679 2748 Pnt
2686 2745 Pnt
2693 2744 Pnt
2699 2743 Pnt
2700 2743 Pnt
2763 2740 Pnt
2771 2740 Pnt
2781 2739 Pnt
2787 2738 Pnt
2794 2737 Pnt
2795 2736 Pnt
2821 2726 Pnt
2841 2719 Pnt
2850 2715 Pnt
2856 2713 Pnt
2864 2710 Pnt
2866 2709 Pnt
2869 2708 Pnt
2876 2706 Pnt
2882 2705 Pnt
2889 2706 Pnt
2890 2707 Pnt
2925 2723 Pnt
2932 2727 Pnt
2943 2732 Pnt
2950 2734 Pnt
2956 2734 Pnt
2960 2734 Pnt
3011 2731 Pnt
3017 2731 Pnt
3024 2733 Pnt
3027 2734 Pnt
3045 2741 Pnt
3060 2746 Pnt
3068 2749 Pnt
3078 2753 Pnt
3085 2755 Pnt
3091 2757 Pnt
3095 2758 Pnt
3116 2763 Pnt
3124 2766 Pnt
3134 2768 Pnt
3137 2769 Pnt
3139 2770 Pnt
3146 2772 Pnt
3152 2773 Pnt
3159 2774 Pnt
3160 2774 Pnt
3222 2778 Pnt
3231 2778 Pnt
3241 2779 Pnt
3247 2780 Pnt
3254 2782 Pnt
3255 2782 Pnt
3269 2788 Pnt
3323 2809 Pnt
3326 2810 Pnt
3329 2811 Pnt
3372 2827 Pnt
3380 2830 Pnt
3396 2836 Pnt
3403 2838 Pnt
3409 2836 Pnt
3410 2836 Pnt
3428 2828 Pnt
3455 2817 Pnt
3473 2809 Pnt
3481 2806 Pnt
3491 2802 Pnt
3497 2799 Pnt
3504 2799 Pnt
3505 2799 Pnt
3522 2798 Pnt
3547 2798 Pnt
3568 2797 Pnt
3599 2796 Pnt
3608 2796 Pnt
3649 2795 Pnt
3650 2795 Pnt
3652 2795 Pnt
3701 2794 Pnt
3732 2793 Pnt
3751 2792 Pnt
3752 2792 Pnt
3754 2792 Pnt
3757 2792 Pnt
3787 2786 Pnt
3820 2781 Pnt
3880 2770 Pnt
3909 2765 Pnt
3917 2763 Pnt
3978 2753 Pnt
4005 2748 Pnt
4008 2747 Pnt
4010 2747 Pnt
4012 2746 Pnt
4030 2742 Pnt
4062 2733 Pnt
4085 2728 Pnt
4120 2719 Pnt
4239 2689 Pnt
4257 2684 Pnt
4259 2684 Pnt
4265 2682 Pnt
4272 2680 Pnt
4321 2668 Pnt
4329 2666 Pnt
4338 2664 Pnt
4346 2661 Pnt
4357 2659 Pnt
4363 2657 Pnt
4370 2655 Pnt
4371 2655 Pnt
4455 2632 Pnt
4461 2635 Pnt
4468 2647 Pnt
4469 2651 Pnt
4507 2748 Pnt
4521 2786 Pnt
4553 2866 Pnt
4559 2885 Pnt
4566 2911 Pnt
4567 2916 Pnt
4651 3286 Pnt
4657 3315 Pnt
4663 3344 Pnt
4665 3350 Pnt
4712 3556 Pnt
4755 3755 Pnt
4762 3755 Pnt
4768 3822 Pnt
4769 3822 Pnt
4825 4154 Pnt
4840 4220 Pnt
4853 4286 Pnt
4860 4286 Pnt
4866 4286 Pnt
4867 4286 Pnt
4898 4286 Pnt
4912 4220 Pnt
4918 4220 Pnt
4925 4220 Pnt
4926 4154 Pnt
4945 4021 Pnt
4997 3622 Pnt
5003 3622 Pnt
5010 3556 Pnt
5011 3556 Pnt
5037 3490 Pnt
5040 3490 Pnt
5043 3490 Pnt
5050 3423 Pnt
5070 3389 Pnt
5076 3376 Pnt
5083 3375 Pnt
5084 3376 Pnt
5102 3388 Pnt
5109 3393 Pnt
5117 3399 Pnt
5187 3423 Pnt
5194 3423 Pnt
5200 3416 Pnt
5202 3409 Pnt
5312 2802 Pnt
5318 2767 Pnt
5325 2731 Pnt
5326 2724 Pnt
5354 2573 Pnt
5374 2463 Pnt
5394 2354 Pnt
5436 2124 Pnt
5442 2098 Pnt
5449 2096 Pnt
5450 2096 Pnt
5520 2132 Pnt
5527 2136 Pnt
5535 2140 Pnt
5553 2151 Pnt
5560 2149 Pnt
5566 2135 Pnt
5568 2132 Pnt
5594 2029 Pnt
5596 2029 Pnt
5599 2029 Pnt
5606 2029 Pnt
5626 1963 Pnt
5633 1963 Pnt
5639 1897 Pnt
5641 1897 Pnt
5655 1764 Pnt
5711 1365 Pnt
5718 1299 Pnt
5724 1299 Pnt
5726 1299 Pnt
5751 1233 Pnt
5754 1233 Pnt
5758 1233 Pnt
5764 1233 Pnt
5785 1233 Pnt
5791 1233 Pnt
5797 1233 Pnt
5799 1299 Pnt
5816 1365 Pnt
5824 1432 Pnt
5831 1498 Pnt
5898 1897 Pnt
5918 2029 Pnt
5938 2134 Pnt
5967 2314 Pnt
5974 2348 Pnt
5980 2371 Pnt
5982 2375 Pnt
6009 2451 Pnt
6029 2506 Pnt
6049 2561 Pnt
6065 2604 Pnt
6078 2641 Pnt
6085 2660 Pnt
6091 2679 Pnt
6093 2683 Pnt
6116 2754 Pnt
6125 2781 Pnt
6134 2810 Pnt
6190 2979 Pnt
6196 2997 Pnt
6202 3012 Pnt
6204 3015 Pnt
6453 3490 Pnt
6479 3556 Pnt
6487 3556 Pnt
6494 3622 Pnt
6505 3622 Pnt
6511 3622 Pnt
6514 3622 Pnt
6518 3622 Pnt
6538 3689 Pnt
6552 3755 Pnt
6567 3888 Pnt
6574 4021 Pnt
6594 4286 Pnt
6600 4353 Pnt
6604 4419 Pnt
6607 4485 Pnt
6626 4685 Pnt
6641 4751 Pnt
6657 4485 Pnt
6664 4286 Pnt
6693 3490 Pnt
6711 3028 Pnt
6717 2887 Pnt
6721 2764 Pnt
6749 2029 Pnt
6762 1697 Pnt
2215 4148 Pnt
% End plot #2
% Begin plot #3
1.500 UP
3.000 UL
LT2
0.00 0.00 0.00 C LCb setrgbcolor
1752 3788 M
[ [(Symbol) 240.0 0.0 true true 0 (d)]
[(Helvetica) 192.0 -72.0 true true 0 (p)]
[(Helvetica) 240.0 0.0 true true 0 (=-1%)]
] -56.0 MRshow
LT2
0.00 0.00 0.00 C 1896 3788 M
639 0 V
904 2773 M
17 0 V
60 -1 V
6 -1 V
7 0 V
3 -1 V
16 -2 V
46 -7 V
11 -1 V
3 -1 V
10 -1 V
12 -2 V
3 0 V
2 -1 V
10 -2 V
20 -3 V
19 -3 V
13 -2 V
26 -5 V
27 -4 V
6 -1 V
7 -1 V
32 -6 V
33 -5 V
31 -6 V
9 -1 V
2 -1 V
2 0 V
3 0 V
5 -1 V
7 -3 V
6 -5 V
1 -1 V
14 -13 V
18 -18 V
26 -25 V
26 -26 V
14 -14 V
8 -8 V
11 -10 V
6 -2 V
7 5 V
1 2 V
49 71 V
7 8 V
6 5 V
2 1 V
9 5 V
8 4 V
9 5 V
8 5 V
98 57 V
134 76 V
7 5 V
6 8 V
2 2 V
9 13 V
7 10 V
31 43 V
2 2 V
6 5 V
7 -1 V
10 -9 V
9 -7 V
14 -12 V
26 -23 V
26 -22 V
14 -12 V
8 -7 V
10 -8 V
0 -1 V
7 -4 V
6 -1 V
1 0 V
2 0 V
3 1 V
22 2 V
38 3 V
44 5 V
44 4 V
50 5 V
3 0 V
2 1 V
2 1 V
55 29 V
40 22 V
21 11 V
7 4 V
11 5 V
6 2 V
7 -3 V
1 -1 V
9 -7 V
8 -7 V
30 -23 V
15 -13 V
16 -13 V
17 -13 V
4 -3 V
6 -5 V
7 -5 V
10 -9 V
4 -3 V
stroke 2512 2804 M
7 -4 V
6 -3 V
10 -3 V
8 -2 V
56 -19 V
31 -10 V
22 -7 V
8 -2 V
6 -2 V
8 -3 V
3 -1 V
2 0 V
7 -3 V
7 -1 V
6 -1 V
1 0 V
63 -3 V
8 0 V
10 -1 V
6 -1 V
7 -1 V
1 -1 V
26 -10 V
20 -7 V
9 -4 V
6 -2 V
8 -3 V
2 -1 V
3 -1 V
7 -2 V
6 -1 V
7 1 V
1 1 V
35 16 V
7 4 V
11 5 V
7 2 V
6 0 V
4 0 V
51 -3 V
6 0 V
7 2 V
3 1 V
18 7 V
15 5 V
8 3 V
10 4 V
7 2 V
6 2 V
4 1 V
21 5 V
8 3 V
10 2 V
3 1 V
2 1 V
7 2 V
6 1 V
7 1 V
1 0 V
62 4 V
9 0 V
10 1 V
6 1 V
7 2 V
1 0 V
14 6 V
54 21 V
3 1 V
3 1 V
43 16 V
8 3 V
16 6 V
7 2 V
6 -2 V
1 0 V
18 -8 V
27 -11 V
18 -8 V
8 -3 V
10 -4 V
6 -3 V
7 0 V
1 0 V
17 -1 V
25 0 V
21 -1 V
31 -1 V
9 0 V
41 -1 V
1 0 V
2 0 V
49 -1 V
31 -1 V
19 -1 V
1 0 V
2 0 V
3 0 V
30 -6 V
33 -5 V
60 -11 V
29 -5 V
8 -2 V
61 -10 V
27 -5 V
stroke 4005 2748 M
3 -1 V
2 0 V
2 -1 V
18 -4 V
32 -9 V
23 -5 V
35 -9 V
119 -30 V
18 -5 V
2 0 V
6 -2 V
7 -2 V
49 -12 V
8 -2 V
9 -2 V
8 -3 V
11 -2 V
6 -2 V
7 -2 V
1 0 V
84 -23 V
6 3 V
7 12 V
1 4 V
38 97 V
14 38 V
32 80 V
6 19 V
7 26 V
1 5 V
84 370 V
6 29 V
6 29 V
2 6 V
47 206 V
43 199 V
7 0 V
6 67 V
1 0 V
56 332 V
15 66 V
13 66 V
7 0 V
6 0 V
1 0 V
31 0 V
14 -66 V
6 0 V
7 0 V
1 -66 V
19 -133 V
52 -399 V
6 0 V
7 -66 V
1 0 V
26 -66 V
3 0 V
3 0 V
7 -67 V
20 -34 V
6 -13 V
7 -1 V
1 1 V
18 12 V
7 5 V
8 6 V
70 24 V
7 0 V
6 -7 V
2 -7 V
110 -607 V
6 -35 V
7 -36 V
1 -7 V
28 -151 V
20 -110 V
20 -109 V
42 -230 V
6 -26 V
7 -2 V
1 0 V
70 36 V
7 4 V
8 4 V
18 11 V
7 -2 V
6 -14 V
2 -3 V
26 -103 V
2 0 V
3 0 V
7 0 V
20 -66 V
7 0 V
6 -66 V
2 0 V
14 -133 V
56 -399 V
7 -66 V
6 0 V
2 0 V
25 -66 V
3 0 V
4 0 V
stroke 5758 1233 M
6 0 V
21 0 V
6 0 V
6 0 V
2 66 V
17 66 V
8 67 V
7 66 V
67 399 V
20 132 V
20 105 V
29 180 V
7 34 V
6 23 V
2 4 V
27 76 V
20 55 V
20 55 V
16 43 V
13 37 V
7 19 V
6 19 V
2 4 V
23 71 V
9 27 V
9 29 V
56 169 V
6 18 V
6 15 V
2 3 V
249 475 V
26 66 V
8 0 V
7 66 V
11 0 V
6 0 V
3 0 V
4 0 V
20 67 V
14 66 V
15 133 V
7 133 V
20 265 V
6 67 V
4 66 V
3 66 V
19 200 V
15 66 V
16 -266 V
7 -199 V
29 -796 V
18 -462 V
6 -141 V
4 -123 V
28 -735 V
13 -332 V
5 -133 V
904 2773 Pnt
921 2773 Pnt
981 2772 Pnt
987 2771 Pnt
994 2771 Pnt
997 2770 Pnt
1013 2768 Pnt
1059 2761 Pnt
1070 2760 Pnt
1073 2759 Pnt
1083 2758 Pnt
1095 2756 Pnt
1098 2756 Pnt
1100 2755 Pnt
1110 2753 Pnt
1130 2750 Pnt
1149 2747 Pnt
1162 2745 Pnt
1188 2740 Pnt
1215 2736 Pnt
1221 2735 Pnt
1228 2734 Pnt
1260 2728 Pnt
1293 2723 Pnt
1324 2717 Pnt
1333 2716 Pnt
1335 2715 Pnt
1337 2715 Pnt
1340 2715 Pnt
1345 2714 Pnt
1352 2711 Pnt
1358 2706 Pnt
1359 2705 Pnt
1373 2692 Pnt
1391 2674 Pnt
1417 2649 Pnt
1443 2623 Pnt
1457 2609 Pnt
1465 2601 Pnt
1476 2591 Pnt
1482 2589 Pnt
1489 2594 Pnt
1490 2596 Pnt
1539 2667 Pnt
1546 2675 Pnt
1552 2680 Pnt
1554 2681 Pnt
1563 2686 Pnt
1571 2690 Pnt
1580 2695 Pnt
1588 2700 Pnt
1686 2757 Pnt
1820 2833 Pnt
1827 2838 Pnt
1833 2846 Pnt
1835 2848 Pnt
1844 2861 Pnt
1851 2871 Pnt
1882 2914 Pnt
1884 2916 Pnt
1890 2921 Pnt
1897 2920 Pnt
1907 2911 Pnt
1916 2904 Pnt
1930 2892 Pnt
1956 2869 Pnt
1982 2847 Pnt
1996 2835 Pnt
2004 2828 Pnt
2014 2820 Pnt
2014 2819 Pnt
2021 2815 Pnt
2027 2814 Pnt
2028 2814 Pnt
2030 2814 Pnt
2033 2815 Pnt
2055 2817 Pnt
2093 2820 Pnt
2137 2825 Pnt
2181 2829 Pnt
2231 2834 Pnt
2234 2834 Pnt
2236 2835 Pnt
2238 2836 Pnt
2293 2865 Pnt
2333 2887 Pnt
2354 2898 Pnt
2361 2902 Pnt
2372 2907 Pnt
2378 2909 Pnt
2385 2906 Pnt
2386 2905 Pnt
2395 2898 Pnt
2403 2891 Pnt
2433 2868 Pnt
2448 2855 Pnt
2464 2842 Pnt
2481 2829 Pnt
2485 2826 Pnt
2491 2821 Pnt
2498 2816 Pnt
2508 2807 Pnt
2512 2804 Pnt
2519 2800 Pnt
2525 2797 Pnt
2535 2794 Pnt
2543 2792 Pnt
2599 2773 Pnt
2630 2763 Pnt
2652 2756 Pnt
2660 2754 Pnt
2666 2752 Pnt
2674 2749 Pnt
2677 2748 Pnt
2679 2748 Pnt
2686 2745 Pnt
2693 2744 Pnt
2699 2743 Pnt
2700 2743 Pnt
2763 2740 Pnt
2771 2740 Pnt
2781 2739 Pnt
2787 2738 Pnt
2794 2737 Pnt
2795 2736 Pnt
2821 2726 Pnt
2841 2719 Pnt
2850 2715 Pnt
2856 2713 Pnt
2864 2710 Pnt
2866 2709 Pnt
2869 2708 Pnt
2876 2706 Pnt
2882 2705 Pnt
2889 2706 Pnt
2890 2707 Pnt
2925 2723 Pnt
2932 2727 Pnt
2943 2732 Pnt
2950 2734 Pnt
2956 2734 Pnt
2960 2734 Pnt
3011 2731 Pnt
3017 2731 Pnt
3024 2733 Pnt
3027 2734 Pnt
3045 2741 Pnt
3060 2746 Pnt
3068 2749 Pnt
3078 2753 Pnt
3085 2755 Pnt
3091 2757 Pnt
3095 2758 Pnt
3116 2763 Pnt
3124 2766 Pnt
3134 2768 Pnt
3137 2769 Pnt
3139 2770 Pnt
3146 2772 Pnt
3152 2773 Pnt
3159 2774 Pnt
3160 2774 Pnt
3222 2778 Pnt
3231 2778 Pnt
3241 2779 Pnt
3247 2780 Pnt
3254 2782 Pnt
3255 2782 Pnt
3269 2788 Pnt
3323 2809 Pnt
3326 2810 Pnt
3329 2811 Pnt
3372 2827 Pnt
3380 2830 Pnt
3396 2836 Pnt
3403 2838 Pnt
3409 2836 Pnt
3410 2836 Pnt
3428 2828 Pnt
3455 2817 Pnt
3473 2809 Pnt
3481 2806 Pnt
3491 2802 Pnt
3497 2799 Pnt
3504 2799 Pnt
3505 2799 Pnt
3522 2798 Pnt
3547 2798 Pnt
3568 2797 Pnt
3599 2796 Pnt
3608 2796 Pnt
3649 2795 Pnt
3650 2795 Pnt
3652 2795 Pnt
3701 2794 Pnt
3732 2793 Pnt
3751 2792 Pnt
3752 2792 Pnt
3754 2792 Pnt
3757 2792 Pnt
3787 2786 Pnt
3820 2781 Pnt
3880 2770 Pnt
3909 2765 Pnt
3917 2763 Pnt
3978 2753 Pnt
4005 2748 Pnt
4008 2747 Pnt
4010 2747 Pnt
4012 2746 Pnt
4030 2742 Pnt
4062 2733 Pnt
4085 2728 Pnt
4120 2719 Pnt
4239 2689 Pnt
4257 2684 Pnt
4259 2684 Pnt
4265 2682 Pnt
4272 2680 Pnt
4321 2668 Pnt
4329 2666 Pnt
4338 2664 Pnt
4346 2661 Pnt
4357 2659 Pnt
4363 2657 Pnt
4370 2655 Pnt
4371 2655 Pnt
4455 2632 Pnt
4461 2635 Pnt
4468 2647 Pnt
4469 2651 Pnt
4507 2748 Pnt
4521 2786 Pnt
4553 2866 Pnt
4559 2885 Pnt
4566 2911 Pnt
4567 2916 Pnt
4651 3286 Pnt
4657 3315 Pnt
4663 3344 Pnt
4665 3350 Pnt
4712 3556 Pnt
4755 3755 Pnt
4762 3755 Pnt
4768 3822 Pnt
4769 3822 Pnt
4825 4154 Pnt
4840 4220 Pnt
4853 4286 Pnt
4860 4286 Pnt
4866 4286 Pnt
4867 4286 Pnt
4898 4286 Pnt
4912 4220 Pnt
4918 4220 Pnt
4925 4220 Pnt
4926 4154 Pnt
4945 4021 Pnt
4997 3622 Pnt
5003 3622 Pnt
5010 3556 Pnt
5011 3556 Pnt
5037 3490 Pnt
5040 3490 Pnt
5043 3490 Pnt
5050 3423 Pnt
5070 3389 Pnt
5076 3376 Pnt
5083 3375 Pnt
5084 3376 Pnt
5102 3388 Pnt
5109 3393 Pnt
5117 3399 Pnt
5187 3423 Pnt
5194 3423 Pnt
5200 3416 Pnt
5202 3409 Pnt
5312 2802 Pnt
5318 2767 Pnt
5325 2731 Pnt
5326 2724 Pnt
5354 2573 Pnt
5374 2463 Pnt
5394 2354 Pnt
5436 2124 Pnt
5442 2098 Pnt
5449 2096 Pnt
5450 2096 Pnt
5520 2132 Pnt
5527 2136 Pnt
5535 2140 Pnt
5553 2151 Pnt
5560 2149 Pnt
5566 2135 Pnt
5568 2132 Pnt
5594 2029 Pnt
5596 2029 Pnt
5599 2029 Pnt
5606 2029 Pnt
5626 1963 Pnt
5633 1963 Pnt
5639 1897 Pnt
5641 1897 Pnt
5655 1764 Pnt
5711 1365 Pnt
5718 1299 Pnt
5724 1299 Pnt
5726 1299 Pnt
5751 1233 Pnt
5754 1233 Pnt
5758 1233 Pnt
5764 1233 Pnt
5785 1233 Pnt
5791 1233 Pnt
5797 1233 Pnt
5799 1299 Pnt
5816 1365 Pnt
5824 1432 Pnt
5831 1498 Pnt
5898 1897 Pnt
5918 2029 Pnt
5938 2134 Pnt
5967 2314 Pnt
5974 2348 Pnt
5980 2371 Pnt
5982 2375 Pnt
6009 2451 Pnt
6029 2506 Pnt
6049 2561 Pnt
6065 2604 Pnt
6078 2641 Pnt
6085 2660 Pnt
6091 2679 Pnt
6093 2683 Pnt
6116 2754 Pnt
6125 2781 Pnt
6134 2810 Pnt
6190 2979 Pnt
6196 2997 Pnt
6202 3012 Pnt
6204 3015 Pnt
6453 3490 Pnt
6479 3556 Pnt
6487 3556 Pnt
6494 3622 Pnt
6505 3622 Pnt
6511 3622 Pnt
6514 3622 Pnt
6518 3622 Pnt
6538 3689 Pnt
6552 3755 Pnt
6567 3888 Pnt
6574 4021 Pnt
6594 4286 Pnt
6600 4353 Pnt
6604 4419 Pnt
6607 4485 Pnt
6626 4685 Pnt
6641 4751 Pnt
6657 4485 Pnt
6664 4286 Pnt
6693 3490 Pnt
6711 3028 Pnt
6717 2887 Pnt
6721 2764 Pnt
6749 2029 Pnt
6762 1697 Pnt
2215 3788 Pnt
% End plot #3
1.000 UL
LTb
LCb setrgbcolor
888 4751 N
888 768 L
5879 0 V
0 3983 V
-5879 0 V
Z stroke
1.000 UP
1.000 UL
LTb
LCb setrgbcolor
stroke
grestore
end
showpage
%%Trailer
%%DocumentFonts: Italic Symbol Helvetica
