7.08703E-6	7.49763E-6	4.0145E-6	1.14292E-5	5.65749E-6	-3.6974E-6	-2.1592E-5	-3.7795E-5	2.13956E-5
4.42744E-6	4.68417E-6	2.50831E-6	7.14143E-6	3.53515E-6	-2.3101E-6	-1.3491E-5	-2.3615E-5	1.82802E-5
-1.501E-5	-1.588E-5	-8.5024E-6	-2.4206E-5	-1.1982E-5	7.83084E-6	4.57295E-5	8.00214E-5	-3.9647E-6
5.08963E-6	5.38452E-6	2.88308E-6	8.2081E-6	4.06304E-6	-2.6553E-6	-1.5506E-5	-2.7142E-5	1.94336E-5
-2.2725E-6	-2.404E-6	-1.287E-6	-3.6637E-6	-1.8134E-6	1.18537E-6	6.92157E-6	1.21143E-5	1.12889E-5
6.06519E-6	6.4167E-6	3.43587E-6	9.78204E-6	4.84221E-6	-3.1644E-6	-1.848E-5	-3.2348E-5	2.03713E-5
2.41265E-5	2.55245E-5	1.3667E-5	3.891E-5	1.92607E-5	-1.2587E-5	-7.3507E-5	-1.2871E-4	3.9043E-5
-3.7587E-6	-3.9764E-6	-2.1291E-6	-6.0615E-6	-3.0004E-6	1.96093E-6	1.14512E-5	2.00421E-5	8.81822E-6
-2.4555E-6	-2.5977E-6	-1.3908E-6	-3.9593E-6	-1.9598E-6	1.28095E-6	7.47992E-6	1.30914E-5	1.09563E-5
2.09897E-5	2.2206E-5	1.18902E-5	3.38516E-5	1.67568E-5	-1.0951E-5	-6.3951E-5	-1.1197E-4	3.56414E-5
-1.377E-6	-1.4568E-6	-7.801E-7	-2.221E-6	-1.0995E-6	7.1845E-7	4.19581E-6	7.34465E-6	1.12581E-5
-6.0811E-6	-6.4333E-6	-3.4445E-6	-9.8064E-6	-4.8542E-6	3.17248E-6	1.85261E-5	3.24229E-5	7.01267E-6
9.39642E-6	9.94094E-6	5.32288E-6	1.51543E-5	7.50151E-6	-4.9024E-6	-2.8629E-5	-5.0116E-5	2.36089E-5
9.94115E-6	1.05173E-5	5.63153E-6	1.60331E-5	7.93654E-6	-5.1866E-6	-3.0289E-5	-5.3022E-5	2.43682E-5
6.00075E-8	6.35136E-8	3.40401E-8	9.69553E-8	4.80093E-8	-3.1342E-8	-1.8312E-7	-3.2027E-7	1.31987E-5
-1.4985E-5	-1.5853E-5	-8.488E-6	-2.4165E-5	-1.1962E-5	7.8176E-6	4.56523E-5	7.9886E-5	-2.8006E-6
-3.107E-5	-3.287E-5	-1.7599E-5	-5.0105E-5	-2.4802E-5	1.62093E-5	9.46566E-5	1.65596E-4	-2.1746E-5
2.04329E-5	2.16169E-5	1.15746E-5	3.2953E-5	1.63119E-5	-1.066E-5	-6.2253E-5	-1.0899E-4	3.57548E-5
7.40048E-6	7.82924E-6	4.19206E-6	1.19347E-5	5.90772E-6	-3.8609E-6	-2.2547E-5	-3.9467E-5	2.16618E-5
2.62851E-6	2.78091E-6	1.48914E-6	4.23973E-6	2.09875E-6	-1.3715E-6	-8.0094E-6	-1.4019E-5	1.67575E-5
1.8471E-5	1.95414E-5	1.04635E-5	2.97899E-5	1.47463E-5	-9.6369E-6	-5.6278E-5	-9.8529E-5	3.33751E-5
-3.9418E-6	-4.1702E-6	-2.2329E-6	-6.3571E-6	-3.1468E-6	2.05653E-6	1.20096E-5	2.1019E-5	9.39675E-6
-7.3171E-6	-7.7409E-6	-4.1446E-6	-1.1799E-5	-5.8407E-6	3.81728E-6	2.22913E-5	3.90118E-5	4.93618E-6
2.67905E-5	2.83429E-5	1.51761E-5	4.32063E-5	2.13874E-5	-1.3977E-5	-8.1624E-5	-1.4292E-4	4.17813E-5
8.68366E-6	9.18685E-6	4.91907E-6	1.40046E-5	6.93239E-6	-4.5305E-6	-2.6457E-5	-4.6313E-5	2.28365E-5
2.27024E-5	2.4018E-5	1.28604E-5	3.66139E-5	1.81241E-5	-1.1844E-5	-6.9169E-5	-1.2111E-4	3.75344E-5
6.07306E-6	6.42497E-6	3.44022E-6	9.79432E-6	4.84825E-6	-3.1685E-6	-1.8503E-5	-3.2388E-5	2.02555E-5
2.02901E-5	2.14657E-5	1.14937E-5	3.27224E-5	1.61978E-5	-1.0586E-5	-6.1818E-5	-1.0823E-4	3.53366E-5
1.85734E-5	1.96497E-5	1.05215E-5	2.99549E-5	1.48279E-5	-9.6903E-6	-5.6589E-5	-9.9075E-5	3.38402E-5
-1.4682E-5	-1.5533E-5	-8.3167E-6	-2.3677E-5	-1.172E-5	7.65979E-6	4.47306E-5	7.82732E-5	-2.8228E-6
-1.6674E-5	-1.764E-5	-9.4451E-6	-2.689E-5	-1.3311E-5	8.69912E-6	5.07999E-5	8.8891E-5	-5.067E-6
-3.0583E-6	-3.2355E-6	-1.7325E-6	-4.9325E-6	-2.4416E-6	1.5956E-6	9.31812E-6	1.63096E-5	9.34452E-6
6.45858E-6	6.8329E-6	3.65873E-6	1.04165E-5	5.1563E-6	-3.3697E-6	-1.9678E-5	-3.4446E-5	2.08636E-5
-3.3547E-7	-3.5479E-7	-1.8985E-7	-5.4034E-7	-2.6741E-7	1.74895E-7	1.02097E-6	1.78696E-6	1.32531E-5
-3.349E-5	-3.543E-5	-1.897E-5	-5.4008E-5	-2.6734E-5	1.74721E-5	1.02031E-4	1.7849E-4	-2.4942E-5
-1.3091E-5	-1.3849E-5	-7.4151E-6	-2.111E-5	-1.045E-5	6.82943E-6	3.98812E-5	6.97891E-5	-8.0896E-7
-5.4019E-6	-5.7147E-6	-3.0597E-6	-8.7106E-6	-4.3117E-6	2.81805E-6	1.6456E-5	2.88004E-5	7.9569E-6
2.97283E-6	3.14514E-6	1.68411E-6	4.79475E-6	2.37346E-6	-1.5511E-6	-9.058E-6	-1.5855E-5	1.68866E-5
4.53344E-7	4.79639E-7	2.56851E-7	7.31295E-7	3.6201E-7	-2.3655E-7	-1.3815E-6	-2.4176E-6	1.44631E-5
1.73147E-5	1.83182E-5	9.80862E-6	2.79255E-5	1.38234E-5	-9.0337E-6	-5.2755E-5	-9.2361E-5	3.18623E-5
-4.7679E-6	-5.0441E-6	-2.7008E-6	-7.6891E-6	-3.8061E-6	2.48747E-6	1.4526E-5	2.54227E-5	8.21517E-6
-3.6703E-6	-3.8829E-6	-2.079E-6	-5.9189E-6	-2.9299E-6	1.91481E-6	1.11819E-5	1.95707E-5	8.92695E-6
1.34042E-6	1.4182E-6	7.59492E-7	2.16244E-6	1.07048E-6	-6.9945E-7	-4.085E-6	-7.1498E-6	1.46022E-5
3.59961E-5	3.8082E-5	2.0391E-5	5.80536E-5	2.87369E-5	-1.878E-5	-1.0967E-4	-1.9206E-4	5.1392E-5
-1.6657E-5	-1.7622E-5	-9.4354E-6	-2.6862E-5	-1.3297E-5	8.69015E-6	5.07476E-5	8.87999E-5	-5.7342E-6
8.66377E-6	9.16581E-6	4.90781E-6	1.39726E-5	6.91653E-6	-4.5201E-6	-2.6396E-5	-4.6207E-5	2.31025E-5
7.89447E-6	8.35193E-6	4.47202E-6	1.27319E-5	6.30237E-6	-4.1187E-6	-2.4053E-5	-4.2103E-5	2.16442E-5
3.26829E-5	3.4577E-5	1.85144E-5	5.27108E-5	2.60923E-5	-1.7052E-5	-9.9579E-5	-1.7438E-4	4.8241E-5
-5.1899E-6	-5.4906E-6	-2.9399E-6	-8.3699E-6	-4.1432E-6	2.70768E-6	1.58121E-5	2.76737E-5	7.37809E-6
3.86994E-6	4.09417E-6	2.19219E-6	6.24116E-6	3.0894E-6	-2.019E-6	-1.1791E-5	-2.0638E-5	1.78428E-5
-8.858E-7	-9.3705E-7	-5.0165E-7	-1.4281E-6	-7.0686E-7	4.62049E-7	2.69798E-6	4.72212E-6	1.25482E-5
-2.4966E-6	-2.6412E-6	-1.4142E-6	-4.0262E-6	-1.993E-6	1.3025E-6	7.60624E-6	1.33128E-5	1.03788E-5
-1.2566E-5	-1.3294E-5	-7.1179E-6	-2.0264E-5	-1.0031E-5	6.55561E-6	3.82829E-5	6.6993E-5	-5.5297E-8
-6.9192E-6	-7.32E-6	-3.9193E-6	-1.1158E-5	-5.5233E-6	3.60978E-6	2.10799E-5	3.68916E-5	5.77608E-6
3.47583E-6	3.67744E-6	1.9693E-6	5.6069E-6	2.77556E-6	-1.8136E-6	-1.0592E-5	-1.854E-5	1.72377E-5
-1.1732E-5	-1.2412E-5	-6.6458E-6	-1.892E-5	-9.3656E-6	6.1209E-6	3.5744E-5	6.25509E-5	9.42386E-7
1.83896E-5	1.94552E-5	1.04171E-5	2.96575E-5	1.46806E-5	-9.5942E-6	-5.6028E-5	-9.8092E-5	3.28818E-5
-1.3915E-5	-1.4721E-5	-7.8822E-6	-2.244E-5	-1.1108E-5	7.25968E-6	4.2394E-5	7.41853E-5	-1.8624E-6
2.76484E-5	2.92504E-5	1.5662E-5	4.45896E-5	2.20721E-5	-1.4425E-5	-8.4237E-5	-1.475E-4	4.35095E-5
2.62296E-6	2.77508E-6	1.48604E-6	4.23096E-6	2.09442E-6	-1.3686E-6	-7.9927E-6	-1.399E-5	1.63848E-5
1.62353E-5	1.7176E-5	9.19677E-6	2.61832E-5	1.29608E-5	-8.4703E-6	-4.9464E-5	-8.6597E-5	3.13606E-5
1.56059E-5	1.65102E-5	8.84033E-6	2.51685E-5	1.24586E-5	-8.142E-6	-4.7547E-5	-8.3241E-5	3.05052E-5
1.25535E-5	1.32809E-5	7.11122E-6	2.02457E-5	1.00217E-5	-6.5495E-6	-3.8247E-5	-6.6956E-5	2.73008E-5
1.07771E-6	1.14023E-6	6.10601E-7	1.73848E-6	8.60594E-7	-5.6234E-7	-3.2842E-6	-5.7483E-6	1.45372E-5
1.32989E-5	1.40697E-5	7.53373E-6	2.14488E-5	1.06174E-5	-6.9385E-6	-4.052E-5	-7.0935E-5	2.82666E-5
2.86949E-5	3.03577E-5	1.6255E-5	4.62782E-5	2.2908E-5	-1.4971E-5	-8.7427E-5	-1.5309E-4	4.43451E-5
-1.0789E-6	-1.1413E-6	-6.1095E-7	-1.7392E-6	-8.6081E-7	5.62737E-7	3.28577E-6	5.75111E-6	1.26948E-5
2.39562E-5	2.53444E-5	1.35706E-5	3.86358E-5	1.9125E-5	-1.2499E-5	-7.2989E-5	-1.278E-4	3.86011E-5
-4.4164E-6	-4.6722E-6	-2.5015E-6	-7.1216E-6	-3.5252E-6	2.30397E-6	1.34541E-5	2.35469E-5	8.79393E-6
-1.0654E-5	-1.1271E-5	-6.0352E-6	-1.7182E-5	-8.5053E-6	5.55841E-6	3.24598E-5	5.68043E-5	1.508E-6
3.59621E-6	3.80456E-6	2.0371E-6	5.7996E-6	2.87082E-6	-1.8762E-6	-1.0956E-5	-1.9178E-5	1.72819E-5
-1.2343E-5	-1.3058E-5	-6.9919E-6	-1.9906E-5	-9.8534E-6	6.4396E-6	3.76054E-5	6.58073E-5	-5.7512E-8
-2.4731E-5	-2.6164E-5	-1.4009E-5	-3.9883E-5	-1.9742E-5	1.29026E-5	7.53466E-5	1.31827E-4	-1.5027E-5
-1.2254E-5	-1.2963E-5	-6.941E-6	-1.9761E-5	-9.7815E-6	6.39274E-6	3.73313E-5	6.53277E-5	-1.2435E-7
6.11369E-6	6.46801E-6	3.46333E-6	9.86021E-6	4.8809E-6	-3.1897E-6	-1.8627E-5	-3.2606E-5	1.96981E-5
-9.151E-6	-9.6812E-6	-5.1836E-6	-1.4758E-5	-7.3051E-6	4.77419E-6	2.78798E-5	4.87905E-5	3.49029E-6
-5.9341E-6	-6.2779E-6	-3.3615E-6	-9.5703E-6	-4.7373E-6	3.09596E-6	1.80797E-5	3.1642E-5	7.39795E-6
-4.7089E-6	-4.9815E-6	-2.667E-6	-7.5926E-6	-3.7582E-6	2.45643E-6	1.43441E-5	2.51044E-5	7.98747E-6
-8.0394E-6	-8.5051E-6	-4.5539E-6	-1.2965E-5	-6.4176E-6	4.19422E-6	2.44929E-5	4.2864E-5	4.43877E-6
-3.2489E-6	-3.4372E-6	-1.8404E-6	-5.2395E-6	-2.5936E-6	1.69501E-6	9.89838E-6	1.73243E-5	9.50745E-6
-2.0975E-6	-2.219E-6	-1.1881E-6	-3.3824E-6	-1.6743E-6	1.09425E-6	6.39002E-6	1.1184E-5	1.10605E-5
1.18929E-5	1.25821E-5	6.73708E-6	1.91806E-5	9.49452E-6	-6.2049E-6	-3.6235E-5	-6.3433E-5	2.61952E-5
-1.9431E-5	-2.0557E-5	-1.1007E-5	-3.1336E-5	-1.5511E-5	1.01373E-5	5.91983E-5	1.03583E-4	-8.7784E-6
-3.0312E-7	-3.2077E-7	-1.7185E-7	-4.894E-7	-2.4231E-7	1.58244E-7	9.24412E-7	1.61806E-6	1.29929E-5
-1.1961E-5	-1.2654E-5	-6.7756E-6	-1.929E-5	-9.5487E-6	6.24042E-6	3.64422E-5	6.37723E-5	3.55799E-7
5.90177E-6	6.24372E-6	3.34313E-6	9.51787E-6	4.71138E-6	-3.079E-6	-1.7981E-5	-3.1474E-5	1.97683E-5
2.31437E-7	2.44921E-7	1.31224E-7	3.73707E-7	1.85028E-7	-1.2083E-7	-7.0587E-7	-1.2352E-6	1.41333E-5
-8.3353E-6	-8.8182E-6	-4.7215E-6	-1.3442E-5	-6.6537E-6	4.34856E-6	2.5394E-5	4.44411E-5	3.87883E-6
-1.029E-5	-1.0887E-5	-5.829E-6	-1.6595E-5	-8.2144E-6	5.36855E-6	3.13505E-5	5.48636E-5	2.47316E-6
8.91355E-6	9.43026E-6	5.04962E-6	1.43766E-5	7.11663E-6	-4.6506E-6	-2.7159E-5	-4.7543E-5	2.30012E-5
7.47739E-6	7.9106E-6	4.23562E-6	1.20587E-5	5.96911E-6	-3.901E-6	-2.2781E-5	-3.9878E-5	2.17038E-5
4.60035E-6	4.86697E-6	2.60606E-6	7.41954E-6	3.67274E-6	-2.4002E-6	-1.4017E-5	-2.4534E-5	1.80228E-5
-9.225E-6	-9.7595E-6	-5.2256E-6	-1.4877E-5	-7.3642E-6	4.8128E-6	2.81053E-5	4.91853E-5	2.88996E-6
3.82777E-6	4.04959E-6	2.16835E-6	6.17332E-6	3.05584E-6	-1.9971E-6	-1.1662E-5	-2.0413E-5	1.70484E-5
-1.4479E-5	-1.5318E-5	-8.2018E-6	-2.335E-5	-1.1558E-5	7.55399E-6	4.41126E-5	7.71921E-5	-2.4386E-6
7.61773E-7	8.06022E-7	4.31701E-7	1.22922E-6	6.0853E-7	-3.9756E-7	-2.322E-6	-4.0642E-6	1.4471E-5
-1.6966E-5	-1.7949E-5	-9.6104E-6	-2.7361E-5	-1.3544E-5	8.85133E-6	5.16891E-5	9.04467E-5	-5.2311E-6
-1.7968E-5	-1.9009E-5	-1.0178E-5	-2.8977E-5	-1.4344E-5	9.37409E-6	5.47424E-5	9.57883E-5	-7.2702E-6
8.83112E-7	9.34264E-7	5.00225E-7	1.42411E-6	7.04935E-7	-4.6072E-7	-2.6904E-6	-4.709E-6	1.43712E-5
1.47969E-6	1.56551E-6	8.38333E-7	2.38686E-6	1.18155E-6	-7.7208E-7	-4.509E-6	-7.8922E-6	1.50337E-5
-4.322E-6	-4.5723E-6	-2.448E-6	-6.9691E-6	-3.4497E-6	2.25468E-6	1.31661E-5	2.30428E-5	8.67204E-6
-1.0815E-5	-1.1442E-5	-6.1261E-6	-1.7441E-5	-8.6333E-6	5.64227E-6	3.2949E-5	5.76602E-5	1.62139E-6
-5.7014E-6	-6.0317E-6	-3.2295E-6	-9.1941E-6	-4.551E-6	2.9744E-6	1.73693E-5	3.03992E-5	7.91544E-6
5.13054E-6	5.4279E-6	2.90642E-6	8.2747E-6	4.09607E-6	-2.6768E-6	-1.5632E-5	-2.7362E-5	1.95526E-5
-3.0095E-5	-3.1839E-5	-1.7047E-5	-4.8533E-5	-2.4024E-5	1.57009E-5	9.1688E-5	1.60405E-4	-2.1492E-5
1.33739E-5	1.41488E-5	7.57588E-6	2.15685E-5	1.06765E-5	-6.9774E-6	-4.0746E-5	-7.1332E-5	2.79608E-5
-1.2343E-5	-1.3058E-5	-6.9915E-6	-1.9905E-5	-9.8529E-6	6.43929E-6	3.76034E-5	6.58041E-5	1.63904E-7
-7.4007E-6	-7.8294E-6	-4.1921E-6	-1.1935E-5	-5.9077E-6	3.86098E-6	2.25468E-5	3.94587E-5	5.54813E-6
6.16017E-6	6.51728E-6	3.48983E-6	9.93579E-6	4.91837E-6	-3.2141E-6	-1.877E-5	-3.2856E-5	1.98513E-5
-2.3807E-5	-2.5186E-5	-1.3486E-5	-3.8394E-5	-1.9005E-5	1.24205E-5	7.25321E-5	1.26905E-4	-1.3733E-5
-1.3689E-5	-1.4482E-5	-7.754E-6	-2.2076E-5	-1.0927E-5	7.14152E-6	4.17044E-5	7.29789E-5	-1.917E-6
7.61923E-6	8.06059E-6	4.31586E-6	1.22871E-5	6.08209E-6	-3.975E-6	-2.3212E-5	-4.0633E-5	2.18334E-5
3.27473E-6	3.4645E-6	1.85507E-6	5.28141E-6	2.61434E-6	-1.7085E-6	-9.9774E-6	-1.7464E-5	1.75922E-5
1.51781E-5	1.60576E-5	8.59798E-6	2.44785E-5	1.2117E-5	-7.9188E-6	-4.6244E-5	-8.0958E-5	2.98692E-5
7.50858E-6	7.94389E-6	4.25376E-6	1.21108E-5	5.99504E-6	-3.9176E-6	-2.2879E-5	-4.0049E-5	2.17657E-5
9.28094E-6	9.81861E-6	5.25721E-6	1.49671E-5	7.40875E-6	-4.8419E-6	-2.8275E-5	-4.9497E-5	2.34247E-5
1.23161E-6	1.30304E-6	6.97778E-7	1.98668E-6	9.83452E-7	-6.4263E-7	-3.753E-6	-6.569E-6	1.48348E-5
-4.9581E-6	-5.2452E-6	-2.8084E-6	-7.9953E-6	-3.9577E-6	2.58659E-6	1.51047E-5	2.64356E-5	7.592E-6
1.18232E-5	1.25082E-5	6.69734E-6	1.90672E-5	9.43833E-6	-6.1683E-6	-3.6021E-5	-6.3058E-5	2.62331E-5
-1.1558E-5	-1.2227E-5	-6.5467E-6	-1.8638E-5	-9.2259E-6	6.02967E-6	3.52109E-5	6.16178E-5	6.48874E-7
1.49551E-5	1.58216E-5	8.4715E-6	2.41182E-5	1.19386E-5	-7.8023E-6	-4.5563E-5	-7.9767E-5	2.93758E-5
-5.0848E-6	-5.3795E-6	-2.8805E-6	-8.2007E-6	-4.0594E-6	2.6529E-6	1.54924E-5	2.71144E-5	7.36381E-6
6.7676E-6	7.15966E-6	3.83351E-6	1.09139E-5	5.40239E-6	-3.5307E-6	-2.0618E-5	-3.6091E-5	2.07553E-5
-1.0528E-5	-1.1138E-5	-5.9636E-6	-1.6978E-5	-8.4043E-6	5.49252E-6	3.20748E-5	5.61308E-5	1.48085E-6
7.74623E-6	8.19512E-6	4.38807E-6	1.24929E-5	6.18408E-6	-4.0414E-6	-2.3601E-5	-4.1313E-5	2.21309E-5
-4.6911E-9	-4.8376E-9	-2.4516E-9	-6.7928E-9	-3.2935E-9	2.30545E-9	1.30378E-8	2.28867E-8	1.32487E-5
1.76204E-5	1.86414E-5	9.98143E-6	2.84172E-5	1.40667E-5	-9.1929E-6	-5.3685E-5	-9.3988E-5	3.26827E-5
-1.5974E-5	-1.6899E-5	-9.0483E-6	-2.576E-5	-1.2751E-5	8.33359E-6	4.86655E-5	8.51575E-5	-3.8895E-6
1.32784E-5	1.40479E-5	7.52195E-6	2.14151E-5	1.06007E-5	-6.9277E-6	-4.0456E-5	-7.0824E-5	2.83638E-5
2.91364E-5	3.08248E-5	1.65051E-5	4.69902E-5	2.32605E-5	-1.5201E-5	-8.8772E-5	-1.5544E-4	4.44322E-5
8.38136E-6	8.86698E-6	4.74774E-6	1.35168E-5	6.69087E-6	-4.3727E-6	-2.5535E-5	-4.4699E-5	2.20815E-5
-2.2169E-6	-2.3452E-6	-1.2557E-6	-3.5748E-6	-1.7695E-6	1.1565E-6	6.75348E-6	1.18201E-5	1.12451E-5
-8.9663E-7	-9.4845E-7	-5.0769E-7	-1.4452E-6	-7.1531E-7	4.67639E-7	2.73043E-6	4.77901E-6	1.2771E-5
-8.7321E-6	-9.238E-6	-4.9464E-6	-1.4082E-5	-6.9708E-6	4.55566E-6	2.66038E-5	4.65582E-5	3.24308E-6
-1.2621E-6	-1.3352E-6	-7.1488E-7	-2.0352E-6	-1.0074E-6	6.58426E-7	3.84489E-6	6.7299E-6	1.26071E-5
-5.5581E-6	-5.8802E-6	-3.1486E-6	-8.964E-6	-4.4373E-6	2.89982E-6	1.69344E-5	2.96374E-5	7.51481E-6
-2.0499E-5	-2.1687E-5	-1.1612E-5	-3.3058E-5	-1.6364E-5	1.06945E-5	6.2452E-5	1.09274E-4	-9.98E-6
-3.2793E-6	-3.4692E-6	-1.8574E-6	-5.2879E-6	-2.6175E-6	1.71074E-6	9.9899E-6	1.74846E-5	1.03813E-5
1.4897E-5	1.57602E-5	8.43885E-6	2.40256E-5	1.18929E-5	-7.7722E-6	-4.5388E-5	-7.946E-5	2.94213E-5
-3.151E-6	-3.3334E-6	-1.7847E-6	-5.0808E-6	-2.515E-6	1.64377E-6	9.59871E-6	1.67996E-5	9.79498E-6
9.88051E-6	1.0453E-5	5.59704E-6	1.59348E-5	7.88782E-6	-5.1549E-6	-3.0103E-5	-5.2697E-5	2.43941E-5
-2.0167E-5	-2.1335E-5	-1.1424E-5	-3.2523E-5	-1.6099E-5	1.05212E-5	6.14409E-5	1.07505E-4	-9.2404E-6
2.27967E-5	2.41178E-5	1.29139E-5	3.67662E-5	1.81996E-5	-1.1894E-5	-6.9457E-5	-1.2161E-4	3.78982E-5
1.28375E-7	1.35849E-7	7.27793E-8	2.07256E-7	1.02613E-7	-6.7016E-8	-3.9148E-7	-6.8521E-7	1.35792E-5
1.69428E-5	1.79246E-5	9.59771E-6	2.73248E-5	1.3526E-5	-8.8395E-6	-5.1621E-5	-9.0374E-5	3.20106E-5
1.19889E-5	1.26835E-5	6.79125E-6	1.93346E-5	9.57073E-6	-6.2548E-6	-3.6526E-5	-6.3943E-5	2.68332E-5
7.51353E-6	7.94905E-6	4.25643E-6	1.21183E-5	5.9987E-6	-3.9201E-6	-2.2893E-5	-4.0074E-5	2.17588E-5
-3.1839E-7	-3.3675E-7	-1.8021E-7	-5.1292E-7	-2.5385E-7	1.66006E-7	9.69139E-7	1.69666E-6	1.26615E-5
-7.1723E-6	-7.5878E-6	-4.0627E-6	-1.1566E-5	-5.7252E-6	3.74179E-6	2.18506E-5	3.82403E-5	5.49892E-6
-3.5093E-6	-3.7124E-6	-1.9876E-6	-5.6583E-6	-2.8008E-6	1.83064E-6	1.06897E-5	1.8709E-5	9.38607E-6
1.36865E-5	1.44798E-5	7.75331E-6	2.2074E-5	1.09268E-5	-7.1408E-6	-4.1701E-5	-7.3003E-5	2.85174E-5
3.51733E-6	3.72121E-6	1.99258E-6	5.67299E-6	2.8082E-6	-1.8351E-6	-1.0717E-5	-1.8759E-5	1.75111E-5
1.66776E-5	1.7644E-5	9.44747E-6	2.6897E-5	1.33142E-5	-8.7011E-6	-5.0813E-5	-8.8959E-5	3.16334E-5
-4.3188E-6	-4.5691E-6	-2.4466E-6	-6.9655E-6	-3.448E-6	2.25328E-6	1.31589E-5	2.30302E-5	8.81599E-6
-1.8179E-5	-1.9232E-5	-1.0298E-5	-2.9317E-5	-1.4512E-5	9.48419E-6	5.53845E-5	9.69111E-5	-7.3161E-6
2.0432E-5	2.16158E-5	1.1574E-5	3.2951E-5	1.63109E-5	-1.066E-5	-6.225E-5	-1.0899E-4	3.5346E-5
1.58509E-5	1.67694E-5	8.97909E-6	2.55635E-5	1.26541E-5	-8.2698E-6	-4.8294E-5	-8.4548E-5	3.06575E-5
-7.7247E-6	-8.172E-6	-4.3754E-6	-1.2457E-5	-6.166E-6	4.02988E-6	2.35328E-5	4.11841E-5	5.21168E-6
1.26946E-5	1.34303E-5	7.19135E-6	2.0474E-5	1.01348E-5	-6.6232E-6	-3.8678E-5	-6.7711E-5	2.76669E-5
-6.1951E-6	-6.554E-6	-3.5092E-6	-9.9905E-6	-4.9453E-6	3.23201E-6	1.88738E-5	3.30312E-5	6.84308E-6
3.67599E-6	3.88896E-6	2.08229E-6	5.92826E-6	2.93451E-6	-1.9178E-6	-1.1199E-5	-1.9603E-5	1.74511E-5
-4.2572E-6	-4.5038E-6	-2.4114E-6	-6.8652E-6	-3.3982E-6	2.22096E-6	1.29695E-5	2.26988E-5	8.87683E-6
1.03022E-5	1.08992E-5	5.83592E-6	1.66149E-5	8.22447E-6	-5.3749E-6	-3.1388E-5	-5.4947E-5	2.47697E-5
-1.9422E-5	-2.0547E-5	-1.1002E-5	-3.1321E-5	-1.5504E-5	1.01327E-5	5.91714E-5	1.03535E-4	-8.2049E-6
-3.0705E-5	-3.2484E-5	-1.7393E-5	-4.9516E-5	-2.451E-5	1.60189E-5	9.35446E-5	1.63652E-4	-2.2002E-5
-8.7445E-6	-9.2512E-6	-4.9535E-6	-1.4103E-5	-6.9809E-6	4.5622E-6	2.66422E-5	4.66249E-5	3.75886E-6
-9.0302E-6	-9.5533E-6	-5.115E-6	-1.4562E-5	-7.2083E-6	4.71104E-6	2.75107E-5	4.81445E-5	3.59852E-6
1.82713E-6	1.93304E-6	1.03508E-6	2.94694E-6	1.45878E-6	-9.533E-7	-5.5672E-6	-9.7441E-6	1.51224E-5
-1.065E-5	-1.1268E-5	-6.0331E-6	-1.7176E-5	-8.5022E-6	5.55651E-6	3.24485E-5	5.67848E-5	1.24441E-6
6.07333E-6	6.42528E-6	3.44041E-6	9.79491E-6	4.84856E-6	-3.1686E-6	-1.8504E-5	-3.239E-5	2.03671E-5
7.76503E-6	8.21489E-6	4.39853E-6	1.25225E-5	6.19866E-6	-4.0511E-6	-2.3657E-5	-4.1411E-5	2.19927E-5
-1.8347E-6	-1.9409E-6	-1.0391E-6	-2.9582E-6	-1.4643E-6	9.57076E-7	5.58875E-6	9.78154E-6	1.15322E-5
6.71498E-6	7.10414E-6	3.80395E-6	1.083E-5	5.36093E-6	-3.5034E-6	-2.0459E-5	-3.5813E-5	2.1231E-5
-2.4981E-6	-2.6427E-6	-1.4149E-6	-4.0279E-6	-1.9937E-6	1.30315E-6	7.60955E-6	1.33183E-5	1.09275E-5
-1.7399E-5	-1.8407E-5	-9.8555E-6	-2.8058E-5	-1.3889E-5	9.07703E-6	5.3007E-5	9.2752E-5	-5.7895E-6
-1.9864E-5	-2.1015E-5	-1.1252E-5	-3.2035E-5	-1.5857E-5	1.03634E-5	6.0519E-5	1.05893E-4	-9.2389E-6
1.15812E-6	1.22535E-6	6.56255E-7	1.86855E-6	9.25018E-7	-6.0436E-7	-3.5298E-6	-6.1782E-6	1.48437E-5
3.08632E-5	3.26516E-5	1.74832E-5	4.97749E-5	2.46389E-5	-1.6102E-5	-9.4033E-5	-1.6466E-4	4.62791E-5
9.87125E-6	1.04432E-5	5.59166E-6	1.59194E-5	7.88013E-6	-5.15E-6	-3.0074E-5	-5.2646E-5	2.39168E-5
1.11885E-5	1.18369E-5	6.338E-6	1.80443E-5	8.93204E-6	-5.8373E-6	-3.4089E-5	-5.9675E-5	2.55521E-5
1.09494E-5	1.15838E-5	6.20254E-6	1.76587E-5	8.74118E-6	-5.7126E-6	-3.336E-5	-5.8399E-5	2.54165E-5
-6.757E-6	-7.1484E-6	-3.8275E-6	-1.0897E-5	-5.3939E-6	3.52518E-6	2.05859E-5	3.60273E-5	6.18142E-6
1.42319E-5	1.50566E-5	8.06196E-6	2.29524E-5	1.13616E-5	-7.4251E-6	-4.3361E-5	-7.591E-5	2.86692E-5
-5.0536E-6	-5.3465E-6	-2.8628E-6	-8.1505E-6	-4.0346E-6	2.63664E-6	1.53975E-5	2.69479E-5	8.22972E-6
-1.6195E-5	-1.7133E-5	-9.1737E-6	-2.6118E-5	-1.2928E-5	8.44908E-6	4.93405E-5	8.6338E-5	-4.7824E-6
-1.79E-6	-1.8938E-6	-1.014E-6	-2.887E-6	-1.4291E-6	9.3392E-7	5.45395E-6	9.54609E-6	1.20277E-5
-8.7197E-7	-9.2246E-7	-4.9389E-7	-1.4061E-6	-6.9599E-7	4.54887E-7	2.65632E-6	4.64934E-6	1.27934E-5
1.60743E-5	1.70059E-5	9.10586E-6	2.59246E-5	1.28329E-5	-8.3865E-6	-4.8975E-5	-8.5741E-5	3.11714E-5
3.20696E-6	3.39289E-6	1.81682E-6	5.17263E-6	2.56054E-6	-1.6733E-6	-9.7718E-6	-1.7104E-5	1.68295E-5
3.41469E-7	3.61222E-7	1.93377E-7	5.50494E-7	2.72479E-7	-1.7811E-7	-1.04E-6	-1.8203E-6	1.38601E-5
-3.3645E-5	-3.5594E-5	-1.9058E-5	-5.4258E-5	-2.6858E-5	1.7553E-5	1.02504E-4	1.79317E-4	-2.5092E-5
-1.2069E-5	-1.2768E-5	-6.8365E-6	-1.9463E-5	-9.6343E-6	6.29647E-6	3.67693E-5	6.43445E-5	1.06378E-7
7.87724E-6	8.33368E-6	4.46223E-6	1.2704E-5	6.28854E-6	-4.1097E-6	-2.4E-5	-4.2011E-5	2.15339E-5
2.03671E-5	2.15472E-5	1.15373E-5	3.28467E-5	1.62593E-5	-1.0626E-5	-6.2053E-5	-1.0864E-4	3.51608E-5
-1.4243E-5	-1.5068E-5	-8.0678E-6	-2.2969E-5	-1.137E-5	7.43061E-6	4.33922E-5	7.59317E-5	-2.1264E-6
-1.2313E-5	-1.3027E-5	-6.9747E-6	-1.9857E-5	-9.8291E-6	6.42385E-6	3.7513E-5	6.56458E-5	2.04781E-7
-1.6389E-5	-1.7339E-5	-9.2838E-6	-2.6431E-5	-1.3083E-5	8.55047E-6	4.9932E-5	8.73734E-5	-5.5938E-6
2.72191E-5	2.87965E-5	1.54191E-5	4.38982E-5	2.17299E-5	-1.4201E-5	-8.2931E-5	-1.4521E-4	4.21164E-5
-5.4387E-6	-5.7539E-6	-3.081E-6	-8.7716E-6	-4.342E-6	2.83757E-6	1.65709E-5	2.90014E-5	7.66027E-6
-1.7105E-5	-1.8095E-5	-9.6888E-6	-2.7584E-5	-1.3654E-5	8.92353E-6	5.21103E-5	9.11834E-5	-5.603E-6
2.84629E-5	3.01125E-5	1.61238E-5	4.5905E-5	2.27234E-5	-1.485E-5	-8.6721E-5	-1.5185E-4	4.33152E-5
