{"QM1R.1",4.765294,1.500035,0,{-0.510000,-1.510000,-2.510000,-1.000000,-2.000000},{0.189088,0.185426,0.182496,0.164400,0.164300},{0.562497,0.563596,0.564572,0.550300,0.551800}},
{"QM2R.1",17.046442,53.792358,0,{2.000000,1.000000,0.000000,-1.000000,-2.000000},{0.163500,0.167100,0.169800,0.172900,0.175900},{0.586900,0.579100,0.569800,0.558800,0.545800}},
{"QM3R.1",1.805928,3.606652,1,{4.880000,3.880000,1.880000,-0.120000,-2.120000},{0.190675,0.190797,0.192018,0.193117,0.194093},{0.571652,0.570676,0.568723,0.566647,0.564450}},
{"QM4R.1",5.054714,0.967533,1,{3.940000,1.940000,-0.060000,-2.060000,-4.060000},{0.205690,0.198488,0.190675,0.185670,0.177980},{0.567868,0.569211,0.570676,0.571530,0.573239}},
{"QM5R.1",6.039217,1.272332,1,{4.370000,2.370000,0.370000,-1.630000,-3.630000},{0.208742,0.199830,0.190919,0.183351,0.174684},{0.566769,0.568723,0.570554,0.572141,0.573972}},
{"QM6R.1",5.649151,11.324180,1,{4.780000,2.780000,0.780000,-1.220000,-3.220000},{0.174318,0.182741,0.190797,0.198244,0.206544},{0.596677,0.584470,0.570554,0.555783,0.530881}},
{"QM7R.1",25.931227,2.428729,1,{4.200000,2.200000,0.200000,-1.800000,-3.800000},{0.199586,0.191163,0.183595,0.174318,0.165651},{0.569699,0.570432,0.571164,0.572019,0.572873}},
{"QM8R.1",16.304235,4.406529,0,{0.940000,-0.060000,-1.060000,-1.000000,-2.000000},{0.190065,0.185182,0.181032,0.164400,0.164300},{0.562375,0.563596,0.564816,0.550300,0.551800}},
{"QM9R.1",3.104860,12.850841,0,{-0.090000,-1.090000,-2.090000,-1.000000,-2.000000},{0.182863,0.184938,0.187257,0.164400,0.164300},{0.572019,0.563596,0.553830,0.550300,0.551800}},
{"QM10R.1",7.581713,0.348596,0,{1.310000,0.310000,-0.690000,-1.000000,-2.000000},{0.179689,0.184694,0.190309,0.164400,0.164300},{0.563474,0.563229,0.562985,0.550300,0.551800}},
{"QM11R.1",0.909813,6.368688,0,{1.360000,-0.640000,-2.640000,-1.000000,-2.000000},{0.184694,0.185548,0.186281,0.164400,0.164300},{0.568723,0.563229,0.557614,0.550300,0.551800}},
{"QM12R.1",7.067296,0.904958,0,{2.260000,0.260000,-1.740000,-1.000000,-2.000000},{0.195558,0.185548,0.175538,0.164400,0.164300},{0.561887,0.563107,0.564450,0.550300,0.551800}},
{"QM13R.1",7.582645,12.814341,0,{1.650000,-0.350000,-2.350000,-0.170000,-0.670000},{0.173951,0.185670,0.195680,0.177000,0.178500},{0.579709,0.563107,0.542966,0.566200,0.562900}},
{"QM14R.1",36.734863,3.465117,0,{0.600000,0.100000,-0.400000,-1.000000,-2.000000},{0.198366,0.185426,0.172487,0.164400,0.164300},{0.562253,0.563229,0.564694,0.550300,0.551800}},
{"QM15R.1",3.599232,10.047835,0,{1.630000,-0.370000,-2.370000,-1.000000,-2.000000},{0.181764,0.184816,0.187623,0.164400,0.164300},{0.571530,0.563474,0.555173,0.550300,0.551800}},
{"QM16R.1",7.756011,2.657967,0,{1.640000,-0.360000,-2.360000,-1.000000,-2.000000},{0.173219,0.184938,0.194948,0.164400,0.164300},{0.567502,0.563718,0.560056,0.550300,0.551800}},
{"QM17R.1",2.029242,19.060093,0,{0.590000,-1.410000,-2.410000,-1.000000,-2.000000},{0.182130,0.184938,0.186403,0.164400,0.164300},{0.588986,0.563718,0.548581,0.550300,0.551800}},
{"QM18R.1",1.119203,19.806652,0,{2.340000,0.340000,-0.660000,-1.000000,-2.000000},{0.182985,0.184816,0.185304,0.164400,0.164300},{0.591184,0.565060,0.548581,0.550300,0.551800}},
{"QM19R.1",2.790441,3.720571,0,{2.590000,0.590000,-1.410000,-1.000000,-2.000000},{0.188966,0.185060,0.181276,0.164400,0.164300},{0.558591,0.564328,0.568845,0.550300,0.551800}},
{"QM20R.1",2.367195,0.302234,0,{4.310000,2.310000,0.310000,-1.000000,-2.000000},{0.187990,0.184816,0.182252,0.164400,0.164300},{0.563840,0.564328,0.564572,0.550300,0.551800}},
{"QM21R.1",1.006150,1.341397,0,{0.490000,-1.510000,-3.510000,-1.000000,-2.000000},{0.186036,0.185792,0.184938,0.164400,0.164300},{0.562741,0.563474,0.564206,0.550300,0.551800}},
{"QM22R.1",2.613135,3.484267,0,{-0.260000,-2.260000,-4.260000,-1.000000,-2.000000},{0.182008,0.183595,0.184938,0.164400,0.164300},{0.568112,0.566159,0.564206,0.550300,0.551800}},
{"QM23R.1",8.364968,1.676783,0,{4.920000,3.920000,2.920000,1.920000,-2.000000},{0.185060,0.181032,0.174073,0.168092,0.164300},{0.564206,0.565060,0.566403,0.567624,0.551800}}
