%!PS-Adobe-2.0 EPSF-2.0
%%Title: optic_10bx1by.eps
%%Creator: gnuplot 4.6 patchlevel 4
%%CreationDate: Thu May 25 20:56:37 2017
%%DocumentFonts: (atend)
%%BoundingBox: 50 50 410 302
%%EndComments
%%BeginProlog
/gnudict 256 dict def
gnudict begin
%
% The following true/false flags may be edited by hand if desired.
% The unit line width and grayscale image gamma correction may also be changed.
%
/Color true def
/Blacktext false def
/Solid false def
/Dashlength 1 def
/Landscape false def
/Level1 false def
/Rounded false def
/ClipToBoundingBox false def
/SuppressPDFMark false def
/TransparentPatterns false def
/gnulinewidth 5.000 def
/userlinewidth gnulinewidth def
/Gamma 1.0 def
/BackgroundColor {-1.000 -1.000 -1.000} def
%
/vshift -80 def
/dl1 {
  10.0 Dashlength mul mul
  Rounded { currentlinewidth 0.75 mul sub dup 0 le { pop 0.01 } if } if
} def
/dl2 {
  10.0 Dashlength mul mul
  Rounded { currentlinewidth 0.75 mul add } if
} def
/hpt_ 31.5 def
/vpt_ 31.5 def
/hpt hpt_ def
/vpt vpt_ def
/doclip {
  ClipToBoundingBox {
    newpath 50 50 moveto 410 50 lineto 410 302 lineto 50 302 lineto closepath
    clip
  } if
} def
%
% Gnuplot Prolog Version 4.6 (September 2012)
%
%/SuppressPDFMark true def
%
/M {moveto} bind def
/L {lineto} bind def
/R {rmoveto} bind def
/V {rlineto} bind def
/N {newpath moveto} bind def
/Z {closepath} bind def
/C {setrgbcolor} bind def
/f {rlineto fill} bind def
/g {setgray} bind def
/Gshow {show} def   % May be redefined later in the file to support UTF-8
/vpt2 vpt 2 mul def
/hpt2 hpt 2 mul def
/Lshow {currentpoint stroke M 0 vshift R 
	Blacktext {gsave 0 setgray show grestore} {show} ifelse} def
/Rshow {currentpoint stroke M dup stringwidth pop neg vshift R
	Blacktext {gsave 0 setgray show grestore} {show} ifelse} def
/Cshow {currentpoint stroke M dup stringwidth pop -2 div vshift R 
	Blacktext {gsave 0 setgray show grestore} {show} ifelse} def
/UP {dup vpt_ mul /vpt exch def hpt_ mul /hpt exch def
  /hpt2 hpt 2 mul def /vpt2 vpt 2 mul def} def
/DL {Color {setrgbcolor Solid {pop []} if 0 setdash}
 {pop pop pop 0 setgray Solid {pop []} if 0 setdash} ifelse} def
/BL {stroke userlinewidth 2 mul setlinewidth
	Rounded {1 setlinejoin 1 setlinecap} if} def
/AL {stroke userlinewidth 2 div setlinewidth
	Rounded {1 setlinejoin 1 setlinecap} if} def
/UL {dup gnulinewidth mul /userlinewidth exch def
	dup 1 lt {pop 1} if 10 mul /udl exch def} def
/PL {stroke userlinewidth setlinewidth
	Rounded {1 setlinejoin 1 setlinecap} if} def
3.8 setmiterlimit
% Default Line colors
/LCw {1 1 1} def
/LCb {0 0 0} def
/LCa {0 0 0} def
/LC0 {1 0 0} def
/LC1 {0 1 0} def
/LC2 {0 0 1} def
/LC3 {1 0 1} def
/LC4 {0 1 1} def
/LC5 {1 1 0} def
/LC6 {0 0 0} def
/LC7 {1 0.3 0} def
/LC8 {0.5 0.5 0.5} def
% Default Line Types
/LTw {PL [] 1 setgray} def
/LTb {BL [] LCb DL} def
/LTa {AL [1 udl mul 2 udl mul] 0 setdash LCa setrgbcolor} def
/LT0 {PL [] LC0 DL} def
/LT1 {PL [4 dl1 2 dl2] LC1 DL} def
/LT2 {PL [2 dl1 3 dl2] LC2 DL} def
/LT3 {PL [1 dl1 1.5 dl2] LC3 DL} def
/LT4 {PL [6 dl1 2 dl2 1 dl1 2 dl2] LC4 DL} def
/LT5 {PL [3 dl1 3 dl2 1 dl1 3 dl2] LC5 DL} def
/LT6 {PL [2 dl1 2 dl2 2 dl1 6 dl2] LC6 DL} def
/LT7 {PL [1 dl1 2 dl2 6 dl1 2 dl2 1 dl1 2 dl2] LC7 DL} def
/LT8 {PL [2 dl1 2 dl2 2 dl1 2 dl2 2 dl1 2 dl2 2 dl1 4 dl2] LC8 DL} def
/Pnt {stroke [] 0 setdash gsave 1 setlinecap M 0 0 V stroke grestore} def
/Dia {stroke [] 0 setdash 2 copy vpt add M
  hpt neg vpt neg V hpt vpt neg V
  hpt vpt V hpt neg vpt V closepath stroke
  Pnt} def
/Pls {stroke [] 0 setdash vpt sub M 0 vpt2 V
  currentpoint stroke M
  hpt neg vpt neg R hpt2 0 V stroke
 } def
/Box {stroke [] 0 setdash 2 copy exch hpt sub exch vpt add M
  0 vpt2 neg V hpt2 0 V 0 vpt2 V
  hpt2 neg 0 V closepath stroke
  Pnt} def
/Crs {stroke [] 0 setdash exch hpt sub exch vpt add M
  hpt2 vpt2 neg V currentpoint stroke M
  hpt2 neg 0 R hpt2 vpt2 V stroke} def
/TriU {stroke [] 0 setdash 2 copy vpt 1.12 mul add M
  hpt neg vpt -1.62 mul V
  hpt 2 mul 0 V
  hpt neg vpt 1.62 mul V closepath stroke
  Pnt} def
/Star {2 copy Pls Crs} def
/BoxF {stroke [] 0 setdash exch hpt sub exch vpt add M
  0 vpt2 neg V hpt2 0 V 0 vpt2 V
  hpt2 neg 0 V closepath fill} def
/TriUF {stroke [] 0 setdash vpt 1.12 mul add M
  hpt neg vpt -1.62 mul V
  hpt 2 mul 0 V
  hpt neg vpt 1.62 mul V closepath fill} def
/TriD {stroke [] 0 setdash 2 copy vpt 1.12 mul sub M
  hpt neg vpt 1.62 mul V
  hpt 2 mul 0 V
  hpt neg vpt -1.62 mul V closepath stroke
  Pnt} def
/TriDF {stroke [] 0 setdash vpt 1.12 mul sub M
  hpt neg vpt 1.62 mul V
  hpt 2 mul 0 V
  hpt neg vpt -1.62 mul V closepath fill} def
/DiaF {stroke [] 0 setdash vpt add M
  hpt neg vpt neg V hpt vpt neg V
  hpt vpt V hpt neg vpt V closepath fill} def
/Pent {stroke [] 0 setdash 2 copy gsave
  translate 0 hpt M 4 {72 rotate 0 hpt L} repeat
  closepath stroke grestore Pnt} def
/PentF {stroke [] 0 setdash gsave
  translate 0 hpt M 4 {72 rotate 0 hpt L} repeat
  closepath fill grestore} def
/Circle {stroke [] 0 setdash 2 copy
  hpt 0 360 arc stroke Pnt} def
/CircleF {stroke [] 0 setdash hpt 0 360 arc fill} def
/C0 {BL [] 0 setdash 2 copy moveto vpt 90 450 arc} bind def
/C1 {BL [] 0 setdash 2 copy moveto
	2 copy vpt 0 90 arc closepath fill
	vpt 0 360 arc closepath} bind def
/C2 {BL [] 0 setdash 2 copy moveto
	2 copy vpt 90 180 arc closepath fill
	vpt 0 360 arc closepath} bind def
/C3 {BL [] 0 setdash 2 copy moveto
	2 copy vpt 0 180 arc closepath fill
	vpt 0 360 arc closepath} bind def
/C4 {BL [] 0 setdash 2 copy moveto
	2 copy vpt 180 270 arc closepath fill
	vpt 0 360 arc closepath} bind def
/C5 {BL [] 0 setdash 2 copy moveto
	2 copy vpt 0 90 arc
	2 copy moveto
	2 copy vpt 180 270 arc closepath fill
	vpt 0 360 arc} bind def
/C6 {BL [] 0 setdash 2 copy moveto
	2 copy vpt 90 270 arc closepath fill
	vpt 0 360 arc closepath} bind def
/C7 {BL [] 0 setdash 2 copy moveto
	2 copy vpt 0 270 arc closepath fill
	vpt 0 360 arc closepath} bind def
/C8 {BL [] 0 setdash 2 copy moveto
	2 copy vpt 270 360 arc closepath fill
	vpt 0 360 arc closepath} bind def
/C9 {BL [] 0 setdash 2 copy moveto
	2 copy vpt 270 450 arc closepath fill
	vpt 0 360 arc closepath} bind def
/C10 {BL [] 0 setdash 2 copy 2 copy moveto vpt 270 360 arc closepath fill
	2 copy moveto
	2 copy vpt 90 180 arc closepath fill
	vpt 0 360 arc closepath} bind def
/C11 {BL [] 0 setdash 2 copy moveto
	2 copy vpt 0 180 arc closepath fill
	2 copy moveto
	2 copy vpt 270 360 arc closepath fill
	vpt 0 360 arc closepath} bind def
/C12 {BL [] 0 setdash 2 copy moveto
	2 copy vpt 180 360 arc closepath fill
	vpt 0 360 arc closepath} bind def
/C13 {BL [] 0 setdash 2 copy moveto
	2 copy vpt 0 90 arc closepath fill
	2 copy moveto
	2 copy vpt 180 360 arc closepath fill
	vpt 0 360 arc closepath} bind def
/C14 {BL [] 0 setdash 2 copy moveto
	2 copy vpt 90 360 arc closepath fill
	vpt 0 360 arc} bind def
/C15 {BL [] 0 setdash 2 copy vpt 0 360 arc closepath fill
	vpt 0 360 arc closepath} bind def
/Rec {newpath 4 2 roll moveto 1 index 0 rlineto 0 exch rlineto
	neg 0 rlineto closepath} bind def
/Square {dup Rec} bind def
/Bsquare {vpt sub exch vpt sub exch vpt2 Square} bind def
/S0 {BL [] 0 setdash 2 copy moveto 0 vpt rlineto BL Bsquare} bind def
/S1 {BL [] 0 setdash 2 copy vpt Square fill Bsquare} bind def
/S2 {BL [] 0 setdash 2 copy exch vpt sub exch vpt Square fill Bsquare} bind def
/S3 {BL [] 0 setdash 2 copy exch vpt sub exch vpt2 vpt Rec fill Bsquare} bind def
/S4 {BL [] 0 setdash 2 copy exch vpt sub exch vpt sub vpt Square fill Bsquare} bind def
/S5 {BL [] 0 setdash 2 copy 2 copy vpt Square fill
	exch vpt sub exch vpt sub vpt Square fill Bsquare} bind def
/S6 {BL [] 0 setdash 2 copy exch vpt sub exch vpt sub vpt vpt2 Rec fill Bsquare} bind def
/S7 {BL [] 0 setdash 2 copy exch vpt sub exch vpt sub vpt vpt2 Rec fill
	2 copy vpt Square fill Bsquare} bind def
/S8 {BL [] 0 setdash 2 copy vpt sub vpt Square fill Bsquare} bind def
/S9 {BL [] 0 setdash 2 copy vpt sub vpt vpt2 Rec fill Bsquare} bind def
/S10 {BL [] 0 setdash 2 copy vpt sub vpt Square fill 2 copy exch vpt sub exch vpt Square fill
	Bsquare} bind def
/S11 {BL [] 0 setdash 2 copy vpt sub vpt Square fill 2 copy exch vpt sub exch vpt2 vpt Rec fill
	Bsquare} bind def
/S12 {BL [] 0 setdash 2 copy exch vpt sub exch vpt sub vpt2 vpt Rec fill Bsquare} bind def
/S13 {BL [] 0 setdash 2 copy exch vpt sub exch vpt sub vpt2 vpt Rec fill
	2 copy vpt Square fill Bsquare} bind def
/S14 {BL [] 0 setdash 2 copy exch vpt sub exch vpt sub vpt2 vpt Rec fill
	2 copy exch vpt sub exch vpt Square fill Bsquare} bind def
/S15 {BL [] 0 setdash 2 copy Bsquare fill Bsquare} bind def
/D0 {gsave translate 45 rotate 0 0 S0 stroke grestore} bind def
/D1 {gsave translate 45 rotate 0 0 S1 stroke grestore} bind def
/D2 {gsave translate 45 rotate 0 0 S2 stroke grestore} bind def
/D3 {gsave translate 45 rotate 0 0 S3 stroke grestore} bind def
/D4 {gsave translate 45 rotate 0 0 S4 stroke grestore} bind def
/D5 {gsave translate 45 rotate 0 0 S5 stroke grestore} bind def
/D6 {gsave translate 45 rotate 0 0 S6 stroke grestore} bind def
/D7 {gsave translate 45 rotate 0 0 S7 stroke grestore} bind def
/D8 {gsave translate 45 rotate 0 0 S8 stroke grestore} bind def
/D9 {gsave translate 45 rotate 0 0 S9 stroke grestore} bind def
/D10 {gsave translate 45 rotate 0 0 S10 stroke grestore} bind def
/D11 {gsave translate 45 rotate 0 0 S11 stroke grestore} bind def
/D12 {gsave translate 45 rotate 0 0 S12 stroke grestore} bind def
/D13 {gsave translate 45 rotate 0 0 S13 stroke grestore} bind def
/D14 {gsave translate 45 rotate 0 0 S14 stroke grestore} bind def
/D15 {gsave translate 45 rotate 0 0 S15 stroke grestore} bind def
/DiaE {stroke [] 0 setdash vpt add M
  hpt neg vpt neg V hpt vpt neg V
  hpt vpt V hpt neg vpt V closepath stroke} def
/BoxE {stroke [] 0 setdash exch hpt sub exch vpt add M
  0 vpt2 neg V hpt2 0 V 0 vpt2 V
  hpt2 neg 0 V closepath stroke} def
/TriUE {stroke [] 0 setdash vpt 1.12 mul add M
  hpt neg vpt -1.62 mul V
  hpt 2 mul 0 V
  hpt neg vpt 1.62 mul V closepath stroke} def
/TriDE {stroke [] 0 setdash vpt 1.12 mul sub M
  hpt neg vpt 1.62 mul V
  hpt 2 mul 0 V
  hpt neg vpt -1.62 mul V closepath stroke} def
/PentE {stroke [] 0 setdash gsave
  translate 0 hpt M 4 {72 rotate 0 hpt L} repeat
  closepath stroke grestore} def
/CircE {stroke [] 0 setdash 
  hpt 0 360 arc stroke} def
/Opaque {gsave closepath 1 setgray fill grestore 0 setgray closepath} def
/DiaW {stroke [] 0 setdash vpt add M
  hpt neg vpt neg V hpt vpt neg V
  hpt vpt V hpt neg vpt V Opaque stroke} def
/BoxW {stroke [] 0 setdash exch hpt sub exch vpt add M
  0 vpt2 neg V hpt2 0 V 0 vpt2 V
  hpt2 neg 0 V Opaque stroke} def
/TriUW {stroke [] 0 setdash vpt 1.12 mul add M
  hpt neg vpt -1.62 mul V
  hpt 2 mul 0 V
  hpt neg vpt 1.62 mul V Opaque stroke} def
/TriDW {stroke [] 0 setdash vpt 1.12 mul sub M
  hpt neg vpt 1.62 mul V
  hpt 2 mul 0 V
  hpt neg vpt -1.62 mul V Opaque stroke} def
/PentW {stroke [] 0 setdash gsave
  translate 0 hpt M 4 {72 rotate 0 hpt L} repeat
  Opaque stroke grestore} def
/CircW {stroke [] 0 setdash 
  hpt 0 360 arc Opaque stroke} def
/BoxFill {gsave Rec 1 setgray fill grestore} def
/Density {
  /Fillden exch def
  currentrgbcolor
  /ColB exch def /ColG exch def /ColR exch def
  /ColR ColR Fillden mul Fillden sub 1 add def
  /ColG ColG Fillden mul Fillden sub 1 add def
  /ColB ColB Fillden mul Fillden sub 1 add def
  ColR ColG ColB setrgbcolor} def
/BoxColFill {gsave Rec PolyFill} def
/PolyFill {gsave Density fill grestore grestore} def
/h {rlineto rlineto rlineto gsave closepath fill grestore} bind def
%
% PostScript Level 1 Pattern Fill routine for rectangles
% Usage: x y w h s a XX PatternFill
%	x,y = lower left corner of box to be filled
%	w,h = width and height of box
%	  a = angle in degrees between lines and x-axis
%	 XX = 0/1 for no/yes cross-hatch
%
/PatternFill {gsave /PFa [ 9 2 roll ] def
  PFa 0 get PFa 2 get 2 div add PFa 1 get PFa 3 get 2 div add translate
  PFa 2 get -2 div PFa 3 get -2 div PFa 2 get PFa 3 get Rec
  TransparentPatterns {} {gsave 1 setgray fill grestore} ifelse
  clip
  currentlinewidth 0.5 mul setlinewidth
  /PFs PFa 2 get dup mul PFa 3 get dup mul add sqrt def
  0 0 M PFa 5 get rotate PFs -2 div dup translate
  0 1 PFs PFa 4 get div 1 add floor cvi
	{PFa 4 get mul 0 M 0 PFs V} for
  0 PFa 6 get ne {
	0 1 PFs PFa 4 get div 1 add floor cvi
	{PFa 4 get mul 0 2 1 roll M PFs 0 V} for
 } if
  stroke grestore} def
%
/languagelevel where
 {pop languagelevel} {1} ifelse
 2 lt
	{/InterpretLevel1 true def}
	{/InterpretLevel1 Level1 def}
 ifelse
%
% PostScript level 2 pattern fill definitions
%
/Level2PatternFill {
/Tile8x8 {/PaintType 2 /PatternType 1 /TilingType 1 /BBox [0 0 8 8] /XStep 8 /YStep 8}
	bind def
/KeepColor {currentrgbcolor [/Pattern /DeviceRGB] setcolorspace} bind def
<< Tile8x8
 /PaintProc {0.5 setlinewidth pop 0 0 M 8 8 L 0 8 M 8 0 L stroke} 
>> matrix makepattern
/Pat1 exch def
<< Tile8x8
 /PaintProc {0.5 setlinewidth pop 0 0 M 8 8 L 0 8 M 8 0 L stroke
	0 4 M 4 8 L 8 4 L 4 0 L 0 4 L stroke}
>> matrix makepattern
/Pat2 exch def
<< Tile8x8
 /PaintProc {0.5 setlinewidth pop 0 0 M 0 8 L
	8 8 L 8 0 L 0 0 L fill}
>> matrix makepattern
/Pat3 exch def
<< Tile8x8
 /PaintProc {0.5 setlinewidth pop -4 8 M 8 -4 L
	0 12 M 12 0 L stroke}
>> matrix makepattern
/Pat4 exch def
<< Tile8x8
 /PaintProc {0.5 setlinewidth pop -4 0 M 8 12 L
	0 -4 M 12 8 L stroke}
>> matrix makepattern
/Pat5 exch def
<< Tile8x8
 /PaintProc {0.5 setlinewidth pop -2 8 M 4 -4 L
	0 12 M 8 -4 L 4 12 M 10 0 L stroke}
>> matrix makepattern
/Pat6 exch def
<< Tile8x8
 /PaintProc {0.5 setlinewidth pop -2 0 M 4 12 L
	0 -4 M 8 12 L 4 -4 M 10 8 L stroke}
>> matrix makepattern
/Pat7 exch def
<< Tile8x8
 /PaintProc {0.5 setlinewidth pop 8 -2 M -4 4 L
	12 0 M -4 8 L 12 4 M 0 10 L stroke}
>> matrix makepattern
/Pat8 exch def
<< Tile8x8
 /PaintProc {0.5 setlinewidth pop 0 -2 M 12 4 L
	-4 0 M 12 8 L -4 4 M 8 10 L stroke}
>> matrix makepattern
/Pat9 exch def
/Pattern1 {PatternBgnd KeepColor Pat1 setpattern} bind def
/Pattern2 {PatternBgnd KeepColor Pat2 setpattern} bind def
/Pattern3 {PatternBgnd KeepColor Pat3 setpattern} bind def
/Pattern4 {PatternBgnd KeepColor Landscape {Pat5} {Pat4} ifelse setpattern} bind def
/Pattern5 {PatternBgnd KeepColor Landscape {Pat4} {Pat5} ifelse setpattern} bind def
/Pattern6 {PatternBgnd KeepColor Landscape {Pat9} {Pat6} ifelse setpattern} bind def
/Pattern7 {PatternBgnd KeepColor Landscape {Pat8} {Pat7} ifelse setpattern} bind def
} def
%
%
%End of PostScript Level 2 code
%
/PatternBgnd {
  TransparentPatterns {} {gsave 1 setgray fill grestore} ifelse
} def
%
% Substitute for Level 2 pattern fill codes with
% grayscale if Level 2 support is not selected.
%
/Level1PatternFill {
/Pattern1 {0.250 Density} bind def
/Pattern2 {0.500 Density} bind def
/Pattern3 {0.750 Density} bind def
/Pattern4 {0.125 Density} bind def
/Pattern5 {0.375 Density} bind def
/Pattern6 {0.625 Density} bind def
/Pattern7 {0.875 Density} bind def
} def
%
% Now test for support of Level 2 code
%
Level1 {Level1PatternFill} {Level2PatternFill} ifelse
%
/Symbol-Oblique /Symbol findfont [1 0 .167 1 0 0] makefont
dup length dict begin {1 index /FID eq {pop pop} {def} ifelse} forall
currentdict end definefont pop
/MFshow {
   { dup 5 get 3 ge
     { 5 get 3 eq {gsave} {grestore} ifelse }
     {dup dup 0 get findfont exch 1 get scalefont setfont
     [ currentpoint ] exch dup 2 get 0 exch R dup 5 get 2 ne {dup dup 6
     get exch 4 get {Gshow} {stringwidth pop 0 R} ifelse }if dup 5 get 0 eq
     {dup 3 get {2 get neg 0 exch R pop} {pop aload pop M} ifelse} {dup 5
     get 1 eq {dup 2 get exch dup 3 get exch 6 get stringwidth pop -2 div
     dup 0 R} {dup 6 get stringwidth pop -2 div 0 R 6 get
     show 2 index {aload pop M neg 3 -1 roll neg R pop pop} {pop pop pop
     pop aload pop M} ifelse }ifelse }ifelse }
     ifelse }
   forall} def
/Gswidth {dup type /stringtype eq {stringwidth} {pop (n) stringwidth} ifelse} def
/MFwidth {0 exch { dup 5 get 3 ge { 5 get 3 eq { 0 } { pop } ifelse }
 {dup 3 get{dup dup 0 get findfont exch 1 get scalefont setfont
     6 get Gswidth pop add} {pop} ifelse} ifelse} forall} def
/MLshow { currentpoint stroke M
  0 exch R
  Blacktext {gsave 0 setgray MFshow grestore} {MFshow} ifelse } bind def
/MRshow { currentpoint stroke M
  exch dup MFwidth neg 3 -1 roll R
  Blacktext {gsave 0 setgray MFshow grestore} {MFshow} ifelse } bind def
/MCshow { currentpoint stroke M
  exch dup MFwidth -2 div 3 -1 roll R
  Blacktext {gsave 0 setgray MFshow grestore} {MFshow} ifelse } bind def
/XYsave    { [( ) 1 2 true false 3 ()] } bind def
/XYrestore { [( ) 1 2 true false 4 ()] } bind def
Level1 SuppressPDFMark or 
{} {
/SDict 10 dict def
systemdict /pdfmark known not {
  userdict /pdfmark systemdict /cleartomark get put
} if
SDict begin [
  /Title (optic_10bx1by.eps)
  /Subject (gnuplot plot)
  /Creator (gnuplot 4.6 patchlevel 4)
  /Author (rj-yang)
%  /Producer (gnuplot)
%  /Keywords ()
  /CreationDate (Thu May 25 20:56:37 2017)
  /DOCINFO pdfmark
end
} ifelse
end
%%EndProlog
%%Page: 1 1
gnudict begin
gsave
doclip
50 50 translate
0.050 0.050 scale
0 setgray
newpath
(Helvetica) findfont 240 scalefont setfont
BackgroundColor 0 lt 3 1 roll 0 lt exch 0 lt or or not {BackgroundColor C 1.000 0 0 7200.00 5040.00 BoxColFill} if
1.000 UL
LTb
LCb setrgbcolor
1176 768 M
63 0 V
5528 0 R
-63 0 V
stroke
1032 768 M
[ [(Helvetica) 240.0 0.0 true true 0 ( 0)]
] -80.0 MRshow
1.000 UL
LTb
LCb setrgbcolor
1176 1211 M
63 0 V
5528 0 R
-63 0 V
stroke
1032 1211 M
[ [(Helvetica) 240.0 0.0 true true 0 ( 50)]
] -80.0 MRshow
1.000 UL
LTb
LCb setrgbcolor
1176 1653 M
63 0 V
5528 0 R
-63 0 V
stroke
1032 1653 M
[ [(Helvetica) 240.0 0.0 true true 0 ( 100)]
] -80.0 MRshow
1.000 UL
LTb
LCb setrgbcolor
1176 2096 M
63 0 V
5528 0 R
-63 0 V
stroke
1032 2096 M
[ [(Helvetica) 240.0 0.0 true true 0 ( 150)]
] -80.0 MRshow
1.000 UL
LTb
LCb setrgbcolor
1176 2538 M
63 0 V
5528 0 R
-63 0 V
stroke
1032 2538 M
[ [(Helvetica) 240.0 0.0 true true 0 ( 200)]
] -80.0 MRshow
1.000 UL
LTb
LCb setrgbcolor
1176 2981 M
63 0 V
5528 0 R
-63 0 V
stroke
1032 2981 M
[ [(Helvetica) 240.0 0.0 true true 0 ( 250)]
] -80.0 MRshow
1.000 UL
LTb
LCb setrgbcolor
1176 3423 M
63 0 V
5528 0 R
-63 0 V
stroke
1032 3423 M
[ [(Helvetica) 240.0 0.0 true true 0 ( 300)]
] -80.0 MRshow
1.000 UL
LTb
LCb setrgbcolor
1176 3866 M
63 0 V
5528 0 R
-63 0 V
stroke
1032 3866 M
[ [(Helvetica) 240.0 0.0 true true 0 ( 350)]
] -80.0 MRshow
1.000 UL
LTb
LCb setrgbcolor
1176 4308 M
63 0 V
5528 0 R
-63 0 V
stroke
1032 4308 M
[ [(Helvetica) 240.0 0.0 true true 0 ( 400)]
] -80.0 MRshow
1.000 UL
LTb
LCb setrgbcolor
1176 4751 M
63 0 V
5528 0 R
-63 0 V
stroke
1032 4751 M
[ [(Helvetica) 240.0 0.0 true true 0 ( 450)]
] -80.0 MRshow
1.000 UL
LTb
LCb setrgbcolor
1176 768 M
0 63 V
0 3920 R
0 -63 V
stroke
1176 528 M
[ [(Helvetica) 240.0 0.0 true true 0 ( 0)]
] -80.0 MCshow
1.000 UL
LTb
LCb setrgbcolor
1797 768 M
0 63 V
0 3920 R
0 -63 V
stroke
1797 528 M
[ [(Helvetica) 240.0 0.0 true true 0 ( 10)]
] -80.0 MCshow
1.000 UL
LTb
LCb setrgbcolor
2418 768 M
0 63 V
0 3920 R
0 -63 V
stroke
2418 528 M
[ [(Helvetica) 240.0 0.0 true true 0 ( 20)]
] -80.0 MCshow
1.000 UL
LTb
LCb setrgbcolor
3040 768 M
0 63 V
0 3920 R
0 -63 V
stroke
3040 528 M
[ [(Helvetica) 240.0 0.0 true true 0 ( 30)]
] -80.0 MCshow
1.000 UL
LTb
LCb setrgbcolor
3661 768 M
0 63 V
0 3920 R
0 -63 V
stroke
3661 528 M
[ [(Helvetica) 240.0 0.0 true true 0 ( 40)]
] -80.0 MCshow
1.000 UL
LTb
LCb setrgbcolor
4282 768 M
0 63 V
0 3920 R
0 -63 V
stroke
4282 528 M
[ [(Helvetica) 240.0 0.0 true true 0 ( 50)]
] -80.0 MCshow
1.000 UL
LTb
LCb setrgbcolor
4903 768 M
0 63 V
0 3920 R
0 -63 V
stroke
4903 528 M
[ [(Helvetica) 240.0 0.0 true true 0 ( 60)]
] -80.0 MCshow
1.000 UL
LTb
LCb setrgbcolor
5525 768 M
0 63 V
0 3920 R
0 -63 V
stroke
5525 528 M
[ [(Helvetica) 240.0 0.0 true true 0 ( 70)]
] -80.0 MCshow
1.000 UL
LTb
LCb setrgbcolor
6146 768 M
0 63 V
0 3920 R
0 -63 V
stroke
6146 528 M
[ [(Helvetica) 240.0 0.0 true true 0 ( 80)]
] -80.0 MCshow
1.000 UL
LTb
LCb setrgbcolor
6767 768 M
0 63 V
0 3920 R
0 -63 V
stroke
6767 528 M
[ [(Helvetica) 240.0 0.0 true true 0 ( 90)]
] -80.0 MCshow
1.000 UL
LTb
LCb setrgbcolor
1.000 UL
LTb
LCb setrgbcolor
1176 4751 N
0 -3983 V
5591 0 V
0 3983 V
-5591 0 V
Z stroke
LCb setrgbcolor
192 2759 M
currentpoint gsave translate -270 rotate 0 0 moveto
[ [(Symbol) 240.0 0.0 true true 0 (b)]
[(Helvetica) 192.0 120.0 true true 0 (1/2)]
[(Helvetica) 240.0 0.0 true true 0 ( [m])]
] -104.0 MCshow
grestore
LTb
LCb setrgbcolor
3971 168 M
[ [(Italic) 240.0 0.0 true true 0 (s)]
[(Helvetica) 240.0 0.0 true true 0 ( [m])]
] -80.0 MCshow
LTb
1.000 UP
1.000 UL
LTb
LCb setrgbcolor
% Begin plot #1
1.500 UP
3.000 UL
LT0
0.00 0.00 0.00 C LCb setrgbcolor
1896 4508 M
[ [(Symbol) 240.0 0.0 true true 0 (b)]
[(Italic) 192.0 -72.0 true true 0 (x)]
[(Helvetica) 192.0 120.0 true true 0 (1/2)]
] -80.0 MRshow
LT0
0.00 0.00 0.00 C 2040 4508 M
639 0 V
1176 840 M
19 -2 V
12 -1 V
25 -3 V
25 -2 V
6 -1 V
6 0 V
31 -4 V
31 -4 V
30 -5 V
8 -1 V
2 0 V
3 -1 V
2 0 V
5 -1 V
6 -2 V
6 -5 V
1 -1 V
14 -12 V
16 -15 V
25 0 V
25 23 V
13 12 V
8 7 V
10 9 V
6 7 V
6 11 V
1 2 V
47 93 V
7 10 V
6 3 V
1 0 V
9 0 V
7 0 V
9 0 V
8 0 V
93 0 V
128 -1 V
6 -3 V
6 -9 V
2 -4 V
8 -16 V
7 -15 V
30 -59 V
1 -3 V
6 -11 V
7 -7 V
9 -10 V
8 -8 V
14 -13 V
25 -25 V
24 15 V
14 13 V
8 8 V
9 8 V
0 1 V
7 5 V
6 2 V
3 0 V
2 0 V
21 0 V
36 0 V
42 -1 V
42 -3 V
48 -4 V
2 0 V
3 -1 V
1 0 V
52 -20 V
38 -14 V
20 -7 V
7 -2 V
10 -2 V
6 2 V
7 2 V
1 0 V
8 3 V
8 3 V
28 12 V
15 6 V
15 6 V
16 6 V
4 2 V
6 3 V
6 2 V
10 4 V
4 2 V
6 1 V
6 -1 V
10 -2 V
7 -2 V
54 -16 V
29 -8 V
21 -6 V
8 -2 V
5 -2 V
8 -2 V
2 -1 V
3 0 V
6 -2 V
6 -1 V
7 -1 V
1 0 V
stroke 2670 779 M
59 0 V
8 1 V
9 0 V
6 0 V
7 0 V
1 -1 V
25 -2 V
19 -1 V
8 -1 V
5 1 V
8 0 V
3 0 V
2 0 V
6 1 V
7 0 V
6 2 V
1 0 V
33 9 V
7 2 V
11 3 V
6 1 V
6 -1 V
3 -1 V
49 -13 V
6 -2 V
6 0 V
4 -1 V
17 0 V
14 0 V
7 0 V
10 1 V
6 0 V
7 0 V
3 -1 V
20 0 V
7 0 V
10 0 V
3 0 V
2 0 V
6 1 V
7 0 V
6 2 V
1 0 V
59 17 V
8 2 V
9 2 V
7 1 V
6 0 V
1 -1 V
13 -3 V
52 -13 V
3 -1 V
2 -1 V
41 -8 V
8 -1 V
15 1 V
7 1 V
6 2 V
1 0 V
17 5 V
25 8 V
17 5 V
8 3 V
9 3 V
6 1 V
7 1 V
1 0 V
16 -1 V
24 -1 V
19 -1 V
31 -1 V
8 0 V
39 -1 V
1 0 V
1 0 V
48 -2 V
29 -1 V
17 0 V
2 0 V
2 0 V
3 0 V
29 4 V
31 4 V
56 8 V
28 3 V
8 1 V
58 8 V
26 4 V
2 0 V
3 0 V
1 0 V
17 -3 V
31 -4 V
22 -3 V
33 -5 V
113 -15 V
17 -2 V
2 0 V
6 -1 V
6 -1 V
47 -6 V
8 -1 V
8 -1 V
8 -1 V
stroke 4235 784 M
10 -1 V
6 0 V
6 -1 V
1 0 V
80 -5 V
6 0 V
6 1 V
2 1 V
36 10 V
13 4 V
30 8 V
6 1 V
6 -1 V
2 0 V
79 -20 V
7 -1 V
6 -2 V
1 0 V
44 -4 V
42 8 V
6 2 V
6 1 V
1 1 V
53 12 V
15 4 V
12 3 V
6 1 V
6 3 V
1 0 V
30 13 V
13 5 V
6 3 V
6 4 V
1 1 V
18 12 V
50 35 V
6 4 V
6 1 V
1 0 V
24 0 V
4 0 V
3 0 V
6 0 V
19 -1 V
6 -1 V
7 -3 V
1 -1 V
16 -12 V
7 -5 V
8 -5 V
67 -48 V
6 -4 V
6 -3 V
2 0 V
104 -32 V
6 0 V
6 1 V
2 1 V
26 7 V
19 6 V
19 6 V
40 13 V
6 3 V
6 3 V
2 1 V
66 48 V
7 5 V
7 5 V
18 13 V
6 3 V
6 1 V
1 0 V
26 0 V
2 0 V
2 0 V
7 0 V
19 0 V
7 -1 V
6 -3 V
1 -1 V
14 -10 V
53 -38 V
6 -4 V
7 -3 V
1 -1 V
24 -10 V
3 -1 V
3 -2 V
6 -2 V
20 -8 V
6 -3 V
6 -2 V
1 0 V
17 -4 V
7 -2 V
7 -2 V
64 -15 V
19 -3 V
19 1 V
28 6 V
6 2 V
6 1 V
1 0 V
27 3 V
stroke 5817 786 M
19 3 V
19 3 V
15 2 V
12 2 V
7 1 V
6 1 V
1 0 V
22 6 V
8 2 V
10 2 V
52 13 V
6 2 V
6 2 V
2 1 V
236 118 V
25 13 V
8 3 V
7 4 V
10 5 V
6 3 V
3 2 V
3 1 V
19 10 V
14 -2 V
13 -20 V
8 -15 V
19 -37 V
6 -13 V
3 -6 V
3 -6 V
18 -36 V
14 -24 V
15 -14 V
7 -5 V
28 -20 V
17 -12 V
5 -3 V
5 -2 V
26 17 V
12 9 V
19 13 V
36 25 V
42 29 V
42 26 V
83 48 V
13 7 V
1176 840 Pnt
1195 838 Pnt
1207 837 Pnt
1232 834 Pnt
1257 832 Pnt
1263 831 Pnt
1269 831 Pnt
1300 827 Pnt
1331 823 Pnt
1361 818 Pnt
1369 817 Pnt
1371 817 Pnt
1374 816 Pnt
1376 816 Pnt
1381 815 Pnt
1387 813 Pnt
1393 808 Pnt
1394 807 Pnt
1408 795 Pnt
1424 780 Pnt
1449 780 Pnt
1474 803 Pnt
1487 815 Pnt
1495 822 Pnt
1505 831 Pnt
1511 838 Pnt
1517 849 Pnt
1518 851 Pnt
1565 944 Pnt
1572 954 Pnt
1578 957 Pnt
1579 957 Pnt
1588 957 Pnt
1595 957 Pnt
1604 957 Pnt
1612 957 Pnt
1705 957 Pnt
1833 956 Pnt
1839 953 Pnt
1845 944 Pnt
1847 940 Pnt
1855 924 Pnt
1862 909 Pnt
1892 850 Pnt
1893 847 Pnt
1899 836 Pnt
1906 829 Pnt
1915 819 Pnt
1923 811 Pnt
1937 798 Pnt
1962 773 Pnt
1986 788 Pnt
2000 801 Pnt
2008 809 Pnt
2017 817 Pnt
2017 818 Pnt
2024 823 Pnt
2030 825 Pnt
2030 825 Pnt
2033 825 Pnt
2035 825 Pnt
2056 825 Pnt
2092 825 Pnt
2134 824 Pnt
2176 821 Pnt
2224 817 Pnt
2226 817 Pnt
2229 816 Pnt
2230 816 Pnt
2282 796 Pnt
2320 782 Pnt
2340 775 Pnt
2347 773 Pnt
2357 771 Pnt
2363 773 Pnt
2370 775 Pnt
2371 775 Pnt
2379 778 Pnt
2387 781 Pnt
2415 793 Pnt
2430 799 Pnt
2445 805 Pnt
2461 811 Pnt
2465 813 Pnt
2471 816 Pnt
2477 818 Pnt
2487 822 Pnt
2491 824 Pnt
2497 825 Pnt
2503 824 Pnt
2513 822 Pnt
2520 820 Pnt
2574 804 Pnt
2603 796 Pnt
2624 790 Pnt
2632 788 Pnt
2637 786 Pnt
2645 784 Pnt
2647 783 Pnt
2650 783 Pnt
2656 781 Pnt
2662 780 Pnt
2669 779 Pnt
2670 779 Pnt
2729 779 Pnt
2737 780 Pnt
2746 780 Pnt
2752 780 Pnt
2759 780 Pnt
2760 779 Pnt
2785 777 Pnt
2804 776 Pnt
2812 775 Pnt
2817 776 Pnt
2825 776 Pnt
2828 776 Pnt
2830 776 Pnt
2836 777 Pnt
2843 777 Pnt
2849 779 Pnt
2850 779 Pnt
2883 788 Pnt
2890 790 Pnt
2901 793 Pnt
2907 794 Pnt
2913 793 Pnt
2916 792 Pnt
2965 779 Pnt
2971 777 Pnt
2977 777 Pnt
2981 776 Pnt
2998 776 Pnt
3012 776 Pnt
3019 776 Pnt
3029 777 Pnt
3035 777 Pnt
3042 777 Pnt
3045 776 Pnt
3065 776 Pnt
3072 776 Pnt
3082 776 Pnt
3085 776 Pnt
3087 776 Pnt
3093 777 Pnt
3100 777 Pnt
3106 779 Pnt
3107 779 Pnt
3166 796 Pnt
3174 798 Pnt
3183 800 Pnt
3190 801 Pnt
3196 801 Pnt
3197 800 Pnt
3210 797 Pnt
3262 784 Pnt
3265 783 Pnt
3267 782 Pnt
3308 774 Pnt
3316 773 Pnt
3331 774 Pnt
3338 775 Pnt
3344 777 Pnt
3345 777 Pnt
3362 782 Pnt
3387 790 Pnt
3404 795 Pnt
3412 798 Pnt
3421 801 Pnt
3427 802 Pnt
3434 803 Pnt
3435 803 Pnt
3451 802 Pnt
3475 801 Pnt
3494 800 Pnt
3525 799 Pnt
3533 799 Pnt
3572 798 Pnt
3573 798 Pnt
3574 798 Pnt
3622 796 Pnt
3651 795 Pnt
3668 795 Pnt
3670 795 Pnt
3672 795 Pnt
3675 795 Pnt
3704 799 Pnt
3735 803 Pnt
3791 811 Pnt
3819 814 Pnt
3827 815 Pnt
3885 823 Pnt
3911 827 Pnt
3913 827 Pnt
3916 827 Pnt
3917 827 Pnt
3934 824 Pnt
3965 820 Pnt
3987 817 Pnt
4020 812 Pnt
4133 797 Pnt
4150 795 Pnt
4152 795 Pnt
4158 794 Pnt
4164 793 Pnt
4211 787 Pnt
4219 786 Pnt
4227 785 Pnt
4235 784 Pnt
4245 783 Pnt
4251 783 Pnt
4257 782 Pnt
4258 782 Pnt
4338 777 Pnt
4344 777 Pnt
4350 778 Pnt
4352 779 Pnt
4388 789 Pnt
4401 793 Pnt
4431 801 Pnt
4437 802 Pnt
4443 801 Pnt
4445 801 Pnt
4524 781 Pnt
4531 780 Pnt
4537 778 Pnt
4538 778 Pnt
4582 774 Pnt
4624 782 Pnt
4630 784 Pnt
4636 785 Pnt
4637 786 Pnt
4690 798 Pnt
4705 802 Pnt
4717 805 Pnt
4723 806 Pnt
4729 809 Pnt
4730 809 Pnt
4760 822 Pnt
4773 827 Pnt
4779 830 Pnt
4785 834 Pnt
4786 835 Pnt
4804 847 Pnt
4854 882 Pnt
4860 886 Pnt
4866 887 Pnt
4867 887 Pnt
4891 887 Pnt
4895 887 Pnt
4898 887 Pnt
4904 887 Pnt
4923 886 Pnt
4929 885 Pnt
4936 882 Pnt
4937 881 Pnt
4953 869 Pnt
4960 864 Pnt
4968 859 Pnt
5035 811 Pnt
5041 807 Pnt
5047 804 Pnt
5049 804 Pnt
5153 772 Pnt
5159 772 Pnt
5165 773 Pnt
5167 774 Pnt
5193 781 Pnt
5212 787 Pnt
5231 793 Pnt
5271 806 Pnt
5277 809 Pnt
5283 812 Pnt
5285 813 Pnt
5351 861 Pnt
5358 866 Pnt
5365 871 Pnt
5383 884 Pnt
5389 887 Pnt
5395 888 Pnt
5396 888 Pnt
5422 888 Pnt
5424 888 Pnt
5426 888 Pnt
5433 888 Pnt
5452 888 Pnt
5459 887 Pnt
5465 884 Pnt
5466 883 Pnt
5480 873 Pnt
5533 835 Pnt
5539 831 Pnt
5546 828 Pnt
5547 827 Pnt
5571 817 Pnt
5574 816 Pnt
5577 814 Pnt
5583 812 Pnt
5603 804 Pnt
5609 801 Pnt
5615 799 Pnt
5616 799 Pnt
5633 795 Pnt
5640 793 Pnt
5647 791 Pnt
5711 776 Pnt
5730 773 Pnt
5749 774 Pnt
5777 780 Pnt
5783 782 Pnt
5789 783 Pnt
5790 783 Pnt
5817 786 Pnt
5836 789 Pnt
5855 792 Pnt
5870 794 Pnt
5882 796 Pnt
5889 797 Pnt
5895 798 Pnt
5896 798 Pnt
5918 804 Pnt
5926 806 Pnt
5936 808 Pnt
5988 821 Pnt
5994 823 Pnt
6000 825 Pnt
6002 826 Pnt
6238 944 Pnt
6263 957 Pnt
6271 960 Pnt
6278 964 Pnt
6288 969 Pnt
6294 972 Pnt
6297 974 Pnt
6300 975 Pnt
6319 985 Pnt
6333 983 Pnt
6346 963 Pnt
6354 948 Pnt
6373 911 Pnt
6379 898 Pnt
6382 892 Pnt
6385 886 Pnt
6403 850 Pnt
6417 826 Pnt
6432 812 Pnt
6439 807 Pnt
6467 787 Pnt
6484 775 Pnt
6489 772 Pnt
6494 770 Pnt
6520 787 Pnt
6532 796 Pnt
6551 809 Pnt
6587 834 Pnt
6629 863 Pnt
6671 889 Pnt
6754 937 Pnt
2359 4508 Pnt
% End plot #1
% Begin plot #2
1.500 UP
3.000 UL
LT1
0.00 1.00 1.00 C LCb setrgbcolor
1896 4148 M
[ [(Symbol) 240.0 0.0 true true 0 (b)]
[(Italic) 192.0 -72.0 true true 0 (y)]
[(Helvetica) 192.0 120.0 true true 0 (1/2)]
] -80.0 MRshow
LT1
0.00 1.00 1.00 C 2040 4148 M
639 0 V
1176 776 M
19 -1 V
12 0 V
25 2 V
25 4 V
6 1 V
6 1 V
31 5 V
31 6 V
30 5 V
8 2 V
2 0 V
3 1 V
2 0 V
5 1 V
6 2 V
6 4 V
1 1 V
14 11 V
16 15 V
25 21 V
25 21 V
13 11 V
8 7 V
10 8 V
6 2 V
6 -4 V
1 -2 V
47 -57 V
7 -7 V
6 -4 V
1 -1 V
9 -4 V
7 -3 V
9 -5 V
8 -3 V
93 -45 V
128 57 V
6 4 V
6 7 V
2 2 V
8 9 V
7 9 V
30 35 V
1 2 V
6 4 V
7 -1 V
9 -8 V
8 -6 V
14 -10 V
25 -18 V
24 -19 V
14 -10 V
8 -6 V
9 -7 V
7 -4 V
6 -1 V
3 1 V
2 0 V
21 1 V
36 2 V
42 2 V
42 2 V
48 3 V
2 0 V
3 1 V
1 1 V
52 20 V
38 14 V
20 8 V
7 3 V
10 3 V
6 1 V
7 -2 V
1 0 V
8 -6 V
8 -4 V
28 -17 V
15 -9 V
15 -9 V
16 -10 V
4 -2 V
6 -4 V
6 -3 V
10 -7 V
4 -2 V
6 -3 V
6 -2 V
10 -3 V
7 -1 V
54 -14 V
29 0 V
21 5 V
8 2 V
5 1 V
8 3 V
2 0 V
3 1 V
6 2 V
6 1 V
7 0 V
1 -1 V
59 -6 V
stroke 2729 782 M
8 0 V
9 -1 V
6 0 V
7 0 V
1 0 V
25 4 V
19 3 V
8 1 V
5 1 V
8 1 V
3 1 V
2 0 V
6 1 V
7 1 V
6 -1 V
1 -1 V
33 -8 V
7 -2 V
11 -2 V
6 -1 V
6 -1 V
3 0 V
49 3 V
6 0 V
6 0 V
4 -1 V
17 -2 V
14 -1 V
7 -1 V
10 0 V
6 0 V
7 1 V
3 0 V
20 4 V
7 2 V
10 2 V
3 1 V
2 0 V
6 2 V
7 1 V
6 0 V
1 -1 V
59 -6 V
8 0 V
9 -1 V
7 0 V
6 0 V
1 0 V
13 2 V
52 8 V
3 1 V
2 0 V
41 7 V
8 1 V
15 3 V
7 0 V
6 -1 V
1 0 V
17 -4 V
25 -5 V
17 -4 V
8 -1 V
9 -2 V
6 -1 V
7 -1 V
1 0 V
16 0 V
24 -1 V
19 0 V
31 0 V
8 0 V
39 1 V
1 0 V
1 0 V
48 2 V
29 1 V
17 1 V
2 0 V
2 0 V
3 0 V
29 -1 V
31 -2 V
56 -2 V
28 0 V
8 0 V
58 0 V
26 1 V
2 0 V
3 0 V
1 0 V
17 2 V
31 4 V
22 3 V
33 4 V
113 14 V
17 3 V
2 0 V
6 1 V
6 0 V
47 7 V
8 1 V
8 1 V
8 1 V
10 1 V
stroke 4245 826 M
6 1 V
6 1 V
1 0 V
80 13 V
6 -2 V
6 -7 V
2 -2 V
36 -55 V
13 8 V
30 46 V
6 11 V
6 15 V
2 3 V
79 217 V
7 16 V
6 17 V
1 3 V
44 117 V
42 109 V
6 17 V
6 19 V
1 3 V
53 169 V
15 45 V
12 40 V
6 13 V
6 1 V
1 -1 V
30 -26 V
13 -12 V
6 -11 V
6 -24 V
1 -5 V
18 -86 V
50 -233 V
6 -25 V
6 -16 V
1 -2 V
24 -48 V
4 -6 V
3 -6 V
6 -13 V
19 -38 V
6 -9 V
7 -3 V
1 0 V
16 -1 V
7 0 V
8 0 V
67 -3 V
6 -5 V
6 -14 V
2 -3 V
5153 793 L
6 19 V
6 20 V
2 4 V
26 89 V
19 64 V
19 64 V
40 134 V
6 14 V
6 2 V
2 -1 V
66 -55 V
7 -6 V
7 -6 V
18 -15 V
6 -2 V
6 5 V
1 2 V
26 33 V
2 2 V
2 3 V
7 9 V
19 26 V
7 12 V
6 20 V
1 5 V
14 55 V
53 212 V
6 19 V
7 8 V
1 1 V
24 9 V
3 2 V
3 1 V
6 2 V
20 8 V
6 -4 V
6 -14 V
1 -5 V
17 -55 V
7 -23 V
7 -24 V
64 -213 V
19 -63 V
19 -64 V
28 -92 V
6 -17 V
6 -12 V
1 -2 V
27 -39 V
19 -28 V
19 -28 V
15 -22 V
12 -18 V
7 -10 V
6 -10 V
1 -2 V
22 -36 V
8 8 V
10 15 V
52 85 V
6 10 V
6 7 V
2 2 V
236 255 V
25 26 V
8 8 V
7 8 V
10 11 V
6 6 V
3 4 V
3 3 V
19 20 V
14 35 V
13 76 V
8 54 V
19 132 V
6 44 V
3 22 V
3 23 V
18 128 V
14 24 V
15 -135 V
7 -94 V
28 -402 V
17 -244 V
5 -72 V
5 -62 V
26 374 V
12 179 V
19 267 V
36 508 V
42 601 V
42 602 V
83 1182 V
13 191 V
1176 776 Pnt
1195 775 Pnt
1207 775 Pnt
1232 777 Pnt
1257 781 Pnt
1263 782 Pnt
1269 783 Pnt
1300 788 Pnt
1331 794 Pnt
1361 799 Pnt
1369 801 Pnt
1371 801 Pnt
1374 802 Pnt
1376 802 Pnt
1381 803 Pnt
1387 805 Pnt
1393 809 Pnt
1394 810 Pnt
1408 821 Pnt
1424 836 Pnt
1449 857 Pnt
1474 878 Pnt
1487 889 Pnt
1495 896 Pnt
1505 904 Pnt
1511 906 Pnt
1517 902 Pnt
1518 900 Pnt
1565 843 Pnt
1572 836 Pnt
1578 832 Pnt
1579 831 Pnt
1588 827 Pnt
1595 824 Pnt
1604 819 Pnt
1612 816 Pnt
1705 771 Pnt
1833 828 Pnt
1839 832 Pnt
1845 839 Pnt
1847 841 Pnt
1855 850 Pnt
1862 859 Pnt
1892 894 Pnt
1893 896 Pnt
1899 900 Pnt
1906 899 Pnt
1915 891 Pnt
1923 885 Pnt
1937 875 Pnt
1962 857 Pnt
1986 838 Pnt
2000 828 Pnt
2008 822 Pnt
2017 815 Pnt
2017 815 Pnt
2024 811 Pnt
2030 810 Pnt
2030 810 Pnt
2033 811 Pnt
2035 811 Pnt
2056 812 Pnt
2092 814 Pnt
2134 816 Pnt
2176 818 Pnt
2224 821 Pnt
2226 821 Pnt
2229 822 Pnt
2230 823 Pnt
2282 843 Pnt
2320 857 Pnt
2340 865 Pnt
2347 868 Pnt
2357 871 Pnt
2363 872 Pnt
2370 870 Pnt
2371 870 Pnt
2379 864 Pnt
2387 860 Pnt
2415 843 Pnt
2430 834 Pnt
2445 825 Pnt
2461 815 Pnt
2465 813 Pnt
2471 809 Pnt
2477 806 Pnt
2487 799 Pnt
2491 797 Pnt
2497 794 Pnt
2503 792 Pnt
2513 789 Pnt
2520 788 Pnt
2574 774 Pnt
2603 774 Pnt
2624 779 Pnt
2632 781 Pnt
2637 782 Pnt
2645 785 Pnt
2647 785 Pnt
2650 786 Pnt
2656 788 Pnt
2662 789 Pnt
2669 789 Pnt
2670 788 Pnt
2729 782 Pnt
2737 782 Pnt
2746 781 Pnt
2752 781 Pnt
2759 781 Pnt
2760 781 Pnt
2785 785 Pnt
2804 788 Pnt
2812 789 Pnt
2817 790 Pnt
2825 791 Pnt
2828 792 Pnt
2830 792 Pnt
2836 793 Pnt
2843 794 Pnt
2849 793 Pnt
2850 792 Pnt
2883 784 Pnt
2890 782 Pnt
2901 780 Pnt
2907 779 Pnt
2913 778 Pnt
2916 778 Pnt
2965 781 Pnt
2971 781 Pnt
2977 781 Pnt
2981 780 Pnt
2998 778 Pnt
3012 777 Pnt
3019 776 Pnt
3029 776 Pnt
3035 776 Pnt
3042 777 Pnt
3045 777 Pnt
3065 781 Pnt
3072 783 Pnt
3082 785 Pnt
3085 786 Pnt
3087 786 Pnt
3093 788 Pnt
3100 789 Pnt
3106 789 Pnt
3107 788 Pnt
3166 782 Pnt
3174 782 Pnt
3183 781 Pnt
3190 781 Pnt
3196 781 Pnt
3197 781 Pnt
3210 783 Pnt
3262 791 Pnt
3265 792 Pnt
3267 792 Pnt
3308 799 Pnt
3316 800 Pnt
3331 803 Pnt
3338 803 Pnt
3344 802 Pnt
3345 802 Pnt
3362 798 Pnt
3387 793 Pnt
3404 789 Pnt
3412 788 Pnt
3421 786 Pnt
3427 785 Pnt
3434 784 Pnt
3435 784 Pnt
3451 784 Pnt
3475 783 Pnt
3494 783 Pnt
3525 783 Pnt
3533 783 Pnt
3572 784 Pnt
3573 784 Pnt
3574 784 Pnt
3622 786 Pnt
3651 787 Pnt
3668 788 Pnt
3670 788 Pnt
3672 788 Pnt
3675 788 Pnt
3704 787 Pnt
3735 785 Pnt
3791 783 Pnt
3819 783 Pnt
3827 783 Pnt
3885 783 Pnt
3911 784 Pnt
3913 784 Pnt
3916 784 Pnt
3917 784 Pnt
3934 786 Pnt
3965 790 Pnt
3987 793 Pnt
4020 797 Pnt
4133 811 Pnt
4150 814 Pnt
4152 814 Pnt
4158 815 Pnt
4164 815 Pnt
4211 822 Pnt
4219 823 Pnt
4227 824 Pnt
4235 825 Pnt
4245 826 Pnt
4251 827 Pnt
4257 828 Pnt
4258 828 Pnt
4338 841 Pnt
4344 839 Pnt
4350 832 Pnt
4352 830 Pnt
4388 775 Pnt
4401 783 Pnt
4431 829 Pnt
4437 840 Pnt
4443 855 Pnt
4445 858 Pnt
4524 1075 Pnt
4531 1091 Pnt
4537 1108 Pnt
4538 1111 Pnt
4582 1228 Pnt
4624 1337 Pnt
4630 1354 Pnt
4636 1373 Pnt
4637 1376 Pnt
4690 1545 Pnt
4705 1590 Pnt
4717 1630 Pnt
4723 1643 Pnt
4729 1644 Pnt
4730 1643 Pnt
4760 1617 Pnt
4773 1605 Pnt
4779 1594 Pnt
4785 1570 Pnt
4786 1565 Pnt
4804 1479 Pnt
4854 1246 Pnt
4860 1221 Pnt
4866 1205 Pnt
4867 1203 Pnt
4891 1155 Pnt
4895 1149 Pnt
4898 1143 Pnt
4904 1130 Pnt
4923 1092 Pnt
4929 1083 Pnt
4936 1080 Pnt
4937 1080 Pnt
4953 1079 Pnt
4960 1079 Pnt
4968 1079 Pnt
5035 1076 Pnt
5041 1071 Pnt
5047 1057 Pnt
5049 1054 Pnt
5153 793 Pnt
5159 812 Pnt
5165 832 Pnt
5167 836 Pnt
5193 925 Pnt
5212 989 Pnt
5231 1053 Pnt
5271 1187 Pnt
5277 1201 Pnt
5283 1203 Pnt
5285 1202 Pnt
5351 1147 Pnt
5358 1141 Pnt
5365 1135 Pnt
5383 1120 Pnt
5389 1118 Pnt
5395 1123 Pnt
5396 1125 Pnt
5422 1158 Pnt
5424 1160 Pnt
5426 1163 Pnt
5433 1172 Pnt
5452 1198 Pnt
5459 1210 Pnt
5465 1230 Pnt
5466 1235 Pnt
5480 1290 Pnt
5533 1502 Pnt
5539 1521 Pnt
5546 1529 Pnt
5547 1530 Pnt
5571 1539 Pnt
5574 1541 Pnt
5577 1542 Pnt
5583 1544 Pnt
5603 1552 Pnt
5609 1548 Pnt
5615 1534 Pnt
5616 1529 Pnt
5633 1474 Pnt
5640 1451 Pnt
5647 1427 Pnt
5711 1214 Pnt
5730 1151 Pnt
5749 1087 Pnt
5777 995 Pnt
5783 978 Pnt
5789 966 Pnt
5790 964 Pnt
5817 925 Pnt
5836 897 Pnt
5855 869 Pnt
5870 847 Pnt
5882 829 Pnt
5889 819 Pnt
5895 809 Pnt
5896 807 Pnt
5918 771 Pnt
5926 779 Pnt
5936 794 Pnt
5988 879 Pnt
5994 889 Pnt
6000 896 Pnt
6002 898 Pnt
6238 1153 Pnt
6263 1179 Pnt
6271 1187 Pnt
6278 1195 Pnt
6288 1206 Pnt
6294 1212 Pnt
6297 1216 Pnt
6300 1219 Pnt
6319 1239 Pnt
6333 1274 Pnt
6346 1350 Pnt
6354 1404 Pnt
6373 1536 Pnt
6379 1580 Pnt
6382 1602 Pnt
6385 1625 Pnt
6403 1753 Pnt
6417 1777 Pnt
6432 1642 Pnt
6439 1548 Pnt
6467 1146 Pnt
6484 902 Pnt
6489 830 Pnt
6494 768 Pnt
6520 1142 Pnt
6532 1321 Pnt
6551 1588 Pnt
6587 2096 Pnt
6629 2697 Pnt
6671 3299 Pnt
6754 4481 Pnt
2359 4148 Pnt
% End plot #2
1.000 UL
LTb
LCb setrgbcolor
1176 4751 N
0 -3983 V
5591 0 V
0 3983 V
-5591 0 V
Z stroke
1.000 UP
1.000 UL
LTb
LCb setrgbcolor
stroke
grestore
end
showpage
%%Trailer
%%DocumentFonts: Italic Symbol Helvetica
