 Option = {
   OpticsName -> "linac_bt",
   BeamLine -> "linac_bt",
   Command -> "BetaMatching",
   Screen -> "MW3L",
   InjMomentum ->  0.79500E+08,
   Tolerance ->  0.52941E+00,
   Delta ->  0.00000E+00,
   Nchange ->     1,
   BPMResolution ->  0.00000E+00,
   BPMMisalignment ->  0.00000E+00,
   BPMDummyparam ->  0.00000E+00,
 };
 BetaMatchData ={ "MW3L",
 {"QA1L",{
 {     6.50000,   228.29077,20},
 {     6.75000,   188.18506,20},
! {     7.00000,     0.00000},
! {     7.50000,     0.00000},
! {     8.00000,     0.00000},
 {     8.50000,   245.04263,20},
 {     9.00000,   294.90714,20}
  } },
 {"QA3L",{
 {     5.00000,   277.31000},
 {     6.00000,   216.75000},
 {     7.00000,   189.25000},
 {     8.00000,   195.78000},
 {     9.00000,   268.56000},
 {    10.00000,   333.56000},
 {    11.00000,   532.04999},
 {     4.00000,   325.50000}
! {     5.00000,   277.31000,20},
! {     6.00000,   216.75000,20},
! {     7.00000,   189.25000,20},
! {     8.00000,   195.78000,20},
! {     9.00000,   268.56000,20},
! {    10.00000,   333.56000,20},
! {    11.00000,   532.04999,20},
! {     4.00000,   325.50000,20}
  } }
  };
 ATFData = {
  {
   ATFQuad->{
      {"QA1L", 0.00000E+00},
      {"QA2L", 0.00000E+00},
      {"QA3L", 0.00000E+00},
      {"QA4L", 0.00000E+00},
      {"QA5L", 0.00000E+00},
      {"QD1L", 0.00000E+00},
      {"QD2L", 0.00000E+00},
      {"QD3L", 0.00000E+00},
      {"QD4L", 0.00000E+00},
      {"QD5L", 0.00000E+00},
      {"QD6L", 0.00000E+00},
      {"QD7L", 0.00000E+00},
      {"QF1L", 0.00000E+00},
      {"QF2L", 0.00000E+00},
      {"QF3L", 0.00000E+00},
      {"QF4L", 0.00000E+00},
      {"QF5L", 0.00000E+00},
      {"QF6L", 0.00000E+00},
      {"QS5L", 0.00000E+00},
      {"QS6L", 0.00000E+00},
      {"QS7L", 0.00000E+00},
      {"QS8L", 0.00000E+00},
      {"QM1L", 0.00000E+00},
      {"QM2L", 0.00000E+00},
      {"QM3L", 0.00000E+00},
      {"QD10T", 0.00000E+00},
      {"QD11T", 0.00000E+00},
      {"QD12T", 0.00000E+00},
      {"QD40T", 0.00000E+00},
      {"QD41T", 0.00000E+00},
      {"QD42T", 0.00000E+00},
      {"QD50T", 0.00000E+00},
      {"QD51T", 0.00000E+00},
      {"QD52T", 0.00000E+00},
      {"QF10T", 0.00000E+00},
      {"QF11T", 0.00000E+00},
      {"QF20T", 0.00000E+00},
      {"QF40T", 0.00000E+00},
      {"QF41T", 0.00000E+00},
      {"QF42T", 0.00000E+00},
      {"QF50T", 0.00000E+00},
      {"QF51T", 0.00000E+00},
      {"QF52T", 0.00000E+00},
      {"QF53T", 0.00000E+00},
      {"QF21T_S", 0.00000E+00},
      {"QD30T_S", 0.00000E+00},
      {"QF30T_S", 0.00000E+00},
      {"QD31T_S", 0.00000E+00},
      {"QF31T_S", 0.00000E+00},
      {"QD32T_S", 0.00000E+00},
      {"QF43T_S", 0.00000E+00}},
   ATFSteer->{
      {"ZH1L", 0.00000E+00},
      {"ZH2L", 0.00000E+00},
      {"ZH3L", 0.00000E+00},
      {"ZH4L", 0.00000E+00},
      {"ZH5L", 0.00000E+00},
      {"ZH6L", 0.00000E+00},
      {"ZH7L", 0.00000E+00},
      {"ZH8L", 0.00000E+00},
      {"ZH9L", 0.00000E+00},
      {"ZH10L", 0.00000E+00},
      {"ZH11L", 0.00000E+00},
      {"ZH12L", 0.00000E+00},
      {"ZH1P", 0.00000E+00},
      {"ZH2P", 0.00000E+00},
      {"ZV1L", 0.00000E+00},
      {"ZV2L", 0.00000E+00},
      {"ZV3L", 0.00000E+00},
      {"ZV4L", 0.00000E+00},
      {"ZV5L", 0.00000E+00},
      {"ZV6L", 0.00000E+00},
      {"ZV7L", 0.00000E+00},
      {"ZV8L", 0.00000E+00},
      {"ZV9L", 0.00000E+00},
      {"ZV10L", 0.00000E+00},
      {"ZV11L", 0.00000E+00},
      {"ZV12L", 0.00000E+00},
      {"ZV1P", 0.00000E+00},
      {"ZV2P", 0.00000E+00},
      {"ZH30T", 0.00000E+00},
      {"ZH40T", 0.00000E+00},
      {"ZV30T", 0.00000E+00},
      {"ZV40T", 0.00000E+00},
      {"ZV50T", 0.00000E+00},
      {"ZX10T", 0.00000E+00},
      {"ZX11T", 0.00000E+00},
      {"ZX12T", 0.00000E+00},
      {"ZX30T", 0.00000E+00},
      {"ZX31T", 0.00000E+00},
      {"ZX32T", 0.00000E+00},
      {"ZX50T", 0.00000E+00},
      {"ZX51T", 0.00000E+00},
      {"ZX52T", 0.00000E+00},
      {"ZY20T", 0.00000E+00},
      {"ZY21T", 0.00000E+00},
      {"ZY22T", 0.00000E+00},
      {"ZY23T", 0.00000E+00},
      {"ZH50T", 0.00000E+00},
      {"ZV51T", 0.00000E+00}},
 ATFBPM->{
   {"MB1L", 0.00000E+00, 0.00000E+00, 0.00000E+00},
   {"MB2L", 0.00000E+00, 0.00000E+00, 0.00000E+00},
   {"MB3L", 0.00000E+00, 0.00000E+00, 0.00000E+00},
   {"MB4L", 0.00000E+00, 0.00000E+00, 0.00000E+00},
   {"MB5L",-0.19693E+04, 0.42568E+04, 0.70732E+01},
   {"MB6L", 0.12696E+04,-0.12811E+05, 0.11034E+02},
   {"MB7L", 0.00000E+00, 0.00000E+00, 0.00000E+00},
   {"MB8L", 0.00000E+00, 0.00000E+00, 0.00000E+00},
   {"MB9L", 0.25291E+04, 0.10139E+03, 0.23774E+01},
   {"MB10L", 0.43387E+04,-0.66798E+04, 0.13736E+01},
   {"MB11L",-0.14532E+05,-0.32025E+03, 0.91941E+03},
   {"ML1L", 0.00000E+00, 0.00000E+00, 0.00000E+00},
   {"ML2L", 0.00000E+00, 0.00000E+00, 0.00000E+00},
   {"ML3L", 0.00000E+00, 0.00000E+00, 0.00000E+00},
   {"ML4L", 0.00000E+00, 0.00000E+00, 0.00000E+00},
   {"ML5L", 0.00000E+00, 0.00000E+00, 0.00000E+00},
   {"ML6L", 0.00000E+00, 0.00000E+00, 0.00000E+00},
   {"ML7L", 0.00000E+00, 0.00000E+00, 0.00000E+00},
   {"ML8L", 0.00000E+00, 0.00000E+00, 0.00000E+00},
   {"ML9L", 0.00000E+00, 0.00000E+00, 0.00000E+00},
   {"ML10L", 0.00000E+00, 0.00000E+00, 0.00000E+00},
   {"ML11L", 0.00000E+00, 0.00000E+00, 0.00000E+00},
   {"ML12L", 0.00000E+00, 0.00000E+00, 0.00000E+00},
   {"ML13L", 0.00000E+00, 0.00000E+00, 0.00000E+00},
   {"ML14L", 0.00000E+00, 0.00000E+00, 0.00000E+00},
   {"ML15L", 0.00000E+00, 0.00000E+00, 0.00000E+00},
   {"ML1P", 0.00000E+00, 0.00000E+00, 0.00000E+00},
   {"ML2P", 0.00000E+00, 0.00000E+00, 0.00000E+00},
   {"ML3P", 0.00000E+00, 0.00000E+00, 0.00000E+00},
   {"ML4P", 0.00000E+00, 0.00000E+00, 0.00000E+00},
   {"ML1T", 0.00000E+00, 0.00000E+00, 0.00000E+00},
   {"ML2T", 0.00000E+00, 0.00000E+00, 0.00000E+00},
   {"ML3T", 0.00000E+00, 0.00000E+00, 0.00000E+00},
   {"ML4T", 0.00000E+00, 0.00000E+00, 0.00000E+00},
   {"ML5T", 0.00000E+00, 0.00000E+00, 0.00000E+00},
   {"ML6T", 0.00000E+00, 0.00000E+00, 0.00000E+00},
   {"ML7T", 0.00000E+00, 0.00000E+00, 0.00000E+00},
   {"ML8T", 0.00000E+00, 0.00000E+00, 0.00000E+00},
   {"ML9T", 0.00000E+00, 0.00000E+00, 0.00000E+00},
   {"MB10T", 0.00000E+00, 0.00000E+00, 0.00000E+00},
   {"MB11T", 0.00000E+00, 0.00000E+00, 0.00000E+00},
   {"MB1T", 0.00000E+00, 0.00000E+00, 0.00000E+00},
   {"ML101T",-0.32132E+04,-0.81326E+04, 0.13929E+02},
   {"ML102T",-0.43254E+04, 0.60255E+06, 0.53905E+01},
   {"ML103T", 0.00000E+00, 0.00000E+00, 0.00000E+00},
   {"ML104T",-0.60481E+04,-0.54014E+06, 0.50000E+01},
   {"ML105T", 0.00000E+00, 0.00000E+00, 0.00000E+00},
   {"ML106T",-0.50749E+02, 0.46942E+04, 0.21405E+02}},
 ATFVcPhi -> {
   {"CA0L", 0.00000E+00, 0.42640E+02},
   {"CA1L", 0.00000E+00,-0.16460E+03},
   {"CA2L", 0.00000E+00,-0.16460E+03},
   {"CA3L", 0.00000E+00,-0.17480E+03},
   {"CA4L", 0.00000E+00,-0.17480E+03},
   {"CA5L", 0.00000E+00,-0.13520E+03},
   {"CA6L", 0.00000E+00,-0.13520E+03},
   {"CA7L", 0.00000E+00,-0.34460E+02},
   {"CA8L", 0.00000E+00,-0.34460E+02},
   {"CA9L", 0.00000E+00,-0.10400E+02},
   {"CA10L", 0.00000E+00,-0.10400E+02},
   {"CA11L", 0.10894E+08, 0.27800E+02},
   {"CA12L", 0.10894E+08, 0.27800E+02},
   {"CA13L", 0.00000E+00,-0.12924E+03},
   {"CA14L", 0.00000E+00,-0.12924E+03},
   {"CA15L", 0.00000E+00,-0.18184E+03},
   {"CA16L", 0.00000E+00,-0.18184E+03},
   {"CB1L", 0.00000E+00, 0.15012E+03},
   {"CB2L", 0.00000E+00,-0.12600E+02}}
  } 
 };
