%!PS-Adobe-2.0 EPSF-2.0
%%Title: optic_10bx1by.eps
%%Creator: gnuplot 4.6 patchlevel 4
%%CreationDate: Tue Jun 13 15:18:34 2017
%%DocumentFonts: (atend)
%%BoundingBox: 50 50 410 302
%%EndComments
%%BeginProlog
/gnudict 256 dict def
gnudict begin
%
% The following true/false flags may be edited by hand if desired.
% The unit line width and grayscale image gamma correction may also be changed.
%
/Color true def
/Blacktext false def
/Solid false def
/Dashlength 1 def
/Landscape false def
/Level1 false def
/Rounded false def
/ClipToBoundingBox false def
/SuppressPDFMark false def
/TransparentPatterns false def
/gnulinewidth 5.000 def
/userlinewidth gnulinewidth def
/Gamma 1.0 def
/BackgroundColor {-1.000 -1.000 -1.000} def
%
/vshift -80 def
/dl1 {
  10.0 Dashlength mul mul
  Rounded { currentlinewidth 0.75 mul sub dup 0 le { pop 0.01 } if } if
} def
/dl2 {
  10.0 Dashlength mul mul
  Rounded { currentlinewidth 0.75 mul add } if
} def
/hpt_ 31.5 def
/vpt_ 31.5 def
/hpt hpt_ def
/vpt vpt_ def
/doclip {
  ClipToBoundingBox {
    newpath 50 50 moveto 410 50 lineto 410 302 lineto 50 302 lineto closepath
    clip
  } if
} def
%
% Gnuplot Prolog Version 4.6 (September 2012)
%
%/SuppressPDFMark true def
%
/M {moveto} bind def
/L {lineto} bind def
/R {rmoveto} bind def
/V {rlineto} bind def
/N {newpath moveto} bind def
/Z {closepath} bind def
/C {setrgbcolor} bind def
/f {rlineto fill} bind def
/g {setgray} bind def
/Gshow {show} def   % May be redefined later in the file to support UTF-8
/vpt2 vpt 2 mul def
/hpt2 hpt 2 mul def
/Lshow {currentpoint stroke M 0 vshift R 
	Blacktext {gsave 0 setgray show grestore} {show} ifelse} def
/Rshow {currentpoint stroke M dup stringwidth pop neg vshift R
	Blacktext {gsave 0 setgray show grestore} {show} ifelse} def
/Cshow {currentpoint stroke M dup stringwidth pop -2 div vshift R 
	Blacktext {gsave 0 setgray show grestore} {show} ifelse} def
/UP {dup vpt_ mul /vpt exch def hpt_ mul /hpt exch def
  /hpt2 hpt 2 mul def /vpt2 vpt 2 mul def} def
/DL {Color {setrgbcolor Solid {pop []} if 0 setdash}
 {pop pop pop 0 setgray Solid {pop []} if 0 setdash} ifelse} def
/BL {stroke userlinewidth 2 mul setlinewidth
	Rounded {1 setlinejoin 1 setlinecap} if} def
/AL {stroke userlinewidth 2 div setlinewidth
	Rounded {1 setlinejoin 1 setlinecap} if} def
/UL {dup gnulinewidth mul /userlinewidth exch def
	dup 1 lt {pop 1} if 10 mul /udl exch def} def
/PL {stroke userlinewidth setlinewidth
	Rounded {1 setlinejoin 1 setlinecap} if} def
3.8 setmiterlimit
% Default Line colors
/LCw {1 1 1} def
/LCb {0 0 0} def
/LCa {0 0 0} def
/LC0 {1 0 0} def
/LC1 {0 1 0} def
/LC2 {0 0 1} def
/LC3 {1 0 1} def
/LC4 {0 1 1} def
/LC5 {1 1 0} def
/LC6 {0 0 0} def
/LC7 {1 0.3 0} def
/LC8 {0.5 0.5 0.5} def
% Default Line Types
/LTw {PL [] 1 setgray} def
/LTb {BL [] LCb DL} def
/LTa {AL [1 udl mul 2 udl mul] 0 setdash LCa setrgbcolor} def
/LT0 {PL [] LC0 DL} def
/LT1 {PL [4 dl1 2 dl2] LC1 DL} def
/LT2 {PL [2 dl1 3 dl2] LC2 DL} def
/LT3 {PL [1 dl1 1.5 dl2] LC3 DL} def
/LT4 {PL [6 dl1 2 dl2 1 dl1 2 dl2] LC4 DL} def
/LT5 {PL [3 dl1 3 dl2 1 dl1 3 dl2] LC5 DL} def
/LT6 {PL [2 dl1 2 dl2 2 dl1 6 dl2] LC6 DL} def
/LT7 {PL [1 dl1 2 dl2 6 dl1 2 dl2 1 dl1 2 dl2] LC7 DL} def
/LT8 {PL [2 dl1 2 dl2 2 dl1 2 dl2 2 dl1 2 dl2 2 dl1 4 dl2] LC8 DL} def
/Pnt {stroke [] 0 setdash gsave 1 setlinecap M 0 0 V stroke grestore} def
/Dia {stroke [] 0 setdash 2 copy vpt add M
  hpt neg vpt neg V hpt vpt neg V
  hpt vpt V hpt neg vpt V closepath stroke
  Pnt} def
/Pls {stroke [] 0 setdash vpt sub M 0 vpt2 V
  currentpoint stroke M
  hpt neg vpt neg R hpt2 0 V stroke
 } def
/Box {stroke [] 0 setdash 2 copy exch hpt sub exch vpt add M
  0 vpt2 neg V hpt2 0 V 0 vpt2 V
  hpt2 neg 0 V closepath stroke
  Pnt} def
/Crs {stroke [] 0 setdash exch hpt sub exch vpt add M
  hpt2 vpt2 neg V currentpoint stroke M
  hpt2 neg 0 R hpt2 vpt2 V stroke} def
/TriU {stroke [] 0 setdash 2 copy vpt 1.12 mul add M
  hpt neg vpt -1.62 mul V
  hpt 2 mul 0 V
  hpt neg vpt 1.62 mul V closepath stroke
  Pnt} def
/Star {2 copy Pls Crs} def
/BoxF {stroke [] 0 setdash exch hpt sub exch vpt add M
  0 vpt2 neg V hpt2 0 V 0 vpt2 V
  hpt2 neg 0 V closepath fill} def
/TriUF {stroke [] 0 setdash vpt 1.12 mul add M
  hpt neg vpt -1.62 mul V
  hpt 2 mul 0 V
  hpt neg vpt 1.62 mul V closepath fill} def
/TriD {stroke [] 0 setdash 2 copy vpt 1.12 mul sub M
  hpt neg vpt 1.62 mul V
  hpt 2 mul 0 V
  hpt neg vpt -1.62 mul V closepath stroke
  Pnt} def
/TriDF {stroke [] 0 setdash vpt 1.12 mul sub M
  hpt neg vpt 1.62 mul V
  hpt 2 mul 0 V
  hpt neg vpt -1.62 mul V closepath fill} def
/DiaF {stroke [] 0 setdash vpt add M
  hpt neg vpt neg V hpt vpt neg V
  hpt vpt V hpt neg vpt V closepath fill} def
/Pent {stroke [] 0 setdash 2 copy gsave
  translate 0 hpt M 4 {72 rotate 0 hpt L} repeat
  closepath stroke grestore Pnt} def
/PentF {stroke [] 0 setdash gsave
  translate 0 hpt M 4 {72 rotate 0 hpt L} repeat
  closepath fill grestore} def
/Circle {stroke [] 0 setdash 2 copy
  hpt 0 360 arc stroke Pnt} def
/CircleF {stroke [] 0 setdash hpt 0 360 arc fill} def
/C0 {BL [] 0 setdash 2 copy moveto vpt 90 450 arc} bind def
/C1 {BL [] 0 setdash 2 copy moveto
	2 copy vpt 0 90 arc closepath fill
	vpt 0 360 arc closepath} bind def
/C2 {BL [] 0 setdash 2 copy moveto
	2 copy vpt 90 180 arc closepath fill
	vpt 0 360 arc closepath} bind def
/C3 {BL [] 0 setdash 2 copy moveto
	2 copy vpt 0 180 arc closepath fill
	vpt 0 360 arc closepath} bind def
/C4 {BL [] 0 setdash 2 copy moveto
	2 copy vpt 180 270 arc closepath fill
	vpt 0 360 arc closepath} bind def
/C5 {BL [] 0 setdash 2 copy moveto
	2 copy vpt 0 90 arc
	2 copy moveto
	2 copy vpt 180 270 arc closepath fill
	vpt 0 360 arc} bind def
/C6 {BL [] 0 setdash 2 copy moveto
	2 copy vpt 90 270 arc closepath fill
	vpt 0 360 arc closepath} bind def
/C7 {BL [] 0 setdash 2 copy moveto
	2 copy vpt 0 270 arc closepath fill
	vpt 0 360 arc closepath} bind def
/C8 {BL [] 0 setdash 2 copy moveto
	2 copy vpt 270 360 arc closepath fill
	vpt 0 360 arc closepath} bind def
/C9 {BL [] 0 setdash 2 copy moveto
	2 copy vpt 270 450 arc closepath fill
	vpt 0 360 arc closepath} bind def
/C10 {BL [] 0 setdash 2 copy 2 copy moveto vpt 270 360 arc closepath fill
	2 copy moveto
	2 copy vpt 90 180 arc closepath fill
	vpt 0 360 arc closepath} bind def
/C11 {BL [] 0 setdash 2 copy moveto
	2 copy vpt 0 180 arc closepath fill
	2 copy moveto
	2 copy vpt 270 360 arc closepath fill
	vpt 0 360 arc closepath} bind def
/C12 {BL [] 0 setdash 2 copy moveto
	2 copy vpt 180 360 arc closepath fill
	vpt 0 360 arc closepath} bind def
/C13 {BL [] 0 setdash 2 copy moveto
	2 copy vpt 0 90 arc closepath fill
	2 copy moveto
	2 copy vpt 180 360 arc closepath fill
	vpt 0 360 arc closepath} bind def
/C14 {BL [] 0 setdash 2 copy moveto
	2 copy vpt 90 360 arc closepath fill
	vpt 0 360 arc} bind def
/C15 {BL [] 0 setdash 2 copy vpt 0 360 arc closepath fill
	vpt 0 360 arc closepath} bind def
/Rec {newpath 4 2 roll moveto 1 index 0 rlineto 0 exch rlineto
	neg 0 rlineto closepath} bind def
/Square {dup Rec} bind def
/Bsquare {vpt sub exch vpt sub exch vpt2 Square} bind def
/S0 {BL [] 0 setdash 2 copy moveto 0 vpt rlineto BL Bsquare} bind def
/S1 {BL [] 0 setdash 2 copy vpt Square fill Bsquare} bind def
/S2 {BL [] 0 setdash 2 copy exch vpt sub exch vpt Square fill Bsquare} bind def
/S3 {BL [] 0 setdash 2 copy exch vpt sub exch vpt2 vpt Rec fill Bsquare} bind def
/S4 {BL [] 0 setdash 2 copy exch vpt sub exch vpt sub vpt Square fill Bsquare} bind def
/S5 {BL [] 0 setdash 2 copy 2 copy vpt Square fill
	exch vpt sub exch vpt sub vpt Square fill Bsquare} bind def
/S6 {BL [] 0 setdash 2 copy exch vpt sub exch vpt sub vpt vpt2 Rec fill Bsquare} bind def
/S7 {BL [] 0 setdash 2 copy exch vpt sub exch vpt sub vpt vpt2 Rec fill
	2 copy vpt Square fill Bsquare} bind def
/S8 {BL [] 0 setdash 2 copy vpt sub vpt Square fill Bsquare} bind def
/S9 {BL [] 0 setdash 2 copy vpt sub vpt vpt2 Rec fill Bsquare} bind def
/S10 {BL [] 0 setdash 2 copy vpt sub vpt Square fill 2 copy exch vpt sub exch vpt Square fill
	Bsquare} bind def
/S11 {BL [] 0 setdash 2 copy vpt sub vpt Square fill 2 copy exch vpt sub exch vpt2 vpt Rec fill
	Bsquare} bind def
/S12 {BL [] 0 setdash 2 copy exch vpt sub exch vpt sub vpt2 vpt Rec fill Bsquare} bind def
/S13 {BL [] 0 setdash 2 copy exch vpt sub exch vpt sub vpt2 vpt Rec fill
	2 copy vpt Square fill Bsquare} bind def
/S14 {BL [] 0 setdash 2 copy exch vpt sub exch vpt sub vpt2 vpt Rec fill
	2 copy exch vpt sub exch vpt Square fill Bsquare} bind def
/S15 {BL [] 0 setdash 2 copy Bsquare fill Bsquare} bind def
/D0 {gsave translate 45 rotate 0 0 S0 stroke grestore} bind def
/D1 {gsave translate 45 rotate 0 0 S1 stroke grestore} bind def
/D2 {gsave translate 45 rotate 0 0 S2 stroke grestore} bind def
/D3 {gsave translate 45 rotate 0 0 S3 stroke grestore} bind def
/D4 {gsave translate 45 rotate 0 0 S4 stroke grestore} bind def
/D5 {gsave translate 45 rotate 0 0 S5 stroke grestore} bind def
/D6 {gsave translate 45 rotate 0 0 S6 stroke grestore} bind def
/D7 {gsave translate 45 rotate 0 0 S7 stroke grestore} bind def
/D8 {gsave translate 45 rotate 0 0 S8 stroke grestore} bind def
/D9 {gsave translate 45 rotate 0 0 S9 stroke grestore} bind def
/D10 {gsave translate 45 rotate 0 0 S10 stroke grestore} bind def
/D11 {gsave translate 45 rotate 0 0 S11 stroke grestore} bind def
/D12 {gsave translate 45 rotate 0 0 S12 stroke grestore} bind def
/D13 {gsave translate 45 rotate 0 0 S13 stroke grestore} bind def
/D14 {gsave translate 45 rotate 0 0 S14 stroke grestore} bind def
/D15 {gsave translate 45 rotate 0 0 S15 stroke grestore} bind def
/DiaE {stroke [] 0 setdash vpt add M
  hpt neg vpt neg V hpt vpt neg V
  hpt vpt V hpt neg vpt V closepath stroke} def
/BoxE {stroke [] 0 setdash exch hpt sub exch vpt add M
  0 vpt2 neg V hpt2 0 V 0 vpt2 V
  hpt2 neg 0 V closepath stroke} def
/TriUE {stroke [] 0 setdash vpt 1.12 mul add M
  hpt neg vpt -1.62 mul V
  hpt 2 mul 0 V
  hpt neg vpt 1.62 mul V closepath stroke} def
/TriDE {stroke [] 0 setdash vpt 1.12 mul sub M
  hpt neg vpt 1.62 mul V
  hpt 2 mul 0 V
  hpt neg vpt -1.62 mul V closepath stroke} def
/PentE {stroke [] 0 setdash gsave
  translate 0 hpt M 4 {72 rotate 0 hpt L} repeat
  closepath stroke grestore} def
/CircE {stroke [] 0 setdash 
  hpt 0 360 arc stroke} def
/Opaque {gsave closepath 1 setgray fill grestore 0 setgray closepath} def
/DiaW {stroke [] 0 setdash vpt add M
  hpt neg vpt neg V hpt vpt neg V
  hpt vpt V hpt neg vpt V Opaque stroke} def
/BoxW {stroke [] 0 setdash exch hpt sub exch vpt add M
  0 vpt2 neg V hpt2 0 V 0 vpt2 V
  hpt2 neg 0 V Opaque stroke} def
/TriUW {stroke [] 0 setdash vpt 1.12 mul add M
  hpt neg vpt -1.62 mul V
  hpt 2 mul 0 V
  hpt neg vpt 1.62 mul V Opaque stroke} def
/TriDW {stroke [] 0 setdash vpt 1.12 mul sub M
  hpt neg vpt 1.62 mul V
  hpt 2 mul 0 V
  hpt neg vpt -1.62 mul V Opaque stroke} def
/PentW {stroke [] 0 setdash gsave
  translate 0 hpt M 4 {72 rotate 0 hpt L} repeat
  Opaque stroke grestore} def
/CircW {stroke [] 0 setdash 
  hpt 0 360 arc Opaque stroke} def
/BoxFill {gsave Rec 1 setgray fill grestore} def
/Density {
  /Fillden exch def
  currentrgbcolor
  /ColB exch def /ColG exch def /ColR exch def
  /ColR ColR Fillden mul Fillden sub 1 add def
  /ColG ColG Fillden mul Fillden sub 1 add def
  /ColB ColB Fillden mul Fillden sub 1 add def
  ColR ColG ColB setrgbcolor} def
/BoxColFill {gsave Rec PolyFill} def
/PolyFill {gsave Density fill grestore grestore} def
/h {rlineto rlineto rlineto gsave closepath fill grestore} bind def
%
% PostScript Level 1 Pattern Fill routine for rectangles
% Usage: x y w h s a XX PatternFill
%	x,y = lower left corner of box to be filled
%	w,h = width and height of box
%	  a = angle in degrees between lines and x-axis
%	 XX = 0/1 for no/yes cross-hatch
%
/PatternFill {gsave /PFa [ 9 2 roll ] def
  PFa 0 get PFa 2 get 2 div add PFa 1 get PFa 3 get 2 div add translate
  PFa 2 get -2 div PFa 3 get -2 div PFa 2 get PFa 3 get Rec
  TransparentPatterns {} {gsave 1 setgray fill grestore} ifelse
  clip
  currentlinewidth 0.5 mul setlinewidth
  /PFs PFa 2 get dup mul PFa 3 get dup mul add sqrt def
  0 0 M PFa 5 get rotate PFs -2 div dup translate
  0 1 PFs PFa 4 get div 1 add floor cvi
	{PFa 4 get mul 0 M 0 PFs V} for
  0 PFa 6 get ne {
	0 1 PFs PFa 4 get div 1 add floor cvi
	{PFa 4 get mul 0 2 1 roll M PFs 0 V} for
 } if
  stroke grestore} def
%
/languagelevel where
 {pop languagelevel} {1} ifelse
 2 lt
	{/InterpretLevel1 true def}
	{/InterpretLevel1 Level1 def}
 ifelse
%
% PostScript level 2 pattern fill definitions
%
/Level2PatternFill {
/Tile8x8 {/PaintType 2 /PatternType 1 /TilingType 1 /BBox [0 0 8 8] /XStep 8 /YStep 8}
	bind def
/KeepColor {currentrgbcolor [/Pattern /DeviceRGB] setcolorspace} bind def
<< Tile8x8
 /PaintProc {0.5 setlinewidth pop 0 0 M 8 8 L 0 8 M 8 0 L stroke} 
>> matrix makepattern
/Pat1 exch def
<< Tile8x8
 /PaintProc {0.5 setlinewidth pop 0 0 M 8 8 L 0 8 M 8 0 L stroke
	0 4 M 4 8 L 8 4 L 4 0 L 0 4 L stroke}
>> matrix makepattern
/Pat2 exch def
<< Tile8x8
 /PaintProc {0.5 setlinewidth pop 0 0 M 0 8 L
	8 8 L 8 0 L 0 0 L fill}
>> matrix makepattern
/Pat3 exch def
<< Tile8x8
 /PaintProc {0.5 setlinewidth pop -4 8 M 8 -4 L
	0 12 M 12 0 L stroke}
>> matrix makepattern
/Pat4 exch def
<< Tile8x8
 /PaintProc {0.5 setlinewidth pop -4 0 M 8 12 L
	0 -4 M 12 8 L stroke}
>> matrix makepattern
/Pat5 exch def
<< Tile8x8
 /PaintProc {0.5 setlinewidth pop -2 8 M 4 -4 L
	0 12 M 8 -4 L 4 12 M 10 0 L stroke}
>> matrix makepattern
/Pat6 exch def
<< Tile8x8
 /PaintProc {0.5 setlinewidth pop -2 0 M 4 12 L
	0 -4 M 8 12 L 4 -4 M 10 8 L stroke}
>> matrix makepattern
/Pat7 exch def
<< Tile8x8
 /PaintProc {0.5 setlinewidth pop 8 -2 M -4 4 L
	12 0 M -4 8 L 12 4 M 0 10 L stroke}
>> matrix makepattern
/Pat8 exch def
<< Tile8x8
 /PaintProc {0.5 setlinewidth pop 0 -2 M 12 4 L
	-4 0 M 12 8 L -4 4 M 8 10 L stroke}
>> matrix makepattern
/Pat9 exch def
/Pattern1 {PatternBgnd KeepColor Pat1 setpattern} bind def
/Pattern2 {PatternBgnd KeepColor Pat2 setpattern} bind def
/Pattern3 {PatternBgnd KeepColor Pat3 setpattern} bind def
/Pattern4 {PatternBgnd KeepColor Landscape {Pat5} {Pat4} ifelse setpattern} bind def
/Pattern5 {PatternBgnd KeepColor Landscape {Pat4} {Pat5} ifelse setpattern} bind def
/Pattern6 {PatternBgnd KeepColor Landscape {Pat9} {Pat6} ifelse setpattern} bind def
/Pattern7 {PatternBgnd KeepColor Landscape {Pat8} {Pat7} ifelse setpattern} bind def
} def
%
%
%End of PostScript Level 2 code
%
/PatternBgnd {
  TransparentPatterns {} {gsave 1 setgray fill grestore} ifelse
} def
%
% Substitute for Level 2 pattern fill codes with
% grayscale if Level 2 support is not selected.
%
/Level1PatternFill {
/Pattern1 {0.250 Density} bind def
/Pattern2 {0.500 Density} bind def
/Pattern3 {0.750 Density} bind def
/Pattern4 {0.125 Density} bind def
/Pattern5 {0.375 Density} bind def
/Pattern6 {0.625 Density} bind def
/Pattern7 {0.875 Density} bind def
} def
%
% Now test for support of Level 2 code
%
Level1 {Level1PatternFill} {Level2PatternFill} ifelse
%
/Symbol-Oblique /Symbol findfont [1 0 .167 1 0 0] makefont
dup length dict begin {1 index /FID eq {pop pop} {def} ifelse} forall
currentdict end definefont pop
/MFshow {
   { dup 5 get 3 ge
     { 5 get 3 eq {gsave} {grestore} ifelse }
     {dup dup 0 get findfont exch 1 get scalefont setfont
     [ currentpoint ] exch dup 2 get 0 exch R dup 5 get 2 ne {dup dup 6
     get exch 4 get {Gshow} {stringwidth pop 0 R} ifelse }if dup 5 get 0 eq
     {dup 3 get {2 get neg 0 exch R pop} {pop aload pop M} ifelse} {dup 5
     get 1 eq {dup 2 get exch dup 3 get exch 6 get stringwidth pop -2 div
     dup 0 R} {dup 6 get stringwidth pop -2 div 0 R 6 get
     show 2 index {aload pop M neg 3 -1 roll neg R pop pop} {pop pop pop
     pop aload pop M} ifelse }ifelse }ifelse }
     ifelse }
   forall} def
/Gswidth {dup type /stringtype eq {stringwidth} {pop (n) stringwidth} ifelse} def
/MFwidth {0 exch { dup 5 get 3 ge { 5 get 3 eq { 0 } { pop } ifelse }
 {dup 3 get{dup dup 0 get findfont exch 1 get scalefont setfont
     6 get Gswidth pop add} {pop} ifelse} ifelse} forall} def
/MLshow { currentpoint stroke M
  0 exch R
  Blacktext {gsave 0 setgray MFshow grestore} {MFshow} ifelse } bind def
/MRshow { currentpoint stroke M
  exch dup MFwidth neg 3 -1 roll R
  Blacktext {gsave 0 setgray MFshow grestore} {MFshow} ifelse } bind def
/MCshow { currentpoint stroke M
  exch dup MFwidth -2 div 3 -1 roll R
  Blacktext {gsave 0 setgray MFshow grestore} {MFshow} ifelse } bind def
/XYsave    { [( ) 1 2 true false 3 ()] } bind def
/XYrestore { [( ) 1 2 true false 4 ()] } bind def
Level1 SuppressPDFMark or 
{} {
/SDict 10 dict def
systemdict /pdfmark known not {
  userdict /pdfmark systemdict /cleartomark get put
} if
SDict begin [
  /Title (optic_10bx1by.eps)
  /Subject (gnuplot plot)
  /Creator (gnuplot 4.6 patchlevel 4)
  /Author (rj-yang)
%  /Producer (gnuplot)
%  /Keywords ()
  /CreationDate (Tue Jun 13 15:18:34 2017)
  /DOCINFO pdfmark
end
} ifelse
end
%%EndProlog
%%Page: 1 1
gnudict begin
gsave
doclip
50 50 translate
0.050 0.050 scale
0 setgray
newpath
(Helvetica) findfont 240 scalefont setfont
BackgroundColor 0 lt 3 1 roll 0 lt exch 0 lt or or not {BackgroundColor C 1.000 0 0 7200.00 5040.00 BoxColFill} if
1.000 UL
LTb
LCb setrgbcolor
1032 768 M
63 0 V
5672 0 R
-63 0 V
stroke
888 768 M
[ [(Helvetica) 240.0 0.0 true true 0 ( 0)]
] -80.0 MRshow
1.000 UL
LTb
LCb setrgbcolor
1032 1211 M
63 0 V
5672 0 R
-63 0 V
stroke
888 1211 M
[ [(Helvetica) 240.0 0.0 true true 0 ( 5)]
] -80.0 MRshow
1.000 UL
LTb
LCb setrgbcolor
1032 1653 M
63 0 V
5672 0 R
-63 0 V
stroke
888 1653 M
[ [(Helvetica) 240.0 0.0 true true 0 ( 10)]
] -80.0 MRshow
1.000 UL
LTb
LCb setrgbcolor
1032 2096 M
63 0 V
5672 0 R
-63 0 V
stroke
888 2096 M
[ [(Helvetica) 240.0 0.0 true true 0 ( 15)]
] -80.0 MRshow
1.000 UL
LTb
LCb setrgbcolor
1032 2538 M
63 0 V
5672 0 R
-63 0 V
stroke
888 2538 M
[ [(Helvetica) 240.0 0.0 true true 0 ( 20)]
] -80.0 MRshow
1.000 UL
LTb
LCb setrgbcolor
1032 2981 M
63 0 V
5672 0 R
-63 0 V
stroke
888 2981 M
[ [(Helvetica) 240.0 0.0 true true 0 ( 25)]
] -80.0 MRshow
1.000 UL
LTb
LCb setrgbcolor
1032 3423 M
63 0 V
5672 0 R
-63 0 V
stroke
888 3423 M
[ [(Helvetica) 240.0 0.0 true true 0 ( 30)]
] -80.0 MRshow
1.000 UL
LTb
LCb setrgbcolor
1032 3866 M
63 0 V
5672 0 R
-63 0 V
stroke
888 3866 M
[ [(Helvetica) 240.0 0.0 true true 0 ( 35)]
] -80.0 MRshow
1.000 UL
LTb
LCb setrgbcolor
1032 4308 M
63 0 V
5672 0 R
-63 0 V
stroke
888 4308 M
[ [(Helvetica) 240.0 0.0 true true 0 ( 40)]
] -80.0 MRshow
1.000 UL
LTb
LCb setrgbcolor
1032 4751 M
63 0 V
5672 0 R
-63 0 V
stroke
888 4751 M
[ [(Helvetica) 240.0 0.0 true true 0 ( 45)]
] -80.0 MRshow
1.000 UL
LTb
LCb setrgbcolor
1032 768 M
0 63 V
0 3920 R
0 -63 V
stroke
1032 528 M
[ [(Helvetica) 240.0 0.0 true true 0 ( 0)]
] -80.0 MCshow
1.000 UL
LTb
LCb setrgbcolor
1669 768 M
0 63 V
0 3920 R
0 -63 V
stroke
1669 528 M
[ [(Helvetica) 240.0 0.0 true true 0 ( 10)]
] -80.0 MCshow
1.000 UL
LTb
LCb setrgbcolor
2306 768 M
0 63 V
0 3920 R
0 -63 V
stroke
2306 528 M
[ [(Helvetica) 240.0 0.0 true true 0 ( 20)]
] -80.0 MCshow
1.000 UL
LTb
LCb setrgbcolor
2944 768 M
0 63 V
0 3920 R
0 -63 V
stroke
2944 528 M
[ [(Helvetica) 240.0 0.0 true true 0 ( 30)]
] -80.0 MCshow
1.000 UL
LTb
LCb setrgbcolor
3581 768 M
0 63 V
0 3920 R
0 -63 V
stroke
3581 528 M
[ [(Helvetica) 240.0 0.0 true true 0 ( 40)]
] -80.0 MCshow
1.000 UL
LTb
LCb setrgbcolor
4218 768 M
0 63 V
0 3920 R
0 -63 V
stroke
4218 528 M
[ [(Helvetica) 240.0 0.0 true true 0 ( 50)]
] -80.0 MCshow
1.000 UL
LTb
LCb setrgbcolor
4855 768 M
0 63 V
0 3920 R
0 -63 V
stroke
4855 528 M
[ [(Helvetica) 240.0 0.0 true true 0 ( 60)]
] -80.0 MCshow
1.000 UL
LTb
LCb setrgbcolor
5493 768 M
0 63 V
0 3920 R
0 -63 V
stroke
5493 528 M
[ [(Helvetica) 240.0 0.0 true true 0 ( 70)]
] -80.0 MCshow
1.000 UL
LTb
LCb setrgbcolor
6130 768 M
0 63 V
0 3920 R
0 -63 V
stroke
6130 528 M
[ [(Helvetica) 240.0 0.0 true true 0 ( 80)]
] -80.0 MCshow
1.000 UL
LTb
LCb setrgbcolor
6767 768 M
0 63 V
0 3920 R
0 -63 V
stroke
6767 528 M
[ [(Helvetica) 240.0 0.0 true true 0 ( 90)]
] -80.0 MCshow
1.000 UL
LTb
LCb setrgbcolor
1.000 UL
LTb
LCb setrgbcolor
1032 4751 N
0 -3983 V
5735 0 V
0 3983 V
-5735 0 V
Z stroke
LCb setrgbcolor
192 2759 M
currentpoint gsave translate -270 rotate 0 0 moveto
[ [(Symbol) 240.0 0.0 true true 0 (b)]
[(Helvetica) 192.0 120.0 true true 0 (1/2)]
[(Helvetica) 240.0 0.0 true true 0 ( [m])]
] -104.0 MCshow
grestore
LTb
LCb setrgbcolor
3899 168 M
[ [(Italic) 240.0 0.0 true true 0 (s)]
[(Helvetica) 240.0 0.0 true true 0 ( [m])]
] -80.0 MCshow
LTb
1.000 UP
1.000 UL
LTb
LCb setrgbcolor
% Begin plot #1
1.500 UP
3.000 UL
LT0
0.00 0.00 0.00 C LCb setrgbcolor
1752 4508 M
[ [(Symbol) 240.0 0.0 true true 0 (b)]
[(Italic) 192.0 -72.0 true true 0 (x)]
[(Helvetica) 192.0 120.0 true true 0 (1/2)]
] -80.0 MRshow
LT0
0.00 0.00 0.00 C 1896 4508 M
639 0 V
1032 991 M
16 -7 V
16 -5 V
59 -12 V
6 3 V
6 10 V
3 7 V
16 35 V
45 101 V
11 24 V
3 7 V
9 20 V
12 28 V
3 4 V
2 0 V
10 -5 V
19 -10 V
19 -10 V
13 -7 V
25 -14 V
26 -14 V
6 -4 V
6 -4 V
32 -20 V
32 -25 V
31 -25 V
8 -7 V
2 -2 V
2 -2 V
3 -2 V
5 -4 V
6 -13 V
7 -27 V
1 -5 V
13 -74 V
18 -92 V
25 2 V
26 136 V
13 73 V
8 43 V
10 55 V
7 43 V
6 63 V
1 11 V
48 565 V
7 56 V
6 19 V
2 0 V
8 0 V
8 0 V
9 0 V
8 0 V
96 -2 V
131 -1 V
6 -19 V
6 -57 V
2 -20 V
9 -102 V
7 -86 V
30 -354 V
2 -20 V
6 -65 V
6 -45 V
10 -59 V
8 -47 V
14 -80 V
26 -144 V
25 83 V
14 80 V
8 47 V
9 53 V
1 6 V
6 28 V
7 10 V
2 0 V
3 0 V
21 0 V
38 1 V
43 -3 V
43 -12 V
48 -19 V
3 -2 V
2 -4 V
2 -4 V
53 -117 V
39 -80 V
21 -35 V
7 -9 V
10 -6 V
7 3 V
6 7 V
1 1 V
9 15 V
8 17 V
29 63 V
15 35 V
16 38 V
16 38 V
3 9 V
7 15 V
6 15 V
11 26 V
3 8 V
stroke 2616 1112 M
7 9 V
6 -5 V
10 -18 V
7 -13 V
55 -97 V
31 -52 V
21 -35 V
8 -12 V
6 -8 V
8 -12 V
2 -3 V
3 -3 V
6 -8 V
6 -5 V
7 2 V
1 1 V
61 72 V
8 12 V
9 14 V
7 4 V
6 -4 V
1 -2 V
26 -37 V
20 -26 V
8 -9 V
6 -7 V
7 -8 V
3 -2 V
2 -3 V
7 -5 V
6 -1 V
7 3 V
1 1 V
34 43 V
7 11 V
11 16 V
6 4 V
6 -6 V
4 -7 V
50 -77 V
6 -4 V
6 2 V
4 2 V
17 21 V
15 21 V
7 12 V
11 17 V
6 6 V
6 -3 V
4 -5 V
20 -26 V
8 -9 V
10 -11 V
3 -2 V
2 -3 V
7 -5 V
6 -1 V
6 3 V
1 1 V
61 83 V
8 13 V
10 16 V
6 5 V
7 -6 V
1 -2 V
13 -21 V
54 -77 V
2 -3 V
3 -3 V
42 -20 V
8 4 V
16 14 V
6 9 V
6 12 V
2 3 V
17 42 V
26 65 V
17 43 V
8 20 V
10 25 V
6 11 V
6 0 V
2 -1 V
17 -12 V
24 -17 V
20 -14 V
31 -20 V
8 -6 V
40 -25 V
2 -1 V
1 -1 V
49 -27 V
29 -15 V
18 -7 V
2 -1 V
2 0 V
3 0 V
29 16 V
32 19 V
58 39 V
29 20 V
8 6 V
59 45 V
27 20 V
stroke 4073 1106 M
2 1 V
3 -1 V
1 -1 V
18 -14 V
32 -24 V
22 -17 V
34 -25 V
116 -75 V
18 -9 V
1 -1 V
6 -3 V
7 -3 V
48 -17 V
8 -2 V
9 -2 V
8 -1 V
10 -1 V
6 -2 V
6 -3 V
2 0 V
81 -22 V
7 5 V
6 13 V
1 3 V
37 104 V
14 41 V
31 87 V
6 10 V
6 -9 V
2 -4 V
81 -223 V
7 -16 V
6 -14 V
1 -2 V
46 -56 V
42 62 V
7 13 V
6 13 V
1 2 V
55 117 V
14 33 V
13 28 V
6 16 V
7 22 V
1 4 V
30 115 V
13 49 V
7 28 V
6 36 V
1 8 V
19 116 V
50 320 V
6 30 V
7 10 V
1 0 V
25 0 V
3 0 V
3 0 V
7 0 V
19 0 V
7 -10 V
6 -30 V
1 -8 V
17 -107 V
8 -46 V
7 -46 V
69 -437 V
6 -35 V
7 -23 V
1 -4 V
5347 813 L
7 -3 V
6 3 V
1 1 V
27 61 V
20 54 V
19 55 V
41 118 V
7 24 V
6 34 V
1 8 V
68 428 V
7 46 V
8 47 V
18 114 V
6 30 V
7 11 V
1 0 V
26 1 V
2 0 V
2 0 V
8 0 V
19 1 V
7 -10 V
6 -30 V
1 -7 V
14 -89 V
55 -342 V
7 -35 V
6 -27 V
1 -4 V
25 -90 V
3 -12 V
3 -11 V
7 -23 V
20 -71 V
6 -21 V
6 -15 V
1 -3 V
17 -37 V
8 -15 V
7 -16 V
66 -131 V
19 -27 V
20 -4 V
28 39 V
6 10 V
7 8 V
1 1 V
27 31 V
20 25 V
19 26 V
15 21 V
13 17 V
7 10 V
6 13 V
1 3 V
23 49 V
9 19 V
9 20 V
54 119 V
6 17 V
6 25 V
2 5 V
243 1076 V
25 114 V
8 33 V
7 32 V
10 46 V
6 28 V
4 14 V
3 14 V
19 85 V
14 -15 V
14 -169 V
8 -133 V
19 -324 V
6 -108 V
4 -55 V
3 -54 V
18 -314 V
15 -212 V
15 -137 V
7 -47 V
29 -200 V
18 -121 V
5 -33 V
4 -18 V
27 170 V
13 89 V
5 34 V
1032 991 Pnt
1048 984 Pnt
1064 979 Pnt
1123 967 Pnt
1129 970 Pnt
1135 980 Pnt
1138 987 Pnt
1154 1022 Pnt
1199 1123 Pnt
1210 1147 Pnt
1213 1154 Pnt
1222 1174 Pnt
1234 1202 Pnt
1237 1206 Pnt
1239 1206 Pnt
1249 1201 Pnt
1268 1191 Pnt
1287 1181 Pnt
1300 1174 Pnt
1325 1160 Pnt
1351 1146 Pnt
1357 1142 Pnt
1363 1138 Pnt
1395 1118 Pnt
1427 1093 Pnt
1458 1068 Pnt
1466 1061 Pnt
1468 1059 Pnt
1470 1057 Pnt
1473 1055 Pnt
1478 1051 Pnt
1484 1038 Pnt
1491 1011 Pnt
1492 1006 Pnt
1505 932 Pnt
1523 840 Pnt
1548 842 Pnt
1574 978 Pnt
1587 1051 Pnt
1595 1094 Pnt
1605 1149 Pnt
1612 1192 Pnt
1618 1255 Pnt
1619 1266 Pnt
1667 1831 Pnt
1674 1887 Pnt
1680 1906 Pnt
1682 1906 Pnt
1690 1906 Pnt
1698 1906 Pnt
1707 1906 Pnt
1715 1906 Pnt
1811 1904 Pnt
1942 1903 Pnt
1948 1884 Pnt
1954 1827 Pnt
1956 1807 Pnt
1965 1705 Pnt
1972 1619 Pnt
2002 1265 Pnt
2004 1245 Pnt
2010 1180 Pnt
2016 1135 Pnt
2026 1076 Pnt
2034 1029 Pnt
2048 949 Pnt
2074 805 Pnt
2099 888 Pnt
2113 968 Pnt
2121 1015 Pnt
2130 1068 Pnt
2131 1074 Pnt
2137 1102 Pnt
2144 1112 Pnt
2144 1112 Pnt
2146 1112 Pnt
2149 1112 Pnt
2170 1112 Pnt
2208 1113 Pnt
2251 1110 Pnt
2294 1098 Pnt
2342 1079 Pnt
2345 1077 Pnt
2347 1073 Pnt
2349 1069 Pnt
2402 952 Pnt
2441 872 Pnt
2462 837 Pnt
2469 828 Pnt
2479 822 Pnt
2486 825 Pnt
2492 832 Pnt
2493 833 Pnt
2502 848 Pnt
2510 865 Pnt
2539 928 Pnt
2554 963 Pnt
2570 1001 Pnt
2586 1039 Pnt
2589 1048 Pnt
2596 1063 Pnt
2602 1078 Pnt
2613 1104 Pnt
2616 1112 Pnt
2623 1121 Pnt
2629 1116 Pnt
2639 1098 Pnt
2646 1085 Pnt
2701 988 Pnt
2732 936 Pnt
2753 901 Pnt
2761 889 Pnt
2767 881 Pnt
2775 869 Pnt
2777 866 Pnt
2780 863 Pnt
2786 855 Pnt
2792 850 Pnt
2799 852 Pnt
2800 853 Pnt
2861 925 Pnt
2869 937 Pnt
2878 951 Pnt
2885 955 Pnt
2891 951 Pnt
2892 949 Pnt
2918 912 Pnt
2938 886 Pnt
2946 877 Pnt
2952 870 Pnt
2959 862 Pnt
2962 860 Pnt
2964 857 Pnt
2971 852 Pnt
2977 851 Pnt
2984 854 Pnt
2985 855 Pnt
3019 898 Pnt
3026 909 Pnt
3037 925 Pnt
3043 929 Pnt
3049 923 Pnt
3053 916 Pnt
3103 839 Pnt
3109 835 Pnt
3115 837 Pnt
3119 839 Pnt
3136 860 Pnt
3151 881 Pnt
3158 893 Pnt
3169 910 Pnt
3175 916 Pnt
3181 913 Pnt
3185 908 Pnt
3205 882 Pnt
3213 873 Pnt
3223 862 Pnt
3226 860 Pnt
3228 857 Pnt
3235 852 Pnt
3241 851 Pnt
3247 854 Pnt
3248 855 Pnt
3309 938 Pnt
3317 951 Pnt
3327 967 Pnt
3333 972 Pnt
3340 966 Pnt
3341 964 Pnt
3354 943 Pnt
3408 866 Pnt
3410 863 Pnt
3413 860 Pnt
3455 840 Pnt
3463 844 Pnt
3479 858 Pnt
3485 867 Pnt
3491 879 Pnt
3493 882 Pnt
3510 924 Pnt
3536 989 Pnt
3553 1032 Pnt
3561 1052 Pnt
3571 1077 Pnt
3577 1088 Pnt
3583 1088 Pnt
3585 1087 Pnt
3602 1075 Pnt
3626 1058 Pnt
3646 1044 Pnt
3677 1024 Pnt
3685 1018 Pnt
3725 993 Pnt
3727 992 Pnt
3728 991 Pnt
3777 964 Pnt
3806 949 Pnt
3824 942 Pnt
3826 941 Pnt
3828 941 Pnt
3831 941 Pnt
3860 957 Pnt
3892 976 Pnt
3950 1015 Pnt
3979 1035 Pnt
3987 1041 Pnt
4046 1086 Pnt
4073 1106 Pnt
4075 1107 Pnt
4078 1106 Pnt
4079 1105 Pnt
4097 1091 Pnt
4129 1067 Pnt
4151 1050 Pnt
4185 1025 Pnt
4301 950 Pnt
4319 941 Pnt
4320 940 Pnt
4326 937 Pnt
4333 934 Pnt
4381 917 Pnt
4389 915 Pnt
4398 913 Pnt
4406 912 Pnt
4416 911 Pnt
4422 909 Pnt
4428 906 Pnt
4430 906 Pnt
4511 884 Pnt
4518 889 Pnt
4524 902 Pnt
4525 905 Pnt
4562 1009 Pnt
4576 1050 Pnt
4607 1137 Pnt
4613 1147 Pnt
4619 1138 Pnt
4621 1134 Pnt
4702 911 Pnt
4709 895 Pnt
4715 881 Pnt
4716 879 Pnt
4762 823 Pnt
4804 885 Pnt
4811 898 Pnt
4817 911 Pnt
4818 913 Pnt
4873 1030 Pnt
4887 1063 Pnt
4900 1091 Pnt
4906 1107 Pnt
4913 1129 Pnt
4914 1133 Pnt
4944 1248 Pnt
4957 1297 Pnt
4964 1325 Pnt
4970 1361 Pnt
4971 1369 Pnt
4990 1485 Pnt
5040 1805 Pnt
5046 1835 Pnt
5053 1845 Pnt
5054 1845 Pnt
5079 1845 Pnt
5082 1845 Pnt
5085 1845 Pnt
5092 1845 Pnt
5111 1845 Pnt
5118 1835 Pnt
5124 1805 Pnt
5125 1797 Pnt
5142 1690 Pnt
5150 1644 Pnt
5157 1598 Pnt
5226 1161 Pnt
5232 1126 Pnt
5239 1103 Pnt
5240 1099 Pnt
5347 813 Pnt
5354 810 Pnt
5360 813 Pnt
5361 814 Pnt
5388 875 Pnt
5408 929 Pnt
5427 984 Pnt
5468 1102 Pnt
5475 1126 Pnt
5481 1160 Pnt
5482 1168 Pnt
5550 1596 Pnt
5557 1642 Pnt
5565 1689 Pnt
5583 1803 Pnt
5589 1833 Pnt
5596 1844 Pnt
5597 1844 Pnt
5623 1845 Pnt
5625 1845 Pnt
5627 1845 Pnt
5635 1845 Pnt
5654 1846 Pnt
5661 1836 Pnt
5667 1806 Pnt
5668 1799 Pnt
5682 1710 Pnt
5737 1368 Pnt
5744 1333 Pnt
5750 1306 Pnt
5751 1302 Pnt
5776 1212 Pnt
5779 1200 Pnt
5782 1189 Pnt
5789 1166 Pnt
5809 1095 Pnt
5815 1074 Pnt
5821 1059 Pnt
5822 1056 Pnt
5839 1019 Pnt
5847 1004 Pnt
5854 988 Pnt
5920 857 Pnt
5939 830 Pnt
5959 826 Pnt
5987 865 Pnt
5993 875 Pnt
6000 883 Pnt
6001 884 Pnt
6028 915 Pnt
6048 940 Pnt
6067 966 Pnt
6082 987 Pnt
6095 1004 Pnt
6102 1014 Pnt
6108 1027 Pnt
6109 1030 Pnt
6132 1079 Pnt
6141 1098 Pnt
6150 1118 Pnt
6204 1237 Pnt
6210 1254 Pnt
6216 1279 Pnt
6218 1284 Pnt
6461 2360 Pnt
6486 2474 Pnt
6494 2507 Pnt
6501 2539 Pnt
6511 2585 Pnt
6517 2613 Pnt
6521 2627 Pnt
6524 2641 Pnt
6543 2726 Pnt
6557 2711 Pnt
6571 2542 Pnt
6579 2409 Pnt
6598 2085 Pnt
6604 1977 Pnt
6608 1922 Pnt
6611 1868 Pnt
6629 1554 Pnt
6644 1342 Pnt
6659 1205 Pnt
6666 1158 Pnt
6695 958 Pnt
6713 837 Pnt
6718 804 Pnt
6722 786 Pnt
6749 956 Pnt
6762 1045 Pnt
2215 4508 Pnt
% End plot #1
% Begin plot #2
1.500 UP
3.000 UL
LT1
0.00 1.00 1.00 C LCb setrgbcolor
1752 4148 M
[ [(Symbol) 240.0 0.0 true true 0 (b)]
[(Italic) 192.0 -72.0 true true 0 (y)]
[(Helvetica) 192.0 120.0 true true 0 (1/2)]
] -80.0 MRshow
LT1
0.00 1.00 1.00 C 1896 4148 M
639 0 V
1032 927 M
16 23 V
16 22 V
59 81 V
6 3 V
6 -6 V
3 -6 V
16 -30 V
45 -81 V
11 -19 V
3 -5 V
9 -15 V
12 -19 V
3 -4 V
2 -2 V
10 -7 V
19 -9 V
19 0 V
13 6 V
25 19 V
26 27 V
6 7 V
6 8 V
32 40 V
32 43 V
31 42 V
8 12 V
2 3 V
2 3 V
3 4 V
5 7 V
6 17 V
7 35 V
1 7 V
13 96 V
18 122 V
25 179 V
26 180 V
13 96 V
8 58 V
10 71 V
7 17 V
6 -38 V
1 -9 V
48 -498 V
7 -55 V
6 -35 V
2 -7 V
8 -36 V
8 -30 V
9 -37 V
8 -33 V
96 -375 V
131 498 V
6 36 V
6 54 V
2 17 V
9 87 V
7 74 V
30 305 V
2 17 V
6 38 V
6 -14 V
10 -65 V
8 -52 V
14 -88 V
26 -164 V
25 -164 V
14 -88 V
8 -52 V
9 -58 V
1 -6 V
6 -30 V
7 -9 V
2 1 V
3 1 V
21 6 V
38 11 V
43 13 V
43 13 V
48 16 V
3 3 V
2 6 V
2 5 V
53 155 V
39 114 V
21 61 V
7 21 V
10 31 V
7 6 V
6 -18 V
1 -4 V
9 -42 V
8 -38 V
29 -135 V
15 -71 V
16 -75 V
16 -75 V
3 -18 V
7 -30 V
6 -30 V
11 -49 V
3 -17 V
stroke 2616 996 M
7 -25 V
6 -18 V
10 -22 V
7 -16 V
55 -93 V
31 26 V
21 41 V
8 18 V
6 11 V
8 18 V
2 5 V
3 6 V
6 14 V
6 9 V
7 -4 V
1 -1 V
61 -80 V
8 -8 V
9 -10 V
7 -3 V
6 3 V
1 1 V
26 26 V
20 24 V
8 11 V
6 7 V
7 11 V
3 3 V
2 3 V
7 9 V
6 4 V
7 -6 V
1 -3 V
34 -57 V
7 -12 V
11 -16 V
6 -5 V
6 2 V
4 3 V
50 58 V
6 4 V
6 -4 V
4 -5 V
17 -21 V
15 -16 V
7 -8 V
11 -10 V
6 -1 V
6 5 V
4 6 V
20 32 V
8 14 V
10 18 V
3 4 V
2 5 V
7 11 V
6 6 V
6 -4 V
1 -1 V
61 -80 V
8 -8 V
10 -10 V
6 -3 V
7 3 V
1 1 V
13 13 V
54 66 V
2 3 V
3 3 V
42 59 V
8 11 V
16 23 V
6 5 V
6 -6 V
2 -2 V
17 -27 V
26 -40 V
17 -26 V
8 -12 V
10 -14 V
6 -6 V
6 -1 V
2 0 V
17 4 V
24 7 V
20 8 V
31 14 V
8 4 V
40 23 V
2 1 V
1 1 V
49 31 V
29 21 V
18 13 V
2 1 V
2 1 V
3 -1 V
29 -20 V
32 -20 V
58 -34 V
29 -15 V
8 -3 V
59 -23 V
27 -6 V
stroke 4073 924 M
2 0 V
3 1 V
1 0 V
18 11 V
32 21 V
22 17 V
34 26 V
116 99 V
18 16 V
1 1 V
6 6 V
7 6 V
48 44 V
8 7 V
9 7 V
8 8 V
10 9 V
6 9 V
6 14 V
2 3 V
81 223 V
7 -5 V
6 -50 V
1 -14 V
37 -413 V
14 -159 V
31 256 V
6 79 V
6 96 V
2 22 V
81 1382 V
7 94 V
6 66 V
1 10 V
46 370 V
42 345 V
7 52 V
6 54 V
1 10 V
55 468 V
14 127 V
13 109 V
6 29 V
7 -23 V
1 -10 V
30 -237 V
13 -101 V
7 -72 V
6 -118 V
1 -28 V
19 -408 V
50 -1120 V
6 -127 V
7 -101 V
1 -17 V
25 -349 V
3 -45 V
3 -45 V
7 -89 V
19 -277 V
7 -85 V
6 -78 V
1 -15 V
17 -200 V
8 -43 V
7 85 V
69 820 V
6 61 V
7 31 V
1 3 V
107 271 V
7 34 V
6 70 V
1 18 V
27 380 V
20 273 V
19 273 V
41 572 V
7 44 V
6 -44 V
1 -18 V
68 -944 V
7 -102 V
8 -102 V
18 -254 V
6 -74 V
7 -48 V
1 -6 V
26 -143 V
2 -12 V
2 -12 V
8 -40 V
19 -109 V
7 -25 V
6 -6 V
1 1 V
14 8 V
55 31 V
7 -4 V
6 -20 V
1 -5 V
25 -108 V
3 -14 V
3 -14 V
stroke 5782 1663 M
7 -27 V
20 -86 V
6 -33 V
6 -44 V
1 -10 V
17 -132 V
8 -57 V
7 -58 V
66 -382 V
19 151 V
20 152 V
28 221 V
6 58 V
7 75 V
1 17 V
27 364 V
20 262 V
19 262 V
15 204 V
13 174 V
7 74 V
6 54 V
1 9 V
23 155 V
9 60 V
9 64 V
54 370 V
6 23 V
6 -17 V
2 -7 V
6461 2127 L
25 -152 V
8 -43 V
7 -43 V
10 -61 V
6 -37 V
4 -19 V
3 -18 V
19 -114 V
14 -50 V
14 17 V
8 27 V
19 65 V
6 22 V
4 11 V
3 11 V
18 64 V
15 -16 V
15 -149 V
7 -94 V
29 -402 V
18 -244 V
5 -71 V
4 -54 V
27 365 V
13 179 V
5 68 V
1032 927 Pnt
1048 950 Pnt
1064 972 Pnt
1123 1053 Pnt
1129 1056 Pnt
1135 1050 Pnt
1138 1044 Pnt
1154 1014 Pnt
1199 933 Pnt
1210 914 Pnt
1213 909 Pnt
1222 894 Pnt
1234 875 Pnt
1237 871 Pnt
1239 869 Pnt
1249 862 Pnt
1268 853 Pnt
1287 853 Pnt
1300 859 Pnt
1325 878 Pnt
1351 905 Pnt
1357 912 Pnt
1363 920 Pnt
1395 960 Pnt
1427 1003 Pnt
1458 1045 Pnt
1466 1057 Pnt
1468 1060 Pnt
1470 1063 Pnt
1473 1067 Pnt
1478 1074 Pnt
1484 1091 Pnt
1491 1126 Pnt
1492 1133 Pnt
1505 1229 Pnt
1523 1351 Pnt
1548 1530 Pnt
1574 1710 Pnt
1587 1806 Pnt
1595 1864 Pnt
1605 1935 Pnt
1612 1952 Pnt
1618 1914 Pnt
1619 1905 Pnt
1667 1407 Pnt
1674 1352 Pnt
1680 1317 Pnt
1682 1310 Pnt
1690 1274 Pnt
1698 1244 Pnt
1707 1207 Pnt
1715 1174 Pnt
1811 799 Pnt
1942 1297 Pnt
1948 1333 Pnt
1954 1387 Pnt
1956 1404 Pnt
1965 1491 Pnt
1972 1565 Pnt
2002 1870 Pnt
2004 1887 Pnt
2010 1925 Pnt
2016 1911 Pnt
2026 1846 Pnt
2034 1794 Pnt
2048 1706 Pnt
2074 1542 Pnt
2099 1378 Pnt
2113 1290 Pnt
2121 1238 Pnt
2130 1180 Pnt
2131 1174 Pnt
2137 1144 Pnt
2144 1135 Pnt
2144 1135 Pnt
2146 1136 Pnt
2149 1137 Pnt
2170 1143 Pnt
2208 1154 Pnt
2251 1167 Pnt
2294 1180 Pnt
2342 1196 Pnt
2345 1199 Pnt
2347 1205 Pnt
2349 1210 Pnt
2402 1365 Pnt
2441 1479 Pnt
2462 1540 Pnt
2469 1561 Pnt
2479 1592 Pnt
2486 1598 Pnt
2492 1580 Pnt
2493 1576 Pnt
2502 1534 Pnt
2510 1496 Pnt
2539 1361 Pnt
2554 1290 Pnt
2570 1215 Pnt
2586 1140 Pnt
2589 1122 Pnt
2596 1092 Pnt
2602 1062 Pnt
2613 1013 Pnt
2616 996 Pnt
2623 971 Pnt
2629 953 Pnt
2639 931 Pnt
2646 915 Pnt
2701 822 Pnt
2732 848 Pnt
2753 889 Pnt
2761 907 Pnt
2767 918 Pnt
2775 936 Pnt
2777 941 Pnt
2780 947 Pnt
2786 961 Pnt
2792 970 Pnt
2799 966 Pnt
2800 965 Pnt
2861 885 Pnt
2869 877 Pnt
2878 867 Pnt
2885 864 Pnt
2891 867 Pnt
2892 868 Pnt
2918 894 Pnt
2938 918 Pnt
2946 929 Pnt
2952 936 Pnt
2959 947 Pnt
2962 950 Pnt
2964 953 Pnt
2971 962 Pnt
2977 966 Pnt
2984 960 Pnt
2985 957 Pnt
3019 900 Pnt
3026 888 Pnt
3037 872 Pnt
3043 867 Pnt
3049 869 Pnt
3053 872 Pnt
3103 930 Pnt
3109 934 Pnt
3115 930 Pnt
3119 925 Pnt
3136 904 Pnt
3151 888 Pnt
3158 880 Pnt
3169 870 Pnt
3175 869 Pnt
3181 874 Pnt
3185 880 Pnt
3205 912 Pnt
3213 926 Pnt
3223 944 Pnt
3226 948 Pnt
3228 953 Pnt
3235 964 Pnt
3241 970 Pnt
3247 966 Pnt
3248 965 Pnt
3309 885 Pnt
3317 877 Pnt
3327 867 Pnt
3333 864 Pnt
3340 867 Pnt
3341 868 Pnt
3354 881 Pnt
3408 947 Pnt
3410 950 Pnt
3413 953 Pnt
3455 1012 Pnt
3463 1023 Pnt
3479 1046 Pnt
3485 1051 Pnt
3491 1045 Pnt
3493 1043 Pnt
3510 1016 Pnt
3536 976 Pnt
3553 950 Pnt
3561 938 Pnt
3571 924 Pnt
3577 918 Pnt
3583 917 Pnt
3585 917 Pnt
3602 921 Pnt
3626 928 Pnt
3646 936 Pnt
3677 950 Pnt
3685 954 Pnt
3725 977 Pnt
3727 978 Pnt
3728 979 Pnt
3777 1010 Pnt
3806 1031 Pnt
3824 1044 Pnt
3826 1045 Pnt
3828 1046 Pnt
3831 1045 Pnt
3860 1025 Pnt
3892 1005 Pnt
3950 971 Pnt
3979 956 Pnt
3987 953 Pnt
4046 930 Pnt
4073 924 Pnt
4075 924 Pnt
4078 925 Pnt
4079 925 Pnt
4097 936 Pnt
4129 957 Pnt
4151 974 Pnt
4185 1000 Pnt
4301 1099 Pnt
4319 1115 Pnt
4320 1116 Pnt
4326 1122 Pnt
4333 1128 Pnt
4381 1172 Pnt
4389 1179 Pnt
4398 1186 Pnt
4406 1194 Pnt
4416 1203 Pnt
4422 1212 Pnt
4428 1226 Pnt
4430 1229 Pnt
4511 1452 Pnt
4518 1447 Pnt
4524 1397 Pnt
4525 1383 Pnt
4562 970 Pnt
4576 811 Pnt
4607 1067 Pnt
4613 1146 Pnt
4619 1242 Pnt
4621 1264 Pnt
4702 2646 Pnt
4709 2740 Pnt
4715 2806 Pnt
4716 2816 Pnt
4762 3186 Pnt
4804 3531 Pnt
4811 3583 Pnt
4817 3637 Pnt
4818 3647 Pnt
4873 4115 Pnt
4887 4242 Pnt
4900 4351 Pnt
4906 4380 Pnt
4913 4357 Pnt
4914 4347 Pnt
4944 4110 Pnt
4957 4009 Pnt
4964 3937 Pnt
4970 3819 Pnt
4971 3791 Pnt
4990 3383 Pnt
5040 2263 Pnt
5046 2136 Pnt
5053 2035 Pnt
5054 2018 Pnt
5079 1669 Pnt
5082 1624 Pnt
5085 1579 Pnt
5092 1490 Pnt
5111 1213 Pnt
5118 1128 Pnt
5124 1050 Pnt
5125 1035 Pnt
5142 835 Pnt
5150 792 Pnt
5157 877 Pnt
5226 1697 Pnt
5232 1758 Pnt
5239 1789 Pnt
5240 1792 Pnt
5347 2063 Pnt
5354 2097 Pnt
5360 2167 Pnt
5361 2185 Pnt
5388 2565 Pnt
5408 2838 Pnt
5427 3111 Pnt
5468 3683 Pnt
5475 3727 Pnt
5481 3683 Pnt
5482 3665 Pnt
5550 2721 Pnt
5557 2619 Pnt
5565 2517 Pnt
5583 2263 Pnt
5589 2189 Pnt
5596 2141 Pnt
5597 2135 Pnt
5623 1992 Pnt
5625 1980 Pnt
5627 1968 Pnt
5635 1928 Pnt
5654 1819 Pnt
5661 1794 Pnt
5667 1788 Pnt
5668 1789 Pnt
5682 1797 Pnt
5737 1828 Pnt
5744 1824 Pnt
5750 1804 Pnt
5751 1799 Pnt
5776 1691 Pnt
5779 1677 Pnt
5782 1663 Pnt
5789 1636 Pnt
5809 1550 Pnt
5815 1517 Pnt
5821 1473 Pnt
5822 1463 Pnt
5839 1331 Pnt
5847 1274 Pnt
5854 1216 Pnt
5920 834 Pnt
5939 985 Pnt
5959 1137 Pnt
5987 1358 Pnt
5993 1416 Pnt
6000 1491 Pnt
6001 1508 Pnt
6028 1872 Pnt
6048 2134 Pnt
6067 2396 Pnt
6082 2600 Pnt
6095 2774 Pnt
6102 2848 Pnt
6108 2902 Pnt
6109 2911 Pnt
6132 3066 Pnt
6141 3126 Pnt
6150 3190 Pnt
6204 3560 Pnt
6210 3583 Pnt
6216 3566 Pnt
6218 3559 Pnt
6461 2127 Pnt
6486 1975 Pnt
6494 1932 Pnt
6501 1889 Pnt
6511 1828 Pnt
6517 1791 Pnt
6521 1772 Pnt
6524 1754 Pnt
6543 1640 Pnt
6557 1590 Pnt
6571 1607 Pnt
6579 1634 Pnt
6598 1699 Pnt
6604 1721 Pnt
6608 1732 Pnt
6611 1743 Pnt
6629 1807 Pnt
6644 1791 Pnt
6659 1642 Pnt
6666 1548 Pnt
6695 1146 Pnt
6713 902 Pnt
6718 831 Pnt
6722 777 Pnt
6749 1142 Pnt
6762 1321 Pnt
2215 4148 Pnt
% End plot #2
1.000 UL
LTb
LCb setrgbcolor
1032 4751 N
0 -3983 V
5735 0 V
0 3983 V
-5735 0 V
Z stroke
1.000 UP
1.000 UL
LTb
LCb setrgbcolor
stroke
grestore
end
showpage
%%Trailer
%%DocumentFonts: Italic Symbol Helvetica
