%!PS-Adobe-2.0 EPSF-2.0
%%Title: IPbety_SF6FF_Y_DX=1e-3.eps
%%Creator: gnuplot 5.2 patchlevel 4
%%CreationDate: Sun Nov 25 23:58:18 2018
%%DocumentFonts: (atend)
%%BoundingBox: 50 50 410 302
%%EndComments
%%BeginProlog
/gnudict 256 dict def
gnudict begin
%
% The following true/false flags may be edited by hand if desired.
% The unit line width and grayscale image gamma correction may also be changed.
%
/Color true def
/Blacktext false def
/Solid false def
/Dashlength 1 def
/Landscape false def
/Level1 false def
/Level3 false def
/Rounded false def
/ClipToBoundingBox false def
/SuppressPDFMark false def
/TransparentPatterns false def
/gnulinewidth 5.000 def
/userlinewidth gnulinewidth def
/Gamma 1.0 def
/BackgroundColor {-1.000 -1.000 -1.000} def
%
/vshift -80 def
/dl1 {
  10.0 Dashlength userlinewidth gnulinewidth div mul mul mul
  Rounded { currentlinewidth 0.75 mul sub dup 0 le { pop 0.01 } if } if
} def
/dl2 {
  10.0 Dashlength userlinewidth gnulinewidth div mul mul mul
  Rounded { currentlinewidth 0.75 mul add } if
} def
/hpt_ 31.5 def
/vpt_ 31.5 def
/hpt hpt_ def
/vpt vpt_ def
/doclip {
  ClipToBoundingBox {
    newpath 50 50 moveto 410 50 lineto 410 302 lineto 50 302 lineto closepath
    clip
  } if
} def
%
% Gnuplot Prolog Version 5.2 (Dec 2017)
%
%/SuppressPDFMark true def
%
/M {moveto} bind def
/L {lineto} bind def
/R {rmoveto} bind def
/V {rlineto} bind def
/N {newpath moveto} bind def
/Z {closepath} bind def
/C {setrgbcolor} bind def
/f {rlineto fill} bind def
/g {setgray} bind def
/Gshow {show} def   % May be redefined later in the file to support UTF-8
/vpt2 vpt 2 mul def
/hpt2 hpt 2 mul def
/Lshow {currentpoint stroke M 0 vshift R 
	Blacktext {gsave 0 setgray textshow grestore} {textshow} ifelse} def
/Rshow {currentpoint stroke M dup stringwidth pop neg vshift R
	Blacktext {gsave 0 setgray textshow grestore} {textshow} ifelse} def
/Cshow {currentpoint stroke M dup stringwidth pop -2 div vshift R 
	Blacktext {gsave 0 setgray textshow grestore} {textshow} ifelse} def
/UP {dup vpt_ mul /vpt exch def hpt_ mul /hpt exch def
  /hpt2 hpt 2 mul def /vpt2 vpt 2 mul def} def
/DL {Color {setrgbcolor Solid {pop []} if 0 setdash}
 {pop pop pop 0 setgray Solid {pop []} if 0 setdash} ifelse} def
/BL {stroke userlinewidth 2 mul setlinewidth
	Rounded {1 setlinejoin 1 setlinecap} if} def
/AL {stroke userlinewidth 2 div setlinewidth
	Rounded {1 setlinejoin 1 setlinecap} if} def
/UL {dup gnulinewidth mul /userlinewidth exch def
	dup 1 lt {pop 1} if 10 mul /udl exch def} def
/PL {stroke userlinewidth setlinewidth
	Rounded {1 setlinejoin 1 setlinecap} if} def
3.8 setmiterlimit
% Classic Line colors (version 5.0)
/LCw {1 1 1} def
/LCb {0 0 0} def
/LCa {0 0 0} def
/LC0 {1 0 0} def
/LC1 {0 1 0} def
/LC2 {0 0 1} def
/LC3 {1 0 1} def
/LC4 {0 1 1} def
/LC5 {1 1 0} def
/LC6 {0 0 0} def
/LC7 {1 0.3 0} def
/LC8 {0.5 0.5 0.5} def
% Default dash patterns (version 5.0)
/LTB {BL [] LCb DL} def
/LTw {PL [] 1 setgray} def
/LTb {PL [] LCb DL} def
/LTa {AL [1 udl mul 2 udl mul] 0 setdash LCa setrgbcolor} def
/LT0 {PL [] LC0 DL} def
/LT1 {PL [2 dl1 3 dl2] LC1 DL} def
/LT2 {PL [1 dl1 1.5 dl2] LC2 DL} def
/LT3 {PL [6 dl1 2 dl2 1 dl1 2 dl2] LC3 DL} def
/LT4 {PL [1 dl1 2 dl2 6 dl1 2 dl2 1 dl1 2 dl2] LC4 DL} def
/LT5 {PL [4 dl1 2 dl2] LC5 DL} def
/LT6 {PL [1.5 dl1 1.5 dl2 1.5 dl1 1.5 dl2 1.5 dl1 6 dl2] LC6 DL} def
/LT7 {PL [3 dl1 3 dl2 1 dl1 3 dl2] LC7 DL} def
/LT8 {PL [2 dl1 2 dl2 2 dl1 6 dl2] LC8 DL} def
/SL {[] 0 setdash} def
/Pnt {stroke [] 0 setdash gsave 1 setlinecap M 0 0 V stroke grestore} def
/Dia {stroke [] 0 setdash 2 copy vpt add M
  hpt neg vpt neg V hpt vpt neg V
  hpt vpt V hpt neg vpt V closepath stroke
  Pnt} def
/Pls {stroke [] 0 setdash vpt sub M 0 vpt2 V
  currentpoint stroke M
  hpt neg vpt neg R hpt2 0 V stroke
 } def
/Box {stroke [] 0 setdash 2 copy exch hpt sub exch vpt add M
  0 vpt2 neg V hpt2 0 V 0 vpt2 V
  hpt2 neg 0 V closepath stroke
  Pnt} def
/Crs {stroke [] 0 setdash exch hpt sub exch vpt add M
  hpt2 vpt2 neg V currentpoint stroke M
  hpt2 neg 0 R hpt2 vpt2 V stroke} def
/TriU {stroke [] 0 setdash 2 copy vpt 1.12 mul add M
  hpt neg vpt -1.62 mul V
  hpt 2 mul 0 V
  hpt neg vpt 1.62 mul V closepath stroke
  Pnt} def
/Star {2 copy Pls Crs} def
/BoxF {stroke [] 0 setdash exch hpt sub exch vpt add M
  0 vpt2 neg V hpt2 0 V 0 vpt2 V
  hpt2 neg 0 V closepath fill} def
/TriUF {stroke [] 0 setdash vpt 1.12 mul add M
  hpt neg vpt -1.62 mul V
  hpt 2 mul 0 V
  hpt neg vpt 1.62 mul V closepath fill} def
/TriD {stroke [] 0 setdash 2 copy vpt 1.12 mul sub M
  hpt neg vpt 1.62 mul V
  hpt 2 mul 0 V
  hpt neg vpt -1.62 mul V closepath stroke
  Pnt} def
/TriDF {stroke [] 0 setdash vpt 1.12 mul sub M
  hpt neg vpt 1.62 mul V
  hpt 2 mul 0 V
  hpt neg vpt -1.62 mul V closepath fill} def
/DiaF {stroke [] 0 setdash vpt add M
  hpt neg vpt neg V hpt vpt neg V
  hpt vpt V hpt neg vpt V closepath fill} def
/Pent {stroke [] 0 setdash 2 copy gsave
  translate 0 hpt M 4 {72 rotate 0 hpt L} repeat
  closepath stroke grestore Pnt} def
/PentF {stroke [] 0 setdash gsave
  translate 0 hpt M 4 {72 rotate 0 hpt L} repeat
  closepath fill grestore} def
/Circle {stroke [] 0 setdash 2 copy
  hpt 0 360 arc stroke Pnt} def
/CircleF {stroke [] 0 setdash hpt 0 360 arc fill} def
/C0 {BL [] 0 setdash 2 copy moveto vpt 90 450 arc} bind def
/C1 {BL [] 0 setdash 2 copy moveto
	2 copy vpt 0 90 arc closepath fill
	vpt 0 360 arc closepath} bind def
/C2 {BL [] 0 setdash 2 copy moveto
	2 copy vpt 90 180 arc closepath fill
	vpt 0 360 arc closepath} bind def
/C3 {BL [] 0 setdash 2 copy moveto
	2 copy vpt 0 180 arc closepath fill
	vpt 0 360 arc closepath} bind def
/C4 {BL [] 0 setdash 2 copy moveto
	2 copy vpt 180 270 arc closepath fill
	vpt 0 360 arc closepath} bind def
/C5 {BL [] 0 setdash 2 copy moveto
	2 copy vpt 0 90 arc
	2 copy moveto
	2 copy vpt 180 270 arc closepath fill
	vpt 0 360 arc} bind def
/C6 {BL [] 0 setdash 2 copy moveto
	2 copy vpt 90 270 arc closepath fill
	vpt 0 360 arc closepath} bind def
/C7 {BL [] 0 setdash 2 copy moveto
	2 copy vpt 0 270 arc closepath fill
	vpt 0 360 arc closepath} bind def
/C8 {BL [] 0 setdash 2 copy moveto
	2 copy vpt 270 360 arc closepath fill
	vpt 0 360 arc closepath} bind def
/C9 {BL [] 0 setdash 2 copy moveto
	2 copy vpt 270 450 arc closepath fill
	vpt 0 360 arc closepath} bind def
/C10 {BL [] 0 setdash 2 copy 2 copy moveto vpt 270 360 arc closepath fill
	2 copy moveto
	2 copy vpt 90 180 arc closepath fill
	vpt 0 360 arc closepath} bind def
/C11 {BL [] 0 setdash 2 copy moveto
	2 copy vpt 0 180 arc closepath fill
	2 copy moveto
	2 copy vpt 270 360 arc closepath fill
	vpt 0 360 arc closepath} bind def
/C12 {BL [] 0 setdash 2 copy moveto
	2 copy vpt 180 360 arc closepath fill
	vpt 0 360 arc closepath} bind def
/C13 {BL [] 0 setdash 2 copy moveto
	2 copy vpt 0 90 arc closepath fill
	2 copy moveto
	2 copy vpt 180 360 arc closepath fill
	vpt 0 360 arc closepath} bind def
/C14 {BL [] 0 setdash 2 copy moveto
	2 copy vpt 90 360 arc closepath fill
	vpt 0 360 arc} bind def
/C15 {BL [] 0 setdash 2 copy vpt 0 360 arc closepath fill
	vpt 0 360 arc closepath} bind def
/Rec {newpath 4 2 roll moveto 1 index 0 rlineto 0 exch rlineto
	neg 0 rlineto closepath} bind def
/Square {dup Rec} bind def
/Bsquare {vpt sub exch vpt sub exch vpt2 Square} bind def
/S0 {BL [] 0 setdash 2 copy moveto 0 vpt rlineto BL Bsquare} bind def
/S1 {BL [] 0 setdash 2 copy vpt Square fill Bsquare} bind def
/S2 {BL [] 0 setdash 2 copy exch vpt sub exch vpt Square fill Bsquare} bind def
/S3 {BL [] 0 setdash 2 copy exch vpt sub exch vpt2 vpt Rec fill Bsquare} bind def
/S4 {BL [] 0 setdash 2 copy exch vpt sub exch vpt sub vpt Square fill Bsquare} bind def
/S5 {BL [] 0 setdash 2 copy 2 copy vpt Square fill
	exch vpt sub exch vpt sub vpt Square fill Bsquare} bind def
/S6 {BL [] 0 setdash 2 copy exch vpt sub exch vpt sub vpt vpt2 Rec fill Bsquare} bind def
/S7 {BL [] 0 setdash 2 copy exch vpt sub exch vpt sub vpt vpt2 Rec fill
	2 copy vpt Square fill Bsquare} bind def
/S8 {BL [] 0 setdash 2 copy vpt sub vpt Square fill Bsquare} bind def
/S9 {BL [] 0 setdash 2 copy vpt sub vpt vpt2 Rec fill Bsquare} bind def
/S10 {BL [] 0 setdash 2 copy vpt sub vpt Square fill 2 copy exch vpt sub exch vpt Square fill
	Bsquare} bind def
/S11 {BL [] 0 setdash 2 copy vpt sub vpt Square fill 2 copy exch vpt sub exch vpt2 vpt Rec fill
	Bsquare} bind def
/S12 {BL [] 0 setdash 2 copy exch vpt sub exch vpt sub vpt2 vpt Rec fill Bsquare} bind def
/S13 {BL [] 0 setdash 2 copy exch vpt sub exch vpt sub vpt2 vpt Rec fill
	2 copy vpt Square fill Bsquare} bind def
/S14 {BL [] 0 setdash 2 copy exch vpt sub exch vpt sub vpt2 vpt Rec fill
	2 copy exch vpt sub exch vpt Square fill Bsquare} bind def
/S15 {BL [] 0 setdash 2 copy Bsquare fill Bsquare} bind def
/D0 {gsave translate 45 rotate 0 0 S0 stroke grestore} bind def
/D1 {gsave translate 45 rotate 0 0 S1 stroke grestore} bind def
/D2 {gsave translate 45 rotate 0 0 S2 stroke grestore} bind def
/D3 {gsave translate 45 rotate 0 0 S3 stroke grestore} bind def
/D4 {gsave translate 45 rotate 0 0 S4 stroke grestore} bind def
/D5 {gsave translate 45 rotate 0 0 S5 stroke grestore} bind def
/D6 {gsave translate 45 rotate 0 0 S6 stroke grestore} bind def
/D7 {gsave translate 45 rotate 0 0 S7 stroke grestore} bind def
/D8 {gsave translate 45 rotate 0 0 S8 stroke grestore} bind def
/D9 {gsave translate 45 rotate 0 0 S9 stroke grestore} bind def
/D10 {gsave translate 45 rotate 0 0 S10 stroke grestore} bind def
/D11 {gsave translate 45 rotate 0 0 S11 stroke grestore} bind def
/D12 {gsave translate 45 rotate 0 0 S12 stroke grestore} bind def
/D13 {gsave translate 45 rotate 0 0 S13 stroke grestore} bind def
/D14 {gsave translate 45 rotate 0 0 S14 stroke grestore} bind def
/D15 {gsave translate 45 rotate 0 0 S15 stroke grestore} bind def
/DiaE {stroke [] 0 setdash vpt add M
  hpt neg vpt neg V hpt vpt neg V
  hpt vpt V hpt neg vpt V closepath stroke} def
/BoxE {stroke [] 0 setdash exch hpt sub exch vpt add M
  0 vpt2 neg V hpt2 0 V 0 vpt2 V
  hpt2 neg 0 V closepath stroke} def
/TriUE {stroke [] 0 setdash vpt 1.12 mul add M
  hpt neg vpt -1.62 mul V
  hpt 2 mul 0 V
  hpt neg vpt 1.62 mul V closepath stroke} def
/TriDE {stroke [] 0 setdash vpt 1.12 mul sub M
  hpt neg vpt 1.62 mul V
  hpt 2 mul 0 V
  hpt neg vpt -1.62 mul V closepath stroke} def
/PentE {stroke [] 0 setdash gsave
  translate 0 hpt M 4 {72 rotate 0 hpt L} repeat
  closepath stroke grestore} def
/CircE {stroke [] 0 setdash 
  hpt 0 360 arc stroke} def
/Opaque {gsave closepath 1 setgray fill grestore 0 setgray closepath} def
/DiaW {stroke [] 0 setdash vpt add M
  hpt neg vpt neg V hpt vpt neg V
  hpt vpt V hpt neg vpt V Opaque stroke} def
/BoxW {stroke [] 0 setdash exch hpt sub exch vpt add M
  0 vpt2 neg V hpt2 0 V 0 vpt2 V
  hpt2 neg 0 V Opaque stroke} def
/TriUW {stroke [] 0 setdash vpt 1.12 mul add M
  hpt neg vpt -1.62 mul V
  hpt 2 mul 0 V
  hpt neg vpt 1.62 mul V Opaque stroke} def
/TriDW {stroke [] 0 setdash vpt 1.12 mul sub M
  hpt neg vpt 1.62 mul V
  hpt 2 mul 0 V
  hpt neg vpt -1.62 mul V Opaque stroke} def
/PentW {stroke [] 0 setdash gsave
  translate 0 hpt M 4 {72 rotate 0 hpt L} repeat
  Opaque stroke grestore} def
/CircW {stroke [] 0 setdash 
  hpt 0 360 arc Opaque stroke} def
/BoxFill {gsave Rec 1 setgray fill grestore} def
/Density {
  /Fillden exch def
  currentrgbcolor
  /ColB exch def /ColG exch def /ColR exch def
  /ColR ColR Fillden mul Fillden sub 1 add def
  /ColG ColG Fillden mul Fillden sub 1 add def
  /ColB ColB Fillden mul Fillden sub 1 add def
  ColR ColG ColB setrgbcolor} def
/BoxColFill {gsave Rec PolyFill} def
/PolyFill {gsave Density fill grestore grestore} def
/h {rlineto rlineto rlineto closepath gsave fill grestore stroke} bind def
%
% PostScript Level 1 Pattern Fill routine for rectangles
% Usage: x y w h s a XX PatternFill
%	x,y = lower left corner of box to be filled
%	w,h = width and height of box
%	  a = angle in degrees between lines and x-axis
%	 XX = 0/1 for no/yes cross-hatch
%
/PatternFill {gsave /PFa [ 9 2 roll ] def
  PFa 0 get PFa 2 get 2 div add PFa 1 get PFa 3 get 2 div add translate
  PFa 2 get -2 div PFa 3 get -2 div PFa 2 get PFa 3 get Rec
  TransparentPatterns {} {gsave 1 setgray fill grestore} ifelse
  clip
  currentlinewidth 0.5 mul setlinewidth
  /PFs PFa 2 get dup mul PFa 3 get dup mul add sqrt def
  0 0 M PFa 5 get rotate PFs -2 div dup translate
  0 1 PFs PFa 4 get div 1 add floor cvi
	{PFa 4 get mul 0 M 0 PFs V} for
  0 PFa 6 get ne {
	0 1 PFs PFa 4 get div 1 add floor cvi
	{PFa 4 get mul 0 2 1 roll M PFs 0 V} for
 } if
  stroke grestore} def
%
/languagelevel where
 {pop languagelevel} {1} ifelse
dup 2 lt
	{/InterpretLevel1 true def
	 /InterpretLevel3 false def}
	{/InterpretLevel1 Level1 def
	 2 gt
	    {/InterpretLevel3 Level3 def}
	    {/InterpretLevel3 false def}
	 ifelse }
 ifelse
%
% PostScript level 2 pattern fill definitions
%
/Level2PatternFill {
/Tile8x8 {/PaintType 2 /PatternType 1 /TilingType 1 /BBox [0 0 8 8] /XStep 8 /YStep 8}
	bind def
/KeepColor {currentrgbcolor [/Pattern /DeviceRGB] setcolorspace} bind def
<< Tile8x8
 /PaintProc {0.5 setlinewidth pop 0 0 M 8 8 L 0 8 M 8 0 L stroke} 
>> matrix makepattern
/Pat1 exch def
<< Tile8x8
 /PaintProc {0.5 setlinewidth pop 0 0 M 8 8 L 0 8 M 8 0 L stroke
	0 4 M 4 8 L 8 4 L 4 0 L 0 4 L stroke}
>> matrix makepattern
/Pat2 exch def
<< Tile8x8
 /PaintProc {0.5 setlinewidth pop 0 0 M 0 8 L
	8 8 L 8 0 L 0 0 L fill}
>> matrix makepattern
/Pat3 exch def
<< Tile8x8
 /PaintProc {0.5 setlinewidth pop -4 8 M 8 -4 L
	0 12 M 12 0 L stroke}
>> matrix makepattern
/Pat4 exch def
<< Tile8x8
 /PaintProc {0.5 setlinewidth pop -4 0 M 8 12 L
	0 -4 M 12 8 L stroke}
>> matrix makepattern
/Pat5 exch def
<< Tile8x8
 /PaintProc {0.5 setlinewidth pop -2 8 M 4 -4 L
	0 12 M 8 -4 L 4 12 M 10 0 L stroke}
>> matrix makepattern
/Pat6 exch def
<< Tile8x8
 /PaintProc {0.5 setlinewidth pop -2 0 M 4 12 L
	0 -4 M 8 12 L 4 -4 M 10 8 L stroke}
>> matrix makepattern
/Pat7 exch def
<< Tile8x8
 /PaintProc {0.5 setlinewidth pop 8 -2 M -4 4 L
	12 0 M -4 8 L 12 4 M 0 10 L stroke}
>> matrix makepattern
/Pat8 exch def
<< Tile8x8
 /PaintProc {0.5 setlinewidth pop 0 -2 M 12 4 L
	-4 0 M 12 8 L -4 4 M 8 10 L stroke}
>> matrix makepattern
/Pat9 exch def
/Pattern1 {PatternBgnd KeepColor Pat1 setpattern} bind def
/Pattern2 {PatternBgnd KeepColor Pat2 setpattern} bind def
/Pattern3 {PatternBgnd KeepColor Pat3 setpattern} bind def
/Pattern4 {PatternBgnd KeepColor Landscape {Pat5} {Pat4} ifelse setpattern} bind def
/Pattern5 {PatternBgnd KeepColor Landscape {Pat4} {Pat5} ifelse setpattern} bind def
/Pattern6 {PatternBgnd KeepColor Landscape {Pat9} {Pat6} ifelse setpattern} bind def
/Pattern7 {PatternBgnd KeepColor Landscape {Pat8} {Pat7} ifelse setpattern} bind def
} def
%
%
%End of PostScript Level 2 code
%
/PatternBgnd {
  TransparentPatterns {} {gsave 1 setgray fill grestore} ifelse
} def
%
% Substitute for Level 2 pattern fill codes with
% grayscale if Level 2 support is not selected.
%
/Level1PatternFill {
/Pattern1 {0.250 Density} bind def
/Pattern2 {0.500 Density} bind def
/Pattern3 {0.750 Density} bind def
/Pattern4 {0.125 Density} bind def
/Pattern5 {0.375 Density} bind def
/Pattern6 {0.625 Density} bind def
/Pattern7 {0.875 Density} bind def
} def
%
% Now test for support of Level 2 code
%
Level1 {Level1PatternFill} {Level2PatternFill} ifelse
%
/Symbol-Oblique /Symbol findfont [1 0 .167 1 0 0] makefont
dup length dict begin {1 index /FID eq {pop pop} {def} ifelse} forall
currentdict end definefont pop
%
/Metrics {ExtendTextBox Gswidth} def
/Lwidth {currentpoint stroke M 0 vshift R Metrics} def
/Rwidth {currentpoint stroke M dup stringwidth pop neg vshift R Metrics} def
/Cwidth {currentpoint stroke M dup stringwidth pop -2 div vshift R Metrics} def
/GLwidth {currentpoint stroke M 0 vshift R {ExtendTextBox} forall} def
/GRwidth {currentpoint stroke M dup Gwidth vshift R {ExtendTextBox} forall} def
/GCwidth {currentpoint stroke M dup Gwidth 2 div vshift R {ExtendTextBox} forall} def
/GLwidth2 {0 Gwidth AddGlyphWidth} def
/GRwidth2 {Gwidth -1 mul 0 AddGlyphWidth} def
/GCwidth2 {Gwidth 2 div dup -1 mul AddGlyphWidth} def
/AddGlyphWidth { dup TBx2 gt {userdict /TBx2 3 -1 roll put} {pop} ifelse
                 dup TBx1 lt {userdict /TBx1 3 -1 roll put} {pop} ifelse } def
/MFshow {
   { dup 5 get 3 ge
     { 5 get 3 eq {gsave} {grestore} ifelse }
     {dup dup 0 get findfont exch 1 get scalefont setfont
     [ currentpoint ] exch dup 2 get 0 exch R dup 5 get 2 ne {dup dup 6
     get exch 4 get {textshow} {Metrics pop 0 R} ifelse }if dup 5 get 0 eq
     {dup 3 get {2 get neg 0 exch R pop} {pop aload pop M} ifelse} {dup 5
     get 1 eq {dup 2 get exch dup 3 get exch 6 get Gswidth pop -2 div
     dup 0 R} {dup 6 get Gswidth pop -2 div 0 R 6 get
     textshow 2 index {aload pop M neg 3 -1 roll neg R pop pop} {pop pop pop
     pop aload pop M} ifelse }ifelse }ifelse }
     ifelse }
   forall} def
/Gswidth {dup type /stringtype eq {stringwidth} {pop (n) stringwidth} ifelse} def
/MFwidth {0 exch { dup 5 get 3 ge { 5 get 3 eq { 0 } { pop } ifelse }
 {dup 3 get{dup dup 0 get findfont exch 1 get scalefont setfont
     6 get Gswidth pop add} {pop} ifelse} ifelse} forall} def
/MLshow { currentpoint stroke M
  0 exch R
  Blacktext {gsave 0 setgray MFshow grestore} {MFshow} ifelse } bind def
/MRshow { currentpoint stroke M
  exch dup MFwidth neg 3 -1 roll R
  Blacktext {gsave 0 setgray MFshow grestore} {MFshow} ifelse } bind def
/MCshow { currentpoint stroke M
  exch dup MFwidth -2 div 3 -1 roll R
  Blacktext {gsave 0 setgray MFshow grestore} {MFshow} ifelse } bind def
/XYsave    { [( ) 1 2 true false 3 ()] } bind def
/XYrestore { [( ) 1 2 true false 4 ()] } bind def
Level1 SuppressPDFMark or 
{} {
/SDict 10 dict def
systemdict /pdfmark known not {
  userdict /pdfmark systemdict /cleartomark get put
} if
SDict begin [
  /Title (IPbety_SF6FF_Y_DX=1e-3.eps)
  /Subject (gnuplot plot)
  /Creator (gnuplot 5.2 patchlevel 4)
%  /Producer (gnuplot)
%  /Keywords ()
  /CreationDate (Sun Nov 25 23:58:18 2018)
  /DOCINFO pdfmark
end
} ifelse
%
% Support for boxed text - Ethan A Merritt Sep 2016
%
/InitTextBox { userdict /TBy2 3 -1 roll put userdict /TBx2 3 -1 roll put
           userdict /TBy1 3 -1 roll put userdict /TBx1 3 -1 roll put
	   /Boxing true def } def
/ExtendTextBox { dup type /stringtype eq
    { Boxing { gsave dup false charpath pathbbox
      dup TBy2 gt {userdict /TBy2 3 -1 roll put} {pop} ifelse
      dup TBx2 gt {userdict /TBx2 3 -1 roll put} {pop} ifelse
      dup TBy1 lt {userdict /TBy1 3 -1 roll put} {pop} ifelse
      dup TBx1 lt {userdict /TBx1 3 -1 roll put} {pop} ifelse
      grestore } if }
    {} ifelse} def
/PopTextBox { newpath TBx1 TBxmargin sub TBy1 TBymargin sub M
               TBx1 TBxmargin sub TBy2 TBymargin add L
	       TBx2 TBxmargin add TBy2 TBymargin add L
	       TBx2 TBxmargin add TBy1 TBymargin sub L closepath } def
/DrawTextBox { PopTextBox stroke /Boxing false def} def
/FillTextBox { gsave PopTextBox fill grestore /Boxing false def} def
0 0 0 0 InitTextBox
/TBxmargin 20 def
/TBymargin 20 def
/Boxing false def
/textshow { ExtendTextBox Gshow } def
%
end
%%EndProlog
%%Page: 1 1
gnudict begin
gsave
doclip
50 50 translate
0.050 0.050 scale
0 setgray
newpath
(Helvetica) findfont 240 scalefont setfont
BackgroundColor 0 lt 3 1 roll 0 lt exch 0 lt or or not {BackgroundColor C 1.000 0 0 7200.00 5040.00 BoxColFill} if
1.000 UL
LTb
LCb setrgbcolor
1032 768 M
63 0 V
5672 0 R
-63 0 V
stroke
888 768 M
[ [(Helvetica) 240.0 0.0 true true 0 ( 0)]
] -80.0 MRshow
/Helvetica findfont 240 scalefont setfont
/vshift -80 def
1.000 UL
LTb
LCb setrgbcolor
1032 1574 M
63 0 V
5672 0 R
-63 0 V
stroke
888 1574 M
[ [(Helvetica) 240.0 0.0 true true 0 ( 2)]
] -80.0 MRshow
/Helvetica findfont 240 scalefont setfont
1.000 UL
LTb
LCb setrgbcolor
1032 2380 M
63 0 V
5672 0 R
-63 0 V
stroke
888 2380 M
[ [(Helvetica) 240.0 0.0 true true 0 ( 4)]
] -80.0 MRshow
/Helvetica findfont 240 scalefont setfont
1.000 UL
LTb
LCb setrgbcolor
1032 3187 M
63 0 V
5672 0 R
-63 0 V
stroke
888 3187 M
[ [(Helvetica) 240.0 0.0 true true 0 ( 6)]
] -80.0 MRshow
/Helvetica findfont 240 scalefont setfont
1.000 UL
LTb
LCb setrgbcolor
1032 3993 M
63 0 V
5672 0 R
-63 0 V
stroke
888 3993 M
[ [(Helvetica) 240.0 0.0 true true 0 ( 8)]
] -80.0 MRshow
/Helvetica findfont 240 scalefont setfont
1.000 UL
LTb
LCb setrgbcolor
1032 4799 M
63 0 V
5672 0 R
-63 0 V
stroke
888 4799 M
[ [(Helvetica) 240.0 0.0 true true 0 ( 10)]
] -80.0 MRshow
/Helvetica findfont 240 scalefont setfont
1.000 UL
LTb
LCb setrgbcolor
1032 768 M
0 63 V
0 3968 R
0 -63 V
stroke
1032 528 M
[ [(Helvetica) 240.0 0.0 true true 0 (-2)]
] -80.0 MCshow
/Helvetica findfont 240 scalefont setfont
1.000 UL
LTb
LCb setrgbcolor
1749 768 M
0 63 V
0 3968 R
0 -63 V
stroke
1749 528 M
[ [(Helvetica) 240.0 0.0 true true 0 (-1.5)]
] -80.0 MCshow
/Helvetica findfont 240 scalefont setfont
1.000 UL
LTb
LCb setrgbcolor
2466 768 M
0 63 V
0 3968 R
0 -63 V
stroke
2466 528 M
[ [(Helvetica) 240.0 0.0 true true 0 (-1)]
] -80.0 MCshow
/Helvetica findfont 240 scalefont setfont
1.000 UL
LTb
LCb setrgbcolor
3183 768 M
0 63 V
0 3968 R
0 -63 V
stroke
3183 528 M
[ [(Helvetica) 240.0 0.0 true true 0 (-0.5)]
] -80.0 MCshow
/Helvetica findfont 240 scalefont setfont
1.000 UL
LTb
LCb setrgbcolor
3900 768 M
0 63 V
0 3968 R
0 -63 V
stroke
3900 528 M
[ [(Helvetica) 240.0 0.0 true true 0 ( 0)]
] -80.0 MCshow
/Helvetica findfont 240 scalefont setfont
1.000 UL
LTb
LCb setrgbcolor
4616 768 M
0 63 V
0 3968 R
0 -63 V
stroke
4616 528 M
[ [(Helvetica) 240.0 0.0 true true 0 ( 0.5)]
] -80.0 MCshow
/Helvetica findfont 240 scalefont setfont
1.000 UL
LTb
LCb setrgbcolor
5333 768 M
0 63 V
0 3968 R
0 -63 V
stroke
5333 528 M
[ [(Helvetica) 240.0 0.0 true true 0 ( 1)]
] -80.0 MCshow
/Helvetica findfont 240 scalefont setfont
1.000 UL
LTb
LCb setrgbcolor
6050 768 M
0 63 V
0 3968 R
0 -63 V
stroke
6050 528 M
[ [(Helvetica) 240.0 0.0 true true 0 ( 1.5)]
] -80.0 MCshow
/Helvetica findfont 240 scalefont setfont
1.000 UL
LTb
LCb setrgbcolor
6767 768 M
0 63 V
0 3968 R
0 -63 V
stroke
6767 528 M
[ [(Helvetica) 240.0 0.0 true true 0 ( 2)]
] -80.0 MCshow
/Helvetica findfont 240 scalefont setfont
1.000 UL
LTb
LCb setrgbcolor
1.000 UL
LTB
LCb setrgbcolor
1032 4799 N
0 -4031 V
5735 0 V
0 4031 V
-5735 0 V
Z stroke
1.000 UP
1.000 UL
LTb
LCb setrgbcolor
LCb setrgbcolor
216 2783 M
currentpoint gsave translate -270 rotate 0 0 moveto
[ [(Symbol) 240.0 0.0 true true 0 (b)]
[(Helvetica) 192.0 -72.0 true true 0 (y)]
[(Helvetica) 192.0 120.0 true true 0 (1/2)]
[(Helvetica) 240.0 0.0 true true 0 (  [mm])]
] -80.0 MCshow
grestore
/Helvetica findfont 240 scalefont setfont
LTb
LCb setrgbcolor
3899 168 M
[ [(Symbol) 240.0 0.0 true true 0 (D)]
[(Helvetica) 240.0 0.0 true true 0 (x [mm])]
] -80.0 MCshow
/Helvetica findfont 240 scalefont setfont
LTb
% Begin plot #1
1.500 UP
3.000 UL
LTb
0.00 0.00 0.00 C LCb setrgbcolor
5696 4556 M
[ [(Helvetica) 240.0 0.0 true true 0 (SF6)]
] -80.0 MRshow
/Helvetica findfont 240 scalefont setfont
1.500 UP
3.000 UL
LTb
0.00 0.00 0.00 C 5840 4556 M
639 0 V
1032 4476 M
0 -96 V
143 -96 V
0 -93 V
144 -97 V
0 -94 V
143 -94 V
0 -95 V
144 -95 V
0 -92 V
143 -95 V
0 -93 V
143 -93 V
0 -97 V
144 -93 V
0 -91 V
143 -94 V
0 -94 V
143 -90 V
0 -95 V
144 -91 V
71 -92 V
72 -96 V
72 -91 V
72 -92 V
71 -92 V
72 -92 V
72 -86 V
71 -92 V
72 -93 V
72 -94 V
71 -84 V
72 -94 V
72 -82 V
71 -94 V
72 -79 V
72 -95 V
71 -83 V
72 -78 V
72 -65 V
72 -29 V
71 29 V
72 64 V
72 78 V
71 82 V
72 80 V
72 96 V
71 81 V
72 84 V
72 95 V
71 85 V
72 86 V
72 87 V
71 87 V
72 88 V
72 88 V
72 88 V
71 89 V
72 88 V
72 84 V
71 89 V
144 85 V
0 86 V
143 90 V
0 86 V
143 86 V
0 86 V
144 84 V
0 87 V
143 84 V
0 88 V
144 85 V
0 85 V
143 86 V
0 86 V
143 86 V
0 83 V
144 84 V
0 85 V
143 84 V
0 85 V
1032 4476 Crs
1032 4380 Crs
1175 4284 Crs
1175 4191 Crs
1319 4094 Crs
1319 4000 Crs
1462 3906 Crs
1462 3811 Crs
1606 3716 Crs
1606 3624 Crs
1749 3529 Crs
1749 3436 Crs
1892 3343 Crs
1892 3246 Crs
2036 3153 Crs
2036 3062 Crs
2179 2968 Crs
2179 2874 Crs
2322 2784 Crs
2322 2689 Crs
2466 2598 Crs
2537 2506 Crs
2609 2410 Crs
2681 2319 Crs
2753 2227 Crs
2824 2135 Crs
2896 2043 Crs
2968 1957 Crs
3039 1865 Crs
3111 1772 Crs
3183 1678 Crs
3254 1594 Crs
3326 1500 Crs
3398 1418 Crs
3469 1324 Crs
3541 1245 Crs
3613 1150 Crs
3684 1067 Crs
3756 989 Crs
3828 924 Crs
3900 895 Crs
3971 924 Crs
4043 988 Crs
4115 1066 Crs
4186 1148 Crs
4258 1228 Crs
4330 1324 Crs
4401 1405 Crs
4473 1489 Crs
4545 1584 Crs
4616 1669 Crs
4688 1755 Crs
4760 1842 Crs
4831 1929 Crs
4903 2017 Crs
4975 2105 Crs
5047 2193 Crs
5118 2282 Crs
5190 2370 Crs
5262 2454 Crs
5333 2543 Crs
5477 2628 Crs
5477 2714 Crs
5620 2804 Crs
5620 2890 Crs
5763 2976 Crs
5763 3062 Crs
5907 3146 Crs
5907 3233 Crs
6050 3317 Crs
6050 3405 Crs
6194 3490 Crs
6194 3575 Crs
6337 3661 Crs
6337 3747 Crs
6480 3833 Crs
6480 3916 Crs
6624 4000 Crs
6624 4085 Crs
6767 4169 Crs
6767 4254 Crs
6159 4556 Crs
% End plot #1
% Begin plot #2
1.500 UP
3.000 UL
LTb
0.00 0.00 1.00 C LCb setrgbcolor
5696 4196 M
[ [(Helvetica) 240.0 0.0 true true 0 (SF5)]
] -80.0 MRshow
/Helvetica findfont 240 scalefont setfont
1.500 UP
3.000 UL
LTb
0.00 0.00 1.00 C 5840 4196 M
639 0 V
1032 1112 M
0 -7 V
143 -7 V
0 -7 V
144 -6 V
0 -7 V
143 -7 V
0 -7 V
144 -7 V
0 -7 V
143 -6 V
0 -7 V
143 -7 V
0 -7 V
144 -6 V
0 -7 V
143 -7 V
0 -6 V
143 -7 V
0 -6 V
144 -7 V
71 -6 V
72 -6 V
72 -6 V
72 -6 V
71 -6 V
72 -6 V
72 -5 V
71 -5 V
72 -5 V
72 -5 V
71 -4 V
72 -5 V
72 -3 V
71 -4 V
72 -3 V
72 -2 V
71 -2 V
72 -1 V
72 -1 V
72 -1 V
71 1 V
72 1 V
72 1 V
71 2 V
72 3 V
72 3 V
71 3 V
72 4 V
72 5 V
71 5 V
72 5 V
72 6 V
71 5 V
72 7 V
72 6 V
72 7 V
71 7 V
72 7 V
72 7 V
71 7 V
144 8 V
0 8 V
143 8 V
0 8 V
143 8 V
0 8 V
144 8 V
0 9 V
143 8 V
0 9 V
144 9 V
0 9 V
143 8 V
0 9 V
143 9 V
0 9 V
144 10 V
0 9 V
143 9 V
0 9 V
1032 1112 BoxF
1032 1105 BoxF
1175 1098 BoxF
1175 1091 BoxF
1319 1085 BoxF
1319 1078 BoxF
1462 1071 BoxF
1462 1064 BoxF
1606 1057 BoxF
1606 1050 BoxF
1749 1044 BoxF
1749 1037 BoxF
1892 1030 BoxF
1892 1023 BoxF
2036 1017 BoxF
2036 1010 BoxF
2179 1003 BoxF
2179 997 BoxF
2322 990 BoxF
2322 984 BoxF
2466 977 BoxF
2537 971 BoxF
2609 965 BoxF
2681 959 BoxF
2753 953 BoxF
2824 947 BoxF
2896 941 BoxF
2968 936 BoxF
3039 931 BoxF
3111 926 BoxF
3183 921 BoxF
3254 917 BoxF
3326 912 BoxF
3398 909 BoxF
3469 905 BoxF
3541 902 BoxF
3613 900 BoxF
3684 898 BoxF
3756 897 BoxF
3828 896 BoxF
3900 895 BoxF
3971 896 BoxF
4043 897 BoxF
4115 898 BoxF
4186 900 BoxF
4258 903 BoxF
4330 906 BoxF
4401 909 BoxF
4473 913 BoxF
4545 918 BoxF
4616 923 BoxF
4688 928 BoxF
4760 934 BoxF
4831 939 BoxF
4903 946 BoxF
4975 952 BoxF
5047 959 BoxF
5118 966 BoxF
5190 973 BoxF
5262 980 BoxF
5333 987 BoxF
5477 995 BoxF
5477 1003 BoxF
5620 1011 BoxF
5620 1019 BoxF
5763 1027 BoxF
5763 1035 BoxF
5907 1043 BoxF
5907 1052 BoxF
6050 1060 BoxF
6050 1069 BoxF
6194 1078 BoxF
6194 1087 BoxF
6337 1095 BoxF
6337 1104 BoxF
6480 1113 BoxF
6480 1122 BoxF
6624 1132 BoxF
6624 1141 BoxF
6767 1150 BoxF
6767 1159 BoxF
6159 4196 BoxF
% End plot #2
% Begin plot #3
1.500 UP
3.000 UL
LTb
1.00 0.00 0.00 C LCb setrgbcolor
5696 3836 M
[ [(Helvetica) 240.0 0.0 true true 0 (SD4)]
] -80.0 MRshow
/Helvetica findfont 240 scalefont setfont
1.500 UP
3.000 UL
LTb
1.00 0.00 0.00 C 5840 3836 M
639 0 V
3498 4799 M
43 -435 V
72 -717 V
71 -719 V
72 -718 V
72 -710 V
72 -605 V
71 605 V
72 710 V
72 721 V
71 716 V
72 720 V
43 432 V
3541 4364 CircleF
3613 3647 CircleF
3684 2928 CircleF
3756 2210 CircleF
3828 1500 CircleF
3900 895 CircleF
3971 1500 CircleF
4043 2210 CircleF
4115 2931 CircleF
4186 3647 CircleF
4258 4367 CircleF
6159 3836 CircleF
% End plot #3
% Begin plot #4
1.500 UP
3.000 UL
LTb
1.00 0.65 0.00 C LCb setrgbcolor
5696 3476 M
[ [(Helvetica) 240.0 0.0 true true 0 (SF1)]
] -80.0 MRshow
/Helvetica findfont 240 scalefont setfont
1.500 UP
3.000 UL
LTb
1.00 0.65 0.00 C 5840 3476 M
639 0 V
1032 2276 M
0 -32 V
143 -39 V
0 -35 V
144 -41 V
0 -36 V
143 -38 V
0 -38 V
144 -33 V
0 -41 V
143 -35 V
0 -36 V
143 -37 V
0 -39 V
144 -32 V
0 -42 V
143 -35 V
0 -36 V
143 -37 V
0 -40 V
144 -41 V
71 -33 V
72 -34 V
72 -36 V
72 -38 V
71 -40 V
72 -43 V
72 -31 V
71 -33 V
72 -35 V
72 -40 V
71 -36 V
72 -35 V
72 -35 V
71 -34 V
72 -32 V
72 -31 V
71 -28 V
72 -22 V
72 -16 V
72 -6 V
71 6 V
72 16 V
72 23 V
71 27 V
72 31 V
72 33 V
71 34 V
72 36 V
72 35 V
71 35 V
72 39 V
72 35 V
71 33 V
72 46 V
72 42 V
72 26 V
71 38 V
72 48 V
72 33 V
71 43 V
144 30 V
0 39 V
143 46 V
0 36 V
143 42 V
0 33 V
144 39 V
0 38 V
143 44 V
0 35 V
144 41 V
0 40 V
143 38 V
0 38 V
143 42 V
0 35 V
144 40 V
0 39 V
143 43 V
0 37 V
1032 2276 TriUF
1032 2244 TriUF
1175 2205 TriUF
1175 2170 TriUF
1319 2129 TriUF
1319 2093 TriUF
1462 2055 TriUF
1462 2017 TriUF
1606 1984 TriUF
1606 1943 TriUF
1749 1908 TriUF
1749 1872 TriUF
1892 1835 TriUF
1892 1796 TriUF
2036 1764 TriUF
2036 1722 TriUF
2179 1687 TriUF
2179 1651 TriUF
2322 1614 TriUF
2322 1574 TriUF
2466 1533 TriUF
2537 1500 TriUF
2609 1466 TriUF
2681 1430 TriUF
2753 1392 TriUF
2824 1352 TriUF
2896 1309 TriUF
2968 1278 TriUF
3039 1245 TriUF
3111 1210 TriUF
3183 1170 TriUF
3254 1134 TriUF
3326 1099 TriUF
3398 1064 TriUF
3469 1030 TriUF
3541 998 TriUF
3613 967 TriUF
3684 939 TriUF
3756 917 TriUF
3828 901 TriUF
3900 895 TriUF
3971 901 TriUF
4043 917 TriUF
4115 940 TriUF
4186 967 TriUF
4258 998 TriUF
4330 1031 TriUF
4401 1065 TriUF
4473 1101 TriUF
4545 1136 TriUF
4616 1171 TriUF
4688 1210 TriUF
4760 1245 TriUF
4831 1278 TriUF
4903 1324 TriUF
4975 1366 TriUF
5047 1392 TriUF
5118 1430 TriUF
5190 1478 TriUF
5262 1511 TriUF
5333 1554 TriUF
5477 1584 TriUF
5477 1623 TriUF
5620 1669 TriUF
5620 1705 TriUF
5763 1747 TriUF
5763 1780 TriUF
5907 1819 TriUF
5907 1857 TriUF
6050 1901 TriUF
6050 1936 TriUF
6194 1977 TriUF
6194 2017 TriUF
6337 2055 TriUF
6337 2093 TriUF
6480 2135 TriUF
6480 2170 TriUF
6624 2210 TriUF
6624 2249 TriUF
6767 2292 TriUF
6767 2329 TriUF
6159 3476 TriUF
% End plot #4
% Begin plot #5
1.500 UP
3.000 UL
LTb
0.00 1.00 1.00 C LCb setrgbcolor
5696 3116 M
[ [(Helvetica) 240.0 0.0 true true 0 (SD0)]
] -80.0 MRshow
/Helvetica findfont 240 scalefont setfont
1.500 UP
3.000 UL
LTb
0.00 1.00 1.00 C 5840 3116 M
639 0 V
2723 4799 M
30 -102 V
71 -246 V
72 -244 V
72 -245 V
71 -246 V
72 -244 V
72 -245 V
71 -247 V
72 -245 V
72 -243 V
71 -248 V
72 -240 V
72 -249 V
71 -244 V
72 -233 V
72 -233 V
72 -150 V
71 150 V
72 233 V
72 233 V
71 244 V
72 249 V
72 240 V
71 248 V
72 243 V
72 245 V
71 247 V
72 242 V
72 247 V
71 244 V
72 245 V
72 246 V
72 246 V
29 102 V
2753 4697 DiaF
2824 4451 DiaF
2896 4207 DiaF
2968 3962 DiaF
3039 3716 DiaF
3111 3472 DiaF
3183 3227 DiaF
3254 2980 DiaF
3326 2735 DiaF
3398 2492 DiaF
3469 2244 DiaF
3541 2004 DiaF
3613 1755 DiaF
3684 1511 DiaF
3756 1278 DiaF
3828 1045 DiaF
3900 895 DiaF
3971 1045 DiaF
4043 1278 DiaF
4115 1511 DiaF
4186 1755 DiaF
4258 2004 DiaF
4330 2244 DiaF
4401 2492 DiaF
4473 2735 DiaF
4545 2980 DiaF
4616 3227 DiaF
4688 3469 DiaF
4760 3716 DiaF
4831 3960 DiaF
4903 4205 DiaF
4975 4451 DiaF
5047 4697 DiaF
6159 3116 DiaF
% End plot #5
2.000 UL
LTb
LCb setrgbcolor
1.000 UL
LTB
LCb setrgbcolor
1032 4799 N
0 -4031 V
5735 0 V
0 4031 V
-5735 0 V
Z stroke
1.000 UP
1.000 UL
LTb
LCb setrgbcolor
stroke
grestore
end
showpage
%%Trailer
%%DocumentFonts: Symbol Helvetica
