%!PS-Adobe-2.0 EPSF-2.0
%%Title: IPbety_SF6FF.eps
%%Creator: gnuplot 5.2 patchlevel 4
%%CreationDate: Sun Nov 25 23:58:18 2018
%%DocumentFonts: (atend)
%%BoundingBox: 50 50 410 302
%%EndComments
%%BeginProlog
/gnudict 256 dict def
gnudict begin
%
% The following true/false flags may be edited by hand if desired.
% The unit line width and grayscale image gamma correction may also be changed.
%
/Color true def
/Blacktext false def
/Solid false def
/Dashlength 1 def
/Landscape false def
/Level1 false def
/Level3 false def
/Rounded false def
/ClipToBoundingBox false def
/SuppressPDFMark false def
/TransparentPatterns false def
/gnulinewidth 5.000 def
/userlinewidth gnulinewidth def
/Gamma 1.0 def
/BackgroundColor {-1.000 -1.000 -1.000} def
%
/vshift -80 def
/dl1 {
  10.0 Dashlength userlinewidth gnulinewidth div mul mul mul
  Rounded { currentlinewidth 0.75 mul sub dup 0 le { pop 0.01 } if } if
} def
/dl2 {
  10.0 Dashlength userlinewidth gnulinewidth div mul mul mul
  Rounded { currentlinewidth 0.75 mul add } if
} def
/hpt_ 31.5 def
/vpt_ 31.5 def
/hpt hpt_ def
/vpt vpt_ def
/doclip {
  ClipToBoundingBox {
    newpath 50 50 moveto 410 50 lineto 410 302 lineto 50 302 lineto closepath
    clip
  } if
} def
%
% Gnuplot Prolog Version 5.2 (Dec 2017)
%
%/SuppressPDFMark true def
%
/M {moveto} bind def
/L {lineto} bind def
/R {rmoveto} bind def
/V {rlineto} bind def
/N {newpath moveto} bind def
/Z {closepath} bind def
/C {setrgbcolor} bind def
/f {rlineto fill} bind def
/g {setgray} bind def
/Gshow {show} def   % May be redefined later in the file to support UTF-8
/vpt2 vpt 2 mul def
/hpt2 hpt 2 mul def
/Lshow {currentpoint stroke M 0 vshift R 
	Blacktext {gsave 0 setgray textshow grestore} {textshow} ifelse} def
/Rshow {currentpoint stroke M dup stringwidth pop neg vshift R
	Blacktext {gsave 0 setgray textshow grestore} {textshow} ifelse} def
/Cshow {currentpoint stroke M dup stringwidth pop -2 div vshift R 
	Blacktext {gsave 0 setgray textshow grestore} {textshow} ifelse} def
/UP {dup vpt_ mul /vpt exch def hpt_ mul /hpt exch def
  /hpt2 hpt 2 mul def /vpt2 vpt 2 mul def} def
/DL {Color {setrgbcolor Solid {pop []} if 0 setdash}
 {pop pop pop 0 setgray Solid {pop []} if 0 setdash} ifelse} def
/BL {stroke userlinewidth 2 mul setlinewidth
	Rounded {1 setlinejoin 1 setlinecap} if} def
/AL {stroke userlinewidth 2 div setlinewidth
	Rounded {1 setlinejoin 1 setlinecap} if} def
/UL {dup gnulinewidth mul /userlinewidth exch def
	dup 1 lt {pop 1} if 10 mul /udl exch def} def
/PL {stroke userlinewidth setlinewidth
	Rounded {1 setlinejoin 1 setlinecap} if} def
3.8 setmiterlimit
% Classic Line colors (version 5.0)
/LCw {1 1 1} def
/LCb {0 0 0} def
/LCa {0 0 0} def
/LC0 {1 0 0} def
/LC1 {0 1 0} def
/LC2 {0 0 1} def
/LC3 {1 0 1} def
/LC4 {0 1 1} def
/LC5 {1 1 0} def
/LC6 {0 0 0} def
/LC7 {1 0.3 0} def
/LC8 {0.5 0.5 0.5} def
% Default dash patterns (version 5.0)
/LTB {BL [] LCb DL} def
/LTw {PL [] 1 setgray} def
/LTb {PL [] LCb DL} def
/LTa {AL [1 udl mul 2 udl mul] 0 setdash LCa setrgbcolor} def
/LT0 {PL [] LC0 DL} def
/LT1 {PL [2 dl1 3 dl2] LC1 DL} def
/LT2 {PL [1 dl1 1.5 dl2] LC2 DL} def
/LT3 {PL [6 dl1 2 dl2 1 dl1 2 dl2] LC3 DL} def
/LT4 {PL [1 dl1 2 dl2 6 dl1 2 dl2 1 dl1 2 dl2] LC4 DL} def
/LT5 {PL [4 dl1 2 dl2] LC5 DL} def
/LT6 {PL [1.5 dl1 1.5 dl2 1.5 dl1 1.5 dl2 1.5 dl1 6 dl2] LC6 DL} def
/LT7 {PL [3 dl1 3 dl2 1 dl1 3 dl2] LC7 DL} def
/LT8 {PL [2 dl1 2 dl2 2 dl1 6 dl2] LC8 DL} def
/SL {[] 0 setdash} def
/Pnt {stroke [] 0 setdash gsave 1 setlinecap M 0 0 V stroke grestore} def
/Dia {stroke [] 0 setdash 2 copy vpt add M
  hpt neg vpt neg V hpt vpt neg V
  hpt vpt V hpt neg vpt V closepath stroke
  Pnt} def
/Pls {stroke [] 0 setdash vpt sub M 0 vpt2 V
  currentpoint stroke M
  hpt neg vpt neg R hpt2 0 V stroke
 } def
/Box {stroke [] 0 setdash 2 copy exch hpt sub exch vpt add M
  0 vpt2 neg V hpt2 0 V 0 vpt2 V
  hpt2 neg 0 V closepath stroke
  Pnt} def
/Crs {stroke [] 0 setdash exch hpt sub exch vpt add M
  hpt2 vpt2 neg V currentpoint stroke M
  hpt2 neg 0 R hpt2 vpt2 V stroke} def
/TriU {stroke [] 0 setdash 2 copy vpt 1.12 mul add M
  hpt neg vpt -1.62 mul V
  hpt 2 mul 0 V
  hpt neg vpt 1.62 mul V closepath stroke
  Pnt} def
/Star {2 copy Pls Crs} def
/BoxF {stroke [] 0 setdash exch hpt sub exch vpt add M
  0 vpt2 neg V hpt2 0 V 0 vpt2 V
  hpt2 neg 0 V closepath fill} def
/TriUF {stroke [] 0 setdash vpt 1.12 mul add M
  hpt neg vpt -1.62 mul V
  hpt 2 mul 0 V
  hpt neg vpt 1.62 mul V closepath fill} def
/TriD {stroke [] 0 setdash 2 copy vpt 1.12 mul sub M
  hpt neg vpt 1.62 mul V
  hpt 2 mul 0 V
  hpt neg vpt -1.62 mul V closepath stroke
  Pnt} def
/TriDF {stroke [] 0 setdash vpt 1.12 mul sub M
  hpt neg vpt 1.62 mul V
  hpt 2 mul 0 V
  hpt neg vpt -1.62 mul V closepath fill} def
/DiaF {stroke [] 0 setdash vpt add M
  hpt neg vpt neg V hpt vpt neg V
  hpt vpt V hpt neg vpt V closepath fill} def
/Pent {stroke [] 0 setdash 2 copy gsave
  translate 0 hpt M 4 {72 rotate 0 hpt L} repeat
  closepath stroke grestore Pnt} def
/PentF {stroke [] 0 setdash gsave
  translate 0 hpt M 4 {72 rotate 0 hpt L} repeat
  closepath fill grestore} def
/Circle {stroke [] 0 setdash 2 copy
  hpt 0 360 arc stroke Pnt} def
/CircleF {stroke [] 0 setdash hpt 0 360 arc fill} def
/C0 {BL [] 0 setdash 2 copy moveto vpt 90 450 arc} bind def
/C1 {BL [] 0 setdash 2 copy moveto
	2 copy vpt 0 90 arc closepath fill
	vpt 0 360 arc closepath} bind def
/C2 {BL [] 0 setdash 2 copy moveto
	2 copy vpt 90 180 arc closepath fill
	vpt 0 360 arc closepath} bind def
/C3 {BL [] 0 setdash 2 copy moveto
	2 copy vpt 0 180 arc closepath fill
	vpt 0 360 arc closepath} bind def
/C4 {BL [] 0 setdash 2 copy moveto
	2 copy vpt 180 270 arc closepath fill
	vpt 0 360 arc closepath} bind def
/C5 {BL [] 0 setdash 2 copy moveto
	2 copy vpt 0 90 arc
	2 copy moveto
	2 copy vpt 180 270 arc closepath fill
	vpt 0 360 arc} bind def
/C6 {BL [] 0 setdash 2 copy moveto
	2 copy vpt 90 270 arc closepath fill
	vpt 0 360 arc closepath} bind def
/C7 {BL [] 0 setdash 2 copy moveto
	2 copy vpt 0 270 arc closepath fill
	vpt 0 360 arc closepath} bind def
/C8 {BL [] 0 setdash 2 copy moveto
	2 copy vpt 270 360 arc closepath fill
	vpt 0 360 arc closepath} bind def
/C9 {BL [] 0 setdash 2 copy moveto
	2 copy vpt 270 450 arc closepath fill
	vpt 0 360 arc closepath} bind def
/C10 {BL [] 0 setdash 2 copy 2 copy moveto vpt 270 360 arc closepath fill
	2 copy moveto
	2 copy vpt 90 180 arc closepath fill
	vpt 0 360 arc closepath} bind def
/C11 {BL [] 0 setdash 2 copy moveto
	2 copy vpt 0 180 arc closepath fill
	2 copy moveto
	2 copy vpt 270 360 arc closepath fill
	vpt 0 360 arc closepath} bind def
/C12 {BL [] 0 setdash 2 copy moveto
	2 copy vpt 180 360 arc closepath fill
	vpt 0 360 arc closepath} bind def
/C13 {BL [] 0 setdash 2 copy moveto
	2 copy vpt 0 90 arc closepath fill
	2 copy moveto
	2 copy vpt 180 360 arc closepath fill
	vpt 0 360 arc closepath} bind def
/C14 {BL [] 0 setdash 2 copy moveto
	2 copy vpt 90 360 arc closepath fill
	vpt 0 360 arc} bind def
/C15 {BL [] 0 setdash 2 copy vpt 0 360 arc closepath fill
	vpt 0 360 arc closepath} bind def
/Rec {newpath 4 2 roll moveto 1 index 0 rlineto 0 exch rlineto
	neg 0 rlineto closepath} bind def
/Square {dup Rec} bind def
/Bsquare {vpt sub exch vpt sub exch vpt2 Square} bind def
/S0 {BL [] 0 setdash 2 copy moveto 0 vpt rlineto BL Bsquare} bind def
/S1 {BL [] 0 setdash 2 copy vpt Square fill Bsquare} bind def
/S2 {BL [] 0 setdash 2 copy exch vpt sub exch vpt Square fill Bsquare} bind def
/S3 {BL [] 0 setdash 2 copy exch vpt sub exch vpt2 vpt Rec fill Bsquare} bind def
/S4 {BL [] 0 setdash 2 copy exch vpt sub exch vpt sub vpt Square fill Bsquare} bind def
/S5 {BL [] 0 setdash 2 copy 2 copy vpt Square fill
	exch vpt sub exch vpt sub vpt Square fill Bsquare} bind def
/S6 {BL [] 0 setdash 2 copy exch vpt sub exch vpt sub vpt vpt2 Rec fill Bsquare} bind def
/S7 {BL [] 0 setdash 2 copy exch vpt sub exch vpt sub vpt vpt2 Rec fill
	2 copy vpt Square fill Bsquare} bind def
/S8 {BL [] 0 setdash 2 copy vpt sub vpt Square fill Bsquare} bind def
/S9 {BL [] 0 setdash 2 copy vpt sub vpt vpt2 Rec fill Bsquare} bind def
/S10 {BL [] 0 setdash 2 copy vpt sub vpt Square fill 2 copy exch vpt sub exch vpt Square fill
	Bsquare} bind def
/S11 {BL [] 0 setdash 2 copy vpt sub vpt Square fill 2 copy exch vpt sub exch vpt2 vpt Rec fill
	Bsquare} bind def
/S12 {BL [] 0 setdash 2 copy exch vpt sub exch vpt sub vpt2 vpt Rec fill Bsquare} bind def
/S13 {BL [] 0 setdash 2 copy exch vpt sub exch vpt sub vpt2 vpt Rec fill
	2 copy vpt Square fill Bsquare} bind def
/S14 {BL [] 0 setdash 2 copy exch vpt sub exch vpt sub vpt2 vpt Rec fill
	2 copy exch vpt sub exch vpt Square fill Bsquare} bind def
/S15 {BL [] 0 setdash 2 copy Bsquare fill Bsquare} bind def
/D0 {gsave translate 45 rotate 0 0 S0 stroke grestore} bind def
/D1 {gsave translate 45 rotate 0 0 S1 stroke grestore} bind def
/D2 {gsave translate 45 rotate 0 0 S2 stroke grestore} bind def
/D3 {gsave translate 45 rotate 0 0 S3 stroke grestore} bind def
/D4 {gsave translate 45 rotate 0 0 S4 stroke grestore} bind def
/D5 {gsave translate 45 rotate 0 0 S5 stroke grestore} bind def
/D6 {gsave translate 45 rotate 0 0 S6 stroke grestore} bind def
/D7 {gsave translate 45 rotate 0 0 S7 stroke grestore} bind def
/D8 {gsave translate 45 rotate 0 0 S8 stroke grestore} bind def
/D9 {gsave translate 45 rotate 0 0 S9 stroke grestore} bind def
/D10 {gsave translate 45 rotate 0 0 S10 stroke grestore} bind def
/D11 {gsave translate 45 rotate 0 0 S11 stroke grestore} bind def
/D12 {gsave translate 45 rotate 0 0 S12 stroke grestore} bind def
/D13 {gsave translate 45 rotate 0 0 S13 stroke grestore} bind def
/D14 {gsave translate 45 rotate 0 0 S14 stroke grestore} bind def
/D15 {gsave translate 45 rotate 0 0 S15 stroke grestore} bind def
/DiaE {stroke [] 0 setdash vpt add M
  hpt neg vpt neg V hpt vpt neg V
  hpt vpt V hpt neg vpt V closepath stroke} def
/BoxE {stroke [] 0 setdash exch hpt sub exch vpt add M
  0 vpt2 neg V hpt2 0 V 0 vpt2 V
  hpt2 neg 0 V closepath stroke} def
/TriUE {stroke [] 0 setdash vpt 1.12 mul add M
  hpt neg vpt -1.62 mul V
  hpt 2 mul 0 V
  hpt neg vpt 1.62 mul V closepath stroke} def
/TriDE {stroke [] 0 setdash vpt 1.12 mul sub M
  hpt neg vpt 1.62 mul V
  hpt 2 mul 0 V
  hpt neg vpt -1.62 mul V closepath stroke} def
/PentE {stroke [] 0 setdash gsave
  translate 0 hpt M 4 {72 rotate 0 hpt L} repeat
  closepath stroke grestore} def
/CircE {stroke [] 0 setdash 
  hpt 0 360 arc stroke} def
/Opaque {gsave closepath 1 setgray fill grestore 0 setgray closepath} def
/DiaW {stroke [] 0 setdash vpt add M
  hpt neg vpt neg V hpt vpt neg V
  hpt vpt V hpt neg vpt V Opaque stroke} def
/BoxW {stroke [] 0 setdash exch hpt sub exch vpt add M
  0 vpt2 neg V hpt2 0 V 0 vpt2 V
  hpt2 neg 0 V Opaque stroke} def
/TriUW {stroke [] 0 setdash vpt 1.12 mul add M
  hpt neg vpt -1.62 mul V
  hpt 2 mul 0 V
  hpt neg vpt 1.62 mul V Opaque stroke} def
/TriDW {stroke [] 0 setdash vpt 1.12 mul sub M
  hpt neg vpt 1.62 mul V
  hpt 2 mul 0 V
  hpt neg vpt -1.62 mul V Opaque stroke} def
/PentW {stroke [] 0 setdash gsave
  translate 0 hpt M 4 {72 rotate 0 hpt L} repeat
  Opaque stroke grestore} def
/CircW {stroke [] 0 setdash 
  hpt 0 360 arc Opaque stroke} def
/BoxFill {gsave Rec 1 setgray fill grestore} def
/Density {
  /Fillden exch def
  currentrgbcolor
  /ColB exch def /ColG exch def /ColR exch def
  /ColR ColR Fillden mul Fillden sub 1 add def
  /ColG ColG Fillden mul Fillden sub 1 add def
  /ColB ColB Fillden mul Fillden sub 1 add def
  ColR ColG ColB setrgbcolor} def
/BoxColFill {gsave Rec PolyFill} def
/PolyFill {gsave Density fill grestore grestore} def
/h {rlineto rlineto rlineto closepath gsave fill grestore stroke} bind def
%
% PostScript Level 1 Pattern Fill routine for rectangles
% Usage: x y w h s a XX PatternFill
%	x,y = lower left corner of box to be filled
%	w,h = width and height of box
%	  a = angle in degrees between lines and x-axis
%	 XX = 0/1 for no/yes cross-hatch
%
/PatternFill {gsave /PFa [ 9 2 roll ] def
  PFa 0 get PFa 2 get 2 div add PFa 1 get PFa 3 get 2 div add translate
  PFa 2 get -2 div PFa 3 get -2 div PFa 2 get PFa 3 get Rec
  TransparentPatterns {} {gsave 1 setgray fill grestore} ifelse
  clip
  currentlinewidth 0.5 mul setlinewidth
  /PFs PFa 2 get dup mul PFa 3 get dup mul add sqrt def
  0 0 M PFa 5 get rotate PFs -2 div dup translate
  0 1 PFs PFa 4 get div 1 add floor cvi
	{PFa 4 get mul 0 M 0 PFs V} for
  0 PFa 6 get ne {
	0 1 PFs PFa 4 get div 1 add floor cvi
	{PFa 4 get mul 0 2 1 roll M PFs 0 V} for
 } if
  stroke grestore} def
%
/languagelevel where
 {pop languagelevel} {1} ifelse
dup 2 lt
	{/InterpretLevel1 true def
	 /InterpretLevel3 false def}
	{/InterpretLevel1 Level1 def
	 2 gt
	    {/InterpretLevel3 Level3 def}
	    {/InterpretLevel3 false def}
	 ifelse }
 ifelse
%
% PostScript level 2 pattern fill definitions
%
/Level2PatternFill {
/Tile8x8 {/PaintType 2 /PatternType 1 /TilingType 1 /BBox [0 0 8 8] /XStep 8 /YStep 8}
	bind def
/KeepColor {currentrgbcolor [/Pattern /DeviceRGB] setcolorspace} bind def
<< Tile8x8
 /PaintProc {0.5 setlinewidth pop 0 0 M 8 8 L 0 8 M 8 0 L stroke} 
>> matrix makepattern
/Pat1 exch def
<< Tile8x8
 /PaintProc {0.5 setlinewidth pop 0 0 M 8 8 L 0 8 M 8 0 L stroke
	0 4 M 4 8 L 8 4 L 4 0 L 0 4 L stroke}
>> matrix makepattern
/Pat2 exch def
<< Tile8x8
 /PaintProc {0.5 setlinewidth pop 0 0 M 0 8 L
	8 8 L 8 0 L 0 0 L fill}
>> matrix makepattern
/Pat3 exch def
<< Tile8x8
 /PaintProc {0.5 setlinewidth pop -4 8 M 8 -4 L
	0 12 M 12 0 L stroke}
>> matrix makepattern
/Pat4 exch def
<< Tile8x8
 /PaintProc {0.5 setlinewidth pop -4 0 M 8 12 L
	0 -4 M 12 8 L stroke}
>> matrix makepattern
/Pat5 exch def
<< Tile8x8
 /PaintProc {0.5 setlinewidth pop -2 8 M 4 -4 L
	0 12 M 8 -4 L 4 12 M 10 0 L stroke}
>> matrix makepattern
/Pat6 exch def
<< Tile8x8
 /PaintProc {0.5 setlinewidth pop -2 0 M 4 12 L
	0 -4 M 8 12 L 4 -4 M 10 8 L stroke}
>> matrix makepattern
/Pat7 exch def
<< Tile8x8
 /PaintProc {0.5 setlinewidth pop 8 -2 M -4 4 L
	12 0 M -4 8 L 12 4 M 0 10 L stroke}
>> matrix makepattern
/Pat8 exch def
<< Tile8x8
 /PaintProc {0.5 setlinewidth pop 0 -2 M 12 4 L
	-4 0 M 12 8 L -4 4 M 8 10 L stroke}
>> matrix makepattern
/Pat9 exch def
/Pattern1 {PatternBgnd KeepColor Pat1 setpattern} bind def
/Pattern2 {PatternBgnd KeepColor Pat2 setpattern} bind def
/Pattern3 {PatternBgnd KeepColor Pat3 setpattern} bind def
/Pattern4 {PatternBgnd KeepColor Landscape {Pat5} {Pat4} ifelse setpattern} bind def
/Pattern5 {PatternBgnd KeepColor Landscape {Pat4} {Pat5} ifelse setpattern} bind def
/Pattern6 {PatternBgnd KeepColor Landscape {Pat9} {Pat6} ifelse setpattern} bind def
/Pattern7 {PatternBgnd KeepColor Landscape {Pat8} {Pat7} ifelse setpattern} bind def
} def
%
%
%End of PostScript Level 2 code
%
/PatternBgnd {
  TransparentPatterns {} {gsave 1 setgray fill grestore} ifelse
} def
%
% Substitute for Level 2 pattern fill codes with
% grayscale if Level 2 support is not selected.
%
/Level1PatternFill {
/Pattern1 {0.250 Density} bind def
/Pattern2 {0.500 Density} bind def
/Pattern3 {0.750 Density} bind def
/Pattern4 {0.125 Density} bind def
/Pattern5 {0.375 Density} bind def
/Pattern6 {0.625 Density} bind def
/Pattern7 {0.875 Density} bind def
} def
%
% Now test for support of Level 2 code
%
Level1 {Level1PatternFill} {Level2PatternFill} ifelse
%
/Symbol-Oblique /Symbol findfont [1 0 .167 1 0 0] makefont
dup length dict begin {1 index /FID eq {pop pop} {def} ifelse} forall
currentdict end definefont pop
%
/Metrics {ExtendTextBox Gswidth} def
/Lwidth {currentpoint stroke M 0 vshift R Metrics} def
/Rwidth {currentpoint stroke M dup stringwidth pop neg vshift R Metrics} def
/Cwidth {currentpoint stroke M dup stringwidth pop -2 div vshift R Metrics} def
/GLwidth {currentpoint stroke M 0 vshift R {ExtendTextBox} forall} def
/GRwidth {currentpoint stroke M dup Gwidth vshift R {ExtendTextBox} forall} def
/GCwidth {currentpoint stroke M dup Gwidth 2 div vshift R {ExtendTextBox} forall} def
/GLwidth2 {0 Gwidth AddGlyphWidth} def
/GRwidth2 {Gwidth -1 mul 0 AddGlyphWidth} def
/GCwidth2 {Gwidth 2 div dup -1 mul AddGlyphWidth} def
/AddGlyphWidth { dup TBx2 gt {userdict /TBx2 3 -1 roll put} {pop} ifelse
                 dup TBx1 lt {userdict /TBx1 3 -1 roll put} {pop} ifelse } def
/MFshow {
   { dup 5 get 3 ge
     { 5 get 3 eq {gsave} {grestore} ifelse }
     {dup dup 0 get findfont exch 1 get scalefont setfont
     [ currentpoint ] exch dup 2 get 0 exch R dup 5 get 2 ne {dup dup 6
     get exch 4 get {textshow} {Metrics pop 0 R} ifelse }if dup 5 get 0 eq
     {dup 3 get {2 get neg 0 exch R pop} {pop aload pop M} ifelse} {dup 5
     get 1 eq {dup 2 get exch dup 3 get exch 6 get Gswidth pop -2 div
     dup 0 R} {dup 6 get Gswidth pop -2 div 0 R 6 get
     textshow 2 index {aload pop M neg 3 -1 roll neg R pop pop} {pop pop pop
     pop aload pop M} ifelse }ifelse }ifelse }
     ifelse }
   forall} def
/Gswidth {dup type /stringtype eq {stringwidth} {pop (n) stringwidth} ifelse} def
/MFwidth {0 exch { dup 5 get 3 ge { 5 get 3 eq { 0 } { pop } ifelse }
 {dup 3 get{dup dup 0 get findfont exch 1 get scalefont setfont
     6 get Gswidth pop add} {pop} ifelse} ifelse} forall} def
/MLshow { currentpoint stroke M
  0 exch R
  Blacktext {gsave 0 setgray MFshow grestore} {MFshow} ifelse } bind def
/MRshow { currentpoint stroke M
  exch dup MFwidth neg 3 -1 roll R
  Blacktext {gsave 0 setgray MFshow grestore} {MFshow} ifelse } bind def
/MCshow { currentpoint stroke M
  exch dup MFwidth -2 div 3 -1 roll R
  Blacktext {gsave 0 setgray MFshow grestore} {MFshow} ifelse } bind def
/XYsave    { [( ) 1 2 true false 3 ()] } bind def
/XYrestore { [( ) 1 2 true false 4 ()] } bind def
Level1 SuppressPDFMark or 
{} {
/SDict 10 dict def
systemdict /pdfmark known not {
  userdict /pdfmark systemdict /cleartomark get put
} if
SDict begin [
  /Title (IPbety_SF6FF.eps)
  /Subject (gnuplot plot)
  /Creator (gnuplot 5.2 patchlevel 4)
%  /Producer (gnuplot)
%  /Keywords ()
  /CreationDate (Sun Nov 25 23:58:18 2018)
  /DOCINFO pdfmark
end
} ifelse
%
% Support for boxed text - Ethan A Merritt Sep 2016
%
/InitTextBox { userdict /TBy2 3 -1 roll put userdict /TBx2 3 -1 roll put
           userdict /TBy1 3 -1 roll put userdict /TBx1 3 -1 roll put
	   /Boxing true def } def
/ExtendTextBox { dup type /stringtype eq
    { Boxing { gsave dup false charpath pathbbox
      dup TBy2 gt {userdict /TBy2 3 -1 roll put} {pop} ifelse
      dup TBx2 gt {userdict /TBx2 3 -1 roll put} {pop} ifelse
      dup TBy1 lt {userdict /TBy1 3 -1 roll put} {pop} ifelse
      dup TBx1 lt {userdict /TBx1 3 -1 roll put} {pop} ifelse
      grestore } if }
    {} ifelse} def
/PopTextBox { newpath TBx1 TBxmargin sub TBy1 TBymargin sub M
               TBx1 TBxmargin sub TBy2 TBymargin add L
	       TBx2 TBxmargin add TBy2 TBymargin add L
	       TBx2 TBxmargin add TBy1 TBymargin sub L closepath } def
/DrawTextBox { PopTextBox stroke /Boxing false def} def
/FillTextBox { gsave PopTextBox fill grestore /Boxing false def} def
0 0 0 0 InitTextBox
/TBxmargin 20 def
/TBymargin 20 def
/Boxing false def
/textshow { ExtendTextBox Gshow } def
%
end
%%EndProlog
%%Page: 1 1
gnudict begin
gsave
doclip
50 50 translate
0.050 0.050 scale
0 setgray
newpath
(Helvetica) findfont 240 scalefont setfont
BackgroundColor 0 lt 3 1 roll 0 lt exch 0 lt or or not {BackgroundColor C 1.000 0 0 7200.00 5040.00 BoxColFill} if
1.000 UL
LTb
LCb setrgbcolor
1176 768 M
63 0 V
5528 0 R
-63 0 V
stroke
1032 768 M
[ [(Helvetica) 240.0 0.0 true true 0 ( 0.3)]
] -80.0 MRshow
/Helvetica findfont 240 scalefont setfont
/vshift -80 def
1.000 UL
LTb
LCb setrgbcolor
1176 1216 M
63 0 V
5528 0 R
-63 0 V
stroke
1032 1216 M
[ [(Helvetica) 240.0 0.0 true true 0 ( 0.4)]
] -80.0 MRshow
/Helvetica findfont 240 scalefont setfont
1.000 UL
LTb
LCb setrgbcolor
1176 1664 M
63 0 V
5528 0 R
-63 0 V
stroke
1032 1664 M
[ [(Helvetica) 240.0 0.0 true true 0 ( 0.5)]
] -80.0 MRshow
/Helvetica findfont 240 scalefont setfont
1.000 UL
LTb
LCb setrgbcolor
1176 2112 M
63 0 V
5528 0 R
-63 0 V
stroke
1032 2112 M
[ [(Helvetica) 240.0 0.0 true true 0 ( 0.6)]
] -80.0 MRshow
/Helvetica findfont 240 scalefont setfont
1.000 UL
LTb
LCb setrgbcolor
1176 2560 M
63 0 V
5528 0 R
-63 0 V
stroke
1032 2560 M
[ [(Helvetica) 240.0 0.0 true true 0 ( 0.7)]
] -80.0 MRshow
/Helvetica findfont 240 scalefont setfont
1.000 UL
LTb
LCb setrgbcolor
1176 3007 M
63 0 V
5528 0 R
-63 0 V
stroke
1032 3007 M
[ [(Helvetica) 240.0 0.0 true true 0 ( 0.8)]
] -80.0 MRshow
/Helvetica findfont 240 scalefont setfont
1.000 UL
LTb
LCb setrgbcolor
1176 3455 M
63 0 V
5528 0 R
-63 0 V
stroke
1032 3455 M
[ [(Helvetica) 240.0 0.0 true true 0 ( 0.9)]
] -80.0 MRshow
/Helvetica findfont 240 scalefont setfont
1.000 UL
LTb
LCb setrgbcolor
1176 3903 M
63 0 V
5528 0 R
-63 0 V
stroke
1032 3903 M
[ [(Helvetica) 240.0 0.0 true true 0 ( 1)]
] -80.0 MRshow
/Helvetica findfont 240 scalefont setfont
1.000 UL
LTb
LCb setrgbcolor
1176 4351 M
63 0 V
5528 0 R
-63 0 V
stroke
1032 4351 M
[ [(Helvetica) 240.0 0.0 true true 0 ( 1.1)]
] -80.0 MRshow
/Helvetica findfont 240 scalefont setfont
1.000 UL
LTb
LCb setrgbcolor
1176 4799 M
63 0 V
5528 0 R
-63 0 V
stroke
1032 4799 M
[ [(Helvetica) 240.0 0.0 true true 0 ( 1.2)]
] -80.0 MRshow
/Helvetica findfont 240 scalefont setfont
1.000 UL
LTb
LCb setrgbcolor
1176 768 M
0 63 V
0 3968 R
0 -63 V
stroke
1176 528 M
[ [(Helvetica) 240.0 0.0 true true 0 (-4)]
] -80.0 MCshow
/Helvetica findfont 240 scalefont setfont
1.000 UL
LTb
LCb setrgbcolor
1875 768 M
0 63 V
0 3968 R
0 -63 V
stroke
1875 528 M
[ [(Helvetica) 240.0 0.0 true true 0 (-3)]
] -80.0 MCshow
/Helvetica findfont 240 scalefont setfont
1.000 UL
LTb
LCb setrgbcolor
2574 768 M
0 63 V
0 3968 R
0 -63 V
stroke
2574 528 M
[ [(Helvetica) 240.0 0.0 true true 0 (-2)]
] -80.0 MCshow
/Helvetica findfont 240 scalefont setfont
1.000 UL
LTb
LCb setrgbcolor
3273 768 M
0 63 V
0 3968 R
0 -63 V
stroke
3273 528 M
[ [(Helvetica) 240.0 0.0 true true 0 (-1)]
] -80.0 MCshow
/Helvetica findfont 240 scalefont setfont
1.000 UL
LTb
LCb setrgbcolor
3972 768 M
0 63 V
0 3968 R
0 -63 V
stroke
3972 528 M
[ [(Helvetica) 240.0 0.0 true true 0 ( 0)]
] -80.0 MCshow
/Helvetica findfont 240 scalefont setfont
1.000 UL
LTb
LCb setrgbcolor
4670 768 M
0 63 V
0 3968 R
0 -63 V
stroke
4670 528 M
[ [(Helvetica) 240.0 0.0 true true 0 ( 1)]
] -80.0 MCshow
/Helvetica findfont 240 scalefont setfont
1.000 UL
LTb
LCb setrgbcolor
5369 768 M
0 63 V
0 3968 R
0 -63 V
stroke
5369 528 M
[ [(Helvetica) 240.0 0.0 true true 0 ( 2)]
] -80.0 MCshow
/Helvetica findfont 240 scalefont setfont
1.000 UL
LTb
LCb setrgbcolor
6068 768 M
0 63 V
0 3968 R
0 -63 V
stroke
6068 528 M
[ [(Helvetica) 240.0 0.0 true true 0 ( 3)]
] -80.0 MCshow
/Helvetica findfont 240 scalefont setfont
1.000 UL
LTb
LCb setrgbcolor
6767 768 M
0 63 V
0 3968 R
0 -63 V
stroke
6767 528 M
[ [(Helvetica) 240.0 0.0 true true 0 ( 4)]
] -80.0 MCshow
/Helvetica findfont 240 scalefont setfont
1.000 UL
LTb
LCb setrgbcolor
1.000 UL
LTB
LCb setrgbcolor
1176 4799 N
0 -4031 V
5591 0 V
0 4031 V
-5591 0 V
Z stroke
1.000 UP
1.000 UL
LTb
LCb setrgbcolor
LCb setrgbcolor
216 2783 M
currentpoint gsave translate -270 rotate 0 0 moveto
[ [(Symbol) 240.0 0.0 true true 0 (b)]
[(Helvetica) 192.0 -72.0 true true 0 (y)]
[(Helvetica) 192.0 120.0 true true 0 (1/2)]
[(Helvetica) 240.0 0.0 true true 0 (  [mm])]
] -80.0 MCshow
grestore
/Helvetica findfont 240 scalefont setfont
LTb
LCb setrgbcolor
3971 168 M
[ [(Symbol) 240.0 0.0 true true 0 (D)]
[(Helvetica) 240.0 0.0 true true 0 (y [mm])]
] -80.0 MCshow
/Helvetica findfont 240 scalefont setfont
LTb
% Begin plot #1
1.500 UP
1.000 UL
LTb
0.00 0.00 0.00 C LCb setrgbcolor
3724 4556 M
[ [(Helvetica) 240.0 0.0 true true 0 (SF6)]
] -80.0 MRshow
/Helvetica findfont 240 scalefont setfont
1.500 UP
1.000 UL
LTb
0.00 0.00 0.00 C 1176 4531 Crs
1246 4122 Crs
1316 3903 Crs
1386 3788 Crs
1456 3581 Crs
1525 3381 Crs
1595 3187 Crs
1665 3001 Crs
1735 2822 Crs
1805 2651 Crs
1875 2487 Crs
1945 2330 Crs
2015 2181 Crs
2085 2041 Crs
2154 1908 Crs
2224 1783 Crs
2294 1667 Crs
2364 1558 Crs
2434 1459 Crs
2504 1368 Crs
2574 1285 Crs
2644 1211 Crs
2714 1145 Crs
2783 1088 Crs
2853 1038 Crs
2923 995 Crs
2993 959 Crs
3063 930 Crs
3133 906 Crs
3203 887 Crs
3273 872 Crs
3343 862 Crs
3412 854 Crs
3482 848 Crs
3552 845 Crs
3622 843 Crs
3692 842 Crs
3762 841 Crs
3832 841 Crs
3902 841 Crs
3972 841 Crs
4041 841 Crs
4111 841 Crs
4181 841 Crs
4251 842 Crs
4321 843 Crs
4391 845 Crs
4461 848 Crs
4531 854 Crs
4600 861 Crs
4670 872 Crs
4740 887 Crs
4810 905 Crs
4880 929 Crs
4950 958 Crs
5020 994 Crs
5090 1036 Crs
5160 1086 Crs
5229 1143 Crs
5299 1208 Crs
5369 1281 Crs
5439 1363 Crs
5509 1453 Crs
5579 1551 Crs
5649 1658 Crs
5719 1773 Crs
5789 1896 Crs
5858 2027 Crs
5928 2166 Crs
5998 2313 Crs
6068 2467 Crs
6138 2629 Crs
6208 2798 Crs
6278 2975 Crs
6348 3158 Crs
6418 3348 Crs
6487 3546 Crs
6557 3750 Crs
6627 3903 Crs
6697 4122 Crs
6767 4331 Crs
4187 4556 Crs
% End plot #1
% Begin plot #2
1.500 UP
1.000 UL
LTb
0.00 0.00 1.00 C LCb setrgbcolor
3724 4196 M
[ [(Helvetica) 240.0 0.0 true true 0 (SF5)]
] -80.0 MRshow
/Helvetica findfont 240 scalefont setfont
1.500 UP
1.000 UL
LTb
0.00 0.00 1.00 C 1176 1235 BoxF
1246 1201 BoxF
1316 1168 BoxF
1386 1138 BoxF
1456 1110 BoxF
1525 1083 BoxF
1595 1058 BoxF
1665 1035 BoxF
1735 1014 BoxF
1805 994 BoxF
1875 976 BoxF
1945 960 BoxF
2015 945 BoxF
2085 931 BoxF
2154 919 BoxF
2224 908 BoxF
2294 898 BoxF
2364 889 BoxF
2434 881 BoxF
2504 874 BoxF
2574 868 BoxF
2644 863 BoxF
2714 859 BoxF
2783 855 BoxF
2853 852 BoxF
2923 850 BoxF
2993 847 BoxF
3063 846 BoxF
3133 844 BoxF
3203 843 BoxF
3273 842 BoxF
3343 842 BoxF
3412 841 BoxF
3482 841 BoxF
3552 841 BoxF
3622 841 BoxF
3692 841 BoxF
3762 841 BoxF
3832 841 BoxF
3902 841 BoxF
3972 841 BoxF
4041 841 BoxF
4111 841 BoxF
4181 841 BoxF
4251 841 BoxF
4321 841 BoxF
4391 841 BoxF
4461 841 BoxF
4531 841 BoxF
4600 842 BoxF
4670 842 BoxF
4740 843 BoxF
4810 844 BoxF
4880 846 BoxF
4950 847 BoxF
5020 850 BoxF
5090 852 BoxF
5160 855 BoxF
5229 859 BoxF
5299 863 BoxF
5369 869 BoxF
5439 874 BoxF
5509 881 BoxF
5579 889 BoxF
5649 898 BoxF
5719 908 BoxF
5789 919 BoxF
5858 931 BoxF
5928 945 BoxF
5998 960 BoxF
6068 976 BoxF
6138 994 BoxF
6208 1014 BoxF
6278 1035 BoxF
6348 1059 BoxF
6418 1083 BoxF
6487 1110 BoxF
6557 1138 BoxF
6627 1169 BoxF
6697 1201 BoxF
6767 1235 BoxF
4187 4196 BoxF
% End plot #2
% Begin plot #3
1.500 UP
1.000 UL
LTb
1.00 0.00 0.00 C LCb setrgbcolor
3724 3836 M
[ [(Helvetica) 240.0 0.0 true true 0 (SD4)]
] -80.0 MRshow
/Helvetica findfont 240 scalefont setfont
1.500 UP
1.000 UL
LTb
1.00 0.00 0.00 C 1176 3537 CircleF
1246 3357 CircleF
1316 3182 CircleF
1386 3013 CircleF
1456 2850 CircleF
1525 2694 CircleF
1595 2544 CircleF
1665 2399 CircleF
1735 2262 CircleF
1805 2131 CircleF
1875 2006 CircleF
1945 1888 CircleF
2015 1776 CircleF
2085 1672 CircleF
2154 1574 CircleF
2224 1483 CircleF
2294 1399 CircleF
2364 1322 CircleF
2434 1252 CircleF
2504 1189 CircleF
2574 1132 CircleF
2644 1081 CircleF
2714 1037 CircleF
2783 999 CircleF
2853 966 CircleF
2923 938 CircleF
2993 915 CircleF
3063 896 CircleF
3133 881 CircleF
3203 869 CircleF
3273 860 CircleF
3343 854 CircleF
3412 849 CircleF
3482 845 CircleF
3552 843 CircleF
3622 842 CircleF
3692 841 CircleF
3762 841 CircleF
3832 841 CircleF
3902 841 CircleF
3972 841 CircleF
4041 841 CircleF
4111 841 CircleF
4181 841 CircleF
4251 841 CircleF
4321 842 CircleF
4391 843 CircleF
4461 845 CircleF
4531 849 CircleF
4600 853 CircleF
4670 860 CircleF
4740 869 CircleF
4810 880 CircleF
4880 895 CircleF
4950 913 CircleF
5020 936 CircleF
5090 962 CircleF
5160 994 CircleF
5229 1031 CircleF
5299 1073 CircleF
5369 1121 CircleF
5439 1176 CircleF
5509 1237 CircleF
5579 1304 CircleF
5649 1377 CircleF
5719 1457 CircleF
5789 1544 CircleF
5858 1637 CircleF
5928 1736 CircleF
5998 1842 CircleF
6068 1954 CircleF
6138 2072 CircleF
6208 2197 CircleF
6278 2327 CircleF
6348 2463 CircleF
6418 2605 CircleF
6487 2753 CircleF
6557 2907 CircleF
6627 3066 CircleF
6697 3230 CircleF
6767 3400 CircleF
4187 3836 CircleF
% End plot #3
% Begin plot #4
1.500 UP
1.000 UL
LTb
1.00 0.65 0.00 C LCb setrgbcolor
3724 3476 M
[ [(Helvetica) 240.0 0.0 true true 0 (SF1)]
] -80.0 MRshow
/Helvetica findfont 240 scalefont setfont
1.500 UP
1.000 UL
LTb
1.00 0.65 0.00 C 1176 1245 TriUF
1246 1210 TriUF
1316 1177 TriUF
1386 1146 TriUF
1456 1117 TriUF
1525 1089 TriUF
1595 1064 TriUF
1665 1040 TriUF
1735 1019 TriUF
1805 998 TriUF
1875 980 TriUF
1945 963 TriUF
2015 947 TriUF
2085 933 TriUF
2154 921 TriUF
2224 909 TriUF
2294 899 TriUF
2364 890 TriUF
2434 882 TriUF
2504 875 TriUF
2574 869 TriUF
2644 864 TriUF
2714 859 TriUF
2783 856 TriUF
2853 852 TriUF
2923 850 TriUF
2993 848 TriUF
3063 846 TriUF
3133 844 TriUF
3203 843 TriUF
3273 842 TriUF
3343 842 TriUF
3412 841 TriUF
3482 841 TriUF
3552 841 TriUF
3622 841 TriUF
3692 841 TriUF
3762 841 TriUF
3832 841 TriUF
3902 841 TriUF
3972 841 TriUF
4041 841 TriUF
4111 841 TriUF
4181 841 TriUF
4251 841 TriUF
4321 841 TriUF
4391 841 TriUF
4461 841 TriUF
4531 841 TriUF
4600 842 TriUF
4670 842 TriUF
4740 843 TriUF
4810 844 TriUF
4880 846 TriUF
4950 848 TriUF
5020 850 TriUF
5090 852 TriUF
5160 856 TriUF
5229 859 TriUF
5299 864 TriUF
5369 869 TriUF
5439 875 TriUF
5509 882 TriUF
5579 890 TriUF
5649 899 TriUF
5719 910 TriUF
5789 921 TriUF
5858 934 TriUF
5928 948 TriUF
5998 963 TriUF
6068 980 TriUF
6138 999 TriUF
6208 1019 TriUF
6278 1041 TriUF
6348 1064 TriUF
6418 1090 TriUF
6487 1117 TriUF
6557 1146 TriUF
6627 1177 TriUF
6697 1210 TriUF
6767 1245 TriUF
4187 3476 TriUF
% End plot #4
% Begin plot #5
1.500 UP
1.000 UL
LTb
0.00 1.00 1.00 C LCb setrgbcolor
3724 3116 M
[ [(Helvetica) 240.0 0.0 true true 0 (SD0)]
] -80.0 MRshow
/Helvetica findfont 240 scalefont setfont
1.500 UP
1.000 UL
LTb
0.00 1.00 1.00 C 1176 841 DiaF
1246 841 DiaF
1316 841 DiaF
1386 841 DiaF
1456 841 DiaF
1525 841 DiaF
1595 841 DiaF
1665 841 DiaF
1735 841 DiaF
1805 841 DiaF
1875 841 DiaF
1945 841 DiaF
2015 841 DiaF
2085 841 DiaF
2154 841 DiaF
2224 841 DiaF
2294 841 DiaF
2364 841 DiaF
2434 841 DiaF
2504 841 DiaF
2574 841 DiaF
2644 841 DiaF
2714 841 DiaF
2783 841 DiaF
2853 841 DiaF
2923 841 DiaF
2993 841 DiaF
3063 841 DiaF
3133 841 DiaF
3203 841 DiaF
3273 841 DiaF
3343 841 DiaF
3412 841 DiaF
3482 841 DiaF
3552 841 DiaF
3622 841 DiaF
3692 841 DiaF
3762 841 DiaF
3832 841 DiaF
3902 841 DiaF
3972 841 DiaF
4041 841 DiaF
4111 841 DiaF
4181 841 DiaF
4251 841 DiaF
4321 841 DiaF
4391 841 DiaF
4461 841 DiaF
4531 841 DiaF
4600 841 DiaF
4670 841 DiaF
4740 841 DiaF
4810 841 DiaF
4880 841 DiaF
4950 841 DiaF
5020 841 DiaF
5090 841 DiaF
5160 841 DiaF
5229 841 DiaF
5299 841 DiaF
5369 841 DiaF
5439 841 DiaF
5509 841 DiaF
5579 841 DiaF
5649 841 DiaF
5719 841 DiaF
5789 841 DiaF
5858 841 DiaF
5928 841 DiaF
5998 841 DiaF
6068 841 DiaF
6138 841 DiaF
6208 841 DiaF
6278 841 DiaF
6348 841 DiaF
6418 841 DiaF
6487 841 DiaF
6557 841 DiaF
6627 841 DiaF
6697 841 DiaF
6767 841 DiaF
4187 3116 DiaF
% End plot #5
2.000 UL
LTb
LCb setrgbcolor
1.000 UL
LTB
LCb setrgbcolor
1176 4799 N
0 -4031 V
5591 0 V
0 4031 V
-5591 0 V
Z stroke
1.000 UP
1.000 UL
LTb
LCb setrgbcolor
stroke
grestore
end
showpage
%%Trailer
%%DocumentFonts: Symbol Helvetica
