%!PS-Adobe-2.0 EPSF-2.0
%%Title: orbit_20170524.eps
%%Creator: gnuplot 4.6 patchlevel 4
%%CreationDate: Tue Jun 13 12:36:53 2017
%%DocumentFonts: (atend)
%%BoundingBox: 50 50 410 302
%%EndComments
%%BeginProlog
/gnudict 256 dict def
gnudict begin
%
% The following true/false flags may be edited by hand if desired.
% The unit line width and grayscale image gamma correction may also be changed.
%
/Color true def
/Blacktext false def
/Solid false def
/Dashlength 1 def
/Landscape false def
/Level1 false def
/Rounded false def
/ClipToBoundingBox false def
/SuppressPDFMark false def
/TransparentPatterns false def
/gnulinewidth 5.000 def
/userlinewidth gnulinewidth def
/Gamma 1.0 def
/BackgroundColor {-1.000 -1.000 -1.000} def
%
/vshift -80 def
/dl1 {
  10.0 Dashlength mul mul
  Rounded { currentlinewidth 0.75 mul sub dup 0 le { pop 0.01 } if } if
} def
/dl2 {
  10.0 Dashlength mul mul
  Rounded { currentlinewidth 0.75 mul add } if
} def
/hpt_ 31.5 def
/vpt_ 31.5 def
/hpt hpt_ def
/vpt vpt_ def
/doclip {
  ClipToBoundingBox {
    newpath 50 50 moveto 410 50 lineto 410 302 lineto 50 302 lineto closepath
    clip
  } if
} def
%
% Gnuplot Prolog Version 4.6 (September 2012)
%
%/SuppressPDFMark true def
%
/M {moveto} bind def
/L {lineto} bind def
/R {rmoveto} bind def
/V {rlineto} bind def
/N {newpath moveto} bind def
/Z {closepath} bind def
/C {setrgbcolor} bind def
/f {rlineto fill} bind def
/g {setgray} bind def
/Gshow {show} def   % May be redefined later in the file to support UTF-8
/vpt2 vpt 2 mul def
/hpt2 hpt 2 mul def
/Lshow {currentpoint stroke M 0 vshift R 
	Blacktext {gsave 0 setgray show grestore} {show} ifelse} def
/Rshow {currentpoint stroke M dup stringwidth pop neg vshift R
	Blacktext {gsave 0 setgray show grestore} {show} ifelse} def
/Cshow {currentpoint stroke M dup stringwidth pop -2 div vshift R 
	Blacktext {gsave 0 setgray show grestore} {show} ifelse} def
/UP {dup vpt_ mul /vpt exch def hpt_ mul /hpt exch def
  /hpt2 hpt 2 mul def /vpt2 vpt 2 mul def} def
/DL {Color {setrgbcolor Solid {pop []} if 0 setdash}
 {pop pop pop 0 setgray Solid {pop []} if 0 setdash} ifelse} def
/BL {stroke userlinewidth 2 mul setlinewidth
	Rounded {1 setlinejoin 1 setlinecap} if} def
/AL {stroke userlinewidth 2 div setlinewidth
	Rounded {1 setlinejoin 1 setlinecap} if} def
/UL {dup gnulinewidth mul /userlinewidth exch def
	dup 1 lt {pop 1} if 10 mul /udl exch def} def
/PL {stroke userlinewidth setlinewidth
	Rounded {1 setlinejoin 1 setlinecap} if} def
3.8 setmiterlimit
% Default Line colors
/LCw {1 1 1} def
/LCb {0 0 0} def
/LCa {0 0 0} def
/LC0 {1 0 0} def
/LC1 {0 1 0} def
/LC2 {0 0 1} def
/LC3 {1 0 1} def
/LC4 {0 1 1} def
/LC5 {1 1 0} def
/LC6 {0 0 0} def
/LC7 {1 0.3 0} def
/LC8 {0.5 0.5 0.5} def
% Default Line Types
/LTw {PL [] 1 setgray} def
/LTb {BL [] LCb DL} def
/LTa {AL [1 udl mul 2 udl mul] 0 setdash LCa setrgbcolor} def
/LT0 {PL [] LC0 DL} def
/LT1 {PL [4 dl1 2 dl2] LC1 DL} def
/LT2 {PL [2 dl1 3 dl2] LC2 DL} def
/LT3 {PL [1 dl1 1.5 dl2] LC3 DL} def
/LT4 {PL [6 dl1 2 dl2 1 dl1 2 dl2] LC4 DL} def
/LT5 {PL [3 dl1 3 dl2 1 dl1 3 dl2] LC5 DL} def
/LT6 {PL [2 dl1 2 dl2 2 dl1 6 dl2] LC6 DL} def
/LT7 {PL [1 dl1 2 dl2 6 dl1 2 dl2 1 dl1 2 dl2] LC7 DL} def
/LT8 {PL [2 dl1 2 dl2 2 dl1 2 dl2 2 dl1 2 dl2 2 dl1 4 dl2] LC8 DL} def
/Pnt {stroke [] 0 setdash gsave 1 setlinecap M 0 0 V stroke grestore} def
/Dia {stroke [] 0 setdash 2 copy vpt add M
  hpt neg vpt neg V hpt vpt neg V
  hpt vpt V hpt neg vpt V closepath stroke
  Pnt} def
/Pls {stroke [] 0 setdash vpt sub M 0 vpt2 V
  currentpoint stroke M
  hpt neg vpt neg R hpt2 0 V stroke
 } def
/Box {stroke [] 0 setdash 2 copy exch hpt sub exch vpt add M
  0 vpt2 neg V hpt2 0 V 0 vpt2 V
  hpt2 neg 0 V closepath stroke
  Pnt} def
/Crs {stroke [] 0 setdash exch hpt sub exch vpt add M
  hpt2 vpt2 neg V currentpoint stroke M
  hpt2 neg 0 R hpt2 vpt2 V stroke} def
/TriU {stroke [] 0 setdash 2 copy vpt 1.12 mul add M
  hpt neg vpt -1.62 mul V
  hpt 2 mul 0 V
  hpt neg vpt 1.62 mul V closepath stroke
  Pnt} def
/Star {2 copy Pls Crs} def
/BoxF {stroke [] 0 setdash exch hpt sub exch vpt add M
  0 vpt2 neg V hpt2 0 V 0 vpt2 V
  hpt2 neg 0 V closepath fill} def
/TriUF {stroke [] 0 setdash vpt 1.12 mul add M
  hpt neg vpt -1.62 mul V
  hpt 2 mul 0 V
  hpt neg vpt 1.62 mul V closepath fill} def
/TriD {stroke [] 0 setdash 2 copy vpt 1.12 mul sub M
  hpt neg vpt 1.62 mul V
  hpt 2 mul 0 V
  hpt neg vpt -1.62 mul V closepath stroke
  Pnt} def
/TriDF {stroke [] 0 setdash vpt 1.12 mul sub M
  hpt neg vpt 1.62 mul V
  hpt 2 mul 0 V
  hpt neg vpt -1.62 mul V closepath fill} def
/DiaF {stroke [] 0 setdash vpt add M
  hpt neg vpt neg V hpt vpt neg V
  hpt vpt V hpt neg vpt V closepath fill} def
/Pent {stroke [] 0 setdash 2 copy gsave
  translate 0 hpt M 4 {72 rotate 0 hpt L} repeat
  closepath stroke grestore Pnt} def
/PentF {stroke [] 0 setdash gsave
  translate 0 hpt M 4 {72 rotate 0 hpt L} repeat
  closepath fill grestore} def
/Circle {stroke [] 0 setdash 2 copy
  hpt 0 360 arc stroke Pnt} def
/CircleF {stroke [] 0 setdash hpt 0 360 arc fill} def
/C0 {BL [] 0 setdash 2 copy moveto vpt 90 450 arc} bind def
/C1 {BL [] 0 setdash 2 copy moveto
	2 copy vpt 0 90 arc closepath fill
	vpt 0 360 arc closepath} bind def
/C2 {BL [] 0 setdash 2 copy moveto
	2 copy vpt 90 180 arc closepath fill
	vpt 0 360 arc closepath} bind def
/C3 {BL [] 0 setdash 2 copy moveto
	2 copy vpt 0 180 arc closepath fill
	vpt 0 360 arc closepath} bind def
/C4 {BL [] 0 setdash 2 copy moveto
	2 copy vpt 180 270 arc closepath fill
	vpt 0 360 arc closepath} bind def
/C5 {BL [] 0 setdash 2 copy moveto
	2 copy vpt 0 90 arc
	2 copy moveto
	2 copy vpt 180 270 arc closepath fill
	vpt 0 360 arc} bind def
/C6 {BL [] 0 setdash 2 copy moveto
	2 copy vpt 90 270 arc closepath fill
	vpt 0 360 arc closepath} bind def
/C7 {BL [] 0 setdash 2 copy moveto
	2 copy vpt 0 270 arc closepath fill
	vpt 0 360 arc closepath} bind def
/C8 {BL [] 0 setdash 2 copy moveto
	2 copy vpt 270 360 arc closepath fill
	vpt 0 360 arc closepath} bind def
/C9 {BL [] 0 setdash 2 copy moveto
	2 copy vpt 270 450 arc closepath fill
	vpt 0 360 arc closepath} bind def
/C10 {BL [] 0 setdash 2 copy 2 copy moveto vpt 270 360 arc closepath fill
	2 copy moveto
	2 copy vpt 90 180 arc closepath fill
	vpt 0 360 arc closepath} bind def
/C11 {BL [] 0 setdash 2 copy moveto
	2 copy vpt 0 180 arc closepath fill
	2 copy moveto
	2 copy vpt 270 360 arc closepath fill
	vpt 0 360 arc closepath} bind def
/C12 {BL [] 0 setdash 2 copy moveto
	2 copy vpt 180 360 arc closepath fill
	vpt 0 360 arc closepath} bind def
/C13 {BL [] 0 setdash 2 copy moveto
	2 copy vpt 0 90 arc closepath fill
	2 copy moveto
	2 copy vpt 180 360 arc closepath fill
	vpt 0 360 arc closepath} bind def
/C14 {BL [] 0 setdash 2 copy moveto
	2 copy vpt 90 360 arc closepath fill
	vpt 0 360 arc} bind def
/C15 {BL [] 0 setdash 2 copy vpt 0 360 arc closepath fill
	vpt 0 360 arc closepath} bind def
/Rec {newpath 4 2 roll moveto 1 index 0 rlineto 0 exch rlineto
	neg 0 rlineto closepath} bind def
/Square {dup Rec} bind def
/Bsquare {vpt sub exch vpt sub exch vpt2 Square} bind def
/S0 {BL [] 0 setdash 2 copy moveto 0 vpt rlineto BL Bsquare} bind def
/S1 {BL [] 0 setdash 2 copy vpt Square fill Bsquare} bind def
/S2 {BL [] 0 setdash 2 copy exch vpt sub exch vpt Square fill Bsquare} bind def
/S3 {BL [] 0 setdash 2 copy exch vpt sub exch vpt2 vpt Rec fill Bsquare} bind def
/S4 {BL [] 0 setdash 2 copy exch vpt sub exch vpt sub vpt Square fill Bsquare} bind def
/S5 {BL [] 0 setdash 2 copy 2 copy vpt Square fill
	exch vpt sub exch vpt sub vpt Square fill Bsquare} bind def
/S6 {BL [] 0 setdash 2 copy exch vpt sub exch vpt sub vpt vpt2 Rec fill Bsquare} bind def
/S7 {BL [] 0 setdash 2 copy exch vpt sub exch vpt sub vpt vpt2 Rec fill
	2 copy vpt Square fill Bsquare} bind def
/S8 {BL [] 0 setdash 2 copy vpt sub vpt Square fill Bsquare} bind def
/S9 {BL [] 0 setdash 2 copy vpt sub vpt vpt2 Rec fill Bsquare} bind def
/S10 {BL [] 0 setdash 2 copy vpt sub vpt Square fill 2 copy exch vpt sub exch vpt Square fill
	Bsquare} bind def
/S11 {BL [] 0 setdash 2 copy vpt sub vpt Square fill 2 copy exch vpt sub exch vpt2 vpt Rec fill
	Bsquare} bind def
/S12 {BL [] 0 setdash 2 copy exch vpt sub exch vpt sub vpt2 vpt Rec fill Bsquare} bind def
/S13 {BL [] 0 setdash 2 copy exch vpt sub exch vpt sub vpt2 vpt Rec fill
	2 copy vpt Square fill Bsquare} bind def
/S14 {BL [] 0 setdash 2 copy exch vpt sub exch vpt sub vpt2 vpt Rec fill
	2 copy exch vpt sub exch vpt Square fill Bsquare} bind def
/S15 {BL [] 0 setdash 2 copy Bsquare fill Bsquare} bind def
/D0 {gsave translate 45 rotate 0 0 S0 stroke grestore} bind def
/D1 {gsave translate 45 rotate 0 0 S1 stroke grestore} bind def
/D2 {gsave translate 45 rotate 0 0 S2 stroke grestore} bind def
/D3 {gsave translate 45 rotate 0 0 S3 stroke grestore} bind def
/D4 {gsave translate 45 rotate 0 0 S4 stroke grestore} bind def
/D5 {gsave translate 45 rotate 0 0 S5 stroke grestore} bind def
/D6 {gsave translate 45 rotate 0 0 S6 stroke grestore} bind def
/D7 {gsave translate 45 rotate 0 0 S7 stroke grestore} bind def
/D8 {gsave translate 45 rotate 0 0 S8 stroke grestore} bind def
/D9 {gsave translate 45 rotate 0 0 S9 stroke grestore} bind def
/D10 {gsave translate 45 rotate 0 0 S10 stroke grestore} bind def
/D11 {gsave translate 45 rotate 0 0 S11 stroke grestore} bind def
/D12 {gsave translate 45 rotate 0 0 S12 stroke grestore} bind def
/D13 {gsave translate 45 rotate 0 0 S13 stroke grestore} bind def
/D14 {gsave translate 45 rotate 0 0 S14 stroke grestore} bind def
/D15 {gsave translate 45 rotate 0 0 S15 stroke grestore} bind def
/DiaE {stroke [] 0 setdash vpt add M
  hpt neg vpt neg V hpt vpt neg V
  hpt vpt V hpt neg vpt V closepath stroke} def
/BoxE {stroke [] 0 setdash exch hpt sub exch vpt add M
  0 vpt2 neg V hpt2 0 V 0 vpt2 V
  hpt2 neg 0 V closepath stroke} def
/TriUE {stroke [] 0 setdash vpt 1.12 mul add M
  hpt neg vpt -1.62 mul V
  hpt 2 mul 0 V
  hpt neg vpt 1.62 mul V closepath stroke} def
/TriDE {stroke [] 0 setdash vpt 1.12 mul sub M
  hpt neg vpt 1.62 mul V
  hpt 2 mul 0 V
  hpt neg vpt -1.62 mul V closepath stroke} def
/PentE {stroke [] 0 setdash gsave
  translate 0 hpt M 4 {72 rotate 0 hpt L} repeat
  closepath stroke grestore} def
/CircE {stroke [] 0 setdash 
  hpt 0 360 arc stroke} def
/Opaque {gsave closepath 1 setgray fill grestore 0 setgray closepath} def
/DiaW {stroke [] 0 setdash vpt add M
  hpt neg vpt neg V hpt vpt neg V
  hpt vpt V hpt neg vpt V Opaque stroke} def
/BoxW {stroke [] 0 setdash exch hpt sub exch vpt add M
  0 vpt2 neg V hpt2 0 V 0 vpt2 V
  hpt2 neg 0 V Opaque stroke} def
/TriUW {stroke [] 0 setdash vpt 1.12 mul add M
  hpt neg vpt -1.62 mul V
  hpt 2 mul 0 V
  hpt neg vpt 1.62 mul V Opaque stroke} def
/TriDW {stroke [] 0 setdash vpt 1.12 mul sub M
  hpt neg vpt 1.62 mul V
  hpt 2 mul 0 V
  hpt neg vpt -1.62 mul V Opaque stroke} def
/PentW {stroke [] 0 setdash gsave
  translate 0 hpt M 4 {72 rotate 0 hpt L} repeat
  Opaque stroke grestore} def
/CircW {stroke [] 0 setdash 
  hpt 0 360 arc Opaque stroke} def
/BoxFill {gsave Rec 1 setgray fill grestore} def
/Density {
  /Fillden exch def
  currentrgbcolor
  /ColB exch def /ColG exch def /ColR exch def
  /ColR ColR Fillden mul Fillden sub 1 add def
  /ColG ColG Fillden mul Fillden sub 1 add def
  /ColB ColB Fillden mul Fillden sub 1 add def
  ColR ColG ColB setrgbcolor} def
/BoxColFill {gsave Rec PolyFill} def
/PolyFill {gsave Density fill grestore grestore} def
/h {rlineto rlineto rlineto gsave closepath fill grestore} bind def
%
% PostScript Level 1 Pattern Fill routine for rectangles
% Usage: x y w h s a XX PatternFill
%	x,y = lower left corner of box to be filled
%	w,h = width and height of box
%	  a = angle in degrees between lines and x-axis
%	 XX = 0/1 for no/yes cross-hatch
%
/PatternFill {gsave /PFa [ 9 2 roll ] def
  PFa 0 get PFa 2 get 2 div add PFa 1 get PFa 3 get 2 div add translate
  PFa 2 get -2 div PFa 3 get -2 div PFa 2 get PFa 3 get Rec
  TransparentPatterns {} {gsave 1 setgray fill grestore} ifelse
  clip
  currentlinewidth 0.5 mul setlinewidth
  /PFs PFa 2 get dup mul PFa 3 get dup mul add sqrt def
  0 0 M PFa 5 get rotate PFs -2 div dup translate
  0 1 PFs PFa 4 get div 1 add floor cvi
	{PFa 4 get mul 0 M 0 PFs V} for
  0 PFa 6 get ne {
	0 1 PFs PFa 4 get div 1 add floor cvi
	{PFa 4 get mul 0 2 1 roll M PFs 0 V} for
 } if
  stroke grestore} def
%
/languagelevel where
 {pop languagelevel} {1} ifelse
 2 lt
	{/InterpretLevel1 true def}
	{/InterpretLevel1 Level1 def}
 ifelse
%
% PostScript level 2 pattern fill definitions
%
/Level2PatternFill {
/Tile8x8 {/PaintType 2 /PatternType 1 /TilingType 1 /BBox [0 0 8 8] /XStep 8 /YStep 8}
	bind def
/KeepColor {currentrgbcolor [/Pattern /DeviceRGB] setcolorspace} bind def
<< Tile8x8
 /PaintProc {0.5 setlinewidth pop 0 0 M 8 8 L 0 8 M 8 0 L stroke} 
>> matrix makepattern
/Pat1 exch def
<< Tile8x8
 /PaintProc {0.5 setlinewidth pop 0 0 M 8 8 L 0 8 M 8 0 L stroke
	0 4 M 4 8 L 8 4 L 4 0 L 0 4 L stroke}
>> matrix makepattern
/Pat2 exch def
<< Tile8x8
 /PaintProc {0.5 setlinewidth pop 0 0 M 0 8 L
	8 8 L 8 0 L 0 0 L fill}
>> matrix makepattern
/Pat3 exch def
<< Tile8x8
 /PaintProc {0.5 setlinewidth pop -4 8 M 8 -4 L
	0 12 M 12 0 L stroke}
>> matrix makepattern
/Pat4 exch def
<< Tile8x8
 /PaintProc {0.5 setlinewidth pop -4 0 M 8 12 L
	0 -4 M 12 8 L stroke}
>> matrix makepattern
/Pat5 exch def
<< Tile8x8
 /PaintProc {0.5 setlinewidth pop -2 8 M 4 -4 L
	0 12 M 8 -4 L 4 12 M 10 0 L stroke}
>> matrix makepattern
/Pat6 exch def
<< Tile8x8
 /PaintProc {0.5 setlinewidth pop -2 0 M 4 12 L
	0 -4 M 8 12 L 4 -4 M 10 8 L stroke}
>> matrix makepattern
/Pat7 exch def
<< Tile8x8
 /PaintProc {0.5 setlinewidth pop 8 -2 M -4 4 L
	12 0 M -4 8 L 12 4 M 0 10 L stroke}
>> matrix makepattern
/Pat8 exch def
<< Tile8x8
 /PaintProc {0.5 setlinewidth pop 0 -2 M 12 4 L
	-4 0 M 12 8 L -4 4 M 8 10 L stroke}
>> matrix makepattern
/Pat9 exch def
/Pattern1 {PatternBgnd KeepColor Pat1 setpattern} bind def
/Pattern2 {PatternBgnd KeepColor Pat2 setpattern} bind def
/Pattern3 {PatternBgnd KeepColor Pat3 setpattern} bind def
/Pattern4 {PatternBgnd KeepColor Landscape {Pat5} {Pat4} ifelse setpattern} bind def
/Pattern5 {PatternBgnd KeepColor Landscape {Pat4} {Pat5} ifelse setpattern} bind def
/Pattern6 {PatternBgnd KeepColor Landscape {Pat9} {Pat6} ifelse setpattern} bind def
/Pattern7 {PatternBgnd KeepColor Landscape {Pat8} {Pat7} ifelse setpattern} bind def
} def
%
%
%End of PostScript Level 2 code
%
/PatternBgnd {
  TransparentPatterns {} {gsave 1 setgray fill grestore} ifelse
} def
%
% Substitute for Level 2 pattern fill codes with
% grayscale if Level 2 support is not selected.
%
/Level1PatternFill {
/Pattern1 {0.250 Density} bind def
/Pattern2 {0.500 Density} bind def
/Pattern3 {0.750 Density} bind def
/Pattern4 {0.125 Density} bind def
/Pattern5 {0.375 Density} bind def
/Pattern6 {0.625 Density} bind def
/Pattern7 {0.875 Density} bind def
} def
%
% Now test for support of Level 2 code
%
Level1 {Level1PatternFill} {Level2PatternFill} ifelse
%
/Symbol-Oblique /Symbol findfont [1 0 .167 1 0 0] makefont
dup length dict begin {1 index /FID eq {pop pop} {def} ifelse} forall
currentdict end definefont pop
/MFshow {
   { dup 5 get 3 ge
     { 5 get 3 eq {gsave} {grestore} ifelse }
     {dup dup 0 get findfont exch 1 get scalefont setfont
     [ currentpoint ] exch dup 2 get 0 exch R dup 5 get 2 ne {dup dup 6
     get exch 4 get {Gshow} {stringwidth pop 0 R} ifelse }if dup 5 get 0 eq
     {dup 3 get {2 get neg 0 exch R pop} {pop aload pop M} ifelse} {dup 5
     get 1 eq {dup 2 get exch dup 3 get exch 6 get stringwidth pop -2 div
     dup 0 R} {dup 6 get stringwidth pop -2 div 0 R 6 get
     show 2 index {aload pop M neg 3 -1 roll neg R pop pop} {pop pop pop
     pop aload pop M} ifelse }ifelse }ifelse }
     ifelse }
   forall} def
/Gswidth {dup type /stringtype eq {stringwidth} {pop (n) stringwidth} ifelse} def
/MFwidth {0 exch { dup 5 get 3 ge { 5 get 3 eq { 0 } { pop } ifelse }
 {dup 3 get{dup dup 0 get findfont exch 1 get scalefont setfont
     6 get Gswidth pop add} {pop} ifelse} ifelse} forall} def
/MLshow { currentpoint stroke M
  0 exch R
  Blacktext {gsave 0 setgray MFshow grestore} {MFshow} ifelse } bind def
/MRshow { currentpoint stroke M
  exch dup MFwidth neg 3 -1 roll R
  Blacktext {gsave 0 setgray MFshow grestore} {MFshow} ifelse } bind def
/MCshow { currentpoint stroke M
  exch dup MFwidth -2 div 3 -1 roll R
  Blacktext {gsave 0 setgray MFshow grestore} {MFshow} ifelse } bind def
/XYsave    { [( ) 1 2 true false 3 ()] } bind def
/XYrestore { [( ) 1 2 true false 4 ()] } bind def
Level1 SuppressPDFMark or 
{} {
/SDict 10 dict def
systemdict /pdfmark known not {
  userdict /pdfmark systemdict /cleartomark get put
} if
SDict begin [
  /Title (orbit_20170524.eps)
  /Subject (gnuplot plot)
  /Creator (gnuplot 4.6 patchlevel 4)
  /Author (rj-yang)
%  /Producer (gnuplot)
%  /Keywords ()
  /CreationDate (Tue Jun 13 12:36:53 2017)
  /DOCINFO pdfmark
end
} ifelse
end
%%EndProlog
%%Page: 1 1
gnudict begin
gsave
doclip
50 50 translate
0.050 0.050 scale
0 setgray
newpath
(Helvetica) findfont 240 scalefont setfont
BackgroundColor 0 lt 3 1 roll 0 lt exch 0 lt or or not {BackgroundColor C 1.000 0 0 7200.00 5040.00 BoxColFill} if
1.000 UL
LTb
LCb setrgbcolor
1176 768 M
63 0 V
5528 0 R
-63 0 V
stroke
1032 768 M
[ [(Helvetica) 240.0 0.0 true true 0 (-3)]
] -80.0 MRshow
1.000 UL
LTb
LCb setrgbcolor
1176 1130 M
63 0 V
5528 0 R
-63 0 V
stroke
1032 1130 M
[ [(Helvetica) 240.0 0.0 true true 0 (-2.5)]
] -80.0 MRshow
1.000 UL
LTb
LCb setrgbcolor
1176 1492 M
63 0 V
5528 0 R
-63 0 V
stroke
1032 1492 M
[ [(Helvetica) 240.0 0.0 true true 0 (-2)]
] -80.0 MRshow
1.000 UL
LTb
LCb setrgbcolor
1176 1854 M
63 0 V
5528 0 R
-63 0 V
stroke
1032 1854 M
[ [(Helvetica) 240.0 0.0 true true 0 (-1.5)]
] -80.0 MRshow
1.000 UL
LTb
LCb setrgbcolor
1176 2216 M
63 0 V
5528 0 R
-63 0 V
stroke
1032 2216 M
[ [(Helvetica) 240.0 0.0 true true 0 (-1)]
] -80.0 MRshow
1.000 UL
LTb
LCb setrgbcolor
1176 2578 M
63 0 V
5528 0 R
-63 0 V
stroke
1032 2578 M
[ [(Helvetica) 240.0 0.0 true true 0 (-0.5)]
] -80.0 MRshow
1.000 UL
LTb
LCb setrgbcolor
1176 2941 M
63 0 V
5528 0 R
-63 0 V
stroke
1032 2941 M
[ [(Helvetica) 240.0 0.0 true true 0 ( 0)]
] -80.0 MRshow
1.000 UL
LTb
LCb setrgbcolor
1176 3303 M
63 0 V
5528 0 R
-63 0 V
stroke
1032 3303 M
[ [(Helvetica) 240.0 0.0 true true 0 ( 0.5)]
] -80.0 MRshow
1.000 UL
LTb
LCb setrgbcolor
1176 3665 M
63 0 V
5528 0 R
-63 0 V
stroke
1032 3665 M
[ [(Helvetica) 240.0 0.0 true true 0 ( 1)]
] -80.0 MRshow
1.000 UL
LTb
LCb setrgbcolor
1176 4027 M
63 0 V
5528 0 R
-63 0 V
stroke
1032 4027 M
[ [(Helvetica) 240.0 0.0 true true 0 ( 1.5)]
] -80.0 MRshow
1.000 UL
LTb
LCb setrgbcolor
1176 4389 M
63 0 V
5528 0 R
-63 0 V
stroke
1032 4389 M
[ [(Helvetica) 240.0 0.0 true true 0 ( 2)]
] -80.0 MRshow
1.000 UL
LTb
LCb setrgbcolor
1176 4751 M
63 0 V
5528 0 R
-63 0 V
stroke
1032 4751 M
[ [(Helvetica) 240.0 0.0 true true 0 ( 2.5)]
] -80.0 MRshow
1.000 UL
LTb
LCb setrgbcolor
1176 768 M
0 63 V
0 3920 R
0 -63 V
stroke
1176 528 M
[ [(Helvetica) 240.0 0.0 true true 0 ( 0)]
] -80.0 MCshow
1.000 UL
LTb
LCb setrgbcolor
1797 768 M
0 63 V
0 3920 R
0 -63 V
stroke
1797 528 M
[ [(Helvetica) 240.0 0.0 true true 0 ( 10)]
] -80.0 MCshow
1.000 UL
LTb
LCb setrgbcolor
2418 768 M
0 63 V
0 3920 R
0 -63 V
stroke
2418 528 M
[ [(Helvetica) 240.0 0.0 true true 0 ( 20)]
] -80.0 MCshow
1.000 UL
LTb
LCb setrgbcolor
3040 768 M
0 63 V
0 3920 R
0 -63 V
stroke
3040 528 M
[ [(Helvetica) 240.0 0.0 true true 0 ( 30)]
] -80.0 MCshow
1.000 UL
LTb
LCb setrgbcolor
3661 768 M
0 63 V
0 3920 R
0 -63 V
stroke
3661 528 M
[ [(Helvetica) 240.0 0.0 true true 0 ( 40)]
] -80.0 MCshow
1.000 UL
LTb
LCb setrgbcolor
4282 768 M
0 63 V
0 3920 R
0 -63 V
stroke
4282 528 M
[ [(Helvetica) 240.0 0.0 true true 0 ( 50)]
] -80.0 MCshow
1.000 UL
LTb
LCb setrgbcolor
4903 768 M
0 63 V
0 3920 R
0 -63 V
stroke
4903 528 M
[ [(Helvetica) 240.0 0.0 true true 0 ( 60)]
] -80.0 MCshow
1.000 UL
LTb
LCb setrgbcolor
5525 768 M
0 63 V
0 3920 R
0 -63 V
stroke
5525 528 M
[ [(Helvetica) 240.0 0.0 true true 0 ( 70)]
] -80.0 MCshow
1.000 UL
LTb
LCb setrgbcolor
6146 768 M
0 63 V
0 3920 R
0 -63 V
stroke
6146 528 M
[ [(Helvetica) 240.0 0.0 true true 0 ( 80)]
] -80.0 MCshow
1.000 UL
LTb
LCb setrgbcolor
6767 768 M
0 63 V
0 3920 R
0 -63 V
stroke
6767 528 M
[ [(Helvetica) 240.0 0.0 true true 0 ( 90)]
] -80.0 MCshow
1.000 UL
LTb
LCb setrgbcolor
1.000 UL
LTb
LCb setrgbcolor
1176 4751 N
0 -3983 V
5591 0 V
0 3983 V
-5591 0 V
Z stroke
LCb setrgbcolor
192 2759 M
currentpoint gsave translate -270 rotate 0 0 moveto
[ [(Symbol) 240.0 0.0 true true 0 (D)]
[(Helvetica) 192.0 -72.0 true true 0 (x,y)]
[(Helvetica) 240.0 0.0 true true 0 ( [mm])]
] -56.0 MCshow
grestore
LTb
LCb setrgbcolor
3971 168 M
[ [(Italic) 240.0 0.0 true true 0 (s)]
[(Helvetica) 240.0 0.0 true true 0 ( [m])]
] -80.0 MCshow
LTb
1.000 UP
1.000 UL
LTb
LCb setrgbcolor
% Begin plot #1
1.500 UP
3.000 UL
LT0
1.00 0.00 0.00 C LCb setrgbcolor
1608 4508 M
[ [(Symbol) 240.0 0.0 true true 0 (D)]
[(Helvetica) 240.0 0.0 true true 0 (x)]
] -80.0 MRshow
LT0
1.00 0.00 0.00 C 1752 4508 M
639 0 V
1368 2909 M
125 -58 V
131 60 V
125 -93 V
60 -158 V
267 318 V
46 -229 V
124 436 V
214 -365 V
141 83 V
118 62 V
180 -131 V
91 101 V
90 34 V
64 -159 V
64 357 V
129 -125 V
90 23 V
148 -178 V
90 -29 V
233 -18 V
248 141 V
234 -149 V
108 196 V
93 -56 V
93 -11 V
94 -38 V
99 40 V
149 -5 V
150 -194 V
112 251 V
118 -242 V
230 195 V
151 -35 V
243 215 V
106 -130 V
105 54 V
291 1492 V
1368 2909 Box
1493 2851 Box
1624 2911 Box
1749 2818 Box
1809 2660 Box
2076 2978 Box
2122 2749 Box
2246 3185 Box
2460 2820 Box
2601 2903 Box
2719 2965 Box
2899 2834 Box
2990 2935 Box
3080 2969 Box
3144 2810 Box
3208 3167 Box
3337 3042 Box
3427 3065 Box
3575 2887 Box
3665 2858 Box
3898 2840 Box
4146 2981 Box
4380 2832 Box
4488 3028 Box
4581 2972 Box
4674 2961 Box
4768 2923 Box
4867 2963 Box
5016 2958 Box
5166 2764 Box
5278 3015 Box
5396 2773 Box
5626 2968 Box
5777 2933 Box
6020 3148 Box
6126 3018 Box
6231 3072 Box
6522 4564 Box
2071 4508 Box
% End plot #1
% Begin plot #2
1.500 UP
3.000 UL
LT1
0.00 0.00 0.00 C LCb setrgbcolor
1608 4148 M
[ [(Symbol) 240.0 0.0 true true 0 (D)]
[(Helvetica) 240.0 0.0 true true 0 (y)]
] -80.0 MRshow
LT1
0.00 0.00 0.00 C 1752 4148 M
639 0 V
1368 3188 M
125 -386 V
131 183 V
125 -510 V
60 462 V
267 131 V
46 220 V
124 -188 V
214 28 V
141 -8 V
118 -156 V
180 96 V
91 -45 V
90 48 V
64 -46 V
64 72 V
129 -133 V
90 -53 V
148 -76 V
90 121 V
233 -58 V
248 76 V
234 42 V
108 207 V
93 -252 V
93 81 V
94 -428 V
99 -644 V
149 558 V
150 2 V
112 146 V
118 278 V
230 329 V
151 369 V
243 -433 V
106 -136 V
105 -31 V
6522 1090 L
1368 3188 CircleF
1493 2802 CircleF
1624 2985 CircleF
1749 2475 CircleF
1809 2937 CircleF
2076 3068 CircleF
2122 3288 CircleF
2246 3100 CircleF
2460 3128 CircleF
2601 3120 CircleF
2719 2964 CircleF
2899 3060 CircleF
2990 3015 CircleF
3080 3063 CircleF
3144 3017 CircleF
3208 3089 CircleF
3337 2956 CircleF
3427 2903 CircleF
3575 2827 CircleF
3665 2948 CircleF
3898 2890 CircleF
4146 2966 CircleF
4380 3008 CircleF
4488 3215 CircleF
4581 2963 CircleF
4674 3044 CircleF
4768 2616 CircleF
4867 1972 CircleF
5016 2530 CircleF
5166 2532 CircleF
5278 2678 CircleF
5396 2956 CircleF
5626 3285 CircleF
5777 3654 CircleF
6020 3221 CircleF
6126 3085 CircleF
6231 3054 CircleF
6522 1090 CircleF
2071 4148 CircleF
% End plot #2
1.000 UL
LTb
LCb setrgbcolor
1176 4751 N
0 -3983 V
5591 0 V
0 3983 V
-5591 0 V
Z stroke
1.000 UP
1.000 UL
LTb
LCb setrgbcolor
stroke
grestore
end
showpage
%%Trailer
%%DocumentFonts: Italic Symbol Helvetica
