%!PS-Adobe-2.0 EPSF-2.0
%%Title: Dispersion_100bx1000by.eps
%%Creator: gnuplot 4.6 patchlevel 4
%%CreationDate: Fri May  5 16:33:24 2017
%%DocumentFonts: (atend)
%%BoundingBox: 50 50 410 302
%%EndComments
%%BeginProlog
/gnudict 256 dict def
gnudict begin
%
% The following true/false flags may be edited by hand if desired.
% The unit line width and grayscale image gamma correction may also be changed.
%
/Color true def
/Blacktext false def
/Solid false def
/Dashlength 1 def
/Landscape false def
/Level1 false def
/Rounded false def
/ClipToBoundingBox false def
/SuppressPDFMark false def
/TransparentPatterns false def
/gnulinewidth 5.000 def
/userlinewidth gnulinewidth def
/Gamma 1.0 def
/BackgroundColor {-1.000 -1.000 -1.000} def
%
/vshift -73 def
/dl1 {
  10.0 Dashlength mul mul
  Rounded { currentlinewidth 0.75 mul sub dup 0 le { pop 0.01 } if } if
} def
/dl2 {
  10.0 Dashlength mul mul
  Rounded { currentlinewidth 0.75 mul add } if
} def
/hpt_ 31.5 def
/vpt_ 31.5 def
/hpt hpt_ def
/vpt vpt_ def
/doclip {
  ClipToBoundingBox {
    newpath 50 50 moveto 410 50 lineto 410 302 lineto 50 302 lineto closepath
    clip
  } if
} def
%
% Gnuplot Prolog Version 4.6 (September 2012)
%
%/SuppressPDFMark true def
%
/M {moveto} bind def
/L {lineto} bind def
/R {rmoveto} bind def
/V {rlineto} bind def
/N {newpath moveto} bind def
/Z {closepath} bind def
/C {setrgbcolor} bind def
/f {rlineto fill} bind def
/g {setgray} bind def
/Gshow {show} def   % May be redefined later in the file to support UTF-8
/vpt2 vpt 2 mul def
/hpt2 hpt 2 mul def
/Lshow {currentpoint stroke M 0 vshift R 
	Blacktext {gsave 0 setgray show grestore} {show} ifelse} def
/Rshow {currentpoint stroke M dup stringwidth pop neg vshift R
	Blacktext {gsave 0 setgray show grestore} {show} ifelse} def
/Cshow {currentpoint stroke M dup stringwidth pop -2 div vshift R 
	Blacktext {gsave 0 setgray show grestore} {show} ifelse} def
/UP {dup vpt_ mul /vpt exch def hpt_ mul /hpt exch def
  /hpt2 hpt 2 mul def /vpt2 vpt 2 mul def} def
/DL {Color {setrgbcolor Solid {pop []} if 0 setdash}
 {pop pop pop 0 setgray Solid {pop []} if 0 setdash} ifelse} def
/BL {stroke userlinewidth 2 mul setlinewidth
	Rounded {1 setlinejoin 1 setlinecap} if} def
/AL {stroke userlinewidth 2 div setlinewidth
	Rounded {1 setlinejoin 1 setlinecap} if} def
/UL {dup gnulinewidth mul /userlinewidth exch def
	dup 1 lt {pop 1} if 10 mul /udl exch def} def
/PL {stroke userlinewidth setlinewidth
	Rounded {1 setlinejoin 1 setlinecap} if} def
3.8 setmiterlimit
% Default Line colors
/LCw {1 1 1} def
/LCb {0 0 0} def
/LCa {0 0 0} def
/LC0 {1 0 0} def
/LC1 {0 1 0} def
/LC2 {0 0 1} def
/LC3 {1 0 1} def
/LC4 {0 1 1} def
/LC5 {1 1 0} def
/LC6 {0 0 0} def
/LC7 {1 0.3 0} def
/LC8 {0.5 0.5 0.5} def
% Default Line Types
/LTw {PL [] 1 setgray} def
/LTb {BL [] LCb DL} def
/LTa {AL [1 udl mul 2 udl mul] 0 setdash LCa setrgbcolor} def
/LT0 {PL [] LC0 DL} def
/LT1 {PL [4 dl1 2 dl2] LC1 DL} def
/LT2 {PL [2 dl1 3 dl2] LC2 DL} def
/LT3 {PL [1 dl1 1.5 dl2] LC3 DL} def
/LT4 {PL [6 dl1 2 dl2 1 dl1 2 dl2] LC4 DL} def
/LT5 {PL [3 dl1 3 dl2 1 dl1 3 dl2] LC5 DL} def
/LT6 {PL [2 dl1 2 dl2 2 dl1 6 dl2] LC6 DL} def
/LT7 {PL [1 dl1 2 dl2 6 dl1 2 dl2 1 dl1 2 dl2] LC7 DL} def
/LT8 {PL [2 dl1 2 dl2 2 dl1 2 dl2 2 dl1 2 dl2 2 dl1 4 dl2] LC8 DL} def
/Pnt {stroke [] 0 setdash gsave 1 setlinecap M 0 0 V stroke grestore} def
/Dia {stroke [] 0 setdash 2 copy vpt add M
  hpt neg vpt neg V hpt vpt neg V
  hpt vpt V hpt neg vpt V closepath stroke
  Pnt} def
/Pls {stroke [] 0 setdash vpt sub M 0 vpt2 V
  currentpoint stroke M
  hpt neg vpt neg R hpt2 0 V stroke
 } def
/Box {stroke [] 0 setdash 2 copy exch hpt sub exch vpt add M
  0 vpt2 neg V hpt2 0 V 0 vpt2 V
  hpt2 neg 0 V closepath stroke
  Pnt} def
/Crs {stroke [] 0 setdash exch hpt sub exch vpt add M
  hpt2 vpt2 neg V currentpoint stroke M
  hpt2 neg 0 R hpt2 vpt2 V stroke} def
/TriU {stroke [] 0 setdash 2 copy vpt 1.12 mul add M
  hpt neg vpt -1.62 mul V
  hpt 2 mul 0 V
  hpt neg vpt 1.62 mul V closepath stroke
  Pnt} def
/Star {2 copy Pls Crs} def
/BoxF {stroke [] 0 setdash exch hpt sub exch vpt add M
  0 vpt2 neg V hpt2 0 V 0 vpt2 V
  hpt2 neg 0 V closepath fill} def
/TriUF {stroke [] 0 setdash vpt 1.12 mul add M
  hpt neg vpt -1.62 mul V
  hpt 2 mul 0 V
  hpt neg vpt 1.62 mul V closepath fill} def
/TriD {stroke [] 0 setdash 2 copy vpt 1.12 mul sub M
  hpt neg vpt 1.62 mul V
  hpt 2 mul 0 V
  hpt neg vpt -1.62 mul V closepath stroke
  Pnt} def
/TriDF {stroke [] 0 setdash vpt 1.12 mul sub M
  hpt neg vpt 1.62 mul V
  hpt 2 mul 0 V
  hpt neg vpt -1.62 mul V closepath fill} def
/DiaF {stroke [] 0 setdash vpt add M
  hpt neg vpt neg V hpt vpt neg V
  hpt vpt V hpt neg vpt V closepath fill} def
/Pent {stroke [] 0 setdash 2 copy gsave
  translate 0 hpt M 4 {72 rotate 0 hpt L} repeat
  closepath stroke grestore Pnt} def
/PentF {stroke [] 0 setdash gsave
  translate 0 hpt M 4 {72 rotate 0 hpt L} repeat
  closepath fill grestore} def
/Circle {stroke [] 0 setdash 2 copy
  hpt 0 360 arc stroke Pnt} def
/CircleF {stroke [] 0 setdash hpt 0 360 arc fill} def
/C0 {BL [] 0 setdash 2 copy moveto vpt 90 450 arc} bind def
/C1 {BL [] 0 setdash 2 copy moveto
	2 copy vpt 0 90 arc closepath fill
	vpt 0 360 arc closepath} bind def
/C2 {BL [] 0 setdash 2 copy moveto
	2 copy vpt 90 180 arc closepath fill
	vpt 0 360 arc closepath} bind def
/C3 {BL [] 0 setdash 2 copy moveto
	2 copy vpt 0 180 arc closepath fill
	vpt 0 360 arc closepath} bind def
/C4 {BL [] 0 setdash 2 copy moveto
	2 copy vpt 180 270 arc closepath fill
	vpt 0 360 arc closepath} bind def
/C5 {BL [] 0 setdash 2 copy moveto
	2 copy vpt 0 90 arc
	2 copy moveto
	2 copy vpt 180 270 arc closepath fill
	vpt 0 360 arc} bind def
/C6 {BL [] 0 setdash 2 copy moveto
	2 copy vpt 90 270 arc closepath fill
	vpt 0 360 arc closepath} bind def
/C7 {BL [] 0 setdash 2 copy moveto
	2 copy vpt 0 270 arc closepath fill
	vpt 0 360 arc closepath} bind def
/C8 {BL [] 0 setdash 2 copy moveto
	2 copy vpt 270 360 arc closepath fill
	vpt 0 360 arc closepath} bind def
/C9 {BL [] 0 setdash 2 copy moveto
	2 copy vpt 270 450 arc closepath fill
	vpt 0 360 arc closepath} bind def
/C10 {BL [] 0 setdash 2 copy 2 copy moveto vpt 270 360 arc closepath fill
	2 copy moveto
	2 copy vpt 90 180 arc closepath fill
	vpt 0 360 arc closepath} bind def
/C11 {BL [] 0 setdash 2 copy moveto
	2 copy vpt 0 180 arc closepath fill
	2 copy moveto
	2 copy vpt 270 360 arc closepath fill
	vpt 0 360 arc closepath} bind def
/C12 {BL [] 0 setdash 2 copy moveto
	2 copy vpt 180 360 arc closepath fill
	vpt 0 360 arc closepath} bind def
/C13 {BL [] 0 setdash 2 copy moveto
	2 copy vpt 0 90 arc closepath fill
	2 copy moveto
	2 copy vpt 180 360 arc closepath fill
	vpt 0 360 arc closepath} bind def
/C14 {BL [] 0 setdash 2 copy moveto
	2 copy vpt 90 360 arc closepath fill
	vpt 0 360 arc} bind def
/C15 {BL [] 0 setdash 2 copy vpt 0 360 arc closepath fill
	vpt 0 360 arc closepath} bind def
/Rec {newpath 4 2 roll moveto 1 index 0 rlineto 0 exch rlineto
	neg 0 rlineto closepath} bind def
/Square {dup Rec} bind def
/Bsquare {vpt sub exch vpt sub exch vpt2 Square} bind def
/S0 {BL [] 0 setdash 2 copy moveto 0 vpt rlineto BL Bsquare} bind def
/S1 {BL [] 0 setdash 2 copy vpt Square fill Bsquare} bind def
/S2 {BL [] 0 setdash 2 copy exch vpt sub exch vpt Square fill Bsquare} bind def
/S3 {BL [] 0 setdash 2 copy exch vpt sub exch vpt2 vpt Rec fill Bsquare} bind def
/S4 {BL [] 0 setdash 2 copy exch vpt sub exch vpt sub vpt Square fill Bsquare} bind def
/S5 {BL [] 0 setdash 2 copy 2 copy vpt Square fill
	exch vpt sub exch vpt sub vpt Square fill Bsquare} bind def
/S6 {BL [] 0 setdash 2 copy exch vpt sub exch vpt sub vpt vpt2 Rec fill Bsquare} bind def
/S7 {BL [] 0 setdash 2 copy exch vpt sub exch vpt sub vpt vpt2 Rec fill
	2 copy vpt Square fill Bsquare} bind def
/S8 {BL [] 0 setdash 2 copy vpt sub vpt Square fill Bsquare} bind def
/S9 {BL [] 0 setdash 2 copy vpt sub vpt vpt2 Rec fill Bsquare} bind def
/S10 {BL [] 0 setdash 2 copy vpt sub vpt Square fill 2 copy exch vpt sub exch vpt Square fill
	Bsquare} bind def
/S11 {BL [] 0 setdash 2 copy vpt sub vpt Square fill 2 copy exch vpt sub exch vpt2 vpt Rec fill
	Bsquare} bind def
/S12 {BL [] 0 setdash 2 copy exch vpt sub exch vpt sub vpt2 vpt Rec fill Bsquare} bind def
/S13 {BL [] 0 setdash 2 copy exch vpt sub exch vpt sub vpt2 vpt Rec fill
	2 copy vpt Square fill Bsquare} bind def
/S14 {BL [] 0 setdash 2 copy exch vpt sub exch vpt sub vpt2 vpt Rec fill
	2 copy exch vpt sub exch vpt Square fill Bsquare} bind def
/S15 {BL [] 0 setdash 2 copy Bsquare fill Bsquare} bind def
/D0 {gsave translate 45 rotate 0 0 S0 stroke grestore} bind def
/D1 {gsave translate 45 rotate 0 0 S1 stroke grestore} bind def
/D2 {gsave translate 45 rotate 0 0 S2 stroke grestore} bind def
/D3 {gsave translate 45 rotate 0 0 S3 stroke grestore} bind def
/D4 {gsave translate 45 rotate 0 0 S4 stroke grestore} bind def
/D5 {gsave translate 45 rotate 0 0 S5 stroke grestore} bind def
/D6 {gsave translate 45 rotate 0 0 S6 stroke grestore} bind def
/D7 {gsave translate 45 rotate 0 0 S7 stroke grestore} bind def
/D8 {gsave translate 45 rotate 0 0 S8 stroke grestore} bind def
/D9 {gsave translate 45 rotate 0 0 S9 stroke grestore} bind def
/D10 {gsave translate 45 rotate 0 0 S10 stroke grestore} bind def
/D11 {gsave translate 45 rotate 0 0 S11 stroke grestore} bind def
/D12 {gsave translate 45 rotate 0 0 S12 stroke grestore} bind def
/D13 {gsave translate 45 rotate 0 0 S13 stroke grestore} bind def
/D14 {gsave translate 45 rotate 0 0 S14 stroke grestore} bind def
/D15 {gsave translate 45 rotate 0 0 S15 stroke grestore} bind def
/DiaE {stroke [] 0 setdash vpt add M
  hpt neg vpt neg V hpt vpt neg V
  hpt vpt V hpt neg vpt V closepath stroke} def
/BoxE {stroke [] 0 setdash exch hpt sub exch vpt add M
  0 vpt2 neg V hpt2 0 V 0 vpt2 V
  hpt2 neg 0 V closepath stroke} def
/TriUE {stroke [] 0 setdash vpt 1.12 mul add M
  hpt neg vpt -1.62 mul V
  hpt 2 mul 0 V
  hpt neg vpt 1.62 mul V closepath stroke} def
/TriDE {stroke [] 0 setdash vpt 1.12 mul sub M
  hpt neg vpt 1.62 mul V
  hpt 2 mul 0 V
  hpt neg vpt -1.62 mul V closepath stroke} def
/PentE {stroke [] 0 setdash gsave
  translate 0 hpt M 4 {72 rotate 0 hpt L} repeat
  closepath stroke grestore} def
/CircE {stroke [] 0 setdash 
  hpt 0 360 arc stroke} def
/Opaque {gsave closepath 1 setgray fill grestore 0 setgray closepath} def
/DiaW {stroke [] 0 setdash vpt add M
  hpt neg vpt neg V hpt vpt neg V
  hpt vpt V hpt neg vpt V Opaque stroke} def
/BoxW {stroke [] 0 setdash exch hpt sub exch vpt add M
  0 vpt2 neg V hpt2 0 V 0 vpt2 V
  hpt2 neg 0 V Opaque stroke} def
/TriUW {stroke [] 0 setdash vpt 1.12 mul add M
  hpt neg vpt -1.62 mul V
  hpt 2 mul 0 V
  hpt neg vpt 1.62 mul V Opaque stroke} def
/TriDW {stroke [] 0 setdash vpt 1.12 mul sub M
  hpt neg vpt 1.62 mul V
  hpt 2 mul 0 V
  hpt neg vpt -1.62 mul V Opaque stroke} def
/PentW {stroke [] 0 setdash gsave
  translate 0 hpt M 4 {72 rotate 0 hpt L} repeat
  Opaque stroke grestore} def
/CircW {stroke [] 0 setdash 
  hpt 0 360 arc Opaque stroke} def
/BoxFill {gsave Rec 1 setgray fill grestore} def
/Density {
  /Fillden exch def
  currentrgbcolor
  /ColB exch def /ColG exch def /ColR exch def
  /ColR ColR Fillden mul Fillden sub 1 add def
  /ColG ColG Fillden mul Fillden sub 1 add def
  /ColB ColB Fillden mul Fillden sub 1 add def
  ColR ColG ColB setrgbcolor} def
/BoxColFill {gsave Rec PolyFill} def
/PolyFill {gsave Density fill grestore grestore} def
/h {rlineto rlineto rlineto gsave closepath fill grestore} bind def
%
% PostScript Level 1 Pattern Fill routine for rectangles
% Usage: x y w h s a XX PatternFill
%	x,y = lower left corner of box to be filled
%	w,h = width and height of box
%	  a = angle in degrees between lines and x-axis
%	 XX = 0/1 for no/yes cross-hatch
%
/PatternFill {gsave /PFa [ 9 2 roll ] def
  PFa 0 get PFa 2 get 2 div add PFa 1 get PFa 3 get 2 div add translate
  PFa 2 get -2 div PFa 3 get -2 div PFa 2 get PFa 3 get Rec
  TransparentPatterns {} {gsave 1 setgray fill grestore} ifelse
  clip
  currentlinewidth 0.5 mul setlinewidth
  /PFs PFa 2 get dup mul PFa 3 get dup mul add sqrt def
  0 0 M PFa 5 get rotate PFs -2 div dup translate
  0 1 PFs PFa 4 get div 1 add floor cvi
	{PFa 4 get mul 0 M 0 PFs V} for
  0 PFa 6 get ne {
	0 1 PFs PFa 4 get div 1 add floor cvi
	{PFa 4 get mul 0 2 1 roll M PFs 0 V} for
 } if
  stroke grestore} def
%
/languagelevel where
 {pop languagelevel} {1} ifelse
 2 lt
	{/InterpretLevel1 true def}
	{/InterpretLevel1 Level1 def}
 ifelse
%
% PostScript level 2 pattern fill definitions
%
/Level2PatternFill {
/Tile8x8 {/PaintType 2 /PatternType 1 /TilingType 1 /BBox [0 0 8 8] /XStep 8 /YStep 8}
	bind def
/KeepColor {currentrgbcolor [/Pattern /DeviceRGB] setcolorspace} bind def
<< Tile8x8
 /PaintProc {0.5 setlinewidth pop 0 0 M 8 8 L 0 8 M 8 0 L stroke} 
>> matrix makepattern
/Pat1 exch def
<< Tile8x8
 /PaintProc {0.5 setlinewidth pop 0 0 M 8 8 L 0 8 M 8 0 L stroke
	0 4 M 4 8 L 8 4 L 4 0 L 0 4 L stroke}
>> matrix makepattern
/Pat2 exch def
<< Tile8x8
 /PaintProc {0.5 setlinewidth pop 0 0 M 0 8 L
	8 8 L 8 0 L 0 0 L fill}
>> matrix makepattern
/Pat3 exch def
<< Tile8x8
 /PaintProc {0.5 setlinewidth pop -4 8 M 8 -4 L
	0 12 M 12 0 L stroke}
>> matrix makepattern
/Pat4 exch def
<< Tile8x8
 /PaintProc {0.5 setlinewidth pop -4 0 M 8 12 L
	0 -4 M 12 8 L stroke}
>> matrix makepattern
/Pat5 exch def
<< Tile8x8
 /PaintProc {0.5 setlinewidth pop -2 8 M 4 -4 L
	0 12 M 8 -4 L 4 12 M 10 0 L stroke}
>> matrix makepattern
/Pat6 exch def
<< Tile8x8
 /PaintProc {0.5 setlinewidth pop -2 0 M 4 12 L
	0 -4 M 8 12 L 4 -4 M 10 8 L stroke}
>> matrix makepattern
/Pat7 exch def
<< Tile8x8
 /PaintProc {0.5 setlinewidth pop 8 -2 M -4 4 L
	12 0 M -4 8 L 12 4 M 0 10 L stroke}
>> matrix makepattern
/Pat8 exch def
<< Tile8x8
 /PaintProc {0.5 setlinewidth pop 0 -2 M 12 4 L
	-4 0 M 12 8 L -4 4 M 8 10 L stroke}
>> matrix makepattern
/Pat9 exch def
/Pattern1 {PatternBgnd KeepColor Pat1 setpattern} bind def
/Pattern2 {PatternBgnd KeepColor Pat2 setpattern} bind def
/Pattern3 {PatternBgnd KeepColor Pat3 setpattern} bind def
/Pattern4 {PatternBgnd KeepColor Landscape {Pat5} {Pat4} ifelse setpattern} bind def
/Pattern5 {PatternBgnd KeepColor Landscape {Pat4} {Pat5} ifelse setpattern} bind def
/Pattern6 {PatternBgnd KeepColor Landscape {Pat9} {Pat6} ifelse setpattern} bind def
/Pattern7 {PatternBgnd KeepColor Landscape {Pat8} {Pat7} ifelse setpattern} bind def
} def
%
%
%End of PostScript Level 2 code
%
/PatternBgnd {
  TransparentPatterns {} {gsave 1 setgray fill grestore} ifelse
} def
%
% Substitute for Level 2 pattern fill codes with
% grayscale if Level 2 support is not selected.
%
/Level1PatternFill {
/Pattern1 {0.250 Density} bind def
/Pattern2 {0.500 Density} bind def
/Pattern3 {0.750 Density} bind def
/Pattern4 {0.125 Density} bind def
/Pattern5 {0.375 Density} bind def
/Pattern6 {0.625 Density} bind def
/Pattern7 {0.875 Density} bind def
} def
%
% Now test for support of Level 2 code
%
Level1 {Level1PatternFill} {Level2PatternFill} ifelse
%
/Symbol-Oblique /Symbol findfont [1 0 .167 1 0 0] makefont
dup length dict begin {1 index /FID eq {pop pop} {def} ifelse} forall
currentdict end definefont pop
/MFshow {
   { dup 5 get 3 ge
     { 5 get 3 eq {gsave} {grestore} ifelse }
     {dup dup 0 get findfont exch 1 get scalefont setfont
     [ currentpoint ] exch dup 2 get 0 exch R dup 5 get 2 ne {dup dup 6
     get exch 4 get {Gshow} {stringwidth pop 0 R} ifelse }if dup 5 get 0 eq
     {dup 3 get {2 get neg 0 exch R pop} {pop aload pop M} ifelse} {dup 5
     get 1 eq {dup 2 get exch dup 3 get exch 6 get stringwidth pop -2 div
     dup 0 R} {dup 6 get stringwidth pop -2 div 0 R 6 get
     show 2 index {aload pop M neg 3 -1 roll neg R pop pop} {pop pop pop
     pop aload pop M} ifelse }ifelse }ifelse }
     ifelse }
   forall} def
/Gswidth {dup type /stringtype eq {stringwidth} {pop (n) stringwidth} ifelse} def
/MFwidth {0 exch { dup 5 get 3 ge { 5 get 3 eq { 0 } { pop } ifelse }
 {dup 3 get{dup dup 0 get findfont exch 1 get scalefont setfont
     6 get Gswidth pop add} {pop} ifelse} ifelse} forall} def
/MLshow { currentpoint stroke M
  0 exch R
  Blacktext {gsave 0 setgray MFshow grestore} {MFshow} ifelse } bind def
/MRshow { currentpoint stroke M
  exch dup MFwidth neg 3 -1 roll R
  Blacktext {gsave 0 setgray MFshow grestore} {MFshow} ifelse } bind def
/MCshow { currentpoint stroke M
  exch dup MFwidth -2 div 3 -1 roll R
  Blacktext {gsave 0 setgray MFshow grestore} {MFshow} ifelse } bind def
/XYsave    { [( ) 1 2 true false 3 ()] } bind def
/XYrestore { [( ) 1 2 true false 4 ()] } bind def
Level1 SuppressPDFMark or 
{} {
/SDict 10 dict def
systemdict /pdfmark known not {
  userdict /pdfmark systemdict /cleartomark get put
} if
SDict begin [
  /Title (Dispersion_100bx1000by.eps)
  /Subject (gnuplot plot)
  /Creator (gnuplot 4.6 patchlevel 4)
  /Author (rj-yang)
%  /Producer (gnuplot)
%  /Keywords ()
  /CreationDate (Fri May  5 16:33:24 2017)
  /DOCINFO pdfmark
end
} ifelse
end
%%EndProlog
%%Page: 1 1
gnudict begin
gsave
doclip
50 50 translate
0.050 0.050 scale
0 setgray
newpath
(Helvetica) findfont 220 scalefont setfont
BackgroundColor 0 lt 3 1 roll 0 lt exch 0 lt or or not {BackgroundColor C 1.000 0 0 7200.00 5040.00 BoxColFill} if
1.000 UL
LTb
LCb setrgbcolor
1078 704 M
63 0 V
5662 0 R
-63 0 V
stroke
946 704 M
[ [(Helvetica) 220.0 0.0 true true 0 (-1)]
] -73.3 MRshow
1.000 UL
LTb
LCb setrgbcolor
1078 1286 M
63 0 V
5662 0 R
-63 0 V
stroke
946 1286 M
[ [(Helvetica) 220.0 0.0 true true 0 (-0.5)]
] -73.3 MRshow
1.000 UL
LTb
LCb setrgbcolor
1078 1867 M
63 0 V
5662 0 R
-63 0 V
stroke
946 1867 M
[ [(Helvetica) 220.0 0.0 true true 0 ( 0)]
] -73.3 MRshow
1.000 UL
LTb
LCb setrgbcolor
1078 2449 M
63 0 V
5662 0 R
-63 0 V
stroke
946 2449 M
[ [(Helvetica) 220.0 0.0 true true 0 ( 0.5)]
] -73.3 MRshow
1.000 UL
LTb
LCb setrgbcolor
1078 3030 M
63 0 V
5662 0 R
-63 0 V
stroke
946 3030 M
[ [(Helvetica) 220.0 0.0 true true 0 ( 1)]
] -73.3 MRshow
1.000 UL
LTb
LCb setrgbcolor
1078 3612 M
63 0 V
5662 0 R
-63 0 V
stroke
946 3612 M
[ [(Helvetica) 220.0 0.0 true true 0 ( 1.5)]
] -73.3 MRshow
1.000 UL
LTb
LCb setrgbcolor
1078 4193 M
63 0 V
5662 0 R
-63 0 V
stroke
946 4193 M
[ [(Helvetica) 220.0 0.0 true true 0 ( 2)]
] -73.3 MRshow
1.000 UL
LTb
LCb setrgbcolor
1078 4775 M
63 0 V
5662 0 R
-63 0 V
stroke
946 4775 M
[ [(Helvetica) 220.0 0.0 true true 0 ( 2.5)]
] -73.3 MRshow
1.000 UL
LTb
LCb setrgbcolor
1447 704 M
0 63 V
0 4008 R
0 -63 V
stroke
1447 484 M
[ [(Helvetica) 220.0 0.0 true true 0 ( 65)]
] -73.3 MCshow
1.000 UL
LTb
LCb setrgbcolor
2371 704 M
0 63 V
0 4008 R
0 -63 V
stroke
2371 484 M
[ [(Helvetica) 220.0 0.0 true true 0 ( 70)]
] -73.3 MCshow
1.000 UL
LTb
LCb setrgbcolor
3294 704 M
0 63 V
0 4008 R
0 -63 V
stroke
3294 484 M
[ [(Helvetica) 220.0 0.0 true true 0 ( 75)]
] -73.3 MCshow
1.000 UL
LTb
LCb setrgbcolor
4218 704 M
0 63 V
0 4008 R
0 -63 V
stroke
4218 484 M
[ [(Helvetica) 220.0 0.0 true true 0 ( 80)]
] -73.3 MCshow
1.000 UL
LTb
LCb setrgbcolor
5141 704 M
0 63 V
0 4008 R
0 -63 V
stroke
5141 484 M
[ [(Helvetica) 220.0 0.0 true true 0 ( 85)]
] -73.3 MCshow
1.000 UL
LTb
LCb setrgbcolor
6064 704 M
0 63 V
0 4008 R
0 -63 V
stroke
6064 484 M
[ [(Helvetica) 220.0 0.0 true true 0 ( 90)]
] -73.3 MCshow
1.000 UL
LTb
LCb setrgbcolor
1.000 UL
LTb
LCb setrgbcolor
1078 4775 N
0 -4071 V
5725 0 V
0 4071 V
-5725 0 V
Z stroke
LCb setrgbcolor
176 2739 M
currentpoint gsave translate -270 rotate 0 0 moveto
[ [(Symbol) 220.0 0.0 true true 0 (h)]
[(Helvetica) 220.0 0.0 true true 0 ( [m])]
] -73.3 MCshow
grestore
LTb
LCb setrgbcolor
3940 154 M
[ [(Italic) 220.0 0.0 true true 0 (s)]
[(Helvetica) 220.0 0.0 true true 0 ( [m])]
] -73.3 MCshow
LTb
1.000 UP
1.000 UL
LTb
LCb setrgbcolor
% Begin plot #1
1.500 UP
3.000 UL
LT0
0.00 1.00 0.00 C LCb setrgbcolor
1342 4547 M
[ [(Symbol) 220.0 0.0 true true 0 (h)]
[(Italic) 176.0 -66.0 true true 0 (x)]
] -51.3 MRshow
LT0
0.00 1.00 0.00 C 1474 4547 M
591 0 V
1078 1867 M
18 0 V
4 0 V
72 0 V
9 0 V
9 0 V
19 0 V
57 0 V
19 0 V
18 0 V
4 0 V
49 0 V
21 0 V
21 0 V
201 0 V
18 0 V
18 0 V
4 0 V
311 0 V
18 0 V
18 0 V
4 0 V
78 0 V
57 -4 V
56 -14 V
119 -37 V
19 -7 V
18 -8 V
4 -2 V
197 -102 V
21 -11 V
21 -11 V
53 -27 V
18 -7 V
19 -3 V
3 -1 V
75 -3 V
7 -1 V
6 0 V
21 -1 V
58 -3 V
18 2 V
18 5 V
4 2 V
41 18 V
159 70 V
18 7 V
18 5 V
4 1 V
72 15 V
10 2 V
9 2 V
18 4 V
58 13 V
18 3 V
18 2 V
4 0 V
49 3 V
21 2 V
22 1 V
190 13 V
56 1 V
57 -5 V
82 -10 V
18 -1 V
18 1 V
4 1 V
78 11 V
57 2 V
57 -6 V
44 -9 V
38 -8 V
18 -4 V
18 -5 V
4 -2 V
65 -20 V
26 -8 V
27 -8 V
156 -49 V
18 -7 V
18 -10 V
4 -2 V
704 -438 V
75 -46 V
21 -13 V
21 -14 V
30 -18 V
18 -11 V
9 -6 V
10 -6 V
56 -35 V
41 12 V
41 85 V
22 66 V
55 159 V
18 54 V
9 26 V
10 27 V
53 155 V
44 110 V
43 91 V
20 38 V
84 165 V
stroke 5856 2058 M
51 100 V
15 30 V
13 25 V
78 153 V
37 74 V
56 110 V
106 208 V
125 300 V
125 402 V
246 878 V
48 172 V
47 168 V
1096 1867 Pnt
1100 1867 Pnt
1172 1867 Pnt
1181 1867 Pnt
1190 1867 Pnt
1209 1867 Pnt
1266 1867 Pnt
1285 1867 Pnt
1303 1867 Pnt
1307 1867 Pnt
1356 1867 Pnt
1377 1867 Pnt
1398 1867 Pnt
1599 1867 Pnt
1617 1867 Pnt
1635 1867 Pnt
1639 1867 Pnt
1950 1867 Pnt
1968 1867 Pnt
1986 1867 Pnt
1990 1867 Pnt
2068 1867 Pnt
2125 1863 Pnt
2181 1849 Pnt
2300 1812 Pnt
2319 1805 Pnt
2337 1797 Pnt
2341 1795 Pnt
2538 1693 Pnt
2559 1682 Pnt
2580 1671 Pnt
2633 1644 Pnt
2651 1637 Pnt
2670 1634 Pnt
2673 1633 Pnt
2748 1630 Pnt
2755 1629 Pnt
2761 1629 Pnt
2782 1628 Pnt
2840 1625 Pnt
2858 1627 Pnt
2876 1632 Pnt
2880 1634 Pnt
2921 1652 Pnt
3080 1722 Pnt
3098 1729 Pnt
3116 1734 Pnt
3120 1735 Pnt
3192 1750 Pnt
3202 1752 Pnt
3211 1754 Pnt
3229 1758 Pnt
3287 1771 Pnt
3305 1774 Pnt
3323 1776 Pnt
3327 1776 Pnt
3376 1779 Pnt
3397 1781 Pnt
3419 1782 Pnt
3609 1795 Pnt
3665 1796 Pnt
3722 1791 Pnt
3804 1781 Pnt
3822 1780 Pnt
3840 1781 Pnt
3844 1782 Pnt
3922 1793 Pnt
3979 1795 Pnt
4036 1789 Pnt
4080 1780 Pnt
4118 1772 Pnt
4136 1768 Pnt
4154 1763 Pnt
4158 1761 Pnt
4223 1741 Pnt
4249 1733 Pnt
4276 1725 Pnt
4432 1676 Pnt
4450 1669 Pnt
4468 1659 Pnt
4472 1657 Pnt
5176 1219 Pnt
5251 1173 Pnt
5272 1160 Pnt
5293 1146 Pnt
5323 1128 Pnt
5341 1117 Pnt
5350 1111 Pnt
5360 1105 Pnt
5416 1070 Pnt
5457 1082 Pnt
5498 1167 Pnt
5520 1233 Pnt
5575 1392 Pnt
5593 1446 Pnt
5602 1472 Pnt
5612 1499 Pnt
5665 1654 Pnt
5709 1764 Pnt
5752 1855 Pnt
5772 1893 Pnt
5856 2058 Pnt
5907 2158 Pnt
5922 2188 Pnt
5935 2213 Pnt
6013 2366 Pnt
6050 2440 Pnt
6106 2550 Pnt
6212 2758 Pnt
6337 3058 Pnt
6462 3460 Pnt
6708 4338 Pnt
6756 4510 Pnt
1769 4547 Pnt
% End plot #1
% Begin plot #2
1.500 UP
3.000 UL
LT1
1.00 0.00 0.00 C LCb setrgbcolor
1342 4217 M
[ [(Symbol) 220.0 0.0 true true 0 (h)]
[(Italic) 176.0 -66.0 true true 0 (y)]
] -51.3 MRshow
LT1
1.00 0.00 0.00 C 1474 4217 M
591 0 V
1078 1867 M
18 0 V
4 0 V
72 0 V
9 0 V
9 0 V
19 0 V
57 0 V
19 0 V
18 0 V
4 0 V
49 0 V
21 0 V
21 0 V
201 0 V
18 0 V
18 0 V
4 0 V
311 0 V
18 0 V
18 0 V
4 0 V
78 0 V
57 0 V
56 0 V
119 0 V
19 0 V
18 0 V
4 0 V
197 0 V
21 0 V
21 0 V
53 0 V
18 0 V
19 0 V
3 0 V
75 0 V
7 0 V
6 0 V
21 0 V
58 0 V
18 0 V
18 0 V
4 0 V
41 0 V
159 0 V
18 0 V
18 0 V
4 0 V
72 0 V
10 0 V
9 0 V
18 0 V
58 0 V
18 0 V
18 0 V
4 0 V
49 0 V
21 0 V
22 0 V
190 0 V
56 0 V
57 0 V
82 0 V
18 0 V
18 0 V
4 0 V
78 0 V
57 0 V
57 0 V
44 0 V
38 0 V
18 0 V
18 0 V
4 0 V
65 0 V
26 0 V
27 0 V
156 0 V
18 0 V
18 0 V
4 0 V
704 0 V
75 0 V
21 0 V
21 0 V
30 0 V
18 0 V
9 0 V
10 0 V
56 0 V
41 0 V
41 0 V
22 0 V
55 0 V
18 0 V
9 0 V
10 0 V
53 0 V
44 0 V
43 0 V
20 0 V
84 0 V
stroke 5856 1867 M
51 0 V
15 0 V
13 0 V
78 0 V
37 0 V
56 0 V
106 0 V
125 0 V
125 0 V
246 0 V
48 0 V
47 0 V
1096 1867 Pnt
1100 1867 Pnt
1172 1867 Pnt
1181 1867 Pnt
1190 1867 Pnt
1209 1867 Pnt
1266 1867 Pnt
1285 1867 Pnt
1303 1867 Pnt
1307 1867 Pnt
1356 1867 Pnt
1377 1867 Pnt
1398 1867 Pnt
1599 1867 Pnt
1617 1867 Pnt
1635 1867 Pnt
1639 1867 Pnt
1950 1867 Pnt
1968 1867 Pnt
1986 1867 Pnt
1990 1867 Pnt
2068 1867 Pnt
2125 1867 Pnt
2181 1867 Pnt
2300 1867 Pnt
2319 1867 Pnt
2337 1867 Pnt
2341 1867 Pnt
2538 1867 Pnt
2559 1867 Pnt
2580 1867 Pnt
2633 1867 Pnt
2651 1867 Pnt
2670 1867 Pnt
2673 1867 Pnt
2748 1867 Pnt
2755 1867 Pnt
2761 1867 Pnt
2782 1867 Pnt
2840 1867 Pnt
2858 1867 Pnt
2876 1867 Pnt
2880 1867 Pnt
2921 1867 Pnt
3080 1867 Pnt
3098 1867 Pnt
3116 1867 Pnt
3120 1867 Pnt
3192 1867 Pnt
3202 1867 Pnt
3211 1867 Pnt
3229 1867 Pnt
3287 1867 Pnt
3305 1867 Pnt
3323 1867 Pnt
3327 1867 Pnt
3376 1867 Pnt
3397 1867 Pnt
3419 1867 Pnt
3609 1867 Pnt
3665 1867 Pnt
3722 1867 Pnt
3804 1867 Pnt
3822 1867 Pnt
3840 1867 Pnt
3844 1867 Pnt
3922 1867 Pnt
3979 1867 Pnt
4036 1867 Pnt
4080 1867 Pnt
4118 1867 Pnt
4136 1867 Pnt
4154 1867 Pnt
4158 1867 Pnt
4223 1867 Pnt
4249 1867 Pnt
4276 1867 Pnt
4432 1867 Pnt
4450 1867 Pnt
4468 1867 Pnt
4472 1867 Pnt
5176 1867 Pnt
5251 1867 Pnt
5272 1867 Pnt
5293 1867 Pnt
5323 1867 Pnt
5341 1867 Pnt
5350 1867 Pnt
5360 1867 Pnt
5416 1867 Pnt
5457 1867 Pnt
5498 1867 Pnt
5520 1867 Pnt
5575 1867 Pnt
5593 1867 Pnt
5602 1867 Pnt
5612 1867 Pnt
5665 1867 Pnt
5709 1867 Pnt
5752 1867 Pnt
5772 1867 Pnt
5856 1867 Pnt
5907 1867 Pnt
5922 1867 Pnt
5935 1867 Pnt
6013 1867 Pnt
6050 1867 Pnt
6106 1867 Pnt
6212 1867 Pnt
6337 1867 Pnt
6462 1867 Pnt
6708 1867 Pnt
6756 1867 Pnt
1769 4217 Pnt
% End plot #2
1.000 UL
LTb
LCb setrgbcolor
1078 4775 N
0 -4071 V
5725 0 V
0 4071 V
-5725 0 V
Z stroke
1.000 UP
1.000 UL
LTb
LCb setrgbcolor
stroke
grestore
end
showpage
%%Trailer
%%DocumentFonts: Italic Symbol Helvetica
