%!PS-Adobe-2.0 EPSF-2.0
%%Title: optic_100bx1000by.eps
%%Creator: gnuplot 4.6 patchlevel 4
%%CreationDate: Fri May  5 16:33:24 2017
%%DocumentFonts: (atend)
%%BoundingBox: 50 50 410 302
%%EndComments
%%BeginProlog
/gnudict 256 dict def
gnudict begin
%
% The following true/false flags may be edited by hand if desired.
% The unit line width and grayscale image gamma correction may also be changed.
%
/Color true def
/Blacktext false def
/Solid false def
/Dashlength 1 def
/Landscape false def
/Level1 false def
/Rounded false def
/ClipToBoundingBox false def
/SuppressPDFMark false def
/TransparentPatterns false def
/gnulinewidth 5.000 def
/userlinewidth gnulinewidth def
/Gamma 1.0 def
/BackgroundColor {-1.000 -1.000 -1.000} def
%
/vshift -80 def
/dl1 {
  10.0 Dashlength mul mul
  Rounded { currentlinewidth 0.75 mul sub dup 0 le { pop 0.01 } if } if
} def
/dl2 {
  10.0 Dashlength mul mul
  Rounded { currentlinewidth 0.75 mul add } if
} def
/hpt_ 31.5 def
/vpt_ 31.5 def
/hpt hpt_ def
/vpt vpt_ def
/doclip {
  ClipToBoundingBox {
    newpath 50 50 moveto 410 50 lineto 410 302 lineto 50 302 lineto closepath
    clip
  } if
} def
%
% Gnuplot Prolog Version 4.6 (September 2012)
%
%/SuppressPDFMark true def
%
/M {moveto} bind def
/L {lineto} bind def
/R {rmoveto} bind def
/V {rlineto} bind def
/N {newpath moveto} bind def
/Z {closepath} bind def
/C {setrgbcolor} bind def
/f {rlineto fill} bind def
/g {setgray} bind def
/Gshow {show} def   % May be redefined later in the file to support UTF-8
/vpt2 vpt 2 mul def
/hpt2 hpt 2 mul def
/Lshow {currentpoint stroke M 0 vshift R 
	Blacktext {gsave 0 setgray show grestore} {show} ifelse} def
/Rshow {currentpoint stroke M dup stringwidth pop neg vshift R
	Blacktext {gsave 0 setgray show grestore} {show} ifelse} def
/Cshow {currentpoint stroke M dup stringwidth pop -2 div vshift R 
	Blacktext {gsave 0 setgray show grestore} {show} ifelse} def
/UP {dup vpt_ mul /vpt exch def hpt_ mul /hpt exch def
  /hpt2 hpt 2 mul def /vpt2 vpt 2 mul def} def
/DL {Color {setrgbcolor Solid {pop []} if 0 setdash}
 {pop pop pop 0 setgray Solid {pop []} if 0 setdash} ifelse} def
/BL {stroke userlinewidth 2 mul setlinewidth
	Rounded {1 setlinejoin 1 setlinecap} if} def
/AL {stroke userlinewidth 2 div setlinewidth
	Rounded {1 setlinejoin 1 setlinecap} if} def
/UL {dup gnulinewidth mul /userlinewidth exch def
	dup 1 lt {pop 1} if 10 mul /udl exch def} def
/PL {stroke userlinewidth setlinewidth
	Rounded {1 setlinejoin 1 setlinecap} if} def
3.8 setmiterlimit
% Default Line colors
/LCw {1 1 1} def
/LCb {0 0 0} def
/LCa {0 0 0} def
/LC0 {1 0 0} def
/LC1 {0 1 0} def
/LC2 {0 0 1} def
/LC3 {1 0 1} def
/LC4 {0 1 1} def
/LC5 {1 1 0} def
/LC6 {0 0 0} def
/LC7 {1 0.3 0} def
/LC8 {0.5 0.5 0.5} def
% Default Line Types
/LTw {PL [] 1 setgray} def
/LTb {BL [] LCb DL} def
/LTa {AL [1 udl mul 2 udl mul] 0 setdash LCa setrgbcolor} def
/LT0 {PL [] LC0 DL} def
/LT1 {PL [4 dl1 2 dl2] LC1 DL} def
/LT2 {PL [2 dl1 3 dl2] LC2 DL} def
/LT3 {PL [1 dl1 1.5 dl2] LC3 DL} def
/LT4 {PL [6 dl1 2 dl2 1 dl1 2 dl2] LC4 DL} def
/LT5 {PL [3 dl1 3 dl2 1 dl1 3 dl2] LC5 DL} def
/LT6 {PL [2 dl1 2 dl2 2 dl1 6 dl2] LC6 DL} def
/LT7 {PL [1 dl1 2 dl2 6 dl1 2 dl2 1 dl1 2 dl2] LC7 DL} def
/LT8 {PL [2 dl1 2 dl2 2 dl1 2 dl2 2 dl1 2 dl2 2 dl1 4 dl2] LC8 DL} def
/Pnt {stroke [] 0 setdash gsave 1 setlinecap M 0 0 V stroke grestore} def
/Dia {stroke [] 0 setdash 2 copy vpt add M
  hpt neg vpt neg V hpt vpt neg V
  hpt vpt V hpt neg vpt V closepath stroke
  Pnt} def
/Pls {stroke [] 0 setdash vpt sub M 0 vpt2 V
  currentpoint stroke M
  hpt neg vpt neg R hpt2 0 V stroke
 } def
/Box {stroke [] 0 setdash 2 copy exch hpt sub exch vpt add M
  0 vpt2 neg V hpt2 0 V 0 vpt2 V
  hpt2 neg 0 V closepath stroke
  Pnt} def
/Crs {stroke [] 0 setdash exch hpt sub exch vpt add M
  hpt2 vpt2 neg V currentpoint stroke M
  hpt2 neg 0 R hpt2 vpt2 V stroke} def
/TriU {stroke [] 0 setdash 2 copy vpt 1.12 mul add M
  hpt neg vpt -1.62 mul V
  hpt 2 mul 0 V
  hpt neg vpt 1.62 mul V closepath stroke
  Pnt} def
/Star {2 copy Pls Crs} def
/BoxF {stroke [] 0 setdash exch hpt sub exch vpt add M
  0 vpt2 neg V hpt2 0 V 0 vpt2 V
  hpt2 neg 0 V closepath fill} def
/TriUF {stroke [] 0 setdash vpt 1.12 mul add M
  hpt neg vpt -1.62 mul V
  hpt 2 mul 0 V
  hpt neg vpt 1.62 mul V closepath fill} def
/TriD {stroke [] 0 setdash 2 copy vpt 1.12 mul sub M
  hpt neg vpt 1.62 mul V
  hpt 2 mul 0 V
  hpt neg vpt -1.62 mul V closepath stroke
  Pnt} def
/TriDF {stroke [] 0 setdash vpt 1.12 mul sub M
  hpt neg vpt 1.62 mul V
  hpt 2 mul 0 V
  hpt neg vpt -1.62 mul V closepath fill} def
/DiaF {stroke [] 0 setdash vpt add M
  hpt neg vpt neg V hpt vpt neg V
  hpt vpt V hpt neg vpt V closepath fill} def
/Pent {stroke [] 0 setdash 2 copy gsave
  translate 0 hpt M 4 {72 rotate 0 hpt L} repeat
  closepath stroke grestore Pnt} def
/PentF {stroke [] 0 setdash gsave
  translate 0 hpt M 4 {72 rotate 0 hpt L} repeat
  closepath fill grestore} def
/Circle {stroke [] 0 setdash 2 copy
  hpt 0 360 arc stroke Pnt} def
/CircleF {stroke [] 0 setdash hpt 0 360 arc fill} def
/C0 {BL [] 0 setdash 2 copy moveto vpt 90 450 arc} bind def
/C1 {BL [] 0 setdash 2 copy moveto
	2 copy vpt 0 90 arc closepath fill
	vpt 0 360 arc closepath} bind def
/C2 {BL [] 0 setdash 2 copy moveto
	2 copy vpt 90 180 arc closepath fill
	vpt 0 360 arc closepath} bind def
/C3 {BL [] 0 setdash 2 copy moveto
	2 copy vpt 0 180 arc closepath fill
	vpt 0 360 arc closepath} bind def
/C4 {BL [] 0 setdash 2 copy moveto
	2 copy vpt 180 270 arc closepath fill
	vpt 0 360 arc closepath} bind def
/C5 {BL [] 0 setdash 2 copy moveto
	2 copy vpt 0 90 arc
	2 copy moveto
	2 copy vpt 180 270 arc closepath fill
	vpt 0 360 arc} bind def
/C6 {BL [] 0 setdash 2 copy moveto
	2 copy vpt 90 270 arc closepath fill
	vpt 0 360 arc closepath} bind def
/C7 {BL [] 0 setdash 2 copy moveto
	2 copy vpt 0 270 arc closepath fill
	vpt 0 360 arc closepath} bind def
/C8 {BL [] 0 setdash 2 copy moveto
	2 copy vpt 270 360 arc closepath fill
	vpt 0 360 arc closepath} bind def
/C9 {BL [] 0 setdash 2 copy moveto
	2 copy vpt 270 450 arc closepath fill
	vpt 0 360 arc closepath} bind def
/C10 {BL [] 0 setdash 2 copy 2 copy moveto vpt 270 360 arc closepath fill
	2 copy moveto
	2 copy vpt 90 180 arc closepath fill
	vpt 0 360 arc closepath} bind def
/C11 {BL [] 0 setdash 2 copy moveto
	2 copy vpt 0 180 arc closepath fill
	2 copy moveto
	2 copy vpt 270 360 arc closepath fill
	vpt 0 360 arc closepath} bind def
/C12 {BL [] 0 setdash 2 copy moveto
	2 copy vpt 180 360 arc closepath fill
	vpt 0 360 arc closepath} bind def
/C13 {BL [] 0 setdash 2 copy moveto
	2 copy vpt 0 90 arc closepath fill
	2 copy moveto
	2 copy vpt 180 360 arc closepath fill
	vpt 0 360 arc closepath} bind def
/C14 {BL [] 0 setdash 2 copy moveto
	2 copy vpt 90 360 arc closepath fill
	vpt 0 360 arc} bind def
/C15 {BL [] 0 setdash 2 copy vpt 0 360 arc closepath fill
	vpt 0 360 arc closepath} bind def
/Rec {newpath 4 2 roll moveto 1 index 0 rlineto 0 exch rlineto
	neg 0 rlineto closepath} bind def
/Square {dup Rec} bind def
/Bsquare {vpt sub exch vpt sub exch vpt2 Square} bind def
/S0 {BL [] 0 setdash 2 copy moveto 0 vpt rlineto BL Bsquare} bind def
/S1 {BL [] 0 setdash 2 copy vpt Square fill Bsquare} bind def
/S2 {BL [] 0 setdash 2 copy exch vpt sub exch vpt Square fill Bsquare} bind def
/S3 {BL [] 0 setdash 2 copy exch vpt sub exch vpt2 vpt Rec fill Bsquare} bind def
/S4 {BL [] 0 setdash 2 copy exch vpt sub exch vpt sub vpt Square fill Bsquare} bind def
/S5 {BL [] 0 setdash 2 copy 2 copy vpt Square fill
	exch vpt sub exch vpt sub vpt Square fill Bsquare} bind def
/S6 {BL [] 0 setdash 2 copy exch vpt sub exch vpt sub vpt vpt2 Rec fill Bsquare} bind def
/S7 {BL [] 0 setdash 2 copy exch vpt sub exch vpt sub vpt vpt2 Rec fill
	2 copy vpt Square fill Bsquare} bind def
/S8 {BL [] 0 setdash 2 copy vpt sub vpt Square fill Bsquare} bind def
/S9 {BL [] 0 setdash 2 copy vpt sub vpt vpt2 Rec fill Bsquare} bind def
/S10 {BL [] 0 setdash 2 copy vpt sub vpt Square fill 2 copy exch vpt sub exch vpt Square fill
	Bsquare} bind def
/S11 {BL [] 0 setdash 2 copy vpt sub vpt Square fill 2 copy exch vpt sub exch vpt2 vpt Rec fill
	Bsquare} bind def
/S12 {BL [] 0 setdash 2 copy exch vpt sub exch vpt sub vpt2 vpt Rec fill Bsquare} bind def
/S13 {BL [] 0 setdash 2 copy exch vpt sub exch vpt sub vpt2 vpt Rec fill
	2 copy vpt Square fill Bsquare} bind def
/S14 {BL [] 0 setdash 2 copy exch vpt sub exch vpt sub vpt2 vpt Rec fill
	2 copy exch vpt sub exch vpt Square fill Bsquare} bind def
/S15 {BL [] 0 setdash 2 copy Bsquare fill Bsquare} bind def
/D0 {gsave translate 45 rotate 0 0 S0 stroke grestore} bind def
/D1 {gsave translate 45 rotate 0 0 S1 stroke grestore} bind def
/D2 {gsave translate 45 rotate 0 0 S2 stroke grestore} bind def
/D3 {gsave translate 45 rotate 0 0 S3 stroke grestore} bind def
/D4 {gsave translate 45 rotate 0 0 S4 stroke grestore} bind def
/D5 {gsave translate 45 rotate 0 0 S5 stroke grestore} bind def
/D6 {gsave translate 45 rotate 0 0 S6 stroke grestore} bind def
/D7 {gsave translate 45 rotate 0 0 S7 stroke grestore} bind def
/D8 {gsave translate 45 rotate 0 0 S8 stroke grestore} bind def
/D9 {gsave translate 45 rotate 0 0 S9 stroke grestore} bind def
/D10 {gsave translate 45 rotate 0 0 S10 stroke grestore} bind def
/D11 {gsave translate 45 rotate 0 0 S11 stroke grestore} bind def
/D12 {gsave translate 45 rotate 0 0 S12 stroke grestore} bind def
/D13 {gsave translate 45 rotate 0 0 S13 stroke grestore} bind def
/D14 {gsave translate 45 rotate 0 0 S14 stroke grestore} bind def
/D15 {gsave translate 45 rotate 0 0 S15 stroke grestore} bind def
/DiaE {stroke [] 0 setdash vpt add M
  hpt neg vpt neg V hpt vpt neg V
  hpt vpt V hpt neg vpt V closepath stroke} def
/BoxE {stroke [] 0 setdash exch hpt sub exch vpt add M
  0 vpt2 neg V hpt2 0 V 0 vpt2 V
  hpt2 neg 0 V closepath stroke} def
/TriUE {stroke [] 0 setdash vpt 1.12 mul add M
  hpt neg vpt -1.62 mul V
  hpt 2 mul 0 V
  hpt neg vpt 1.62 mul V closepath stroke} def
/TriDE {stroke [] 0 setdash vpt 1.12 mul sub M
  hpt neg vpt 1.62 mul V
  hpt 2 mul 0 V
  hpt neg vpt -1.62 mul V closepath stroke} def
/PentE {stroke [] 0 setdash gsave
  translate 0 hpt M 4 {72 rotate 0 hpt L} repeat
  closepath stroke grestore} def
/CircE {stroke [] 0 setdash 
  hpt 0 360 arc stroke} def
/Opaque {gsave closepath 1 setgray fill grestore 0 setgray closepath} def
/DiaW {stroke [] 0 setdash vpt add M
  hpt neg vpt neg V hpt vpt neg V
  hpt vpt V hpt neg vpt V Opaque stroke} def
/BoxW {stroke [] 0 setdash exch hpt sub exch vpt add M
  0 vpt2 neg V hpt2 0 V 0 vpt2 V
  hpt2 neg 0 V Opaque stroke} def
/TriUW {stroke [] 0 setdash vpt 1.12 mul add M
  hpt neg vpt -1.62 mul V
  hpt 2 mul 0 V
  hpt neg vpt 1.62 mul V Opaque stroke} def
/TriDW {stroke [] 0 setdash vpt 1.12 mul sub M
  hpt neg vpt 1.62 mul V
  hpt 2 mul 0 V
  hpt neg vpt -1.62 mul V Opaque stroke} def
/PentW {stroke [] 0 setdash gsave
  translate 0 hpt M 4 {72 rotate 0 hpt L} repeat
  Opaque stroke grestore} def
/CircW {stroke [] 0 setdash 
  hpt 0 360 arc Opaque stroke} def
/BoxFill {gsave Rec 1 setgray fill grestore} def
/Density {
  /Fillden exch def
  currentrgbcolor
  /ColB exch def /ColG exch def /ColR exch def
  /ColR ColR Fillden mul Fillden sub 1 add def
  /ColG ColG Fillden mul Fillden sub 1 add def
  /ColB ColB Fillden mul Fillden sub 1 add def
  ColR ColG ColB setrgbcolor} def
/BoxColFill {gsave Rec PolyFill} def
/PolyFill {gsave Density fill grestore grestore} def
/h {rlineto rlineto rlineto gsave closepath fill grestore} bind def
%
% PostScript Level 1 Pattern Fill routine for rectangles
% Usage: x y w h s a XX PatternFill
%	x,y = lower left corner of box to be filled
%	w,h = width and height of box
%	  a = angle in degrees between lines and x-axis
%	 XX = 0/1 for no/yes cross-hatch
%
/PatternFill {gsave /PFa [ 9 2 roll ] def
  PFa 0 get PFa 2 get 2 div add PFa 1 get PFa 3 get 2 div add translate
  PFa 2 get -2 div PFa 3 get -2 div PFa 2 get PFa 3 get Rec
  TransparentPatterns {} {gsave 1 setgray fill grestore} ifelse
  clip
  currentlinewidth 0.5 mul setlinewidth
  /PFs PFa 2 get dup mul PFa 3 get dup mul add sqrt def
  0 0 M PFa 5 get rotate PFs -2 div dup translate
  0 1 PFs PFa 4 get div 1 add floor cvi
	{PFa 4 get mul 0 M 0 PFs V} for
  0 PFa 6 get ne {
	0 1 PFs PFa 4 get div 1 add floor cvi
	{PFa 4 get mul 0 2 1 roll M PFs 0 V} for
 } if
  stroke grestore} def
%
/languagelevel where
 {pop languagelevel} {1} ifelse
 2 lt
	{/InterpretLevel1 true def}
	{/InterpretLevel1 Level1 def}
 ifelse
%
% PostScript level 2 pattern fill definitions
%
/Level2PatternFill {
/Tile8x8 {/PaintType 2 /PatternType 1 /TilingType 1 /BBox [0 0 8 8] /XStep 8 /YStep 8}
	bind def
/KeepColor {currentrgbcolor [/Pattern /DeviceRGB] setcolorspace} bind def
<< Tile8x8
 /PaintProc {0.5 setlinewidth pop 0 0 M 8 8 L 0 8 M 8 0 L stroke} 
>> matrix makepattern
/Pat1 exch def
<< Tile8x8
 /PaintProc {0.5 setlinewidth pop 0 0 M 8 8 L 0 8 M 8 0 L stroke
	0 4 M 4 8 L 8 4 L 4 0 L 0 4 L stroke}
>> matrix makepattern
/Pat2 exch def
<< Tile8x8
 /PaintProc {0.5 setlinewidth pop 0 0 M 0 8 L
	8 8 L 8 0 L 0 0 L fill}
>> matrix makepattern
/Pat3 exch def
<< Tile8x8
 /PaintProc {0.5 setlinewidth pop -4 8 M 8 -4 L
	0 12 M 12 0 L stroke}
>> matrix makepattern
/Pat4 exch def
<< Tile8x8
 /PaintProc {0.5 setlinewidth pop -4 0 M 8 12 L
	0 -4 M 12 8 L stroke}
>> matrix makepattern
/Pat5 exch def
<< Tile8x8
 /PaintProc {0.5 setlinewidth pop -2 8 M 4 -4 L
	0 12 M 8 -4 L 4 12 M 10 0 L stroke}
>> matrix makepattern
/Pat6 exch def
<< Tile8x8
 /PaintProc {0.5 setlinewidth pop -2 0 M 4 12 L
	0 -4 M 8 12 L 4 -4 M 10 8 L stroke}
>> matrix makepattern
/Pat7 exch def
<< Tile8x8
 /PaintProc {0.5 setlinewidth pop 8 -2 M -4 4 L
	12 0 M -4 8 L 12 4 M 0 10 L stroke}
>> matrix makepattern
/Pat8 exch def
<< Tile8x8
 /PaintProc {0.5 setlinewidth pop 0 -2 M 12 4 L
	-4 0 M 12 8 L -4 4 M 8 10 L stroke}
>> matrix makepattern
/Pat9 exch def
/Pattern1 {PatternBgnd KeepColor Pat1 setpattern} bind def
/Pattern2 {PatternBgnd KeepColor Pat2 setpattern} bind def
/Pattern3 {PatternBgnd KeepColor Pat3 setpattern} bind def
/Pattern4 {PatternBgnd KeepColor Landscape {Pat5} {Pat4} ifelse setpattern} bind def
/Pattern5 {PatternBgnd KeepColor Landscape {Pat4} {Pat5} ifelse setpattern} bind def
/Pattern6 {PatternBgnd KeepColor Landscape {Pat9} {Pat6} ifelse setpattern} bind def
/Pattern7 {PatternBgnd KeepColor Landscape {Pat8} {Pat7} ifelse setpattern} bind def
} def
%
%
%End of PostScript Level 2 code
%
/PatternBgnd {
  TransparentPatterns {} {gsave 1 setgray fill grestore} ifelse
} def
%
% Substitute for Level 2 pattern fill codes with
% grayscale if Level 2 support is not selected.
%
/Level1PatternFill {
/Pattern1 {0.250 Density} bind def
/Pattern2 {0.500 Density} bind def
/Pattern3 {0.750 Density} bind def
/Pattern4 {0.125 Density} bind def
/Pattern5 {0.375 Density} bind def
/Pattern6 {0.625 Density} bind def
/Pattern7 {0.875 Density} bind def
} def
%
% Now test for support of Level 2 code
%
Level1 {Level1PatternFill} {Level2PatternFill} ifelse
%
/Symbol-Oblique /Symbol findfont [1 0 .167 1 0 0] makefont
dup length dict begin {1 index /FID eq {pop pop} {def} ifelse} forall
currentdict end definefont pop
/MFshow {
   { dup 5 get 3 ge
     { 5 get 3 eq {gsave} {grestore} ifelse }
     {dup dup 0 get findfont exch 1 get scalefont setfont
     [ currentpoint ] exch dup 2 get 0 exch R dup 5 get 2 ne {dup dup 6
     get exch 4 get {Gshow} {stringwidth pop 0 R} ifelse }if dup 5 get 0 eq
     {dup 3 get {2 get neg 0 exch R pop} {pop aload pop M} ifelse} {dup 5
     get 1 eq {dup 2 get exch dup 3 get exch 6 get stringwidth pop -2 div
     dup 0 R} {dup 6 get stringwidth pop -2 div 0 R 6 get
     show 2 index {aload pop M neg 3 -1 roll neg R pop pop} {pop pop pop
     pop aload pop M} ifelse }ifelse }ifelse }
     ifelse }
   forall} def
/Gswidth {dup type /stringtype eq {stringwidth} {pop (n) stringwidth} ifelse} def
/MFwidth {0 exch { dup 5 get 3 ge { 5 get 3 eq { 0 } { pop } ifelse }
 {dup 3 get{dup dup 0 get findfont exch 1 get scalefont setfont
     6 get Gswidth pop add} {pop} ifelse} ifelse} forall} def
/MLshow { currentpoint stroke M
  0 exch R
  Blacktext {gsave 0 setgray MFshow grestore} {MFshow} ifelse } bind def
/MRshow { currentpoint stroke M
  exch dup MFwidth neg 3 -1 roll R
  Blacktext {gsave 0 setgray MFshow grestore} {MFshow} ifelse } bind def
/MCshow { currentpoint stroke M
  exch dup MFwidth -2 div 3 -1 roll R
  Blacktext {gsave 0 setgray MFshow grestore} {MFshow} ifelse } bind def
/XYsave    { [( ) 1 2 true false 3 ()] } bind def
/XYrestore { [( ) 1 2 true false 4 ()] } bind def
Level1 SuppressPDFMark or 
{} {
/SDict 10 dict def
systemdict /pdfmark known not {
  userdict /pdfmark systemdict /cleartomark get put
} if
SDict begin [
  /Title (optic_100bx1000by.eps)
  /Subject (gnuplot plot)
  /Creator (gnuplot 4.6 patchlevel 4)
  /Author (rj-yang)
%  /Producer (gnuplot)
%  /Keywords ()
  /CreationDate (Fri May  5 16:33:24 2017)
  /DOCINFO pdfmark
end
} ifelse
end
%%EndProlog
%%Page: 1 1
gnudict begin
gsave
doclip
50 50 translate
0.050 0.050 scale
0 setgray
newpath
(Helvetica) findfont 240 scalefont setfont
BackgroundColor 0 lt 3 1 roll 0 lt exch 0 lt or or not {BackgroundColor C 1.000 0 0 7200.00 5040.00 BoxColFill} if
1.000 UL
LTb
LCb setrgbcolor
1032 768 M
63 0 V
5672 0 R
-63 0 V
stroke
888 768 M
[ [(Helvetica) 240.0 0.0 true true 0 ( 0)]
] -80.0 MRshow
1.000 UL
LTb
LCb setrgbcolor
1032 1266 M
63 0 V
5672 0 R
-63 0 V
stroke
888 1266 M
[ [(Helvetica) 240.0 0.0 true true 0 ( 2)]
] -80.0 MRshow
1.000 UL
LTb
LCb setrgbcolor
1032 1764 M
63 0 V
5672 0 R
-63 0 V
stroke
888 1764 M
[ [(Helvetica) 240.0 0.0 true true 0 ( 4)]
] -80.0 MRshow
1.000 UL
LTb
LCb setrgbcolor
1032 2262 M
63 0 V
5672 0 R
-63 0 V
stroke
888 2262 M
[ [(Helvetica) 240.0 0.0 true true 0 ( 6)]
] -80.0 MRshow
1.000 UL
LTb
LCb setrgbcolor
1032 2760 M
63 0 V
5672 0 R
-63 0 V
stroke
888 2760 M
[ [(Helvetica) 240.0 0.0 true true 0 ( 8)]
] -80.0 MRshow
1.000 UL
LTb
LCb setrgbcolor
1032 3257 M
63 0 V
5672 0 R
-63 0 V
stroke
888 3257 M
[ [(Helvetica) 240.0 0.0 true true 0 ( 10)]
] -80.0 MRshow
1.000 UL
LTb
LCb setrgbcolor
1032 3755 M
63 0 V
5672 0 R
-63 0 V
stroke
888 3755 M
[ [(Helvetica) 240.0 0.0 true true 0 ( 12)]
] -80.0 MRshow
1.000 UL
LTb
LCb setrgbcolor
1032 4253 M
63 0 V
5672 0 R
-63 0 V
stroke
888 4253 M
[ [(Helvetica) 240.0 0.0 true true 0 ( 14)]
] -80.0 MRshow
1.000 UL
LTb
LCb setrgbcolor
1032 4751 M
63 0 V
5672 0 R
-63 0 V
stroke
888 4751 M
[ [(Helvetica) 240.0 0.0 true true 0 ( 16)]
] -80.0 MRshow
1.000 UL
LTb
LCb setrgbcolor
1402 768 M
0 63 V
0 3920 R
0 -63 V
stroke
1402 528 M
[ [(Helvetica) 240.0 0.0 true true 0 ( 65)]
] -80.0 MCshow
1.000 UL
LTb
LCb setrgbcolor
2327 768 M
0 63 V
0 3920 R
0 -63 V
stroke
2327 528 M
[ [(Helvetica) 240.0 0.0 true true 0 ( 70)]
] -80.0 MCshow
1.000 UL
LTb
LCb setrgbcolor
3252 768 M
0 63 V
0 3920 R
0 -63 V
stroke
3252 528 M
[ [(Helvetica) 240.0 0.0 true true 0 ( 75)]
] -80.0 MCshow
1.000 UL
LTb
LCb setrgbcolor
4177 768 M
0 63 V
0 3920 R
0 -63 V
stroke
4177 528 M
[ [(Helvetica) 240.0 0.0 true true 0 ( 80)]
] -80.0 MCshow
1.000 UL
LTb
LCb setrgbcolor
5102 768 M
0 63 V
0 3920 R
0 -63 V
stroke
5102 528 M
[ [(Helvetica) 240.0 0.0 true true 0 ( 85)]
] -80.0 MCshow
1.000 UL
LTb
LCb setrgbcolor
6027 768 M
0 63 V
0 3920 R
0 -63 V
stroke
6027 528 M
[ [(Helvetica) 240.0 0.0 true true 0 ( 90)]
] -80.0 MCshow
1.000 UL
LTb
LCb setrgbcolor
1.000 UL
LTb
LCb setrgbcolor
1032 4751 N
0 -3983 V
5735 0 V
0 3983 V
-5735 0 V
Z stroke
LCb setrgbcolor
192 2759 M
currentpoint gsave translate -270 rotate 0 0 moveto
[ [(Symbol) 240.0 0.0 true true 0 (b)]
[(Helvetica) 192.0 120.0 true true 0 (1/2)]
[(Helvetica) 240.0 0.0 true true 0 ( [m])]
] -104.0 MCshow
grestore
LTb
LCb setrgbcolor
3899 168 M
[ [(Italic) 240.0 0.0 true true 0 (s)]
[(Helvetica) 240.0 0.0 true true 0 ( [m])]
] -80.0 MCshow
LTb
1.000 UP
1.000 UL
LTb
LCb setrgbcolor
% Begin plot #1
1.500 UP
3.000 UL
LT0
0.00 0.00 0.00 C LCb setrgbcolor
1752 4508 M
[ [(Symbol) 240.0 0.0 true true 0 (b)]
[(Italic) 192.0 -72.0 true true 0 (x)]
[(Helvetica) 192.0 120.0 true true 0 (1/2)]
] -80.0 MRshow
LT0
0.00 0.00 0.00 C 1896 4508 M
639 0 V
1032 2232 M
18 47 V
4 6 V
72 131 V
9 17 V
10 17 V
18 33 V
58 105 V
18 16 V
18 -18 V
4 -7 V
49 -95 V
21 -42 V
22 -41 V
201 -386 V
18 -17 V
18 20 V
4 8 V
311 661 V
18 12 V
19 -39 V
3 -14 V
79 -281 V
57 -203 V
56 -204 V
120 -426 V
18 -54 V
18 -33 V
4 -5 V
197 -231 V
21 -23 V
22 -22 V
53 -52 V
18 -19 V
18 -24 V
4 -5 V
75 -89 V
7 -5 V
6 -5 V
21 -10 V
58 11 V
18 12 V
19 13 V
3 3 V
41 37 V
159 212 V
19 31 V
18 39 V
4 8 V
72 171 V
9 22 V
10 22 V
18 44 V
58 137 V
18 51 V
18 66 V
4 14 V
49 197 V
21 86 V
22 85 V
190 763 V
57 228 V
56 227 V
83 330 V
18 33 V
18 -51 V
4 -18 V
78 -392 V
57 -282 V
57 -284 V
44 -222 V
38 -188 V
18 -84 V
19 -69 V
3 -12 V
66 -220 V
25 -86 V
27 -91 V
157 -521 V
18 -57 V
18 -50 V
4 -10 V
705 1135 V
75 200 V
21 57 V
21 57 V
30 80 V
19 49 V
9 24 V
9 25 V
56 150 V
41 8 V
41 -195 V
23 -160 V
55 -390 V
18 -130 V
9 -65 V
10 -66 V
53 -377 V
44 -242 V
44 -133 V
19 -38 V
84 -151 V
stroke 5818 998 M
51 -62 V
15 -8 V
13 -3 V
78 72 V
38 63 V
56 105 V
106 214 V
125 250 V
126 227 V
246 418 V
48 83 V
47 80 V
1050 2279 Pnt
1054 2285 Pnt
1126 2416 Pnt
1135 2433 Pnt
1145 2450 Pnt
1163 2483 Pnt
1221 2588 Pnt
1239 2604 Pnt
1257 2586 Pnt
1261 2579 Pnt
1310 2484 Pnt
1331 2442 Pnt
1353 2401 Pnt
1554 2015 Pnt
1572 1998 Pnt
1590 2018 Pnt
1594 2026 Pnt
1905 2687 Pnt
1923 2699 Pnt
1942 2660 Pnt
1945 2646 Pnt
2024 2365 Pnt
2081 2162 Pnt
2137 1958 Pnt
2257 1532 Pnt
2275 1478 Pnt
2293 1445 Pnt
2297 1440 Pnt
2494 1209 Pnt
2515 1186 Pnt
2537 1164 Pnt
2590 1112 Pnt
2608 1093 Pnt
2626 1069 Pnt
2630 1064 Pnt
2705 975 Pnt
2712 970 Pnt
2718 965 Pnt
2739 955 Pnt
2797 966 Pnt
2815 978 Pnt
2834 991 Pnt
2837 994 Pnt
2878 1031 Pnt
3037 1243 Pnt
3056 1274 Pnt
3074 1313 Pnt
3078 1321 Pnt
3150 1492 Pnt
3159 1514 Pnt
3169 1536 Pnt
3187 1580 Pnt
3245 1717 Pnt
3263 1768 Pnt
3281 1834 Pnt
3285 1848 Pnt
3334 2045 Pnt
3355 2131 Pnt
3377 2216 Pnt
3567 2979 Pnt
3624 3207 Pnt
3680 3434 Pnt
3763 3764 Pnt
3781 3797 Pnt
3799 3746 Pnt
3803 3728 Pnt
3881 3336 Pnt
3938 3054 Pnt
3995 2770 Pnt
4039 2548 Pnt
4077 2360 Pnt
4095 2276 Pnt
4114 2207 Pnt
4117 2195 Pnt
4183 1975 Pnt
4208 1889 Pnt
4235 1798 Pnt
4392 1277 Pnt
4410 1220 Pnt
4428 1170 Pnt
4432 1160 Pnt
5137 2295 Pnt
5212 2495 Pnt
5233 2552 Pnt
5254 2609 Pnt
5284 2689 Pnt
5303 2738 Pnt
5312 2762 Pnt
5321 2787 Pnt
5377 2937 Pnt
5418 2945 Pnt
5459 2750 Pnt
5482 2590 Pnt
5537 2200 Pnt
5555 2070 Pnt
5564 2005 Pnt
5574 1939 Pnt
5627 1562 Pnt
5671 1320 Pnt
5715 1187 Pnt
5734 1149 Pnt
5818 998 Pnt
5869 936 Pnt
5884 928 Pnt
5897 925 Pnt
5975 997 Pnt
6013 1060 Pnt
6069 1165 Pnt
6175 1379 Pnt
6300 1629 Pnt
6426 1856 Pnt
6672 2274 Pnt
6720 2357 Pnt
2215 4508 Pnt
% End plot #1
% Begin plot #2
1.500 UP
3.000 UL
LT1
0.00 1.00 1.00 C LCb setrgbcolor
1752 4148 M
[ [(Symbol) 240.0 0.0 true true 0 (b)]
[(Italic) 192.0 -72.0 true true 0 (y)]
[(Helvetica) 192.0 120.0 true true 0 (1/2)]
] -80.0 MRshow
LT1
0.00 1.00 1.00 C 1896 4148 M
639 0 V
1032 1360 M
18 -74 V
4 -14 V
72 -270 V
9 -33 V
10 -32 V
18 -55 V
58 58 V
18 66 V
18 73 V
4 15 V
49 209 V
21 92 V
22 91 V
201 866 V
18 55 V
18 6 V
4 -3 V
311 -313 V
18 0 V
19 36 V
3 11 V
79 234 V
57 168 V
56 168 V
120 351 V
18 19 V
18 -49 V
4 -17 V
197 -899 V
21 -97 V
22 -97 V
53 -240 V
18 -75 V
18 -60 V
4 -10 V
75 -211 V
7 -18 V
6 -19 V
21 -58 V
58 -157 V
18 -45 V
19 -38 V
3 -7 V
41 -62 V
159 182 V
19 38 V
18 33 V
4 6 V
72 123 V
9 16 V
10 16 V
18 32 V
58 102 V
18 27 V
18 17 V
4 2 V
49 31 V
21 14 V
22 13 V
190 125 V
57 38 V
56 39 V
83 56 V
18 27 V
18 57 V
4 15 V
78 312 V
57 225 V
57 224 V
44 175 V
38 149 V
18 61 V
19 38 V
3 6 V
66 95 V
25 37 V
27 40 V
157 228 V
18 7 V
18 -33 V
4 -10 V
5137 1479 L
75 -209 V
21 -59 V
21 -58 V
30 -80 V
19 -47 V
9 -24 V
9 -22 V
56 -94 V
41 42 V
41 109 V
23 73 V
55 180 V
18 61 V
9 31 V
10 31 V
53 178 V
44 64 V
44 -106 V
19 -83 V
84 -353 V
51 -202 V
15 -47 V
13 -17 V
78 262 V
38 157 V
56 236 V
106 449 V
125 534 V
126 535 V
246 1051 V
48 206 V
47 201 V
1050 1286 Pnt
1054 1272 Pnt
1126 1002 Pnt
1135 969 Pnt
1145 937 Pnt
1163 882 Pnt
1221 940 Pnt
1239 1006 Pnt
1257 1079 Pnt
1261 1094 Pnt
1310 1303 Pnt
1331 1395 Pnt
1353 1486 Pnt
1554 2352 Pnt
1572 2407 Pnt
1590 2413 Pnt
1594 2410 Pnt
1905 2097 Pnt
1923 2097 Pnt
1942 2133 Pnt
1945 2144 Pnt
2024 2378 Pnt
2081 2546 Pnt
2137 2714 Pnt
2257 3065 Pnt
2275 3084 Pnt
2293 3035 Pnt
2297 3018 Pnt
2494 2119 Pnt
2515 2022 Pnt
2537 1925 Pnt
2590 1685 Pnt
2608 1610 Pnt
2626 1550 Pnt
2630 1540 Pnt
2705 1329 Pnt
2712 1311 Pnt
2718 1292 Pnt
2739 1234 Pnt
2797 1077 Pnt
2815 1032 Pnt
2834 994 Pnt
2837 987 Pnt
2878 925 Pnt
3037 1107 Pnt
3056 1145 Pnt
3074 1178 Pnt
3078 1184 Pnt
3150 1307 Pnt
3159 1323 Pnt
3169 1339 Pnt
3187 1371 Pnt
3245 1473 Pnt
3263 1500 Pnt
3281 1517 Pnt
3285 1519 Pnt
3334 1550 Pnt
3355 1564 Pnt
3377 1577 Pnt
3567 1702 Pnt
3624 1740 Pnt
3680 1779 Pnt
3763 1835 Pnt
3781 1862 Pnt
3799 1919 Pnt
3803 1934 Pnt
3881 2246 Pnt
3938 2471 Pnt
3995 2695 Pnt
4039 2870 Pnt
4077 3019 Pnt
4095 3080 Pnt
4114 3118 Pnt
4117 3124 Pnt
4183 3219 Pnt
4208 3256 Pnt
4235 3296 Pnt
4392 3524 Pnt
4410 3531 Pnt
4428 3498 Pnt
4432 3488 Pnt
5137 1479 Pnt
5212 1270 Pnt
5233 1211 Pnt
5254 1153 Pnt
5284 1073 Pnt
5303 1026 Pnt
5312 1002 Pnt
5321 980 Pnt
5377 886 Pnt
5418 928 Pnt
5459 1037 Pnt
5482 1110 Pnt
5537 1290 Pnt
5555 1351 Pnt
5564 1382 Pnt
5574 1413 Pnt
5627 1591 Pnt
5671 1655 Pnt
5715 1549 Pnt
5734 1466 Pnt
5818 1113 Pnt
5869 911 Pnt
5884 864 Pnt
5897 847 Pnt
5975 1109 Pnt
6013 1266 Pnt
6069 1502 Pnt
6175 1951 Pnt
6300 2485 Pnt
6426 3020 Pnt
6672 4071 Pnt
6720 4277 Pnt
2215 4148 Pnt
% End plot #2
1.000 UL
LTb
LCb setrgbcolor
1032 4751 N
0 -3983 V
5735 0 V
0 3983 V
-5735 0 V
Z stroke
1.000 UP
1.000 UL
LTb
LCb setrgbcolor
stroke
grestore
end
showpage
%%Trailer
%%DocumentFonts: Italic Symbol Helvetica
