{{"FD",1,{4.604277758081E-6,9.079109525996E-6,-2.0889414074E-6,4.471937504335E-7}},
 {"EX2",0,{-3.96997615031E-5,6.818389023563E-6,-1.79644707847E-6,7.324947289842E-7}},
 {"FD",1,{-3.96662905393E-5,6.787430465007E-6,-2.20690199384E-6,4.541172911507E-7}},
 {"AY",1,{-3.98093287867E-5,6.524152105759E-6,-1.04246064383E-6,3.641055066108E-7},
  {{1.33835977856E-13,-3.8442224862E-14,1.21320286598E-12},{Residual->8.45909034748E-16}},
  {{-.5,4.55960985224E-13},{-.35,2.96947790045E-13},{-.2,1.89878068229E-13},{-.05,1.37715990032E-13},{.1,1.41951417478E-13},
   {.25,2.01501046843E-13},{.4,3.11900181566E-13}}},
 {"EY",1,{-3.97174881313E-5,6.524445366782E-6,-1.30583325126E-6,3.541009424996E-7},
  {{1.35520605493E-13,1.81852517961E-13,6.62747589482E-13},{Residual->3.22046559335E-15}},
  {{-.5,2.06637867339E-13},{-.35,1.56909882283E-13},{-.2,1.29559703093E-13},{-.05,1.2717891844E-13},{.1,1.55792802393E-13},
   {.25,2.21210388275E-13},{.4,3.16835359529E-13}}},
 {"R32",1,{-4.00806049374E-5,6.535034938611E-6,-1.04141932428E-6,1.921484875845E-7},
  {{1.26513976675E-13,5.34162860388E-13,7.6563462608E-13},{Residual->1.66394276685E-15}},
  {{-.5,4.87690989877E-14},{-.35,3.68465697091E-14},{-.2,5.04608317873E-14},{-.05,1.00351436185E-13},{.1,1.86855843641E-13},
   {.25,3.07793531789E-13},{.4,4.63311943875E-13}}},
 {"AY",1,{-4.0065513439E-5,6.534259422446E-6,-1.04380233857E-6,1.921159107671E-7},
  {{3.64870964733E-14,-5.7124205879E-15,1.16128694216E-12},{Residual->6.43376490102E-16}},
  {{-.5,3.3044139614E-13},{-.35,1.79690335466E-13},{-.2,8.36207795384E-14},{-.05,4.01699616585E-14},{.1,4.7700594653E-14},
   {.25,1.08265388273E-13},{.4,2.19453861838E-13}}},
 {"EY",1,{-3.98760332952E-5,6.530302837306E-6,-1.45231534339E-6,1.049710526035E-7},
  {{3.74784429635E-14,2.53564953315E-13,5.996985085E-13},{Residual->5.50728886103E-16}},
  {{-.5,6.00714959892E-14},{-.35,2.31910973648E-14},{-.2,1.08849861752E-14},{-.05,2.54361046809E-14},{.1,6.88956267634E-14},
   {.25,1.38595048633E-13},{.4,2.34831791732E-13}}},
 {"R32",1,{-3.99539893693E-5,6.53470390662E-6,-1.37703970303E-6,5.697448179514E-8},
  {{1.08055656024E-14,1.53431211692E-13,7.63832116453E-13},{Residual->2.33419720439E-16}},
  {{-.5,1.25225732198E-13},{-.35,5.05787672399E-14},{-.2,1.02132411003E-14},{-.05,5.32793626098E-15},{.1,3.39770914419E-14},
   {.25,9.69172059316E-14},{.4,1.94279356355E-13}}},
 {"AY",1,{-3.99590234655E-5,6.535163584336E-6,-1.37648442461E-6,5.707419582446E-8},
  {{2.8267909929E-15,3.11707218891E-15,1.1508841869E-12},{Residual->2.99957099603E-16}},
  {{-.3,1.05351382802E-13},{-.2,4.82490357069E-14},{-.1,1.41495162176E-14},{5.55111512313E-17,3.25287945003E-15},
   {.1,1.43105648266E-14},{.2,4.90462174951E-14},{.3,1.07675512783E-13}}},
 {"EY",1,{-3.99158628156E-5,6.534157970685E-6,-1.47332407254E-6,4.489556056806E-8},
  {{3.23031209974E-15,5.84847805323E-14,5.87229634761E-13},{Residual->1.25754964337E-16}},
  {{-.5,1.20810439527E-13},{-.35,5.4591723373E-14},{-.2,1.50917141807E-14},{-.05,1.98111222399E-15},{.1,1.47339774622E-14},
   {.25,5.45220660752E-14},{.4,1.20642667177E-13}}},
 {"R32",1,{-3.99317182591E-5,6.535082576111E-6,-1.45741850713E-6,4.019853320785E-8},
  {{1.77698835991E-15,3.39150164242E-14,7.64472801105E-13},{Residual->1.47351215657E-16}},
  {{-.5,1.75838421111E-13},{-.35,8.37741471685E-14},{-.2,2.5401068165E-14},{-.05,2.07907544519E-15},{.1,1.28781495046E-14},
   {.25,5.78308514272E-14},{.4,1.37763088665E-13}}},
 {"AY",1,{-3.99319480386E-5,6.53536714403E-6,-1.45732655789E-6,4.022255669746E-8},
  {{1.02187155545E-15,9.49957115704E-16,1.15192384268E-12},{Residual->2.80347646774E-16}},
  {{-.3,1.0447987184E-13},{-.2,4.68511842272E-14},{-.1,1.21103199269E-14},{5.55111512313E-17,1.61946070244E-15},
   {.1,1.23869767708E-14},{.2,4.72066830607E-14},{.3,1.05037280311E-13}}},
 {"EY",1,{-3.99236258551E-5,6.535273471102E-6,-1.47590433934E-6,3.959642178329E-8},
  {{1.39599263745E-15,1.11406134911E-14,5.86055800453E-13},{Residual->1.16118618946E-16}},
  {{-.3,5.08097934136E-14},{-.2,2.25354555161E-14},{-.1,6.15819534068E-15},{5.55111512313E-17,1.61631692804E-15},
   {.1,8.19742550424E-15},{.2,2.69963787744E-14},{.3,5.75540071119E-14}}},
 {"R32",1,{-3.99250464264E-5,6.535323432521E-6,-1.47396480217E-6,3.937471896863E-8},
  {{1.38435047764E-15,4.94713199172E-15,7.65948807644E-13},{Residual->1.06773550944E-16}},
  {{-.3,6.88498934804E-14},{-.2,3.09775281718E-14},{-.1,8.51743497837E-15},{5.55111512313E-17,1.57483400279E-15},
   {.1,9.49637688566E-15},{.2,3.28423914404E-14},{.3,7.18976605245E-14}}},
 {"Y24",1,{-3.9900037837E-5,6.535523913138E-6,-1.47418152833E-6,3.912317605187E-8},
  {{1.60265644809E-15,-1.9470042001E-16,8.73659901373E-16},{Residual->4.9629337453E-17}},
  {{-1.5,3.77731116595E-15},{-1.2,3.1337050691E-15},{-.9,2.56165527578E-15},{-.6,2.08757229025E-15},{-.3,1.74284383314E-15},
   {0,1.55036849386E-15},{.3,1.55867835952E-15},{.6,1.76814975137E-15},{.9,2.16121783288E-15},{1.2,2.66417427782E-15},
   {1.5,3.27277760295E-15}}},
 {"Y46",1,{-3.98916865346E-5,6.536940422339E-6,-1.47471834749E-6,3.903373807728E-8},
  {{1.55871041995E-15,1.72280543595E-16,5.33079458257E-15},{Residual->8.93806379509E-17}},
  {{-1,6.81101493789E-15},{-.8,4.85175118247E-15},{-.6,3.31774275026E-15},{-.4,2.22423343605E-15},{-.2,1.63338322717E-15},
   {0,1.53062290439E-15},{.2,1.89172494305E-15},{.4,2.61394372314E-15},{.6,3.67675074434E-15},{.8,5.11324956371E-15},
   {1,6.93689337026E-15}}},
 {"Y22",1,{-3.98916865346E-5,6.536940422327E-6,-1.47471834749E-6,3.903373807728E-8},
  {{2.48391600165E-15,9.36686060751E-16,1.83308791715E-14},{Residual->5.04913109237E-16}},
  {{-.6,8.11670859257E-15},{-.4,5.68676664748E-15},{-.2,3.43535294409E-15},{1.11022302463E-16,1.52363270829E-15},
   {.2,3.4709444233E-15},{.4,6.12026457017E-15},{.6,9.56432679778E-15}}},
 {"Y26",1,{-3.98916865346E-5,6.536940422327E-6,-1.47471834749E-6,3.903373807728E-8},
  {{2.07023844348E-15,-1.7142684826E-15,2.03692808883E-14},{Residual->2.79161062669E-16}},
  {{-.6,1.02625953584E-14},{-.4,6.3161441745E-15},{-.2,3.41008150741E-15},{1.11022302463E-16,1.52363270829E-15},
   {.2,2.61470985581E-15},{.4,4.91875771178E-15},{.6,8.25934238316E-15}}},
 {"Y66",1,{-3.98916865346E-5,6.536940422327E-6,-1.47471834749E-6,3.903373807728E-8},
  {{3.53076845274E-15,7.22032290924E-15,5.82264722144E-13},{Residual->8.86357914753E-16}},
  {{-.2,2.49381648843E-14},{-.15,1.6008303453E-14},{-.1,9.51974103362E-15},{-.05,4.61865169607E-15},{0,1.52363270829E-15},
   {.05,5.45133770816E-15},{.1,1.11922573982E-14},{.15,1.8197322176E-14},{.2,2.76672133386E-14}}},
 {"Y44",1,{-3.98916865346E-5,6.536940422327E-6,-1.47471834749E-6,3.903373807728E-8},
  {{1.92277562437E-15,7.8263369655E-16,1.09303685419E-14},{Residual->2.08695107792E-16}},
  {{-.6,5.25524833098E-15},{-.4,3.60724140214E-15},{-.2,2.31161699311E-15},{1.11022302463E-16,1.52363270829E-15},
   {.2,2.57161901654E-15},{.4,4.19327658488E-15},{.6,6.23880710157E-15}}},
 {"AY",1,{-3.98926120933E-5,6.536930204279E-6,-1.47485863715E-6,3.903998239863E-8},
  {{1.35595619724E-15,-2.9309292475E-16,1.06107707638E-12},{Residual->1.02893798114E-16}},
  {{-.1,1.20981576647E-14},{-.07,6.42230470156E-15},{-.04,2.9821536022E-15},{-.01,1.608484909E-15},{.02,1.84618832903E-15},
   {.05,3.907696141E-15},{.08,8.1291208161E-15}}},
 {"EY",1,{-3.98939286457E-5,6.536952094125E-6,-1.47326342758E-6,3.899868653799E-8},
  {{1.47868306491E-15,-1.1208695873E-15,5.62620831147E-13},{Residual->2.55692983328E-17}},
  {{-.1,7.24345611466E-15},{-.07,4.2869295368E-15},{-.04,2.38412803336E-15},{-.01,1.57509710295E-15},{.02,1.70538112296E-15},
   {.05,2.82897591303E-15},{.08,4.97715402843E-15}}},
 {"R32",1,{-3.98954982573E-5,6.537055068312E-6,-1.47186911947E-6,3.894495050426E-8},
  {{1.46406185106E-15,2.84858090538E-15,7.59884455773E-13},{Residual->6.01041513785E-17}},
  {{-.1,8.8524057088E-15},{-.07,4.87458104071E-15},{-.04,2.53837329598E-15},{-.01,1.55287907345E-15},{.02,1.88618512705E-15},
   {.05,3.49152987755E-15},{.08,6.53408557506E-15}}},
 {"Y24",1,{-3.98776801129E-5,6.536918933927E-6,-1.47197537905E-6,3.88916375514E-8},
  {{1.51792211599E-15,-1.6283585173E-16,1.08610440929E-15},{Residual->1.86907564777E-18}},
  {{-.3,1.66597495955E-15},{-.2,1.59286211252E-15},{-.1,1.54319012864E-15},{5.55111512313E-17,1.51670916978E-15},
   {.1,1.5163212469E-15},{.2,1.52894168675E-15},{.3,1.56556474236E-15}}},
 {"Y46",1,{-3.98548189546E-5,6.540622938383E-6,-1.4735649022E-6,3.863235569509E-8},
  {{1.51312286519E-15,5.06657247665E-16,5.50110436716E-15},{Residual->2.6861218495E-17}},
  {{-.45,2.42872842551E-15},{-.3,1.82537815122E-15},{-.15,1.53349187175E-15},{-5.5511151231E-17,1.51255947143E-15},
   {.15,1.74308402502E-15},{.3,2.18763172223E-15},{.45,2.82668214048E-15}}},
 {"Y22",1,{-3.98548189546E-5,6.540622938383E-6,-1.4735649022E-6,3.863235569509E-8},
  {{2.44994035694E-15,1.14523586497E-15,1.83036936906E-14},{Residual->5.08635638713E-16}},
  {{-.6,7.93950999417E-15},{-.4,5.58217367241E-15},{-.2,3.35201107371E-15},{1.11022302463E-16,1.49245890655E-15},
   {.2,3.46167065247E-15},{.4,6.17914680591E-15},{.6,9.64274832687E-15}}},
 {"Y26",1,{-3.9853223492E-5,6.540002972704E-6,-1.46556762426E-6,3.859826313999E-8},
  {{1.71824705013E-15,-1.7972660106E-15,2.79352209824E-14},{Residual->1.25075447504E-16}},
  {{-.3,4.68029198284E-15},{-.2,3.34893234189E-15},{-.1,2.26381241291E-15},{5.55111512313E-17,1.49245890655E-15},
   {.1,1.80765665765E-15},{.2,2.60676521435E-15},{.3,3.64967370977E-15}}},
 {"Y66",1,{-3.9853223492E-5,6.540002972704E-6,-1.46556762426E-6,3.859826313999E-8},
  {{3.50865460122E-15,1.4493203147E-15,5.78328272763E-13},{Residual->9.35486899736E-16}},
  {{-.2,2.57888624936E-14},{-.15,1.6860029641E-14},{-.1,1.01716830795E-14},{-.05,4.89785811184E-15},{0,1.48982591742E-15},
   {.05,4.92231269081E-15},{.1,1.04165969106E-14},{.15,1.75506363224E-14},{.2,2.62293271583E-14}}},
 {"Y44",1,{-3.9853223492E-5,6.540002972688E-6,-1.46556762426E-6,3.859826313995E-8},
  {{1.85633324253E-15,1.08454525118E-16,1.09702322862E-14},{Residual->2.01758524773E-16}},
  {{-.6,5.5844084101E-15},{-.4,3.80196075057E-15},{-.2,2.46341349455E-15},{1.11022302463E-16,1.48982591742E-15},
   {.2,2.28089880381E-15},{.4,3.83444968262E-15},{.6,5.8260357992E-15}}},
 {"AY",1,{-3.98694910156E-5,6.540301673236E-6,-1.46381998304E-6,3.851475868658E-8},
  {{1.34302902863E-15,7.3401281708E-15,1.09808865693E-12},{Residual->9.50015262463E-17}},
  {{-.1,1.165157079E-14},{-.07,6.09498423462E-15},{-.04,2.76344678467E-15},{-.01,1.52989409299E-15},{.02,1.95889069523E-15},
   {.05,4.32025638028E-15},{.08,9.00884746507E-15}}},
 {"EY",1,{-3.98681505645E-5,6.540236347185E-6,-1.46560889634E-6,3.851167582658E-8},
  {{1.44943715308E-15,1.56888265429E-15,5.72551653785E-13},{Residual->1.82990185266E-17}},
  {{-.1,7.02822571273E-15},{-.07,4.11895724492E-15},{-.04,2.31053707549E-15},{-.01,1.50966233489E-15},{.02,1.71643139416E-15},
   {.05,2.92884611438E-15},{.08,5.2526662422E-15}}},
 {"R32",1,{-3.98715277397E-5,6.540748995981E-6,-1.46161031328E-6,3.82339123482E-8},
  {{1.41556703301E-15,7.39371944009E-15,7.52413284354E-13},{Residual->5.33335749548E-17}},
  {{-.1,8.26208174852E-15},{-.07,4.47573588856E-15},{-.04,2.31866565737E-15},{-.01,1.47560501311E-15},{.02,1.88293984548E-15},
   {.05,3.64803035888E-15},{.08,6.81585442312E-15}}},
 {"Y24",1,{-3.98612584689E-5,6.539696341297E-6,-1.4617108734E-6,3.818635955406E-8},
  {{1.46066790158E-15,-8.9674646407E-17,1.0178850338E-15},{Residual->2.09166837577E-18}},
  {{-.3,1.57806308858E-15},{-.2,1.5197021007E-15},{-.1,1.48148566243E-15},{5.55111512313E-17,1.46183205345E-15},
   {.1,1.46127237078E-15},{.2,1.47926578476E-15},{.3,1.52806205978E-15}}},
 {"Y46",1,{-3.98389872726E-5,6.543665130597E-6,-1.46313741161E-6,3.793666960814E-8},
  {{1.4622789797E-15,4.98219016302E-16,5.75129126901E-15},{Residual->2.81668761195E-17}},
  {{-.45,2.43097698282E-15},{-.3,1.80541377804E-15},{-.15,1.48458884502E-15},{-5.5511151231E-17,1.45819805599E-15},
   {.15,1.69908260406E-15},{.3,2.16123366033E-15},{.45,2.8197724311E-15}}},
 {"Y22",1,{-3.98389872726E-5,6.543665130597E-6,-1.46313741161E-6,3.793666960813E-8},
  {{2.3211658707E-15,1.36662518113E-15,1.83342052341E-14},{Residual->4.46207183256E-16}},
  {{-.6,7.80692604213E-15},{-.4,5.23308784709E-15},{-.2,3.0560144915E-15},{1.11022302463E-16,1.43919090096E-15},
   {.2,3.4926382879E-15},{.4,6.16040912388E-15},{.6,9.59420426358E-15}}},
 {"Y26",1,{-3.98389872726E-5,6.543665130597E-6,-1.46313741161E-6,3.793666960813E-8},
  {{1.64618951723E-15,-3.5926215526E-16,2.75435245499E-14},{Residual->1.16736894281E-16}},
  {{-.3,4.19294356277E-15},{-.2,2.94357792108E-15},{-.1,1.94110475089E-15},{5.55111512313E-17,1.43919090096E-15},
   {.1,1.96654901023E-15},{.2,2.82183380962E-15},{.3,3.93031353906E-15}}},
 {"Y66",1,{-3.98389872726E-5,6.543665130597E-6,-1.46313741161E-6,3.793666960813E-8},
  {{3.47389227119E-15,1.76061394862E-15,5.75093888839E-13},{Residual->9.53397776764E-16}},
  {{-.2,2.53414923816E-14},{-.15,1.69280167706E-14},{-.1,1.01718614587E-14},{-.05,4.88305691869E-15},{0,1.43919090096E-15},
   {.05,4.8738283429E-15},{.1,1.01478355284E-14},{.15,1.74861837386E-14},{.2,2.62576477261E-14}}},
 {"Y44",1,{-3.98389872726E-5,6.543665130597E-6,-1.46313741161E-6,3.793666960813E-8},
  {{1.82059201618E-15,1.98225228068E-16,1.08222735602E-14},{Residual->2.1500712787E-16}},
  {{-.6,5.41987354271E-15},{-.4,3.74493277149E-15},{-.2,2.40291815865E-15},{1.11022302463E-16,1.43919090096E-15},
   {.2,2.24920638135E-15},{.4,3.81364701101E-15},{.6,5.79532173452E-15}}},
 {"AY",1,{-3.98497733581E-5,6.543929698073E-6,-1.46176080637E-6,3.78371775463E-8},
  {{1.31911321939E-15,5.55128149713E-15,1.08502231E-12},{Residual->9.23298852711E-17}},
  {{-.1,1.17181281043E-14},{-.07,6.07257409865E-15},{-.04,2.80023674758E-15},{-.01,1.48458151017E-15},{.02,1.9106649266E-15},
   {.05,4.25947983706E-15},{.08,8.70161543552E-15}}},
 {"EY",1,{-3.98483863107E-5,6.543838841187E-6,-1.46316749616E-6,3.78086524328E-8},
  {{1.39016011724E-15,1.63110487355E-15,5.78538451076E-13},{Residual->2.15017858822E-17}},
  {{-.1,7.03076106127E-15},{-.07,4.08422249711E-15},{-.04,2.23163111163E-15},{-.01,1.46023175007E-15},{.02,1.67337216313E-15},
   {.05,2.89294309528E-15},{.08,5.22792768389E-15}}},
 {"R32",1,{-3.98489467472E-5,6.544049534609E-6,-1.46242670753E-6,3.776796476004E-8},
  {{1.37574447772E-15,1.23117862395E-15,7.45226908195E-13},{Residual->4.93454406727E-17}},
  {{-.1,8.74861320677E-15},{-.07,4.91024258876E-15},{-.04,2.4336981554E-15},{-.01,1.46864728537E-15},{.02,1.7709061991E-15},
   {.05,3.29640024107E-15},{.08,6.21689808614E-15}}},
 {"Y24",1,{-3.98459017248E-5,6.543884279302E-6,-1.46244706181E-6,3.773882645407E-8},
  {{1.42476511535E-15,-2.9158084406E-17,1.06822086538E-15},{Residual->2.2134836037E-18}},
  {{-.3,1.52906698432E-15},{-.2,1.4721603805E-15},{-.1,1.44125836427E-15},{5.55111512313E-17,1.42641916212E-15},
   {.1,1.43063136133E-15},{.2,1.4582581111E-15},{.3,1.51466328612E-15}}},
 {"Y46",1,{-3.98299582195E-5,6.546395993238E-6,-1.4635048998E-6,3.758590330588E-8},
  {{1.43172354738E-15,3.68082864588E-16,5.82591980916E-15},{Residual->2.58431229432E-17}},
  {{-.45,2.46963172564E-15},{-.3,1.82709122333E-15},{-.15,1.47784675126E-15},{-5.5511151231E-17,1.42421902213E-15},
   {.15,1.64747000677E-15},{.3,2.09900434756E-15},{.45,2.74713123474E-15}}},
 {"Y22",1,{-3.98299582195E-5,6.546395993292E-6,-1.4635048998E-6,3.758590330597E-8},
  {{2.28910912473E-15,1.40378844987E-15,1.81557921372E-14},{Residual->4.41950024748E-16}},
  {{-.6,7.70384334144E-15},{-.4,5.14047849984E-15},{-.2,2.99465089504E-15},{1.11022302463E-16,1.41270012733E-15},
   {.2,3.47150695427E-15},{.4,6.1283674627E-15},{.6,9.50670378622E-15}}},
 {"Y26",1,{-3.98299582195E-5,6.546395993292E-6,-1.4635048998E-6,3.758590330597E-8},
  {{1.62471502326E-15,-4.1471733592E-16,2.75478127811E-14},{Residual->1.1669710769E-16}},
  {{-.3,4.17353322384E-15},{-.2,2.94922598565E-15},{-.1,1.9406066959E-15},{5.55111512313E-17,1.41270012733E-15},
   {.1,1.92806765566E-15},{.2,2.77639501695E-15},{.3,3.90586403619E-15}}},
 {"Y66",1,{-3.98299582195E-5,6.546395993292E-6,-1.4635048998E-6,3.758590330597E-8},
  {{3.4978735864E-15,2.44135407675E-15,5.64621241154E-13},{Residual->9.9048146488E-16}},
  {{-.2,2.46229830907E-14},{-.15,1.68444429564E-14},{-.1,1.0057359245E-14},{-.05,4.87606550715E-15},{0,1.41270012733E-15},
   {.05,4.89246126715E-15},{.1,1.00846219775E-14},{.15,1.72552548814E-14},{.2,2.61281593983E-14}}},
 {"Y44",1,{-3.98299582195E-5,6.546395993292E-6,-1.4635048998E-6,3.758590330597E-8},
  {{1.79882963956E-15,1.63733374866E-16,1.07723540751E-14},{Residual->2.07949385771E-16}},
  {{-.6,5.42184693877E-15},{-.4,3.70072821716E-15},{-.2,2.37800901111E-15},{1.11022302463E-16,1.41270012733E-15},
   {.2,2.24836710129E-15},{.4,3.77203187637E-15},{.6,5.72316076899E-15}}},
 {"OCT1",1,{-3.97961136598E-5,6.571104584223E-6,-1.46445894333E-6,3.7455992179E-8},
  {{1.41977102061E-15,-9.7273552311E-20,1.94763964669E-21},{Residual->1.13040183054E-17}},
  {{-370,1.70459678681E-15},{-296,1.62458916842E-15},{-222,1.55462811633E-15},{-148,1.49146246138E-15},{-74,1.43909601676E-15},
   {0,1.41270012733E-15},{74,1.40295135011E-15},{148,1.44268037969E-15},{222,1.49746959851E-15},{296,1.56786972491E-15},
   {370,1.65264787523E-15}}},
 {"OCT2",1,{-3.97961136598E-5,6.571104584223E-6,-1.46445894333E-6,3.7455992179E-8},
  {{1.40374370306E-15,-2.1751511547E-20,1.91346649542E-22},{Residual->1.35209389119E-18}},
  {{-370,1.43848551153E-15},{-296,1.4280836628E-15},{-222,1.41756586061E-15},{-148,1.40936146689E-15},{-74,1.40473523568E-15},
   {0,1.40295135011E-15},{74,1.40527163932E-15},{148,1.40721892978E-15},{222,1.40831487074E-15},{296,1.41320142805E-15},
   {370,1.42128016665E-15}}}}
