FD	 7.018498E-6	 5.226504E-7	
EX2	 6.985359E-6	 5.231482E-7	
FD	 6.983594E-6	 5.226523E-7	
AY	 6.712457E-6	 6.441574E-7	
EY	 6.580518E-6	 4.378273E-7	
R32	 6.791731E-6	 8.671037E-8	
AY	 6.794976E-6	 7.604335E-8	
EY	 6.768881E-6	 5.662150E-8	
R32	 6.771830E-6	 5.609946E-8	
AY	 6.770765E-6	 5.615113E-8	
EY	 6.768707E-6	 5.553476E-8	
R32	 6.770392E-6	 5.575188E-8	
AY	 6.770132E-6	 5.556663E-8	
EY	 6.768217E-6	 5.608285E-8	
R32	 6.783292E-6	 5.379552E-8	
Y24	 6.783292E-6	 5.379552E-8	
Y46	 6.785941E-6	 5.373157E-8	
Y22	 6.781846E-6	 5.302532E-8	
Y26	 6.781846E-6	 5.302532E-8	
Y66	 6.781846E-6	 5.302532E-8	
Y44	 6.782656E-6	 5.193376E-8	
AY	 6.783828E-6	 5.159429E-8	
EY	 6.780376E-6	 5.144423E-8	
R32	 6.783764E-6	 5.167989E-8	
Y24	 6.782683E-6	 5.165818E-8	
Y46	 6.773862E-6	 5.165785E-8	
Y22	 6.773862E-6	 5.165785E-8	
Y26	 6.773956E-6	 5.143524E-8	
Y66	 6.773956E-6	 5.143524E-8	
Y44	 6.773957E-6	 5.104235E-8	
AY	 6.775029E-6	 5.122663E-8	
EY	 6.779484E-6	 5.288936E-8	
R32	 6.771827E-6	 5.123026E-8	
Y24	 6.780528E-6	 5.092052E-8	
Y46	 6.780528E-6	 5.092052E-8	
Y22	 6.780528E-6	 5.092052E-8	
Y26	 6.780401E-6	 5.083864E-8	
Y66	 6.780237E-6	 5.070145E-8	
Y44	 6.780237E-6	 5.070145E-8	
AY	 6.777868E-6	 5.070199E-8	
EY	 6.773135E-6	 5.177529E-8	
R32	 6.784429E-6	 5.204868E-8	
Y24	 6.774204E-6	 5.162829E-8	
Y46	 6.763309E-6	 5.160184E-8	
Y22	 6.763309E-6	 5.160184E-8	
Y26	 6.764321E-6	 5.153158E-8	
Y66	 6.764321E-6	 5.153158E-8	
Y44	 6.764321E-6	 5.153158E-8	
