{{"FD",1,{4.495320149906E-6,6.905003809555E-6,-6.97263537186E-7,4.134589834022E-7}},
 {"EX2",1,{4.495905577963E-6,6.905094077256E-6,-6.93899830647E-7,4.134996270337E-7}},
 {"FD",1,{4.495072700723E-6,6.90494275393E-6,-6.94299894734E-7,4.134585336129E-7}},
 {"AY",1,{5.023012848272E-6,6.735585248704E-6,-7.22522332742E-7,3.76734544896E-7},
  {{1.40491662368E-13,-3.2717256495E-14,1.19766819448E-12},{Residual->1.84093719852E-15}},
  {{-.5,4.56677178177E-13},{-.35,3.00059050114E-13},{-.2,1.91089424671E-13},{-.05,1.45597044728E-13},{.1,1.50717546548E-13},
   {.25,2.08639370187E-13},{.4,3.1760321785E-13}}},
 {"EY",1,{5.312830948772E-6,6.792802702528E-6,-7.13004083562E-7,2.851668308271E-7},
  {{1.39819402243E-13,2.24344878462E-13,2.12544157728E-13},{Residual->3.87800498585E-15}},
  {{-.5,8.26022722622E-14},{-.35,8.78612497408E-14},{-.2,9.89569159585E-14},{-.05,1.25653510051E-13},{.1,1.69243015407E-13},
   {.25,2.14338300728E-13},{.4,2.59182186219E-13}}},
 {"R32",1,{5.005264950604E-6,6.729811613164E-6,-7.10414042513E-7,4.683715526686E-8},
  {{8.2484579326E-14,6.85625495589E-13,1.49527328076E-12},{Residual->3.13119743965E-15}},
  {{-.5,1.14418433093E-13},{-.35,2.44080615524E-14},{-.2,3.77853365496E-15},{-.05,5.26580512618E-14},{.1,1.71062929417E-13},
   {.25,3.41460386253E-13},{.4,5.97826185889E-13}}},
 {"AY",1,{5.005105350193E-6,6.727716413492E-6,-7.06107970286E-7,4.621090530847E-8},
  {{1.79866107108E-15,1.38439375974E-14,1.24310769044E-12},{Residual->3.82306859194E-16}},
  {{-.5,3.05368505367E-13},{-.35,1.4968332807E-13},{-.2,4.86213111465E-14},{-.05,4.36276507505E-15},{.1,1.5748868829E-14},
   {.25,8.22341787458E-14},{.4,2.06638521664E-13}}},
 {"EY",1,{4.980199250364E-6,6.721191575035E-6,-7.06516668546E-7,3.715817060443E-8},
  {{2.29927574064E-15,-2.503624555E-14,2.15919626609E-13},{Residual->1.08979942802E-16}},
  {{-.5,6.86821257427E-14},{-.35,3.76575426454E-14},{-.2,1.60125630169E-14},{-.05,4.04477766344E-15},{.1,1.95108144906E-15},
   {.25,9.36798191278E-15},{.4,2.69495019258E-14}}},
 {"R32",1,{4.990217508744E-6,6.722403643523E-6,-7.06449677522E-7,3.73533118271E-8},
  {{1.3336809205E-15,-9.6494169765E-15,1.4862705871E-12},{Residual->2.71530568322E-15}},
  {{-.5,3.79992079188E-13},{-.35,1.84104100806E-13},{-.2,6.18268249349E-14},{-.05,4.88452680251E-15},{.1,1.52583112999E-14},
   {.25,9.70305185832E-14},{.4,2.3197690592E-13}}},
 {"AY",1,{4.990470274385E-6,6.720565353957E-6,-7.04166663625E-7,3.748036823721E-8},
  {{1.14922614923E-15,1.49514776154E-15,1.22912685656E-12},{Residual->8.42527989933E-16}},
  {{-.3,1.11784873153E-13},{-.2,4.85085925198E-14},{-.1,1.45313177025E-14},{5.55111512313E-17,1.39706336095E-15},
   {.1,1.35296410461E-14},{.2,4.97859504122E-14},{.3,1.12662664687E-13}}},
 {"EY",1,{4.997288289982E-6,6.721270524406E-6,-7.04182425346E-7,3.797161337228E-8},
  {{1.48071733236E-15,4.4987569984E-16,2.15987149012E-13},{Residual->7.23507040759E-17}},
  {{-.5,5.52762577697E-14},{-.35,2.77236405238E-14},{-.2,1.01112809218E-14},{-.05,1.92454033196E-15},{.1,3.64530820657E-15},
   {.25,1.52177457637E-14},{.4,3.61604702996E-14}}},
 {"R32",1,{4.986124458251E-6,6.719583818921E-6,-7.04227272725E-7,3.723068717541E-8},
  {{1.93454075755E-15,1.35170679648E-14,1.50017088106E-12},{Residual->1.44068279301E-15}},
  {{-.5,3.70013374621E-13},{-.35,1.82475215323E-13},{-.2,5.75482849186E-14},{-.05,4.537818709E-15},{.1,1.79130409357E-14},
   {.25,1.01725453596E-13},{.4,2.45958268901E-13}}},
 {"AY",1,{4.984309387335E-6,6.722422186166E-6,-7.08274904922E-7,3.731441699307E-8},
  {{8.9428555707E-16,-1.3038987378E-14,1.26087214132E-12},{Residual->1.1345223191E-15}},
  {{-.3,1.19560612089E-13},{-.2,5.26416197227E-14},{-.1,1.33356221845E-14},{5.55111512313E-17,1.37880228482E-15},
   {.1,1.33846848064E-14},{.2,4.9601723706E-14},{.3,1.09401133674E-13}}},
 {"EY",1,{4.989936666304E-6,6.723029782365E-6,-7.08149003064E-7,3.756229575099E-8},
  {{1.50587336973E-15,-3.3203951381E-16,2.17242100736E-13},{Residual->7.89220922615E-17}},
  {{-.3,2.11428531777E-14},{-.2,1.02997744235E-14},{-.1,3.69915605142E-15},{5.55111512313E-17,1.42742217742E-15},
   {.1,3.79272313586E-15},{.2,1.00160878281E-14},{.3,2.09908850003E-14}}},
 {"R32",1,{4.984777258049E-6,6.723085525112E-6,-7.08432637479E-7,3.764018632792E-8},
  {{1.22378037781E-15,-1.9376763288E-15,1.55002846322E-12},{Residual->1.2461606404E-15}},
  {{-.3,1.42677176826E-13},{-.2,6.15280551752E-14},{-.1,1.68745280788E-14},{5.55111512313E-17,1.39273077746E-15},
   {.1,1.65842856278E-14},{.2,6.46005780197E-14},{.3,1.3891707784E-13}}},
 {"Y24",1,{4.990650636312E-6,6.725801219219E-6,-7.08415078163E-7,3.750397007656E-8},
  {{1.64658885095E-15,1.02750671381E-16,1.82057396458E-15},{Residual->1.42777246229E-16}},
  {{-1.5,5.53340361607E-15},{-1.2,4.23208780393E-15},{-.9,3.14899243207E-15},{-.6,2.25647623869E-15},{-.3,1.60827258091E-15},
   {0,1.4167836268E-15},{.3,1.81098276203E-15},{.6,2.5314881145E-15},{.9,3.40788154718E-15},{1.2,4.49221426456E-15},
   {1.5,5.69757662305E-15}}},
 {"Y46",1,{5.026001853947E-6,6.743186017759E-6,-7.08446045877E-7,3.741451951231E-8},
  {{1.49039919218E-15,1.92158496955E-16,2.07070186035E-15},{Residual->5.97216748116E-17}},
  {{-1,3.34234757807E-15},{-.8,2.70677966281E-15},{-.6,2.17187589874E-15},{-.4,1.73924831787E-15},{-.2,1.46398367115E-15},
   {0,1.4065477715E-15},{.2,1.59322919318E-15},{.4,1.96021934174E-15},{.6,2.4400275366E-15},{.8,3.01540064793E-15},
   {1,3.66581967991E-15}}},
 {"Y22",1,{5.026001853947E-6,6.743186017759E-6,-7.08446045877E-7,3.741451951232E-8},
  {{3.6269242509E-15,6.2119566672E-15,8.831917164E-14},{Residual->1.15511797482E-15}},
  {{-.6,3.07887816093E-14},{-.4,1.64234890516E-14},{-.2,7.29448239899E-15},{1.11022302463E-16,1.39984627034E-15},
   {.2,8.90547711967E-15},{.4,2.00923110829E-14},{.6,3.94015544603E-14}}},
 {"Y26",1,{5.026001853947E-6,6.743186017759E-6,-7.08446045877E-7,3.741451951232E-8},
  {{2.49212105818E-15,6.69353229111E-15,2.21130680177E-13},{Residual->1.00234076593E-15}},
  {{-.6,7.69396163891E-14},{-.4,3.6509892952E-14},{-.2,1.13248662444E-14},{1.11022302463E-16,1.39984627034E-15},
   {.2,1.20042250134E-14},{.4,4.01552298753E-14},{.6,8.67775324607E-14}}},
 {"Y66",1,{5.026001853947E-6,6.743186017759E-6,-7.08446045877E-7,3.741451951232E-8},
  {{6.33773282392E-15,-4.9669055167E-14,4.90690796895E-12},{Residual->2.98880966219E-15}},
  {{-.2,2.12281594124E-13},{-.15,1.26352432849E-13},{-.1,6.1069403598E-14},{-.05,1.82222307416E-14},{0,1.39984627034E-15},
   {.05,1.78560151553E-14},{.1,5.52091512755E-14},{.15,1.11477237207E-13},{.2,1.89207879538E-13}}},
 {"Y44",1,{5.026100640463E-6,6.742219378127E-6,-7.13261665569E-7,3.684351682261E-8},
  {{2.32628546621E-15,-8.485167472E-16,4.60637444922E-14},{Residual->4.46470103182E-16}},
  {{-.6,1.92583791732E-14},{-.4,1.03798262745E-14},{-.2,4.57216172088E-15},{1.11022302463E-16,1.39984627034E-15},
   {.2,4.33682620292E-15},{.4,9.76662555682E-15},{.6,1.81617268962E-14}}},
 {"AY",1,{5.026531540209E-6,6.74049768495E-6,-7.11455310597E-7,3.653216928161E-8},
  {{1.28334942802E-15,1.12705701037E-14,1.18512835309E-12},{Residual->5.94251289238E-17}},
  {{-.1,1.20621793983E-14},{-.07,6.18365160209E-15},{-.04,2.75443520479E-15},{-.01,1.3667501518E-15},{.02,1.95562884819E-15},
   {.05,4.79028537506E-15},{.08,9.77639985361E-15}}},
 {"EY",1,{5.025427487489E-6,6.740367129051E-6,-7.11487375219E-7,3.640031297125E-8},
  {{1.38755214599E-15,1.8955467365E-15,2.16013376887E-13},{Residual->2.29745582549E-17}},
  {{-.1,3.37108244059E-15},{-.07,2.30854584536E-15},{-.04,1.63019414712E-15},{-.01,1.39767229963E-15},{.02,1.50595854374E-15},
   {.05,2.06660066316E-15},{.08,2.89486927217E-15}}},
 {"R32",1,{5.031235181542E-6,6.742981220022E-6,-7.11541099856E-7,3.798300383656E-8},
  {{1.27770031672E-15,-1.3002406443E-14,1.51144872004E-12},{Residual->3.29924130334E-16}},
  {{-.1,1.79347615234E-14},{-.07,9.52951349546E-15},{-.04,3.59874047186E-15},{-.01,1.69677726595E-15},{.02,1.92229154108E-15},
   {.05,4.73012407522E-15},{.08,9.58838414422E-15}}},
 {"Y24",1,{5.05102294874E-6,6.752860788481E-6,-7.11339585069E-7,3.765330144936E-8},
  {{1.44580584884E-15,4.69354969937E-16,2.96216832419E-15},{Residual->9.05970145553E-18}},
  {{-.3,1.57991680016E-15},{-.2,1.46409436103E-15},{-.1,1.41777111004E-15},{5.55111512313E-17,1.44270858045E-15},
   {.1,1.53441825562E-15},{.2,1.6679310033E-15},{.3,1.84320796206E-15}}},
 {"Y46",1,{5.05102294874E-6,6.752860788481E-6,-7.11339585069E-7,3.765330144936E-8},
  {{1.42929947008E-15,2.96640111258E-17,2.76471605353E-15},{Residual->8.60138955177E-18}},
  {{-.45,1.97351109411E-15},{-.3,1.67736955739E-15},{-.15,1.48494356013E-15},{-5.5511151231E-17,1.41777111004E-15},
   {.15,1.49618489874E-15},{.3,1.70264164641E-15},{.45,1.99444553747E-15}}},
 {"Y22",1,{5.05102294874E-6,6.752860788481E-6,-7.11339585069E-7,3.765330144935E-8},
  {{4.0037097253E-15,3.86580257616E-15,8.59832901721E-14},{Residual->1.3336554032E-15}},
  {{-.6,3.19511601914E-14},{-.4,1.74133108747E-14},{-.2,7.64738089072E-15},{1.11022302463E-16,1.41777111004E-15},
   {.2,8.42884647991E-15},{.4,2.08592194085E-14},{.6,3.66095641147E-14}}},
 {"Y26",1,{5.05102294874E-6,6.752860788481E-6,-7.11339585069E-7,3.765330144935E-8},
  {{1.96760181016E-15,3.78617817101E-15,2.37459064455E-13},{Residual->3.76829379446E-16}},
  {{-.3,2.18007991779E-14},{-.2,1.12305536063E-14},{-.1,4.40839707709E-15},{5.55111512313E-17,1.41777111004E-15},
   {.1,4.51709394338E-15},{.2,1.2305300653E-14},{.3,2.45818351509E-14}}},
 {"Y66",1,{5.05102294874E-6,6.752860788481E-6,-7.11339585069E-7,3.765330144935E-8},
  {{5.64598421676E-15,-8.0700051272E-14,4.91229089832E-12},{Residual->3.16857267012E-15}},
  {{-.2,2.20066502163E-13},{-.15,1.28864551298E-13},{-.1,6.1274602418E-14},{-.05,1.90038704779E-14},{0,1.41777111004E-15},
   {.05,1.7441734792E-14},{.1,5.20452561736E-14},{.15,1.05392480165E-13},{.2,1.82150724101E-13}}},
 {"Y44",1,{5.05102294874E-6,6.752860788481E-6,-7.11339585069E-7,3.76533014493E-8},
  {{2.43062629526E-15,-1.433503348E-15,4.59884200387E-14},{Residual->5.36683048962E-16}},
  {{-.6,1.98022272185E-14},{-.4,1.06602208639E-14},{-.2,4.59515097265E-15},{1.11022302463E-16,1.41777111003E-15},
   {.2,4.47682900577E-15},{.4,9.88981941677E-15},{.6,1.76793959226E-14}}},
 {"AY",1,{5.053194049665E-6,6.755202560897E-6,-7.13792291543E-7,3.791463806797E-8},
  {{1.36279695014E-15,-6.1161665351E-16,1.17751338159E-12},{Residual->2.94500921621E-16}},
  {{-.1,1.35738352436E-14},{-.07,6.61396298462E-15},{-.04,3.20210539296E-15},{-.01,1.53530413483E-15},{.02,2.08420156125E-15},
   {.05,4.4403845163E-15},{.08,8.63019456648E-15}}},
 {"EY",1,{5.04319882402E-6,6.754379719127E-6,-7.13831574869E-7,3.730415806477E-8},
  {{1.40304797165E-15,6.57841713954E-16,2.43057478576E-13},{Residual->2.16105570913E-17}},
  {{-.1,3.7537278119E-15},{-.07,2.55757220843E-15},{-.04,1.77698753432E-15},{-.01,1.44457773612E-15},{.02,1.48959939727E-15},
   {.05,2.0110952766E-15},{.08,3.03691561202E-15}}},
 {"R32",1,{5.034222928706E-6,6.753243382276E-6,-7.13993584422E-7,3.737305891874E-8},
  {{1.24172461655E-15,8.29169118897E-15,1.49971343873E-12},{Residual->3.85949334206E-16}},
  {{-.1,1.58552255582E-14},{-.07,7.15789253748E-15},{-.04,3.5533391811E-15},{-.01,1.38853398796E-15},{.02,2.14279509322E-15},
   {.05,5.50749624737E-15},{.08,1.13489493903E-14}}},
 {"Y24",1,{5.010062039763E-6,6.740688541739E-6,-7.14271975844E-7,3.663124844611E-8},
  {{1.3972680299E-15,-7.4829653224E-16,3.07460123999E-15},{Residual->7.91353114254E-18}},
  {{-.3,1.88983831775E-15},{-.2,1.67847406472E-15},{-.1,1.51194088805E-15},{5.55111512313E-17,1.39674553294E-15},
   {.1,1.3440336882E-15},{.2,1.36305620213E-15},{.3,1.45767586267E-15}}},
 {"Y46",1,{5.010062039763E-6,6.740688541739E-6,-7.14271975844E-7,3.663124844611E-8},
  {{1.35005285668E-15,3.2183633581E-17,2.76924835818E-15},{Residual->7.26166355592E-18}},
  {{-.45,1.89362034558E-15},{-.3,1.59748610738E-15},{-.15,1.40574272111E-15},{-5.5511151231E-17,1.34184836272E-15},
   {.15,1.4148261858E-15},{.3,1.62249717172E-15},{.45,1.91897556814E-15}}},
 {"Y22",1,{5.010062039763E-6,6.740688541739E-6,-7.14271975844E-7,3.663124844605E-8},
  {{3.68555438291E-15,5.69670675198E-15,8.86034457849E-14},{Residual->1.18258928625E-15}},
  {{-.6,3.12711887371E-14},{-.4,1.68108539517E-14},{-.2,7.40256417829E-15},{1.11022302463E-16,1.34184836272E-15},
   {.2,8.65629345711E-15},{.4,2.05728711708E-14},{.6,3.89791201018E-14}}},
 {"Y26",1,{5.010062039763E-6,6.740688541739E-6,-7.14271975844E-7,3.663124844605E-8},
  {{1.89263574841E-15,1.07911048228E-15,2.36343503375E-13},{Residual->3.31353834781E-16}},
  {{-.3,2.25704358078E-14},{-.2,1.14734145157E-14},{-.1,4.55484721243E-15},{5.55111512313E-17,1.34184836272E-15},
   {.1,4.18834332422E-15},{.2,1.18410761897E-14},{.3,2.34546657714E-14}}},
 {"Y66",1,{5.010062039763E-6,6.740688541739E-6,-7.14271975844E-7,3.663124844605E-8},
  {{5.53932483786E-15,-4.6031604129E-14,4.94656482639E-12},{Residual->2.28338086532E-15}},
  {{-.2,2.13538128901E-13},{-.15,1.23400716259E-13},{-.1,6.04364007754E-14},{-.05,1.84880680022E-14},{0,1.34184836272E-15},
   {.05,1.81181095586E-14},{.1,5.393858366E-14},{.15,1.1068172325E-13},{.2,1.9189506873E-13}}},
 {"Y44",1,{5.010064646357E-6,6.740470365021E-6,-7.15646732207E-7,3.657749732248E-8},
  {{2.33716149872E-15,-2.324384208E-16,4.5539169897E-14},{Residual->4.78092308393E-16}},
  {{-.6,1.87603965005E-14},{-.4,1.00009356759E-14},{-.2,4.42972488783E-15},{1.11022302463E-16,1.34184836272E-15},
   {.2,4.56074851443E-15},{.4,9.96065843246E-15},{.6,1.83096884018E-14}}},
 {"AY",1,{5.01073280414E-6,6.740648415439E-6,-7.15030135997E-7,3.641739298472E-8},
  {{1.53848089816E-15,6.54761816836E-15,1.06080105111E-12},{Residual->2.98640221704E-16}},
  {{-.1,1.14276954164E-14},{-.07,6.50222642385E-15},{-.04,2.90087855111E-15},{-.01,1.37391497765E-15},{.02,1.86611519641E-15},
   {.05,5.14400496663E-15},{.08,8.57094470703E-15}}},
 {"EY",1,{5.010564603287E-6,6.74052734493E-6,-7.15086917623E-7,3.651159616997E-8},
  {{1.35924055596E-15,-1.1201947125E-15,2.27092141112E-13},{Residual->2.69604129849E-17}},
  {{-.1,3.76142675161E-15},{-.07,2.52102658711E-15},{-.04,1.74329540241E-15},{-.01,1.44796063422E-15},{.02,1.41296017676E-15},
   {.05,1.8637861474E-15},{.08,2.72432827688E-15}}},
 {"R32",1,{5.014848556834E-6,6.740536549745E-6,-7.14907177444E-7,3.650025474747E-8},
  {{1.11504288432E-15,1.55827541283E-15,1.59709160848E-12},{Residual->2.36198520391E-16}},
  {{-.1,1.70896295178E-14},{-.07,8.4188812104E-15},{-.04,3.78366568032E-15},{-.01,1.4754339446E-15},{.02,1.81844905786E-15},
   {.05,4.874822559E-15},{.08,1.1600011601E-14}}},
 {"Y24",1,{5.017428837558E-6,6.742041782101E-6,-7.14885860543E-7,3.649096148624E-8},
  {{1.33546102635E-15,7.97306562043E-17,3.37687642325E-15},{Residual->3.11378949251E-18}},
  {{-.3,1.6133401885E-15},{-.2,1.4593846028E-15},{-.1,1.360429854E-15},{5.55111512313E-17,1.33226859663E-15},
   {.1,1.37560264968E-15},{.2,1.49131726123E-15},{.3,1.66140943012E-15}}},
 {"Y46",1,{5.017428837558E-6,6.742041782101E-6,-7.14885860543E-7,3.649096148624E-8},
  {{1.33940181695E-15,7.13974036306E-17,2.78375115309E-15},{Residual->7.28795499696E-18}},
  {{-.45,1.86840175946E-15},{-.3,1.57714115305E-15},{-.15,1.3874703579E-15},{-5.5511151231E-17,1.33159027019E-15},
   {.15,1.41182094642E-15},{.3,1.62444828288E-15},{.45,1.92870317515E-15}}},
 {"Y22",1,{5.017428837558E-6,6.742041782101E-6,-7.14885860543E-7,3.649096148622E-8},
  {{3.72204191115E-15,4.31745175046E-15,8.74046442539E-14},{Residual->1.15261923018E-15}},
  {{-.6,3.19068438122E-14},{-.4,1.69344490094E-14},{-.2,7.60935926666E-15},{1.11022302463E-16,1.33159027019E-15},
   {.2,8.53487886621E-15},{.4,2.00494814956E-14},{.6,3.75808922224E-14}}},
 {"Y26",1,{5.017428837558E-6,6.742041782101E-6,-7.14885860543E-7,3.649096148624E-8},
  {{1.85944980676E-15,1.92559765396E-15,2.39143037222E-13},{Residual->3.2086856049E-16}},
  {{-.3,2.2549070479E-14},{-.2,1.12958547956E-14},{-.1,4.56340268567E-15},{5.55111512313E-17,1.33159027019E-15},
   {.1,4.27209533715E-15},{.2,1.19706546977E-14},{.3,2.39935308041E-14}}},
 {"Y66",1,{5.017428837558E-6,6.742041782101E-6,-7.14885860543E-7,3.649096148624E-8},
  {{6.03592646182E-15,-5.3966822477E-14,4.89733406613E-12},{Residual->2.64324692939E-15}},
  {{-.2,2.12827682267E-13},{-.15,1.25614906034E-13},{-.1,6.11944739117E-14},{-.05,1.84426125358E-14},{0,1.33159027019E-15},
   {.05,1.80450416992E-14},{.1,5.38547358911E-14},{.15,1.09117595247E-13},{.2,1.88494810219E-13}}},
 {"Y44",1,{5.017428837558E-6,6.742041782101E-6,-7.14885860543E-7,3.649096148624E-8},
  {{2.3249297594E-15,-7.0603521454E-16,4.56657430386E-14},{Residual->4.88324674978E-16}},
  {{-.6,1.90709702246E-14},{-.4,1.02598643287E-14},{-.2,4.42376564707E-15},{1.11022302463E-16,1.33159027019E-15},
   {.2,4.50308255499E-15},{.4,9.79307725875E-15},{.6,1.80377902347E-14}}}}
