{{"FD",1,{1.42351051385E-5,1.752709314906E-5,5.043124909481E-6,1.389485907004E-6}},
 {"EX2",1,{1.564913951507E-5,1.784970059456E-5,4.380144212868E-6,1.390883269821E-6}},
 {"FD",1,{1.490041730476E-5,1.769878000741E-5,4.405257228826E-6,1.388478284772E-6}},
 {"AY",1,{1.806235635034E-5,1.686949810811E-5,4.323109790475E-6,2.382941940191E-6},
  {{5.69343639656E-12,3.78328304745E-13,4.01088452199E-12},{Residual->1.17238070153E-14}},
  {{-.5,6.49277410633E-12},{-.35,6.06930040015E-12},{-.2,5.79080364501E-12},{-.05,5.67829230727E-12},{.1,5.75839101954E-12},
   {.25,6.03363523142E-12},{.4,6.49549088753E-12}}},
 {"EY",1,{3.084951888759E-5,1.75018079196E-5,5.41802395752E-6,1.2563302966E-6},
  {{5.68029719191E-12,-2.6834279916E-12,4.37074845036E-13},{Residual->2.86401758546E-15}},
  {{-.5,7.13191665391E-12},{-.35,6.67503955163E-12},{-.2,6.22974731792E-12},{-.05,5.81428318523E-12},{.1,5.41890995245E-12},
   {.25,5.04047089354E-12},{.4,4.67391854791E-12}}},
 {"R32",1,{1.843505988589E-5,1.68227950492E-5,5.062858871378E-6,6.436128169315E-7},
  {{1.57864888202E-12,-9.4089449834E-13,2.00528886697E-13},{Residual->2.71103750105E-15}},
  {{-.5,2.09822418102E-12},{-.35,1.93642720364E-12},{-.2,1.77214859109E-12},{-.05,1.62293502219E-12},{.1,1.48860451026E-12},
   {.25,1.35898257779E-12},{.4,1.23237561671E-12}}},
 {"AY",1,{1.840789223088E-5,1.682516891946E-5,5.115600511931E-6,6.383241879938E-7},
  {{4.17730829624E-13,-3.0687136067E-13,3.91752873914E-12},{Residual->2.65854676192E-15}},
  {{-.5,1.5475762168E-12},{-.35,1.0084657943E-12},{-.2,6.38593321246E-13},{-.05,4.42137925611E-13},{.1,4.21947433203E-13},
   {.25,5.86115511278E-13},{.4,9.23284439748E-13}}},
 {"EY",1,{2.102405918421E-5,1.650848740711E-5,5.345254172915E-6,4.388571962772E-7},
  {{4.075426209E-13,-6.4058447629E-13,4.3308809403E-13},{Residual->1.33315342279E-15}},
  {{-.5,8.34877471052E-13},{-.35,6.85670124508E-13},{-.2,5.54843240862E-13},{-.05,4.40661202196E-13},{.1,3.46378655411E-13},
   {.25,2.72904831842E-13},{.4,2.22091928012E-13}}},
 {"R32",1,{1.72921603856E-5,1.714031684477E-5,5.230943635803E-6,2.153451955561E-7},
  {{1.93085053069E-13,-3.349249283E-13,1.86681501435E-13},{Residual->1.4374534482E-16}},
  {{-.5,4.07185380704E-13},{-.35,3.3313783456E-13},{-.2,2.67799511101E-13},{-.05,2.10042687553E-13},{.1,1.61533999863E-13},
   {.25,1.20981471326E-13},{.4,8.9014483459E-14}}},
 {"AY",1,{1.727200535921E-5,1.714199980225E-5,5.249392880263E-6,2.090100474431E-7},
  {{4.71363364531E-14,-2.166477617E-13,3.86205350474E-12},{Residual->1.07309311483E-15}},
  {{-.3,4.60570909434E-13},{-.2,2.44399968057E-13},{-.1,1.06307037456E-13},{5.55111512313E-17,4.63735532493E-14},
   {.1,6.57172798029E-14},{.2,1.59393076182E-13},{.3,3.28567512317E-13}}},
 {"EY",1,{1.820219737111E-5,1.69440145897E-5,5.315604206359E-6,1.261685190764E-7},
  {{4.3648192624E-14,-2.1523504131E-13,4.26800675576E-13},{Residual->4.19340811506E-16}},
  {{-.5,2.57648496199E-13},{-.35,1.71447824318E-13},{-.2,1.04198684855E-13},{-.05,5.57447899315E-14},{.1,2.59183677586E-14},
   {.25,1.59166645174E-14},{.4,2.63482226823E-14}}},
 {"R32",1,{1.731661604855E-5,1.719664024047E-5,5.293653649824E-6,7.909953657098E-8},
  {{1.62176657134E-14,-8.9924389961E-14,1.91553479812E-13},{Residual->2.87816397604E-16}},
  {{-.5,1.09110450435E-13},{-.35,7.11717965339E-14},{-.2,4.18880053088E-14},{-.05,2.09247284807E-14},{.1,9.01872095086E-15},
   {.25,6.33378947521E-15},{.4,1.05805834745E-14}}},
 {"AY",1,{1.73118014941E-5,1.719714853308E-5,5.296199099491E-6,7.932087381023E-8},
  {{4.2704324272E-15,-5.0496308937E-14,3.82112362805E-12},{Residual->1.15141266505E-15}},
  {{-.3,3.64292752316E-13},{-.2,1.66171520546E-13},{-.1,4.57876990619E-14},{5.55111512313E-17,6.25673668575E-15},
   {.1,3.77814059248E-14},{.2,1.46714658772E-13},{.3,3.32802869536E-13}}},
 {"EY",1,{1.757338629277E-5,1.712998480969E-5,5.313880582754E-6,5.885762803819E-8},
  {{6.2428234817E-15,-6.1412926926E-14,4.31841508574E-13},{Residual->3.11345613473E-16}},
  {{-.3,6.32851093218E-14},{-.2,3.60023242664E-14},{-.1,1.70638018665E-14},{5.55111512313E-17,6.29180102202E-15},
   {.1,3.78275918716E-15},{.2,1.13839495403E-14},{.3,2.68056415684E-14}}},
 {"R32",1,{1.728523262656E-5,1.723274452744E-5,5.307057678421E-6,5.251800147409E-8},
  {{3.33681356588E-15,-2.7870038484E-14,1.76378039142E-13},{Residual->3.756056834E-16}},
  {{-.3,2.7968826277E-14},{-.2,1.56025801355E-14},{-.1,7.34927926813E-15},{5.55111512313E-17,3.46422037828E-15},
   {.1,2.84024317771E-15},{.2,4.97062261539E-15},{.3,1.0547774069E-14}}},
 {"Y24",1,{1.720245312308E-5,1.723330436588E-5,5.302073439964E-6,5.064425912638E-8},
  {{2.73738903272E-15,5.26509935849E-16,5.80178641243E-16},{Residual->4.86129065317E-17}},
  {{-1.5,3.32666720802E-15},{-1.2,2.93257658802E-15},{-.9,2.6719580393E-15},{-.6,2.56527839543E-15},{-.3,2.58803018819E-15},
   {0,2.75814047883E-15},{.3,3.00347712976E-15},{.6,3.31211935349E-15},{.9,3.72215910368E-15},{1.2,4.19446889308E-15},
   {1.5,4.78017253041E-15}}},
 {"Y46",1,{1.714998578242E-5,1.722046180533E-5,5.305922242524E-6,4.867460486839E-8},
  {{2.5979502414E-15,1.26987615154E-15,2.17659804903E-15},{Residual->4.00485931737E-17}},
  {{-1,3.51863964515E-15},{-.8,2.99880765078E-15},{-.6,2.61483887122E-15},{-.4,2.40596515285E-15},{-.2,2.3984221391E-15},
   {0,2.56484098246E-15},{.2,2.92402024936E-15},{.4,3.51056384594E-15},{.6,4.21277357751E-15},{.8,5.0309552366E-15},
   {1,5.97465672023E-15}}},
 {"Y22",1,{1.714998578239E-5,1.722046180532E-5,5.305922242524E-6,4.867460486843E-8},
  {{1.96493235996E-15,-1.3425217308E-15,7.53232535114E-14},{Residual->5.59079476583E-16}},
  {{-.6,3.05052452224E-14},{-.4,1.39336111299E-14},{-.2,4.43224430803E-15},{1.11022302463E-16,2.3692171591E-15},
   {.2,5.30531543118E-15},{.4,1.37210464938E-14},{.6,2.7849890708E-14}}},
 {"Y26",1,{1.714998578241E-5,1.722046180532E-5,5.305922242524E-6,4.867460486837E-8},
  {{4.69587916808E-15,5.9555661005E-14,1.50777781757E-12},{Residual->6.63738407927E-15}},
  {{-.6,5.03971343126E-13},{-.4,2.30818934726E-13},{-.2,6.06359210816E-14},{1.11022302463E-16,2.36921715909E-15},
   {.2,6.85163566176E-14},{.4,2.66628446518E-13},{.6,5.88642090629E-13}}},
 {"Y66",1,{1.714998578241E-5,1.722046180532E-5,5.305922242524E-6,4.867460486837E-8},
  {{1.25237561744E-15,-1.1549075624E-13,1.12242725239E-11},{Residual->3.77354450423E-15}},
  {{-.2,4.77881971399E-13},{-.15,2.69198444547E-13},{-.1,1.21047014236E-13},{-.05,2.98624699285E-14},{0,2.36921715909E-15},
   {.05,2.77901175369E-14},{.1,1.07400844502E-13},{.15,2.35433076958E-13},{.2,4.23929102874E-13}}},
 {"Y44",1,{1.714998578239E-5,1.722046180534E-5,5.305922242524E-6,4.867460486841E-8},
  {{1.75048780211E-15,-8.8048174203E-16,8.75965795336E-14},{Residual->7.74993709099E-16}},
  {{-.6,3.47039951048E-14},{-.4,1.51519322396E-14},{-.2,4.39086699884E-15},{1.11022302463E-16,2.3692171591E-15},
   {.2,5.76481402874E-15},{.4,1.58310694757E-14},{.6,3.21496886857E-14}}},
 {"AY",1,{1.714716493906E-5,1.722065416824E-5,5.307969458694E-6,4.842159200776E-8},
  {{1.41905631084E-15,-2.813658328E-14,3.43983871775E-12},{Residual->5.83026584255E-16}},
  {{-.1,3.92202876845E-14},{-.07,1.95281798922E-14},{-.04,7.32218542188E-15},{-.01,2.7277186357E-15},{.02,2.85746091468E-15},
   {.05,8.25890880792E-15},{.08,2.10800364384E-14}}},
 {"EY",1,{1.7255207307E-5,1.719084203292E-5,5.315224651397E-6,4.4563233548E-8},
  {{2.32910909568E-15,-2.3262448416E-14,4.04742051985E-13},{Residual->5.23991891246E-18}},
  {{-.1,8.70714731946E-15},{-.07,5.93002784374E-15},{-.04,3.91338184477E-15},{-.01,2.60471169579E-15},{.02,2.02241406263E-15},
   {.05,2.17947203129E-15},{.08,3.05779940762E-15}}},
 {"R32",1,{1.709405913187E-5,1.724200673144E-5,5.311455953989E-6,4.096558904361E-8},
  {{1.97707655615E-15,-1.4468642441E-14,1.64544236896E-13},{Residual->2.14950906688E-17}},
  {{-.1,5.09305154464E-15},{-.07,3.77202438035E-15},{-.04,2.79573889029E-15},{-.01,2.13818086416E-15},{.02,1.77996932173E-15},
   {.05,1.68424466262E-15},{.08,1.85082693576E-15}}},
 {"Y24",1,{1.703048115239E-5,1.724061659067E-5,5.306979102246E-6,3.985147566084E-8},
  {{1.68120900632E-15,4.92379681369E-16,7.01257344401E-16},{Residual->2.91259805938E-18}},
  {{-.3,1.59736168886E-15},{-.2,1.60708525671E-15},{-.1,1.64459428253E-15},{5.55111512313E-17,1.67817948569E-15},
   {.1,1.73856376615E-15},{.2,1.80614265799E-15},{.3,1.89288796275E-15}}},
 {"Y46",1,{1.703048115239E-5,1.724061659067E-5,5.306979102246E-6,3.985147566084E-8},
  {{1.59194424118E-15,1.42165219199E-16,2.50923932122E-15},{Residual->5.23449288516E-18}},
  {{-.45,2.04033123241E-15},{-.3,1.7665002767E-15},{-.15,1.63273158328E-15},{-5.5511151231E-17,1.58814011235E-15},
   {.15,1.66986757039E-15},{.3,1.86662687243E-15},{.45,2.16023281309E-15}}},
 {"Y22",1,{1.703048115239E-5,1.724061659067E-5,5.306979102246E-6,3.985147566084E-8},
  {{1.34859883812E-15,-5.14560465E-16,7.6226397007E-14},{Residual->6.66966804166E-16}},
  {{-.6,2.97813533888E-14},{-.4,1.31768698208E-14},{-.2,3.48547150144E-15},{1.11022302463E-16,1.58814011235E-15},
   {.2,5.16672766939E-15},{.4,1.37105770296E-14},{.6,2.79046169923E-14}}},
 {"Y26",1,{1.703048115239E-5,1.724061659067E-5,5.306979102246E-6,3.985147566081E-8},
  {{1.55073065461E-15,3.59684128127E-14,1.54679760811E-12},{Residual->1.98474379897E-15}},
  {{-.3,1.28030950016E-13},{-.2,5.78502931171E-14},{-.1,1.61054316852E-14},{5.55111512313E-17,1.58814011234E-15},
   {.1,1.73041381266E-14},{.2,6.99321896726E-14},{.3,1.53147302124E-13}}},
 {"Y66",1,{1.703048115239E-5,1.724061659067E-5,5.306979102246E-6,3.985147566081E-8},
  {{1.34683724726E-15,-1.3301162241E-13,1.11728779683E-11},{Residual->3.84243962817E-15}},
  {{-.2,4.78664676779E-13},{-.15,2.72132614269E-13},{-.1,1.22167487723E-13},{-.05,3.06675959057E-14},{0,1.58814011234E-15},
   {.05,2.7008926352E-14},{.1,1.06203793363E-13},{.15,2.30872242888E-13},{.2,4.18747753077E-13}}},
 {"Y44",1,{1.703048115238E-5,1.724061659067E-5,5.306979102247E-6,3.985147566079E-8},
  {{1.11178958839E-15,-2.4145094693E-15,8.90364270764E-14},{Residual->9.55700023547E-16}},
  {{-.6,3.55698830331E-14},{-.4,1.55457599397E-14},{-.2,3.61523381638E-15},{1.11022302463E-16,1.58814011234E-15},
   {.2,5.43928915109E-15},{.4,1.47791975591E-14},{.6,3.09658218327E-14}}},
 {"AY",1,{1.702688384663E-5,1.724105043476E-5,5.310451045707E-6,3.836754164213E-8},
  {{6.79907088564E-16,-3.6093652048E-14,3.4599354569E-12},{Residual->5.02198385536E-16}},
  {{-.1,3.93143325201E-14},{-.07,1.95384283723E-14},{-.04,7.22130436297E-15},{-.01,2.06199771012E-15},{.02,1.77759591333E-15},
   {.05,6.93574479607E-15},{.08,2.00488299221E-14}}},
 {"EY",1,{1.708708546394E-5,1.722811832749E-5,5.31452148826E-6,3.723870654998E-8},
  {{1.49626837169E-15,-1.4500835156E-14,4.44064178726E-13},{Residual->2.7224744357E-17}},
  {{-.1,7.3805912258E-15},{-.07,4.71822481614E-15},{-.04,2.7658196489E-15},{-.01,1.65215150344E-15},{.02,1.39658279606E-15},
   {.05,1.92400747511E-15},{.08,3.15282182628E-15}}},
 {"R32",1,{1.703623177574E-5,1.724173975077E-5,5.313368039621E-6,3.656280969798E-8},
  {{1.38466692083E-15,-5.1994754955E-15,1.86142717839E-13},{Residual->5.91391232623E-18}},
  {{-.1,3.76470772521E-15},{-.07,2.6622769757E-15},{-.04,1.88836454403E-15},{-.01,1.45958607594E-15},{.02,1.35939690974E-15},
   {.05,1.5772999904E-15},{.08,2.16609590153E-15}}},
 {"Y24",1,{1.700229953933E-5,1.723946146769E-5,5.310875956494E-6,3.578780512611E-8},
  {{1.33960786422E-15,4.47704953702E-16,8.43713945627E-16},{Residual->3.38610951919E-18}},
  {{-.3,1.28358944881E-15},{-.2,1.28076699574E-15},{-.1,1.30265106137E-15},{5.55111512313E-17,1.33683905301E-15},
   {.1,1.39996473582E-15},{.2,1.46048844475E-15},{.3,1.54919521478E-15}}},
 {"Y46",1,{1.701096729098E-5,1.724140526806E-5,5.309914556384E-6,3.578176616642E-8},
  {{1.28639324883E-15,-2.5912122591E-16,2.79996813865E-15},{Residual->4.98141145223E-18}},
  {{-.45,1.96471036921E-15},{-.3,1.62347121269E-15},{-.15,1.39288567357E-15},{-5.5511151231E-17,1.28076699574E-15},
   {.15,1.30542341507E-15},{.3,1.46419836587E-15},{.45,1.73727663698E-15}}},
 {"Y22",1,{1.701096729098E-5,1.724140526805E-5,5.309914556384E-6,3.578176616596E-8},
  {{1.17931978919E-15,-4.114688372E-15,7.59858479855E-14},{Residual->7.98277151762E-16}},
  {{-.6,3.17459810049E-14},{-.4,1.44770911011E-14},{-.2,3.79551822458E-15},{1.11022302463E-16,1.28033478996E-15},
   {.2,4.48406336303E-15},{.4,1.22678741587E-14},{.6,2.53085256259E-14}}},
 {"Y26",1,{1.701096729123E-5,1.724140526754E-5,5.309914556384E-6,3.57817661664E-8},
  {{1.21483424334E-15,5.74870211893E-14,1.54352553109E-12},{Residual->1.88996102186E-15}},
  {{-.3,1.21348951226E-13},{-.2,5.22539691647E-14},{-.1,1.39219921151E-14},{5.55111512313E-17,1.28033478999E-15},
   {.1,1.91795996893E-14},{.2,7.38575805122E-14},{.3,1.58848560913E-13}}},
 {"Y66",1,{1.701096729123E-5,1.724140526754E-5,5.309914556384E-6,3.57817661664E-8},
  {{5.78762584707E-16,-1.7881856943E-13,1.12185065158E-11},{Residual->3.1793465054E-15}},
  {{-.2,4.87787013481E-13},{-.15,2.80059781134E-13},{-.1,1.2679700666E-13},{-.05,3.30214822854E-14},{0,1.28033478999E-15},
   {.05,2.43718558904E-14},{.1,9.89858862712E-14},{.15,2.23582364236E-13},{.2,4.12099115878E-13}}},
 {"Y44",1,{1.701096729098E-5,1.724140526805E-5,5.309914556384E-6,3.57817661664E-8},
  {{1.00891769227E-15,-7.4789662161E-15,8.77634285015E-14},{Residual->1.17268961667E-15}},
  {{-.6,3.81937759792E-14},{-.4,1.72825249485E-14},{-.2,4.14564802118E-15},{1.11022302463E-16,1.28033478999E-15},
   {.2,4.48862407576E-15},{.4,1.29784768889E-14},{.6,2.69880790639E-14}}},
 {"AY",1,{1.700960669651E-5,1.724149303452E-5,5.311262351594E-6,3.525911394997E-8},
  {{3.57932407414E-16,-1.421997555E-14,3.51104147988E-12},{Residual->4.98414370876E-16}},
  {{-.1,3.72507030023E-14},{-.07,1.79631359682E-14},{-.04,6.19454355009E-15},{-.01,1.66359507346E-15},{.02,1.6776048574E-15},
   {.05,7.79690774101E-15},{.08,2.18904092767E-14}}},
 {"EY",1,{1.704565105254E-5,1.72338049268E-5,5.313806115946E-6,3.504027993975E-8},
  {{1.28022173038E-15,-9.2622017176E-15,4.58908874115E-13},{Residual->3.82515377056E-17}},
  {{-.1,6.77830023383E-15},{-.07,4.22518347195E-15},{-.04,2.37559174367E-15},{-.01,1.36084214904E-15},{.02,1.28736698753E-15},
   {.05,2.02151058574E-15},{.08,3.44685090073E-15}}},
 {"R32",1,{1.703492315718E-5,1.723684742788E-5,5.313574764294E-6,3.488116501241E-8},
  {{1.22578517073E-15,-1.1707880944E-15,2.00893478012E-13},{Residual->1.13184205309E-17}},
  {{-.1,3.34014922206E-15},{-.07,2.30292657104E-15},{-.04,1.60725532782E-15},{-.01,1.25679390682E-15},{.02,1.27249902608E-15},
   {.05,1.65532048512E-15},{.08,2.43064790327E-15}}},
 {"Y24",1,{1.700336461665E-5,1.723676137898E-5,5.311111444085E-6,3.409872527041E-8},
  {{1.21423210383E-15,4.39954758023E-16,9.42709102353E-16},{Residual->3.0950014247E-18}},
  {{-.3,1.16957719406E-15},{-.2,1.16272306507E-15},{-.1,1.17365711638E-15},{5.55111512313E-17,1.21669567262E-15},
   {.1,1.27125261635E-15},{.2,1.3405772981E-15},{.3,1.42910031287E-15}}},
 {"Y46",1,{1.701319845693E-5,1.723957979216E-5,5.309956043135E-6,3.39682444329E-8},
  {{1.177579668E-15,-3.1975599879E-16,2.79359010331E-15},{Residual->1.0103774986E-17}},
  {{-.45,1.87975210447E-15},{-.3,1.54030562874E-15},{-.15,1.28904153197E-15},{-5.5511151231E-17,1.16272306507E-15},
   {.15,1.19072159888E-15},{.3,1.34621422683E-15},{.45,1.59426128514E-15}}},
 {"Y22",1,{1.701319845691E-5,1.723957979214E-5,5.309956043136E-6,3.39682444327E-8},
  {{1.06856051515E-15,-4.8254622682E-15,7.56916032642E-14},{Residual->8.04442039471E-16}},
  {{-.6,3.19560847724E-14},{-.4,1.46093371223E-14},{-.2,3.80450538936E-15},{1.11022302463E-16,1.15384162984E-15},
   {.2,4.26776151402E-15},{.4,1.1787882767E-14},{.6,2.4675106067E-14}}},
 {"Y26",1,{1.701319845693E-5,1.723957979216E-5,5.309956043135E-6,3.396824443299E-8},
  {{8.72967394591E-16,6.43632654518E-14,1.54104899231E-12},{Residual->2.04011332531E-15}},
  {{-.3,1.18680256477E-13},{-.2,5.02619849021E-14},{-.1,1.31405614968E-14},{5.55111512313E-17,1.15384162986E-15},
   {.1,1.95915766014E-14},{.2,7.39979381073E-14},{.3,1.60778330393E-13}}},
 {"Y66",1,{1.701319845693E-5,1.723957979216E-5,5.309956043135E-6,3.396824443299E-8},
  {{2.64355027104E-16,-1.884738479E-13,1.12097962972E-11},{Residual->3.02959456347E-15}},
  {{-.2,4.89551072741E-13},{-.15,2.80015100702E-13},{-.1,1.27656078779E-13},{-.05,3.33196193922E-14},{0,1.15384162986E-15},
   {.05,2.38193852075E-14},{.1,9.65018832119E-14},{.15,2.2268995795E-13},{.2,4.09141700213E-13}}},
 {"Y44",1,{1.701319845693E-5,1.723957979216E-5,5.309956043135E-6,3.3968244433E-8},
  {{9.03029759738E-16,-8.8055488905E-15,8.7078712252E-14},{Residual->1.16960983599E-15}},
  {{-.6,3.8640065754E-14},{-.4,1.75841627204E-14},{-.2,4.29465381018E-15},{1.11022302463E-16,1.15384162986E-15},
   {.2,4.14468998688E-15},{.4,1.21684436776E-14},{.6,2.58635084615E-14}}},
 {"OCT1",1,{1.700131066047E-5,1.724797238549E-5,5.308986042569E-6,3.389522497682E-8},
  {{1.19249148252E-15,8.28047159295E-19,6.37278267561E-21},{Residual->2.75700454755E-17}},
  {{-370,1.7423293153E-15},{-296,1.51963375726E-15},{-222,1.34866408227E-15},{-148,1.2204351872E-15},{-74,1.14888627623E-15},
   {0,1.15384162986E-15},{74,1.26024156179E-15},{148,1.46978397594E-15},{222,1.7359336764E-15},{296,2.02333391733E-15},
   {370,2.33305763355E-15}}},
 {"OCT2",1,{1.697384007789E-5,1.72557373483E-5,5.312304503275E-6,3.273013101784E-8},
  {{1.15038385464E-15,2.62640433456E-19,1.13814668809E-22},{Residual->3.4293762882E-18}},
  {{-370,1.07126147645E-15},{-296,1.08202886407E-15},{-222,1.09514363427E-15},{-148,1.11389559233E-15},{-74,1.13233554882E-15},
   {0,1.14888627623E-15},{74,1.16533714219E-15},{148,1.19690081628E-15},{222,1.21675771371E-15},{296,1.24282420715E-15},
   {370,1.2574329718E-15}}},
 {"OCT1",1,{1.697813242257E-5,1.725356324171E-5,5.312619352828E-6,3.264904208758E-8},
  {{1.23119189832E-15,3.95874525967E-19,5.12222452498E-21},{Residual->1.1526472431E-16}},
  {{-740,3.76105087856E-15},{-592,2.86148043975E-15},{-444,2.07577330996E-15},{-296,1.52077190342E-15},{-148,1.16514135799E-15},
   {0,1.07055978385E-15},{148,1.40424023116E-15},{296,1.95948520672E-15},{444,2.6030554071E-15},{592,3.31996755643E-15},
   {740,4.14355428781E-15}}},
 {"OCT2",1,{1.695178156066E-5,1.725989790155E-5,5.316384635686E-6,3.20492467782E-8},
  {{1.14126463968E-15,2.40875713495E-19,9.55885301797E-23},{Residual->7.81868014557E-18}},
  {{-740,1.02715421905E-15},{-592,1.03081483021E-15},{-444,1.04174280763E-15},{-296,1.06508626929E-15},{-148,1.11168494949E-15},
   {0,1.14266333556E-15},{148,1.18349235435E-15},{296,1.22523424471E-15},{444,1.27446233794E-15},{592,1.3205105079E-15},
   {740,1.36163661097E-15}}}}
