FD	 1.358073E-5	 6.584513E-7	
EX2	 1.337882E-5	 7.821093E-7	
FD	 1.337611E-5	 6.597790E-7	
AY	 1.384552E-5	 7.517220E-7	
EY	 1.415591E-5	 6.849153E-7	
R32	 1.299373E-5	 2.679457E-7	
AY	 1.304998E-5	 2.103549E-7	
EY	 1.305050E-5	 2.005263E-7	
R32	 1.278113E-5	 9.383778E-8	
AY	 1.278876E-5	 4.877842E-8	
EY	 1.279480E-5	 3.851448E-8	
R32	 1.280790E-5	 3.578412E-8	
AY	 1.281113E-5	 3.712240E-8	
EY	 1.282560E-5	 4.609628E-8	
R32	 1.281365E-5	 3.949006E-8	
Y24	 1.279858E-5	 3.715902E-8	
Y46	 1.277713E-5	 3.520090E-8	
Y22	 1.277713E-5	 3.520090E-8	
Y26	 1.277669E-5	 3.383459E-8	
Y66	 1.277669E-5	 3.383459E-8	
Y44	 1.277669E-5	 3.383459E-8	
AY	 1.276631E-5	 5.387600E-8	
EY	 1.278668E-5	 5.323204E-8	
R32	 1.277848E-5	 5.610797E-8	
Y24	 1.279368E-5	 4.672065E-8	
Y46	 1.281689E-5	 4.138083E-8	
Y22	 1.281689E-5	 4.138083E-8	
Y26	 1.281663E-5	 4.136197E-8	
Y66	 1.281663E-5	 4.136197E-8	
Y44	 1.281511E-5	 4.059948E-8	
AY	 1.282864E-5	 6.341416E-8	
EY	 1.281401E-5	 5.222625E-8	
R32	 1.279941E-5	 4.888288E-8	
Y24	 1.275790E-5	 4.206069E-8	
Y46	 1.273736E-5	 4.039520E-8	
Y22	 1.273904E-5	 3.970642E-8	
Y26	 1.273929E-5	 3.936864E-8	
Y66	 1.273938E-5	 3.925998E-8	
Y44	 1.273938E-5	 3.925998E-8	
AY	 1.273101E-5	 5.473957E-8	
EY	 1.273741E-5	 5.178828E-8	
R32	 1.279041E-5	 5.407870E-8	
Y24	 1.280111E-5	 5.261771E-8	
Y46	 1.277645E-5	 4.996271E-8	
Y22	 1.277788E-5	 4.858211E-8	
Y26	 1.277788E-5	 4.858211E-8	
Y66	 1.277788E-5	 4.858211E-8	
Y44	 1.277788E-5	 4.858211E-8	
