{{"FD",1,{-1.8709841283E-6,8.51346866802E-6,-1.94120774426E-6,3.351755436692E-7}},
 {"EX2",1,{-4.52247278355E-5,6.813487916159E-6,-2.14106839363E-6,5.811349435668E-7}},
 {"FD",1,{-4.52018965627E-5,6.810614639206E-6,-2.51004243904E-6,3.300487777574E-7}},
 {"AY",1,{-4.58373503506E-5,7.060120372047E-6,-1.36253377683E-6,1.44749306671E-7},
  {{1.98664604615E-14,-1.1345080496E-14,1.19976787345E-12},{Residual->5.36489427072E-16}},
  {{-.5,3.25902021935E-13},{-.35,1.70253900067E-13},{-.2,6.95196381971E-14},{-.05,2.42684805033E-14},{.1,3.1096149685E-14},
   {.25,9.14510177157E-14},{.4,2.07394491363E-13}}},
 {"EY",1,{-4.59187876166E-5,7.059908388215E-6,-1.04623587818E-6,8.9506208379E-8},
  {{2.11260947656E-14,-1.5301003585E-13,4.63865834433E-13},{Residual->3.50777742875E-16}},
  {{-.5,2.13278440623E-13},{-.35,1.31759976241E-13},{-.2,7.06830562348E-14},{-.05,3.00848790848E-14},{.1,9.83488822575E-15},
   {.25,1.17065485564E-14},{.4,3.44415147367E-14}}},
 {"R32",1,{-4.58308208784E-5,7.062297845777E-6,-1.10048602866E-6,4.090304462878E-8},
  {{7.7146068809E-15,-1.2422889946E-13,6.5035259438E-13},{Residual->1.04938874381E-16}},
  {{-.5,2.32448017435E-13},{-.35,1.30718471822E-13},{-.2,5.87037136552E-14},{-.05,1.56681356919E-14},{.1,1.65354051793E-15},
   {.25,1.72596644174E-14},{.4,6.21341242984E-14}}},
 {"AY",1,{-4.58382557912E-5,7.061908010324E-6,-1.10004702228E-6,4.08734419807E-8},
  {{1.01035694232E-15,1.27373187358E-15,1.20992363531E-12},{Residual->1.92812065564E-16}},
  {{-.5,3.02971418236E-13},{-.35,1.48579735433E-13},{-.2,4.91836194648E-14},{-.05,4.06919754609E-15},{.1,1.30067620202E-14},
   {.25,7.72922107659E-14},{.4,1.94949302841E-13}}},
 {"EY",1,{-4.58505756608E-5,7.061379701283E-6,-1.05781346197E-6,3.848558679116E-8},
  {{1.58910877299E-15,-2.12537429E-14,4.57855332746E-13},{Residual->1.08772454486E-16}},
  {{-.5,1.26808274713E-13},{-.35,6.4927068309E-14},{-.2,2.41462843162E-14},{-.05,3.76247366072E-15},{.1,4.14525550987E-15},
   {.25,2.4988598981E-14},{.4,6.62459438895E-14}}},
 {"R32",1,{-4.5844052353E-5,7.061692712216E-6,-1.06162128105E-6,3.782891728261E-8},
  {{1.63858033887E-15,-7.8152569839E-15,6.48538714096E-13},{Residual->1.41767740983E-16}},
  {{-.5,1.67829047984E-13},{-.35,8.35892358807E-14},{-.2,2.9126137007E-14},{-.05,3.73082446174E-15},{.1,7.2886574217E-15},
   {.25,4.04181947677E-14},{.4,1.02152122171E-13}}},
 {"AY",1,{-4.58433134914E-5,7.061061028973E-6,-1.06136907644E-6,3.782367368268E-8},
  {{9.85308709551E-16,3.65403225241E-16,1.20684626756E-12},{Residual->2.38503049316E-16}},
  {{-.3,1.094867141E-13},{-.2,4.91006765468E-14},{-.1,1.29865380327E-14},{5.55111512313E-17,1.4304083885E-15},
   {.1,1.28702588857E-14},{.2,4.90176562176E-14},{.3,1.09921863712E-13}}},
 {"EY",1,{-4.58448724395E-5,7.061006634274E-6,-1.05902110959E-6,3.782803773537E-8},
  {{1.35635794599E-15,-1.921679794E-15,4.5724560579E-13},{Residual->3.53944306263E-17}},
  {{-.5,1.16645072837E-13},{-.35,5.80154665434E-14},{-.2,2.00392867053E-14},{-.05,2.55874847014E-15},{.1,5.80801425269E-15},
   {.25,2.94178889878E-14},{.4,7.37491455027E-14}}},
 {"R32",1,{-4.58450699806E-5,7.061008063354E-6,-1.05949616836E-6,3.782854858444E-8},
  {{1.67844406715E-15,-2.7614973617E-16,6.48629241427E-13},{Residual->8.87147096033E-17}},
  {{-.5,1.63884872887E-13},{-.35,8.13980300214E-14},{-.2,2.76692017616E-14},{-.05,3.25290978789E-15},{.1,8.0535489291E-15},
   {.25,4.22416726978E-14},{.4,1.05332958617E-13}}},
 {"AY",1,{-4.58474241764E-5,7.061709049714E-6,-1.06015376391E-6,3.783903488527E-8},
  {{9.15629209474E-16,-8.5932046071E-16,1.21014776155E-12},{Residual->2.57909310622E-16}},
  {{-.3,1.10262017963E-13},{-.2,4.91824260672E-14},{-.1,1.29619544281E-14},{5.55111512313E-17,1.43222634082E-15},
   {.1,1.27082558664E-14},{.2,4.91131838082E-14},{.3,1.09590713227E-13}}},
 {"EY",1,{-4.58480261532E-5,7.061670676736E-6,-1.0603389982E-6,3.787843371296E-8},
  {{1.37870230937E-15,-1.0819623077E-16,4.57294240535E-13},{Residual->3.7235357277E-17}},
  {{-.3,4.25630691749E-14},{-.2,1.97187694616E-14},{-.1,5.90131966282E-15},{5.55111512313E-17,1.42993828487E-15},
   {.1,5.9560071467E-15},{.2,1.96034898359E-14},{.3,4.25207099486E-14}}},
 {"R32",1,{-4.58468109192E-5,7.061760330627E-6,-1.06051464303E-6,3.781437406592E-8},
  {{1.64015415033E-15,-1.3594778934E-15,6.48041711057E-13},{Residual->1.19144575089E-16}},
  {{-.3,6.03133634098E-14},{-.2,2.7945672807E-14},{-.1,8.32127554736E-15},{5.55111512313E-17,1.43311701075E-15},
   {.1,7.97347110507E-15},{.2,2.74648726204E-14},{.3,5.94809856478E-14}}},
 {"Y24",1,{-4.5845990549E-5,7.062436802666E-6,-1.06046095752E-6,3.779116881276E-8},
  {{1.55600054095E-15,-1.1682110609E-17,1.17665566195E-15},{Residual->9.4294239476E-17}},
  {{-1.5,4.09394394534E-15},{-1.2,3.31916587319E-15},{-.9,2.64476943012E-15},{-.6,2.09294505372E-15},{-.3,1.67201573649E-15},
   {0,1.429926886E-15},{.3,1.50840663702E-15},{.6,1.96911474613E-15},{.9,2.57879547534E-15},{1.2,3.30900095375E-15},
   {1.5,4.14681226667E-15}}},
 {"Y46",1,{-4.5845990549E-5,7.062436802666E-6,-1.06046095752E-6,3.779116881276E-8},
  {{1.46111296348E-15,5.34504006374E-16,6.23679616521E-15},{Residual->3.67856150524E-17}},
  {{-1,7.1748734793E-15},{-.8,5.02838342474E-15},{-.6,3.37178860469E-15},{-.4,2.25135166183E-15},{-.2,1.61243615471E-15},
   {0,1.42817244023E-15},{.2,1.76341617204E-15},{.4,2.69792052732E-15},{.6,4.09761041621E-15},{.8,5.91555816792E-15},
   {1,8.17263467623E-15}}},
 {"Y22",1,{-4.5845990549E-5,7.062436802683E-6,-1.06046095752E-6,3.779116881368E-8},
  {{2.71332958866E-15,1.47733569369E-15,2.87051893669E-14},{Residual->7.08844001041E-16}},
  {{-.6,1.16658110499E-14},{-.4,7.62895786986E-15},{-.2,3.91456047364E-15},{1.11022302463E-16,1.4281724403E-15},
   {.2,4.20898987243E-15},{.4,8.65588314088E-15},{.6,1.36407443645E-14}}},
 {"Y26",1,{-4.5845990549E-5,7.062436802683E-6,-1.06046095752E-6,3.779116881368E-8},
  {{2.00345256243E-15,-2.2127773491E-15,3.19397506357E-14},{Residual->2.863820318E-16}},
  {{-.6,1.46807042289E-14},{-.4,8.25660097174E-15},{-.2,3.93854529309E-15},{1.11022302463E-16,1.4281724403E-15},
   {.2,2.92874496945E-15},{.4,6.5182004374E-15},{.6,1.2045720308E-14}}},
 {"Y66",1,{-4.5845990549E-5,7.062436802683E-6,-1.06046095752E-6,3.779116881368E-8},
  {{4.29982494612E-15,9.07899765197E-15,9.95316867243E-13},{Residual->1.37819622262E-15}},
  {{-.2,4.1676689547E-14},{-.15,2.60742911454E-14},{-.1,1.46328475669E-14},{-.05,6.16883464677E-15},{0,1.4281724403E-15},
   {.05,7.17305255745E-15},{.1,1.67197545005E-14},{.15,2.9500655986E-14},{.2,4.46216562111E-14}}},
 {"Y44",1,{-4.5845990549E-5,7.062436802683E-6,-1.06046095752E-6,3.779116881368E-8},
  {{1.87282208602E-15,8.3899549344E-16,1.41901479654E-14},{Residual->2.32359756067E-16}},
  {{-.6,6.33753909379E-15},{-.4,4.08039764479E-15},{-.2,2.37905496759E-15},{1.11022302463E-16,1.4281724403E-15},
   {.2,2.68120330928E-15},{.4,4.71941961031E-15},{.6,7.3769332573E-15}}},
 {"AY",1,{-4.58570693424E-5,7.062845983294E-6,-1.06062414252E-6,3.780909600528E-8},
  {{1.25045329552E-15,9.11784502489E-16,1.14620667532E-12},{Residual->1.06132239875E-16}},
  {{-.1,1.26909406865E-14},{-.07,6.67433056621E-15},{-.04,3.0061862181E-15},{-.01,1.49861130928E-15},{.02,1.79268326035E-15},
   {.05,3.99543402499E-15},{.08,8.71791497882E-15}}},
 {"EY",1,{-4.58568212093E-5,7.062859722725E-6,-1.0619522849E-6,3.778728758814E-8},
  {{1.41279535095E-15,3.99102924854E-16,4.52536089845E-13},{Residual->2.01508799373E-17}},
  {{-.1,5.91842565066E-15},{-.07,3.5861404598E-15},{-.04,2.08918212435E-15},{-.01,1.46348930757E-15},{.02,1.62248869502E-15},
   {.05,2.58087477599E-15},{.08,4.32171396547E-15}}},
 {"R32",1,{-4.58561064481E-5,7.062903382645E-6,-1.06260922527E-6,3.777840409957E-8},
  {{1.45488912143E-15,-1.3566598525E-16,6.7506674444E-13},{Residual->4.42959809214E-17}},
  {{-.1,8.16600833518E-15},{-.07,4.84377566088E-15},{-.04,2.5578390571E-15},{-.01,1.53281198751E-15},{.02,1.67161858367E-15},
   {.05,3.10097051044E-15},{.08,5.80492501522E-15}}},
 {"Y24",1,{-4.58430986636E-5,7.073827590864E-6,-1.06175349772E-6,3.756074211339E-8},
  {{1.42571114887E-15,-2.7013543606E-16,1.83844219836E-15},{Residual->6.94207497987E-18}},
  {{-.3,1.6648723939E-15},{-.2,1.56135221006E-15},{-.1,1.47623922639E-15},{5.55111512313E-17,1.42720781631E-15},
   {.1,1.41113624767E-15},{.2,1.43575653043E-15},{.3,1.5181774329E-15}}},
 {"Y46",1,{-4.58065270576E-5,7.05832437721E-6,-1.06492312064E-6,3.748856846137E-8},
  {{1.41894183325E-15,7.85499565023E-16,6.70318313246E-15},{Residual->1.71423798507E-17}},
  {{-.45,2.4048959579E-15},{-.3,1.80624236878E-15},{-.15,1.47274117122E-15},{-5.5511151231E-17,1.41080934811E-15},
   {.15,1.66001553039E-15},{.3,2.26368506416E-15},{.45,3.13720876562E-15}}},
 {"Y22",1,{-4.58065270576E-5,7.05832437721E-6,-1.06492312064E-6,3.748856846137E-8},
  {{2.64666945738E-15,1.75938310401E-15,2.86994423987E-14},{Residual->6.84120561435E-16}},
  {{-.6,1.13571652077E-14},{-.4,7.49411164269E-15},{-.2,3.87348253458E-15},{1.11022302463E-16,1.40539276528E-15},
   {.2,4.17834016907E-15},{.4,8.47730145019E-15},{.6,1.38842679187E-14}}},
 {"Y26",1,{-4.58065270576E-5,7.05832437721E-6,-1.06492312064E-6,3.748856846137E-8},
  {{1.64315418463E-15,-2.3274148164E-15,3.98692348396E-14},{Residual->1.29990250368E-16}},
  {{-.3,5.84785860246E-15},{-.2,3.86654179995E-15},{-.1,2.32141862918E-15},{5.55111512313E-17,1.40539276528E-15},
   {.1,1.83632047723E-15},{.2,2.91880224671E-15},{.3,4.46913052666E-15}}},
 {"Y66",1,{-4.58065270576E-5,7.05832437721E-6,-1.06492312064E-6,3.748856846137E-8},
  {{4.31090718E-15,9.42760861858E-15,9.94392017607E-13},{Residual->1.4875206155E-15}},
  {{-.2,4.08075819276E-14},{-.15,2.71071922058E-14},{-.1,1.45913595861E-14},{-.05,6.13700432359E-15},{0,1.40539276528E-15},
   {.05,7.05570921386E-15},{.1,1.64128124982E-14},{.15,2.94865394933E-14},{.2,4.49533752473E-14}}},
 {"Y44",1,{-4.58065270576E-5,7.05832437721E-6,-1.06492312064E-6,3.748856846137E-8},
  {{1.85797911265E-15,1.07461886049E-15,1.42972940324E-14},{Residual->2.37045793118E-16}},
  {{-.6,6.20875934343E-15},{-.4,4.0151550367E-15},{-.2,2.30525802495E-15},{1.11022302463E-16,1.40539276528E-15},
   {.2,2.73823848765E-15},{.4,4.79658508068E-15},{.6,7.54943436613E-15}}},
 {"AY",1,{-4.58323173538E-5,7.060660804424E-6,-1.06257618731E-6,3.726876200256E-8},
  {{1.27710851059E-15,7.49718618362E-15,1.12268662043E-12},{Residual->6.31219784686E-17}},
  {{-.1,1.17717962212E-14},{-.07,6.21936343E-15},{-.04,2.73390354721E-15},{-.01,1.41330567142E-15},{.02,1.89508546037E-15},
   {.05,4.34782225878E-15},{.08,9.11126342132E-15}}},
 {"EY",1,{-4.58339276565E-5,7.060563291353E-6,-1.05825130068E-6,3.726023296375E-8},
  {{1.37620033715E-15,-2.04018706E-15,4.55480706921E-13},{Residual->1.77706011382E-17}},
  {{-.1,6.1570204383E-15},{-.07,3.71695702918E-15},{-.04,2.1840562058E-15},{-.01,1.44797878357E-15},{.02,1.5244316042E-15},
   {.05,2.42939813928E-15},{.08,4.1133235632E-15}}},
 {"R32",1,{-4.58344162759E-5,7.060539117844E-6,-1.05758352376E-6,3.727200685665E-8},
  {{1.47468330635E-15,1.25140216435E-15,6.6030459856E-13},{Residual->6.62127330463E-17}},
  {{-.1,7.8728307726E-15},{-.07,4.72242941025E-15},{-.04,2.55152590969E-15},{-.01,1.47794332918E-15},{.02,1.68999176108E-15},
   {.05,3.18411288942E-15},{.08,5.83824002343E-15}}},
 {"Y24",1,{-4.58265063461E-5,7.067016469467E-6,-1.0570518991E-6,3.715279711373E-8},
  {{1.38782900225E-15,-1.7248888107E-16,1.88965952706E-15},{Residual->6.79615723109E-18}},
  {{-.3,1.60332035439E-15},{-.2,1.50264129782E-15},{-.1,1.43264453279E-15},{5.55111512313E-17,1.38920249512E-15},
   {.1,1.38092460942E-15},{.2,1.42152846622E-15},{.3,1.51364592758E-15}}},
 {"Y46",1,{-4.57932262314E-5,7.054605623407E-6,-1.05993504806E-6,3.711364092893E-8},
  {{1.3880708749E-15,7.25844092864E-16,6.76937956748E-15},{Residual->1.99825312373E-17}},
  {{-.45,2.41013645788E-15},{-.3,1.80468249507E-15},{-.15,1.45400703537E-15},{-5.5511151231E-17,1.38033033337E-15},
   {.15,1.61782194393E-15},{.3,2.21817631326E-15},{.45,3.09605067291E-15}}},
 {"Y22",1,{-4.57932262314E-5,7.054605623407E-6,-1.05993504806E-6,3.711364092893E-8},
  {{2.57406351417E-15,1.81313677684E-15,2.84694032564E-14},{Residual->6.42152435004E-16}},
  {{-.6,1.12290623579E-14},{-.4,7.24022642697E-15},{-.2,3.8130366511E-15},{1.11022302463E-16,1.377422343E-15},
   {.2,4.11687725429E-15},{.4,8.36528836513E-15},{.6,1.37622628481E-14}}},
 {"Y26",1,{-4.57928058313E-5,7.055236441186E-6,-1.05187574034E-6,3.704550568566E-8},
  {{1.62098060356E-15,-2.2357490848E-15,3.96861502449E-14},{Residual->1.37053687008E-16}},
  {{-.3,5.75748862753E-15},{-.2,3.85150580633E-15},{-.1,2.29951856506E-15},{5.55111512313E-17,1.377422343E-15},
   {.1,1.80659226842E-15},{.2,2.89106969505E-15},{.3,4.4753889881E-15}}},
 {"Y66",1,{-4.57928058313E-5,7.055236441186E-6,-1.05187574034E-6,3.704550568566E-8},
  {{4.1893257927E-15,1.62384715081E-15,9.94615797785E-13},{Residual->1.41626658471E-15}},
  {{-.2,4.24375454297E-14},{-.15,2.78306777143E-14},{-.1,1.52469896945E-14},{-.05,6.57514443891E-15},{0,1.37236949151E-15},
   {.05,6.52336855341E-15},{.1,1.52860541001E-14},{.15,2.84092061295E-14},{.2,4.321494625E-14}}},
 {"Y44",1,{-4.57930571146E-5,7.055181409192E-6,-1.05260492289E-6,3.688635178338E-8},
  {{1.80552773022E-15,-1.0172086139E-16,1.39163577177E-14},{Residual->2.40690444155E-16}},
  {{-.6,6.67105099237E-15},{-.4,4.40380156233E-15},{-.2,2.56291709252E-15},{1.11022302463E-16,1.37236949151E-15},
   {.2,2.33025526334E-15},{.4,4.17007995263E-15},{.6,6.71454040063E-15}}},
 {"AY",1,{-4.58183936112E-5,7.059209861975E-6,-1.04957622189E-6,3.663974091503E-8},
  {{1.26208301512E-15,9.46099537855E-15,1.14315861243E-12},{Residual->5.19110507927E-17}},
  {{-.1,1.17446402245E-14},{-.07,6.21144140882E-15},{-.04,2.65838364013E-15},{-.01,1.37421597862E-15},{.02,1.89959720014E-15},
   {.05,4.51776175655E-15},{.08,9.37407928243E-15}}},
 {"EY",1,{-4.58190581273E-5,7.059121604223E-6,-1.04816762737E-6,3.664895639512E-8},
  {{1.33455990671E-15,-6.4254714006E-16,4.54893553367E-13},{Residual->1.19691386136E-17}},
  {{-.1,5.95903563201E-15},{-.07,3.59833954028E-15},{-.04,2.07422817463E-15},{-.01,1.3902885824E-15},{.02,1.50789326963E-15},
   {.05,2.45839685264E-15},{.08,4.18045862737E-15}}},
 {"R32",1,{-4.58173221929E-5,7.059384555585E-6,-1.04953972742E-6,3.664519656261E-8},
  {{1.36674406775E-15,-2.3370253544E-15,6.66864848204E-13},{Residual->3.12896458829E-17}},
  {{-.1,8.29698597145E-15},{-.07,4.74929498128E-15},{-.04,2.550294078E-15},{-.01,1.42734642459E-15},{.02,1.60502409248E-15},
   {.05,2.95257569441E-15},{.08,5.42107857535E-15}}},
 {"Y24",1,{-4.58139489634E-5,7.06125564672E-6,-1.04931325338E-6,3.661973472598E-8},
  {{1.3451276856E-15,-8.1800241002E-17,2.18721282924E-15},{Residual->5.30293636442E-18}},
  {{-.3,1.56027332883E-15},{-.2,1.455925726E-15},{-.1,1.38135932655E-15},{5.55111512313E-17,1.34287043111E-15},
   {.1,1.35267358701E-15},{.2,1.41331647235E-15},{.3,1.52189451951E-15}}},
 {"Y46",1,{-4.57892459449E-5,7.05332978039E-6,-1.05150347875E-6,3.659893094522E-8},
  {{1.35693789874E-15,5.57720904372E-16,6.95725215744E-15},{Residual->1.60833213227E-17}},
  {{-.45,2.49912819616E-15},{-.3,1.8358207831E-15},{-.15,1.44698407896E-15},{-5.5511151231E-17,1.3410049714E-15},
   {.15,1.57665438345E-15},{.3,2.16434156338E-15},{.45,3.01770017392E-15}}},
 {"Y22",1,{-4.57892459449E-5,7.05332978039E-6,-1.05150347875E-6,3.659893094522E-8},
  {{2.49514263165E-15,2.18353425213E-15,2.838584776E-14},{Residual->5.97037884258E-16}},
  {{-.6,1.10348557437E-14},{-.4,6.87083661043E-15},{-.2,3.47997594152E-15},{1.11022302463E-16,1.33948174633E-15},
   {.2,4.27998112337E-15},{.4,8.48502316034E-15},{.6,1.37679935871E-14}}},
 {"Y26",1,{-4.57892459449E-5,7.05332978039E-6,-1.05150347875E-6,3.659893094525E-8},
  {{1.55715549161E-15,-6.2902713871E-16,3.9871005366E-14},{Residual->1.29746372739E-16}},
  {{-.3,5.30346533873E-15},{-.2,3.40889632523E-15},{-.1,1.96679478391E-15},{5.55111512313E-17,1.33948174634E-15},
   {.1,2.00870466771E-15},{.2,3.18487845104E-15},{.3,4.85174863079E-15}}},
 {"Y66",1,{-4.57892459449E-5,7.05332978039E-6,-1.05150347875E-6,3.659893094525E-8},
  {{4.09359559591E-15,3.27890212222E-15,9.9034275252E-13},{Residual->1.3174863347E-15}},
  {{-.2,4.21123686766E-14},{-.15,2.69285367222E-14},{-.1,1.5018265837E-14},{-.05,6.41554784071E-15},{0,1.33948174634E-15},
   {.05,6.51661105746E-15},{.1,1.55335872958E-14},{.15,2.81774111544E-14},{.2,4.33519629106E-14}}},
 {"Y44",1,{-4.57892459449E-5,7.05332978039E-6,-1.05150347875E-6,3.659893094522E-8},
  {{1.76113371878E-15,1.02940918686E-16,1.40186311208E-14},{Residual->2.27288288324E-16}},
  {{-.6,6.56758833147E-15},{-.4,4.25144941587E-15},{-.2,2.47729832865E-15},{1.11022302463E-16,1.33948174633E-15},
   {.2,2.34358751345E-15},{.4,4.23234886695E-15},{.6,6.81704868403E-15}}},
 {"OCT1",1,{-4.58142352937E-5,7.124989039142E-6,-1.05302612319E-6,3.610740775964E-8},
  {{1.36275729805E-15,3.95926175374E-19,3.0099300804E-21},{Residual->2.86737244123E-17}},
  {{-370,1.63759475847E-15},{-296,1.52814497772E-15},{-222,1.42576792558E-15},{-148,1.34428371154E-15},{-74,1.30686727993E-15},
   {0,1.33948174633E-15},{74,1.42439035989E-15},{148,1.52692463804E-15},{222,1.63820163741E-15},{296,1.75553168169E-15},
   {370,1.87623199519E-15}}},
 {"OCT2",1,{-4.58217963782E-5,7.119922400161E-6,-1.05259978561E-6,3.603179485615E-8},
  {{1.30490471892E-15,-3.3958229403E-20,4.8146815604E-23},{Residual->8.64036749587E-19}},
  {{-370,1.32331127354E-15},{-296,1.31904973556E-15},{-222,1.31597098864E-15},{-148,1.31229475809E-15},{-74,1.30742494502E-15},
   {0,1.30374489512E-15},{74,1.30173789506E-15},{148,1.30084622971E-15},{222,1.29986034168E-15},{296,1.30045004194E-15},
   {370,1.29829024056E-15}}}}
