{{"FD",1,{-6.53206365845E-6,1.282638109907E-5,-8.79474959105E-6,9.487212085021E-7}},
 {"EX2",1,{-5.2395690324E-6,1.52459275357E-5,-8.50619436702E-6,1.379387325476E-6}},
 {"FD",1,{-7.03579998744E-6,1.20530184056E-5,-8.54927197419E-6,9.519032502055E-7}},
 {"AY",1,{-5.15270876664E-6,1.450036846119E-5,-7.46813851044E-6,6.184048046916E-7},
  {{3.51343970623E-13,-1.2379351141E-13,4.50055805235E-12},{Residual->2.70275858095E-14}},
  {{-.5,1.55089996607E-12},{-.35,9.5121970646E-13},{-.2,5.04479261089E-13},{-.05,3.91504620807E-13},{.1,3.85593510919E-13},
   {.25,6.35591459335E-13},{.4,9.97558337571E-13}}},
 {"EY",1,{-4.88109050903E-6,1.43751349191E-5,-7.5935603068E-6,5.819295062451E-7},
  {{3.77978626315E-13,3.19213850299E-13,4.67770224369E-13},{Residual->1.37188238171E-14}},
  {{-.5,3.25362740655E-13},{-.35,3.40699972401E-13},{-.2,3.21853781408E-13},{-.05,3.8191813796E-13},{.1,4.02172017717E-13},
   {.25,4.7359571274E-13},{.4,5.91404394E-13}}},
 {"R32",1,{-7.42402963524E-6,1.378526331983E-5,-7.1484096631E-6,2.593182120864E-7},
  {{3.32836262849E-13,-5.7441314445E-13,3.054816554E-13},{Residual->6.16467902014E-15}},
  {{-.5,6.96192378405E-13},{-.35,5.72516302795E-13},{-.2,4.63881017611E-13},{-.05,3.49866732531E-13},{.1,2.8332797378E-13},
   {.25,2.15414939052E-13},{.4,1.47498468196E-13}}},
 {"AY",1,{-7.43732353845E-6,1.378210711818E-5,-7.157336248E-6,2.603231201157E-7},
  {{4.02413811759E-14,1.24250088093E-13,4.7621512935E-12},{Residual->4.28030716414E-14}},
  {{-.5,1.2190510477E-12},{-.35,5.08307806338E-13},{-.2,1.88290494342E-13},{-.05,6.6090401005E-14},{.1,1.07483457264E-13},
   {.25,4.2109306028E-13},{.4,8.11378833008E-13}}},
 {"EY",1,{-7.37479550547E-6,1.384684355758E-5,-7.03242327511E-6,1.36702160205E-7},
  {{6.89343665512E-14,-3.5496210207E-13,5.71149878237E-13},{Residual->6.01850617301E-15}},
  {{-.5,3.96587893433E-13},{-.35,2.50967021381E-13},{-.2,1.63150483946E-13},{-.05,9.05017771873E-14},{.1,4.06334669502E-14},
   {.25,2.07776520158E-14},{.4,1.39785528275E-14}}},
 {"R32",1,{-7.93125725203E-6,1.374666069008E-5,-6.88000358763E-6,7.735244768292E-8},
  {{2.03228246409E-14,-1.2419033788E-13,2.51614059222E-13},{Residual->6.49528445581E-15}},
  {{-.5,1.40326148032E-13},{-.35,9.92589526233E-14},{-.2,6.57495297417E-14},{-.05,1.71549708482E-14},{.1,5.75722858692E-15},
   {.25,8.98766622723E-15},{.4,1.141199803E-14}}},
 {"AY",1,{-8.32335522045E-6,1.370152159179E-5,-6.89756821971E-6,5.600865244395E-8},
  {{6.05127194303E-14,3.78940491784E-13,3.3476957908E-12},{Residual->4.25847353661E-14}},
  {{-.3,2.53257257237E-13},{-.2,1.41719783041E-13},{-.1,2.70178352584E-14},{5.55111512313E-17,4.69596384265E-15},
   {.1,1.65916484795E-13},{.2,3.39663534539E-13},{.3,4.28672998724E-13}}},
 {"EY",1,{-8.4320444316E-6,1.370163555662E-5,-6.86133681876E-6,5.17390398214E-8},
  {{-1.4327362819E-15,-4.589827531E-14,6.29140026632E-13},{Residual->5.20363274172E-15}},
  {{-.5,1.85152607303E-13},{-.35,8.08448280396E-14},{-.2,3.27440104164E-14},{-.05,5.88481191795E-15},{.1,4.2274038451E-15},
   {.25,2.49967272524E-14},{.4,7.95530208552E-14}}},
 {"R32",1,{-8.33834786813E-6,1.371363998327E-5,-6.86928339211E-6,4.027433313419E-8},
  {{3.0874872723E-15,1.32275892465E-14,2.90097736149E-13},{Residual->4.09054990523E-15}},
  {{-.5,6.51566832132E-14},{-.35,3.88884713113E-14},{-.2,1.40319038644E-14},{-.05,1.73563818188E-15},{.1,8.32719161742E-15},
   {.25,1.73769217523E-14},{.4,5.93042288858E-14}}},
 {"AY",1,{-8.26424938073E-6,1.372016830226E-5,-6.86745349237E-6,4.310060843781E-8},
  {{-2.4298080599E-14,-1.1441475463E-14,5.30687910431E-12},{Residual->3.64018579571E-14}},
  {{-.3,4.531806518E-13},{-.2,1.8854453913E-13},{-.1,2.03317379779E-14},{5.55111512313E-17,1.25149942796E-14},{.1,4.548689812E-14},
   {.2,1.07902548902E-13},{.3,4.87878214806E-13}}},
 {"EY",1,{-8.1902378754E-6,1.373932036451E-5,-6.87259653044E-6,4.391419187844E-8},
  {{4.25983175999E-15,7.00698417597E-15,5.52500329063E-13},{Residual->1.73073463181E-15}},
  {{-.3,5.0351458608E-14},{-.2,2.65125909769E-14},{-.1,1.16891212131E-14},{5.55111512313E-17,2.16796672158E-15},
   {.1,8.55940493186E-15},{.2,2.88862862675E-14},{.3,5.63520857389E-14}}},
 {"R32",1,{-8.32825579004E-6,1.371033640597E-5,-6.86460356129E-6,4.445066218567E-8},
  {{2.10963958871E-15,-6.1394348351E-15,3.07510987916E-13},{Residual->1.86484762432E-15}},
  {{-.3,3.27603067509E-14},{-.2,1.22914175437E-14},{-.1,8.72362458505E-15},{5.55111512313E-17,2.27396636721E-15},
   {.1,3.00100414611E-15},{.2,1.40647447931E-14},{.3,2.77554895515E-14}}},
 {"Y24",1,{-8.31715309306E-6,1.371905428373E-5,-6.85631321695E-6,4.294502128057E-8},
  {{2.03228720059E-15,2.46584461565E-15,4.48039285881E-15},{Residual->2.62534072748E-16}},
  {{-1.5,8.02570910243E-15},{-1.2,5.5646800076E-15},{-.9,3.75912558456E-15},{-.6,2.55249243046E-15},{-.3,1.87355749262E-15},
   {0,1.97586136874E-15},{.3,2.88617892368E-15},{.6,4.73736301965E-15},{.9,7.74138451865E-15},{1.2,1.15424818547E-14},
   {1.5,1.60522142057E-14}}},
 {"Y46",1,{-8.30579242843E-6,1.372168685768E-5,-6.85553826336E-6,4.273162013425E-8},
  {{1.92949360997E-15,3.17591044378E-16,4.63991422599E-15},{Residual->5.98840505051E-17}},
  {{-1,6.20949041246E-15},{-.8,4.6289682419E-15},{-.6,3.46592496839E-15},{-.4,2.6428099199E-15},{-.2,2.06707555019E-15},
   {0,1.84427485279E-15},{.2,2.08410097565E-15},{.4,2.78382143251E-15},{.6,3.86041465094E-15},{.8,5.19804598861E-15},
   {1,6.85512531069E-15}}},
 {"Y22",1,{-8.30579242843E-6,1.372168685768E-5,-6.85553826336E-6,4.27316201344E-8},
  {{2.59150117665E-15,9.49218891679E-15,5.24942087798E-14},{Residual->3.7146209672E-16}},
  {{-.6,1.57798550987E-14},{-.4,7.23353145068E-15},{-.2,3.09486177303E-15},{1.11022302463E-16,1.82599135931E-15},
   {.2,6.88945056195E-15},{.4,1.51626981365E-14},{.6,2.69476336898E-14}}},
 {"Y26",1,{-8.30579242828E-6,1.372168685754E-5,-6.85553826336E-6,4.27316201344E-8},
  {{2.28630932077E-15,5.50418706127E-14,6.93399103075E-13},{Residual->3.85903711213E-15}},
  {{-.6,2.14964604679E-13},{-.4,9.47569345942E-14},{-.2,2.41983615859E-14},{1.11022302463E-16,1.82599135931E-15},
   {.2,3.46735483233E-14},{.4,1.34408188528E-13},{.6,2.87783531621E-13}}},
 {"Y66",1,{-8.30579242828E-6,1.372168685754E-5,-6.85553826336E-6,4.27316201344E-8},
  {{2.15937587786E-15,-1.2785538315E-13,7.38192099287E-12},{Residual->4.48115699136E-15}},
  {{-.2,3.26989658656E-13},{-.15,1.87485563907E-13},{-.1,8.44059431724E-14},{-.05,2.08203897382E-14},{0,1.82599135931E-15},
   {.05,1.82164374735E-14},{.1,6.77924791085E-14},{.15,1.54064216372E-13},{.2,2.65121852044E-13}}},
 {"Y44",1,{-8.29220442137E-6,1.37281709336E-5,-6.86434216943E-6,4.212879630575E-8},
  {{1.20260042429E-15,-2.8637514027E-15,6.30398798849E-14},{Residual->7.67498397678E-16}},
  {{-.6,2.65899829617E-14},{-.4,1.08987509598E-14},{-.2,4.02952819326E-15},{1.11022302463E-16,1.82599135931E-15},
   {.2,3.62146278993E-15},{.4,1.02329481788E-14},{.6,2.18242039983E-14}}},
 {"AY",1,{-8.23352036378E-6,1.372639178765E-5,-6.87338711813E-6,4.408810753575E-8},
  {{4.10918796551E-15,-1.1100909096E-13,3.70075695973E-12},{Residual->7.8213356391E-15}},
  {{-.1,4.49840768497E-14},{-.07,4.68110941636E-14},{-.04,4.89883049247E-15},{-.01,4.80894750252E-15},{.02,3.67036348065E-15},
   {.05,7.25120212673E-15},{.08,1.99600427673E-14}}},
 {"EY",1,{-8.31047118673E-6,1.371995866142E-5,-6.89515002932E-6,5.1882011426E-8},
  {{1.92989117335E-15,-5.5265167867E-15,6.89783717046E-13},{Residual->1.25295056393E-15}},
  {{-.1,7.87746778832E-15},{-.07,8.37905407425E-15},{-.04,2.89048571186E-15},{-.01,1.40178076708E-15},{.02,1.9570750326E-15},
   {.05,2.67360621213E-15},{.08,6.58202307375E-15}}},
 {"R32",1,{-9.00061612279E-6,1.370659354336E-5,-6.79895208115E-6,1.622869062406E-7},
  {{4.91286080042E-15,2.99109955133E-14,-5.9966175026E-14},{Residual->2.43027410197E-15}},
  {{-.1,2.04381175464E-15},{-.07,1.40074849117E-15},{-.04,3.41159082858E-15},{-.01,3.6508125016E-15},{.02,1.00306248663E-14},
   {.05,2.17006444428E-15},{.08,8.03547909719E-15}}},
 {"Y24",1,{-9.00733932133E-6,1.368892718512E-5,-6.81527866473E-6,1.559623712787E-7},
  {{2.63190057099E-14,-7.4049593012E-15,7.37280255858E-15},{Residual->2.19802259143E-17}},
  {{-.3,2.92150946039E-14},{-.2,2.80832343992E-14},{-.1,2.7110819189E-14},{5.55111512313E-17,2.63370399371E-14},
   {.1,2.56836176167E-14},{.2,2.50977886809E-14},{.3,2.47698302591E-14}}},
 {"Y46",1,{-8.95265015209E-6,1.371011772986E-5,-6.81139455213E-6,1.554536645178E-7},
  {{2.43664058048E-14,2.34653868183E-15,6.15748912995E-15},{Residual->3.0263541867E-17}},
  {{-.45,2.45474509605E-14},{-.3,2.423332109E-14},{-.15,2.41740043696E-14},{-5.5511151231E-17,2.43242612549E-14},
   {.15,2.48386797072E-14},{.3,2.56792420228E-14},{.45,2.66470993806E-14}}},
 {"Y22",1,{-8.57971537711E-6,1.37755259185E-5,-6.81910887183E-6,1.276635827475E-7},
  {{2.46042517808E-14,3.83032297795E-14,7.91129937469E-14},{Residual->2.34458055719E-15}},
  {{-.6,3.17682785589E-14},{-.4,2.15480970389E-14},{-.2,1.62979903599E-14},{1.11022302463E-16,2.41658418115E-14},
   {.2,3.85555735277E-14},{.4,5.48600691445E-14},{.6,7.36404650208E-14}}},
 {"Y26",1,{-8.57971537711E-6,1.37755259185E-5,-6.81910887183E-6,1.276635827475E-7},
  {{1.76857530445E-14,7.21702182236E-14,8.11521244284E-13},{Residual->2.2678466757E-15}},
  {{-.3,6.65275752883E-14},{-.2,3.83549435872E-14},{-.1,2.17009740098E-14},{5.55111512313E-17,1.62979903599E-14},
   {.1,3.02156132534E-14},{.2,6.39327848153E-14},{.3,1.13996338397E-13}}},
 {"Y66",1,{-8.57971537711E-6,1.37755259185E-5,-6.81910887183E-6,1.276635827475E-7},
  {{2.28504444991E-14,-3.0846144454E-13,7.90776420676E-12},{Residual->5.40722020025E-15}},
  {{-.2,4.03163581025E-13},{-.15,2.48786907952E-13},{-.1,1.31286074774E-13},{-.05,5.17106731695E-14},{0,1.62979903599E-14},
   {.05,3.2811199773E-14},{.1,7.79168842202E-14},{.15,1.601127121E-13},{.2,2.69732608134E-13}}},
 {"Y44",1,{-8.57971537711E-6,1.377552591849E-5,-6.81910887183E-6,1.276635827475E-7},
  {{1.68661261567E-14,-1.6827875216E-14,7.98874723836E-14},{Residual->9.11958974417E-16}},
  {{-.6,5.63258747271E-14},{-.4,3.62063843545E-14},{-.2,2.23061890374E-14},{1.11022302463E-16,1.62979903599E-14},
   {.2,1.78023977093E-14},{.4,2.41359649276E-14},{.6,3.44620510506E-14}}},
 {"AY",1,{-8.6392830542E-6,1.376417219844E-5,-6.84488965756E-6,1.251178305543E-7},
  {{1.69637596105E-14,1.28443850961E-13,7.47875084907E-12},{Residual->5.17694361023E-15}},
  {{-.1,7.4703326602E-14},{-.07,5.53002853857E-14},{-.04,1.63578616159E-14},{-.01,1.67051505966E-14},{.02,2.25313298501E-14},
   {.05,4.27839190541E-14},{.08,7.50730215928E-14}}},
 {"EY",1,{-8.52809960891E-6,1.379952095332E-5,-6.724635823E-6,1.362843658956E-7},
  {{1.71602594287E-14,-1.2135931115E-13,2.50831793884E-13},{Residual->3.20675988957E-15}},
  {{-.1,2.95270876617E-14},{-.07,3.19195323374E-14},{-.04,2.21875871511E-14},{-.01,1.31302412992E-14},{.02,1.58206016785E-14},
   {.05,1.4953865716E-14},{.08,7.57459539896E-15}}},
 {"R32",1,{-8.23844239505E-6,1.381033971899E-5,-6.75269174163E-6,1.252980385966E-7},
  {{1.85500610482E-14,1.85944476772E-14,1.37380871161E-13},{Residual->1.94909826755E-15}},
  {{-.1,1.70190087207E-14},{-.07,2.12990938345E-14},{-.04,1.52368761768E-14},{-.01,1.71971362728E-14},{.02,2.11608211774E-14},
   {.05,1.95395268989E-14},{.08,2.0654517482E-14}}},
 {"Y24",1,{-8.22993881249E-6,1.381653688999E-5,-6.7479480737E-6,1.241120413177E-7},
  {{1.56303768542E-14,2.63761377115E-15,9.80768565208E-15},{Residual->3.85401083584E-17}},
  {{-.3,1.57530105949E-14},{-.2,1.54536146596E-14},{-.1,1.54195374333E-14},{5.55111512313E-17,1.56995984762E-14},
   {.1,1.60025558376E-14},{.2,1.65228576222E-14},{.3,1.73076153381E-14}}},
 {"Y46",1,{-8.29828212167E-6,1.379169231246E-5,-6.75419703201E-6,1.226871606789E-7},
  {{1.54671928305E-14,-4.6754775234E-15,1.26946397856E-14},{Residual->1.21763593453E-16}},
  {{-.45,2.02225872814E-14},{-.3,1.79863748452E-14},{-.15,1.63078052078E-14},{-5.5511151231E-17,1.54037988001E-14},
   {.15,1.51680276652E-14},{.3,1.53948537573E-14},{.45,1.57845253214E-14}}},
 {"Y22",1,{-7.92027144625E-6,1.386643716846E-5,-6.75439756754E-6,9.711804457295E-8},
  {{1.74041725218E-14,4.45818823824E-14,8.40965495311E-14},{Residual->2.47742888349E-15}},
  {{-.6,2.24781154522E-14},{-.4,1.25080421134E-14},{-.2,9.43191458167E-15},{1.11022302463E-16,1.50521393955E-14},
   {.2,3.32225069045E-14},{.4,5.16554944398E-14},{.6,7.16691302407E-14}}},
 {"Y26",1,{-7.92027144701E-6,1.386643716936E-5,-6.7543975675E-6,9.711804453476E-8},
  {{1.25423040293E-14,4.51730629776E-14,8.5971476031E-13},{Residual->2.10778856639E-15}},
  {{-.3,7.42681240457E-14},{-.2,4.04660947598E-14},{-.1,1.93686075131E-14},{5.55111512313E-17,9.43191457426E-15},
   {.1,2.42598668627E-14},{.2,5.68350813653E-14},{.3,1.03886571971E-13}}},
 {"Y66",1,{-7.92027144701E-6,1.386643716936E-5,-6.7543975675E-6,9.711804453476E-8},
  {{1.55566827911E-14,-3.033980937E-13,8.15758490692E-12},{Residual->5.71223105624E-15}},
  {{-.2,4.04719790182E-13},{-.15,2.46734338871E-13},{-.1,1.26622566603E-13},{-.05,4.28941558255E-14},{0,9.43191457426E-15},
   {.05,2.71897438038E-14},{.1,7.371437962E-14},{.15,1.58955284488E-13},{.2,2.73385707191E-13}}},
 {"Y44",1,{-7.92027144701E-6,1.386643716936E-5,-6.75439756754E-6,9.711804457296E-8},
  {{1.04904329384E-14,-9.6813790842E-15,8.71882563995E-14},{Residual->1.27655820001E-15}},
  {{-.6,4.83207573371E-14},{-.4,2.84369761912E-14},{-.2,1.43953818693E-14},{1.11022302463E-16,9.43191458168E-15},
   {.2,1.35858096813E-14},{.4,2.23090405167E-14},{.6,3.4603997559E-14}}},
 {"AY",1,{-8.00627075449E-6,1.384727630281E-5,-6.73452507507E-6,9.828534717903E-8},
  {{1.97850872216E-14,3.50971764509E-14,2.08036189653E-12},{Residual->1.37021083038E-14}},
  {{-.1,2.93414765795E-14},{-.07,2.58402519206E-14},{-.04,4.69031760049E-14},{-.01,1.71071556612E-14},{.02,1.06445244837E-14},
   {.05,9.75565655182E-15},{.08,5.03279401182E-14}}},
 {"EY",1,{-8.29884088606E-6,1.383884134646E-5,-6.80017565953E-6,7.842060213118E-8},
  {{9.80897187867E-15,7.45863143079E-14,2.57519294962E-13},{Residual->2.69001781426E-15}},
  {{-.1,4.38938508863E-15},{-.07,8.4417053573E-15},{-.04,5.40262084827E-15},{-.01,7.08593810453E-15},{.02,1.05449648291E-14},
   {.05,1.95052881196E-14},{.08,1.47416085412E-14}}},
 {"R32",1,{-8.0832595822E-6,1.383438815263E-5,-6.82350620503E-6,6.736344808186E-8},
  {{6.6900998381E-15,5.06289686442E-14,1.93470255976E-13},{Residual->5.23766921471E-16}},
  {{-.1,3.74091014785E-15},{-.07,3.69399276053E-15},{-.04,5.555625779E-15},{-.01,5.25622619174E-15},{.02,8.44983265848E-15},
   {.05,9.80834701537E-15},{.08,1.17926161384E-14}}},
 {"Y24",1,{-8.08056741752E-6,1.385175404375E-5,-6.83783821073E-6,5.332486866668E-8},
  {{4.52085733664E-15,-5.6719098212E-15,4.4406434153E-15},{Residual->2.02113182151E-17}},
  {{-.3,6.6173612334E-15},{-.2,5.85414065273E-15},{-.1,5.09749850818E-15},{5.55111512313E-17,4.53783413748E-15},
   {.1,4.01502805697E-15},{.2,3.54106881454E-15},{.3,3.22645010944E-15}}},
 {"Y46",1,{-7.99936006722E-6,1.387094047798E-5,-6.83160776979E-6,4.80789545373E-8},
  {{2.81871813474E-15,3.02304414276E-15,4.70352125672E-15},{Residual->3.08185203718E-17}},
  {{-.45,2.40673904841E-15},{-.3,2.3115858694E-15},{-.15,2.51707548157E-15},{-5.5511151231E-17,2.84354161832E-15},
   {.15,3.32406859883E-15},{.3,4.14052298891E-15},{.45,5.15071172952E-15}}},
 {"Y22",1,{-7.99936006722E-6,1.387094047798E-5,-6.83160776979E-6,4.807895452802E-8},
  {{2.30253354487E-15,-1.5790248377E-15,6.9374441421E-14},{Residual->5.35017261E-16}},
  {{-.6,2.78845430084E-14},{-.4,1.45123358332E-14},{-.2,5.60957800272E-15},{1.11022302463E-16,2.31158586851E-15},
   {.2,3.75722626284E-15},{.4,1.35374073493E-14},{.6,2.62044328806E-14}}},
 {"Y26",1,{-7.99936006723E-6,1.387094047802E-5,-6.83160776979E-6,4.807895453729E-8},
  {{4.20922908012E-15,3.69402196522E-14,7.14702615648E-13},{Residual->1.40072609506E-15}},
  {{-.3,5.60242992124E-14},{-.2,2.70685700857E-14},{-.1,9.59679980502E-15},{5.55111512313E-17,2.3115858694E-15},
   {.1,1.39344952365E-14},{.2,4.06317997963E-14},{.3,8.00137859369E-14}}},
 {"Y66",1,{-7.99936006723E-6,1.387094047802E-5,-6.83160776979E-6,4.807895453729E-8},
  {{2.92135471484E-15,-2.0802605419E-13,7.31629002047E-12},{Residual->5.76148173343E-15}},
  {{-.2,3.42173385698E-13},{-.15,1.98902849961E-13},{-.1,9.20629438738E-14},{-.05,2.21418744295E-14},{0,2.3115858694E-15},
   {.05,1.7149608954E-14},{.1,6.37491583509E-14},{.15,1.38033386836E-13},{.2,2.47210901531E-13}}},
 {"Y44",1,{-7.99936006722E-6,1.387094047798E-5,-6.83160776979E-6,4.807895453728E-8},
  {{2.75473370968E-15,-4.4347400637E-15,7.05219742976E-14},{Residual->3.33931250202E-16}},
  {{-.6,3.08983054361E-14},{-.4,1.59261197191E-14},{-.2,6.16175456832E-15},{1.11022302463E-16,2.3115858694E-15},
   {.2,5.26094986546E-15},{.4,1.2513679075E-14},{.6,2.51953526477E-14}}}}
