FD	 2.703135E-5	 2.119015E-5	 4.056763E-6	 4.943457E-7	
EX2	 1.892523E-5	 2.104448E-5	 3.505840E-6	 4.967052E-7	
FD	 1.955224E-5	 2.097960E-5	 3.501962E-6	 4.959718E-7	
AY	 1.838960E-6	 2.010400E-5	 2.723050E-8	 5.747950E-7	
EY	 1.440067E-6	 1.991997E-5	 3.416584E-8	 1.530375E-7	
R32	 1.561233E-6	 2.022267E-5	 2.076635E-8	 4.123615E-8	
AY	 1.576117E-6	 2.022362E-5	 2.492201E-8	 4.128552E-8	
EY	 1.452974E-6	 2.021956E-5	 2.453516E-8	 4.104294E-8	
R32	 1.660086E-6	 2.021455E-5	 1.281891E-8	 4.165052E-8	
AY	 1.780352E-6	 2.021033E-5	 1.646519E-8	 4.057954E-8	
EY	 1.962436E-6	 2.019980E-5	 1.902284E-8	 4.088378E-8	
R32	 1.730359E-6	 2.021511E-5	 1.888226E-8	 4.181007E-8	
AY	 2.010810E-6	 2.020664E-5	 2.225496E-8	 4.107632E-8	
EY	 1.336848E-6	 2.021173E-5	 2.158947E-8	 4.281251E-8	
R32	 1.742920E-6	 2.020548E-5	 2.846758E-8	 4.285784E-8	
Y24	 1.422254E-6	 2.020729E-5	 2.185297E-8	 3.949230E-8	
Y46	 1.266523E-6	 2.021724E-5	 1.908171E-8	 3.925037E-8	
Y22	 1.968375E-6	 2.020697E-5	 1.930628E-8	 3.927546E-8	
Y26	 1.471230E-6	 2.020009E-5	 2.597499E-8	 3.914370E-8	
Y66	 1.633806E-6	 2.021044E-5	 1.840098E-8	 3.925131E-8	
Y44	 1.653175E-6	 2.021503E-5	 2.240936E-8	 3.909498E-8	
AY	 1.496688E-6	 2.022087E-5	 1.802769E-8	 3.976851E-8	
EY	 2.083907E-6	 2.020815E-5	 2.476888E-8	 3.964276E-8	
R32	 1.593475E-6	 2.021183E-5	 1.973541E-8	 3.956797E-8	
Y24	 1.266326E-6	 2.021493E-5	 1.686372E-8	 3.946076E-8	
Y46	 1.618726E-6	 2.022159E-5	 1.803701E-8	 3.923127E-8	
Y22	 1.859290E-6	 2.021538E-5	 1.727207E-8	 3.931832E-8	
Y26	 1.681646E-6	 2.021166E-5	 2.253021E-8	 3.874613E-8	
Y66	 1.751960E-6	 2.021445E-5	 1.621141E-8	 3.934674E-8	
Y44	 1.480727E-6	 2.021270E-5	 1.904961E-8	 3.873546E-8	
AY	 1.946030E-6	 2.021633E-5	 2.264925E-8	 3.938827E-8	
EY	 1.759113E-6	 2.021865E-5	 1.981997E-8	 3.902112E-8	
R32	 1.233712E-6	 2.021650E-5	 2.848946E-8	 3.819835E-8	
Y24	 1.415533E-6	 2.020558E-5	 2.274735E-8	 3.860333E-8	
Y46	 1.509531E-6	 2.020552E-5	 1.895692E-8	 3.858426E-8	
Y22	 1.243042E-6	 2.020863E-5	 1.838288E-8	 3.861986E-8	
Y26	 1.882005E-6	 2.020775E-5	 2.391302E-8	 3.860839E-8	
Y66	 1.748974E-6	 2.021238E-5	 1.780669E-8	 3.848589E-8	
Y44	 1.804165E-6	 2.020754E-5	 2.346599E-8	 3.847272E-8	
AY	 1.234810E-6	 2.021528E-5	 1.709656E-8	 3.873496E-8	
EY	 1.901530E-6	 2.021494E-5	 2.158077E-8	 3.831961E-8	
R32	 1.455637E-6	 2.020731E-5	 2.634818E-8	 3.861409E-8	
Y24	 1.630367E-6	 2.021430E-5	 1.222788E-8	 3.960901E-8	
Y46	 1.383175E-6	 2.021500E-5	 1.557706E-8	 3.953711E-8	
Y22	 1.359273E-6	 2.020828E-5	 1.923071E-8	 3.953255E-8	
Y26	 1.534187E-6	 2.020730E-5	 2.362969E-8	 3.949598E-8	
Y66	 1.949384E-6	 2.021570E-5	 1.969634E-8	 3.931884E-8	
Y44	 1.278974E-6	 2.020840E-5	 2.348955E-8	 3.937728E-8	
OCT1	 1.416721E-6	 2.022399E-5	 1.826705E-8	 3.899097E-8	
OCT2	 1.127838E-6	 2.021993E-5	 1.515683E-8	 3.888217E-8	
