FD	 1.268319E-5	 6.834718E-7	
EX2	 1.116532E-5	 1.045413E-6	
FD	 1.114877E-5	 6.812376E-7	
AY	 1.071155E-5	 8.206637E-7	
EY	 1.050401E-5	 1.848420E-7	
R32	 1.066538E-5	 9.633198E-8	
AY	 1.067213E-5	 9.079305E-8	
EY	 1.065937E-5	 7.922455E-8	
R32	 1.062083E-5	 7.538939E-8	
AY	 1.061904E-5	 4.592502E-8	
EY	 1.060145E-5	 4.644041E-8	
R32	 1.061173E-5	 4.474090E-8	
AY	 1.061241E-5	 4.287795E-8	
EY	 1.062095E-5	 4.381560E-8	
R32	 1.060411E-5	 4.485446E-8	
Y24	 1.061059E-5	 4.318864E-8	
Y46	 1.062936E-5	 4.232355E-8	
Y22	 1.062936E-5	 4.232355E-8	
Y26	 1.062936E-5	 4.232355E-8	
Y66	 1.062936E-5	 4.232355E-8	
Y44	 1.062936E-5	 4.232355E-8	
AY	 1.062794E-5	 4.793723E-8	
EY	 1.061457E-5	 4.779148E-8	
R32	 1.057436E-5	 7.003657E-8	
Y24	 1.059385E-5	 6.405478E-8	
Y46	 1.059385E-5	 6.405478E-8	
Y22	 1.059385E-5	 6.405478E-8	
Y26	 1.059385E-5	 6.405478E-8	
Y66	 1.059385E-5	 6.405478E-8	
Y44	 1.059385E-5	 6.405478E-8	
AY	 1.059173E-5	 1.956395E-7	
EY	 1.057724E-5	 1.989923E-7	
R32	 1.065364E-5	 1.976362E-7	
Y24	 1.064214E-5	 1.793084E-7	
Y46	 1.058545E-5	 1.220457E-7	
Y22	 1.059351E-5	 1.017137E-7	
Y26	 1.058346E-5	 8.496450E-8	
Y66	 1.058346E-5	 8.496450E-8	
Y44	 1.058465E-5	 8.344947E-8	
AY	 1.058537E-5	 1.069749E-7	
EY	 1.057120E-5	 8.469363E-8	
R32	 1.057778E-5	 7.929952E-8	
Y24	 1.057912E-5	 7.814953E-8	
Y46	 1.058541E-5	 7.661800E-8	
Y22	 1.058541E-5	 7.661800E-8	
Y26	 1.058541E-5	 7.661800E-8	
Y66	 1.058541E-5	 7.661800E-8	
Y44	 1.060147E-5	 6.947921E-8	
