{{"FD",1,{1.563766306529E-5,6.809413440535E-6,-2.77973611934E-6,2.963570973272E-7}},
 {"EX2",1,{1.686634712431E-5,6.789324571349E-6,-2.84286944212E-6,3.0030822942E-7}},
 {"FD",1,{1.686597707873E-5,6.789737094261E-6,-2.8391315302E-6,2.960514089218E-7}},
 {"AY",1,{1.658152124218E-5,6.620807738933E-6,-2.95911026625E-6,5.323763933684E-7},
  {{2.86270909192E-13,4.98616267009E-15,1.4013369731E-12},{Residual->2.2993681333E-15}},
  {{-.5,6.31365059347E-13},{-.35,4.60561105239E-13},{-.2,3.4239053446E-13},{-.05,2.87068867334E-13},{.1,2.99260289419E-13},
   {.25,3.75885137013E-13},{.4,5.12985904681E-13}}},
 {"EY",1,{1.654544517937E-5,6.566492864771E-6,-2.79353852267E-6,4.776680873175E-7},
  {{2.85252789669E-13,-2.8990330147E-13,3.57692459873E-13},{Residual->2.77288660974E-15}},
  {{-.5,5.1890312868E-13},{-.35,4.29127455592E-13},{-.2,3.60886401775E-13},{-.05,3.03574222537E-13},{.1,2.55926313277E-13},
   {.25,2.32172400892E-13},{.4,2.29251628212E-13}}},
 {"R32",1,{1.637060606693E-5,6.736251328832E-6,-3.04206124531E-6,5.287393792954E-8},
  {{2.29859947549E-13,-1.0247752555E-12,1.15055934115E-12},{Residual->2.21627404485E-15}},
  {{-.5,1.03106768478E-12},{-.35,7.25554618946E-13},{-.2,4.84191981805E-13},{-.05,2.8515747523E-13},{.1,1.3671101942E-13},
   {.25,4.54838384031E-14},{.4,4.51152709838E-15}}},
 {"AY",1,{1.634086309552E-5,6.741031619655E-6,-3.0413251286E-6,5.200647172567E-8},
  {{2.23584311481E-15,-2.9640869737E-14,1.30241922755E-12},{Residual->5.22742413283E-16}},
  {{-.5,3.42740812794E-13},{-.35,1.71714096215E-13},{-.2,6.06236704214E-14},{-.05,7.22242772526E-15},{.1,1.26013116765E-14},
   {.25,7.5152750559E-14},{.4,1.99286586658E-13}}},
 {"EY",1,{1.635335796252E-5,6.729361578508E-6,-3.01830163912E-6,4.386303036361E-8},
  {{2.74668305026E-15,-2.6435933228E-14,2.61791437481E-13},{Residual->7.67850201627E-17}},
  {{-.5,8.15078059855E-14},{-.35,4.39147921502E-14},{-.2,1.84888679692E-14},{-.05,4.78847326308E-15},{.1,2.73414652976E-15},
   {.25,1.25412831605E-14},{.4,3.40139446922E-14}}},
 {"R32",1,{1.635514456369E-5,6.726798263851E-6,-3.01545307368E-6,4.398518977816E-8},
  {{1.85539869977E-15,8.88303334635E-15,1.19033889429E-12},{Residual->3.09690703309E-16}},
  {{-.5,2.94869112787E-13},{-.35,1.44725921766E-13},{-.2,4.75850658919E-14},{-.05,4.89932549275E-15},{.1,1.40657791024E-14},
   {.25,7.84890015955E-14},{.4,1.95988956647E-13}}},
 {"AY",1,{1.636716934382E-5,6.725678604089E-6,-3.01564488184E-6,4.365503954759E-8},
  {{1.32891352572E-15,9.29213182649E-15,1.29665451184E-12},{Residual->4.95354106993E-16}},
  {{-.3,1.15811817314E-13},{-.2,5.0393414725E-14},{-.1,1.3163214858E-14},{5.55111512313E-17,1.96780464207E-15},
   {.1,1.53841521306E-14},{.2,5.49164497441E-14},{.3,1.20728804582E-13}}},
 {"EY",1,{1.636850328253E-5,6.726047776122E-6,-3.01679091665E-6,4.36242778624E-8},
  {{1.93723937418E-15,5.79878737096E-16,2.6069864206E-13},{Residual->8.46866430823E-17}},
  {{-.5,6.69099832261E-14},{-.35,3.34851566537E-14},{-.2,1.23275455503E-14},{-.05,2.58080162902E-15},{.1,4.59651502648E-15},
   {.25,1.84069055876E-14},{.4,4.38531811217E-14}}},
 {"R32",1,{1.636753063401E-5,6.726755623548E-6,-3.01692629872E-6,4.354545806539E-8},
  {{2.75525878112E-15,-7.91821747E-16,1.16236371336E-12},{Residual->1.24345329167E-15}},
  {{-.5,2.93146208446E-13},{-.35,1.47148003345E-13},{-.2,4.81835586644E-14},{-.05,5.76794056182E-15},{.1,1.31236700963E-14},
   {.25,7.71991074573E-14},{.4,1.87625964911E-13}}},
 {"AY",1,{1.636507507001E-5,6.727290256014E-6,-3.01692183392E-6,4.35553838801E-8},
  {{1.70622312831E-15,-2.6951573557E-15,1.29114035691E-12},{Residual->6.09092579015E-16}},
  {{-.3,1.18738054616E-13},{-.2,5.38730042857E-14},{-.1,1.49320109349E-14},{5.55111512313E-17,1.90322978896E-15},
   {.1,1.33567434807E-14},{.2,5.39904569009E-14},{.3,1.16669361825E-13}}},
 {"EY",1,{1.636470326359E-5,6.727898474932E-6,-3.01767396636E-6,4.353329537734E-8},
  {{1.9939032426E-15,3.44264516242E-17,2.59341861891E-13},{Residual->9.83847971695E-17}},
  {{-.3,2.52178092081E-14},{-.2,1.25089213391E-14},{-.1,4.6704434205E-15},{5.55111512313E-17,1.89692631056E-15},
   {.1,4.47802600551E-15},{.2,1.24426714503E-14},{.3,2.53582462937E-14}}},
 {"R32",1,{1.6367479415E-5,6.726340181704E-6,-3.01602123774E-6,4.372890666524E-8},
  {{2.41287476267E-15,7.54690763038E-15,1.14462146711E-12},{Residual->5.57473871685E-16}},
  {{-.3,1.02609011481E-13},{-.2,4.73270660307E-14},{-.1,1.36722505748E-14},{5.55111512313E-17,1.89788229419E-15},
   {.1,1.47003505685E-14},{.2,4.89483116655E-14},{.3,1.08229261515E-13}}},
 {"Y24",1,{1.636118340993E-5,6.723151199597E-6,-3.01595990124E-6,4.371985365515E-8},
  {{2.07646665238E-15,-9.5880477955E-17,1.68135948241E-15},{Residual->1.11155393288E-16}},
  {{-1.5,5.8689422462E-15},{-1.2,4.70154902618E-15},{-.9,3.67860693531E-15},{-.6,2.81423067341E-15},{-.3,2.19696611026E-15},
   {0,1.91221727814E-15},{.3,2.07577378525E-15},{.6,2.66291299221E-15},{.9,3.47637089697E-15},{1.2,4.47772317477E-15},
   {1.5,5.62129893331E-15}}},
 {"Y46",1,{1.639084562312E-5,6.736497835285E-6,-3.0160248145E-6,4.365492518681E-8},
  {{1.93427085421E-15,1.25182630234E-16,1.44669802474E-15},{Residual->2.35214485327E-17}},
  {{-1,3.23620978812E-15},{-.8,2.78935894362E-15},{-.6,2.4009875251E-15},{-.4,2.10944781649E-15},{-.2,1.93980138469E-15},
   {0,1.91142560363E-15},{.2,2.0047456618E-15},{.4,2.23153481175E-15},{.6,2.56224579246E-15},{.8,2.98385737736E-15},
   {1,3.47283600021E-15}}},
 {"Y22",1,{1.63908456231E-5,6.736497835289E-6,-3.01602481451E-6,4.365492518595E-8},
  {{5.10433406397E-15,2.46129022916E-15,5.80317135409E-14},{Residual->1.70402155035E-15}},
  {{-.6,2.32103060892E-14},{-.4,1.55452981292E-14},{-.2,8.22052274649E-15},{1.11022302463E-16,1.90575249299E-15},
   {.2,8.01653702146E-15},{.4,1.67735978689E-14},{.6,2.70538432655E-14}}},
 {"Y26",1,{1.63908456231E-5,6.736497835289E-6,-3.01602481451E-6,4.365492518595E-8},
  {{3.69491284391E-15,-4.4307848748E-15,5.8415220016E-14},{Residual->9.19543150172E-16}},
  {{-.6,2.67626541838E-14},{-.4,1.59206262364E-14},{-.2,7.4726432713E-15},{1.11022302463E-16,1.90575249299E-15},
   {.2,5.4165472729E-15},{.4,1.206072288E-14},{.6,2.17504899879E-14}}},
 {"Y66",1,{1.63908456231E-5,6.736497835289E-6,-3.01602481451E-6,4.365492518595E-8},
  {{8.70889800336E-15,2.83503674164E-14,1.64893233053E-12},{Residual->3.0780675718E-15}},
  {{-.2,6.69953072483E-14},{-.15,4.41705032499E-14},{-.1,2.48636501073E-14},{-.05,1.14571783464E-14},{0,1.90575249299E-15},
   {.05,1.44355820137E-14},{.1,3.14958171376E-14},{.15,5.22834607914E-14},{.2,7.81126802225E-14}}},
 {"Y44",1,{1.63908456231E-5,6.736497835289E-6,-3.01602481451E-6,4.365492518595E-8},
  {{3.25304270404E-15,1.58036332863E-15,2.56084895217E-14},{Residual->6.79978723939E-16}},
  {{-.6,1.11293755003E-14},{-.4,7.46625089136E-15},{-.2,4.32717816348E-15},{1.11022302463E-16,1.90575249299E-15},
   {.2,4.87774388098E-15},{.4,8.61942158417E-15},{.6,1.31270846794E-14}}},
 {"AY",1,{1.638589007183E-5,6.736609946847E-6,-3.01600069278E-6,4.386344778511E-8},
  {{1.74073922117E-15,-7.9113205951E-15,1.23864189921E-12},{Residual->4.58812893164E-16}},
  {{-.1,1.54872517032E-14},{-.07,7.55244900071E-15},{-.04,3.88223458426E-15},{-.01,2.0110498241E-15},{.02,2.3965351717E-15},
   {.05,4.87315636975E-15},{.08,8.61711552578E-15}}},
 {"EY",1,{1.638639517427E-5,6.735532363639E-6,-3.01460790136E-6,4.406663680941E-8},
  {{1.91823579296E-15,-7.3654741479E-16,2.86363115002E-13},{Residual->1.68772814408E-17}},
  {{-.1,4.85219589694E-15},{-.07,3.36125704858E-15},{-.04,2.43054680236E-15},{-.01,1.96615359401E-15},{.02,2.00134335352E-15},
   {.05,2.57484548226E-15},{.08,3.70967137062E-15}}},
 {"R32",1,{1.638273925253E-5,6.738656414912E-6,-3.01776245303E-6,4.365713583289E-8},
  {{2.010258613E-15,-1.6163069045E-14,1.14864477277E-12},{Residual->1.16221457016E-16}},
  {{-.1,1.51226656812E-14},{-.07,8.6923919775E-15},{-.04,4.67421510043E-15},{-.01,2.17478556315E-15},{.02,2.03636926926E-15},
   {.05,4.24167479186E-15},{.08,8.01102235538E-15}}},
 {"Y24",1,{1.638929480881E-5,6.741953461108E-6,-3.01782602166E-6,4.361046121682E-8},
  {{1.90277122467E-15,1.540313779E-16,2.30973209015E-15},{Residual->3.79754882041E-18}},
  {{-.3,2.0689493488E-15},{-.2,1.95879016292E-15},{-.1,1.90618629123E-15},{5.55111512313E-17,1.90594550913E-15},
   {.1,1.94538948623E-15},{.2,2.02607524349E-15},{.3,2.15478751613E-15}}},
 {"Y46",1,{1.638929480881E-5,6.741953461108E-6,-3.01782602166E-6,4.361046121682E-8},
  {{1.90058208256E-15,-9.08033317E-18,1.69399006056E-15},{Residual->6.39084329342E-18}},
  {{-.45,2.2539170104E-15},{-.3,2.05101744903E-15},{-.15,1.93063996042E-15},{-5.5511151231E-17,1.90187232754E-15},
   {.15,1.94421929419E-15},{.3,2.05679762716E-15},{.45,2.23282464729E-15}}},
 {"Y22",1,{1.638929480877E-5,6.741953461108E-6,-3.01782602166E-6,4.361046121813E-8},
  {{4.90916361687E-15,1.35261914295E-15,5.82476955047E-14},{Residual->1.54688754847E-15}},
  {{-.6,2.39355568756E-14},{-.4,1.54983361094E-14},{-.2,8.23966477536E-15},{1.11022302463E-16,1.90187232766E-15},
   {.2,7.76696200106E-15},{.4,1.59268037628E-14},{.6,2.63323684316E-14}}},
 {"Y26",1,{1.638929480877E-5,6.741953461108E-6,-3.01782602166E-6,4.361046121813E-8},
  {{2.75786803473E-15,-5.4024975241E-15,8.18787629225E-14},{Residual->4.32522859318E-16}},
  {{-.3,1.15031190601E-14},{-.2,7.59948943156E-15},{-.1,4.3102679782E-15},{5.55111512313E-17,1.90187232766E-15},
   {.1,3.25330733395E-15},{.2,5.35091756966E-15},{.3,8.31215616027E-15}}},
 {"Y66",1,{1.638929480877E-5,6.741953461108E-6,-3.01782602166E-6,4.361046121813E-8},
  {{8.66017033645E-15,3.27194436788E-14,1.68610324241E-12},{Residual->3.14016124346E-15}},
  {{-.2,6.68865419606E-14},{-.15,4.52674698951E-14},{-.1,2.46205613433E-14},{-.05,1.13814210537E-14},{0,1.90187232766E-15},
   {.05,1.45272234835E-14},{.1,3.20388595377E-14},{.15,5.3407769406E-14},{.2,8.08253003819E-14}}},
 {"Y44",1,{1.638929480877E-5,6.741953461108E-6,-3.01782602166E-6,4.361046121813E-8},
  {{3.29126229097E-15,1.43001076728E-15,2.56853940711E-14},{Residual->7.11427464814E-16}},
  {{-.6,1.13068657261E-14},{-.4,7.61031848138E-15},{-.2,4.29922207416E-15},{1.11022302463E-16,1.90187232766E-15},
   {.2,4.95657814657E-15},{.4,8.70292355629E-15},{.6,1.30286970843E-14}}},
 {"AY",1,{1.639190973751E-5,6.741875351118E-6,-3.01808623528E-6,4.351169389055E-8},
  {{1.93499581941E-15,6.34670623767E-15,1.20638719791E-12},{Residual->1.67240390626E-16}},
  {{-.1,1.31776958459E-14},{-.07,7.73137069709E-15},{-.04,3.54958815573E-15},{-.01,1.94357447063E-15},{.02,2.56486691469E-15},
   {.05,5.09262243587E-15},{.08,1.02864112053E-14}}},
 {"EY",1,{1.639277079261E-5,6.741455922134E-6,-3.01772891428E-6,4.351480601235E-8},
  {{1.91467985802E-15,-6.2805086586E-16,2.75083598753E-13},{Residual->2.71008341182E-17}},
  {{-.1,4.69769946717E-15},{-.07,3.34370935802E-15},{-.04,2.40998725006E-15},{-.01,1.93004501541E-15},{.02,1.97487273683E-15},
   {.05,2.57855739655E-15},{.08,3.63651655044E-15}}},
 {"R32",1,{1.639377284783E-5,6.741423580437E-6,-3.01856206177E-6,4.352282169399E-8},
  {{1.92491515517E-15,5.18983007476E-15,1.21875872762E-12},{Residual->1.74733935166E-16}},
  {{-.1,1.34710756419E-14},{-.07,7.70065595834E-15},{-.04,3.60328005034E-15},{-.01,2.23915602204E-15},{.02,2.33330585897E-15},
   {.05,5.01966281182E-15},{.08,1.0309832683E-14}}},
 {"Y24",1,{1.6382554516E-5,6.735679902619E-6,-3.01847363408E-6,4.345122309423E-8},
  {{1.89284696486E-15,-2.815402437E-16,2.43140163108E-15},{Residual->2.17724365586E-18}},
  {{-.3,2.19816267805E-15},{-.2,2.04475600863E-15},{-.1,1.94177010944E-15},{5.55111512313E-17,1.89423600821E-15},
   {.1,1.89224750616E-15},{.2,1.93343672833E-15},{.3,2.02611217189E-15}}},
 {"Y46",1,{1.640810901326E-5,6.748261698676E-6,-3.01851369162E-6,4.341516244807E-8},
  {{1.88608812921E-15,1.28961682688E-16,1.69998280605E-15},{Residual->3.82658721516E-18}},
  {{-.45,2.17683208546E-15},{-.3,1.99446379888E-15},{-.15,1.90237231171E-15},{-5.5511151231E-17,1.88800878838E-15},
   {.15,1.94503693865E-15},{.3,2.08227815303E-15},{.45,2.28461399615E-15}}},
 {"Y22",1,{1.640810901326E-5,6.748261698676E-6,-3.01851369162E-6,4.341516244807E-8},
  {{4.99532038994E-15,2.07613031226E-15,5.75219077063E-14},{Residual->1.64694117449E-15}},
  {{-.6,2.31741135864E-14},{-.4,1.5475399106E-14},{-.2,8.10340016113E-15},{1.11022302463E-16,1.88487633039E-15},
   {.2,7.88915256408E-15},{.4,1.6280796521E-14},{.6,2.65840410916E-14}}},
 {"Y26",1,{1.640810901326E-5,6.748261698676E-6,-3.01851369162E-6,4.341516244807E-8},
  {{2.74537912276E-15,-5.4558618263E-15,8.10568890551E-14},{Residual->4.39171528674E-16}},
  {{-.3,1.14428420533E-14},{-.2,7.56151904912E-15},{-.1,4.27785816271E-15},{5.55111512313E-17,1.88487633039E-15},
   {.1,3.22324090331E-15},{.2,5.33997048405E-15},{.3,8.18327581193E-15}}},
 {"Y66",1,{1.640810901326E-5,6.748261698676E-6,-3.01851369162E-6,4.341516244807E-8},
  {{8.76822593279E-15,2.8664822677E-14,1.64263504515E-12},{Residual->3.14754308942E-15}},
  {{-.2,6.61914962759E-14},{-.15,4.43681061149E-14},{-.1,2.53441396725E-14},{-.05,1.17574596968E-14},{0,1.88487633039E-15},
   {.05,1.4366542667E-14},{.1,3.04161936644E-14},{.15,5.28103224585E-14},{.2,7.81701532874E-14}}},
 {"Y44",1,{1.640810901326E-5,6.748261698676E-6,-3.01851369162E-6,4.341516244807E-8},
  {{3.26297186844E-15,1.6115585269E-15,2.55411343384E-14},{Residual->6.95292530493E-16}},
  {{-.6,1.11363407692E-14},{-.4,7.42880352508E-15},{-.2,4.27311241842E-15},{1.11022302463E-16,1.88487633039E-15},
   {.2,4.95520371208E-15},{.4,8.6963445341E-15},{.6,1.30721922488E-14}}},
 {"AY",1,{1.640087670909E-5,6.749037248791E-6,-3.01863903508E-6,4.357826014907E-8},
  {{2.07121633002E-15,-7.8126587083E-15,1.17848903108E-12},{Residual->3.9725981406E-16}},
  {{-.1,1.46946753738E-14},{-.07,8.59051767009E-15},{-.04,3.87964562176E-15},{-.01,2.1325975911E-15},{.02,2.29036577992E-15},
   {.05,5.44830059805E-15},{.08,8.53216369006E-15}}},
 {"EY",1,{1.639871817347E-5,6.749073290866E-6,-3.01809346296E-6,4.359873736198E-8},
  {{1.92605603466E-15,-3.1508645979E-16,2.73719021698E-13},{Residual->3.00567835197E-17}},
  {{-.1,4.69737312627E-15},{-.07,3.29005774719E-15},{-.04,2.38705328189E-15},{-.01,1.92538944141E-15},{.02,2.01365189965E-15},
   {.05,2.65825231653E-15},{.08,3.62199314386E-15}}},
 {"R32",1,{1.639946993247E-5,6.748837188447E-6,-3.0179939267E-6,4.361124479577E-8},
  {{1.86120658503E-15,-5.7315393491E-15,1.1315883219E-12},{Residual->7.54569045947E-17}},
  {{-.1,1.37896976409E-14},{-.07,7.82426555972E-15},{-.04,3.76098455798E-15},{-.01,2.02562706795E-15},{.02,2.29502889147E-15},
   {.05,4.46816015857E-15},{.08,8.57402751017E-15}}},
 {"Y24",1,{1.640263227246E-5,6.750740999309E-6,-3.01802343558E-6,4.359730050303E-8},
  {{1.89905394879E-15,7.87898807948E-17,2.39624131592E-15},{Residual->3.85129904273E-18}},
  {{-.3,2.0949891507E-15},{-.2,1.97572087438E-15},{-.1,1.90885232078E-15},{5.55111512313E-17,1.90194067264E-15},
   {.1,1.93553629002E-15},{.2,2.01152080647E-15},{.3,2.13576509497E-15}}},
 {"Y46",1,{1.640263227246E-5,6.750740999309E-6,-3.01802343558E-6,4.359730050303E-8},
  {{1.89937080797E-15,-3.5889926929E-17,1.65581161641E-15},{Residual->5.84785244541E-18}},
  {{-.45,2.25590005177E-15},{-.3,2.05624982551E-15},{-.15,1.93253841507E-15},{-5.5511151231E-17,1.90072461115E-15},
   {.15,1.93696772527E-15},{.3,2.04409623297E-15},{.45,2.21228011236E-15}}},
 {"Y22",1,{1.640263227246E-5,6.750740999309E-6,-3.01802343558E-6,4.359730050303E-8},
  {{5.0865755307E-15,1.35926367716E-15,5.73409936414E-14},{Residual->1.66402734912E-15}},
  {{-.6,2.3769527168E-14},{-.4,1.56837431136E-14},{-.2,8.24186886736E-15},{1.11022302463E-16,1.90072461115E-15},
   {.2,7.90916011033E-15},{.4,1.63481000883E-14},{.6,2.59748176346E-14}}},
 {"Y26",1,{1.640263227246E-5,6.750740999309E-6,-3.01802343558E-6,4.359730050303E-8},
  {{2.78144256003E-15,-5.1651598324E-15,8.12897844503E-14},{Residual->4.57910434102E-16}},
  {{-.3,1.13755445569E-14},{-.2,7.62356215505E-15},{-.1,4.26533250905E-15},{5.55111512313E-17,1.90072461115E-15},
   {.1,3.29105733551E-15},{.2,5.43946357221E-15},{.3,8.33555282638E-15}}},
 {"Y66",1,{1.640263227246E-5,6.750740999309E-6,-3.01802343558E-6,4.359730050303E-8},
  {{8.57881010388E-15,3.36125992755E-14,1.6796643586E-12},{Residual->3.06000360082E-15}},
  {{-.2,6.6464469261E-14},{-.15,4.46391664171E-14},{-.1,2.45511450484E-14},{-.05,1.12282345957E-14},{0,1.90072461115E-15},
   {.05,1.46295994534E-14},{.1,3.16183346598E-14},{.15,5.34316526731E-14},{.2,8.06956180056E-14}}},
 {"Y44",1,{1.640263227246E-5,6.750740999309E-6,-3.01802343558E-6,4.359730050303E-8},
  {{3.25978832532E-15,1.511219564E-15,2.61457841267E-14},{Residual->6.9348062393E-16}},
  {{-.6,1.13208165335E-14},{-.4,7.68390094495E-15},{-.2,4.33471797019E-15},{1.11022302463E-16,1.90072461115E-15},
   {.2,4.91508682661E-15},{.4,8.62693664614E-15},{.6,1.33196129667E-14}}}}
