FD	 7.226227E-6	 5.263846E-7	
EX2	 7.226318E-6	 5.285636E-7	
FD	 7.226776E-6	 5.264059E-7	
AY	 6.913749E-6	 8.463964E-7	
EY	 7.132977E-6	 8.240259E-7	
R32	 6.765339E-6	 1.584835E-7	
AY	 6.757820E-6	 1.591022E-7	
EY	 6.720921E-6	 5.407636E-8	
R32	 6.729294E-6	 4.867285E-8	
AY	 6.730368E-6	 4.777760E-8	
EY	 6.721455E-6	 4.629385E-8	
R32	 6.729636E-6	 5.060226E-8	
AY	 6.727712E-6	 4.844136E-8	
EY	 6.726307E-6	 4.415266E-8	
R32	 6.721407E-6	 4.215274E-8	
Y24	 6.721407E-6	 4.215274E-8	
Y46	 6.754828E-6	 4.191885E-8	
Y22	 6.754828E-6	 4.191885E-8	
Y26	 6.754828E-6	 4.191885E-8	
Y66	 6.754828E-6	 4.191885E-8	
Y44	 6.754828E-6	 4.191885E-8	
AY	 6.756897E-6	 4.433740E-8	
EY	 6.757936E-6	 4.419640E-8	
R32	 6.742712E-6	 7.773677E-8	
Y24	 6.771328E-6	 7.401409E-8	
Y46	 6.643222E-6	 7.315570E-8	
Y22	 6.644061E-6	 6.398142E-8	
Y26	 6.644061E-6	 6.398142E-8	
Y66	 6.644061E-6	 6.398142E-8	
Y44	 6.644061E-6	 6.398142E-8	
AY	 6.643367E-6	 7.050644E-8	
EY	 6.640536E-6	 7.364249E-8	
R32	 6.664868E-6	 6.266914E-8	
Y24	 6.689331E-6	 5.983393E-8	
Y46	 6.821414E-6	 5.700309E-8	
Y22	 6.820706E-6	 5.520304E-8	
Y26	 6.820706E-6	 5.520304E-8	
Y66	 6.820706E-6	 5.520304E-8	
Y44	 6.820706E-6	 5.520304E-8	
AY	 6.821958E-6	 5.174880E-8	
EY	 6.809225E-6	 7.340893E-8	
R32	 6.796494E-6	 6.795802E-8	
Y24	 6.748761E-6	 6.568610E-8	
Y46	 6.661987E-6	 6.464201E-8	
Y22	 6.661987E-6	 6.464201E-8	
Y26	 6.659961E-6	 6.374810E-8	
Y66	 6.659961E-6	 6.374810E-8	
Y44	 6.659961E-6	 6.374810E-8	
