{{"FD",1,{-2.07122349698E-5,1.440315115319E-5,-1.07644913144E-6,6.346223058072E-7}},
 {"EX2",1,{-2.52088152343E-5,1.362048245456E-5,-2.06481142711E-6,7.001003825118E-7}},
 {"FD",1,{-2.5209232102E-5,1.362295653046E-5,-2.07049016109E-6,6.348725460983E-7}},
 {"AY",1,{-2.57439721498E-5,1.535236518006E-5,-2.09458469129E-6,8.268146801191E-7},
  {{6.90754370775E-13,-2.7240746896E-13,2.52659133794E-12},{Residual->2.61056324311E-15}},
  {{-.5,1.45774596777E-12},{-.35,1.09495043595E-12},{-.2,8.48717877464E-13},{-.05,7.12736677306E-13},{.1,6.87572474866E-13},
   {.25,7.7559855631E-13},{.4,9.89269111214E-13}}},
 {"EY",1,{-2.33077043288E-5,1.592657285981E-5,-1.81829578373E-6,4.924648736227E-7},
  {{6.83751706188E-13,8.17471427289E-13,3.70236257917E-13},{Residual->2.81097201954E-16}},
  {{-.5,3.67250563848E-13},{-.35,4.43498921872E-13},{-.2,5.35023882575E-13},{-.05,6.43872480017E-13},{.1,7.69037539884E-13},
   {.25,9.10957953433E-13},{.4,1.07023357913E-12}}},
 {"R32",1,{-2.52625793556E-5,1.535184207765E-5,-2.00421580715E-6,1.817970524813E-7},
  {{2.41720343436E-13,4.71564145674E-13,2.70892573539E-13},{Residual->2.87944574302E-16}},
  {{-.5,7.35366358946E-14},{-.35,1.09855987948E-13},{-.2,1.58700586356E-13},{-.05,2.18701484914E-13},{.1,2.91079236022E-13},
   {.25,3.76834125038E-13},{.4,4.73689838261E-13}}},
 {"AY",1,{-2.53506337785E-5,1.535703058368E-5,-1.99593173839E-6,1.809505066791E-7},
  {{2.85862468566E-14,1.05798974608E-13,2.62522037408E-12},{Residual->2.58169407859E-15}},
  {{-.5,6.33603255634E-13},{-.35,3.1062146857E-13},{-.2,1.10128838487E-13},{-.05,3.51130937839E-14},{.1,6.45709759421E-14},
   {.25,2.17226237232E-13},{.4,4.91640409454E-13}}},
 {"EY",1,{-2.49162958192E-5,1.543368490787E-5,-1.94564672651E-6,9.192880294596E-8},
  {{3.09641243388E-14,1.74170059443E-13,4.05942615192E-13},{Residual->1.88364634525E-15}},
  {{-.5,4.71599172679E-14},{-.35,1.84336115863E-14},{-.2,9.10133716761E-15},{-.05,2.44695070589E-14},{.1,5.4504438613E-14},
   {.25,1.0094291882E-13},{.4,1.6402546239E-13}}},
 {"R32",1,{-2.52287340323E-5,1.535740422439E-5,-1.97935810053E-6,7.26893843612E-8},
  {{9.47875524658E-15,8.15900161233E-14,2.43446045633E-13},{Residual->1.53158106977E-15}},
  {{-.5,2.86045794308E-14},{-.35,1.07206049085E-14},{-.2,5.47389376219E-15},{-.05,6.43167960874E-15},{.1,1.76970279477E-14},
   {.25,4.4032387441E-14},{.4,8.24659225313E-14}}},
 {"AY",1,{-2.52456709147E-5,1.53584266869E-5,-1.97852861075E-6,7.24613268862E-8},
  {{4.15723121491E-16,2.01509311605E-14,2.61453345244E-12},{Residual->2.3132672282E-15}},
  {{-.3,2.30653160492E-13},{-.2,9.93359640205E-14},{-.1,2.26125082602E-14},{5.55111512313E-17,5.28374659881E-15},
   {.1,2.72613376271E-14},{.2,1.07092947205E-13},{.3,2.42739764329E-13}}},
 {"EY",1,{-2.5138298909E-5,1.537118087096E-5,-1.96377469552E-6,5.614446207932E-8},
  {{5.84936051039E-15,4.35395601553E-14,4.0309380776E-13},{Residual->7.70800101788E-16}},
  {{-.5,8.46341281854E-14},{-.35,4.06586557359E-14},{-.2,1.33315840225E-14},{-.05,3.19195008669E-15},{.1,1.48925205313E-14},
   {.25,4.27777255318E-14},{.4,8.72233539495E-14}}},
 {"R32",1,{-2.51918089783E-5,1.5359078131E-5,-1.97028207447E-6,5.534847105921E-8},
  {{1.25160831564E-15,1.47831497801E-14,2.43391923792E-13},{Residual->1.11675763539E-15}},
  {{-.5,5.55155908961E-14},{-.35,2.45495912096E-14},{-.2,7.22886462803E-15},{-.05,3.10888578775E-15},{.1,5.33132681132E-15},
   {.25,1.89393873178E-14},{.4,4.65097797909E-14}}},
 {"AY",1,{-2.51945134629E-5,1.535925560502E-5,-1.97009173597E-6,5.506484366602E-8},
  {{-1.6078671188E-15,3.21879326705E-15,2.62208933549E-12},{Residual->2.21535868748E-15}},
  {{-.3,2.34504884743E-13},{-.2,1.01087010522E-13},{-.1,2.1984215394E-14},{5.55111512313E-17,3.06345324859E-15},
   {.1,2.38566600896E-14},{.2,1.024723086E-13},{.3,2.35961411508E-13}}},
 {"EY",1,{-2.51752883926E-5,1.536105242592E-5,-1.96754195226E-6,5.421096370205E-8},
  {{3.88240689401E-15,8.14358474452E-15,4.15477143613E-13},{Residual->4.55055027274E-16}},
  {{-.3,3.86997128492E-14},{-.2,1.92894036109E-14},{-.1,7.2267090798E-15},{5.55111512313E-17,3.03213700776E-15},
   {.1,9.20115510536E-15},{.2,2.26784554215E-14},{.3,4.33828753951E-14}}},
 {"R32",1,{-2.51930662334E-5,1.535900079401E-5,-1.96974740102E-6,5.4047981337E-8},
  {{2.01162979535E-15,4.24878045546E-15,2.13323246334E-13},{Residual->6.01055843558E-16}},
  {{-.3,2.03040425163E-14},{-.2,8.84695137638E-15},{-.1,3.75560827435E-15},{5.55111512313E-17,2.9388285855E-15},
   {.1,4.53360106682E-15},{.2,1.05740343807E-14},{.3,2.2858851341E-14}}},
 {"Y24",1,{-2.51982645342E-5,1.534614023373E-5,-1.97271461367E-6,5.284571125141E-8},
  {{2.7155190797E-15,2.24940941003E-16,2.08899181813E-15},{Residual->3.24479057469E-16}},
  {{-1.5,7.7067233461E-15},{-1.2,5.16115909587E-15},{-.9,3.67626283204E-15},{-.6,2.99606010283E-15},{-.3,2.79266919767E-15},
   {0,2.9211842866E-15},{.3,3.27926952915E-15},{.6,3.86122596672E-15},{.9,4.7101021115E-15},{1.2,5.95250776857E-15},
   {1.5,7.49456463905E-15}}},
 {"Y46",1,{-2.51238139195E-5,1.529794315258E-5,-1.96364575161E-6,5.071543244883E-8},
  {{2.80216988748E-15,1.14793826444E-15,1.48805775435E-15},{Residual->1.0904311759E-17}},
  {{-1,3.15695161204E-15},{-.8,2.82874152368E-15},{-.6,2.63876516777E-15},{-.4,2.57688435194E-15},{-.2,2.62998425494E-15},
   {0,2.79266919767E-15},{.2,3.09705150972E-15},{.4,3.52395710287E-15},{.6,4.03087645723E-15},{.8,4.66038917056E-15},
   {1,5.43505253305E-15}}},
 {"Y22",1,{-2.51238139195E-5,1.529794315258E-5,-1.96364575161E-6,5.071543244889E-8},
  {{3.39825347879E-15,8.37004476998E-15,2.4140696578E-14},{Residual->5.24151078539E-16}},
  {{-.6,6.53446335185E-15},{-.4,4.64436004144E-15},{-.2,3.25258310191E-15},{1.11022302463E-16,2.57205508848E-15},
   {.2,5.81030149681E-15},{.4,1.08281318598E-14},{.6,1.71834595786E-14}}},
 {"Y26",1,{-2.50898556738E-5,1.528946264117E-5,-1.92108572328E-6,4.748048981617E-8},
  {{4.22418735291E-15,-2.8097510909E-14,1.96341283189E-13},{Residual->1.29359666632E-15}},
  {{-.6,9.09720263034E-14},{-.4,4.87401617109E-14},{-.2,1.74552330506E-14},{1.11022302463E-16,2.57205508838E-15},
   {.2,6.14667646529E-15},{.4,2.63972902434E-14},{.6,5.71881057796E-14}}},
 {"Y66",1,{-2.50898556738E-5,1.528946264117E-5,-1.92108572328E-6,4.748048981617E-8},
  {{3.51585617746E-15,1.95324245599E-14,2.63785873854E-12},{Residual->1.30909628235E-15}},
  {{-.2,1.03783649352E-13},{-.15,6.14199985625E-14},{-.1,2.91670092669E-14},{-.05,9.17269631679E-15},{0,2.25439691318E-15},
   {.05,9.19306633432E-15},{.1,3.2719475005E-14},{.15,6.75783332295E-14},{.2,1.12032891398E-13}}},
 {"Y44",1,{-2.50912730974E-5,1.528964532783E-5,-1.92197643084E-6,4.742867656451E-8},
  {{1.77396960822E-15,-2.1209623852E-16,2.66381731506E-14},{Residual->4.99537674577E-16}},
  {{-.6,1.12424852762E-14},{-.4,6.12777776504E-15},{-.2,3.33486050107E-15},{1.11022302463E-16,2.25439691319E-15},
   {.2,2.29677362387E-15},{.4,5.1553820203E-15},{.6,1.18408650865E-14}}},
 {"AY",1,{-2.50638954003E-5,1.528850564945E-5,-1.92314287613E-6,4.793658365686E-8},
  {{1.41040969244E-15,-2.8973436412E-14,2.27046638448E-12},{Residual->6.94780119061E-16}},
  {{-.1,2.77895460166E-14},{-.07,1.37082729499E-14},{-.04,5.29643399912E-15},{-.01,2.39781054108E-15},{.02,2.65991735023E-15},
   {.05,5.62214193779E-15},{.08,1.32319649592E-14}}},
 {"EY",1,{-2.50469222153E-5,1.529189709669E-5,-1.92050315132E-6,4.711028631055E-8},
  {{2.26521497305E-15,7.34756700162E-15,4.14544135522E-13},{Residual->6.51763118215E-17}},
  {{-.1,5.73676987082E-15},{-.07,3.73811143631E-15},{-.04,2.54406871148E-15},{-.01,2.22533744554E-15},{.02,2.67198543681E-15},
   {.05,3.72155542663E-15},{.08,5.44103990369E-15}}},
 {"R32",1,{-2.50999921314E-5,1.527332220212E-5,-1.92710170729E-6,4.628341034306E-8},
  {{2.22537244593E-15,6.69307323907E-15,1.07010780371E-13},{Residual->1.90575274119E-17}},
  {{-.1,2.61307074841E-15},{-.07,2.28889756955E-15},{-.04,2.14564779835E-15},{-.01,2.17921331276E-15},{.02,2.39079885374E-15},
   {.05,2.79287203136E-15},{.08,3.47017089226E-15}}},
 {"Y24",1,{-2.51033157901E-5,1.526475429365E-5,-1.92935472001E-6,4.541650640151E-8},
  {{2.13822834269E-15,6.29236955601E-16,1.39821997313E-15},{Residual->4.12060881477E-18}},
  {{-.3,2.07743722577E-15},{-.2,2.06265905372E-15},{-.1,2.09109906875E-15},{5.55111512313E-17,2.14215407298E-15},
   {.1,2.21688810076E-15},{.2,2.31288317949E-15},{.3,2.45597928981E-15}}},
 {"Y46",1,{-2.51033157901E-5,1.526475429365E-5,-1.92935472001E-6,4.541650640151E-8},
  {{2.05683128338E-15,6.8765240397E-17,1.54023209464E-15},{Residual->8.99667700103E-18}},
  {{-.45,2.33474134014E-15},{-.3,2.17176409683E-15},{-.15,2.09186373334E-15},{-5.5511151231E-17,2.06265905372E-15},
   {.15,2.09638968992E-15},{.3,2.20020160074E-15},{.45,2.41054568856E-15}}},
 {"Y22",1,{-2.51801493603E-5,1.530555001816E-5,-1.94001313335E-6,4.540133328373E-8},
  {{2.5808829852E-15,5.76008190948E-15,2.38170405709E-14},{Residual->3.26212643078E-16}},
  {{-.6,7.35633292254E-15},{-.4,4.61330845637E-15},{-.2,2.63252297697E-15},{1.11022302463E-16,2.06265905373E-15},
   {.2,4.6166196803E-15},{.4,8.81149206741E-15},{.6,1.46483311784E-14}}},
 {"Y26",1,{-2.51801493606E-5,1.530555001821E-5,-1.94001313335E-6,4.540133328373E-8},
  {{2.64712822416E-15,-2.223692E-14,2.48619199074E-13},{Residual->6.88375020387E-16}},
  {{-.3,3.18980058195E-14},{-.2,1.73433466783E-14},{-.1,6.52680447271E-15},{5.55111512313E-17,2.06128106394E-15},
   {.1,3.54664605774E-15},{.2,9.20407442329E-15},{.3,1.75631147943E-14}}},
 {"Y66",1,{-2.51801493606E-5,1.530555001821E-5,-1.94001313335E-6,4.540133328373E-8},
  {{4.7221378083E-15,9.62255876059E-14,2.64931120072E-12},{Residual->1.79208424522E-15}},
  {{-.2,8.97697848971E-14},{-.15,5.17804765327E-14},{-.1,2.3431778033E-14},{-.05,6.46150457437E-15},{0,2.06128106394E-15},
   {.05,1.46720945795E-14},{.1,4.18917286618E-14},{.15,8.13422474222E-14},{.2,1.28485024619E-13}}},
 {"Y44",1,{-2.51312111101E-5,1.529297462004E-5,-1.90865819172E-6,4.489965949884E-8},
  {{2.07476472317E-15,8.31891066257E-15,3.20436696595E-14},{Residual->4.40578003697E-16}},
  {{-.6,8.17368801403E-15},{-.4,4.26357071333E-15},{-.2,2.28147755058E-15},{1.11022302463E-16,2.06128106394E-15},
   {.2,4.31619531715E-15},{.4,1.03487638529E-14},{.6,1.89672865689E-14}}},
 {"AY",1,{-2.50743165932E-5,1.529008705977E-5,-1.91350564124E-6,4.309635826945E-8},
  {{1.3356744331E-15,-6.0663047249E-14,2.2822207266E-12},{Residual->6.10146942589E-16}},
  {{-.1,3.08705313462E-14},{-.07,1.6121404988E-14},{-.04,6.56912932307E-15},{-.01,2.46805800936E-15},{.02,1.95089895632E-15},
   {.05,4.00251912004E-15},{.08,1.07231094151E-14}}},
 {"EY",1,{-2.50915922357E-5,1.528739071015E-5,-1.91632566432E-6,4.252608210147E-8},
  {{1.89129530716E-15,-6.6092554614E-15,3.87082318134E-13},{Residual->6.26992161018E-17}},
  {{-.1,6.35484258445E-15},{-.07,4.31625854861E-15},{-.04,2.85447418494E-15},{-.01,1.98539300271E-15},{.02,1.83609244572E-15},
   {.05,2.47958985932E-15},{.08,3.9004964463E-15}}},
 {"R32",1,{-2.50564976826E-5,1.529472545934E-5,-1.91188809045E-6,4.211798901856E-8},
  {{1.76446387269E-15,-6.4113182639E-15,1.64474581506E-13},{Residual->6.06927660182E-17}},
  {{-.1,4.11561006479E-15},{-.07,2.95859248808E-15},{-.04,2.2005561977E-15},{-.01,1.86335670022E-15},{.02,1.77501206055E-15},
   {.05,1.89953161427E-15},{.08,2.24727192272E-15}}},
 {"Y24",1,{-2.50585970121E-5,1.528462575634E-5,-1.91436000818E-6,4.122147161656E-8},
  {{1.77601315723E-15,7.13653381894E-16,1.82578304041E-15},{Residual->5.10263973871E-18}},
  {{-.3,1.72787514974E-15},{-.2,1.69920972223E-15},{-.1,1.73131442755E-15},{5.55111512313E-17,1.77392499897E-15},
   {.1,1.86792593281E-15},{.2,1.98552050419E-15},{.3,2.15754061644E-15}}},
 {"Y46",1,{-2.50585970121E-5,1.528462575634E-5,-1.91436000818E-6,4.122147161656E-8},
  {{1.70738134837E-15,-6.6900548521E-17,1.56485026159E-15},{Residual->1.13093225795E-17}},
  {{-.45,2.04535058709E-15},{-.3,1.87217401464E-15},{-.15,1.77453375162E-15},{-5.5511151231E-17,1.69920972223E-15},
   {.15,1.72203414461E-15},{.3,1.82075155591E-15},{.45,2.00347132732E-15}}},
 {"Y22",1,{-2.50585970121E-5,1.52846257562E-5,-1.91436000818E-6,4.122147161656E-8},
  {{2.30478197626E-15,4.15993251088E-15,2.45686084188E-14},{Residual->4.24921133927E-16}},
  {{-.6,8.20073077516E-15},{-.4,5.13309050088E-15},{-.2,2.99588537219E-15},{1.11022302463E-16,1.69920972224E-15},
   {.2,3.87297526957E-15},{.4,7.95836537773E-15},{.6,1.37900582451E-14}}},
 {"Y26",1,{-2.50585970121E-5,1.528462575625E-5,-1.91436000818E-6,4.122147161656E-8},
  {{2.05486967288E-15,-2.7724187637E-14,2.40783651317E-13},{Residual->8.38535467241E-16}},
  {{-.3,3.25436554215E-14},{-.2,1.72437875748E-14},{-.1,5.9675986298E-15},{5.55111512313E-17,1.69920972223E-15},
   {.1,2.72006939197E-15},{.2,7.14922274801E-15},{.3,1.44799665906E-14}}},
 {"Y66",1,{-2.50585970121E-5,1.528462575625E-5,-1.91436000818E-6,4.122147161656E-8},
  {{4.49998735613E-15,1.22128868305E-13,2.63783534905E-12},{Residual->2.07414186921E-15}},
  {{-.2,8.30424923454E-14},{-.15,4.75688714765E-14},{-.1,2.14792985303E-14},{-.05,6.02390523021E-15},{0,1.69920972223E-15},
   {.05,1.46129878594E-14},{.1,4.35830799193E-14},{.15,8.41948305982E-14},{.2,1.33970512881E-13}}},
 {"Y44",1,{-2.50585970121E-5,1.528462575625E-5,-1.91436000818E-6,4.122147161652E-8},
  {{1.62488207991E-15,8.96185344637E-15,3.13996307066E-14},{Residual->6.26405974509E-16}},
  {{-.6,6.95375437373E-15},{-.4,3.53083696673E-15},{-.2,1.93574166925E-15},{1.11022302463E-16,1.69920972223E-15},
   {.2,3.66747163634E-15},{.4,9.88665336022E-15},{.6,1.88680932223E-14}}},
 {"AY",1,{-2.50921480481E-5,1.528623843487E-5,-1.91175913888E-6,4.009322810047E-8},
  {{1.00035198046E-15,3.58331552436E-14,2.28677596424E-12},{Residual->4.57617488914E-16}},
  {{-.1,2.05920519071E-14},{-.07,9.09922639975E-15},{-.04,3.0726702343E-15},{-.01,1.60412157979E-15},{.02,2.72186953683E-15},
   {.05,7.88767901355E-15},{.08,1.87440217988E-14}}},
 {"EY",1,{-2.50924854596E-5,1.528619267694E-5,-1.91180891385E-6,4.008224665462E-8},
  {{1.61655342498E-15,-1.2906798606E-16,3.7844078743E-13},{Residual->1.58936580507E-17}},
  {{-.1,5.39763171746E-15},{-.07,3.49483095279E-15},{-.04,2.24604451393E-15},{-.01,1.65809469778E-15},{.02,1.73990678254E-15},
   {.05,2.54757693924E-15},{.08,4.04243952458E-15}}},
 {"R32",1,{-2.50883836577E-5,1.528694905824E-5,-1.91131045759E-6,4.003176655802E-8},
  {{1.5560587167E-15,-7.7621408189E-16,1.65729040591E-13},{Residual->4.35049215306E-17}},
  {{-.1,3.34218191334E-15},{-.07,2.36189484068E-15},{-.04,1.80083953049E-15},{-.01,1.61207129604E-15},{.02,1.65793960309E-15},
   {.05,1.93563527295E-15},{.08,2.52856569738E-15}}},
 {"Y24",1,{-2.50909032837E-5,1.527569569925E-5,-1.91377670788E-6,3.905710535573E-8},
  {{1.60791539391E-15,7.26742762538E-16,1.58369183886E-15},{Residual->3.62177914736E-18}},
  {{-.3,1.53176592606E-15},{-.2,1.52545747877E-15},{-.1,1.55538954493E-15},{5.55111512313E-17,1.60254233376E-15},
   {.1,1.70113064634E-15},{.2,1.81231525774E-15},{.3,1.97024028464E-15}}},
 {"Y46",1,{-2.51043891283E-5,1.528447214983E-5,-1.91527770596E-6,3.894527564296E-8},
  {{1.52539282271E-15,-2.5037036112E-16,1.78662525998E-15},{Residual->9.3075018741E-18}},
  {{-.45,1.99534084716E-15},{-.3,1.75984970306E-15},{-.15,1.61740695037E-15},{-5.5511151231E-17,1.52545747877E-15},
   {.15,1.52444414958E-15},{.3,1.59534439969E-15},{.45,1.7854801441E-15}}},
 {"Y22",1,{-2.51043891283E-5,1.528447214983E-5,-1.91527770596E-6,3.894527564296E-8},
  {{2.0738842271E-15,3.69236632221E-15,2.42103588838E-14},{Residual->3.50785165303E-16}},
  {{-.6,8.23018250016E-15},{-.4,4.90121823254E-15},{-.2,2.75224243079E-15},{1.11022302463E-16,1.51673449491E-15},
   {.2,3.61565421433E-15},{.4,7.54345541405E-15},{.6,1.30733042528E-14}}},
 {"Y26",1,{-2.51043891285E-5,1.528447214984E-5,-1.91527770596E-6,3.894527564296E-8},
  {{1.96288297984E-15,-2.5252207055E-14,2.34619885701E-13},{Residual->8.07672153332E-16}},
  {{-.3,3.10882269076E-14},{-.2,1.64761722106E-14},{-.1,5.68715329355E-15},{5.55111512313E-17,1.51673449491E-15},
   {.1,2.71629668877E-15},{.2,7.36579378429E-15},{.3,1.45833714755E-14}}},
 {"Y66",1,{-2.51043891285E-5,1.528447214984E-5,-1.91527770596E-6,3.894527564296E-8},
  {{4.24195193785E-15,1.08114391677E-13,2.59572994118E-12},{Residual->1.91615788732E-15}},
  {{-.2,8.42905156598E-14},{-.15,4.8227876112E-14},{-.1,2.18712910144E-14},{-.05,6.10012449611E-15},{0,1.51673449491E-15},
   {.05,1.39686068494E-14},{.1,4.15041206625E-14},{.15,8.11764329597E-14},{.2,1.28881356369E-13}}},
 {"Y44",1,{-2.51043891283E-5,1.528447214983E-5,-1.91527770596E-6,3.894527564296E-8},
  {{1.48474776214E-15,8.1964170485E-15,3.09672919982E-14},{Residual->5.76371884282E-16}},
  {{-.6,7.15582364289E-15},{-.4,3.61418378559E-15},{-.2,1.86763659832E-15},{1.11022302463E-16,1.51673449491E-15},
   {.2,3.42300316879E-15},{.4,9.45725164637E-15},{.6,1.80419680361E-14}}},
 {"OCT1",1,{-2.51043891283E-5,1.528447214983E-5,-1.91527770596E-6,3.894527564296E-8},
  {{1.55996103985E-15,1.33045294689E-19,5.25841154809E-21},{Residual->3.88084282315E-17}},
  {{-370,2.16983047287E-15},{-296,2.01221346367E-15},{-222,1.84727985035E-15},{-148,1.69509030109E-15},{-74,1.57501204806E-15},
   {0,1.51673449491E-15},{74,1.54786327755E-15},{148,1.67451962833E-15},{222,1.87962958143E-15},{296,2.09220535646E-15},
   {370,2.31668288303E-15}}},
 {"OCT2",1,{-2.51118744551E-5,1.528286800819E-5,-1.91682852622E-6,3.825807162553E-8},
  {{1.51424195375E-15,-1.4295402197E-19,-6.9766918783E-24},{Residual->2.26729040762E-18}},
  {{-370,1.5677433224E-15},{-296,1.55392243036E-15},{-222,1.54280322854E-15},{-148,1.5366120742E-15},{-74,1.52735764588E-15},
   {0,1.51673449491E-15},{74,1.50221627254E-15},{148,1.49294998016E-15},{222,1.48065112354E-15},{296,1.46782056223E-15},
   {370,1.4636800445E-15}}},
 {"OCT1",1,{-2.51118744551E-5,1.528286800819E-5,-1.91682852622E-6,3.825807162553E-8},
  {{1.68043073655E-15,1.35115270373E-19,2.9126860625E-21},{Residual->1.25756973313E-16}},
  {{-740,3.08115474545E-15},{-592,2.68458271461E-15},{-444,2.3356733052E-15},{-296,1.96916766521E-15},{-148,1.65067670887E-15},
   {0,1.4636800445E-15},{148,1.64511845577E-15},{296,2.06764722758E-15},{444,2.4998590912E-15},{592,2.8676684355E-15},
   {740,3.23782984352E-15}}},
 {"OCT2",1,{-2.51196458797E-5,1.528158984926E-5,-1.91835343503E-6,3.755646952469E-8},
  {{1.51422264133E-15,-1.4482191831E-19,7.71206084129E-24},{Residual->2.88875910722E-18}},
  {{-740,1.62708465677E-15},{-592,1.59852042128E-15},{-444,1.58517575544E-15},{-296,1.55392243036E-15},{-148,1.5366120742E-15},
   {0,1.51673449491E-15},{148,1.49294998016E-15},{296,1.46782056223E-15},{444,1.45349470895E-15},{592,1.43256777364E-15},
   {740,1.41048840316E-15}}}}
