{{"FD",1,{1.742532220271E-6,1.171728118938E-5,-3.90135321057E-6,3.686006881148E-7}},
 {"EX2",1,{-1.77972074532E-5,1.095633376924E-5,-4.22300525427E-6,5.928571727278E-7}},
 {"FD",1,{-1.77978703663E-5,1.090717385464E-5,-4.33784024212E-6,3.684010156705E-7}},
 {"AY",1,{-1.83972902044E-5,1.009707141416E-5,-4.00928562091E-6,3.850136567475E-7},
  {{1.57185427281E-13,1.51914354571E-13,6.98792401123E-12},{Residual->4.54732238715E-14}},
  {{-.5,1.77918601451E-12},{-.35,1.05129700639E-12},{-.2,3.81701408067E-13},{-.05,1.53797462181E-13},{.1,2.52490383629E-13},
   {.25,5.87534182865E-13},{.4,1.3658023065E-12}}},
 {"EY",1,{-1.86274175561E-5,9.870042277807E-6,-3.78815491962E-6,2.30673300837E-7},
  {{1.46680241524E-13,-3.9954059509E-13,4.67262351497E-13},{Residual->4.15399600536E-15}},
  {{-.5,4.64949875755E-13},{-.35,3.37085836284E-13},{-.2,2.51435616934E-13},{-.05,1.70894644556E-13},{.1,1.06726862944E-13},
   {.25,7.4771938387E-14},{.4,6.32884966826E-14}}},
 {"R32",1,{-1.81417502355E-5,1.08421446915E-5,-4.26960790628E-6,9.856060742643E-8},
  {{5.76202911267E-14,-2.3279816284E-13,2.2567886577E-13},{Residual->3.65699778848E-15}},
  {{-.5,2.28905035735E-13},{-.35,1.65454225553E-13},{-.2,1.2127050566E-13},{-.05,6.67392971323E-14},{.1,3.33936324042E-14},
   {.25,1.25942679114E-14},{.4,2.59149607014E-15}}},
 {"AY",1,{-1.80974652372E-5,1.084487019511E-5,-4.28018551668E-6,9.434321113639E-8},
  {{5.62098555877E-14,-3.7162091378E-13,7.3998535101E-12},{Residual->4.77642981311E-14}},
  {{-.5,2.07703268685E-12},{-.35,1.12138479848E-12},{-.2,4.49627485811E-13},{-.05,3.91107611208E-14},{.1,5.49991452965E-14},
   {.25,5.1861005164E-13},{.4,1.05417652753E-12}}},
 {"EY",1,{-1.8101239527E-5,1.084701222253E-5,-4.29691750858E-6,9.701729194633E-8},
  {{9.54265618054E-15,-6.1754930287E-15,4.24036446768E-13},{Residual->1.0549552313E-15}},
  {{-.5,1.18515671753E-13},{-.35,6.36718916015E-14},{-.2,2.71561938442E-14},{-.05,1.27942597074E-14},{.1,1.26395291351E-14},
   {.25,3.28631223862E-14},{.4,7.58829466787E-14}}},
 {"R32",1,{-1.82100783385E-5,1.05747953539E-5,-4.16429273887E-6,4.891798088017E-8},
  {{9.67030408671E-15,9.2071379784E-14,3.30247037972E-13},{Residual->1.96760059891E-15}},
  {{-.5,4.49356109914E-14},{-.35,1.94963507874E-14},{-.2,5.65414428035E-15},{-.05,3.78054122682E-15},{.1,2.43397047606E-14},
   {.25,5.01772389548E-14},{.4,1.00918511768E-13}}},
 {"AY",1,{-1.84245463863E-5,1.057499649515E-5,-4.17581740911E-6,5.412092451387E-8},
  {{1.89825352929E-14,-1.0710353068E-13,7.15304248194E-12},{Residual->3.79349370462E-14}},
  {{-.3,6.66337207748E-13},{-.2,3.93337826002E-13},{-.1,6.31722771832E-14},{5.55111512313E-17,2.40672390098E-15},
   {.1,1.17960556069E-13},{.2,2.465360428E-13},{.3,6.4597900829E-13}}},
 {"EY",1,{-1.84451616763E-5,1.052566101244E-5,-4.1775697207E-6,5.453271915628E-8},
  {{4.86977102667E-15,-1.6399742317E-14,4.26934038549E-13},{Residual->1.33224870595E-15}},
  {{-.5,1.18269822099E-13},{-.35,6.54131720392E-14},{-.2,2.56172527415E-14},{-.05,5.7520185612E-15},{.1,6.13256201762E-15},
   {.25,2.83205213227E-14},{.4,6.67627481773E-14}}},
 {"R32",1,{-1.84141504326E-5,1.059291114176E-5,-4.17580540804E-6,5.14354035578E-8},
  {{3.45850216604E-15,-1.3175164378E-14,3.04652525822E-13},{Residual->2.20282979374E-15}},
  {{-.5,8.76645379587E-14},{-.35,4.147079127E-14},{-.2,2.15699750779E-14},{-.05,4.60722221343E-15},{.1,3.6201816205E-15},
   {.25,2.0856636432E-14},{.4,4.62939885917E-14}}},
 {"AY",1,{-1.83853083151E-5,1.058608286329E-5,-4.14881725781E-6,5.516219573246E-8},
  {{1.22926557496E-14,3.95837086378E-13,8.17935734462E-12},{Residual->1.84333012016E-14}},
  {{-.3,6.13751871348E-13},{-.2,2.69079851246E-13},{-.1,8.74314878782E-14},{5.55111512313E-17,2.69237131744E-15},
   {.1,1.16071089885E-13},{.2,4.02606368807E-13},{.3,8.84635606259E-13}}},
 {"EY",1,{-1.84026569436E-5,1.053437590895E-5,-4.1163388556E-6,5.684071730727E-8},
  {{3.56344102776E-15,-2.0927670685E-16,4.72856513863E-13},{Residual->1.89700522141E-15}},
  {{-.3,4.84143764598E-14},{-.2,1.9883287584E-14},{-.1,6.75637182209E-15},{5.55111512313E-17,3.49833757124E-15},
   {.1,1.07024617671E-14},{.2,2.37895877921E-14},{.3,4.42994880797E-14}}},
 {"R32",1,{-1.84044940281E-5,1.053864442587E-5,-4.1191755223E-6,5.646413032154E-8},
  {{4.73486985418E-15,1.40918857187E-14,3.35950240269E-13},{Residual->1.26337431775E-15}},
  {{-.3,2.94972388874E-14},{-.2,1.7072306908E-14},{-.1,7.96966941502E-15},{5.55111512313E-17,3.01487509664E-15},
   {.1,8.46238798389E-15},{.2,2.19801419691E-14},{.3,3.92135359945E-14}}},
 {"Y24",1,{-1.83174478101E-5,1.055485222766E-5,-4.12129494907E-6,5.14360277974E-8},
  {{3.53165098225E-15,-4.3734817938E-15,3.47622839085E-15},{Residual->3.3726027517E-16}},
  {{-1.5,1.80071401478E-14},{-1.2,1.39495725995E-14},{-.9,1.03973067688E-14},{-.6,7.15623212547E-15},{-.3,4.66837260268E-15},
   {0,3.18819801297E-15},{.3,2.64566495558E-15},{.6,2.68301532688E-15},{.9,2.87956338928E-15},{1.2,3.40731640293E-15},
   {1.5,4.28043954237E-15}}},
 {"Y46",1,{-1.82729593525E-5,1.055464060757E-5,-4.12132031437E-6,4.562612207192E-8},
  {{2.75477822577E-15,1.93884927667E-15,4.70256348585E-15},{Residual->3.25058543869E-16}},
  {{-1,5.70527237741E-15},{-.8,4.43079168834E-15},{-.6,3.21241267099E-15},{-.4,2.28002835695E-15},{-.2,2.08174301532E-15},
   {0,2.64566495558E-15},{.2,3.61863443384E-15},{.4,4.74074938146E-15},{.6,5.96675076389E-15},{.8,7.376095906E-15},
   {1,8.93569627137E-15}}},
 {"Y22",1,{-1.82729593525E-5,1.055464060757E-5,-4.12132031437E-6,4.562612207234E-8},
  {{3.99191583288E-15,1.05795097616E-14,8.66981399742E-14},{Residual->1.18010438777E-15}},
  {{-.6,2.77220328937E-14},{-.4,1.50405773033E-14},{-.2,6.87207116369E-15},{1.11022302463E-16,2.08174301536E-15},
   {.2,9.05245403417E-15},{.4,2.25172224911E-14},{.6,4.17592267E-14}}},
 {"Y26",1,{-1.8262919085E-5,1.054123072522E-5,-4.11031384445E-6,4.38288108563E-8},
  {{3.33448153763E-15,-5.697753496E-15,1.32616685909E-13},{Residual->7.79693211037E-16}},
  {{-.6,5.37024747354E-14},{-.4,2.80859125304E-14},{-.2,1.03255547498E-14},{1.11022302463E-16,2.08174301536E-15},
   {.2,7.33007230198E-15},{.4,2.267159281E-14},{.6,4.7674708839E-14}}},
 {"Y66",1,{-1.82679338977E-5,1.054771465274E-5,-4.11357726049E-6,4.358887740396E-8},
  {{6.74050068149E-15,-7.8359024947E-15,3.72507991345E-12},{Residual->3.09633670706E-15}},
  {{-.2,1.5798616472E-13},{-.15,9.18267058229E-14},{-.1,4.55695798098E-14},{-.05,1.56463728922E-14},{0,1.92096466108E-15},
   {.05,1.60671724169E-14},{.1,4.60385132268E-14},{.15,9.49256759009E-14},{.2,1.49445343701E-13}}},
 {"Y44",1,{-1.82679338977E-5,1.054771465274E-5,-4.11357726049E-6,4.358887740312E-8},
  {{2.15044462005E-15,2.18532025646E-15,4.16951930658E-14},{Residual->2.05146026108E-16}},
  {{-.6,1.565470559E-14},{-.4,8.12133127066E-15},{-.2,3.73258961872E-15},{1.11022302463E-16,1.89999023326E-15},
   {.2,4.08267866231E-15},{.4,9.68681589367E-15},{.6,1.85736173055E-14}}},
 {"AY",1,{-1.83409348453E-5,1.054734327178E-5,-4.11159850696E-6,4.42550164118E-8},
  {{1.78373780348E-15,4.86150354488E-15,8.92546249165E-12},{Residual->1.20276909345E-14}},
  {{-.1,7.69009570141E-14},{-.07,6.99787130539E-14},{-.04,8.8597084104E-15},{-.01,3.44749291787E-15},{.02,1.81722397304E-15},
   {.05,1.50950529167E-14},{.08,6.7216189624E-14}}},
 {"EY",1,{-1.83774102667E-5,1.045172933636E-5,-4.07260124314E-6,5.96569161366E-8},
  {{2.16945344228E-15,1.0415575676E-15,5.26439850683E-13},{Residual->2.08380216802E-16}},
  {{-.1,7.57931446695E-15},{-.07,4.3443704927E-15},{-.04,2.75848944913E-15},{-.01,2.45209985505E-15},{.02,2.52225699601E-15},
   {.05,3.58094211261E-15},{.08,5.51058382649E-15}}},
 {"R32",1,{-1.83136278876E-5,1.058743938924E-5,-4.10549373498E-6,4.708005975101E-8},
  {{3.1178348935E-15,-3.8005651053E-14,3.41094917568E-13},{Residual->3.36579018282E-16}},
  {{-.1,1.00749933809E-14},{-.07,7.67501539648E-15},{-.04,5.69112599772E-15},{-.01,3.18968597954E-15},{.02,2.03836399621E-15},
   {.05,2.37860888966E-15},{.08,2.27180455268E-15}}},
 {"Y24",1,{-1.83136278876E-5,1.058743938924E-5,-4.10549373498E-6,4.708005975101E-8},
  {{2.22271108777E-15,-3.5331244114E-16,4.59170481146E-15},{Residual->3.69435004152E-17}},
  {{-.3,2.77489081021E-15},{-.2,2.44798894743E-15},{-.1,2.26972686841E-15},{5.55111512313E-17,2.21653202616E-15},
   {.1,2.25376900038E-15},{.2,2.39790856869E-15},{.3,2.48383874032E-15}}},
 {"Y46",1,{-1.82688074282E-5,1.058613287084E-5,-4.10372779925E-6,4.147046555804E-8},
  {{2.23060001327E-15,2.71046184998E-15,7.39372643461E-15},{Residual->1.86789595443E-16}},
  {{-.45,2.68569118259E-15},{-.3,1.94890434654E-15},{-.15,1.73812413381E-15},{-5.5511151231E-17,2.21653202616E-15},
   {.15,3.03570870388E-15},{.3,3.90062462048E-15},{.45,4.74666273324E-15}}},
 {"Y22",1,{-1.82688074282E-5,1.058613287084E-5,-4.10372779925E-6,4.147046555797E-8},
  {{3.37761443516E-15,6.65938518438E-15,8.42310028935E-14},{Residual->9.72338028449E-16}},
  {{-.6,2.88341809864E-14},{-.4,1.5453588461E-14},{-.2,6.36996848936E-15},{1.11022302463E-16,1.71979951359E-15},
   {.2,7.75900483116E-15},{.4,2.02232054441E-14},{.6,3.76222765612E-14}}},
 {"Y26",1,{-1.82688074282E-5,1.058613287084E-5,-4.10372779926E-6,4.147046555568E-8},
  {{2.32110875298E-15,-8.4586772508E-15,1.430170958E-13},{Residual->3.29161958224E-16}},
  {{-.3,1.77081894287E-14},{-.2,9.91107939735E-15},{-.1,4.55897325987E-15},{5.55111512313E-17,1.7197995134E-15},
   {.1,3.49378796273E-15},{.2,6.37453952276E-15},{.3,1.252617901E-14}}},
 {"Y66",1,{-1.82688074282E-5,1.058613287084E-5,-4.10372779926E-6,4.147046555568E-8},
  {{4.83661376303E-15,3.57308427744E-14,3.79011836529E-12},{Residual->1.39449917063E-15}},
  {{-.2,1.48703296235E-13},{-.15,8.59910814848E-14},{-.1,3.96285119943E-14},{-.05,1.23610438972E-14},{0,1.7197995134E-15},
   {.05,1.69062547937E-14},{.1,4.78823028819E-14},{.15,9.64937863909E-14},{.2,1.62361201468E-13}}},
 {"Y44",1,{-1.82688074277E-5,1.058613287065E-5,-4.10372779925E-6,4.147046555698E-8},
  {{2.06817047412E-15,5.89005864392E-15,4.06162942409E-14},{Residual->3.79021284358E-16}},
  {{-.6,1.28423147971E-14},{-.4,6.38190824081E-15},{-.2,3.24914792233E-15},{1.11022302463E-16,1.71979951351E-15},
   {.2,4.50367721309E-15},{.4,1.0791225557E-14},{.6,2.04793696248E-14}}},
 {"AY",1,{-1.8200483981E-5,1.05875162846E-5,-4.12342354328E-6,3.797857829123E-8},
  {{-3.8817147663E-15,-2.3760208162E-13,7.88350174755E-12},{Residual->1.36461075159E-14}},
  {{-.1,1.15486817292E-13},{-.07,2.62513540744E-14},{-.04,1.59189782921E-14},{-.01,1.4073868707E-15},{.02,1.73016841393E-15},
   {.05,1.74210060166E-14},{.08,1.54271266508E-14}}},
 {"EY",1,{-1.82002928168E-5,1.057979789213E-5,-4.10872690045E-6,3.77385182025E-8},
  {{1.55832966136E-15,-3.7852453883E-15,5.10616686753E-13},{Residual->4.37070107979E-16}},
  {{-.1,7.57208817699E-15},{-.07,3.48742498678E-15},{-.04,2.55597571352E-15},{-.01,1.66435415447E-15},{.02,1.90297261918E-15},
   {.05,3.06014289275E-15},{.08,4.15528844991E-15}}},
 {"R32",1,{-1.81763261071E-5,1.064336057492E-5,-4.15342360701E-6,4.25965325858E-8},
  {{1.6522797618E-15,-6.9208511136E-15,3.44857199767E-13},{Residual->4.85348737903E-16}},
  {{-.1,5.21921114398E-15},{-.07,4.81421181657E-15},{-.04,2.31517349271E-15},{-.01,1.71194670358E-15},{.02,1.50732241005E-15},
   {.05,1.75626919658E-15},{.08,3.65808462103E-15}}},
 {"Y24",1,{-1.82262613325E-5,1.063169970803E-5,-4.14976869023E-6,4.100540789007E-8},
  {{1.77937988612E-15,4.86091148991E-16,1.34061965068E-15},{Residual->3.54253343523E-17}},
  {{-.3,1.7957802229E-15},{-.2,1.68578848861E-15},{-.1,1.70082554132E-15},{5.55111512313E-17,1.81446458833E-15},
   {.1,1.87265049283E-15},{.2,1.93642220143E-15},{.3,2.02510116957E-15}}},
 {"Y46",1,{-1.82228702866E-5,1.0631506416E-5,-4.14963419971E-6,4.086675632819E-8},
  {{1.72565927059E-15,1.66218510376E-16,6.46465487119E-15},{Residual->3.08078698651E-17}},
  {{-.45,2.96915082306E-15},{-.3,2.26148263661E-15},{-.15,1.83406364833E-15},{-5.5511151231E-17,1.68144347623E-15},
   {.15,1.92474077829E-15},{.3,2.40653994522E-15},{.45,3.0749261552E-15}}},
 {"Y22",1,{-1.82228702866E-5,1.0631506416E-5,-4.14963419971E-6,4.086675632825E-8},
  {{2.78423537678E-15,1.24466977992E-14,7.33866886292E-14},{Residual->1.07544399219E-15}},
  {{-.6,2.07504899051E-14},{-.4,1.02775262171E-14},{-.2,5.19067677725E-15},{1.11022302463E-16,1.67009177279E-15},
   {.2,7.26261548972E-15},{.4,1.91579251081E-14},{.6,3.73734136322E-14}}},
 {"Y26",1,{-1.82044795987E-5,1.060940743326E-5,-4.12745602297E-6,3.696372531578E-8},
  {{1.92720527224E-15,-1.305490217E-14,1.45367278323E-13},{Residual->3.65753611026E-16}},
  {{-.3,1.85017214259E-14},{-.2,1.08589893346E-14},{-.1,5.11107684796E-15},{5.55111512313E-17,1.67009177264E-15},
   {.1,1.61249512202E-15},{.2,5.14870240047E-15},{.3,1.12901979324E-14}}},
 {"Y66",1,{-1.82090000721E-5,1.061547334699E-5,-4.1304782402E-6,3.621717560104E-8},
  {{3.66232852519E-15,-8.4468800938E-15,3.75939307648E-12},{Residual->1.60690364331E-15}},
  {{-.2,1.5669582558E-13},{-.15,8.90777839183E-14},{-.1,4.23145379928E-14},{-.05,1.21713505628E-14},{0,1.36631698922E-15},
   {.05,1.38470543844E-14},{.1,4.25572594678E-14},{.15,8.88442901866E-14},{.2,1.49995499116E-13}}},
 {"Y44",1,{-1.82090000721E-5,1.061547334699E-5,-4.1304782402E-6,3.621717560142E-8},
  {{1.36910214372E-15,5.50705657992E-15,4.08282750956E-14},{Residual->1.06930210739E-16}},
  {{-.6,1.27273902791E-14},{-.4,5.71165204652E-15},{-.2,2.02615417394E-15},{1.11022302463E-16,1.31168380854E-15},
   {.2,3.93027448529E-15},{.4,1.02718134922E-14},{.6,1.93324148275E-14}}},
 {"AY",1,{-1.81762968587E-5,1.061448730782E-5,-4.1311223368E-6,3.6003763523E-8},
  {{-2.1971684713E-15,9.3033062637E-15,7.24138776975E-12},{Residual->2.62327012868E-15}},
  {{-.1,7.10478655519E-14},{-.07,3.0780943661E-14},{-.04,5.34504430205E-15},{-.01,2.48477263265E-15},{.02,2.87645977008E-15},
   {.05,1.36228085055E-14},{.08,4.53626380761E-14}}},
 {"EY",1,{-1.81945409416E-5,1.057152669865E-5,-4.10566725744E-6,3.519669767668E-8},
  {{1.45912244123E-15,-1.6813616005E-14,5.34203919115E-13},{Residual->5.79888004337E-16}},
  {{-.1,8.83698996361E-15},{-.07,5.10016429661E-15},{-.04,2.12827754149E-15},{-.01,1.76081300999E-15},{.02,2.4629282269E-15},
   {.05,1.53397151299E-15},{.08,3.40354716245E-15}}},
 {"R32",1,{-1.81877318813E-5,1.059035938471E-5,-4.1168855486E-6,3.444749245789E-8},
  {{1.53557463482E-15,-9.0091696976E-15,3.08202937246E-13},{Residual->8.24562199627E-16}},
  {{-.1,6.55929009137E-15},{-.07,1.94135109215E-15},{-.04,2.32243927875E-15},{-.01,2.23056485695E-15},{.02,1.89526020799E-15},
   {.05,1.99740497267E-15},{.08,2.41580989738E-15}}},
 {"Y24",1,{-1.81292601421E-5,1.060489480828E-5,-4.11927327851E-6,3.216273977663E-8},
  {{1.19633496329E-15,-1.6374289763E-15,4.00974229649E-15},{Residual->6.13191422726E-18}},
  {{-.3,2.04380150601E-15},{-.2,1.68924478745E-15},{-.1,1.40894260381E-15},{5.55111512313E-17,1.18662973664E-15},
   {.1,1.06844223176E-15},{.2,1.03444182994E-15},{.3,1.06556989045E-15}}},
 {"Y46",1,{-1.81130700041E-5,1.06058270486E-5,-4.11933404925E-6,3.166429256608E-8},
  {{1.06895630375E-15,6.71652455265E-16,5.21139591436E-15},{Residual->3.49109639834E-17}},
  {{-.45,1.83161361084E-15},{-.3,1.35019245911E-15},{-.15,1.05125069469E-15},{-5.5511151231E-17,1.03444182994E-15},
   {.15,1.31482770861E-15},{.3,1.79805269837E-15},{.45,2.38549455073E-15}}},
 {"Y22",1,{-1.81130700041E-5,1.060582704847E-5,-4.11933404925E-6,3.166429256874E-8},
  {{1.34695408192E-15,7.53413856618E-15,7.63767258728E-14},{Residual->2.75520018851E-16}},
  {{-.6,2.42706972632E-14},{-.4,1.03925605791E-14},{-.2,3.489753781E-15},{1.11022302463E-16,1.00262742388E-15},
   {.2,5.75554759738E-15},{.4,1.66556796169E-14},{.6,3.34037452894E-14}}},
 {"Y26",1,{-1.81060640767E-5,1.059569831813E-5,-4.10992960308E-6,2.989494489111E-8},
  {{1.28539417466E-15,-4.995918303E-15,1.46436346191E-13},{Residual->2.41736633408E-16}},
  {{-.3,1.5696094839E-14},{-.2,8.48575805078E-15},{-.1,3.52398646242E-15},{5.55111512313E-17,1.00262742388E-15},
   {.1,2.02357016316E-15},{.2,6.23205198129E-15},{.3,1.30358472356E-14}}},
 {"Y66",1,{-1.81120977148E-5,1.060502723625E-5,-4.11454386386E-6,2.973014126729E-8},
  {{3.1382288294E-15,-1.1363908463E-14,3.79138164979E-12},{Residual->1.7936625519E-15}},
  {{-.2,1.57810505273E-13},{-.15,9.05909937237E-14},{-.1,4.13514270612E-14},{-.05,1.2342256147E-14},{0,8.93707730042E-16},
   {.05,1.2884807083E-14},{.1,4.17328545365E-14},{.15,8.97611505239E-14},{.2,1.49583604854E-13}}},
 {"Y44",1,{-1.81120977147E-5,1.060502723621E-5,-4.11454386386E-6,2.973014126561E-8},
  {{1.05004244883E-15,3.02181896673E-15,4.1534152429E-14},{Residual->1.8493416211E-16}},
  {{-.6,1.42657914575E-14},{-.4,6.49238848185E-15},{-.2,1.97339221213E-15},{1.11022302463E-16,8.83881299673E-16},
   {.2,3.41189600438E-15},{.4,9.25776146231E-15},{.6,1.75834369444E-14}}}}
