{{"FD",1,{2.703446299357E-5,2.119018576711E-5,4.057475534026E-6,4.944009212171E-7}},
 {"EX2",1,{1.797351840219E-5,2.10515340702E-5,3.80917334759E-6,5.099838304643E-7}},
 {"FD",1,{1.864812721044E-5,2.097404360306E-5,3.846560232429E-6,4.960242198029E-7}},
 {"AY",1,{1.74474289824E-5,1.981975076378E-5,3.890819544962E-6,3.421454382533E-7},
  {{8.97650061151E-14,2.25914396238E-13,3.51816606507E-12},{Residual->5.95985534426E-14}},
  {{-.5,7.93823370149E-13},{-.35,5.32998895453E-13},{-.2,1.90368029411E-13},{-.05,8.64046877603E-14},{.1,1.4436604908E-13},
   {.25,2.73328899652E-13},{.4,8.0600759975E-13}}},
 {"EY",1,{1.770322514375E-5,1.983128657962E-5,3.933509869311E-6,2.782139066215E-7},
  {{1.11868012285E-13,-2.8027503617E-13,5.01031595667E-13},{Residual->1.21843601128E-14}},
  {{-.5,3.81872666799E-13},{-.35,2.52596981023E-13},{-.2,2.12134845322E-13},{-.05,1.20007160142E-13},{.1,8.35070827882E-14},
   {.25,7.45634094304E-14},{.4,8.09081613419E-14}}},
 {"R32",1,{1.502634407233E-5,2.078640328456E-5,3.806104961231E-6,3.296623530025E-7},
  {{8.09032891597E-14,1.02945426633E-13,3.71310119132E-14},{Residual->5.41875860047E-15}},
  {{-.5,4.23978731138E-14},{-.35,4.88405323723E-14},{-.2,5.23464083254E-14},{-.05,7.67354154258E-14},{.1,9.61635475151E-14},
   {.25,1.15718723024E-13},{.4,1.22131955234E-13}}},
 {"AY",1,{1.564735789967E-5,2.078392720306E-5,3.71068764177E-6,2.489149429981E-7},
  {{7.5926990113E-14,-9.4413081771E-13,4.00608883554E-12},{Residual->2.70476123898E-14}},
  {{-.5,1.54477915922E-12},{-.35,9.29795236551E-13},{-.2,3.89122688852E-13},{-.05,1.05694276212E-13},{.1,6.34482873139E-14},
   {.25,9.74171625682E-14},{.4,3.25620427287E-13}}},
 {"EY",1,{1.547133220977E-5,2.085898674357E-5,3.697075326745E-6,2.6147872367E-7},
  {{5.50939307689E-14,-5.5435311859E-14,4.99338068043E-13},{Residual->6.20332147959E-15}},
  {{-.5,2.10308095379E-13},{-.35,1.35682945237E-13},{-.2,7.71783151699E-14},{-.05,5.96752003818E-14},{.1,6.6610212991E-14},
   {.25,6.64715328884E-14},{.4,1.12454971543E-13}}},
 {"R32",1,{1.651585949827E-5,2.03633568123E-5,3.755846082809E-6,1.071498856905E-7},
  {{6.42362214239E-14,-1.4276713816E-13,1.36928620224E-13},{Residual->4.65054595899E-15}},
  {{-.5,1.67524481239E-13},{-.35,1.31786263429E-13},{-.2,1.06823619152E-13},{-.05,6.3336813681E-14},{.1,5.19621887989E-14},
   {.25,3.66744906982E-14},{.4,3.01754729208E-14}}},
 {"AY",1,{1.718693075079E-5,2.035730069909E-5,3.618746478674E-6,2.022839156993E-7},
  {{1.76820988788E-14,-2.5323418661E-13,2.65490561113E-12},{Residual->3.03280182057E-15}},
  {{-.3,3.32136262216E-13},{-.2,1.73159413119E-13},{-.1,7.4927320138E-14},{5.55111512313E-17,1.3052494057E-14},
   {.1,2.10815118311E-14},{.2,7.08560870252E-14},{.3,1.81935174881E-13}}},
 {"EY",1,{1.673972012267E-5,2.04764117484E-5,3.662465333998E-6,2.167847990343E-7},
  {{3.66589383677E-14,-3.1070552334E-14,5.5010722342E-13},{Residual->2.75575641645E-15}},
  {{-.5,1.89345604122E-13},{-.35,1.13699842183E-13},{-.2,6.73584536579E-14},{-.05,4.01445573689E-14},{.1,4.03462777936E-14},
   {.25,5.74535428329E-14},{.4,1.15333411097E-13}}},
 {"R32",1,{1.742647154415E-5,2.018929588377E-5,3.774784496402E-6,1.958369022722E-7},
  {{5.1103983886E-14,-5.6870000535E-14,5.63538060569E-14},{Residual->2.59861967035E-15}},
  {{-.5,9.29146141791E-14},{-.35,7.69945923716E-14},{-.2,7.01142680351E-14},{-.05,5.00144497318E-14},{.1,4.57741389445E-14},
   {.25,4.0377685065E-14},{.4,3.79317284836E-14}}},
 {"AY",1,{1.667226252323E-5,2.017815516634E-5,3.887207388486E-6,4.597196327619E-8},
  {{7.54181730778E-14,8.59263918533E-13,2.72832141901E-12},{Residual->4.21551121021E-14}},
  {{-.3,7.0131056051E-14},{-.2,1.67663066458E-14},{-.1,1.1001192653E-14},{5.55111512313E-17,4.61210330437E-14},
   {.1,1.66334448325E-13},{.2,4.49978018784E-13},{.3,5.31525153365E-13}}},
 {"EY",1,{1.664252795983E-5,2.018087047423E-5,3.927419586169E-6,4.577722394561E-8},
  {{4.37622123658E-15,-1.4727935753E-14,5.45390980537E-13},{Residual->4.29650623772E-15}},
  {{-.3,6.18099245546E-14},{-.2,2.20440824975E-14},{-.1,1.43825083175E-14},{5.55111512313E-17,2.15832070949E-15},
   {.1,8.51517280447E-15},{.2,2.91519889065E-14},{.3,4.52810254165E-14}}},
 {"R32",1,{1.662559992584E-5,2.016316251029E-5,3.978451373899E-6,5.723398903913E-8},
  {{3.94450655227E-15,8.9367581505E-18,6.04656316736E-14},{Residual->1.46717552523E-15}},
  {{-.3,8.35427483248E-15},{-.2,7.52004402058E-15},{-.1,4.82285892963E-15},{5.55111512313E-17,4.66375221198E-15},
   {.1,4.59964876181E-15},{.2,3.39288630493E-15},{.3,1.11884576731E-14}}},
 {"Y24",1,{1.650553263288E-5,2.019841238397E-5,3.960648333787E-6,4.690967872109E-8},
  {{3.25442739146E-15,2.21258052192E-15,1.18067488894E-15},{Residual->4.3411878E-17}},
  {{-1.5,2.60780483885E-15},{-1.2,2.24310053983E-15},{-.9,2.20051795772E-15},{-.6,2.3938823311E-15},{-.3,2.76148524571E-15},
   {0,3.27572950133E-15},{.3,4.02378207816E-15},{.6,4.95055594133E-15},{.9,6.16558761224E-15},{1.2,7.56895274109E-15},
   {1.5,9.29598391921E-15}}},
 {"Y46",1,{1.654421585937E-5,2.020988054462E-5,3.955403266815E-6,4.226788099534E-8},
  {{2.27818355579E-15,1.88395521094E-15,2.14378406906E-15},{Residual->8.95230297769E-17}},
  {{-1,2.55862902897E-15},{-.8,2.20088020169E-15},{-.6,1.94637853531E-15},{-.4,1.78657376384E-15},{-.2,1.84998523384E-15},
   {0,2.20051795772E-15},{.2,2.78454284067E-15},{.4,3.50409217511E-15},{.6,4.3046707582E-15},{.8,5.18278311704E-15},
   {1,6.17361540521E-15}}},
 {"Y22",1,{1.656368975641E-5,2.019591943638E-5,3.953112270965E-6,4.221971885564E-8},
  {{1.91904372384E-15,2.71836380671E-15,1.34021653545E-14},{Residual->8.04275017767E-17}},
  {{-.6,5.05323021951E-15},{-.4,3.04442649149E-15},{-.2,2.02064947254E-15},{1.11022302463E-16,1.7865737639E-15},
   {.2,2.95086448691E-15},{.4,5.22279454406E-15},{.6,8.36519228553E-15}}},
 {"Y26",1,{1.656368975641E-5,2.019591943638E-5,3.953112270965E-6,4.221971885413E-8},
  {{3.68810618941E-15,5.11323476338E-15,1.92741162549E-13},{Residual->1.59574405478E-15}},
  {{-.6,6.89237790629E-14},{-.4,3.40902535632E-14},{-.2,1.16241448051E-14},{1.11022302463E-16,1.78250466012E-15},
   {.2,1.08024889094E-14},{.4,3.89834082529E-14},{.6,7.54802661266E-14}}},
 {"Y66",1,{1.656368975641E-5,2.019591943638E-5,3.953112270965E-6,4.221971885413E-8},
  {{2.53621590797E-15,-2.0236887067E-15,2.36149728652E-12},{Residual->1.46075100462E-15}},
  {{-.2,9.82834144877E-14},{-.15,5.64410440129E-14},{-.1,2.54665383841E-14},{-.05,6.20028971046E-15},{0,1.78250466012E-15},
   {.05,9.79223989662E-15},{.1,2.8293273676E-14},{.15,5.60246221849E-14},{.2,9.47666091363E-14}}},
 {"Y44",1,{1.655965998953E-5,2.019834434179E-5,3.96346730714E-6,4.099474162395E-8},
  {{1.63081131681E-15,2.22888622731E-15,2.32682539867E-14},{Residual->2.57175960124E-16}},
  {{-.6,8.98980398118E-15},{-.4,4.05890823756E-15},{-.2,1.87241211444E-15},{1.11022302463E-16,1.78250466028E-15},
   {.2,3.24874916819E-15},{.4,6.37858232541E-15},{.6,1.11451631957E-14}}},
 {"AY",1,{1.629795451834E-5,2.019245683986E-5,4.04499708297E-6,1.325398778402E-7},
  {{1.24488268533E-14,-1.4440787864E-13,-5.8879865917E-13},{Residual->1.44380976405E-14}},
  {{-.1,3.73689754735E-15},{-.07,5.10236712979E-14},{-.04,1.44678186946E-14},{-.01,2.06349787449E-15},{.02,6.98510118961E-15},
   {.05,1.84045064537E-15},{.08,1.88301695614E-15}}},
 {"EY",1,{1.604081629276E-5,2.024071368037E-5,4.101421521493E-6,1.403425446534E-7},
  {{1.90069963428E-14,3.50429402195E-14,5.45374332147E-13},{Residual->1.66259842608E-15}},
  {{-.1,2.21422518995E-14},{-.07,1.80139162411E-14},{-.04,1.82383216714E-14},{-.01,1.67656774557E-14},{.02,2.15366128812E-14},
   {.05,2.46430729394E-14},{.08,2.33813106987E-14}}},
 {"R32",1,{1.60423082588E-5,2.020420092774E-5,4.188637264396E-6,1.351921030553E-7},
  {{1.97790356499E-14,-3.2033871025E-14,1.40872030014E-13},{Residual->3.60840613724E-16}},
  {{-.1,2.47261613962E-14},{-.07,2.24543935163E-14},{-.04,2.08244692378E-14},{-.01,2.00179171875E-14},{.02,1.9796824545E-14},
   {.05,1.87335064984E-14},{.08,1.77909337173E-14}}},
 {"Y24",1,{1.569021686323E-5,2.029507335145E-5,4.115294865475E-6,7.182778498764E-8},
  {{1.82701043711E-14,1.07610977376E-14,1.97161812766E-15},{Residual->3.33518175258E-17}},
  {{-.3,1.51977597173E-14},{-.2,1.61977274884E-14},{-.1,1.727046025E-14},{5.55111512313E-17,1.82769047285E-14},
   {.1,1.93171674886E-14},{.2,2.04751914466E-14},{.3,2.17075725541E-14}}},
 {"Y46",1,{1.558138720282E-5,2.024838606768E-5,4.129710875723E-6,6.57403184984E-8},
  {{5.17452088658E-15,-2.2610330196E-15,1.11901757009E-15},{Residual->1.10596065645E-17}},
  {{-.45,6.40940425826E-15},{-.3,5.96949903145E-15},{-.15,5.54089246185E-15},{-5.5511151231E-17,5.15923069623E-15},
   {.15,4.87235363684E-15},{.3,4.58633059111E-15},{.45,4.38891659943E-15}}},
 {"Y22",1,{1.555711079694E-5,2.026489541682E-5,4.134811105749E-6,6.39251744538E-8},
  {{4.65874156646E-15,-5.2406611446E-15,1.8909821824E-14},{Residual->2.32226383828E-16}},
  {{-.6,1.45970082335E-14},{-.4,9.88113355286E-15},{-.2,6.49771994375E-15},{1.11022302463E-16,4.32178947629E-15},
   {.2,4.37056660595E-15},{.4,6.03317805267E-15},{.6,8.08879554306E-15}}},
 {"Y26",1,{1.557159252755E-5,2.025668894823E-5,4.095438842192E-6,6.266722206191E-8},
  {{3.57355514139E-15,3.14937090403E-14,2.25850468593E-13},{Residual->1.05209889971E-15}},
  {{-.3,1.36466027697E-14},{-.2,6.68659303618E-15},{-.1,4.05509277721E-15},{5.55111512313E-17,4.08642792883E-15},
   {.1,7.5115071481E-15},{.2,1.77614152836E-14},{.3,3.45053782522E-14}}},
 {"Y66",1,{1.557769263264E-5,2.025147121253E-5,4.085811428361E-6,6.253351031389E-8},
  {{2.66586709949E-15,-2.4488472602E-14,2.50879551333E-12},{Residual->1.83745501155E-15}},
  {{-.2,1.10212809038E-13},{-.15,6.21693214181E-14},{-.1,2.70198668446E-14},{-.05,8.39803901012E-15},{0,3.92718072096E-15},
   {.05,9.40444242088E-15},{.1,2.66925827636E-14},{.15,5.64096073615E-14},{.2,9.60782813171E-14}}},
 {"Y44",1,{1.557212399261E-5,2.025723727083E-5,4.101523346529E-6,6.200742576228E-8},
  {{3.77688828647E-15,2.46921463075E-15,1.49925740691E-14},{Residual->1.04744844999E-16}},
  {{-.6,7.7436715159E-15},{-.4,5.02257070524E-15},{-.2,3.97801243757E-15},{1.11022302463E-16,3.91043991217E-15},
   {.2,4.78785026617E-15},{.4,7.06814831513E-15},{.6,1.07192078105E-14}}},
 {"AY",1,{1.564813345589E-5,2.026217812311E-5,4.157791524548E-6,1.124355596785E-7},
  {{2.09317825113E-14,1.47267433841E-13,1.35666819712E-12},{Residual->1.25493643186E-14}},
  {{-.1,2.29282898745E-14},{-.07,1.53273709025E-14},{-.04,1.00995625501E-14},{-.01,3.05142434161E-14},{.02,6.41966594812E-15},
   {.05,5.41548657262E-14},{.08,3.19074650977E-14}}},
 {"EY",1,{1.570239949466E-5,2.022271821252E-5,4.116684843407E-6,1.156749916987E-7},
  {{1.35477519458E-14,7.99199266338E-15,2.01969456687E-13},{Residual->1.44973573865E-15}},
  {{-.1,1.64120802671E-14},{-.07,1.07564011321E-14},{-.04,1.44392754188E-14},{-.01,1.4009405114E-14},{.02,1.44540601788E-14},
   {.05,1.42493875837E-14},{.08,1.51852233677E-14}}},
 {"R32",1,{1.671409330309E-5,1.993135855788E-5,4.195345452705E-6,1.595635598334E-7},
  {{1.41313162553E-14,-1.8542714234E-14,1.68544075285E-14},{Residual->2.39197643663E-15}},
  {{-.1,1.61422095087E-14},{-.07,1.6563443286E-14},{-.04,1.39116917698E-14},{-.01,1.35308540479E-14},{.02,1.17230580545E-14},
   {.05,1.84643140059E-14},{.08,1.03181622661E-14}}},
 {"Y24",1,{1.646998280304E-5,1.994998653923E-5,4.132573342893E-6,1.33222855119E-7},
  {{2.54692218308E-14,9.74619138646E-15,2.58523133253E-15},{Residual->2.93973241457E-17}},
  {{-.3,2.27741686208E-14},{-.2,2.36048190382E-14},{-.1,2.45732524567E-14},{5.55111512313E-17,2.54605296267E-14},
   {.1,2.64227220823E-14},{.2,2.7546767096E-14},{.3,2.86261586678E-14}}},
 {"Y46",1,{1.645716852819E-5,1.994506882968E-5,4.140329551551E-6,1.311144274748E-7},
  {{1.77873083124E-14,-4.5329294092E-15,1.13079762134E-14},{Residual->1.36747830184E-16}},
  {{-.45,2.19631160667E-14},{-.3,2.03371541841E-14},{-.15,1.88538257073E-14},{-5.5511151231E-17,1.77483291261E-14},
   {.15,1.72714878592E-14},{.3,1.72761198749E-14},{.45,1.81851503827E-14}}},
 {"Y22",1,{1.646795618793E-5,1.994570854844E-5,4.141664976254E-6,1.303987400076E-7},
  {{1.75419031221E-14,3.50320007064E-15,3.44266832368E-14},{Residual->2.69280805468E-16}},
  {{-.6,2.78729132496E-14},{-.4,2.17684276208E-14},{-.2,1.80666276216E-14},{1.11022302463E-16,1.7190993092E-14},
   {.2,1.97973422932E-14},{.4,2.49219088949E-14},{.6,3.17329943081E-14}}},
 {"Y26",1,{1.646795618793E-5,1.994570854844E-5,4.141664976256E-6,1.303987400136E-7},
  {{1.82141273262E-14,9.06495936029E-15,4.90822393838E-13},{Residual->1.64557482585E-15}},
  {{-.3,5.77121922833E-14},{-.2,3.8609212705E-14},{-.1,2.37550657563E-14},{5.55111512313E-17,1.70038313971E-14},
   {.1,2.20195976531E-14},{.2,4.00154287186E-14},{.3,6.58138330449E-14}}},
 {"Y66",1,{1.646795618793E-5,1.994570854844E-5,4.141664976256E-6,1.303987400136E-7},
  {{2.19197155479E-14,-5.9409123623E-14,3.47810581943E-12},{Residual->4.05140311717E-15}},
  {{-.2,1.73226889861E-13},{-.15,1.11646918932E-13},{-.1,6.30161504476E-14},{-.05,2.86226918482E-14},{0,1.70038313971E-14},
   {.05,2.93435076408E-14},{.1,5.70098915732E-14},{.15,9.55810772574E-14},{.2,1.43542353888E-13}}},
 {"Y44",1,{1.646795618793E-5,1.994570854844E-5,4.141664976256E-6,1.303987400133E-7},
  {{1.70336271134E-14,-1.118438959E-15,4.98432749919E-14},{Residual->4.5937072636E-16}},
  {{-.6,3.60738741183E-14},{-.4,2.51331008368E-14},{-.2,1.86665387015E-14},{1.11022302463E-16,1.7003831397E-14},
   {.2,1.92442897935E-14},{.4,2.51678540467E-14},{.6,3.37703688909E-14}}},
 {"AY",1,{1.650740143368E-5,1.993378831667E-5,4.085607816368E-6,1.488833241866E-7},
  {{2.91130320803E-14,-2.6760527354E-13,3.3148664956E-12},{Residual->2.0752395585E-14}},
  {{-.1,6.95259859724E-14},{-.07,1.08468690647E-13},{-.04,2.15531856685E-14},{-.01,3.13760662769E-14},{.02,1.73665916251E-14},
   {.05,3.10406009178E-14},{.08,2.90475148387E-14}}},
 {"EY",1,{1.627385257793E-5,2.007859053767E-5,4.162751655972E-6,2.00932588456E-7},
  {{2.42021917253E-14,-1.2059491558E-13,2.03932122833E-13},{Residual->3.32034931631E-15}},
  {{-.1,3.4520790942E-14},{-.07,4.08916483126E-14},{-.04,2.81859797388E-14},{-.01,2.25200596136E-14},{.02,2.18128423386E-14},
   {.05,1.86295035107E-14},{.08,1.65780036926E-14}}},
 {"R32",1,{1.637887139132E-5,2.003949216667E-5,4.183874642971E-6,1.958459880106E-7},
  {{3.98020715596E-14,1.02638729731E-14,-5.2385433353E-13},{Residual->2.62395086036E-15}},
  {{-.1,3.40983074049E-14},{-.07,3.32964545619E-14},{-.04,4.23832435971E-14},{-.01,3.96572216169E-14},{.02,4.05730206672E-14},
   {.05,3.48394037982E-14},{.08,3.94805509242E-14}}},
 {"Y24",1,{1.627561093937E-5,2.005078673674E-5,4.161594296323E-6,1.941758054714E-7},
  {{3.83808256982E-14,2.07682597166E-15,1.48867729504E-15},{Residual->2.84478404473E-17}},
  {{-.3,3.78621808225E-14},{-.2,3.80592004972E-14},{-.1,3.82238771801E-14},{5.55111512313E-17,3.83556510198E-14},
   {.1,3.85655768635E-14},{.2,3.8870012942E-14},{.3,3.91461102051E-14}}},
 {"Y46",1,{1.648061368713E-5,2.020590063081E-5,4.075400180411E-6,1.352643722973E-7},
  {{3.76597950135E-14,1.87886428729E-14,3.12101318772E-15},{Residual->2.82462647823E-17}},
  {{-.45,2.98624576294E-14},{-.3,3.22583375711E-14},{-.15,3.49009700512E-14},{-5.5511151231E-17,3.77042434305E-14},
   {.15,4.05538335619E-14},{.3,4.35513988912E-14},{.45,4.67535622678E-14}}},
 {"Y22",1,{1.657869068829E-5,2.016817542518E-5,4.073501589705E-6,1.285490615074E-7},
  {{1.83929836564E-14,1.14368539975E-14,1.56191675091E-14},{Residual->2.04585063887E-16}},
  {{-.6,1.6953143016E-14},{-.4,1.65248612144E-14},{-.2,1.69392786039E-14},{1.11022302463E-16,1.82964504129E-14},
   {.2,2.12752312293E-14},{.4,2.51465849482E-14},{.6,3.11088037804E-14}}},
 {"Y26",1,{1.655122976771E-5,2.017351885004E-5,4.14348648932E-6,1.231696192583E-7},
  {{1.63617862221E-14,-7.7745387496E-14,3.71461370036E-13},{Residual->2.39911209573E-15}},
  {{-.3,7.54478910853E-14},{-.2,4.49753983366E-14},{-.1,2.44537058858E-14},{5.55111512313E-17,1.6524861214E-14},
   {.1,1.51707551082E-14},{.2,1.80168908865E-14},{.3,2.39521846484E-14}}},
 {"Y66",1,{1.655122976771E-5,2.017351885004E-5,4.14348648932E-6,1.231696192583E-7},
  {{1.24064131887E-14,2.05142785096E-13,3.07468440419E-12},{Residual->6.11137116996E-15}},
  {{-.2,8.9552499709E-14},{-.15,4.99383943604E-14},{-.1,2.80921422144E-14},{-.05,1.89100637077E-14},{0,1.51707551082E-14},
   {.05,2.11617290185E-14},{.1,5.52823644063E-14},{.15,1.12188295699E-13},{.2,1.82564135103E-13}}},
 {"Y44",1,{1.655122976771E-5,2.017351885004E-5,4.14348648932E-6,1.231696192584E-7},
  {{1.50462671208E-14,-1.7093699161E-16,2.04581298763E-14},{Residual->4.24375519926E-16}},
  {{-.6,2.20817533163E-14},{-.4,1.88085879877E-14},{-.2,1.62953926626E-14},{1.11022302463E-16,1.51707551082E-14},
   {.2,1.53508516895E-14},{.4,1.77391738845E-14},{.6,2.27904606585E-14}}}}
