FD	 1.044720E-5	 1.693985E-7	
EX2	 1.050293E-5	 2.725789E-7	
FD	 1.050591E-5	 2.716133E-7	
AY	 1.050539E-5	 2.707122E-7	
EY	 1.053497E-5	 2.385577E-7	
R32	 1.048226E-5	 1.875190E-7	
AY	 1.048225E-5	 1.875066E-7	
EY	 1.050204E-5	 1.321648E-7	
R32	 1.048231E-5	 1.172069E-7	
AY	 1.048230E-5	 1.172415E-7	
EY	 1.048243E-5	 8.169334E-8	
R32	 1.048571E-5	 8.091171E-8	
AY	 1.048570E-5	 8.094371E-8	
EY	 1.048224E-5	 6.223106E-8	
R32	 1.048860E-5	 6.283362E-8	
Y24	 1.046711E-5	 4.028861E-8	
Y46	 1.046365E-5	 3.923089E-8	
Y22	 1.046365E-5	 3.923089E-8	
Y26	 1.046455E-5	 3.889361E-8	
Y66	 1.046455E-5	 3.889361E-8	
Y44	 1.046455E-5	 3.889361E-8	
AY	 1.046458E-5	 3.880555E-8	
EY	 1.046565E-5	 3.804357E-8	
R32	 1.046346E-5	 3.652569E-8	
Y24	 1.046574E-5	 3.634284E-8	
Y46	 1.046864E-5	 3.602008E-8	
Y22	 1.046864E-5	 3.602008E-8	
Y26	 1.046567E-5	 3.575519E-8	
Y66	 1.046625E-5	 3.518141E-8	
Y44	 1.046625E-5	 3.518141E-8	
AY	 1.046598E-5	 3.509502E-8	
EY	 1.046646E-5	 3.420622E-8	
R32	 1.046588E-5	 3.262725E-8	
Y24	 1.046585E-5	 3.259398E-8	
Y46	 1.046585E-5	 3.259398E-8	
Y22	 1.046585E-5	 3.259398E-8	
Y26	 1.046342E-5	 3.230707E-8	
Y66	 1.046380E-5	 3.170646E-8	
Y44	 1.046380E-5	 3.170646E-8	
AY	 1.046376E-5	 3.177669E-8	
EY	 1.046483E-5	 3.087147E-8	
R32	 1.046381E-5	 2.950778E-8	
Y24	 1.046378E-5	 2.947918E-8	
Y46	 1.046387E-5	 2.946965E-8	
Y22	 1.046387E-5	 2.946965E-8	
Y26	 1.046258E-5	 2.924546E-8	
Y66	 1.046372E-5	 2.836680E-8	
Y44	 1.046372E-5	 2.836680E-8	
