FD	 1.299161E-5	 4.305022E-7	
EX2	 1.251628E-5	 5.421592E-7	
FD	 1.249896E-5	 4.356442E-7	
AY	 1.278950E-5	 5.475206E-7	
EY	 1.280875E-5	 4.599448E-7	
R32	 1.299377E-5	 1.364455E-7	
AY	 1.297744E-5	 9.026377E-8	
EY	 1.295458E-5	 4.928264E-8	
R32	 1.292368E-5	 3.971900E-8	
AY	 1.291862E-5	 3.615770E-8	
EY	 1.294464E-5	 4.111891E-8	
R32	 1.292342E-5	 3.633082E-8	
AY	 1.292490E-5	 4.086134E-8	
EY	 1.292697E-5	 4.158408E-8	
R32	 1.292840E-5	 4.516428E-8	
Y24	 1.292840E-5	 4.516428E-8	
Y46	 1.293272E-5	 4.508141E-8	
Y22	 1.293272E-5	 4.508141E-8	
Y26	 1.293272E-5	 4.508141E-8	
Y66	 1.293272E-5	 4.508141E-8	
Y44	 1.293272E-5	 4.508141E-8	
AY	 1.292859E-5	 4.955304E-8	
EY	 1.294201E-5	 4.372783E-8	
R32	 1.292574E-5	 3.871203E-8	
Y24	 1.292547E-5	 3.870563E-8	
Y46	 1.290621E-5	 3.308211E-8	
Y22	 1.290621E-5	 3.308211E-8	
Y26	 1.290621E-5	 3.308211E-8	
Y66	 1.290606E-5	 3.294295E-8	
Y44	 1.290603E-5	 3.281449E-8	
AY	 1.290831E-5	 3.290269E-8	
EY	 1.291167E-5	 3.339221E-8	
R32	 1.290898E-5	 3.317942E-8	
Y24	 1.290898E-5	 3.317942E-8	
Y46	 1.291145E-5	 3.305617E-8	
Y22	 1.291117E-5	 3.277652E-8	
Y26	 1.291117E-5	 3.277652E-8	
Y66	 1.291117E-5	 3.277652E-8	
Y44	 1.291131E-5	 3.273972E-8	
AY	 1.290790E-5	 3.365727E-8	
EY	 1.290421E-5	 3.232817E-8	
R32	 1.290819E-5	 3.279954E-8	
Y24	 1.290575E-5	 3.234718E-8	
Y46	 1.290575E-5	 3.234718E-8	
Y22	 1.290575E-5	 3.234718E-8	
Y26	 1.290575E-5	 3.234718E-8	
Y66	 1.290575E-5	 3.234718E-8	
Y44	 1.290575E-5	 3.234718E-8	
