FD	 -3.52034E-6	 1.299207E-5	 -1.39696E-6	 4.308062E-7	
EX2	 -1.42351E-5	 1.251754E-5	 -2.58353E-6	 5.503124E-7	
FD	 -1.42596E-5	 1.250298E-5	 -2.66470E-6	 4.338784E-7	
AY	 1.514637E-6	 1.278709E-5	 5.202744E-8	 5.134201E-7	
EY	 1.203580E-6	 1.279797E-5	 5.211527E-8	 4.227788E-7	
R32	 1.405471E-6	 1.293612E-5	 2.108098E-8	 1.321679E-7	
AY	 9.367243E-7	 1.292208E-5	 1.827394E-8	 9.790719E-8	
EY	 1.446739E-6	 1.290715E-5	 2.620371E-8	 6.040442E-8	
R32	 1.332135E-6	 1.294646E-5	 2.915815E-8	 3.758382E-8	
AY	 1.293654E-6	 1.294267E-5	 1.934989E-8	 3.880152E-8	
EY	 9.574326E-7	 1.293948E-5	 1.985333E-8	 3.740761E-8	
R32	 1.604278E-6	 1.293537E-5	 2.524201E-8	 3.661083E-8	
AY	 1.047425E-6	 1.293897E-5	 2.306691E-8	 3.676687E-8	
EY	 1.607369E-6	 1.293207E-5	 1.580302E-8	 3.782427E-8	
R32	 1.435016E-6	 1.294165E-5	 2.159925E-8	 3.777264E-8	
Y24	 1.102725E-6	 1.293245E-5	 2.060575E-8	 3.648220E-8	
Y46	 1.476852E-6	 1.292703E-5	 2.423760E-8	 3.571789E-8	
Y22	 1.073095E-6	 1.292818E-5	 1.673114E-8	 3.565280E-8	
Y26	 1.576704E-6	 1.292758E-5	 1.706035E-8	 3.571083E-8	
Y66	 1.293169E-6	 1.293161E-5	 2.089844E-8	 3.569807E-8	
Y44	 1.738856E-6	 1.292288E-5	 2.263107E-8	 3.535483E-8	
AY	 1.412513E-6	 1.291886E-5	 1.862978E-8	 3.542814E-8	
EY	 1.140228E-6	 1.292964E-5	 2.126825E-8	 3.466323E-8	
R32	 1.121346E-6	 1.293061E-5	 2.341380E-8	 3.454841E-8	
Y24	 1.236594E-6	 1.294006E-5	 2.050371E-8	 3.393063E-8	
Y46	 1.319578E-6	 1.293690E-5	 2.547132E-8	 3.367713E-8	
Y22	 1.322405E-6	 1.293126E-5	 1.997698E-8	 3.372263E-8	
Y26	 1.339541E-6	 1.293685E-5	 2.134015E-8	 3.380538E-8	
Y66	 1.518819E-6	 1.292449E-5	 2.775140E-8	 3.369251E-8	
Y44	 1.269249E-6	 1.292967E-5	 2.053086E-8	 3.373234E-8	
AY	 1.158514E-6	 1.293735E-5	 1.721637E-8	 3.356984E-8	
EY	 1.386116E-6	 1.293689E-5	 2.159869E-8	 3.358307E-8	
R32	 1.325332E-6	 1.293024E-5	 1.583095E-8	 3.416011E-8	
Y24	 1.064819E-6	 1.293888E-5	 1.804961E-8	 3.383601E-8	
Y46	 1.218178E-6	 1.293647E-5	 2.515354E-8	 3.380569E-8	
Y22	 1.641281E-6	 1.293290E-5	 2.303420E-8	 3.378703E-8	
Y26	 1.449600E-6	 1.293739E-5	 2.074217E-8	 3.381271E-8	
Y66	 1.391129E-6	 1.293634E-5	 2.245840E-8	 3.390252E-8	
Y44	 1.354772E-6	 1.293606E-5	 2.129693E-8	 3.381705E-8	
AY	 1.351932E-6	 1.293256E-5	 2.044634E-8	 3.378391E-8	
EY	 1.615784E-6	 1.293251E-5	 1.801702E-8	 3.312467E-8	
R32	 1.467390E-6	 1.294136E-5	 2.161821E-8	 3.320748E-8	
Y24	 1.005798E-6	 1.294699E-5	 2.298124E-8	 3.340003E-8	
Y46	 1.027036E-6	 1.293843E-5	 2.496838E-8	 3.322864E-8	
Y22	 1.074895E-6	 1.294018E-5	 2.615061E-8	 3.316415E-8	
Y26	 8.593348E-7	 1.293583E-5	 1.468135E-8	 3.313496E-8	
Y66	 1.322317E-6	 1.293773E-5	 1.880384E-8	 3.313369E-8	
Y44	 1.626957E-6	 1.294232E-5	 2.320486E-8	 3.324331E-8	
OCT1	 1.762441E-6	 1.293547E-5	 2.106795E-8	 3.325593E-8	
OCT2	 1.296547E-6	 1.293405E-5	 2.230759E-8	 3.303330E-8	
