FD	 6.738084E-6	 2.061815E-7	
EX2	 6.738474E-6	 2.066490E-7	
FD	 6.738659E-6	 2.062252E-7	
AY	 6.527550E-6	 3.398323E-7	
EY	 6.468390E-6	 2.966324E-7	
R32	 6.630665E-6	 4.578246E-8	
AY	 6.631187E-6	 4.472140E-8	
EY	 6.624238E-6	 4.256009E-8	
R32	 6.624815E-6	 4.243407E-8	
AY	 6.623826E-6	 4.240245E-8	
EY	 6.629788E-6	 4.315023E-8	
R32	 6.623086E-6	 4.246430E-8	
AY	 6.622857E-6	 4.187476E-8	
EY	 6.614833E-6	 4.453649E-8	
R32	 6.626874E-6	 4.257497E-8	
Y24	 6.626874E-6	 4.257497E-8	
Y46	 6.659467E-6	 4.227046E-8	
Y22	 6.659467E-6	 4.227046E-8	
Y26	 6.659467E-6	 4.227046E-8	
Y66	 6.658366E-6	 4.154281E-8	
Y44	 6.658366E-6	 4.154281E-8	
AY	 6.659222E-6	 4.151902E-8	
EY	 6.661152E-6	 4.152732E-8	
R32	 6.666110E-6	 4.313407E-8	
Y24	 6.671419E-6	 4.295915E-8	
Y46	 6.685415E-6	 4.292050E-8	
Y22	 6.685415E-6	 4.292050E-8	
Y26	 6.685415E-6	 4.292050E-8	
Y66	 6.684637E-6	 4.257931E-8	
Y44	 6.684637E-6	 4.257931E-8	
AY	 6.684864E-6	 4.306111E-8	
EY	 6.686756E-6	 4.334205E-8	
R32	 6.674227E-6	 4.503067E-8	
Y24	 6.646923E-6	 4.257406E-8	
Y46	 6.643476E-6	 4.255982E-8	
Y22	 6.643476E-6	 4.255982E-8	
Y26	 6.643476E-6	 4.255982E-8	
Y66	 6.643476E-6	 4.255982E-8	
Y44	 6.643476E-6	 4.255982E-8	
AY	 6.645169E-6	 4.283869E-8	
EY	 6.643203E-6	 4.393302E-8	
R32	 6.650814E-6	 4.227838E-8	
Y24	 6.653611E-6	 4.224871E-8	
Y46	 6.672929E-6	 4.218005E-8	
Y22	 6.672929E-6	 4.218005E-8	
Y26	 6.672929E-6	 4.218005E-8	
Y66	 6.672929E-6	 4.218005E-8	
Y44	 6.672929E-6	 4.218005E-8	
