FD	 1.113040E-5	 5.722728E-7	
EX2	 1.876551E-5	 1.253322E-6	
FD	 1.113038E-5	 5.722758E-7	
AY	 1.334647E-5	 7.731480E-7	
EY	 1.365065E-5	 5.121748E-7	
R32	 1.312535E-5	 1.236578E-7	
AY	 1.312311E-5	 1.208772E-7	
EY	 1.312883E-5	 6.342544E-8	
R32	 1.311868E-5	 3.964955E-8	
AY	 1.311874E-5	 3.959508E-8	
EY	 1.312046E-5	 3.802695E-8	
R32	 1.311878E-5	 3.792850E-8	
AY	 1.311878E-5	 3.792377E-8	
EY	 1.311881E-5	 3.788271E-8	
R32	 1.311876E-5	 3.801133E-8	
Y24	 1.311759E-5	 3.696510E-8	
Y46	 1.311149E-5	 3.493625E-8	
Y22	 1.311149E-5	 3.493625E-8	
Y26	 1.311149E-5	 3.493625E-8	
Y66	 1.311149E-5	 3.493625E-8	
Y44	 1.311149E-5	 3.493625E-8	
AY	 1.311172E-5	 3.495785E-8	
EY	 1.311024E-5	 3.441248E-8	
R32	 1.311130E-5	 3.459520E-8	
Y24	 1.311417E-5	 3.395990E-8	
Y46	 1.311137E-5	 3.371782E-8	
Y22	 1.311137E-5	 3.371782E-8	
Y26	 1.311137E-5	 3.371782E-8	
Y66	 1.311137E-5	 3.371782E-8	
Y44	 1.311137E-5	 3.371782E-8	
AY	 1.311146E-5	 3.367639E-8	
EY	 1.311077E-5	 3.372014E-8	
R32	 1.310971E-5	 3.362285E-8	
Y24	 1.311196E-5	 3.352554E-8	
Y46	 1.310944E-5	 3.324131E-8	
Y22	 1.310944E-5	 3.324131E-8	
Y26	 1.310944E-5	 3.324131E-8	
Y66	 1.310944E-5	 3.324131E-8	
Y44	 1.310944E-5	 3.324131E-8	
AY	 1.310950E-5	 3.333486E-8	
EY	 1.310906E-5	 3.350297E-8	
R32	 1.310839E-5	 3.337766E-8	
Y24	 1.310839E-5	 3.337766E-8	
Y46	 1.310839E-5	 3.337766E-8	
Y22	 1.310839E-5	 3.337766E-8	
Y26	 1.310839E-5	 3.337766E-8	
Y66	 1.310839E-5	 3.337766E-8	
Y44	 1.310839E-5	 3.337766E-8	
OCT1	 1.310839E-5	 3.337766E-8	
OCT2	 1.310803E-5	 3.325432E-8	
OCT1	 1.310803E-5	 3.325432E-8	
OCT2	 1.310803E-5	 3.325432E-8	
