{{"FD",1,{-2.92027807612E-5,1.275745503033E-5,-4.30258237917E-6,4.222428046296E-7}},
 {"EX2",1,{-3.44073024253E-5,1.563369330969E-5,-4.42957792436E-6,9.704661578622E-7}},
 {"FD",1,{-2.94568699083E-5,1.267846989841E-5,-4.32447807078E-6,4.221726598335E-7}},
 {"AY",1,{-2.98678113249E-5,1.378637876445E-5,-4.05070747965E-6,4.036609980687E-7},
  {{1.72058069224E-13,-1.6370333638E-13,5.46613439308E-12},{Residual->6.27575604702E-14}},
  {{-.5,1.55865105829E-12},{-.35,9.79695297814E-13},{-.2,4.30421888588E-13},{-.05,2.35960976979E-13},{.1,1.61813390416E-13},
   {.25,3.82824368453E-13},{.4,1.05165769128E-12}}},
 {"EY",1,{-2.98818994716E-5,1.39583426603E-5,-3.67962735595E-6,1.155829992316E-7},
  {{1.70392869426E-13,5.21919541776E-13,4.38063727647E-13},{Residual->8.19406464148E-15}},
  {{-.5,1.71778775034E-14},{-.35,4.11272176356E-14},{-.2,9.56052951664E-14},{-.05,1.2874891986E-13},{.1,2.33585628591E-13},
   {.25,3.28555669568E-13},{.4,4.48923901689E-13}}},
 {"R32",1,{-2.99280071743E-5,1.381812450743E-5,-3.71080994376E-6,5.933726741922E-8},
  {{1.04479123411E-14,9.11101395987E-14,2.62818025739E-13},{Residual->4.32370150298E-15}},
  {{-.5,2.9506846383E-14},{-.35,1.17864496289E-14},{-.2,3.34256847595E-15},{-.05,1.0365942299E-14},{.1,1.31526117485E-14},
   {.25,5.52388613387E-14},{.4,8.80282293203E-14}}},
 {"AY",1,{-2.99365925991E-5,1.380914999444E-5,-3.71661259276E-6,5.914521151195E-8},
  {{6.17251170104E-14,-6.1476646906E-13,3.73387579927E-12},{Residual->5.61012773193E-14}},
  {{-.5,1.26404090377E-12},{-.35,7.69225937138E-13},{-.2,4.24968829534E-13},{-.05,2.57781983037E-15},{.1,1.8354096302E-14},
   {.25,1.70340916976E-13},{.4,4.15420159717E-13}}},
 {"EY",1,{-2.98920590441E-5,1.375375469257E-5,-3.74949697484E-6,6.590413444173E-8},
  {{8.20445706788E-15,-1.0535868663E-14,4.25640997194E-13},{Residual->3.20726054119E-15}},
  {{-.5,1.21623827963E-13},{-.35,6.28708848205E-14},{-.2,2.59773803608E-14},{-.05,7.50615635061E-15},{.1,1.19378874551E-14},
   {.25,3.87826074938E-14},{.4,6.80225547468E-14}}},
 {"R32",1,{-2.98320448647E-5,1.387490706166E-5,-3.76294820402E-6,7.584164264161E-8},
  {{5.20278182836E-15,-2.7935862463E-14,1.83039558082E-13},{Residual->2.13243703526E-15}},
  {{-.5,6.2290402464E-14},{-.35,4.18975601446E-14},{-.2,1.79529513257E-14},{-.05,5.75673707154E-15},{.1,3.74660925139E-15},
   {.25,8.54720176676E-15},{.4,2.45236764943E-14}}},
 {"AY",1,{-2.9816509268E-5,1.388464482659E-5,-3.76367485552E-6,7.350113447542E-8},
  {{-3.2033310837E-14,1.87776957247E-13,5.34595120874E-12},{Residual->4.2597518431E-14}},
  {{-.3,4.17260439552E-13},{-.2,8.77420428633E-14},{-.1,1.02582573802E-14},{5.55111512313E-17,9.56864115253E-15},
   {.1,6.74441302214E-14},{.2,1.45223942419E-13},{.3,5.35135708999E-13}}},
 {"EY",1,{-2.98802320142E-5,1.385356617352E-5,-3.73223214441E-6,5.587887019861E-8},
  {{7.67850013629E-15,5.56920610228E-14,4.46579526263E-13},{Residual->3.04706285551E-15}},
  {{-.5,9.00509303681E-14},{-.35,4.56401989311E-14},{-.2,1.54721960227E-14},{-.05,2.71727616175E-15},{.1,1.5096178957E-14},
   {.25,5.51697659341E-14},{.4,9.92709764765E-14}}},
 {"R32",1,{-2.98927798611E-5,1.386807487857E-5,-3.73747616725E-6,5.958416110378E-8},
  {{-4.7546466571E-16,1.89567981045E-15,1.95170299615E-13},{Residual->4.40267667801E-15}},
  {{-.5,5.28871966041E-14},{-.35,1.53573427298E-14},{-.2,3.32628903796E-15},{-.05,3.38148683614E-15},{.1,4.38168066367E-15},
   {.25,1.48298845952E-14},{.4,2.82171479404E-14}}},
 {"AY",1,{-2.99134103538E-5,1.38568779547E-5,-3.74196259121E-6,5.828265043852E-8},
  {{-6.2515183926E-15,2.59536742561E-13,5.02260692383E-12},{Residual->2.94291964342E-14}},
  {{-.3,3.98351724305E-13},{-.2,7.82564703131E-14},{-.1,4.35436737609E-14},{5.55111512313E-17,7.27561741873E-15},
   {.1,6.46547971707E-14},{.2,2.54301211563E-13},{.3,5.16185815392E-13}}},
 {"EY",1,{-2.99219579962E-5,1.3883860948E-5,-3.71132870734E-6,6.284173347216E-8},
  {{1.98746979787E-15,2.01026470994E-14,4.94045785016E-13},{Residual->5.18805413255E-15}},
  {{-.3,3.54893967308E-14},{-.2,2.4616914731E-14},{-.1,5.06171760712E-15},{5.55111512313E-17,3.65831453701E-15},
   {.1,8.15089443293E-15},{.2,1.69033563452E-14},{.3,5.83645140055E-14}}},
 {"R32",1,{-2.98796609095E-5,1.377145134376E-5,-3.72883431356E-6,5.334504836679E-8},
  {{3.74097157982E-15,2.8501500128E-14,1.58831135752E-13},{Residual->4.79380317129E-16}},
  {{-.3,9.36756342738E-15},{-.2,4.42872427257E-15},{-.1,2.69021819584E-15},{5.55111512313E-17,3.60993336711E-15},
   {.1,8.72436805468E-15},{.2,1.47859459288E-14},{.3,2.7052765823E-14}}},
 {"Y24",1,{-2.98144210213E-5,1.377182874937E-5,-3.71980039653E-6,4.968631952152E-8},
  {{2.8169259637E-15,-4.8187169876E-16,2.74442481127E-16},{Residual->6.08071182718E-17}},
  {{-1.5,4.13459575054E-15},{-1.2,3.78080715635E-15},{-.9,3.47937810858E-15},{-.6,3.22893290315E-15},{-.3,3.00233320556E-15},
   {0,2.84569418526E-15},{.3,2.74105680972E-15},{.6,2.63286945604E-15},{.9,2.46873034759E-15},{1.2,2.56405331303E-15},
   {1.5,2.82471492798E-15}}},
 {"Y46",1,{-2.97725257664E-5,1.374720300108E-5,-3.72211140169E-6,3.732506283478E-8},
  {{2.45185777277E-15,3.49174053917E-15,3.34013920327E-15},{Residual->9.45871912564E-17}},
  {{-1,2.44057737445E-15},{-.8,1.78962720156E-15},{-.6,1.42825157871E-15},{-.4,1.46173191102E-15},{-.2,1.82437879347E-15},
   {0,2.46873034759E-15},{.2,3.38811056021E-15},{.4,4.50754039811E-15},{.6,5.7959498983E-15},{.8,7.38950581679E-15},
   {1,9.17264411468E-15}}},
 {"Y22",1,{-2.97725257664E-5,1.374720300108E-5,-3.72211140169E-6,3.732506283446E-8},
  {{1.58435728016E-15,9.93095300497E-16,1.35806950797E-14},{Residual->1.22548893515E-16}},
  {{-.6,5.85614284007E-15},{-.4,3.46436923505E-15},{-.2,1.8938842462E-15},{1.11022302463E-16,1.3931603156E-15},
   {.2,2.38800940362E-15},{.4,4.35156471401E-15},{.6,6.95374869588E-15}}},
 {"Y26",1,{-2.97725257664E-5,1.37472030011E-5,-3.72211140169E-6,3.732506283455E-8},
  {{3.37760745535E-15,5.33207169094E-16,6.6944856549E-14},{Residual->1.07318221279E-15}},
  {{-.6,2.63874374558E-14},{-.4,1.5144859668E-14},{-.2,6.75745230443E-15},{1.11022302463E-16,1.3931603156E-15},
   {.2,6.12556295592E-15},{.4,1.53691752687E-14},{.6,2.74438435538E-14}}},
 {"Y66",1,{-2.97725257664E-5,1.37472030011E-5,-3.72211140169E-6,3.732506283455E-8},
  {{3.16449921046E-15,-4.8565053458E-15,1.02160970229E-12},{Residual->9.51503802095E-16}},
  {{-.2,4.43805467821E-14},{-.15,2.78381679812E-14},{-.1,1.47271629159E-14},{-.05,5.27603586194E-15},{0,1.3931603156E-15},
   {.05,5.78677713765E-15},{.1,1.37406252385E-14},{.15,2.63883789086E-14},{.2,4.2191093097E-14}}},
 {"Y44",1,{-2.97684815533E-5,1.374666319381E-5,-3.72009553968E-6,3.665227889083E-8},
  {{1.55070914594E-15,2.82489177374E-16,1.15920762902E-14},{Residual->2.5937508403E-16}},
  {{-.6,5.67094997614E-15},{-.4,3.36481247222E-15},{-.2,1.56826461653E-15},{1.11022302463E-16,1.39316031557E-15},
   {.2,2.40884400699E-15},{.4,3.81233936172E-15},{.6,5.61971871742E-15}}},
 {"AY",1,{-2.97652860415E-5,1.372892393144E-5,-3.72312680309E-6,7.143835202139E-8},
  {{3.09927409184E-15,-9.7714362503E-14,3.00033146349E-12},{Residual->1.23550296067E-14}},
  {{-.1,5.6792543431E-14},{-.07,4.01139977937E-15},{-.04,9.61853877392E-15},{-.01,7.65449349268E-15},{.02,3.16729427612E-15},
   {.05,2.26316762483E-14},{.08,2.36756292116E-15}}},
 {"EY",1,{-2.97629963495E-5,1.371466683839E-5,-3.74096405859E-6,7.548330926209E-8},
  {{7.32703153446E-15,6.64809920333E-16,8.34493793409E-14},{Residual->2.20157163639E-15}},
  {{-.1,9.00430336246E-15},{-.07,6.65428497199E-15},{-.04,6.86203724119E-15},{-.01,5.82769715298E-15},{.02,1.20205594345E-14},
   {.05,4.78597382762E-15},{.08,8.24916698098E-15}}},
 {"R32",1,{-2.97757852767E-5,1.376471423303E-5,-3.72217537744E-6,6.30289482214E-8},
  {{5.12855874361E-15,-6.2698703042E-14,5.90401610125E-13},{Residual->1.064162313E-15}},
  {{-.1,1.64709913569E-14},{-.07,1.41699163725E-14},{-.04,8.3746524073E-15},{-.01,4.145634134E-15},{.02,5.23358455396E-15},
   {.05,3.24811282364E-15},{.08,3.93733047214E-15}}},
 {"Y24",1,{-2.97480713731E-5,1.376639299442E-5,-3.71979015489E-6,6.175373869806E-8},
  {{3.97138971909E-15,-9.4027783855E-17,-1.4579899896E-15},{Residual->1.73340459681E-18}},
  {{-.3,3.86743007247E-15},{-.2,3.93374821107E-15},{-.1,3.96469028596E-15},{5.55111512313E-17,3.9726483139E-15},
   {.1,3.94827301871E-15},{.2,3.89117669122E-15},{.3,3.81352424319E-15}}},
 {"Y46",1,{-2.97193588789E-5,1.374967308629E-5,-3.72142587121E-6,4.679754185094E-8},
  {{3.79467995175E-15,5.233564927E-15,3.27338302886E-15},{Residual->7.55293467826E-17}},
  {{-.45,2.19000992329E-15},{-.3,2.42373106776E-15},{-.15,2.9981269688E-15},{-5.5511151231E-17,3.81352424319E-15},
   {.15,4.74907601173E-15},{.3,5.7040527112E-15},{.45,6.74647004449E-15}}},
 {"Y22",1,{-2.97193588794E-5,1.374967308681E-5,-3.72142587121E-6,4.679754185515E-8},
  {{2.42786411797E-15,2.97945515917E-15,1.3222120217E-14},{Residual->1.40792882239E-16}},
  {{-.6,5.28508187106E-15},{-.4,3.52622756193E-15},{-.2,2.48520641496E-15},{1.11022302463E-16,2.19000992368E-15},
   {.2,3.50013513439E-15},{.4,5.87376677947E-15},{.6,8.94339578334E-15}}},
 {"Y26",1,{-2.96928810954E-5,1.374002439229E-5,-3.69653059651E-6,4.073840018023E-8},
  {{2.59985067653E-15,-1.0372216435E-14,9.51965843353E-14},{Residual->4.0116920089E-16}},
  {{-.3,1.38571790043E-14},{-.2,8.99319159487E-15},{-.1,5.07679531021E-15},{5.55111512313E-17,2.19000992357E-15},
   {.1,2.03766957073E-15},{.2,4.54261891444E-15},{.3,8.15653403144E-15}}},
 {"Y66",1,{-2.96928810954E-5,1.374002439229E-5,-3.69653059651E-6,4.073840018023E-8},
  {{3.17115384426E-15,1.04809981765E-15,1.06516075463E-12},{Residual->7.31024478519E-16}},
  {{-.2,4.51253117249E-14},{-.15,2.7432960384E-14},{-.1,1.45001424478E-14},{-.05,5.77711059929E-15},{0,1.65961724924E-15},
   {.05,5.66125094524E-15},{.1,1.48682264387E-14},{.15,2.78353928357E-14},{.2,4.54544851674E-14}}},
 {"Y44",1,{-2.96928810954E-5,1.374002439229E-5,-3.69653059651E-6,4.073840018023E-8},
  {{1.82531979063E-15,-9.5531620091E-16,1.06726755866E-14},{Residual->1.07804427112E-16}},
  {{-.6,6.22883892413E-15},{-.4,3.99985666545E-15},{-.2,2.40346795015E-15},{1.11022302463E-16,1.65961724924E-15},
   {.2,2.12688779001E-15},{.4,3.32286029886E-15},{.6,4.98910631354E-15}}},
 {"AY",1,{-2.9685301725E-5,1.367404536022E-5,-3.68277830949E-6,5.627659068503E-7},
  {{1.06535304458E-14,-1.304444929E-13,2.26425145671E-13},{Residual->1.02066654625E-14}},
  {{-.1,1.35242629805E-14},{-.07,4.19923545414E-14},{-.04,1.75150335647E-14},{-.01,3.43765629796E-15},{.02,1.66269580474E-15},
   {.05,7.2821878255E-15},{.08,4.15604788209E-15}}},
 {"EY",1,{-2.95802289857E-5,1.371421022233E-5,-3.63325651693E-6,5.555940490413E-7},
  {{3.21209296701E-13,4.40327782155E-14,7.97993283972E-13},{Residual->7.48804239028E-15}},
  {{-.1,3.283202838E-13},{-.07,3.09237228538E-13},{-.04,3.34418844319E-13},{-.01,3.18681111005E-13},{.02,3.21732130943E-13},
   {.05,3.21280361269E-13},{.08,3.32380848615E-13}}},
 {"R32",1,{-2.96387078351E-5,1.37379568707E-5,-3.58463465063E-6,5.525738949055E-7},
  {{3.01968968659E-13,-3.2354299334E-13,2.03360917047E-12},{Residual->7.93224741229E-15}},
  {{-.1,3.58687213366E-13},{-.07,3.21001060091E-13},{-.04,3.31897438879E-13},{-.01,3.02562415204E-13},{.02,2.97837955822E-13},
   {.05,2.85163058024E-13},{.08,2.91952126275E-13}}},
 {"Y24",1,{-2.96187152339E-5,1.373959228674E-5,-3.58316434098E-6,5.49385004607E-7},
  {{3.05393162991E-13,-1.0880183231E-14,-3.2609596651E-15},{Residual->3.6847631569E-17}},
  {{-.3,3.08335594691E-13},{-.2,3.07504344612E-13},{-.1,3.06433525335E-13},{5.55111512313E-17,3.05337909331E-13},
   {.1,3.04294794226E-13},{.2,3.03109020749E-13},{.3,3.01823883287E-13}}},
 {"Y46",1,{-2.95800397954E-5,1.37256412371E-5,-3.58458944413E-6,5.073360231773E-7},
  {{3.01769726964E-13,9.88667812317E-14,2.53026226784E-16},{Residual->8.94936810281E-17}},
  {{-.45,2.57389840413E-13},{-.3,2.71999246159E-13},{-.15,2.87012066257E-13},{-5.5511151231E-17,3.01823883287E-13},
   {.15,3.16491268014E-13},{.3,3.31564280449E-13},{.45,3.46266910692E-13}}},
 {"Y22",1,{-3.24962147044E-5,1.61372759391E-5,-3.57870496486E-6,4.718318580296E-7},
  {{2.57291049754E-13,5.50124004608E-14,5.24750449658E-15},{Residual->8.25727069011E-16}},
  {{-.6,2.25260715247E-13},{-.4,2.37084933589E-13},{-.2,2.47313967054E-13},{1.11022302463E-16,2.57389840413E-13},
   {.2,2.67401579524E-13},{.4,2.79456709436E-13},{.6,2.93006808052E-13}}},
 {"Y26",1,{-3.25674562597E-5,1.620143049877E-5,-3.6606386677E-6,4.626059212149E-7},
  {{2.22987877086E-13,5.86306154947E-14,1.30709520804E-13},{Residual->1.37658114768E-15}},
  {{-.3,2.15750121174E-13},{-.2,2.19168146305E-13},{-.1,2.17932999323E-13},{5.55111512313E-17,2.22625302252E-13},
   {.1,2.28645534047E-13},{.2,2.41135262181E-13},{.3,2.52256440144E-13}}},
 {"Y66",1,{-3.19439960737E-5,1.549443259653E-5,-3.43735464986E-6,4.493196064294E-7},
  {{2.17354364881E-13,2.39166936994E-13,8.40489275225E-13},{Residual->1.80836630291E-15}},
  {{-.2,2.01888108722E-13},{-.15,2.02141563628E-13},{-.1,2.02318105662E-13},{-.05,2.08087630116E-13},{0,2.14004238343E-13},
   {.05,2.33199340001E-13}}},
 {"Y44",1,{-3.21089900593E-5,1.562034274741E-5,-3.5021317498E-6,4.416591312812E-7},
  {{2.03756749504E-13,-1.3510006069E-14,-2.5462858637E-15},{Residual->1.02810835349E-15}},
  {{-.6,2.10602194329E-13},{-.4,2.08945160468E-13},{-.2,2.0763290225E-13},{1.11022302463E-16,2.01888108722E-13},
   {.2,2.02143097242E-13},{.4,1.97171155106E-13},{.6,1.95062788244E-13}}},
 {"AY",1,{-3.20780387454E-5,1.566208220855E-5,-3.51980285484E-6,4.403199483349E-7},
  {{1.94529331168E-13,1.85692031882E-13,3.00268489777E-12},{Residual->3.43818469389E-15}},
  {{-.1,2.06508376301E-13},{-.07,1.92810788102E-13},{-.04,1.95065440264E-13},{-.01,1.95369230878E-13},{.02,1.99809202139E-13},
   {.05,2.04800987618E-13},{.08,2.32112389498E-13}}},
 {"EY",1,{-3.20591221282E-5,1.561274595746E-5,-3.61950688947E-6,4.28062807645E-7},
  {{1.91951448039E-13,-1.8438310664E-13,8.21082115892E-13},{Residual->1.57343693873E-15}},
  {{-.1,2.19640164508E-13},{-.07,2.06083591992E-13},{-.04,2.02926300949E-13},{-.01,1.93076613994E-13},{.02,1.89665744271E-13},
   {.05,1.83649449413E-13},{.08,1.82791115411E-13}}},
 {"R32",1,{-3.20557838692E-5,1.562658093857E-5,-3.61796337122E-6,4.266575091169E-7},
  {{1.85201305841E-13,-4.0954550692E-14,4.80357439509E-13},{Residual->1.75905835663E-15}},
  {{-.1,1.92488729509E-13},{-.07,1.93659978325E-13},{-.04,1.87220755208E-13},{-.01,1.84083375669E-13},{.02,1.83417781593E-13},
   {.05,1.86422499224E-13},{.08,1.84424097592E-13}}},
 {"Y24",1,{-3.21064916668E-5,1.564446887297E-5,-3.62160792802E-6,4.22553824922E-7},
  {{1.81910457334E-13,5.27277079274E-15,3.84066924652E-15},{Residual->2.55422354954E-16}},
  {{-.3,1.80510405129E-13},{-.2,1.81241723504E-13},{-.1,1.8146769331E-13},{5.55111512313E-17,1.82036630086E-13},
   {.1,1.81957267063E-13},{.2,1.83415762035E-13},{.3,1.83819107597E-13}}},
 {"Y46",1,{-3.21293006307E-5,1.564134437042E-5,-3.61706911527E-6,4.160988990704E-7},
  {{1.79074089902E-13,-1.1126741114E-14,3.67854653756E-15},{Residual->1.314973501E-15}},
  {{-.45,1.85767203571E-13},{-.3,1.81899451625E-13},{-.15,1.80108087388E-13},{-5.5511151231E-17,1.78551734956E-13},
   {.15,1.77681277316E-13},{.3,1.78690064968E-13},{.45,1.73138293808E-13}}},
 {"Y22",1,{-3.0216687297E-5,1.39629584484E-5,-3.64958694393E-6,2.209529115357E-7},
  {{1.74895137606E-13,-7.0381171065E-14,1.00104859391E-14},{Residual->1.22131685643E-15}},
  {{-.6,2.19441438577E-13},{-.4,2.06159126814E-13},{-.2,1.9104275123E-13},{1.11022302463E-16,1.73138293808E-13},
   {.2,1.60658313164E-13},{.4,1.48220902245E-13},{.6,1.36816881656E-13}}},
 {"Y26",1,{-3.00717720404E-5,1.389722881529E-5,-3.5176217143E-6,1.635708463711E-7},
  {{5.09881903771E-14,-2.3910921289E-13,5.58842221453E-13},{Residual->2.47935524606E-15}},
  {{-.3,1.73913312324E-13},{-.2,1.2201235453E-13},{-.1,7.7456343255E-14},{5.55111512313E-17,4.88201891135E-14},
   {.1,3.54221394318E-14},{.2,2.90133942091E-14},{.3,2.67554217826E-14}}},
 {"Y66",1,{-2.98473772712E-5,1.381975193374E-5,-3.45538017241E-6,1.367986070405E-7},
  {{2.06410534262E-14,2.27971273575E-13,2.04260951226E-12},{Residual->6.53338975633E-15}},
  {{-.2,5.18112224916E-14},{-.15,3.45828753162E-14},{-.1,1.99559092933E-14},{-.05,1.87138588882E-14},{0,2.67554217826E-14},
   {.05,3.62389292689E-14},{.1,5.35269364714E-14},{.15,9.20628047516E-14},{.2,1.58512949412E-13}}},
 {"Y44",1,{-2.96453830168E-5,1.376150489397E-5,-3.3862585364E-6,1.308918858537E-7},
  {{1.89901276562E-14,6.37636432273E-15,5.07791086234E-15},{Residual->3.21717299853E-16}},
  {{-.6,1.71326857823E-14},{-.4,1.73179391553E-14},{-.2,1.75330099672E-14},{1.11022302463E-16,1.87138588866E-14},
   {.2,2.08432437761E-14},{.4,2.28009065193E-14},{.6,2.42765096724E-14}}}}
