FD	 1.050536E-5	 1.921379E-7	
EX2	 1.046362E-5	 3.982971E-7	
FD	 1.047119E-5	 3.744866E-7	
AY	 1.047215E-5	 3.734727E-7	
EY	 1.049165E-5	 1.591390E-7	
R32	 1.047115E-5	 6.546831E-8	
AY	 1.047085E-5	 6.617846E-8	
EY	 1.046748E-5	 4.309363E-8	
R32	 1.047076E-5	 3.914456E-8	
AY	 1.047070E-5	 3.901461E-8	
EY	 1.047055E-5	 3.866967E-8	
R32	 1.047070E-5	 3.852234E-8	
AY	 1.047070E-5	 3.851176E-8	
EY	 1.047068E-5	 3.855400E-8	
R32	 1.047068E-5	 3.854487E-8	
Y24	 1.046967E-5	 3.823244E-8	
Y46	 1.047916E-5	 3.442315E-8	
Y22	 1.047916E-5	 3.442315E-8	
Y26	 1.047916E-5	 3.442315E-8	
Y66	 1.047916E-5	 3.442315E-8	
Y44	 1.047916E-5	 3.442315E-8	
AY	 1.047983E-5	 3.339224E-8	
EY	 1.047945E-5	 3.215585E-8	
R32	 1.048037E-5	 3.164360E-8	
Y24	 1.047993E-5	 3.107939E-8	
Y46	 1.048311E-5	 3.080216E-8	
Y22	 1.048311E-5	 3.080216E-8	
Y26	 1.048396E-5	 2.993523E-8	
Y66	 1.048396E-5	 2.993523E-8	
Y44	 1.048396E-5	 2.993523E-8	
AY	 1.048425E-5	 2.964913E-8	
EY	 1.048397E-5	 2.872727E-8	
R32	 1.048489E-5	 2.801809E-8	
Y24	 1.048460E-5	 2.766595E-8	
Y46	 1.048651E-5	 2.747431E-8	
Y22	 1.048651E-5	 2.747431E-8	
Y26	 1.048693E-5	 2.664973E-8	
Y66	 1.048693E-5	 2.664973E-8	
Y44	 1.048693E-5	 2.664973E-8	
AY	 1.048708E-5	 2.654821E-8	
EY	 1.048709E-5	 2.617621E-8	
R32	 1.048722E-5	 2.587735E-8	
Y24	 1.048700E-5	 2.577714E-8	
Y46	 1.048820E-5	 2.571259E-8	
Y22	 1.048820E-5	 2.571259E-8	
Y26	 1.048906E-5	 2.516884E-8	
Y66	 1.048836E-5	 2.462820E-8	
Y44	 1.048836E-5	 2.462820E-8	
