FD	 2.490489E-6	 3.572193E-7	
EX2	 2.128323E-6	 5.563054E-7	
FD	 2.132688E-6	 5.462635E-7	
AY	 2.142594E-6	 5.464766E-7	
EY	 2.143661E-6	 5.396820E-7	
R32	 2.143362E-6	 4.504198E-7	
AY	 2.145795E-6	 4.504614E-7	
EY	 2.143960E-6	 3.624456E-7	
R32	 2.145740E-6	 3.039466E-7	
AY	 2.148449E-6	 3.039953E-7	
EY	 2.145589E-6	 2.453191E-7	
R32	 2.148314E-6	 2.084201E-7	
AY	 2.151155E-6	 2.083969E-7	
EY	 2.149450E-6	 1.688261E-7	
R32	 2.150805E-6	 1.445247E-7	
AY	 2.152674E-6	 1.446641E-7	
EY	 2.151671E-6	 1.179620E-7	
R32	 2.152466E-6	 1.022895E-7	
AY	 2.153795E-6	 1.023335E-7	
EY	 2.152813E-6	 8.453221E-8	
R32	 2.153689E-6	 7.458985E-8	
Y24	 2.154286E-6	 7.407397E-8	
Y46	 2.474096E-6	 6.890377E-8	
Y22	 2.474096E-6	 6.890377E-8	
Y26	 2.474096E-6	 6.890377E-8	
Y66	 2.474096E-6	 6.890377E-8	
Y44	 2.474096E-6	 6.890377E-8	
AY	 2.473459E-6	 6.895269E-8	
EY	 2.471528E-6	 5.248481E-8	
R32	 2.472373E-6	 5.015398E-8	
Y24	 2.446275E-6	 4.856951E-8	
Y46	 2.503391E-6	 4.843762E-8	
Y22	 2.503391E-6	 4.843762E-8	
Y26	 2.503391E-6	 4.843762E-8	
Y66	 2.503391E-6	 4.843762E-8	
Y44	 2.503391E-6	 4.843762E-8	
AY	 2.504434E-6	 4.825786E-8	
EY	 2.504257E-6	 4.692537E-8	
R32	 2.504461E-6	 4.563015E-8	
Y24	 2.490280E-6	 4.514800E-8	
Y46	 2.490280E-6	 4.514800E-8	
Y22	 2.490280E-6	 4.514800E-8	
Y26	 2.490280E-6	 4.514800E-8	
Y66	 2.490280E-6	 4.514800E-8	
Y44	 2.490280E-6	 4.514800E-8	
