FD	 -7.93980E-6	 8.617644E-6	 -4.54126E-7	 3.709815E-7	
EX2	 -5.18506E-5	 6.905302E-6	 -5.66893E-7	 6.180518E-7	
FD	 -5.18301E-5	 6.902050E-6	 -4.74904E-7	 3.659124E-7	
AY	 7.839328E-7	 7.387574E-6	 4.262617E-8	 4.316083E-7	
EY	 6.792859E-7	 7.368277E-6	 4.732748E-8	 3.443162E-7	
R32	 7.021499E-7	 7.328406E-6	 2.625466E-8	 6.161316E-8	
AY	 6.823732E-7	 7.348358E-6	 2.500195E-8	 5.926651E-8	
EY	 7.973884E-7	 7.378073E-6	 3.021817E-8	 3.910144E-8	
R32	 7.275335E-7	 7.328173E-6	 1.911563E-8	 3.882632E-8	
AY	 8.564113E-7	 7.356551E-6	 1.887690E-8	 3.877895E-8	
EY	 6.016230E-7	 7.407386E-6	 2.209488E-8	 3.904710E-8	
R32	 7.623790E-7	 7.377599E-6	 2.609325E-8	 3.875468E-8	
AY	 9.481296E-7	 7.354879E-6	 2.001170E-8	 3.890877E-8	
EY	 6.505936E-7	 7.393784E-6	 2.705997E-8	 3.926048E-8	
R32	 5.233854E-7	 7.404854E-6	 2.574198E-8	 3.853030E-8	
Y24	 7.710357E-7	 7.350887E-6	 2.295531E-8	 3.868252E-8	
Y46	 8.683057E-7	 7.312487E-6	 2.286310E-8	 3.794519E-8	
Y22	 8.610199E-7	 7.311582E-6	 1.614262E-8	 3.792331E-8	
Y26	 8.540564E-7	 7.272666E-6	 2.715683E-8	 3.775605E-8	
Y66	 6.521472E-7	 7.304999E-6	 2.002921E-8	 3.777008E-8	
Y44	 6.554809E-7	 7.343008E-6	 2.946376E-8	 3.792997E-8	
AY	 8.053743E-7	 7.324512E-6	 2.224485E-8	 3.787700E-8	
EY	 6.669331E-7	 7.336743E-6	 2.575107E-8	 3.751037E-8	
R32	 9.299008E-7	 7.348614E-6	 2.434923E-8	 3.753621E-8	
Y24	 6.772487E-7	 7.353256E-6	 3.175010E-8	 3.782537E-8	
Y46	 6.502430E-7	 7.367730E-6	 2.572744E-8	 3.783681E-8	
Y22	 7.575560E-7	 7.353500E-6	 2.675371E-8	 3.789280E-8	
Y26	 5.600428E-7	 7.354337E-6	 2.143100E-8	 3.773841E-8	
Y66	 8.042557E-7	 7.362663E-6	 2.436719E-8	 3.787600E-8	
Y44	 8.226091E-7	 7.342034E-6	 2.378898E-8	 3.763234E-8	
AY	 8.085610E-7	 7.361338E-6	 2.173372E-8	 3.772479E-8	
EY	 7.788837E-7	 7.330025E-6	 3.368143E-8	 3.775709E-8	
R32	 8.759016E-7	 7.302170E-6	 2.444682E-8	 3.760173E-8	
Y24	 6.476927E-7	 7.312246E-6	 2.156449E-8	 3.757693E-8	
Y46	 9.413457E-7	 7.273041E-6	 1.660525E-8	 3.748283E-8	
Y22	 6.486026E-7	 7.278630E-6	 2.982277E-8	 3.747706E-8	
Y26	 8.227737E-7	 7.310746E-6	 2.940091E-8	 3.749506E-8	
Y66	 6.249492E-7	 7.319080E-6	 2.626173E-8	 3.748091E-8	
Y44	 7.028476E-7	 7.298417E-6	 2.537427E-8	 3.742642E-8	
AY	 7.479850E-7	 7.294479E-6	 1.810681E-8	 3.737514E-8	
EY	 6.467827E-7	 7.262827E-6	 2.105509E-8	 3.803852E-8	
R32	 5.259060E-7	 7.266158E-6	 2.451140E-8	 3.777619E-8	
Y24	 6.282942E-7	 7.245678E-6	 2.397547E-8	 3.800142E-8	
Y46	 5.664996E-7	 7.231612E-6	 2.033325E-8	 3.794975E-8	
Y22	 9.068985E-7	 7.253226E-6	 1.798919E-8	 3.799428E-8	
Y26	 8.731313E-7	 7.259806E-6	 2.008895E-8	 3.805732E-8	
Y66	 9.227749E-7	 7.239523E-6	 3.035700E-8	 3.793056E-8	
Y44	 5.334764E-7	 7.252694E-6	 2.334487E-8	 3.789863E-8	
OCT1	 7.461353E-7	 7.268444E-6	 2.542164E-8	 3.784143E-8	
OCT2	 7.382685E-7	 7.253182E-6	 2.798533E-8	 3.763070E-8	
