{{"FD",1,{5.310827881774E-6,6.966774268363E-6,5.403148594233E-7,2.200221585529E-7}},
 {"EX2",1,{5.243007194064E-6,6.91579873607E-6,6.832428773268E-7,2.372843007395E-7}},
 {"FD",1,{5.2365968523E-6,6.915314410861E-6,7.020736472052E-7,2.191595795438E-7}},
 {"AY",1,{5.037939153402E-6,6.852406113828E-6,3.904610776396E-7,1.702119983098E-7},
  {{3.38432607143E-14,-2.9822659508E-14,1.11857231944E-12},{Residual->1.38640544818E-14}},
  {{-.5,3.11346048939E-13},{-.35,2.10768463039E-13},{-.2,8.20608222248E-14},{-.05,3.13380406868E-14},{.1,3.8516945567E-14},
   {.25,8.86946311751E-14},{.4,2.08891381034E-13}}},
 {"EY",1,{5.036574054857E-6,6.852148128458E-6,4.007341684412E-7,1.691885994909E-7},
  {{3.24315970685E-14,-8.1926612619E-15,2.82905156191E-13},{Residual->9.58142959863E-15}},
  {{-.5,1.09219830741E-13},{-.35,7.05347440888E-14},{-.2,4.4570833007E-14},{-.05,2.39329029132E-14},{.1,3.28986188334E-14},
   {.25,6.85664582374E-14},{.4,6.33463117336E-14}}},
 {"R32",1,{4.898274832763E-6,6.861726540105E-6,3.403111007503E-7,4.646825716002E-8},
  {{3.05991406476E-14,-3.9996037212E-13,1.30300295932E-12},{Residual->1.32000873763E-14}},
  {{-.5,5.57177737783E-13},{-.35,3.41996701771E-13},{-.2,1.35092836111E-13},{-.05,6.54116584569E-14},{.1,4.02238934515E-15},
   {.25,2.30173645907E-14},{.4,7.11558428797E-14}}},
 {"AY",1,{4.928885598221E-6,6.862916409173E-6,3.36833690768E-7,4.643947518659E-8},
  {{5.23378877909E-16,5.17924587149E-15,1.23658164169E-12},{Residual->2.84659817939E-15}},
  {{-.5,3.07089951346E-13},{-.35,1.47038757239E-13},{-.2,5.48961552923E-14},{-.05,2.88253076112E-15},{.1,1.05245723434E-14},
   {.25,7.82091917002E-14},{.4,2.01896370404E-13}}},
 {"EY",1,{4.964002219071E-6,6.862026924314E-6,3.894948301785E-7,5.135202484337E-8},
  {{3.46391943447E-16,-2.7447404126E-14,2.84266144448E-13},{Residual->2.19045170436E-15}},
  {{-.5,8.78438417598E-14},{-.35,4.01633848621E-14},{-.2,1.76247681188E-14},{-.05,2.80278508248E-15},{.1,2.32858041444E-15},
   {.25,1.15073053133E-14},{.4,3.38229980276E-14}}},
 {"R32",1,{4.973731001921E-6,6.861325219181E-6,3.910093614426E-7,4.601218826457E-8},
  {{7.08350549498E-15,1.9107431958E-14,1.26230064089E-12},{Residual->8.47357554976E-15}},
  {{-.5,3.10135979408E-13},{-.35,1.6432380219E-13},{-.2,5.01851411592E-14},{-.05,1.4816399977E-15},{.1,1.80112743374E-14},
   {.25,1.0698194102E-13},{.4,2.09116824145E-13}}},
 {"AY",1,{5.003844693485E-6,6.872781819674E-6,3.841850789619E-7,4.852314390399E-8},
  {{2.57604010584E-15,-4.2013186967E-15,1.11450353535E-12},{Residual->2.38317333976E-15}},
  {{-.3,1.0257987216E-13},{-.2,5.18125577948E-14},{-.1,1.22471971199E-14},{5.55111512313E-17,2.21193010907E-15},
   {.1,1.1024435523E-14},{.2,4.98280324799E-14},{.3,1.00389245452E-13}}},
 {"EY",1,{4.988550713347E-6,6.872747139629E-6,3.875978022798E-7,4.884806885133E-8},
  {{3.49172866614E-15,2.45326646533E-15,2.49119346416E-13},{Residual->1.93631841057E-15}},
  {{-.5,6.29828738506E-14},{-.35,3.71395904566E-14},{-.2,1.07767945317E-14},{-.05,2.66925312413E-15},{.1,6.86743035056E-15},
   {.25,2.05461153677E-14},{.4,4.39061765234E-14}}},
 {"R32",1,{5.001729481343E-6,6.869579484909E-6,3.932994278737E-7,4.468731809031E-8},
  {{-5.6860434657E-15,6.59004153967E-14,1.41297160876E-12},{Residual->7.61978850942E-15}},
  {{-.5,3.07595539059E-13},{-.35,1.568197706E-13},{-.2,3.17068347788E-14},{-.05,1.79079820264E-15},{.1,9.3381377722E-15},
   {.25,9.22132354664E-14},{.4,2.52567351146E-13}}},
 {"AY",1,{4.988652100552E-6,6.89000783524E-6,3.999566807147E-7,4.276735713052E-8},
  {{6.70333494862E-15,-4.5707179997E-14,1.01755705032E-12},{Residual->4.12248443936E-15}},
  {{-.3,1.07728624055E-13},{-.2,6.44388249024E-14},{-.1,2.16956366602E-14},{5.55111512313E-17,1.84088857506E-15},
   {.1,1.05067192129E-14},{.2,4.16135405413E-14},{.3,8.40150847816E-14}}},
 {"EY",1,{4.992272361897E-6,6.889691963998E-6,3.889088161221E-7,4.802516923076E-8},
  {{2.90553963009E-15,2.95803555204E-15,2.33574233738E-13},{Residual->1.04895046522E-15}},
  {{-.3,2.21771604548E-14},{-.2,1.35034267838E-14},{-.1,4.39064485829E-15},{5.55111512313E-17,2.51250050289E-15},
   {.1,4.51969827329E-15},{.2,1.42166148898E-14},{.3,2.44195170944E-14}}},
 {"R32",1,{4.967795855571E-6,6.895294316098E-6,3.677295362217E-7,4.372882609273E-8},
  {{7.47547290875E-16,-7.398872335E-14,1.32559758733E-12},{Residual->5.31558769346E-15}},
  {{-.3,1.38137552786E-13},{-.2,7.44801895501E-14},{-.1,2.10805792773E-14},{5.55111512313E-17,1.50002727271E-15},
   {.1,8.82408280977E-15},{.2,2.86720628373E-14},{.3,1.03705660957E-13}}},
 {"Y24",1,{4.952624093785E-6,6.88644268172E-6,3.683493728171E-7,4.345710795443E-8},
  {{1.97425734396E-15,-1.8786246264E-16,1.14921171317E-15},{Residual->6.0186550607E-17}},
  {{-1.5,4.76090548619E-15},{-1.2,3.87878610792E-15},{-.9,3.1590727505E-15},{-.6,2.57317097053E-15},{-.3,2.14186119822E-15},
   {0,1.91221023145E-15},{.3,1.92573232598E-15},{.6,2.24185113149E-15},{.9,2.78139930975E-15},{1.2,3.46318669152E-15},
   {1.5,4.25585054041E-15}}},
 {"Y46",1,{5.034186461127E-6,6.927266191761E-6,3.699653727116E-7,4.305166902726E-8},
  {{1.98904606072E-15,6.94435888058E-16,2.74794045791E-15},{Residual->6.7805122235E-17}},
  {{-1,3.96132448871E-15},{-.8,3.2577943429E-15},{-.6,2.65998229255E-15},{-.4,2.18088618727E-15},{-.2,1.89311963349E-15},
   {0,1.88852023176E-15},{.2,2.19355367208E-15},{.4,2.74315373824E-15},{.6,3.47108305429E-15},{.8,4.34801728081E-15},
   {1,5.37300976068E-15}}},
 {"Y22",1,{5.034186461127E-6,6.927266191761E-6,3.699653727114E-7,4.305166902725E-8},
  {{4.50413569052E-15,3.9642117612E-15,5.21085579607E-14},{Residual->1.42203379984E-15}},
  {{-.6,1.981785201E-14},{-.4,1.31291352822E-14},{-.2,6.63347605994E-15},{1.11022302463E-16,1.85344620603E-15},
   {.2,7.57575851598E-15},{.4,1.56734700255E-14},{.6,2.520739665E-14}}},
 {"Y26",1,{5.034186461127E-6,6.927266191761E-6,3.699653727114E-7,4.305166902725E-8},
  {{3.25712182605E-15,-2.4799178084E-15,4.91525312907E-14},{Residual->6.99857480234E-16}},
  {{-.6,2.20744096448E-14},{-.4,1.28634348159E-14},{-.2,6.0140533756E-15},{1.11022302463E-16,1.85344620603E-15},
   {.2,5.15338932187E-15},{.4,1.07526404978E-14},{.6,1.91393139658E-14}}},
 {"Y66",1,{5.034186461127E-6,6.927266191761E-6,3.699653727114E-7,4.305166902725E-8},
  {{7.45145929083E-15,1.14168827796E-14,1.52790134765E-12},{Residual->2.49368320678E-15}},
  {{-.2,6.45519987277E-14},{-.15,4.188641042E-14},{-.1,2.42116559566E-14},{-.05,1.10305114249E-14},{0,1.85344620603E-15},
   {.05,1.17328620218E-14},{.1,2.64794166981E-14},{.15,4.51281348077E-14},{.2,6.93738995017E-14}}},
 {"Y44",1,{5.034186461127E-6,6.927266191761E-6,3.699653727114E-7,4.305166902725E-8},
  {{2.8441166178E-15,5.95384776528E-16,2.23299915082E-14},{Residual->5.27365655536E-16}},
  {{-.6,1.02242676656E-14},{-.4,6.74553803683E-15},{-.2,3.90933203751E-15},{1.11022302463E-16,1.85344620603E-15},
   {.2,3.93530673612E-15},{.4,7.27948927482E-15},{.6,1.09710268569E-14}}},
 {"AY",1,{5.035247433835E-6,6.939903439161E-6,3.676859182603E-7,4.262701994119E-8},
  {{1.97565434483E-15,3.62695231773E-15,1.17184266275E-12},{Residual->6.3069622861E-16}},
  {{-.1,1.30400675556E-14},{-.07,8.08465762222E-15},{-.04,3.30478176931E-15},{-.01,1.9756172679E-15},{.02,3.32540622866E-15},
   {.05,3.95908815485E-15},{.08,1.02368001183E-14}}},
 {"EY",1,{5.025162509519E-6,6.941579173635E-6,3.6875289054E-7,5.644135451709E-8},
  {{1.81917641093E-15,1.22381498982E-15,4.38312927666E-13},{Residual->3.79819655542E-16}},
  {{-.1,6.04382388925E-15},{-.07,3.71178844102E-15},{-.04,2.69105448417E-15},{-.01,2.13168130418E-15},{.02,2.09510985153E-15},
   {.05,2.16690346178E-15},{.08,5.16051122183E-15}}},
 {"R32",1,{5.060675329742E-6,6.937680694202E-6,3.720884079546E-7,4.650462329744E-8},
  {{1.89276776292E-15,1.37143799621E-13,2.05184837801E-12},{Residual->1.27709382412E-15}},
  {{-.1,8.09061787452E-15},{-.07,2.11565325474E-15},{-.04,1.43351399251E-15},{-.01,1.74381043452E-15},{.02,3.34811222573E-15},
   {.05,1.28631198959E-14},{.08,2.71973536796E-14}}},
 {"Y24",1,{5.102632624937E-6,6.963165046471E-6,3.712210812435E-7,4.597986208475E-8},
  {{2.15986819591E-15,3.75365610496E-16,8.45572492922E-16},{Residual->2.55533555191E-18}},
  {{-.3,2.12626808317E-15},{-.2,2.11505998817E-15},{-.1,2.1279360537E-15},{5.55111512313E-17,2.16267998804E-15},
   {.1,2.20649210501E-15},{.2,2.27081247003E-15},{.3,2.3465889813E-15}}},
 {"Y46",1,{5.102632624937E-6,6.963165046471E-6,3.712210812435E-7,4.597986208475E-8},
  {{2.11840113845E-15,-4.0738684102E-16,1.86591668682E-15},{Residual->2.09615508043E-17}},
  {{-.45,2.6994525264E-15},{-.3,2.39323460488E-15},{-.15,2.19432168304E-15},{-5.5511151231E-17,2.11414771733E-15},
   {.15,2.13002331397E-15},{.3,2.18136648295E-15},{.45,2.29178915329E-15}}},
 {"Y22",1,{5.102632624937E-6,6.963165046471E-6,3.712210812435E-7,4.597986208475E-8},
  {{4.30266975613E-15,3.39988344751E-15,5.0693517582E-14},{Residual->1.12366732904E-15}},
  {{-.6,1.98138199115E-14},{-.4,1.21724487045E-14},{-.2,6.60692948632E-15},{1.11022302463E-16,2.11414771733E-15},
   {.2,7.12807540795E-15},{.4,1.4875461743E-14},{.6,2.4184545014E-14}}},
 {"Y26",1,{5.103633651374E-6,6.963354857158E-6,3.789080524522E-7,4.513955295665E-8},
  {{2.43615275617E-15,-2.2769974414E-15,6.65664161814E-14},{Residual->2.03025437812E-16}},
  {{-.3,8.92448646051E-15},{-.2,5.87008259508E-15},{-.1,3.43815354919E-15},{5.55111512313E-17,2.11414771733E-15},
   {.1,2.8157187E-15},{.2,4.82676382054E-15},{.3,7.70231298134E-15}}},
 {"Y66",1,{5.103633651374E-6,6.963354857158E-6,3.789080524522E-7,4.513955295665E-8},
  {{7.419009781E-15,-2.91344408E-15,1.51193084561E-12},{Residual->2.56204241011E-15}},
  {{-.2,6.64135026335E-14},{-.15,4.40911421902E-14},{-.1,2.56981190157E-14},{-.05,1.12644932933E-14},{0,2.03757924113E-15},
   {.05,1.08436597251E-14},{.1,2.42193113426E-14},{.15,4.34060759395E-14},{.2,6.55868314902E-14}}},
 {"Y44",1,{5.103633651371E-6,6.963354857136E-6,3.789080524522E-7,4.513955295666E-8},
  {{2.88750763777E-15,1.0145292024E-16,2.20821781385E-14},{Residual->4.76613124511E-16}},
  {{-.6,1.05153581691E-14},{-.4,6.8979148891E-15},{-.2,3.96078296767E-15},{1.11022302463E-16,2.03757924113E-15},
   {.2,3.813726329E-15},{.4,7.10059687261E-15},{.6,1.06186345108E-14}}},
 {"AY",1,{5.095730088945E-6,6.962285184568E-6,3.841129721744E-7,4.610117091374E-8},
  {{2.25357200898E-15,1.26478114198E-14,9.02953976591E-13},{Residual->1.59324098864E-15}},
  {{-.1,8.18814993702E-15},{-.07,9.28783563098E-15},{-.04,2.14054007012E-15},{-.01,2.0498062172E-15},{.02,2.18288519895E-15},
   {.05,4.72853387869E-15},{.08,9.69841432423E-15}}},
 {"EY",1,{5.102491328114E-6,6.963858201513E-6,3.893868145665E-7,4.115383496101E-8},
  {{2.06919701378E-15,-2.0378206809E-15,5.04246699294E-13},{Residual->5.9103660039E-16}},
  {{-.1,7.22006566074E-15},{-.07,4.24077631987E-15},{-.04,3.96893494133E-15},{-.01,2.10988935978E-15},{.02,2.10136447534E-15},
   {.05,2.31174972834E-15},{.08,5.7342355704E-15}}},
 {"R32",1,{5.099816611673E-6,6.963271416958E-6,3.850903739629E-7,4.32872279677E-8},
  {{1.17651088667E-15,-1.5478532065E-14,1.25039087673E-12},{Residual->2.48699656415E-15}},
  {{-.1,1.82022991299E-14},{-.07,4.16498916536E-15},{-.04,3.07226857903E-15},{-.01,1.66602954161E-15},{.02,2.69101639117E-15},
   {.05,6.41318880984E-15},{.08,5.49440554164E-15}}},
 {"Y24",1,{5.061108145605E-6,6.939923798606E-6,3.85902764411E-7,4.219832975651E-8},
  {{1.87054398075E-15,-6.4910400024E-16,1.17410345026E-15},{Residual->3.71196373723E-18}},
  {{-.3,2.16926238691E-15},{-.2,2.0474111691E-15},{-.1,1.94999892708E-15},{5.55111512313E-17,1.87378410513E-15},
   {.1,1.81524223486E-15},{.2,1.78069903424E-15},{.3,1.786158974E-15}}},
 {"Y46",1,{4.945078634917E-6,6.882625856863E-6,3.832362716834E-7,4.082048483571E-8},
  {{1.78823169326E-15,-1.1124250412E-15,3.08785865649E-15},{Residual->1.82797904119E-17}},
  {{-.45,2.89296780341E-15},{-.3,2.42255996555E-15},{-.15,2.04661174894E-15},{-5.5511151231E-17,1.78069903424E-15},
   {.15,1.67146909251E-15},{.3,1.71901466075E-15},{.45,1.929650501E-15}}},
 {"Y22",1,{4.94507863491E-6,6.88262585684E-6,3.832362716834E-7,4.082048483571E-8},
  {{4.16680128641E-15,4.69372251337E-15,5.26286916613E-14},{Residual->1.25589113837E-15}},
  {{-.6,1.94846985636E-14},{-.4,1.20492125822E-14},{-.2,6.32640730493E-15},{1.11022302463E-16,1.66631198222E-15},
   {.2,7.54282107887E-15},{.4,1.55059233049E-14},{.6,2.55363688488E-14}}},
 {"Y26",1,{4.945078634924E-6,6.88262585684E-6,3.832362716834E-7,4.082048483571E-8},
  {{2.28941024162E-15,-1.1819347115E-15,6.80224042581E-14},{Residual->3.5603899915E-16}},
  {{-.3,8.70127102338E-15},{-.2,5.54096765251E-15},{-.1,3.0243913405E-15},{5.55111512313E-17,1.66631198222E-15},
   {.1,3.12965132128E-15},{.2,5.2575834889E-15},{.3,7.75196807483E-15}}},
 {"Y66",1,{4.945078634924E-6,6.88262585684E-6,3.832362716834E-7,4.082048483571E-8},
  {{7.65144817477E-15,6.66648623712E-16,1.52466064642E-12},{Residual->2.8828134617E-15}},
  {{-.2,6.67818813193E-14},{-.15,4.40270112106E-14},{-.1,2.52750772268E-14},{-.05,1.14500881044E-14},{0,1.66631198222E-15},
   {.05,1.11069073809E-14},{.1,2.58355441523E-14},{.15,4.52464849871E-14},{.2,6.61728241728E-14}}},
 {"Y44",1,{4.945072367812E-6,6.882632096525E-6,3.831159405797E-7,4.079048706408E-8},
  {{2.74446414055E-15,-1.5993610674E-17,2.2851232655E-14},{Residual->5.60175598719E-16}},
  {{-.6,1.06087325542E-14},{-.4,7.0472931862E-15},{-.2,4.0478497345E-15},{1.11022302463E-16,1.66631198224E-15},
   {.2,3.7471746684E-15},{.4,6.92990741441E-15},{.6,1.07573600175E-14}}},
 {"AY",1,{4.981815151976E-6,6.886186433919E-6,3.742306763255E-7,4.353109663734E-8},
  {{1.5814025532E-15,-1.2676855992E-15,1.01402272605E-12},{Residual->1.04163696685E-15}},
  {{-.1,1.08780619368E-14},{-.07,7.99459399788E-15},{-.04,3.25279565198E-15},{-.01,2.08465050233E-15},{.02,1.80228119152E-15},
   {.05,2.25463299944E-15},{.08,9.15472818897E-15}}},
 {"EY",1,{4.98864992864E-6,6.886915578575E-6,3.791881700862E-7,4.831555505384E-8},
  {{1.60821975352E-15,3.44630940133E-15,5.2434806465E-13},{Residual->5.10321554752E-16}},
  {{-.1,6.57123034816E-15},{-.07,3.47834379192E-15},{-.04,2.74656328229E-15},{-.01,1.89704689414E-15},{.02,2.06786975367E-15},
   {.05,2.0726476946E-15},{.08,5.76320972624E-15}}},
 {"R32",1,{4.998371764875E-6,6.886063942131E-6,3.867615657318E-7,4.323640376407E-8},
  {{2.99291511118E-15,6.12597546972E-14,1.14699506441E-12},{Residual->1.32903382432E-15}},
  {{-.1,7.96528531374E-15},{-.07,5.00625804841E-15},{-.04,2.79864394718E-15},{-.01,1.82747975269E-15},{.02,2.91553373211E-15},
   {.05,1.15884238536E-14},{.08,1.42677704698E-14}}},
 {"Y24",1,{4.998371764875E-6,6.886063942131E-6,3.867615657318E-7,4.323640376407E-8},
  {{1.86679890245E-15,3.59443147315E-17,1.34293511189E-15},{Residual->3.5354164104E-18}},
  {{-.3,1.98086005122E-15},{-.2,1.90903470326E-15},{-.1,1.87183130326E-15},{5.55111512313E-17,1.86938661045E-15},
   {.1,1.88809783431E-15},{.2,1.92818382747E-15},{.3,1.99621981848E-15}}},
 {"Y46",1,{5.197811576907E-6,6.996844357072E-6,3.903415599071E-7,3.96419159884E-8},
  {{1.86946413004E-15,1.74590657221E-15,2.76241385147E-15},{Residual->2.91377936609E-17}},
  {{-.45,1.67172611478E-15},{-.3,1.57148150323E-15},{-.15,1.63078846387E-15},{-5.5511151231E-17,1.86938661045E-15},
   {.15,2.22771289656E-15},{.3,2.67239762216E-15},{.45,3.18307642569E-15}}},
 {"Y22",1,{5.197811576894E-6,6.996844357092E-6,3.903415599071E-7,3.96419159884E-8},
  {{4.10577276522E-15,3.74414596329E-15,4.93346557442E-14},{Residual->1.29240470097E-15}},
  {{-.6,1.88206481696E-14},{-.4,1.20093105471E-14},{-.2,5.99808582872E-15},{1.11022302463E-16,1.57148150323E-15},
   {.2,7.33450961776E-15},{.4,1.46722051627E-14},{.6,2.3588982961E-14}}},
 {"Y26",1,{5.197648722042E-6,6.996687766134E-6,3.891092700377E-7,3.926576046474E-8},
  {{2.17632721765E-15,3.35961592742E-16,6.62542156125E-14},{Residual->3.59512790739E-16}},
  {{-.3,7.95850268725E-15},{-.2,5.10865958189E-15},{-.1,2.67406633842E-15},{5.55111512313E-17,1.57148150323E-15},
   {.1,3.17941521562E-15},{.2,5.35186589801E-15},{.3,7.94147967066E-15}}},
 {"Y66",1,{5.196295074544E-6,6.995857454676E-6,3.796985183164E-7,3.796917525764E-8},
  {{7.04701195404E-15,-6.3011803348E-15,1.54292299481E-12},{Residual->2.44667601444E-15}},
  {{-.2,6.8562244485E-14},{-.15,4.42029143706E-14},{-.1,2.55954257357E-14},{-.05,1.14168497309E-14},{0,1.54179994487E-15},
   {.05,1.05868381948E-14},{.1,2.51136984304E-14},{.15,4.16194974683E-14},{.2,6.62222884473E-14}}},
 {"Y44",1,{5.196295074542E-6,6.995857454685E-6,3.796985183164E-7,3.796917525764E-8},
  {{2.51712036535E-15,1.11356210547E-15,2.25732575627E-14},{Residual->5.46752941659E-16}},
  {{-.6,9.66340807164E-15},{-.4,6.27662790068E-15},{-.2,3.49222820056E-15},{1.11022302463E-16,1.44165826975E-15},
   {.2,3.84691427309E-15},{.4,7.11842120148E-15},{.6,1.10626331105E-14}}}}
