{{"FD",1,{-1.52891421559E-5,1.259357052671E-5,1.272472770339E-6,1.020519792961E-6}},
 {"EX2",1,{-2.67515404982E-5,1.15534630192E-5,3.763070136594E-6,1.069052758809E-6}},
 {"FD",1,{-2.68096665764E-5,1.155322984098E-5,3.839412800003E-6,1.025196647278E-6}},
 {"AY",1,{-2.71431666452E-5,1.318740002936E-5,4.43056265729E-6,1.787821298467E-6},
  {{3.20211980877E-12,-8.3465957825E-14,3.01107203376E-12},{Residual->5.44026715881E-15}},
  {{-.5,3.99604162412E-12},{-.35,3.60593766374E-12},{-.2,3.33261203678E-12},{-.05,3.21055537237E-12},{.1,3.22474636997E-12},
   {.25,3.37882487494E-12},{.4,3.64500294658E-12}}},
 {"EY",1,{-2.16558651912E-5,1.507314267544E-5,6.357282581554E-6,1.380590254418E-6},
  {{3.20054726557E-12,-1.5874614544E-12,4.27194873042E-13},{Residual->1.96844960804E-15}},
  {{-.5,4.10008956592E-12},{-.35,3.81160062482E-12},{-.2,3.53269665347E-12},{-.05,3.28075213444E-12},{.1,3.04506822357E-12},
   {.25,2.83319311625E-12},{.4,2.63265072987E-12}}},
 {"R32",1,{-2.90656875356E-5,1.299452368536E-5,5.255608323308E-6,6.646297788385E-7},
  {{1.91010774182E-12,-1.4860918557E-12,4.11602308753E-13},{Residual->2.52576155899E-15}},
  {{-.5,2.75687691419E-12},{-.35,2.4807538696E-12},{-.2,2.22276078724E-12},{-.05,1.9828439123E-12},{.1,1.76631640715E-12},
   {.25,1.56941674167E-12},{.4,1.378430205E-12}}},
 {"AY",1,{-2.90808295445E-5,1.299500748903E-5,5.252094116681E-6,6.647392526241E-7},
  {{4.38134643892E-13,1.83116598727E-14,2.94224381276E-12},{Residual->7.25346908302E-15}},
  {{-.5,1.17290805955E-12},{-.35,7.8276938396E-13},{-.2,5.45364448329E-13},{-.05,4.44816001017E-13},{.1,4.77736027117E-13},
   {.25,6.33069187322E-13},{.4,9.08973187751E-13}}},
 {"EY",1,{-2.71291396879E-5,1.33286325995E-5,5.996528274771E-6,4.927785042203E-7},
  {{4.41922817639E-13,-6.1307888257E-13,4.31871268367E-13},{Residual->2.72129654449E-16}},
  {{-.5,8.5611905095E-13},{-.35,7.09875806171E-13},{-.2,5.81985561293E-13},{-.05,4.73288297525E-13},{.1,3.84959254261E-13},
   {.25,3.15520192597E-13},{.4,2.65925815845E-13}}},
 {"R32",1,{-2.91997232593E-5,1.296638651289E-5,5.577041948245E-6,2.417385593204E-7},
  {{2.44179847526E-13,-5.303452504E-13,3.8686065759E-13},{Residual->6.06790183186E-16}},
  {{-.5,6.05918137342E-13},{-.35,4.76752233297E-13},{-.2,3.66974235947E-13},{-.05,2.71607789168E-13},{.1,1.94309195327E-13},
   {.25,1.35438973701E-13},{.4,9.43714813267E-14}}},
 {"AY",1,{-2.92165194865E-5,1.29666914351E-5,5.575648302343E-6,2.418926243739E-7},
  {{5.61460236654E-14,1.97309159661E-14,2.81363715053E-12},{Residual->3.23790418259E-15}},
  {{-.3,3.07299235999E-13},{-.2,1.598516207E-13},{-.1,7.90386389935E-14},{5.55111512313E-17,5.84375310623E-14},
   {.1,9.0264856369E-14},{.2,1.72224757325E-13},{.3,3.13723927358E-13}}},
 {"EY",1,{-2.85450582068E-5,1.301937024358E-5,5.83695126807E-6,1.6217041845E-7},
  {{5.81708436478E-14,-2.2917288976E-13,4.60490208613E-13},{Residual->1.87805891395E-15}},
  {{-.5,2.86613080392E-13},{-.35,1.9542032827E-13},{-.2,1.24280166786E-13},{-.05,7.17087418459E-14},{.1,3.8655728949E-14},
   {.25,2.63150314025E-14},{.4,4.25807493817E-14}}},
 {"R32",1,{-2.91281354494E-5,1.29611833763E-5,5.708951432822E-6,1.065750427606E-7},
  {{2.64168628631E-14,-1.5917900542E-13,3.64278796952E-13},{Residual->1.41426766116E-15}},
  {{-.5,1.98093481895E-13},{-.35,1.26227431856E-13},{-.2,7.13344045945E-14},{-.05,3.45005154632E-14},{.1,1.54373007151E-14},
   {.25,1.16407395318E-14},{.4,1.92673389092E-14}}},
 {"AY",1,{-2.91185446068E-5,1.296086079147E-5,5.708778776923E-6,1.072304035822E-7},
  {{5.8709459012E-15,-1.1425333173E-14,2.85302621299E-12},{Residual->3.7275169143E-15}},
  {{-.3,2.6975947196E-13},{-.2,1.17407033075E-13},{-.1,3.12718768926E-14},{5.55111512313E-17,1.13582397404E-14},
   {.1,3.57997556667E-14},{.2,1.15469080461E-13},{.3,2.5887850315E-13}}},
 {"EY",1,{-2.88951407972E-5,1.297371192098E-5,5.795505162459E-6,7.782813057021E-8},
  {{1.12042314567E-14,-8.3335500173E-14,5.06380166085E-13},{Residual->1.19357696566E-15}},
  {{-.3,8.05938418579E-14},{-.2,4.91805631983E-14},{-.1,2.59883550414E-14},{5.55111512313E-17,1.14983594524E-14},
   {.1,5.97003601146E-15},{.2,1.41331629012E-14},{.3,3.2851748238E-14}}},
 {"R32",1,{-2.90971814864E-5,1.295677985259E-5,5.751462586363E-6,7.105906482011E-8},
  {{5.98067087566E-15,-5.0028688919E-14,3.2019196899E-13},{Residual->7.53536303265E-16}},
  {{-.3,5.06051104499E-14},{-.2,2.8048886868E-14},{-.1,1.32080976581E-14},{5.55111512313E-17,6.05721790805E-15},
   {.1,5.28792154388E-15},{.2,9.18068683073E-15},{.3,1.9130526188E-14}}},
 {"Y24",1,{-2.91902085442E-5,1.291649981215E-5,5.749142342228E-6,6.747401242378E-8},
  {{5.01601723515E-15,9.35979656865E-16,6.42570623474E-16},{Residual->4.55874923803E-17}},
  {{-1.5,5.12824208468E-15},{-1.2,4.80771716164E-15},{-.9,4.62233856618E-15},{-.6,4.62903791278E-15},{-.3,4.7645946615E-15},
   {0,5.04939069311E-15},{.3,5.41003943988E-15},{.6,5.86246670425E-15},{.9,6.38680285693E-15},{1.2,7.0313308776E-15},
   {1.5,7.84567780052E-15}}},
 {"Y46",1,{-2.91902085442E-5,1.291649981215E-5,5.749142342228E-6,6.747401242378E-8},
  {{4.64463258462E-15,-9.1365921402E-17,4.25484964889E-15},{Residual->5.66814151542E-17}},
  {{-1,8.97847715259E-15},{-.8,7.36148038983E-15},{-.6,6.29730485401E-15},{-.4,5.45802018806E-15},{-.2,4.88428871836E-15},
   {0,4.55274235256E-15},{.2,4.7569410001E-15},{.4,5.25763187873E-15},{.6,6.14887778372E-15},{.8,7.28100024084E-15},
   {1,8.83553232717E-15}}},
 {"Y22",1,{-2.90794210411E-5,1.295082221721E-5,5.736394916979E-6,5.835850215912E-8},
  {{4.38949849882E-15,6.66511417018E-15,2.3496073985E-14},{Residual->2.79420834188E-16}},
  {{-.6,9.07774932372E-15},{-.4,5.36988259095E-15},{-.2,3.46993475651E-15},{1.11022302463E-16,4.55274235035E-15},
   {.2,7.02936633149E-15},{.4,1.08890300746E-14},{.6,1.66533869273E-14}}},
 {"Y26",1,{-2.90794210411E-5,1.295082221721E-5,5.736394916982E-6,5.835850215829E-8},
  {{3.88001986653E-15,-3.3976893268E-15,4.14806833993E-14},{Residual->3.80462232854E-16}},
  {{-.6,2.09181051268E-14},{-.4,1.19540150363E-14},{-.2,6.1457023072E-15},{1.11022302463E-16,3.40571477416E-15},
   {.2,4.94463561917E-15},{.4,9.91464291658E-15},{.6,1.63356886927E-14}}},
 {"Y66",1,{-2.90794210411E-5,1.295082221721E-5,5.736394916982E-6,5.835850215829E-8},
  {{4.31969978887E-15,2.15986193661E-14,1.01463269772E-12},{Residual->7.21896548621E-16}},
  {{-.2,4.12399000357E-14},{-.15,2.34837325269E-14},{-.1,1.17456466123E-14},{-.05,6.0847168434E-15},{0,3.40571477416E-15},
   {.05,8.13807769571E-15},{.1,1.74326709407E-14},{.15,3.13877270047E-14},{.2,4.81540163246E-14}}},
 {"Y44",1,{-2.90794210411E-5,1.295082221721E-5,5.736394916979E-6,5.835850215913E-8},
  {{3.70485290067E-15,1.94341333861E-15,1.04645745624E-14},{Residual->3.47811971397E-16}},
  {{-.6,5.88388463359E-15},{-.4,5.14577165129E-15},{-.2,4.09098762533E-15},{1.11022302463E-16,3.40571477426E-15},
   {.2,4.16511150572E-15},{.4,6.13628285401E-15},{.6,8.82654077038E-15}}},
 {"AY",1,{-2.91141031891E-5,1.295064416667E-5,5.734154000169E-6,5.809214554962E-8},
  {{3.29141370636E-15,3.87198013967E-14,2.66409838834E-12},{Residual->1.61702090116E-16}},
  {{-.1,2.60997477116E-14},{-.07,1.34380005034E-14},{-.04,6.15335131127E-15},{-.01,3.39276360944E-15},{.02,4.9571395772E-15},
   {.05,1.17267300512E-14},{.08,2.35619253408E-14}}},
 {"EY",1,{-2.90230484384E-5,1.294676309174E-5,5.771748755551E-6,5.047693107036E-8},
  {{3.49120237996E-15,-4.2403371336E-14,5.93053577315E-13},{Residual->1.62387678012E-16}},
  {{-.1,1.34823262757E-14},{-.07,9.54450326417E-15},{-.04,6.34508970548E-15},{-.01,3.93168110451E-15},{.02,2.66094848024E-15},
   {.05,2.76857986728E-15},{.08,4.03361160832E-15}}},
 {"R32",1,{-2.90266017285E-5,1.294659112139E-5,5.770714900519E-6,5.04738226639E-8},
  {{2.55084501874E-15,-8.8289743555E-16,2.83109061843E-13},{Residual->1.58673687893E-17}},
  {{-.1,5.48800305803E-15},{-.07,3.9787771401E-15},{-.04,3.02014047434E-15},{-.01,2.60061671795E-15},{.02,2.66689074533E-15},
   {.05,3.21049645445E-15},{.08,4.2853180632E-15}}},
 {"Y24",1,{-2.90777089726E-5,1.292776644449E-5,5.769562474897E-6,4.736850899773E-8},
  {{2.55601015879E-15,1.20677247782E-15,1.47778879959E-15},{Residual->8.63435089824E-18}},
  {{-.3,2.32987182779E-15},{-.2,2.37189836469E-15},{-.1,2.44703749111E-15},{5.55111512313E-17,2.54760677431E-15},
   {.1,2.71041749478E-15},{.2,2.84806492122E-15},{.3,3.05095510152E-15}}},
 {"Y46",1,{-2.90816204255E-5,1.29362714358E-5,5.770259676463E-6,4.671132797489E-8},
  {{2.2547519393E-15,-9.3037149561E-16,6.3036969565E-15},{Residual->7.49982022261E-17}},
  {{-.45,3.8646993618E-15},{-.3,3.19472892751E-15},{-.15,2.61036940844E-15},{-5.5511151231E-17,2.24377564467E-15},
   {.15,2.18753452967E-15},{.3,2.46162381926E-15},{.45,3.19186096636E-15}}},
 {"Y22",1,{-2.91097485709E-5,1.293266627593E-5,5.775117503267E-6,4.637940686537E-8},
  {{2.55947818107E-15,-2.1840406975E-15,2.55933661408E-14},{Residual->2.17093321306E-16}},
  {{-.6,1.31115117545E-14},{-.4,7.60614744463E-15},{-.2,3.96147010209E-15},{1.11022302463E-16,2.18194816092E-15},
   {.2,3.42919574859E-15},{.4,6.02345580323E-15},{.6,1.02671883313E-14}}},
 {"Y26",1,{-2.91275286759E-5,1.293117935883E-5,5.784339884859E-6,4.481524727555E-8},
  {{2.18020614214E-15,-3.971403082E-15,5.41142637267E-14},{Residual->1.39056516641E-16}},
  {{-.3,8.09505643018E-15},{-.2,5.27190994265E-15},{-.1,3.30551612003E-15},{5.55111512313E-17,2.15104938119E-15},
   {.1,2.16380578853E-15},{.2,3.42752664988E-15},{.3,5.998572526E-15}}},
 {"Y66",1,{-2.91275286759E-5,1.293117935883E-5,5.784339884859E-6,4.481524727555E-8},
  {{3.0539941696E-15,1.06345888548E-14,9.97175719451E-13},{Residual->4.95204746859E-16}},
  {{-.2,4.0339646052E-14},{-.15,2.41832926548E-14},{-.1,1.27320347516E-14},{-.05,5.20747099951E-15},{0,2.00840638837E-15},
   {.05,5.96023164852E-15},{.1,1.44853867389E-14},{.15,2.70305807281E-14},{.2,4.51152554823E-14}}},
 {"Y44",1,{-2.91275286759E-5,1.293117935883E-5,5.784339884858E-6,4.481524727651E-8},
  {{2.21177369157E-15,2.43605029045E-15,7.64648883468E-15},{Residual->3.42020744479E-16}},
  {{-.6,3.10541469509E-15},{-.4,2.9053515383E-15},{-.2,2.45536339841E-15},{1.11022302463E-16,2.00840638845E-15},
   {.2,2.58167848995E-15},{.4,4.32829278006E-15},{.6,6.66197604559E-15}}},
 {"AY",1,{-2.91313870952E-5,1.293127214932E-5,5.784288841994E-6,4.482487848186E-8},
  {{1.56763534932E-15,4.61593859334E-15,2.84707050523E-12},{Residual->4.16684626219E-16}},
  {{-.1,3.00819728449E-14},{-.07,1.45820461963E-14},{-.04,5.51028287206E-15},{-.01,2.00969285218E-15},{.02,3.3092139909E-15},
   {.05,9.03106347913E-15},{.08,1.98651855936E-14}}},
 {"EY",1,{-2.91026967698E-5,1.293081758707E-5,5.796052117868E-6,4.316257203444E-8},
  {{2.12563762785E-15,-1.3597686291E-14,6.05944582859E-13},{Residual->1.27962936103E-16}},
  {{-.1,9.3957305337E-15},{-.07,6.21385346151E-15},{-.04,3.79430161799E-15},{-.01,2.2540738112E-15},{.02,1.93332581734E-15},
   {.05,2.92799382037E-15},{.08,5.00598706928E-15}}},
 {"R32",1,{-2.91328776847E-5,1.293138163142E-5,5.788102520167E-6,4.273777973747E-8},
  {{1.84782887509E-15,-7.5769817358E-15,3.01495392079E-13},{Residual->3.57492557476E-17}},
  {{-.1,5.65610096637E-15},{-.07,3.82513834353E-15},{-.04,2.58853481167E-15},{-.01,1.95438564811E-15},{.02,1.85333769791E-15},
   {.05,2.2652826483E-15},{.08,3.1311413861E-15}}},
 {"Y24",1,{-2.91719057868E-5,1.291595110067E-5,5.786902387609E-6,4.119708216407E-8},
  {{1.8324038492E-15,7.89489173137E-16,1.28871437317E-15},{Residual->6.31582894679E-18}},
  {{-.3,1.70604606348E-15},{-.2,1.73901294438E-15},{-.1,1.76077348834E-15},{5.55111512313E-17,1.82651781689E-15},
   {.1,1.92815589229E-15},{.2,2.04213093037E-15},{.3,2.1850298331E-15}}},
 {"Y46",1,{-2.91719057868E-5,1.291595110067E-5,5.786902387609E-6,4.119708216407E-8},
  {{1.71597888559E-15,-1.6146774187E-17,6.09303121618E-15},{Residual->5.12014659329E-17}},
  {{-.45,2.89766870438E-15},{-.3,2.33412245042E-15},{-.15,1.9162012264E-15},{-5.5511151231E-17,1.69719957883E-15},
   {.15,1.78470379004E-15},{.3,2.23676634697E-15},{.45,2.98379976827E-15}}},
 {"Y22",1,{-2.91719057868E-5,1.291595110068E-5,5.786902387608E-6,4.119708216488E-8},
  {{1.92196742588E-15,-4.0839007949E-16,2.39096925069E-14},{Residual->1.63635623897E-16}},
  {{-.6,1.08332799738E-14},{-.4,5.93496046594E-15},{-.2,2.84810679343E-15},{1.11022302463E-16,1.6971995789E-15},
   {.2,3.01983870577E-15},{.4,5.7866817176E-15},{.6,1.01125603535E-14}}},
 {"Y26",1,{-2.91828373049E-5,1.291029819751E-5,5.79478863168E-6,3.992262961452E-8},
  {{1.85319064441E-15,-2.893403046E-15,4.95728686908E-14},{Residual->1.27828091216E-16}},
  {{-.3,7.05711599299E-15},{-.2,4.59133558994E-15},{-.1,2.75705682719E-15},{5.55111512313E-17,1.69719957899E-15},
   {.1,1.93407939916E-15},{.2,3.37238300994E-15},{.3,5.44356734607E-15}}},
 {"Y66",1,{-2.91828373049E-5,1.291029819751E-5,5.79478863168E-6,3.992262961452E-8},
  {{2.46496599177E-15,4.45078536459E-15,1.00683920965E-12},{Residual->4.65852736769E-16}},
  {{-.2,4.15383647274E-14},{-.15,2.48932854725E-14},{-.1,1.25062300185E-14},{-.05,4.55403830106E-15},{0,1.59381635534E-15},
   {.05,5.19674140921E-15},{.1,1.34117232749E-14},{.15,2.63335214603E-14},{.2,4.31828543547E-14}}},
 {"Y44",1,{-2.91828373049E-5,1.291029819751E-5,5.794788631688E-6,3.992262960409E-8},
  {{1.71396885321E-15,2.20713672077E-15,8.15205059584E-15},{Residual->2.01853298804E-16}},
  {{-.6,3.14844655248E-15},{-.4,2.24471659259E-15},{-.2,1.96272591702E-15},{1.11022302463E-16,1.59381635451E-15},
   {.2,2.20425533043E-15},{.4,3.86914461277E-15},{.6,6.10497327999E-15}}},
 {"AY",1,{-2.91827550011E-5,1.291029635303E-5,5.794789770551E-6,3.992885085577E-8},
  {{1.29143536116E-15,-1.0295614741E-16,2.97810116904E-12},{Residual->3.23557252745E-16}},
  {{-.1,3.14413156149E-14},{-.07,1.55345507205E-14},{-.04,5.61716153296E-15},{-.01,1.73543312544E-15},{.02,2.89454487898E-15},
   {.05,8.8741244553E-15},{.08,2.00829444085E-14}}},
 {"EY",1,{-2.91542305462E-5,1.291159068298E-5,5.806731727765E-6,3.839052151893E-8},
  {{1.69959583004E-15,-1.3031813919E-14,5.69484815095E-13},{Residual->1.05198064575E-16}},
  {{-.1,8.5831294115E-15},{-.07,5.51704174704E-15},{-.04,3.26812745983E-15},{-.01,1.85751524179E-15},{.02,1.50830082563E-15},
   {.05,2.44558965234E-15},{.08,4.37935015744E-15}}},
 {"R32",1,{-2.91867886322E-5,1.290949917466E-5,5.798145927599E-6,3.810743561204E-8},
  {{1.44098943957E-15,-7.865904194E-15,2.91852627754E-13},{Residual->6.00540050462E-17}},
  {{-.1,5.21333783997E-15},{-.07,3.35312925068E-15},{-.04,2.15047849534E-15},{-.01,1.55974045607E-15},{.02,1.47739820242E-15},
   {.05,1.81844590973E-15},{.08,2.62399227517E-15}}},
 {"Y24",1,{-2.92258579766E-5,1.289410560577E-5,5.797450116488E-6,3.698016149729E-8},
  {{1.45329636951E-15,6.24372952276E-16,1.12237293738E-15},{Residual->2.81944127962E-18}},
  {{-.3,1.36753234437E-15},{-.2,1.37334152886E-15},{-.1,1.40032155745E-15},{5.55111512313E-17,1.45217664893E-15},
   {.1,1.5326212675E-15},{.2,1.61881233873E-15},{.3,1.74253332323E-15}}},
 {"Y46",1,{-2.92263188289E-5,1.289542160236E-5,5.79750341402E-6,3.689528993323E-8},
  {{1.37514893631E-15,-1.3133376738E-16,6.47435811788E-15},{Residual->2.62448582676E-17}},
  {{-.45,2.71617897617E-15},{-.3,2.03156372907E-15},{-.15,1.56706919107E-15},{-5.5511151231E-17,1.36753234437E-15},
   {.15,1.45837970832E-15},{.3,1.92374061193E-15},{.45,2.64042360751E-15}}},
 {"Y22",1,{-2.92263188289E-5,1.289542160236E-5,5.79750341402E-6,3.689528993325E-8},
  {{1.41487796048E-15,-7.5896807709E-16,2.38633836694E-14},{Residual->4.94053801221E-17}},
  {{-.6,1.04685992374E-14},{-.4,5.56620455614E-15},{-.2,2.46386852814E-15},{1.11022302463E-16,1.36126241926E-15},
   {.2,2.31368225997E-15},{.4,4.93438343543E-15},{.6,9.5231349967E-15}}},
 {"Y26",1,{-2.92388045815E-5,1.288917202347E-5,5.806189031832E-6,3.641647702477E-8},
  {{1.55939595141E-15,-2.9016086435E-15,4.6409881871E-14},{Residual->1.26213403616E-16}},
  {{-.3,6.53148130223E-15},{-.2,4.1435679689E-15},{-.1,2.36095120303E-15},{5.55111512313E-17,1.36126241926E-15},
   {.1,1.69871011017E-15},{.2,3.02438000473E-15},{.3,4.79018557541E-15}}},
 {"Y66",1,{-2.92279427736E-5,1.289372854102E-5,5.803020552086E-6,3.617542740574E-8},
  {{2.22486919097E-15,-5.0782001552E-15,1.01915436155E-12},{Residual->6.85752331663E-16}},
  {{-.2,4.37265555461E-14},{-.15,2.66627848604E-14},{-.1,1.31379990109E-14},{-.05,4.37517959282E-15},{0,1.3261597989E-15},
   {.05,4.59152624547E-15},{.1,1.25852930635E-14},{.15,2.54168737926E-14},{.2,4.10746050411E-14}}},
 {"Y44",1,{-2.92279427736E-5,1.289372854102E-5,5.803020552084E-6,3.617542740643E-8},
  {{1.36019841767E-15,1.80612048126E-15,9.0459759013E-15},{Residual->9.81167717023E-17}},
  {{-.6,3.51957218619E-15},{-.4,2.00664913512E-15},{-.2,1.57030137721E-15},{1.11022302463E-16,1.30866154804E-15},
   {.2,1.9680953909E-15},{.4,3.5503113769E-15},{.6,5.72929091878E-15}}},
 {"OCT1",1,{-2.92191207681E-5,1.284258322118E-5,5.810792058975E-6,3.142767504939E-8},
  {{1.24098478857E-15,-1.1285833899E-18,5.33484628127E-21},{Residual->1.06253325342E-16}},
  {{-370,2.27491567212E-15},{-296,2.03508380092E-15},{-222,1.83144347653E-15},{-148,1.62653317003E-15},{-74,1.45386021772E-15},
   {0,1.30866154804E-15},{74,1.13138715211E-15},{148,9.8769875901E-16},{222,1.12033633132E-15},{296,1.41047648344E-15},
   {370,1.68396043211E-15}}},
 {"OCT2",1,{-2.92157845194E-5,1.284239710962E-5,5.811086144405E-6,3.141848575679E-8},
  {{9.88303934651E-16,2.72624151663E-20,3.37873274388E-22},{Residual->7.30425176326E-19}},
  {{-370,1.02389555189E-15},{-296,1.01059916008E-15},{-222,1.00009509409E-15},{-148,9.90704360573E-16},{-74,9.87137077425E-16},
   {0,9.8769875901E-16},{74,9.93011440907E-16},{148,1.0002050439E-15},{222,1.01142585605E-15},{296,1.02564394655E-15},
   {370,1.04446933146E-15}}},
 {"OCT1",1,{-2.92157845194E-5,1.284239710962E-5,5.811086144405E-6,3.141848575679E-8},
  {{1.35665078241E-15,-6.401874714E-19,3.77237982433E-21},{Residual->1.55594407232E-16}},
  {{-740,3.72124050265E-15},{-592,3.08246497931E-15},{-444,2.54186930735E-15},{-296,2.06021163983E-15},{-148,1.63567690987E-15},
   {0,1.31077411693E-15},{148,9.8712124725E-16},{296,1.39914624182E-15},{444,1.91707212042E-15},{592,2.42715865813E-15},
   {740,2.93005075691E-15}}},
 {"OCT2",1,{-2.92151761366E-5,1.284239603086E-5,5.811133379827E-6,3.141460167453E-8},
  {{9.87678119619E-16,3.2791284531E-20,3.45790704803E-22},{Residual->2.01463627581E-18}},
  {{-740,1.15127453013E-15},{-592,1.08784699991E-15},{-444,1.04423835473E-15},{-296,1.01059916008E-15},{-148,9.90704360573E-16},
   {0,9.8769875901E-16},{148,1.0002050439E-15},{296,1.02564394655E-15},{444,1.06874106693E-15},{592,1.12595122838E-15},
   {740,1.20493989143E-15}}}}
