FD	 7.061494E-6	 2.784284E-7	
EX2	 6.980766E-6	 2.860392E-7	
FD	 6.979039E-6	 2.784483E-7	
AY	 7.018393E-6	 5.654946E-7	
EY	 7.018393E-6	 5.654946E-7	
R32	 6.954080E-6	 2.291839E-7	
AY	 6.945671E-6	 2.324604E-7	
EY	 6.978474E-6	 9.840078E-8	
R32	 6.963278E-6	 6.015609E-8	
AY	 6.974654E-6	 5.434743E-8	
EY	 6.972666E-6	 4.410195E-8	
R32	 6.972072E-6	 3.996454E-8	
AY	 6.972996E-6	 4.057074E-8	
EY	 6.971980E-6	 3.899771E-8	
R32	 6.962073E-6	 7.376441E-8	
Y24	 7.048213E-6	 5.945743E-8	
Y46	 7.120199E-6	 5.872872E-8	
Y22	 7.119825E-6	 5.762331E-8	
Y26	 7.119825E-6	 5.762331E-8	
Y66	 7.119238E-6	 5.759416E-8	
Y44	 7.119238E-6	 5.759416E-8	
AY	 7.120649E-6	 5.905057E-8	
EY	 7.118232E-6	 6.606194E-8	
R32	 7.131640E-6	 7.537261E-8	
Y24	 7.079101E-6	 7.000481E-8	
Y46	 6.953458E-6	 6.573072E-8	
Y22	 6.953458E-6	 6.573072E-8	
Y26	 6.949413E-6	 6.565061E-8	
Y66	 6.949413E-6	 6.565061E-8	
Y44	 6.948934E-6	 6.456929E-8	
AY	 6.936413E-6	 4.852027E-8	
EY	 6.934920E-6	 4.614573E-8	
R32	 6.936467E-6	 5.280545E-8	
Y24	 6.944781E-6	 5.229813E-8	
Y46	 6.944781E-6	 5.229813E-8	
Y22	 6.944781E-6	 5.229813E-8	
Y26	 6.943486E-6	 5.223511E-8	
Y66	 6.944480E-6	 5.219553E-8	
Y44	 6.944480E-6	 5.219553E-8	
AY	 6.936106E-6	 5.527483E-8	
EY	 6.933370E-6	 4.953025E-8	
R32	 6.935016E-6	 5.070630E-8	
Y24	 6.951942E-6	 4.951537E-8	
Y46	 6.951942E-6	 4.951537E-8	
Y22	 6.951942E-6	 4.951537E-8	
Y26	 6.951942E-6	 4.951537E-8	
Y66	 6.951942E-6	 4.951537E-8	
Y44	 6.952132E-6	 4.935967E-8	
