FD	 2.119019E-5	 4.944009E-7	
EX2	 2.104766E-5	 4.955907E-7	
FD	 2.098480E-5	 4.958922E-7	
AY	 1.990687E-5	 1.842539E-7	
EY	 1.988936E-5	 1.873702E-7	
R32	 2.034101E-5	 1.199431E-7	
AY	 2.033957E-5	 7.911137E-8	
EY	 2.035789E-5	 8.353967E-8	
R32	 2.019202E-5	 4.605856E-8	
AY	 2.018727E-5	 6.700613E-8	
EY	 2.022491E-5	 6.463142E-8	
R32	 2.025625E-5	 7.005942E-8	
AY	 2.026029E-5	 4.610037E-8	
EY	 2.026189E-5	 4.468132E-8	
R32	 2.020063E-5	 4.286865E-8	
Y24	 2.020697E-5	 4.036100E-8	
Y46	 2.020729E-5	 3.804330E-8	
Y22	 2.020729E-5	 3.804330E-8	
Y26	 2.020729E-5	 3.804330E-8	
Y66	 2.020729E-5	 3.804330E-8	
Y44	 2.020834E-5	 3.763447E-8	
AY	 2.021133E-5	 3.774669E-8	
EY	 2.023516E-5	 3.681801E-8	
R32	 2.025935E-5	 4.206535E-8	
Y24	 2.025935E-5	 4.206535E-8	
Y46	 2.025915E-5	 4.136464E-8	
Y22	 2.025915E-5	 4.136464E-8	
Y26	 2.025915E-5	 4.136464E-8	
Y66	 2.025915E-5	 4.136464E-8	
Y44	 2.025915E-5	 4.136464E-8	
AY	 2.025630E-5	 6.681459E-8	
EY	 2.024587E-5	 6.697689E-8	
R32	 2.028383E-5	 7.242127E-8	
Y24	 2.027317E-5	 5.167948E-8	
Y46	 2.027339E-5	 5.015670E-8	
Y22	 2.026957E-5	 4.660937E-8	
Y26	 2.027117E-5	 4.558205E-8	
Y66	 2.027117E-5	 4.558205E-8	
Y44	 2.027280E-5	 4.457656E-8	
AY	 2.026348E-5	 6.039468E-8	
EY	 2.026299E-5	 5.394431E-8	
R32	 2.026299E-5	 5.394431E-8	
Y24	 2.026298E-5	 5.068767E-8	
Y46	 2.026212E-5	 5.067870E-8	
Y22	 2.026212E-5	 5.067870E-8	
Y26	 2.026212E-5	 5.067870E-8	
Y66	 2.026212E-5	 5.067870E-8	
Y44	 2.026064E-5	 4.868297E-8	
