{{"FD",1,{5.066479628476E-6,8.606174990247E-6,-8.73991490766E-7,8.83198770937E-7}},
 {"EX2",1,{-3.91289344597E-5,6.949653405002E-6,-2.35973325852E-6,1.005427112714E-6}},
 {"FD",1,{-3.91038174568E-5,6.946484575674E-6,-2.09636804306E-6,8.805223947581E-7}},
 {"AY",1,{8.475649295763E-8,6.884516679637E-6,1.718602406088E-8,9.98100403587E-7,
   {{-3.61768819284E-5,6.884525627696E-6,-1.15220062594E-6,9.98111483141E-7},
    {-3.63111985391E-5,6.884480076745E-6,-1.17736158881E-6,9.980563932398E-7},
    {-3.61258538325E-5,6.884528853271E-6,-1.20208792795E-6,9.981527529113E-7},
    {-3.61422685498E-5,6.884491963545E-6,-1.16935239775E-6,9.980253674007E-7},
    {-3.63463799133E-5,6.884506200712E-6,-1.15459012082E-6,9.980409882396E-7},
    {-3.6139497652E-5,6.884606445695E-6,-1.17369106154E-6,9.981852638694E-7},
    {-3.6298573913E-5,6.884549075498E-6,-1.19933112572E-6,9.981811451227E-7},
    {-3.63527734007E-5,6.884540454901E-6,-1.17980982698E-6,9.981084915218E-7},
    {-3.61681718826E-5,6.8844005106E-6,-1.15433242448E-6,9.979409546363E-7},
    {-3.62970313238E-5,6.884507152764E-6,-1.1694126336E-6,9.980719565181E-7},
    {-3.61632272114E-5,6.884471160176E-6,-1.17561800278E-6,9.980339915414E-7},
    {-3.61650225589E-5,6.884499477603E-6,-1.19379135599E-6,9.98094350148E-7},
    {-3.62853987637E-5,6.884495167875E-6,-1.15367483459E-6,9.980653357662E-7},
    {-3.62747034371E-5,6.884533399563E-6,-1.19801920588E-6,9.981693300638E-7},
    {-3.6348632969E-5,6.884571860205E-6,-1.15016242108E-6,9.981813787003E-7},
    {-3.61758066853E-5,6.884540341892E-6,-1.14358649546E-6,9.980970976796E-7},
    {-3.6330644972E-5,6.884539937244E-6,-1.17632023447E-6,9.981366526827E-7},
    {-3.61779970255E-5,6.884629899903E-6,-1.18909323204E-6,9.982954927767E-7},
    {-3.60932949728E-5,6.884421714958E-6,-1.17967673797E-6,9.98007656368E-7},
    {-3.6291808616E-5,6.884494271902E-6,-1.17752434604E-6,9.980519894125E-7}}},
  {{9.96591897118E-13,2.71770768209E-14,1.29631392315E-12},{Residual->1.66275628733E-15}},
  {{-.5,1.3063879116E-12},{-.35,1.14743357594E-12},{-.2,1.04318697584E-12},{-.05,9.96845902476E-13},{.1,1.01094581521E-12},
   {.25,1.08761923917E-12},{.4,1.21357514796E-12}}},
 {"EY",1,
  {6.675750706022E-8,6.946278272196E-6,1.533927224462E-8,9.575132623003E-7,{{-3.79998159933E-5,6.946294608927E-6,-1.93097537704E-6,
     9.575120992556E-7},
    {-3.78507451959E-5,6.946255242418E-6,-1.93966865318E-6,9.575742648326E-7},
    {-3.78243844315E-5,6.94627724789E-6,-1.92110204064E-6,9.575426488161E-7},
    {-3.7919866018E-5,6.946216165035E-6,-1.93308865609E-6,9.574430164499E-7},
    {-3.79529764981E-5,6.946127774559E-6,-1.91689415412E-6,9.573501666603E-7},
    {-3.78979045337E-5,6.946315219724E-6,-1.94660720838E-6,9.575410780834E-7},
    {-3.80743057724E-5,6.946138757855E-6,-1.91661574294E-6,9.572749844896E-7},
    {-3.79006286665E-5,6.946287331096E-6,-1.92291482234E-6,9.575323377666E-7},
    {-3.796707978E-5,6.946262887137E-6,-1.94518093915E-6,9.575063254884E-7},
    {-3.79093572759E-5,6.946268724386E-6,-1.90164912043E-6,9.574828928212E-7},
    {-3.78365857452E-5,6.946342415985E-6,-1.93574951687E-6,9.576246997376E-7},
    {-3.80279104136E-5,6.946370540446E-6,-1.92232100556E-6,9.575942682261E-7},
    {-3.79057909712E-5,6.946330056523E-6,-1.8972863293E-6,9.575319473298E-7},
    {-3.79449483145E-5,6.94627817554E-6,-1.96508172688E-6,9.575127968932E-7},
    {-3.78623584928E-5,6.946197061276E-6,-1.91798711442E-6,9.57422444507E-7},
    {-3.79389152476E-5,6.946439600679E-6,-1.91599158273E-6,9.576879051104E-7},
    {-3.78545199593E-5,6.946335191331E-6,-1.93508403385E-6,9.576113904668E-7},
    {-3.78726391615E-5,6.946202906078E-6,-1.93152158829E-6,9.574089527203E-7},
    {-3.80025292772E-5,6.946322591668E-6,-1.92741876465E-6,9.575454566128E-7},
    {-3.78545599672E-5,6.946302945363E-6,-1.91460231858E-6,9.575655697393E-7}}},
  {{1.00212381972E-12,4.96226450224E-13,6.91217305743E-13},{Residual->2.95834569099E-15}},
  {{-.5,9.23656935061E-13},{-.35,9.1605139911E-13},{-.2,9.34697246115E-13},{-.05,9.77594833519E-13},{.1,1.05601823289E-12},
   {.25,1.16660367849E-12},{.4,1.31412836073E-12}}},
 {"R32",1,
  {7.424833696636E-8,6.725313434796E-6,1.943813396681E-8,4.722232750755E-7,{{-3.87779692443E-5,6.725314137782E-6,-1.46694044936E-6,
     4.721597479075E-7},
    {-3.88904754125E-5,6.72532363503E-6,-1.45248759508E-6,4.721627148474E-7},
    {-3.891312444E-5,6.725312019257E-6,-1.50111465853E-6,4.722862462576E-7},
    {-3.88127154027E-5,6.725305245548E-6,-1.47526515467E-6,4.722408965756E-7},
    {-3.87651842697E-5,6.725309266503E-6,-1.47510531671E-6,4.722307250839E-7},
    {-3.88967964236E-5,6.725316716705E-6,-1.44426701223E-6,4.722414173801E-7},
    {-3.87816456986E-5,6.725306943874E-6,-1.43875350051E-6,4.722371177044E-7},
    {-3.88994449704E-5,6.725301064311E-6,-1.47329886791E-6,4.723169558664E-7},
    {-3.87852587581E-5,6.725310318187E-6,-1.47006187591E-6,4.721403388808E-7},
    {-3.88734156049E-5,6.725321799794E-6,-1.45166888504E-6,4.721638411749E-7},
    {-3.87190504485E-5,6.725305057707E-6,-1.45953064115E-6,4.722496726499E-7},
    {-3.88436896855E-5,6.72532549536E-6,-1.448334319E-6,4.720820559914E-7},
    {-3.90025467403E-5,6.72532232216E-6,-1.48112154209E-6,4.722329139288E-7},
    {-3.88927610746E-5,6.725311899877E-6,-1.47164347073E-6,4.722678869437E-7},
    {-3.88881152475E-5,6.7253251872E-6,-1.45199498022E-6,4.7224606993E-7},
    {-3.89100681663E-5,6.725309195287E-6,-1.44428255054E-6,4.722522053032E-7},
    {-3.89784270576E-5,6.72532434778E-6,-1.41952314385E-6,4.721783899341E-7},
    {-3.87573294418E-5,6.72529467204E-6,-1.44457993689E-6,4.722349794745E-7},
    {-3.88446277693E-5,6.725319690595E-6,-1.42643087651E-6,4.722024318895E-7},
    {-3.89248072931E-5,6.725309680925E-6,-1.47611679075E-6,4.723388937863E-7}}},
  {{9.11105537525E-13,1.44714015628E-12,7.57276094706E-13},{Residual->1.14629594207E-15}},
  {{-.5,3.78026688288E-13},{-.35,4.95822424718E-13},{-.2,6.51104748459E-13},{-.05,8.41032320321E-13},{.1,1.06532404131E-12},
   {.25,1.31935895058E-12},{.4,1.61090680563E-12}}},
 {"AY",1,
  {7.046339568653E-8,6.717289397067E-6,1.789198743346E-8,4.70729087394E-7,{{-3.69438366236E-5,6.717282134324E-6,-9.95633118312E-7,
     4.707081834323E-7},
    {-3.68941480875E-5,6.717296985131E-6,-1.01356363148E-6,4.707617769094E-7},
    {-3.70175613483E-5,6.717312871221E-6,-9.83102994686E-7,4.707345505746E-7},
    {-3.67896304469E-5,6.717269021641E-6,-1.02684927646E-6,4.707671000164E-7},
    {-3.69619492019E-5,6.717308024004E-6,-9.91596111574E-7,4.706773242952E-7},
    {-3.68603465674E-5,6.717275467384E-6,-9.97201819552E-7,4.707120474532E-7},
    {-3.68910204079E-5,6.717289296942E-6,-9.63342803289E-7,4.706289107194E-7},
    {-3.69712013462E-5,6.71727108265E-6,-1.0057040075E-6,4.708406371753E-7},
    {-3.69277292863E-5,6.717305057211E-6,-9.87379361725E-7,4.707026637702E-7},
    {-3.70894933775E-5,6.717267527719E-6,-1.0126103975E-6,4.708334092762E-7},
    {-3.6971509635E-5,6.717303147744E-6,-9.87045387045E-7,4.707461772425E-7},
    {-3.68391219265E-5,6.71728724332E-6,-1.00480436713E-6,4.708224120906E-7},
    {-3.69739394804E-5,6.717297539363E-6,-9.64604326642E-7,4.7063477248E-7},
    {-3.70277134193E-5,6.717305526765E-6,-9.75967428283E-7,4.707157975821E-7},
    {-3.6962332322E-5,6.717269644422E-6,-1.01441123648E-6,4.708340410045E-7},
    {-3.69387991802E-5,6.717271623588E-6,-9.92322760185E-7,4.707423753795E-7},
    {-3.69048421106E-5,6.717274447878E-6,-9.57337134845E-7,4.70682323804E-7},
    {-3.70195075574E-5,6.717315961109E-6,-9.88601488398E-7,4.706405971452E-7},
    {-3.69185527757E-5,6.717302543397E-6,-9.98175566818E-7,4.706717462774E-7},
    {-3.70306886717E-5,6.717282795525E-6,-9.77900892132E-7,4.707249012526E-7}}},
  {{2.22240178723E-13,-5.806287244E-14,1.17731088585E-12},{Residual->1.08973416685E-15}},
  {{-.5,5.44465533033E-13},{-.35,3.8807120777E-13},{-.2,2.81592355948E-13},{-.05,2.28488327665E-13},{.1,2.27241461033E-13},
   {.25,2.79804235413E-13},{.4,3.88648934141E-13}}},
 {"EY",1,
  {6.668439264132E-8,6.745252764008E-6,1.334310186228E-8,2.331964856506E-7,{{-3.57018111761E-5,6.745246141665E-6,-1.72083333188E-6,
     2.330706451182E-7},
    {-3.57942500933E-5,6.745249007145E-6,-1.72795218379E-6,2.330066433459E-7},
    {-3.57374625164E-5,6.745255210501E-6,-1.72134542478E-6,2.332212829402E-7},
    {-3.58345452454E-5,6.74526747179E-6,-1.72840823519E-6,2.331418965624E-7},
    {-3.56153906427E-5,6.74524974716E-6,-1.71392819909E-6,2.332039983666E-7},
    {-3.56480286766E-5,6.745251812604E-6,-1.73912583544E-6,2.332882724573E-7},
    {-3.55903304935E-5,6.745244388877E-6,-1.72539192823E-6,2.332429443542E-7},
    {-3.56886239383E-5,6.745246428838E-6,-1.72063233661E-6,2.331471197609E-7},
    {-3.57496519609E-5,6.745248095558E-6,-1.72861160816E-6,2.331791887192E-7},
    {-3.57719182943E-5,6.745271889973E-6,-1.72621471199E-6,2.333975612758E-7},
    {-3.56743565314E-5,6.745242036323E-6,-1.7281759572E-6,2.331963081119E-7},
    {-3.57520814347E-5,6.745254048785E-6,-1.72012188554E-6,2.330883476966E-7},
    {-3.56969227762E-5,6.745265352145E-6,-1.7192245643E-6,2.333689499809E-7},
    {-3.56617906037E-5,6.745250685677E-6,-1.75838182593E-6,2.331285584261E-7},
    {-3.57037494751E-5,6.745252459378E-6,-1.741828019E-6,2.331203703458E-7},
    {-3.56679459346E-5,6.745257649307E-6,-1.75160005009E-6,2.33274623831E-7},
    {-3.5662141788E-5,6.745250535047E-6,-1.72605121499E-6,2.331976752498E-7},
    {-3.57019305065E-5,6.74526865519E-6,-1.70415331809E-6,2.333549178346E-7},
    {-3.57177220952E-5,6.745253422353E-6,-1.73633284766E-6,2.331907308961E-7},
    {-3.55463705963E-5,6.745230241842E-6,-1.75405084784E-6,2.331096777383E-7}}},
  {{2.2326451083E-13,6.16312588645E-13,5.46169635018E-13},{Residual->1.41186494994E-15}},
  {{-.5,5.34431440042E-14},{-.35,7.20000083518E-14},{-.2,1.20876483635E-13},{-.05,1.94495918159E-13},{.1,2.91867383517E-13},
   {.25,4.11852037941E-13},{.4,5.56252032852E-13}}},
 {"R32",1,
  {7.748169784013E-8,6.72771413269E-6,2.530839815262E-8,8.589404121689E-8,{{-3.30625930094E-5,6.727722843157E-6,-8.9558699977E-7,
     8.589195424731E-8},
    {-3.29285148763E-5,6.72771419709E-6,-9.64659179187E-7,8.599140790818E-8},
    {-3.29367424259E-5,6.727729102188E-6,-8.8239166978E-7,8.590047382887E-8},
    {-3.29010284385E-5,6.727714751839E-6,-8.86227415521E-7,8.581964424388E-8},
    {-3.27921366967E-5,6.727708449964E-6,-9.09468869139E-7,8.588820579549E-8},
    {-3.2875327001E-5,6.727721734972E-6,-9.43217974392E-7,8.595900344519E-8},
    {-3.28040533038E-5,6.727711700751E-6,-9.18171652001E-7,8.59016730017E-8},
    {-3.30283647887E-5,6.727728893182E-6,-9.42930520027E-7,8.59790359111E-8},
    {-3.2869675577E-5,6.727708469191E-6,-9.40835192747E-7,8.590121850386E-8},
    {-3.28555688001E-5,6.727709244719E-6,-9.19547225822E-7,8.584430132734E-8},
    {-3.29509936511E-5,6.727714228305E-6,-9.45453799997E-7,8.594997000914E-8},
    {-3.28809658389E-5,6.72771085511E-6,-9.00152722899E-7,8.585919265647E-8},
    {-3.28249133239E-5,6.727704364896E-6,-9.22141431282E-7,8.585298940829E-8},
    {-3.28417897892E-5,6.72771920666E-6,-9.28539483764E-7,8.593756233539E-8},
    {-3.28670740496E-5,6.727707276973E-6,-8.83097363221E-7,8.58052060338E-8},
    {-3.29952880313E-5,6.727722924478E-6,-9.29169184817E-7,8.592626496234E-8},
    {-3.27507970172E-5,6.727712684796E-6,-8.6967497623E-7,8.588266542098E-8},
    {-3.28185499633E-5,6.727701467703E-6,-8.8455333197E-7,8.585252176662E-8},
    {-3.2920317763E-5,6.72770891557E-6,-9.26340581694E-7,8.587471299148E-8},
    {-3.29251654644E-5,6.72771134226E-6,-9.23525183774E-7,8.586282054041E-8}}},
  {{5.28530296874E-14,3.68715014832E-13,7.30356510698E-13},{Residual->5.02424022308E-16}},
  {{-.5,5.07992226118E-14},{-.35,1.33665503862E-14},{-.2,9.247282393E-15},{-.05,3.57179246778E-14},{.1,9.63962381668E-14},
   {.25,1.91063584552E-13},{.4,3.1723599051E-13}}},
 {"AY",1,
  {6.042094082151E-8,6.7173057894E-6,1.999119533854E-8,8.417336176208E-8,{{-3.21722487183E-5,6.717303718197E-6,-8.35960418391E-7,
     8.41111312121E-8},
    {-3.21031997613E-5,6.717291659495E-6,-8.81554757474E-7,8.421546973982E-8},
    {-3.22308153368E-5,6.717310700983E-6,-8.58985105067E-7,8.412153386703E-8},
    {-3.22327373946E-5,6.717299094025E-6,-8.47945988517E-7,8.407645275805E-8},
    {-3.22982900638E-5,6.717308239583E-6,-9.01428342287E-7,8.425177307753E-8},
    {-3.22395924916E-5,6.717307831447E-6,-8.60407251618E-7,8.417146950072E-8},
    {-3.22824482346E-5,6.717309430725E-6,-8.5765837074E-7,8.421342229977E-8},
    {-3.23040801914E-5,6.717309419521E-6,-8.67760420083E-7,8.414260604168E-8},
    {-3.22824004046E-5,6.71731170319E-6,-8.49099818113E-7,8.411122931633E-8},
    {-3.23095648805E-5,6.717313708351E-6,-9.0870686668E-7,8.431638627458E-8},
    {-3.23130456113E-5,6.717308341529E-6,-8.77602465964E-7,8.414850660397E-8},
    {-3.22157698057E-5,6.717300411571E-6,-8.52500886493E-7,8.417223185834E-8},
    {-3.2331721933E-5,6.717307720436E-6,-9.01301059942E-7,8.419380756474E-8},
    {-3.23097534836E-5,6.717297078065E-6,-8.65591011966E-7,8.407593702682E-8},
    {-3.23556016476E-5,6.717309203975E-6,-8.62969306002E-7,8.416083046823E-8},
    {-3.22927115562E-5,6.717305351364E-6,-8.62342777167E-7,8.429915047836E-8},
    {-3.22008840641E-5,6.71729876249E-6,-8.77041922234E-7,8.411540535986E-8},
    {-3.21956645217E-5,6.717306778766E-6,-8.34027594619E-7,8.413917444647E-8},
    {-3.22734620482E-5,6.71731366254E-6,-8.83850548898E-7,8.425019707683E-8},
    {-3.22214026312E-5,6.717302971743E-6,-8.64064288849E-7,8.41805202703E-8}}},
  {{7.04124864668E-15,-1.9471211114E-14,1.17340111552E-12},{Residual->3.65144825568E-16}},
  {{-.3,1.18186879141E-13},{-.2,5.80926517212E-14},{-.1,2.11034031272E-14},{5.55111512313E-17,7.27932149164E-15},
   {.1,1.61441231231E-14},{.2,4.99181930589E-14},{.3,1.07116481211E-13}}},
 {"EY",1,
  {6.85021807677E-8,6.714932406396E-6,2.031733680572E-8,5.061236191144E-8,{{-3.24161590949E-5,6.714912300049E-6,-7.28893215992E-7,
     5.056073554803E-8},
    {-3.24647556867E-5,6.714910348418E-6,-7.4841677345E-7,5.053601279957E-8},
    {-3.24710066094E-5,6.714936080707E-6,-7.65972411043E-7,5.065418754613E-8},
    {-3.24358950898E-5,6.71493650423E-6,-7.59688908993E-7,5.062487183021E-8},
    {-3.25292345923E-5,6.714951066822E-6,-7.13842954883E-7,5.068105621175E-8},
    {-3.2563237493E-5,6.714911605245E-6,-7.52486729598E-7,5.051336593146E-8},
    {-3.23515225243E-5,6.714915584016E-6,-7.50515941096E-7,5.06017428517E-8},
    {-3.26084037001E-5,6.714919406033E-6,-7.29862849572E-7,5.055732390829E-8},
    {-3.25051468754E-5,6.71491481587E-6,-7.43991470726E-7,5.056443509471E-8},
    {-3.25541205672E-5,6.714918336438E-6,-7.47780126232E-7,5.055600697597E-8},
    {-3.24951755947E-5,6.714909867237E-6,-7.2721531704E-7,5.04965474073E-8},
    {-3.24612398916E-5,6.714945565391E-6,-7.59758052491E-7,5.065888539983E-8},
    {-3.2545066053E-5,6.714953474175E-6,-7.82750362964E-7,5.068189594132E-8},
    {-3.24973684313E-5,6.714954836407E-6,-7.18464137161E-7,5.067912240254E-8},
    {-3.26178704235E-5,6.714912567072E-6,-7.57311487033E-7,5.052878811968E-8},
    {-3.26340131957E-5,6.714966969359E-6,-7.74909090459E-7,5.074253959494E-8},
    {-3.24709296189E-5,6.714924318404E-6,-7.55338653661E-7,5.060716000663E-8},
    {-3.24545699756E-5,6.714941323084E-6,-7.09767715631E-7,5.063464179204E-8},
    {-3.25069410278E-5,6.714969180853E-6,-7.68893826756E-7,5.072953815231E-8},
    {-3.24717550185E-5,6.714943978102E-6,-7.24362084174E-7,5.063838071436E-8}}},
  {{7.33703701999E-15,1.0053251449E-13,5.30807557556E-13},{Residual->1.23355035148E-16}},
  {{-.5,8.96842910864E-14},{-.35,3.72505691504E-14},{-.2,8.65728245729E-15},{-.05,3.48301923783E-15},{.1,2.256072786E-14},
   {.25,6.57566955439E-14},{.4,1.32478187251E-13}}},
 {"R32",1,
  {7.5434412416E-8,6.707452143545E-6,1.970198387728E-8,4.056549337822E-8,{{-3.05593753522E-5,6.707414361637E-6,-8.65955851917E-7,
     4.057776667933E-8},
    {-3.04518020675E-5,6.707467564648E-6,-8.87040957401E-7,4.054398970001E-8},
    {-3.04759361091E-5,6.707423716123E-6,-8.21136702261E-7,4.055768537759E-8},
    {-3.05082834419E-5,6.707479205946E-6,-8.84072493144E-7,4.054552219881E-8},
    {-3.06411935893E-5,6.707443952344E-6,-8.78954202272E-7,4.059264014608E-8},
    {-3.06870659544E-5,6.707453860542E-6,-8.73600634252E-7,4.058444136646E-8},
    {-3.05074282492E-5,6.707448686441E-6,-8.63869820662E-7,4.056237199744E-8},
    {-3.05767465907E-5,6.707470883029E-6,-8.63724429625E-7,4.054723134609E-8},
    {-3.05570424965E-5,6.707438599199E-6,-8.34723444938E-7,4.057003890703E-8},
    {-3.07008668749E-5,6.707472228479E-6,-8.52019180924E-7,4.056179215762E-8},
    {-3.07053944231E-5,6.707481126936E-6,-8.51037356636E-7,4.055172132797E-8},
    {-3.06933400864E-5,6.707448341341E-6,-8.74158744382E-7,4.058167220403E-8},
    {-3.06205070803E-5,6.70746020348E-6,-8.61234593899E-7,4.055681587906E-8},
    {-3.06643537303E-5,6.707460342124E-6,-8.89879791344E-7,4.054352290559E-8},
    {-3.06201229991E-5,6.707447546482E-6,-8.39983122539E-7,4.055481178516E-8},
    {-3.06218780811E-5,6.707436634412E-6,-8.6865188288E-7,4.057658301238E-8},
    {-3.05265544598E-5,6.707450564732E-6,-9.06363779855E-7,4.058699717695E-8},
    {-3.05839545089E-5,6.707438431622E-6,-8.55151981932E-7,4.057685937963E-8},
    {-3.06144355374E-5,6.707466244881E-6,-8.6708017629E-7,4.054082817742E-8},
    {-3.05214244173E-5,6.707440376493E-6,-8.82029897428E-7,4.059657583978E-8}}},
  {{2.81957187627E-15,6.06016354802E-14,7.33500002904E-13},{Residual->5.43397344708E-17}},
  {{-.5,1.55927641844E-13},{-.35,7.13710012112E-14},{-.2,2.00756087211E-14},{-.05,1.69912031491E-15},{.1,1.61780931927E-14},
   {.25,6.37693406582E-14},{.4,1.44446876654E-13}}},
 {"AY",1,
  {6.351311610314E-8,6.704462428388E-6,1.608458695665E-8,4.09330252729E-8,{{-3.01386057945E-5,6.704469906559E-6,-1.10328315777E-6,
     4.095543809647E-8},
    {-3.00502365008E-5,6.704468296915E-6,-1.13696008019E-6,4.096022974089E-8},
    {-3.00613344388E-5,6.704468376051E-6,-1.08044323576E-6,4.092892406132E-8},
    {-3.02248191446E-5,6.704454549241E-6,-1.06701769513E-6,4.090171913902E-8},
    {-3.01295164943E-5,6.704454543096E-6,-1.09337013505E-6,4.092953023593E-8},
    {-3.0120198732E-5,6.704469722171E-6,-1.10144160676E-6,4.095750519269E-8},
    {-3.01858595949E-5,6.704460657547E-6,-1.09772317272E-6,4.091541754939E-8},
    {-3.00405303618E-5,6.704466767525E-6,-1.08009270745E-6,4.093444813964E-8},
    {-3.01578189231E-5,6.704466239775E-6,-1.09531566555E-6,4.092914721127E-8},
    {-3.00280055835E-5,6.704468335766E-6,-1.08488102304E-6,4.091550759625E-8},
    {-3.00978826169E-5,6.704460815167E-6,-1.06506984222E-6,4.092959787867E-8},
    {-3.00852229297E-5,6.704452994986E-6,-1.06881294018E-6,4.089339949779E-8},
    {-3.02258079396E-5,6.704463620563E-6,-1.09290657972E-6,4.097460660996E-8},
    {-3.01927040123E-5,6.704463192488E-6,-1.08784388198E-6,4.092621444209E-8},
    {-3.00931651971E-5,6.70446141323E-6,-1.10444215224E-6,4.092998720666E-8},
    {-3.02553083705E-5,6.704466775493E-6,-1.07167552337E-6,4.094810029051E-8},
    {-3.01567516212E-5,6.704461939193E-6,-1.08275734899E-6,4.092272282526E-8},
    {-3.01291818128E-5,6.704461630042E-6,-1.07817908193E-6,4.09456106624E-8},
    {-3.00677888365E-5,6.704446337718E-6,-1.08994179167E-6,4.09252873085E-8},
    {-3.01487294366E-5,6.704462454241E-6,-1.08210426423E-6,4.093711177322E-8}}},
  {{1.24676098355E-15,6.01127227577E-16,1.16806281227E-12},{Residual->2.2111912972E-16}},
  {{-.3,1.0613776011E-13},{-.2,4.78989075295E-14},{-.1,1.2751196221E-14},{5.55111512313E-17,1.67413287472E-15},
   {.1,1.27180092785E-14},{.2,4.78872863563E-14},{.3,1.06717621952E-13}}},
 {"EY",1,
  {6.070572866293E-8,6.708095388901E-6,1.744726754227E-8,3.909585985424E-8,{{-3.15684971573E-5,6.708113165617E-6,-8.24064236739E-7,
     3.910956211633E-8},
    {-3.14981524285E-5,6.708083774227E-6,-8.07748947964E-7,3.909941263138E-8},
    {-3.16353436368E-5,6.708097761757E-6,-8.15525847103E-7,3.908335405589E-8},
    {-3.15664036612E-5,6.708093762926E-6,-8.02886450291E-7,3.909330705228E-8},
    {-3.16499860312E-5,6.708115659466E-6,-8.20298113906E-7,3.910345591728E-8},
    {-3.17564358028E-5,6.708116622857E-6,-8.08773263983E-7,3.910054181797E-8},
    {-3.15778978396E-5,6.70806582996E-6,-7.9595288836E-7,3.906773589762E-8},
    {-3.15669147477E-5,6.708088080759E-6,-8.09662382353E-7,3.908305762952E-8},
    {-3.15823016156E-5,6.708074488607E-6,-8.07904743479E-7,3.908562047732E-8},
    {-3.157168694E-5,6.708089413555E-6,-8.23680985708E-7,3.910064178992E-8},
    {-3.16499724256E-5,6.708098484331E-6,-8.02509521018E-7,3.910171641462E-8},
    {-3.1573915553E-5,6.708091867708E-6,-8.12924631561E-7,3.908142297114E-8},
    {-3.16954398287E-5,6.708082888105E-6,-8.32321602038E-7,3.908075453931E-8},
    {-3.16576873433E-5,6.708108758613E-6,-8.21034732894E-7,3.911029321816E-8},
    {-3.16265911535E-5,6.708110715099E-6,-8.17574969564E-7,3.91135046852E-8},
    {-3.16071586219E-5,6.708092839231E-6,-8.06379733849E-7,3.909630030658E-8},
    {-3.16505017018E-5,6.708116771632E-6,-8.45975913372E-7,3.912330311784E-8},
    {-3.16693947488E-5,6.708094249345E-6,-7.64213699339E-7,3.908157527721E-8},
    {-3.15111713159E-5,6.70810459734E-6,-8.37261961468E-7,3.910298954591E-8},
    {-3.15772238175E-5,6.708068046882E-6,-8.39721252883E-7,3.909864762338E-8}}},
  {{1.48551484907E-15,1.47891033907E-14,5.28087746114E-13},{Residual->7.92541781529E-17}},
  {{-.3,4.45674570084E-14},{-.2,1.96409444263E-14},{-.1,5.26787922981E-15},{5.55111512313E-17,1.64101931794E-15},
   {.1,8.13736118778E-15},{.2,2.55012676415E-14},{.3,5.35072440436E-14}}},
 {"R32",1,
  {5.529416085788E-8,6.705799412577E-6,1.64958954249E-8,3.86083813487E-8,{{-3.35052823079E-5,6.705784469293E-6,-8.10978896297E-7,
     3.861204136218E-8},
    {-3.3559046605E-5,6.705804417902E-6,-8.36757481556E-7,3.86089122847E-8},
    {-3.34970018147E-5,6.705805430691E-6,-8.24901122896E-7,3.860662434605E-8},
    {-3.35530402491E-5,6.705799078521E-6,-8.23460280096E-7,3.860877240362E-8},
    {-3.34796702473E-5,6.705786213813E-6,-8.71323212979E-7,3.861456832588E-8},
    {-3.36634846277E-5,6.705791375583E-6,-7.97201296033E-7,3.860612970784E-8},
    {-3.3433669846E-5,6.705798137709E-6,-8.26243340016E-7,3.86068711289E-8},
    {-3.35960597686E-5,6.705808280321E-6,-8.31310390887E-7,3.860495043905E-8},
    {-3.3559395683E-5,6.705799826261E-6,-8.16007031708E-7,3.860617347162E-8},
    {-3.35644920222E-5,6.705795290777E-6,-8.35335270423E-7,3.860615624861E-8},
    {-3.34253248327E-5,6.705807962997E-6,-8.48577205451E-7,3.8608244548E-8},
    {-3.34805913109E-5,6.705801493577E-6,-8.14898561874E-7,3.860632451516E-8},
    {-3.35605823594E-5,6.705810593125E-6,-8.40331572983E-7,3.860898105205E-8},
    {-3.3601309588E-5,6.705786063911E-6,-8.19834554209E-7,3.860945970897E-8},
    {-3.35337457363E-5,6.705791704927E-6,-8.59414229759E-7,3.861135386358E-8},
    {-3.35599368031E-5,6.705810905514E-6,-8.25522771727E-7,3.860836679465E-8},
    {-3.35532319853E-5,6.705811523615E-6,-8.35223453877E-7,3.860832902389E-8},
    {-3.3500297558E-5,6.705804621591E-6,-8.42618178592E-7,3.860608578311E-8},
    {-3.3551871812E-5,6.705788493373E-6,-8.26025285415E-7,3.8610307498E-8},
    {-3.35148781025E-5,6.705802368034E-6,-8.21368708627E-7,3.860897446806E-8}}},
  {{1.64146421273E-15,1.63596683192E-14,7.33623553664E-13},{Residual->1.12014205028E-16}},
  {{-.3,6.26884134863E-14},{-.2,2.78772768985E-14},{-.1,7.30973683733E-15},{5.55111512313E-17,1.54504983551E-15},
   {.1,1.05358950697E-14},{.2,3.44447098458E-14},{.3,7.25037625419E-14}}},
 {"Y24",1,
  {6.191005796941E-8,6.707518627885E-6,1.557300963438E-8,3.904321142429E-8,{{-3.3357309649E-5,6.707533779074E-6,-1.02103135328E-6,
     3.905420561284E-8},
    {-3.34160221609E-5,6.707518589767E-6,-9.89642819812E-7,3.903326327649E-8},
    {-3.35042204073E-5,6.707530173927E-6,-1.04750652123E-6,3.904693716634E-8},
    {-3.34496678277E-5,6.707532846035E-6,-1.02285465896E-6,3.904258059318E-8},
    {-3.34186397864E-5,6.707500212016E-6,-9.96994016315E-7,3.903279877122E-8},
    {-3.35296673752E-5,6.707512285979E-6,-1.02072081403E-6,3.904406986959E-8},
    {-3.34981427091E-5,6.707510931472E-6,-1.03317989353E-6,3.904265916643E-8},
    {-3.34856507873E-5,6.707525774547E-6,-1.02432267802E-6,3.905049848933E-8},
    {-3.35790804653E-5,6.707543735118E-6,-1.00005424981E-6,3.905294037626E-8},
    {-3.34521457907E-5,6.707483770858E-6,-1.00953617731E-6,3.904225381625E-8},
    {-3.34946254521E-5,6.707509630893E-6,-1.02405860553E-6,3.904301006169E-8},
    {-3.33328925278E-5,6.70752687252E-6,-1.03728840001E-6,3.904493231829E-8},
    {-3.34212066713E-5,6.707510984081E-6,-1.02053085227E-6,3.903943932686E-8},
    {-3.33696518915E-5,6.707517751937E-6,-1.02859528601E-6,3.904838689455E-8},
    {-3.35301058868E-5,6.707522466234E-6,-1.0371743867E-6,3.904667697371E-8},
    {-3.35148192788E-5,6.707515668568E-6,-1.02052623077E-6,3.904124246809E-8},
    {-3.34178025752E-5,6.70753312092E-6,-9.8893242983E-7,3.903991411366E-8},
    {-3.34605979943E-5,6.707492052338E-6,-1.00851721485E-6,3.903168046482E-8},
    {-3.34497539847E-5,6.707530460301E-6,-1.01347065526E-6,3.904666834993E-8},
    {-3.35087041762E-5,6.707521451104E-6,-1.03167823154E-6,3.904007037633E-8}}},
  {{1.66425722008E-15,-1.3186400537E-16,1.20724976304E-15},{Residual->9.20741982218E-17}},
  {{-1.5,4.52582192821E-15},{-1.2,3.62894041652E-15},{-.9,2.85675659104E-15},{-.6,2.18639677645E-15},{-.3,1.68677363697E-15},
   {0,1.52432192516E-15},{.3,1.72193575096E-15},{.6,2.11415265925E-15},{.9,2.64649436598E-15},{1.2,3.30156819705E-15},
   {1.5,4.06543982745E-15}}},
 {"Y46",1,
  {6.318422225051E-8,6.705422969242E-6,1.888625420023E-8,3.798734802004E-8,{{-3.3291469165E-5,6.705420279477E-6,-9.59462847464E-7,
     3.797563292739E-8},
    {-3.32807434142E-5,6.705427071576E-6,-9.93235710674E-7,3.80026922423E-8},
    {-3.33185807754E-5,6.705389098182E-6,-9.84478401525E-7,3.793001119761E-8},
    {-3.33752832687E-5,6.705419948159E-6,-9.82990757346E-7,3.797698935034E-8},
    {-3.32832742878E-5,6.705416860734E-6,-1.00862182507E-6,3.799608533546E-8},
    {-3.34250596522E-5,6.705432424364E-6,-1.01954509422E-6,3.798735145766E-8},
    {-3.32933047254E-5,6.705425644486E-6,-1.0225874297E-6,3.799541377234E-8},
    {-3.32042132787E-5,6.705413934722E-6,-9.90123866713E-7,3.799881691856E-8},
    {-3.34089027298E-5,6.705423415624E-6,-1.02355862702E-6,3.79713346865E-8},
    {-3.33776980045E-5,6.705431344297E-6,-1.00074507796E-6,3.79878348811E-8},
    {-3.32803503136E-5,6.705411997614E-6,-1.0022894588E-6,3.797336240938E-8},
    {-3.34270842282E-5,6.705443641628E-6,-9.66341427358E-7,3.801599075303E-8},
    {-3.33259548591E-5,6.705423776337E-6,-1.00682740328E-6,3.799212751881E-8},
    {-3.33358427458E-5,6.705418911702E-6,-9.61877294709E-7,3.796932402584E-8},
    {-3.33249929338E-5,6.705433814237E-6,-9.98809122184E-7,3.801131313787E-8},
    {-3.33196676491E-5,6.705437701243E-6,-1.00348018556E-6,3.802475811526E-8},
    {-3.32501160174E-5,6.705406283759E-6,-1.01337720561E-6,3.795987328877E-8},
    {-3.3454595134E-5,6.705452530181E-6,-1.02142049018E-6,3.801701359152E-8},
    {-3.32844664798E-5,6.705411391865E-6,-1.00195327029E-6,3.797876572945E-8},
    {-3.33588682557E-5,6.705419314647E-6,-9.88878284036E-7,3.798226906166E-8}}},
  {{1.57120297096E-15,6.28530671658E-16,2.24447391255E-15},{Residual->7.1306945366E-17}},
  {{-1,3.22208659243E-15},{-.8,2.54687550333E-15},{-.6,1.99430208881E-15},{-.4,1.60354590773E-15},{-.2,1.44240063081E-15},
   {0,1.52415001706E-15},{.2,1.81725921102E-15},{.4,2.2801681686E-15},{.6,2.85649754921E-15},{.8,3.54724086516E-15},
   {1,4.32439136163E-15}}},
 {"Y22",1,
  {5.731178710958E-8,6.705425233271E-6,1.736278106117E-8,3.798640742304E-8,{{-3.33469227472E-5,6.705403048873E-6,-1.02822521325E-6,
     3.795493165571E-8},
    {-3.33631505202E-5,6.705441710463E-6,-1.01762687267E-6,3.800627008498E-8},
    {-3.34047639273E-5,6.705419573012E-6,-9.85785037046E-7,3.795651089934E-8},
    {-3.32524668479E-5,6.705429829279E-6,-1.03752487753E-6,3.800783504498E-8},
    {-3.33480275303E-5,6.705439604924E-6,-1.01262404054E-6,3.800494368217E-8},
    {-3.33093956579E-5,6.705427747233E-6,-9.85686400614E-7,3.798475764019E-8},
    {-3.32354121078E-5,6.705425181912E-6,-1.03719333127E-6,3.800948289448E-8},
    {-3.33508398504E-5,6.70543073964E-6,-1.00083083761E-6,3.79802235508E-8},
    {-3.33765775603E-5,6.705428058835E-6,-1.00641660652E-6,3.797586499074E-8},
    {-3.33548527597E-5,6.70542478977E-6,-1.02447386673E-6,3.798077460008E-8},
    {-3.33017531396E-5,6.705425997774E-6,-9.67911459723E-7,3.798715486014E-8},
    {-3.32395556953E-5,6.705415271571E-6,-1.01508899524E-6,3.798099272951E-8},
    {-3.33353512073E-5,6.705413574849E-6,-1.01838841944E-6,3.796301554429E-8},
    {-3.32693524554E-5,6.705419486541E-6,-1.02795776949E-6,3.798129161165E-8},
    {-3.32619665991E-5,6.705417359911E-6,-1.01030255596E-6,3.798891018437E-8},
    {-3.3193231666E-5,6.70541813556E-6,-1.01510561419E-6,3.799882105108E-8},
    {-3.33055176184E-5,6.70541437688E-6,-1.00628806795E-6,3.798026257484E-8},
    {-3.33234981425E-5,6.705432295929E-6,-9.95467353082E-7,3.79957753927E-8},
    {-3.34083308158E-5,6.705444808018E-6,-1.02483521982E-6,3.800584790317E-8},
    {-3.33530273365E-5,6.705433074451E-6,-1.00582503404E-6,3.798448156551E-8}}},
  {{2.4209815438E-15,1.00820658923E-15,2.28788400637E-14},{Residual->5.25507512885E-16}},
  {{-.6,9.64427825138E-15},{-.4,6.41401856307E-15},{-.2,3.39693171196E-15},{1.11022302463E-16,1.44251753598E-15},
   {.2,3.66391516635E-15},{.4,6.888686022E-15},{.6,1.11208244272E-14}}},
 {"Y26",1,
  {6.72797575044E-8,6.705431969368E-6,1.745887542707E-8,3.798179732503E-8,{{-3.33916997443E-5,6.705436550767E-6,-1.02013637131E-6,
     3.798180605476E-8},
    {-3.33041856761E-5,6.705430991977E-6,-1.05620293692E-6,3.798644020294E-8},
    {-3.34157664375E-5,6.705438453153E-6,-1.01520771631E-6,3.796737309677E-8},
    {-3.33744188734E-5,6.705438424552E-6,-1.01282829453E-6,3.798447749759E-8},
    {-3.33488765985E-5,6.7054374647E-6,-9.96321371431E-7,3.798267647306E-8},
    {-3.33447012081E-5,6.705444166033E-6,-9.84689522949E-7,3.798919274667E-8},
    {-3.32784561157E-5,6.705427119839E-6,-1.03486448779E-6,3.798953929685E-8},
    {-3.32903833695E-5,6.705414936775E-6,-9.97950278432E-7,3.795822289777E-8},
    {-3.33281636142E-5,6.705427759121E-6,-9.92518960246E-7,3.797210173311E-8},
    {-3.31666704236E-5,6.705426346485E-6,-1.03847394641E-6,3.80003927087E-8},
    {-3.32146280679E-5,6.705424511732E-6,-1.03644333642E-6,3.798427214046E-8},
    {-3.3369437633E-5,6.705431439063E-6,-1.02463754881E-6,3.798368547686E-8},
    {-3.33636978161E-5,6.705449404056E-6,-1.02079333238E-6,3.799569493184E-8},
    {-3.33399196883E-5,6.705435086389E-6,-1.01870006049E-6,3.798304469479E-8},
    {-3.32848572022E-5,6.705430977501E-6,-9.99505300744E-7,3.797526736807E-8},
    {-3.33722694678E-5,6.705430925503E-6,-1.01569416708E-6,3.795822944196E-8},
    {-3.31753489699E-5,6.705418013696E-6,-1.01561476818E-6,3.797893298127E-8},
    {-3.32668041517E-5,6.705433496365E-6,-1.03317478028E-6,3.799179646657E-8},
    {-3.32976231566E-5,6.705431879057E-6,-1.02582895011E-6,3.798702111343E-8},
    {-3.32604261923E-5,6.705431440598E-6,-1.00243447015E-6,3.798577917714E-8}}},
  {{1.9179340968E-15,-2.3304275572E-15,2.94067782001E-14},{Residual->2.40526436743E-16}},
  {{-.6,1.38549263913E-14},{-.4,7.72207086712E-15},{-.2,3.6007144088E-15},{1.11022302463E-16,1.44276122578E-15},
   {.2,2.8578498158E-15},{.4,5.94703147836E-15},{.6,1.09357760746E-14}}},
 {"Y66",1,
  {5.94651312523E-8,6.705435212632E-6,1.868075985178E-8,3.79823565447E-8,{{-3.32964818724E-5,6.705451632997E-6,-1.02669283518E-6,
     3.799690728109E-8},
    {-3.32693322568E-5,6.705440027935E-6,-1.01342380877E-6,3.798930030141E-8},
    {-3.32230743458E-5,6.705429374396E-6,-1.04297821039E-6,3.798635065037E-8},
    {-3.33759283861E-5,6.705440816816E-6,-1.01267859099E-6,3.797177237255E-8},
    {-3.33257339983E-5,6.705435784411E-6,-9.90688846533E-7,3.796970336546E-8},
    {-3.32536018503E-5,6.705437420044E-6,-9.98588048875E-7,3.799128212576E-8},
    {-3.33393212502E-5,6.705433964155E-6,-1.02392450979E-6,3.797457262805E-8},
    {-3.32428893973E-5,6.705409398872E-6,-1.01846398884E-6,3.794560632107E-8},
    {-3.33133260586E-5,6.70543255374E-6,-1.04174840594E-6,3.798358947606E-8},
    {-3.31971074888E-5,6.705438754987E-6,-9.94969211445E-7,3.799676498898E-8},
    {-3.33775798546E-5,6.70546185219E-6,-1.00080618516E-6,3.802412817778E-8},
    {-3.34141774389E-5,6.705444778317E-6,-1.00609494014E-6,3.797209991649E-8},
    {-3.32449326702E-5,6.705444643372E-6,-9.70506058599E-7,3.801249860193E-8},
    {-3.32109866094E-5,6.705429441906E-6,-1.0090851245E-6,3.798618861295E-8},
    {-3.33062519521E-5,6.705447650809E-6,-1.05011668529E-6,3.800453902911E-8},
    {-3.32936761559E-5,6.705423669553E-6,-1.01387466487E-6,3.795941957963E-8},
    {-3.33141019124E-5,6.705432527048E-6,-1.0083676571E-6,3.79745107646E-8},
    {-3.33403327505E-5,6.705450272513E-6,-1.03140988442E-6,3.79966635938E-8},
    {-3.32240159629E-5,6.705420005948E-6,-1.02686666699E-6,3.796950975166E-8},
    {-3.32365863247E-5,6.705399682631E-6,-1.01497379378E-6,3.794172335523E-8}}},
  {{3.65698514729E-15,1.03470114655E-14,8.39119536484E-13},{Residual->1.00377710392E-15}},
  {{-.2,3.46938455952E-14},{-.15,2.14305131084E-14},{-.1,1.20113079677E-14},{-.05,5.31181798807E-15},{0,1.44267635184E-15},
   {.05,6.18545066431E-15},{.1,1.44028431662E-14},{.15,2.47581147966E-14},{.2,3.85442271599E-14}}},
 {"Y44",1,
  {4.309289297845E-8,6.705440310118E-6,1.639966005222E-8,3.798474708443E-8,{{-3.33241703708E-5,6.705432547337E-6,-9.95063233982E-7,
     3.796747608456E-8},
    {-3.33076438026E-5,6.7054431393E-6,-1.0265690413E-6,3.798782523449E-8},
    {-3.33610765614E-5,6.705439888509E-6,-9.9435962482E-7,3.798828319054E-8},
    {-3.33271507393E-5,6.705451056671E-6,-9.96405712214E-7,3.800802817151E-8},
    {-3.32959413346E-5,6.705436894883E-6,-1.04759964776E-6,3.798630704817E-8},
    {-3.34085304295E-5,6.70543301012E-6,-1.0144344818E-6,3.796185419933E-8},
    {-3.33547519271E-5,6.705429666867E-6,-1.03889683499E-6,3.79776446366E-8},
    {-3.33314403419E-5,6.705429500312E-6,-1.00515948685E-6,3.797288754221E-8},
    {-3.33038634519E-5,6.70543672305E-6,-1.01963523845E-6,3.79896781718E-8},
    {-3.34000607121E-5,6.705456085847E-6,-1.02074373903E-6,3.8020101806E-8},
    {-3.32778454107E-5,6.705447130029E-6,-1.02879994693E-6,3.800371440379E-8},
    {-3.33869877809E-5,6.705451126787E-6,-1.02979452402E-6,3.799214672917E-8},
    {-3.34036029083E-5,6.705449179226E-6,-1.01001077885E-6,3.798892366052E-8},
    {-3.33560023899E-5,6.70543629833E-6,-1.0202671273E-6,3.797453161257E-8},
    {-3.32690077118E-5,6.705434801037E-6,-1.03362158451E-6,3.79942653743E-8},
    {-3.34031253327E-5,6.705438285684E-6,-1.0229201528E-6,3.796436799699E-8},
    {-3.3314674186E-5,6.705444867169E-6,-1.0032966914E-6,3.799141312503E-8},
    {-3.33720006199E-5,6.705451407006E-6,-9.93791907083E-7,3.798228280667E-8},
    {-3.3307607372E-5,6.70542600002E-6,-1.04055768355E-6,3.796606962009E-8},
    {-3.33806245922E-5,6.705438594165E-6,-1.03718047241E-6,3.797714027421E-8}}},
  {{1.84597418453E-15,7.45385608412E-16,1.15391555925E-14},{Residual->2.14848251401E-16}},
  {{-.6,5.39942966704E-15},{-.4,3.64116389348E-15},{-.2,2.33196823874E-15},{1.11022302463E-16,1.44351008721E-15},
   {.2,2.45332701935E-15},{.4,4.1954065337E-15},{.6,6.38086811572E-15}}},
 {"AY",1,
  {3.574398535959E-8,6.705547541329E-6,1.45165904344E-8,3.793921308873E-8,{{-3.3348297211E-5,6.705555964145E-6,-1.00732877824E-6,
     3.796547744746E-8},
    {-3.33632390273E-5,6.705561419754E-6,-1.00364144539E-6,3.795541312668E-8},
    {-3.33842320204E-5,6.70554658034E-6,-1.01722367817E-6,3.792875642098E-8},
    {-3.32579273001E-5,6.705528953568E-6,-1.04713636911E-6,3.793091203619E-8},
    {-3.32794743579E-5,6.705540584996E-6,-1.02131581046E-6,3.793790781573E-8},
    {-3.34121340305E-5,6.705559197327E-6,-1.01026929138E-6,3.794681279408E-8},
    {-3.33315205636E-5,6.705544485487E-6,-1.01343840813E-6,3.792828677833E-8},
    {-3.33741000652E-5,6.705547256597E-6,-1.02450870059E-6,3.793113020033E-8},
    {-3.33528245465E-5,6.705557226618E-6,-1.04202967798E-6,3.795748531168E-8},
    {-3.33525556239E-5,6.705552604354E-6,-1.01574706449E-6,3.794300357485E-8},
    {-3.33761985131E-5,6.705544160556E-6,-1.04082130117E-6,3.793127632729E-8},
    {-3.33155519036E-5,6.705540815153E-6,-1.01381191411E-6,3.792961987317E-8},
    {-3.33408045773E-5,6.705542729E-6,-1.03950035774E-6,3.792280685991E-8},
    {-3.33440161996E-5,6.705552143405E-6,-1.00761338364E-6,3.795337515452E-8},
    {-3.3326013467E-5,6.705541301703E-6,-1.0444820792E-6,3.793901214134E-8},
    {-3.33609062108E-5,6.705546135123E-6,-1.02380519033E-6,3.792691338877E-8},
    {-3.33565471511E-5,6.705543842711E-6,-1.01830362286E-6,3.79308994823E-8},
    {-3.3396734189E-5,6.705545837356E-6,-1.02363502035E-6,3.792930778279E-8},
    {-3.3317958496E-5,6.705543294192E-6,-1.0159910256E-6,3.792881672235E-8},
    {-3.33325461851E-5,6.70555629419E-6,-1.05279333478E-6,3.796704853589E-8}}},
  {{1.32590367626E-15,4.58990486123E-15,1.07351494168E-12},{Residual->7.83306712809E-17}},
  {{-.1,1.16626575607E-14},{-.07,6.15386072268E-15},{-.04,2.83016992968E-15},{-.01,1.50264346118E-15},{.02,1.8806184528E-15},
   {.05,4.13664310001E-15},{.08,8.59747615587E-15}}},
 {"EY",1,
  {5.902370288433E-8,6.706882534765E-6,2.049722772203E-8,3.782038716742E-8,{{-3.24388598249E-5,6.706881884711E-6,-1.97243794105E-6,
     3.781907936264E-8},
    {-3.24641482477E-5,6.706886030817E-6,-1.96229086865E-6,3.78178188213E-8},
    {-3.23739456202E-5,6.706878977773E-6,-1.92581728589E-6,3.781546738175E-8},
    {-3.25485418563E-5,6.706892544686E-6,-1.98735258147E-6,3.782570103195E-8},
    {-3.24236032889E-5,6.706882572146E-6,-1.97779190117E-6,3.781402585014E-8},
    {-3.24765382222E-5,6.706887204618E-6,-1.92360592819E-6,3.781493610061E-8},
    {-3.24007814007E-5,6.706882422495E-6,-1.96790729995E-6,3.782511066678E-8},
    {-3.24010815583E-5,6.706875745875E-6,-1.96819765564E-6,3.779740590023E-8},
    {-3.24047633941E-5,6.706880834927E-6,-1.97712532432E-6,3.782308759282E-8},
    {-3.24350699118E-5,6.706884563953E-6,-2.00727395647E-6,3.782656249513E-8},
    {-3.23993431672E-5,6.706881944676E-6,-1.96672631737E-6,3.782284266663E-8},
    {-3.24189504086E-5,6.706879861683E-6,-1.9806251817E-6,3.783620290074E-8},
    {-3.24965649787E-5,6.706887913091E-6,-1.96734124832E-6,3.781905308949E-8},
    {-3.24068298571E-5,6.706881986701E-6,-1.94111994712E-6,3.782031548066E-8},
    {-3.24358073495E-5,6.706880190364E-6,-1.97206801961E-6,3.781602506506E-8},
    {-3.25849780713E-5,6.706893974985E-6,-1.94921630875E-6,3.78172659908E-8},
    {-3.24455457344E-5,6.706883356197E-6,-1.9374818769E-6,3.782176970767E-8},
    {-3.2352221526E-5,6.706876093749E-6,-1.94412265802E-6,3.782335856827E-8},
    {-3.23402779386E-5,6.706872593748E-6,-1.97907702985E-6,3.782993057261E-8},
    {-3.23820454535E-5,6.706879998104E-6,-1.96485649793E-6,3.782178410304E-8}}},
  {{1.42756079937E-15,6.74347059545E-15,5.18336009535E-13},{Residual->3.65399444417E-17}},
  {{-.1,5.97213717582E-15},{-.07,3.46787059079E-15},{-.04,1.92732071223E-15},{-.01,1.42872151596E-15},{.02,1.81999944847E-15},
   {.05,3.07326326008E-15},{.08,5.25647259754E-15}}},
 {"R32",1,
  {6.009626093312E-8,6.703977946145E-6,1.793407105283E-8,3.769036918539E-8,{{-3.51174409185E-5,6.703970057424E-6,-1.85389296928E-6,
     3.76869231766E-8},
    {-3.51795365923E-5,6.703984942933E-6,-1.88475373795E-6,3.769203419243E-8},
    {-3.51612666528E-5,6.703964347613E-6,-1.88456307967E-6,3.770454047041E-8},
    {-3.51616976422E-5,6.704000057191E-6,-1.88476080742E-6,3.768609759298E-8},
    {-3.5034656444E-5,6.70395736339E-6,-1.87404483324E-6,3.768817212885E-8},
    {-3.51426842854E-5,6.703974539109E-6,-1.8975915696E-6,3.769124092708E-8},
    {-3.51421348128E-5,6.704000782075E-6,-1.90318434329E-6,3.769505223829E-8},
    {-3.5231761126E-5,6.703981512507E-6,-1.87134980782E-6,3.768343505682E-8},
    {-3.51175973903E-5,6.703964667623E-6,-1.85529700588E-6,3.769265902151E-8},
    {-3.5072727292E-5,6.703970276441E-6,-1.89818869292E-6,3.769902552225E-8},
    {-3.51531654768E-5,6.704000872354E-6,-1.87565450315E-6,3.767669572416E-8},
    {-3.51963771059E-5,6.703985546272E-6,-1.85629031379E-6,3.768383428608E-8},
    {-3.5047359678E-5,6.703956162834E-6,-1.88040870483E-6,3.76983177136E-8},
    {-3.50295679496E-5,6.70394086219E-6,-1.84679979642E-6,3.770134223259E-8},
    {-3.5194763894E-5,6.703957303123E-6,-1.8787439261E-6,3.771776626399E-8},
    {-3.5264081723E-5,6.704008737507E-6,-1.84370964801E-6,3.767448018605E-8},
    {-3.51264189357E-5,6.703968006116E-6,-1.85089465263E-6,3.769034573647E-8},
    {-3.51380349422E-5,6.703986971738E-6,-1.87270585844E-6,3.768037285009E-8},
    {-3.51191712432E-5,6.704006108099E-6,-1.88138571439E-6,3.768130979435E-8},
    {-3.51792104162E-5,6.703979806361E-6,-1.84594547793E-6,3.768373859323E-8}}},
  {{1.43683685745E-15,9.24744092919E-15,7.0267633895E-13},{Residual->6.15329714839E-17}},
  {{-.1,7.473270792E-15},{-.07,4.30522895335E-15},{-.04,2.23610719956E-15},{-.01,1.42980620319E-15},{.02,1.84580425598E-15},
   {.05,3.57544962303E-15},{.08,6.7441872888E-15}}},
 {"Y24",1,
  {5.134443512985E-8,6.706274558054E-6,1.673162298085E-8,3.890941392213E-8,{{-3.5604256181E-5,6.706289576192E-6,-1.48820804666E-6,
     3.89026877051E-8},
    {-3.54830945976E-5,6.706266556392E-6,-1.48784073911E-6,3.892333938916E-8},
    {-3.5541674445E-5,6.70627906616E-6,-1.49627774187E-6,3.887880387288E-8},
    {-3.55419395636E-5,6.706280173958E-6,-1.46686606702E-6,3.889521021546E-8},
    {-3.54963043835E-5,6.706271940853E-6,-1.49548992054E-6,3.889627819242E-8},
    {-3.55680226522E-5,6.706279017273E-6,-1.49957301769E-6,3.891445945482E-8},
    {-3.55138350975E-5,6.70626423381E-6,-1.50175450666E-6,3.896260766234E-8},
    {-3.55434248451E-5,6.706279988781E-6,-1.45506205846E-6,3.889618794665E-8},
    {-3.55306629412E-5,6.706267915245E-6,-1.48595750755E-6,3.895248173726E-8},
    {-3.55116089472E-5,6.706267710964E-6,-1.49762099355E-6,3.894263389649E-8},
    {-3.53768791925E-5,6.706258774085E-6,-1.46326924211E-6,3.891464369151E-8},
    {-3.55793942522E-5,6.706278820345E-6,-1.47606640568E-6,3.893462761032E-8},
    {-3.55306863769E-5,6.706281195727E-6,-1.49536034285E-6,3.888973044067E-8},
    {-3.54440995309E-5,6.706269269548E-6,-1.47159578024E-6,3.888663916556E-8},
    {-3.55726531456E-5,6.706286353126E-6,-1.46516852983E-6,3.888519216679E-8},
    {-3.55062908798E-5,6.706275065053E-6,-1.48559986847E-6,3.888284207159E-8},
    {-3.55940332039E-5,6.706285166526E-6,-1.4807976627E-6,3.888308083259E-8},
    {-3.54957288127E-5,6.706272900996E-6,-1.45853865321E-6,3.888902570219E-8},
    {-3.54932916785E-5,6.706267833853E-6,-1.48460110934E-6,3.893974762961E-8},
    {-3.55093414494E-5,6.706269602189E-6,-1.43957861723E-6,3.891805905925E-8}}},
  {{1.51681865095E-15,6.85207220728E-17,1.88462539603E-15},{Residual->3.34925298484E-18}},
  {{-.3,1.66838823029E-15},{-.2,1.577747907E-15},{-.1,1.52264436571E-15},{5.55111512313E-17,1.51805595155E-15},
   {.1,1.54568937623E-15},{.2,1.60922599411E-15},{.3,1.70367384265E-15}}},
 {"Y46",1,
  {6.434354773626E-8,6.705443127041E-6,1.982868435899E-8,3.813080257438E-8,{{-3.54923301804E-5,6.705446562001E-6,-1.47251830383E-6,
     3.812224365205E-8},
    {-3.54883285626E-5,6.705444715003E-6,-1.46600118012E-6,3.81190119209E-8},
    {-3.54979977261E-5,6.705435653065E-6,-1.4642289109E-6,3.818451228194E-8},
    {-3.54811395886E-5,6.70544763962E-6,-1.49245340446E-6,3.812326542971E-8},
    {-3.54110516931E-5,6.705448520163E-6,-1.47902128101E-6,3.811714344942E-8},
    {-3.53472354575E-5,6.705443558717E-6,-1.47130628373E-6,3.811592235575E-8},
    {-3.54609234914E-5,6.705440519104E-6,-1.43700794865E-6,3.814838403466E-8},
    {-3.55210678521E-5,6.705435447975E-6,-1.44352693554E-6,3.814807702118E-8},
    {-3.54640015171E-5,6.70543855089E-6,-1.48723007349E-6,3.814366574365E-8},
    {-3.54775581115E-5,6.705450089866E-6,-1.51933845985E-6,3.812192511538E-8},
    {-3.5488667985E-5,6.705448280545E-6,-1.47566621596E-6,3.812364189122E-8},
    {-3.53502313237E-5,6.705438854722E-6,-1.48086803273E-6,3.813583539315E-8},
    {-3.53554082459E-5,6.705439537124E-6,-1.45575912571E-6,3.813042436208E-8},
    {-3.53671499226E-5,6.705429665101E-6,-1.45508779614E-6,3.816206850607E-8},
    {-3.5471675584E-5,6.705448510037E-6,-1.46146612432E-6,3.811163502862E-8},
    {-3.54146762577E-5,6.705446083592E-6,-1.50011874891E-6,3.812188573545E-8},
    {-3.54805058184E-5,6.705443753624E-6,-1.47427758092E-6,3.813472288684E-8},
    {-3.55623641036E-5,6.705443134879E-6,-1.46591638587E-6,3.812779262545E-8},
    {-3.53302015702E-5,6.705437519596E-6,-1.49013795092E-6,3.814338309449E-8},
    {-3.54861904584E-5,6.705455945193E-6,-1.44237459017E-6,3.808051095955E-8}}},
  {{1.51759485183E-15,7.5738467536E-16,2.65325883812E-15},{Residual->7.61843881877E-18}},
  {{-.45,1.72014605496E-15},{-.3,1.5255034879E-15},{-.15,1.45488649136E-15},{-5.5511151231E-17,1.51434390675E-15},
   {.15,1.69879929306E-15},{.3,1.99456541489E-15},{.45,2.3864723819E-15}}},
 {"Y22",1,
  {6.83653978401E-8,6.705445017509E-6,1.526213370733E-8,3.813286841739E-8,{{-3.54812947904E-5,6.705450833692E-6,-1.44427883312E-6,
     3.810867777684E-8},
    {-3.55242041132E-5,6.705452554566E-6,-1.48879663094E-6,3.810496606804E-8},
    {-3.54240770116E-5,6.705447149101E-6,-1.48518942225E-6,3.811572293235E-8},
    {-3.54898080022E-5,6.705449580097E-6,-1.49715404132E-6,3.81256045993E-8},
    {-3.55419025739E-5,6.705448488832E-6,-1.51080673618E-6,3.813448184096E-8},
    {-3.53987048253E-5,6.705438306053E-6,-1.47357063494E-6,3.815342243267E-8},
    {-3.53816809143E-5,6.705442044522E-6,-1.48678285359E-6,3.813835242506E-8},
    {-3.5394619152E-5,6.705433885446E-6,-1.48028803571E-6,3.816443535492E-8},
    {-3.55807001929E-5,6.705453070683E-6,-1.47833959157E-6,3.811461521767E-8},
    {-3.54067903214E-5,6.705445414042E-6,-1.46836643225E-6,3.813225518886E-8},
    {-3.53908253159E-5,6.705445523582E-6,-1.48304264664E-6,3.81359807671E-8},
    {-3.54189511603E-5,6.705451665886E-6,-1.49210734214E-6,3.811138705515E-8},
    {-3.56216915425E-5,6.705443780686E-6,-1.48205458709E-6,3.815999711129E-8},
    {-3.54302589495E-5,6.705451295212E-6,-1.47278443583E-6,3.810200988819E-8},
    {-3.53667805711E-5,6.705438116654E-6,-1.48400950662E-6,3.814197087991E-8},
    {-3.53828706328E-5,6.705445192783E-6,-1.48728799699E-6,3.81270857303E-8},
    {-3.54464323677E-5,6.705445275807E-6,-1.48105256019E-6,3.813833627915E-8},
    {-3.54324906411E-5,6.705437731345E-6,-1.48617282254E-6,3.816674648301E-8},
    {-3.54212193121E-5,6.705440415516E-6,-1.4832086185E-6,3.814012899619E-8},
    {-3.54405588272E-5,6.705440025669E-6,-1.44151634155E-6,3.814119132082E-8}}},
  {{2.40143824858E-15,1.28551054118E-15,2.33913696227E-14},{Residual->4.965853417E-16}},
  {{-.6,9.73250806485E-15},{-.4,6.26758408773E-15},{-.2,3.25121839098E-15},{1.11022302463E-16,1.45434762004E-15},
   {.2,3.80854692095E-15},{.4,7.10836702811E-15},{.6,1.13858296048E-14}}},
 {"Y26",1,
  {6.91911503064E-8,6.705439769398E-6,1.709843838238E-8,3.81429070511E-8,{{-3.53491576503E-5,6.705434096735E-6,-1.48786839385E-6,
     3.815857758347E-8},
    {-3.54524149437E-5,6.705443259011E-6,-1.48966442947E-6,3.813391020882E-8},
    {-3.52991560447E-5,6.705429648991E-6,-1.49077752937E-6,3.815990805587E-8},
    {-3.539998474E-5,6.705433653666E-6,-1.44944561639E-6,3.815974657565E-8},
    {-3.53460356443E-5,6.705435321421E-6,-1.47276567494E-6,3.815095050655E-8},
    {-3.55124212832E-5,6.705441570951E-6,-1.4877570162E-6,3.814363589174E-8},
    {-3.54176110196E-5,6.705446638079E-6,-1.49173880352E-6,3.81163681798E-8},
    {-3.55323426545E-5,6.705442544775E-6,-1.50263445977E-6,3.814092258674E-8},
    {-3.52939028434E-5,6.705435820759E-6,-1.48651192244E-6,3.814132500529E-8},
    {-3.54640070355E-5,6.705441590946E-6,-1.43740653602E-6,3.813480015561E-8},
    {-3.5382080098E-5,6.705441949684E-6,-1.46838976691E-6,3.813057303472E-8},
    {-3.55116267428E-5,6.705440761424E-6,-1.48221727952E-6,3.815424331143E-8},
    {-3.54584078141E-5,6.70544354826E-6,-1.51142334752E-6,3.814165368626E-8},
    {-3.54119900612E-5,6.70543029183E-6,-1.45913625398E-6,3.817399346125E-8},
    {-3.54351699894E-5,6.705445775364E-6,-1.46487426708E-6,3.811695880549E-8},
    {-3.53776046498E-5,6.705434295884E-6,-1.474597453E-6,3.8154386698E-8},
    {-3.53933200832E-5,6.70544126055E-6,-1.48034274172E-6,3.813697876759E-8},
    {-3.54444547285E-5,6.705438362997E-6,-1.46976147887E-6,3.815969779194E-8},
    {-3.55155511199E-5,6.705448462373E-6,-1.46758903931E-6,3.812179357345E-8},
    {-3.55028221458E-5,6.705446534253E-6,-1.4703343705E-6,3.812771714244E-8}}},
  {{1.62581228512E-15,-9.5194338402E-16,3.52279588497E-14},{Residual->9.90680052866E-17}},
  {{-.3,5.07175381301E-15},{-.2,3.29000853309E-15},{-.1,2.06542268053E-15},{5.55111512313E-17,1.45374943086E-15},
   {.1,1.95174187212E-15},{.2,2.99199659415E-15},{.3,4.41984155002E-15}}},
 {"Y66",1,
  {7.688099886163E-8,6.705443055338E-6,1.687267318863E-8,3.813551472522E-8,{{-3.54843322537E-5,6.705446369437E-6,-1.49266619172E-6,
     3.813789748103E-8},
    {-3.540741498E-5,6.705448866436E-6,-1.49304247002E-6,3.811474343752E-8},
    {-3.55683442343E-5,6.705451757217E-6,-1.44866824066E-6,3.811102793657E-8},
    {-3.55033908857E-5,6.705438523154E-6,-1.46505470477E-6,3.814366270111E-8},
    {-3.53500817591E-5,6.70545033172E-6,-1.50362472498E-6,3.810589123113E-8},
    {-3.53101007952E-5,6.70543266426E-6,-1.48114144194E-6,3.815502253418E-8},
    {-3.53839317741E-5,6.705448257725E-6,-1.47509520056E-6,3.810480055684E-8},
    {-3.5339163284E-5,6.705434611121E-6,-1.51854572839E-6,3.815197951123E-8},
    {-3.55837909326E-5,6.705447836009E-6,-1.46560948646E-6,3.811167245467E-8},
    {-3.55468219564E-5,6.705446644599E-6,-1.48444936995E-6,3.813734922381E-8},
    {-3.55496195116E-5,6.705446275189E-6,-1.47378681573E-6,3.812080523793E-8},
    {-3.54275665685E-5,6.705436975951E-6,-1.47709883005E-6,3.816182688248E-8},
    {-3.54932301331E-5,6.705440294983E-6,-1.45658093439E-6,3.813948080274E-8},
    {-3.54089951093E-5,6.705449371542E-6,-1.48853061824E-6,3.811548757072E-8},
    {-3.55250099999E-5,6.705441123201E-6,-1.47644644267E-6,3.815628679756E-8},
    {-3.55222418144E-5,6.70543533957E-6,-1.46349582978E-6,3.81538863017E-8},
    {-3.54161006288E-5,6.705447169234E-6,-1.48167781758E-6,3.812638172763E-8},
    {-3.54709200928E-5,6.705439365025E-6,-1.48090591869E-6,3.815372067931E-8},
    {-3.5447171559E-5,6.705434915199E-6,-1.50446759801E-6,3.817808087099E-8},
    {-3.54411879452E-5,6.705444415185E-6,-1.49871574682E-6,3.81302905653E-8}}},
  {{3.63487889171E-15,4.94857581326E-15,8.31267222264E-13},{Residual->1.0117213285E-15}},
  {{-.2,3.52530713316E-14},{-.15,2.22813958964E-14},{-.1,1.25292428533E-14},{-.05,5.43457164141E-15},{0,1.45461746016E-15},
   {.05,5.88292726965E-15},{.1,1.35256157135E-14},{.15,2.39091056894E-14},{.2,3.71334455096E-14}}},
 {"Y44",1,
  {6.585747273443E-8,6.705439746666E-6,1.548969845737E-8,3.813586705112E-8,{{-3.53797874532E-5,6.705444266064E-6,-1.48279582081E-6,
     3.811078876106E-8},
    {-3.53319354961E-5,6.7054311075E-6,-1.48475195501E-6,3.817510843856E-8},
    {-3.53594166109E-5,6.705439536781E-6,-1.4530807877E-6,3.813837456142E-8},
    {-3.53976981576E-5,6.705432953827E-6,-1.51328614818E-6,3.815759303889E-8},
    {-3.549678184E-5,6.705431335419E-6,-1.47567897649E-6,3.815617379703E-8},
    {-3.54416497129E-5,6.705446414714E-6,-1.47389106339E-6,3.811271002834E-8},
    {-3.55360651392E-5,6.705438076171E-6,-1.49626562917E-6,3.814724825014E-8},
    {-3.54308159822E-5,6.705444584117E-6,-1.49220501317E-6,3.811610023703E-8},
    {-3.53900966093E-5,6.705435339879E-6,-1.4889247462E-6,3.815613380047E-8},
    {-3.5503173378E-5,6.705445144974E-6,-1.4849718956E-6,3.811503886476E-8},
    {-3.54287589514E-5,6.705440293283E-6,-1.49866131021E-6,3.812808048686E-8},
    {-3.54376124454E-5,6.705437488298E-6,-1.46959550471E-6,3.812869912872E-8},
    {-3.55549688421E-5,6.705440809734E-6,-1.49377376045E-6,3.813359628978E-8},
    {-3.55443917446E-5,6.705450295297E-6,-1.49313066467E-6,3.811022107772E-8},
    {-3.53648610241E-5,6.705434878434E-6,-1.50429969707E-6,3.815371258337E-8},
    {-3.54424140022E-5,6.705446363047E-6,-1.50585916475E-6,3.812690898397E-8},
    {-3.53915239416E-5,6.705436961353E-6,-1.50695986443E-6,3.814368107469E-8},
    {-3.53378205904E-5,6.705438803363E-6,-1.50363186195E-6,3.813752937294E-8},
    {-3.54758551426E-5,6.70544017326E-6,-1.47375390136E-6,3.813361168581E-8},
    {-3.54040744931E-5,6.705440107796E-6,-1.46450782253E-6,3.813603056076E-8}}},
  {{1.81798106286E-15,3.82970551665E-16,1.12200824116E-14},{Residual->2.12326800657E-16}},
  {{-.6,5.45034603134E-15},{-.4,3.70776954846E-15},{-.2,2.41551882735E-15},{1.11022302463E-16,1.45488227576E-15},
   {.2,2.25930368668E-15},{.4,3.9461906931E-15},{.6,6.05834867825E-15}}},
 {"AY",1,
  {5.399629794255E-8,6.70529659165E-6,2.028868711406E-8,3.807371249011E-8,{{-3.54597955477E-5,6.705294328415E-6,-1.47537123862E-6,
     3.807239485365E-8},
    {-3.54105965201E-5,6.705291972232E-6,-1.49578420266E-6,3.809302840252E-8},
    {-3.54732934434E-5,6.705294973142E-6,-1.47078386866E-6,3.808685692529E-8},
    {-3.54163156466E-5,6.705301256501E-6,-1.52520856004E-6,3.806715113564E-8},
    {-3.54376875433E-5,6.70529633822E-6,-1.48716951688E-6,3.807339329917E-8},
    {-3.53769657358E-5,6.705303704529E-6,-1.48522112475E-6,3.805204704853E-8},
    {-3.54091170991E-5,6.705300768638E-6,-1.47676272513E-6,3.806607328603E-8},
    {-3.55309147957E-5,6.705297328533E-6,-1.49273682961E-6,3.806718007455E-8},
    {-3.53816711906E-5,6.705298199751E-6,-1.47885007419E-6,3.806066323333E-8},
    {-3.54093617965E-5,6.705296366523E-6,-1.49649982027E-6,3.80731941002E-8},
    {-3.53899047712E-5,6.705295406306E-6,-1.52750546022E-6,3.808508646652E-8},
    {-3.53474500125E-5,6.705291870683E-6,-1.48184481703E-6,3.808029792695E-8},
    {-3.54479021947E-5,6.705299402907E-6,-1.45149593417E-6,3.805134561164E-8},
    {-3.54660173714E-5,6.705296156266E-6,-1.48899239386E-6,3.808204462133E-8},
    {-3.55342658824E-5,6.705305997019E-6,-1.48586134732E-6,3.806407894176E-8},
    {-3.53870253732E-5,6.705291464113E-6,-1.48580235234E-6,3.810385825741E-8},
    {-3.55469903154E-5,6.705295733312E-6,-1.45760391574E-6,3.807259618669E-8},
    {-3.54497192578E-5,6.705293733971E-6,-1.44950436875E-6,3.806954440018E-8},
    {-3.53967252461E-5,6.705295071563E-6,-1.45457171653E-6,3.805068802595E-8},
    {-3.53978438181E-5,6.70529176037E-6,-1.49410042726E-6,3.810272700494E-8}}},
  {{1.30202135507E-15,-2.6536365176E-15,1.06794581817E-12},{Residual->9.45907726743E-17}},
  {{-.1,1.23297301595E-14},{-.07,6.59957191242E-15},{-.04,3.03025858665E-15},{-.01,1.57682344833E-15},{.02,1.73952325625E-15},
   {.05,3.74285489351E-15},{.08,7.94093847558E-15}}},
 {"EY",1,
  {7.10152682817E-8,6.70433112087E-6,1.846226477686E-8,3.767004897185E-8,{{-3.66034472996E-5,6.704332195601E-6,-1.04646300882E-6,
     3.766947097414E-8},
    {-3.6706165277E-5,6.704333420688E-6,-1.03638569769E-6,3.767675269592E-8},
    {-3.64675846155E-5,6.704328715975E-6,-1.03668799807E-6,3.768699170547E-8},
    {-3.64624063176E-5,6.704328030997E-6,-1.03683458476E-6,3.768060969839E-8},
    {-3.6648447998E-5,6.704332669013E-6,-1.03484794631E-6,3.76634450051E-8},
    {-3.66044791523E-5,6.704330476427E-6,-1.02754711623E-6,3.768583912873E-8},
    {-3.65579163651E-5,6.704331822751E-6,-9.86184590507E-7,3.768051163176E-8},
    {-3.66256103347E-5,6.704332332253E-6,-1.02743668919E-6,3.76794765638E-8},
    {-3.66492511206E-5,6.704331730868E-6,-1.03326555109E-6,3.768081418627E-8},
    {-3.65590708397E-5,6.704329958075E-6,-9.78114372082E-7,3.768441036709E-8},
    {-3.67066000738E-5,6.704335152204E-6,-1.00606285744E-6,3.767362590088E-8},
    {-3.66606266913E-5,6.704332204678E-6,-1.00578334534E-6,3.766926626335E-8},
    {-3.67120642283E-5,6.70433410138E-6,-9.94794102009E-7,3.766488580751E-8},
    {-3.65667332655E-5,6.704327194497E-6,-1.03007497126E-6,3.764212256971E-8},
    {-3.66443429503E-5,6.70433400871E-6,-1.02168141847E-6,3.767332289194E-8},
    {-3.64970765941E-5,6.704330006662E-6,-1.044790397E-6,3.766416908731E-8},
    {-3.66370936006E-5,6.704329891135E-6,-1.01223873531E-6,3.764905329008E-8},
    {-3.66066734985E-5,6.704329531503E-6,-1.02075423864E-6,3.765639482929E-8},
    {-3.66536264419E-5,6.704327381488E-6,-1.03076638792E-6,3.764808783562E-8},
    {-3.65956659506E-5,6.704331592493E-6,-1.02313166202E-6,3.767172900465E-8}}},
  {{1.44797568977E-15,8.03436629741E-15,5.20151368056E-13},{Residual->3.69894472457E-17}},
  {{-.1,5.88123703437E-15},{-.07,3.40786601967E-15},{-.04,1.90811148103E-15},{-.01,1.41888781378E-15},{.02,1.86008500779E-15},
   {.05,3.18967746863E-15},{.08,5.37947979497E-15}}},
 {"R32",1,
  {6.986036682941E-8,6.708028646736E-6,1.312189103245E-8,3.777764158886E-8,{{-3.93179113432E-5,6.708027221411E-6,-4.30085453411E-7,
     3.778217072952E-8},
    {-3.92426196107E-5,6.70801893148E-6,-4.26074141693E-7,3.778238332683E-8},
    {-3.92216046949E-5,6.708023478063E-6,-4.25982695068E-7,3.777828485222E-8},
    {-3.92465935551E-5,6.708029650442E-6,-4.28053534104E-7,3.776820493817E-8},
    {-3.93466455474E-5,6.708034046633E-6,-4.01701398969E-7,3.77738920879E-8},
    {-3.9280440087E-5,6.708026722887E-6,-4.24367895108E-7,3.777599587038E-8},
    {-3.93828763519E-5,6.708030732123E-6,-4.44015531209E-7,3.777949538667E-8},
    {-3.94271538937E-5,6.708036983325E-6,-4.44807386142E-7,3.777645091381E-8},
    {-3.93782263547E-5,6.70803061121E-6,-4.53681387662E-7,3.777803498716E-8},
    {-3.92656257157E-5,6.708029978631E-6,-4.47599404043E-7,3.777108513521E-8},
    {-3.92536080479E-5,6.708020650778E-6,-4.21968247147E-7,3.778166821195E-8},
    {-3.92316675585E-5,6.708024002343E-6,-4.24986519606E-7,3.778126115992E-8},
    {-3.93339914457E-5,6.708031296533E-6,-4.43886998402E-7,3.777564526871E-8},
    {-3.94644590634E-5,6.708035701358E-6,-4.2719642963E-7,3.777923832204E-8},
    {-3.9326030316E-5,6.708027210957E-6,-4.59084650291E-7,3.777908106925E-8},
    {-3.92213314601E-5,6.708023334869E-6,-4.440356276E-7,3.778287575217E-8},
    {-3.94021655933E-5,6.708033403203E-6,-4.34004074247E-7,3.777733919459E-8},
    {-3.92891984104E-5,6.708025651191E-6,-4.33626865472E-7,3.778317294159E-8},
    {-3.93505657221E-5,6.708033772205E-6,-4.20087752982E-7,3.777248189006E-8},
    {-3.9277783057E-5,6.708029555069E-6,-4.25971264425E-7,3.777406973904E-8}}},
  {{1.39864456349E-15,-2.1538885523E-17,7.04889398447E-13},{Residual->2.36345558198E-17}},
  {{-.1,8.45472625623E-15},{-.07,4.83810342148E-15},{-.04,2.5219379673E-15},{-.01,1.51109837101E-15},{.02,1.67183011159E-15},
   {.05,3.12261796618E-15},{.08,5.92834099242E-15}}},
 {"Y24",1,
  {5.015386886607E-8,6.712969116079E-6,1.675425049845E-8,3.631475749241E-8,{{-4.02093566652E-5,6.712964620912E-6,2.924741388325E-7,
     3.631500383384E-8},
    {-4.02418321719E-5,6.712969928925E-6,2.989875968189E-7,3.630010498758E-8},
    {-4.01549558892E-5,6.712965206959E-6,3.011897969487E-7,3.631225203493E-8},
    {-4.02141373936E-5,6.712969979688E-6,2.707619114913E-7,3.630325948771E-8},
    {-4.02022547794E-5,6.712971064114E-6,3.222426046938E-7,3.632365927172E-8},
    {-4.02699328623E-5,6.712970830745E-6,2.939834305505E-7,3.630397160614E-8},
    {-4.0218554112E-5,6.712970648052E-6,3.065521895269E-7,3.631038606581E-8},
    {-4.0122327072E-5,6.712961348991E-6,2.949825037043E-7,3.631045505865E-8},
    {-4.01778745016E-5,6.712966153145E-6,2.930854421999E-7,3.630715610151E-8},
    {-4.02752937021E-5,6.712977044575E-6,2.907788791041E-7,3.632104099184E-8},
    {-4.01089371238E-5,6.712963018219E-6,3.301974493937E-7,3.63201294641E-8},
    {-4.02438212865E-5,6.712972511754E-6,2.997623156668E-7,3.631884328921E-8},
    {-4.0149682396E-5,6.712963281789E-6,3.25115533342E-7,3.6316807344E-8},
    {-4.02185833576E-5,6.712970642875E-6,2.996239250391E-7,3.63169155474E-8},
    {-4.01767299797E-5,6.712965676536E-6,3.093260971282E-7,3.632222180916E-8},
    {-4.01466114389E-5,6.712960743348E-6,2.895350008628E-7,3.630316038749E-8},
    {-4.02012683752E-5,6.712971285144E-6,3.366301854518E-7,3.63306295664E-8},
    {-4.02302263788E-5,6.712973208285E-6,2.870180587262E-7,3.630725655576E-8},
    {-4.02715882165E-5,6.712976206293E-6,3.006528613153E-7,3.631842755523E-8},
    {-4.02835384348E-5,6.712978921227E-6,3.315485147458E-7,3.633346888974E-8}}},
  {{1.46456455919E-15,-9.6589821099E-16,1.56131830191E-15},{Residual->3.87997582484E-18}},
  {{-.3,1.89025825572E-15},{-.2,1.72573627826E-15},{-.1,1.57978141796E-15},{5.55111512313E-17,1.464736031E-15},
   {.1,1.37851313892E-15},{.2,1.33128713909E-15},{.3,1.31880877793E-15}}},
 {"Y46",1,
  {6.1638649013E-8,6.712751756687E-6,1.601998768197E-8,3.624088589076E-8,{{-4.01784364166E-5,6.712765821908E-6,3.36052509666E-7,
     3.62502469825E-8},
    {-4.00616131885E-5,6.712733632443E-6,3.019884612656E-7,3.622954485363E-8},
    {-4.00500039879E-5,6.71274268098E-6,3.31340415702E-7,3.624249480186E-8},
    {-4.02156796814E-5,6.71277071023E-6,3.281854281173E-7,3.625601168516E-8},
    {-4.0259505669E-5,6.712751902648E-6,3.004524193738E-7,3.623458951978E-8},
    {-4.02001072993E-5,6.712769769799E-6,3.12882758336E-7,3.62474571002E-8},
    {-4.01671137702E-5,6.712764750892E-6,2.898702304022E-7,3.623830055663E-8},
    {-4.00978874961E-5,6.712742880093E-6,2.996040169984E-7,3.623446602555E-8},
    {-4.00672538271E-5,6.712745609833E-6,3.353745927214E-7,3.623496108731E-8},
    {-4.01789503739E-5,6.712747056435E-6,3.306007303035E-7,3.624613631207E-8},
    {-4.01416727184E-5,6.712747781227E-6,3.022766634116E-7,3.62473595953E-8},
    {-4.0138318642E-5,6.712747286057E-6,3.321080011128E-7,3.62383783078E-8},
    {-4.00680757074E-5,6.712739817759E-6,2.887959854972E-7,3.622385918682E-8},
    {-4.01728189349E-5,6.712747791108E-6,2.96481252162E-7,3.623107581811E-8},
    {-4.01266528583E-5,6.712753389601E-6,3.393388024518E-7,3.625039424876E-8},
    {-4.01538607476E-5,6.712762816243E-6,3.145057921349E-7,3.624628048639E-8},
    {-4.0188757466E-5,6.712739856859E-6,3.18510547945E-7,3.624008212062E-8},
    {-4.00741709226E-5,6.712750727634E-6,3.012794924019E-7,3.623714448346E-8},
    {-4.01359163324E-5,6.712745966174E-6,3.063832534434E-7,3.624543614026E-8},
    {-4.02622230261E-5,6.712764885811E-6,3.120567053468E-7,3.624349850298E-8}}},
  {{1.32052612817E-15,1.57571812451E-16,2.49461041691E-15},{Residual->8.14717050412E-18}},
  {{-.45,1.76161190355E-15},{-.3,1.49382119183E-15},{-.15,1.34178282007E-15},{-5.5511151231E-17,1.31890537726E-15},
   {.15,1.40953658852E-15},{.3,1.60236279759E-15},{.45,1.887266781E-15}}},
 {"Y22",1,
  {5.41898904376E-8,6.712753909784E-6,1.712967762228E-8,3.624065384555E-8,{{-4.01616011226E-5,6.71275891261E-6,2.959878682981E-7,
     3.622975318993E-8},
    {-4.01783275794E-5,6.712754580318E-6,3.084125195905E-7,3.624159163999E-8},
    {-4.0242078069E-5,6.712761317069E-6,3.425772734859E-7,3.624886989322E-8},
    {-4.02700277096E-5,6.712762642945E-6,3.237092470215E-7,3.624337304986E-8},
    {-4.02530555841E-5,6.712769119468E-6,2.748971469972E-7,3.624229141679E-8},
    {-4.01674711982E-5,6.712752196241E-6,3.157633386535E-7,3.624134314517E-8},
    {-4.017845546E-5,6.712758189551E-6,3.196741501407E-7,3.625020595138E-8},
    {-4.0207591611E-5,6.712752913282E-6,3.308707341435E-7,3.624369242181E-8},
    {-4.00888057506E-5,6.712748397372E-6,3.189226280957E-7,3.624738112075E-8},
    {-4.01955184744E-5,6.712757575897E-6,3.421686869487E-7,3.624915491451E-8},
    {-4.02043169374E-5,6.712755453188E-6,3.116269857844E-7,3.62420199044E-8},
    {-4.01523604004E-5,6.712746113962E-6,3.203558091297E-7,3.623455375915E-8},
    {-4.02091032761E-5,6.712758181761E-6,3.069888313994E-7,3.624065894514E-8},
    {-4.016953628E-5,6.712743324887E-6,2.981620010819E-7,3.622523625036E-8},
    {-4.01200563031E-5,6.712757077205E-6,3.218524718026E-7,3.62515267974E-8},
    {-4.0178123502E-5,6.712758763929E-6,3.142294695997E-7,3.624145757613E-8},
    {-4.00622113191E-5,6.712742607196E-6,3.070605551306E-7,3.623715636261E-8},
    {-4.0149265279E-5,6.712744213646E-6,2.810132750185E-7,3.62299065014E-8},
    {-4.00857774539E-5,6.712743155072E-6,2.97065104763E-7,3.623020505717E-8},
    {-4.01148308599E-5,6.712753460072E-6,2.988899138121E-7,3.624269901377E-8}}},
  {{2.28873047722E-15,1.34040449866E-15,2.53458085461E-14},{Residual->5.00004402896E-16}},
  {{-.6,1.02370088294E-14},{-.4,6.44813652958E-15},{-.2,3.3561444136E-15},{1.11022302463E-16,1.31351180377E-15},
   {.2,3.74349030778E-15},{.4,7.20416223864E-15},{.6,1.21059647894E-14}}},
 {"Y26",1,
  {5.207216857522E-8,6.712752204066E-6,1.960485952158E-8,3.624277049291E-8,{{-4.02112924086E-5,6.712756666736E-6,3.534424162745E-7,
     3.625161671053E-8},
    {-4.01480394724E-5,6.712758158817E-6,3.212693789288E-7,3.624901718914E-8},
    {-4.00115027631E-5,6.712740447161E-6,2.91601245581E-7,3.623802311536E-8},
    {-4.01326743158E-5,6.712743566156E-6,3.116811866033E-7,3.624192612203E-8},
    {-4.01723450599E-5,6.712758242835E-6,3.07479078184E-7,3.624908382324E-8},
    {-4.01714425332E-5,6.712761302136E-6,2.96761636494E-7,3.624316370838E-8},
    {-4.01428682021E-5,6.712755861039E-6,3.124433115698E-7,3.624698256156E-8},
    {-4.0159852144E-5,6.712761625637E-6,3.35326919237E-7,3.625005809449E-8},
    {-4.01085651294E-5,6.71274127424E-6,3.27098139977E-7,3.624151886509E-8},
    {-4.01301148157E-5,6.712749685482E-6,3.204743953567E-7,3.62502097586E-8},
    {-4.00811047345E-5,6.712742709353E-6,2.99161123264E-7,3.624559335199E-8},
    {-4.01662323963E-5,6.712748715158E-6,3.034732017738E-7,3.624768996666E-8},
    {-4.01637626578E-5,6.712750922457E-6,3.00952062182E-7,3.622685883685E-8},
    {-4.01525522543E-5,6.712756126216E-6,3.429963413805E-7,3.624695697527E-8},
    {-4.01186783997E-5,6.712750098866E-6,2.673747426864E-7,3.623006792387E-8},
    {-4.0149374339E-5,6.71275728043E-6,3.230817269641E-7,3.624131358928E-8},
    {-4.02049826223E-5,6.712755852888E-6,3.01910669247E-7,3.624169003664E-8},
    {-4.02395344265E-5,6.712756530855E-6,3.067257474955E-7,3.623727460193E-8},
    {-4.00480627858E-5,6.712760689652E-6,3.030490354391E-7,3.624716121386E-8},
    {-4.01081676649E-5,6.712738325213E-6,3.39564051838E-7,3.622920341343E-8}}},
  {{1.55029029473E-15,-2.6504275055E-15,3.7823839415E-14},{Residual->1.29687453889E-16}},
  {{-.3,5.72302103896E-15},{-.2,3.69998629493E-15},{-.1,2.18247579297E-15},{5.55111512313E-17,1.31321904491E-15},
   {.1,1.77285016352E-15},{.2,2.69599997146E-15},{.3,4.05515479259E-15}}},
 {"Y66",1,
  {6.501402217815E-8,6.712746548985E-6,1.70214003736E-8,3.624093930996E-8,{{-4.02267855374E-5,6.712760483662E-6,3.159489861976E-7,
     3.624664548433E-8},
    {-4.02464911748E-5,6.712755184695E-6,3.268065611954E-7,3.624000559395E-8},
    {-4.01875351612E-5,6.712745751226E-6,3.275960282686E-7,3.623692845872E-8},
    {-4.0149226358E-5,6.712744685152E-6,3.491538412057E-7,3.624763968765E-8},
    {-4.00983230345E-5,6.712739689458E-6,3.195372902305E-7,3.624682041753E-8},
    {-4.01861691129E-5,6.712746781674E-6,3.194151116058E-7,3.623159502658E-8},
    {-4.01356938592E-5,6.712739524384E-6,3.534184048889E-7,3.625242437085E-8},
    {-4.01886451112E-5,6.71274901092E-6,3.153225566426E-7,3.624465883786E-8},
    {-4.01236186639E-5,6.712761691049E-6,3.074699560171E-7,3.625676312433E-8},
    {-4.02047013477E-5,6.712759360902E-6,3.068831234221E-7,3.624652755664E-8},
    {-4.00692028025E-5,6.712733743376E-6,3.136630807444E-7,3.62286618717E-8},
    {-4.02416557672E-5,6.71275491898E-6,2.938590488709E-7,3.623878322636E-8},
    {-4.00691591205E-5,6.71275433743E-6,2.971891735307E-7,3.624844562394E-8},
    {-4.0123598845E-5,6.712732427061E-6,3.291395675901E-7,3.622971210535E-8},
    {-4.0226413958E-5,6.712748378111E-6,3.355907703693E-7,3.624133039483E-8},
    {-4.00042923853E-5,6.712718512729E-6,3.17522141775E-7,3.622414366539E-8},
    {-4.01569021166E-5,6.712736254863E-6,3.228873514668E-7,3.624547383922E-8},
    {-4.01567362615E-5,6.712746602595E-6,2.882153573371E-7,3.622835379885E-8},
    {-4.02538026772E-5,6.712747616113E-6,3.177693311913E-7,3.623888602888E-8},
    {-4.0184304158E-5,6.712756025327E-6,2.90107258228E-7,3.624498708627E-8}}},
  {{3.55733685936E-15,2.11450082353E-14,8.81337858497E-13},{Residual->1.06181628456E-15}},
  {{-.2,3.3495893697E-14},{-.15,2.10903734627E-14},{-.1,1.16927062518E-14},{-.05,5.14451301848E-15},{0,1.31325846676E-15},
   {.05,6.43070427821E-15},{.1,1.51915333015E-14},{.15,2.70250376059E-14},{.2,4.28326904263E-14}}},
 {"Y44",1,
  {7.101096194996E-8,6.712746083341E-6,1.335843399657E-8,3.624078565865E-8,{{-4.01556489043E-5,6.712749998037E-6,3.237442465899E-7,
     3.624286158537E-8},
    {-4.02628783303E-5,6.712752407169E-6,3.094858238457E-7,3.623891579535E-8},
    {-4.02551852085E-5,6.712770070046E-6,3.068528567047E-7,3.625226236588E-8},
    {-4.01526191663E-5,6.712739959565E-6,2.882428078293E-7,3.622400889462E-8},
    {-4.01856625826E-5,6.712761787903E-6,3.167490049177E-7,3.624872356978E-8},
    {-4.01146907003E-5,6.712737432347E-6,3.155449965744E-7,3.62375711628E-8},
    {-4.01082997644E-5,6.712747069109E-6,3.408159997437E-7,3.625964448288E-8},
    {-4.02731940604E-5,6.712745697262E-6,3.070274783941E-7,3.62274430357E-8},
    {-4.00572227217E-5,6.712730475217E-6,3.346508550802E-7,3.624853599536E-8},
    {-4.01857078765E-5,6.71274591039E-6,3.011486491693E-7,3.623383700123E-8},
    {-4.0255559219E-5,6.712752470085E-6,3.235994191199E-7,3.62468775553E-8},
    {-4.01095617908E-5,6.71274415201E-6,3.088001022787E-7,3.623774008487E-8},
    {-4.01336741811E-5,6.712740154698E-6,3.228566538899E-7,3.624527798309E-8},
    {-4.00965253739E-5,6.712738164352E-6,3.272291630688E-7,3.624443199213E-8},
    {-4.01967999728E-5,6.712744768008E-6,3.120982473365E-7,3.623686246989E-8},
    {-4.0164688539E-5,6.712749904532E-6,3.194067050918E-7,3.623454297486E-8},
    {-4.00581780731E-5,6.712727277137E-6,2.870971214049E-7,3.622782082958E-8},
    {-4.0241245447E-5,6.712748036289E-6,3.048042670186E-7,3.623929045187E-8},
    {-4.00351907907E-5,6.712738838939E-6,3.011723134445E-7,3.624560916243E-8},
    {-4.01984226886E-5,6.712757093717E-6,3.149467866866E-7,3.624345578001E-8}}},
  {{1.78290282591E-15,1.18251899969E-15,1.24561823703E-14},{Residual->2.58393767758E-16}},
  {{-.6,5.3493235288E-15},{-.4,3.63515225939E-15},{-.2,2.24979150407E-15},{1.11022302463E-16,1.3135235853E-15},
   {.2,2.49664526058E-15},{.4,4.4668959469E-15},{.6,6.91991195105E-15}}},
 {"AY",1,
  {5.440186174048E-8,6.713194765163E-6,1.892107846411E-8,3.624102289157E-8,{{-4.01027364658E-5,6.713193948393E-6,2.956899304953E-7,
     3.623178079823E-8},
    {-4.01133709158E-5,6.713196497443E-6,3.278220360427E-7,3.624528013838E-8},
    {-4.01294489471E-5,6.713189523388E-6,3.332633855701E-7,3.623395081496E-8},
    {-4.00920736924E-5,6.713185921813E-6,3.001503893983E-7,3.623066857275E-8},
    {-4.01380621554E-5,6.713190017351E-6,3.276309010886E-7,3.623895801664E-8},
    {-4.02749143811E-5,6.713220296287E-6,3.15211898649E-7,3.624531167977E-8},
    {-4.01537189489E-5,6.71320429007E-6,3.462791035997E-7,3.625666855016E-8},
    {-4.01612436966E-5,6.71319263605E-6,3.076465492467E-7,3.623243450925E-8},
    {-4.02059403567E-5,6.713203317168E-6,3.08523910751E-7,3.624844327446E-8},
    {-4.02852503123E-5,6.713228323061E-6,3.121649953311E-7,3.625417092008E-8},
    {-4.0062873219E-5,6.71320359862E-6,3.293097278071E-7,3.625297659503E-8},
    {-4.01026062363E-5,6.713178863489E-6,3.238403631509E-7,3.623695885809E-8},
    {-4.01367271915E-5,6.713180214758E-6,3.205153500949E-7,3.623183954554E-8},
    {-4.0176966808E-5,6.713200916649E-6,3.443002316642E-7,3.624904123605E-8},
    {-4.01381093168E-5,6.713190296106E-6,2.932469768108E-7,3.623233735618E-8},
    {-4.01402385478E-5,6.713179937206E-6,3.164682907974E-7,3.62356823807E-8},
    {-4.01306621363E-5,6.713181828889E-6,3.372889169954E-7,3.623624899161E-8},
    {-4.01274350334E-5,6.713187577519E-6,2.962769664647E-7,3.623355369202E-8},
    {-4.01250178364E-5,6.713195250875E-6,3.669469415908E-7,3.625363382957E-8},
    {-4.01952520528E-5,6.713192048128E-6,3.406913418453E-7,3.624051807195E-8}}},
  {{1.19702227477E-15,2.50535665581E-15,1.09103438869E-12},{Residual->6.69877108231E-17}},
  {{-.1,1.18578383286E-14},{-.07,6.38230725719E-15},{-.04,2.75913179026E-15},{-.01,1.3882411892E-15},{.02,1.70099155255E-15},
   {.05,3.94779292125E-15},{.08,8.42526858542E-15}}},
 {"EY",1,
  {5.557188005727E-8,6.720052534217E-6,1.913231821897E-8,3.589657945442E-8,{{-4.05947224674E-5,6.720046722083E-6,6.054306717055E-7,
     3.590100505249E-8},
    {-4.04447599477E-5,6.720041942898E-6,5.828287516509E-7,3.589795760261E-8},
    {-4.05760617313E-5,6.720061883111E-6,6.149884485782E-7,3.589827097278E-8},
    {-4.05784030595E-5,6.720060346001E-6,5.733476632861E-7,3.589658889929E-8},
    {-4.047862018E-5,6.720040786951E-6,5.555664416793E-7,3.590008046232E-8},
    {-4.0439369134E-5,6.72005057544E-6,6.00281484522E-7,3.589515269729E-8},
    {-4.05808351817E-5,6.72006135057E-6,5.864096084733E-7,3.589504271568E-8},
    {-4.05045128659E-5,6.720050506751E-6,5.931115150287E-7,3.589303780725E-8},
    {-4.05866122448E-5,6.720062856367E-6,5.577950442092E-7,3.589461222172E-8},
    {-4.04744743906E-5,6.720052021478E-6,5.754367738248E-7,3.589632160748E-8},
    {-4.05236468211E-5,6.72005275164E-6,6.209530196117E-7,3.589936274263E-8},
    {-4.0439805696E-5,6.720052847925E-6,5.829483499184E-7,3.589713658582E-8},
    {-4.05342164979E-5,6.720055740675E-6,5.676378073625E-7,3.589742767278E-8},
    {-4.04314000523E-5,6.72004502141E-6,5.637403970447E-7,3.589229219871E-8},
    {-4.04442592105E-5,6.720045731546E-6,5.837104488468E-7,3.589655731043E-8},
    {-4.0462657978E-5,6.720047959708E-6,5.586284068855E-7,3.589387407011E-8},
    {-4.05488433062E-5,6.720066472717E-6,5.764646260379E-7,3.589438090347E-8},
    {-4.04905462094E-5,6.720051864863E-6,5.518821262231E-7,3.589755920644E-8},
    {-4.05308378683E-5,6.720058356529E-6,5.852862396444E-7,3.589806011215E-8},
    {-4.04583341902E-5,6.720044945673E-6,5.639399067557E-7,3.589686824686E-8}}},
  {{1.34897994623E-15,-1.0967502166E-14,5.22576851799E-13},{Residual->2.61247557702E-17}},
  {{-.1,7.66643548809E-15},{-.07,4.70447335064E-15},{-.04,2.60590494926E-15},{-.01,1.47762292539E-15},{.02,1.35044920757E-15},
   {.05,2.14960197041E-15},{.08,3.79083734552E-15}}},
 {"R32",1,
  {6.030495981605E-8,6.726244043524E-6,1.751967134493E-8,3.59603543087E-8,{{-4.15746109795E-5,6.726256776551E-6,4.492442634844E-7,
     3.595362905233E-8},
    {-4.16351477118E-5,6.726231297954E-6,4.899498720983E-7,3.59688170235E-8},
    {-4.14634171209E-5,6.726246586823E-6,4.700099439291E-7,3.595820060102E-8},
    {-4.14103268172E-5,6.726238692239E-6,4.740768482618E-7,3.596499335744E-8},
    {-4.14993563943E-5,6.726234659419E-6,4.554570248258E-7,3.596262308827E-8},
    {-4.14666910791E-5,6.726239987651E-6,4.494335923421E-7,3.596213270262E-8},
    {-4.15398478064E-5,6.726243496881E-6,4.799332217861E-7,3.595857941139E-8},
    {-4.14882483194E-5,6.726230173617E-6,4.401030396905E-7,3.596512302383E-8},
    {-4.15948814439E-5,6.726252587335E-6,4.82447923768E-7,3.595449787736E-8},
    {-4.14869550744E-5,6.726228965005E-6,4.458645763146E-7,3.596941101158E-8},
    {-4.1556638886E-5,6.72623820106E-6,4.643495469348E-7,3.596344323981E-8},
    {-4.15104162344E-5,6.726242263879E-6,4.588791044652E-7,3.596070315603E-8},
    {-4.15988385218E-5,6.726231065674E-6,4.2847040671E-7,3.596941895302E-8},
    {-4.15597574442E-5,6.726256092478E-6,4.679893008588E-7,3.595344281117E-8},
    {-4.16053326544E-5,6.726234716541E-6,4.817946946583E-7,3.596455541085E-8},
    {-4.14644765727E-5,6.726251312139E-6,4.791364158581E-7,3.595411543474E-8},
    {-4.14635215196E-5,6.726242919705E-6,4.601417183961E-7,3.595836093863E-8},
    {-4.16088725316E-5,6.726267946459E-6,4.491458658834E-7,3.595296295073E-8},
    {-4.15575218193E-5,6.726271786424E-6,4.474275541885E-7,3.59496609935E-8},
    {-4.15273625975E-5,6.726241342656E-6,4.283216352974E-7,3.596241513623E-8}}},
  {{1.35274924466E-15,6.60960407591E-15,7.09020885333E-13},{Residual->5.4189402534E-17}},
  {{-.1,7.73056059506E-15},{-.07,4.41278751036E-15},{-.04,2.30086652328E-15},{-.01,1.32580787176E-15},{.02,1.68185809292E-15},
   {.05,3.47821650576E-15},{.08,6.4401162583E-15}}},
 {"Y24",1,
  {7.528362893395E-8,6.732873864284E-6,1.875154307299E-8,3.759317951915E-8,{{-4.3998278656E-5,6.732873100556E-6,2.099504806239E-8,
     3.759622761424E-8},
    {-4.41213619371E-5,6.732915285595E-6,4.95127475038E-8,3.755429842036E-8},
    {-4.39614312796E-5,6.732880276662E-6,3.693913818242E-8,3.75803445692E-8},
    {-4.39697936207E-5,6.732851879614E-6,4.11714698797E-8,3.76426489125E-8},
    {-4.38789115584E-5,6.732875199806E-6,1.748681531309E-8,3.757437960348E-8},
    {-4.39015397558E-5,6.732828463864E-6,7.177229901702E-9,3.7686398582E-8},
    {-4.40408414959E-5,6.732892638548E-6,3.073661257013E-8,3.757344415699E-8},
    {-4.39992625777E-5,6.732895127523E-6,5.354765833811E-8,3.755511935033E-8},
    {-4.39126796451E-5,6.732866136149E-6,3.062273322186E-8,3.760802763119E-8},
    {-4.39429697259E-5,6.732891384469E-6,4.172276117632E-8,3.754100498866E-8},
    {-4.39006993602E-5,6.732836869944E-6,4.254488124079E-8,3.766980553293E-8},
    {-4.38529789379E-5,6.73284461159E-6,1.623320586864E-8,3.762432624889E-8},
    {-4.39186385058E-5,6.732917286215E-6,-8.81818762111E-9,3.750436834808E-8},
    {-4.41134033035E-5,6.732926227637E-6,6.13898911279E-8,3.751848300393E-8},
    {-4.40111929652E-5,6.732852951834E-6,6.794523888603E-8,3.763110093129E-8},
    {-4.38809319153E-5,6.732836812017E-6,3.935049947424E-8,3.764579932025E-8},
    {-4.39735151408E-5,6.732846265898E-6,2.730674503523E-8,3.764946151857E-8},
    {-4.39691097313E-5,6.732875123168E-6,3.098456508677E-8,3.760351166171E-8},
    {-4.38478157664E-5,6.732865380791E-6,5.119465851149E-8,3.756641349229E-8},
    {-4.40167717012E-5,6.732906263801E-6,6.000505959597E-8,3.753842649612E-8}}},
  {{1.42104784234E-15,-2.3267647647E-16,1.5082909276E-15},{Residual->2.71143353361E-18}},
  {{-.3,1.62939128862E-15},{-.2,1.5254757005E-15},{-.1,1.45580722515E-15},{5.55111512313E-17,1.42120698549E-15},
   {.1,1.41640866383E-15},{.2,1.43706978354E-15},{.3,1.48429670899E-15}}},
 {"Y46",1,
  {5.6216584907E-8,6.732407197714E-6,1.703077657979E-8,3.754611360749E-8,{{-4.40041112961E-5,6.732430267719E-6,4.635915434641E-8,
     3.752054751755E-8},
    {-4.39586130969E-5,6.732422029542E-6,4.486380680206E-8,3.752321382114E-8},
    {-4.39834166737E-5,6.732401006179E-6,3.383716400641E-8,3.754904584159E-8},
    {-4.39873852313E-5,6.732381334264E-6,4.830124482961E-8,3.759548033438E-8},
    {-4.40172257165E-5,6.732416135616E-6,5.506502942316E-8,3.753666947309E-8},
    {-4.388628767E-5,6.732374227749E-6,1.79974558334E-8,3.758345204613E-8},
    {-4.40031361681E-5,6.73240572001E-6,5.199871020903E-8,3.755192750448E-8},
    {-4.40431654006E-5,6.732436663926E-6,4.853894029227E-8,3.751762848725E-8},
    {-4.39215577309E-5,6.732407170558E-6,9.495687872566E-9,3.753763497088E-8},
    {-4.39611309611E-5,6.732383369725E-6,8.358130553922E-8,3.757596508544E-8},
    {-4.38703816101E-5,6.732330856752E-6,6.006341883077E-8,3.764839780163E-8},
    {-4.39915616487E-5,6.732422893579E-6,4.266086317273E-8,3.75350456636E-8},
    {-4.3863419012E-5,6.732426108775E-6,3.161127276618E-8,3.749537460286E-8},
    {-4.39756669662E-5,6.732399489781E-6,4.526038370858E-8,3.755950987005E-8},
    {-4.39032836426E-5,6.732423653033E-6,8.941285311811E-9,3.752403735749E-8},
    {-4.39823139634E-5,6.732414773327E-6,2.232002211752E-8,3.753320770778E-8},
    {-4.39694338162E-5,6.732388343059E-6,3.884382886693E-8,3.757658002623E-8},
    {-4.40930689086E-5,6.732444359886E-6,4.626218995111E-8,3.75082448341E-8},
    {-4.40022218301E-5,6.732430164981E-6,3.932596462329E-8,3.750900614702E-8},
    {-4.39411097586E-5,6.732405385829E-6,4.866319187766E-8,3.754130305722E-8}}},
  {{1.41827370474E-15,8.70748461653E-17,2.60758783243E-15},{Residual->9.5463511534E-18}},
  {{-.45,1.91275083069E-15},{-.3,1.62652861336E-15},{-.15,1.45123848885E-15},{-5.5511151231E-17,1.41315531287E-15},
   {.15,1.49992048938E-15},{.3,1.69296552528E-15},{.45,1.9741370072E-15}}},
 {"Y22",1,
  {5.613033501966E-8,6.73240232126E-6,2.584670895581E-8,3.755890171856E-8,{{-4.39919594727E-5,6.732368972855E-6,4.815585735939E-8,
     3.762096006181E-8},
    {-4.39376375872E-5,6.73239703148E-6,8.175743162997E-8,3.755517224362E-8},
    {-4.40731511257E-5,6.732437452146E-6,3.362598264381E-8,3.753103133404E-8},
    {-4.38956851685E-5,6.732412179731E-6,2.085179710281E-8,3.75278049818E-8},
    {-4.39419730659E-5,6.732357332424E-6,5.199738188173E-9,3.763713823403E-8},
    {-4.39475491401E-5,6.73239239591E-6,5.648169236938E-8,3.757349025162E-8},
    {-4.38756893567E-5,6.732452633628E-6,5.889167042777E-8,3.746920138368E-8},
    {-4.40663236447E-5,6.732414220055E-6,1.277912293238E-8,3.754883113967E-8},
    {-4.39869218947E-5,6.732399431685E-6,2.336260753694E-9,3.757259009644E-8},
    {-4.40285396511E-5,6.732419877342E-6,6.354322410036E-8,3.754246051159E-8},
    {-4.39666447999E-5,6.732379480431E-6,9.225904226405E-8,3.759971606591E-8},
    {-4.38614051535E-5,6.732380474195E-6,1.11940197518E-8,3.757385021605E-8},
    {-4.39987720669E-5,6.732440351583E-6,2.814977476446E-8,3.750340082557E-8},
    {-4.3906254253E-5,6.732369024283E-6,6.686183178482E-8,3.759160153055E-8},
    {-4.39673875275E-5,6.732398763259E-6,3.778782424267E-8,3.756828128361E-8},
    {-4.39497796874E-5,6.732375819028E-6,3.024095310863E-8,3.760555880191E-8},
    {-4.39814287101E-5,6.732437263612E-6,5.464684498162E-8,3.750787927306E-8},
    {-4.39042479423E-5,6.732410071753E-6,6.828548472382E-9,3.754323242606E-8},
    {-4.39102673665E-5,6.732402430094E-6,1.20733586661E-8,3.755276903974E-8},
    {-4.39559519476E-5,6.732401219714E-6,4.473283907484E-8,3.755306467043E-8}}},
  {{2.35779138381E-15,1.85450047404E-15,2.56622809139E-14},{Residual->4.9874221164E-16}},
  {{-.6,1.0115018173E-14},{-.4,6.40986430811E-15},{-.2,3.22951965707E-15},{1.11022302463E-16,1.41216378451E-15},
   {.2,3.94357187782E-15},{.4,7.57253596007E-15},{.6,1.25636205497E-14}}},
 {"Y26",1,
  {5.910942631232E-8,6.731918044793E-6,1.44090704771E-8,3.7484807689E-8,{{-4.39002094244E-5,6.731856808422E-6,2.609795430412E-8,
     3.758255588446E-8},
    {-4.39898272598E-5,6.73192282978E-6,4.175845779894E-8,3.7482084444E-8},
    {-4.39899003595E-5,6.731935363628E-6,2.677847965838E-8,3.74612026239E-8},
    {-4.38243782954E-5,6.731922080091E-6,3.522325901779E-8,3.746603724693E-8},
    {-4.40560719639E-5,6.731905423364E-6,1.54169998304E-8,3.751446306075E-8},
    {-4.39282619398E-5,6.731908485647E-6,5.252126705291E-8,3.749828373956E-8},
    {-4.40430328417E-5,6.731920334766E-6,3.466385610008E-8,3.749039478643E-8},
    {-4.39955329278E-5,6.731879207744E-6,3.834597513403E-8,3.754732942882E-8},
    {-4.38681331416E-5,6.731967234404E-6,3.802936554754E-8,3.739696582504E-8},
    {-4.40138870344E-5,6.731911318133E-6,6.000836816266E-8,3.750074176404E-8},
    {-4.39307430984E-5,6.73188806887E-6,4.474603943374E-8,3.752776893406E-8},
    {-4.39357699879E-5,6.731922729084E-6,7.424798296275E-8,3.747070117046E-8},
    {-4.3972924634E-5,6.731937930674E-6,2.751558872166E-8,3.745701503083E-8},
    {-4.39587773416E-5,6.7319093896E-6,5.253302347448E-8,3.749785390338E-8},
    {-4.40067877101E-5,6.73192892132E-6,5.253219029517E-8,3.747125879992E-8},
    {-4.39848300243E-5,6.73192013192E-6,4.734758851795E-8,3.748477289231E-8},
    {-4.39910717993E-5,6.731966394545E-6,3.540944944931E-8,3.741104263358E-8},
    {-4.39095131874E-5,6.731925314474E-6,5.627940393702E-8,3.746743826496E-8},
    {-4.39319277131E-5,6.731934236529E-6,3.941584743848E-8,3.745629304475E-8},
    {-4.38696843949E-5,6.731898692867E-6,1.61804354668E-8,3.751195030182E-8}}},
  {{1.59874286672E-15,-8.7282157484E-16,3.76532376015E-14},{Residual->1.03253660975E-16}},
  {{-.3,5.21771217278E-15},{-.2,3.37745287163E-15},{-.1,2.06095387491E-15},{5.55111512313E-17,1.41083875164E-15},
   {.1,1.95619298148E-15},{.2,3.06396508362E-15},{.3,4.64699085942E-15}}},
 {"Y66",1,
  {5.416094727874E-8,6.731925917909E-6,1.007952696983E-8,3.747767246659E-8,{{-4.39027106463E-5,6.731956498517E-6,3.913008101007E-8,
     3.742706367258E-8},
    {-4.39131395117E-5,6.731923402044E-6,4.438750780295E-8,3.747888156896E-8},
    {-4.39173936812E-5,6.731910195795E-6,6.053007168489E-8,3.749923745953E-8},
    {-4.39713466521E-5,6.731954735258E-6,4.949881825367E-8,3.743444857692E-8},
    {-4.40187292103E-5,6.731940182576E-6,3.250245556886E-8,3.746165932469E-8},
    {-4.3976856504E-5,6.731931197978E-6,4.001867381096E-8,3.746931090976E-8},
    {-4.40379823165E-5,6.731956753024E-6,3.133070677903E-8,3.744026149949E-8},
    {-4.39551513069E-5,6.731937153234E-6,4.238106269284E-8,3.74627350855E-8},
    {-4.38182357118E-5,6.73194436317E-6,3.974288072063E-8,3.743328439636E-8},
    {-4.39899229281E-5,6.731895299617E-6,3.139387498882E-8,3.752665897528E-8},
    {-4.40052937775E-5,6.731944343953E-6,4.274609034951E-8,3.744984235158E-8},
    {-4.39204369681E-5,6.731891227673E-6,3.225259151632E-8,3.7527495581E-8},
    {-4.38942676048E-5,6.731929867576E-6,4.205889346506E-8,3.746332878209E-8},
    {-4.39261255571E-5,6.731930657536E-6,5.154718392334E-8,3.746976400582E-8},
    {-4.39957124605E-5,6.731922302852E-6,3.23221763056E-8,3.749138490811E-8},
    {-4.39111288299E-5,6.731925143798E-6,4.138560882345E-8,3.747945208911E-8},
    {-4.38810486748E-5,6.731878778577E-6,4.352862763662E-8,3.754349735391E-8},
    {-4.39998460731E-5,6.73193720258E-6,1.789251422094E-8,3.747237327109E-8},
    {-4.39979536492E-5,6.731906250095E-6,2.132816365327E-8,3.751242280926E-8},
    {-4.39228733674E-5,6.731902802326E-6,5.337452370187E-8,3.751034671074E-8}}},
  {{3.53566070892E-15,3.6817971463E-16,8.80749021107E-13},{Residual->1.0127755332E-15}},
  {{-.2,3.86275419645E-14},{-.15,2.32587879538E-14},{-.1,1.32036736369E-14},{-.05,5.78836495658E-15},{0,1.40480372644E-15},
   {.05,5.76115207019E-15},{.1,1.36098604986E-14},{.15,2.45105489314E-14},{.2,3.77685658079E-14}}},
 {"Y44",1,
  {5.726687107021E-8,6.731919567487E-6,2.03344917815E-8,3.747882168515E-8,{{-4.40371590851E-5,6.731924661424E-6,9.583576570021E-8,
     3.747154915673E-8},
    {-4.39930236427E-5,6.731911140937E-6,1.55915554991E-8,3.749792948849E-8},
    {-4.40105940931E-5,6.73191472005E-6,9.548758389832E-9,3.749478413937E-8},
    {-4.40372925899E-5,6.731938175009E-6,6.012108281169E-8,3.744973062561E-8},
    {-4.395757667E-5,6.731920648797E-6,5.866053408397E-8,3.747508112272E-8},
    {-4.39429808367E-5,6.731943359066E-6,7.069975187446E-8,3.743593879701E-8},
    {-4.38845539277E-5,6.731896293978E-6,4.24185017043E-8,3.750663091E-8},
    {-4.39645314045E-5,6.731967938211E-6,2.367220459555E-8,3.740180489199E-8},
    {-4.40169515171E-5,6.731903608403E-6,3.961315283227E-8,3.750760073629E-8},
    {-4.39184444797E-5,6.731903985679E-6,2.254951416355E-8,3.75023858086E-8},
    {-4.39065868972E-5,6.731909808338E-6,3.799554583941E-8,3.749165723937E-8},
    {-4.40038233078E-5,6.731919652592E-6,4.247095839649E-8,3.748610646001E-8},
    {-4.3888510305E-5,6.731924292707E-6,4.569156405147E-8,3.746606843327E-8},
    {-4.40336039204E-5,6.73191324107E-6,2.864110609234E-8,3.749878235714E-8},
    {-4.39395072322E-5,6.731941756968E-6,3.840338504596E-8,3.743921905674E-8},
    {-4.40273925317E-5,6.731910335297E-6,5.01160948077E-8,3.749924117414E-8},
    {-4.38974474938E-5,6.731930682363E-6,4.708490842118E-8,3.745936338945E-8},
    {-4.38987084873E-5,6.731877845797E-6,7.587371922681E-8,3.753566720605E-8},
    {-4.40241767849E-5,6.731907381615E-6,3.531362376898E-8,3.750551298034E-8},
    {-4.38754320692E-5,6.73193182144E-6,5.219768802161E-8,3.745137972959E-8}}},
  {{1.78705968104E-15,4.48372115759E-17,1.21059258383E-14},{Residual->2.3306575725E-16}},
  {{-.6,5.90405675208E-15},{-.4,4.02304750034E-15},{-.2,2.47639444627E-15},{1.11022302463E-16,1.40564779343E-15},
   {.2,2.18387163493E-15},{.4,3.92323328442E-15},{.6,6.15180329474E-15}}},
 {"OCT1",1,
  {5.514474756874E-8,6.731910959204E-6,1.630387021363E-8,3.749017280051E-8,{{-4.38942274672E-5,6.731911428749E-6,5.344936730368E-8,
     3.748541210792E-8},
    {-4.39092137294E-5,6.731917472677E-6,4.469592457388E-8,3.747850378539E-8},
    {-4.40066008629E-5,6.731902991044E-6,6.422349566629E-8,3.750645178309E-8},
    {-4.39373584372E-5,6.731889605707E-6,7.001845262142E-8,3.751920484797E-8},
    {-4.39623040159E-5,6.731882482445E-6,6.592563873218E-8,3.753549916588E-8},
    {-4.4051328109E-5,6.731923691322E-6,2.883336274804E-8,3.74822372553E-8},
    {-4.38797554071E-5,6.731865235034E-6,2.998820478768E-8,3.756285410081E-8},
    {-4.39167703816E-5,6.731929767859E-6,5.520643426838E-8,3.74570990943E-8},
    {-4.3956383865E-5,6.731903785074E-6,3.65002249883E-8,3.750277206559E-8},
    {-4.39303740955E-5,6.731922720673E-6,7.852950591518E-8,3.746966850402E-8},
    {-4.39983046235E-5,6.731895469541E-6,4.640739795016E-8,3.75193420493E-8},
    {-4.39655905294E-5,6.731950979485E-6,5.227541264983E-8,3.742434654515E-8},
    {-4.38561153268E-5,6.73187436391E-6,2.430824739986E-8,3.754056784974E-8},
    {-4.40695418911E-5,6.731951326621E-6,5.053732856857E-8,3.743447636401E-8},
    {-4.40035622547E-5,6.731920888015E-6,4.481678238549E-8,3.748233018729E-8},
    {-4.39099549385E-5,6.731900027283E-6,7.829309599532E-8,3.750176035215E-8},
    {-4.38796017267E-5,6.731933290306E-6,2.127811018465E-8,3.744930553452E-8},
    {-4.39318616419E-5,6.731924704828E-6,4.168583733493E-8,3.746911535861E-8},
    {-4.39609315418E-5,6.731919495314E-6,5.410289347672E-8,3.7476381804E-8},
    {-4.39309915758E-5,6.731899458203E-6,3.759540918703E-8,3.750612725509E-8}}},
  {{1.44015489858E-15,-1.2337121088E-19,2.35563205004E-21},{Residual->2.09319045305E-17}},
  {{-370,1.79133048669E-15},{-296,1.70036832881E-15},{-222,1.60613729908E-15},{-148,1.51758531892E-15},{-74,1.44071202345E-15},
   {0,1.4054258282E-15},{74,1.4320483688E-15},{148,1.49480976504E-15},{222,1.55723605608E-15},{296,1.6202950417E-15},
   {370,1.69472448343E-15}}},
 {"OCT2",1,
  {4.824749843942E-8,6.734156603352E-6,1.851979486285E-8,3.747348315222E-8,{{-4.39221718658E-5,6.734115959467E-6,5.377037078524E-8,
     3.752538320968E-8},
    {-4.40369909064E-5,6.734172335364E-6,4.662382712829E-8,3.745731996681E-8},
    {-4.3931173284E-5,6.7341735355E-6,3.532407368701E-8,3.745386305559E-8},
    {-4.39515824749E-5,6.734151726767E-6,4.61237385806E-8,3.748112225098E-8},
    {-4.39532226869E-5,6.734182466546E-6,3.361614618825E-8,3.742787546694E-8},
    {-4.39357720171E-5,6.734165989936E-6,3.992978853469E-8,3.745371716178E-8},
    {-4.39164089985E-5,6.73411353377E-6,4.515473901774E-8,3.753180072781E-8},
    {-4.4003395666E-5,6.734185865576E-6,6.867289887892E-8,3.74299209031E-8},
    {-4.39890773389E-5,6.734223437369E-6,4.114598336158E-8,3.738490861514E-8},
    {-4.40173787735E-5,6.734148398982E-6,8.421326639298E-8,3.748652009065E-8},
    {-4.39565679462E-5,6.734140615428E-6,3.388416274559E-8,3.748958108756E-8},
    {-4.39178971049E-5,6.734142445114E-6,6.124121341137E-8,3.748751546241E-8},
    {-4.40187845483E-5,6.734142829593E-6,2.496673229481E-8,3.750259428332E-8},
    {-4.3858662802E-5,6.734144011237E-6,7.573727878031E-8,3.747887452225E-8},
    {-4.39603376765E-5,6.734176836273E-6,5.601446425912E-8,3.74375146651E-8},
    {-4.39276146592E-5,6.73416901028E-6,1.422752070854E-8,3.745960710646E-8},
    {-4.40349573945E-5,6.734173841902E-6,1.697252053578E-8,3.746376632545E-8},
    {-4.39251574108E-5,6.734158482153E-6,4.192542373699E-8,3.74568115313E-8},
    {-4.4040522043E-5,6.734099124657E-6,1.692898237278E-8,3.757312217455E-8},
    {-4.39697140432E-5,6.734151621132E-6,3.674649072406E-8,3.748784443756E-8}}},
  {{1.40520006503E-15,1.15558341279E-20,3.40347690798E-23},{Residual->6.35464267591E-19}},
  {{-370,1.40633088369E-15},{-296,1.40414040195E-15},{-222,1.40389533793E-15},{-148,1.40446331114E-15},{-74,1.40401434486E-15},
   {0,1.40559254805E-15},{74,1.40603874188E-15},{148,1.40822843906E-15},{222,1.40895543425E-15},{296,1.41281596371E-15},
   {370,1.41325634395E-15}}}}
