{{"FD",1,{5.265274229406E-6,1.177340226371E-5,4.367973054681E-6,1.530590999369E-6}},
 {"EX2",1,{1.447402483821E-6,1.113891960152E-5,5.786040786562E-6,1.54844812441E-6}},
 {"FD",1,{1.369780945237E-6,1.106708631723E-5,5.747821294735E-6,1.534089013355E-6}},
 {"AY",1,{3.734760763672E-6,1.140012422884E-5,5.103959051039E-6,2.871068954838E-6},
  {{8.2506583917E-12,3.56894246638E-13,3.73151611339E-12},{Residual->3.4174707894E-15}},
  {{-.5,9.00517656454E-12},{-.35,8.58405906068E-12},{-.2,8.32724485292E-12},{-.05,8.2413784728E-12},{.1,8.32040364065E-12},
   {.25,8.58056144669E-12},{.4,8.9870284007E-12}}},
 {"EY",1,{2.296321266113E-5,1.576138159373E-5,3.899408617073E-6,2.512761381121E-6},
  {{8.24572358562E-12,-2.2116532237E-12,3.58830534697E-13},{Residual->3.48877588092E-15}},
  {{-.5,9.44472454608E-12},{-.35,9.06069360467E-12},{-.2,8.6985311917E-12},{-.05,8.35645738611E-12},{.1,8.03229471317E-12},
   {.25,7.71921020926E-12},{.4,7.41457484785E-12}}},
 {"R32",1,{-9.81124608723E-6,1.284296099568E-5,3.839171721377E-6,9.999243416121E-7},
  {{6.30649971469E-12,-3.3285453489E-12,4.15867108876E-13},{Residual->8.81087353624E-15}},
  {{-.5,8.07476521982E-12},{-.35,7.53189572621E-12},{-.2,6.97152649878E-12},{-.05,6.47307479002E-12},{.1,5.98937626401E-12},
   {.25,5.50169029213E-12},{.4,5.03743403703E-12}}},
 {"AY",1,{-9.49722262628E-6,1.28480836275E-5,4.252947054492E-6,9.636172297479E-7},
  {{1.0053480478E-12,-1.0547803989E-12,4.10240029229E-12},{Residual->6.25251025512E-15}},
  {{-.5,2.55195734809E-12},{-.35,1.88267892617E-12},{-.2,1.38931149012E-12},{-.05,1.06693609716E-12},{.1,9.31224374048E-13},
   {.25,9.9618506926E-13},{.4,1.24462035862E-12}}},
 {"EY",1,{5.406307686988E-8,1.149886691467E-5,3.419172554277E-6,2.757236786525E-7},
  {{9.29099599319E-13,-1.2536960466E-12,4.63726398226E-13},{Residual->1.38214143978E-15}},
  {{-.5,1.67303060555E-12},{-.35,1.42182079965E-12},{-.2,1.20028188629E-12},{-.05,9.92948802911E-13},{.1,8.08506119869E-13},
   {.25,6.44275621131E-13},{.4,5.01889819002E-13}}},
 {"R32",1,{-1.79675490067E-6,1.170070711814E-5,3.442084295866E-6,1.889838397627E-7},
  {{7.54508898391E-14,-2.7311811908E-13,4.68776123652E-13},{Residual->6.69728162616E-16}},
  {{-.5,3.29954269684E-13},{-.35,2.27700524646E-13},{-.2,1.47952042153E-13},{-.05,9.05328274386E-14},{.1,5.37191431162E-14},
   {.25,3.67492254085E-14},{.4,4.0672078169E-14}}},
 {"AY",1,{-1.88428598419E-6,1.169938182391E-5,3.38467164375E-6,1.77520666632E-7},
  {{3.22211754872E-14,2.99581370711E-13,4.04868911493E-12},{Residual->2.69647182654E-15}},
  {{-.3,3.06440142034E-13},{-.2,1.3240813887E-13},{-.1,4.5374877219E-14},{5.55111512313E-17,3.57148916914E-14},
   {.1,9.92082786475E-14},{.2,2.50973415982E-13},{.3,4.89061436147E-13}}},
 {"EY",1,{-6.547179682E-7,1.155982108856E-5,3.276414992239E-6,9.737664361941E-8},
  {{3.08250800016E-14,-1.8686819909E-13,4.57483440822E-13},{Residual->1.35448419852E-15}},
  {{-.5,2.37928852086E-13},{-.35,1.52544339424E-13},{-.2,8.73723167032E-14},{-.05,4.23261233967E-14},{.1,1.62068971067E-14},
   {.25,1.00131133611E-14},{.4,3.10083155482E-14}}},
 {"R32",1,{-1.26507470444E-6,1.165845524752E-5,3.28437459523E-6,8.282156311551E-8},
  {{8.93432986803E-15,-9.6199916154E-14,4.7654047564E-13},{Residual->1.63600511066E-15}},
  {{-.5,1.77556479651E-13},{-.35,1.00086313871E-13},{-.2,4.51389921969E-14},{-.05,1.42479185108E-14},{.1,6.86051486681E-15},
   {.25,1.57061594225E-14},{.4,4.51738591878E-14}}},
 {"AY",1,{-1.26972812643E-6,1.165864861519E-5,3.28197759722E-6,8.266104217064E-8},
  {{-3.6711352776E-16,1.47580458329E-14,4.07925850029E-12},{Residual->3.56109949933E-15}},
  {{-.3,3.64459603886E-13},{-.2,1.56283859303E-13},{-.1,3.62015653823E-14},{5.55111512313E-17,6.85941131698E-15},
   {.1,4.05748986531E-14},{.2,1.62834015208E-13},{.3,3.72409231637E-13}}},
 {"EY",1,{-9.789458413E-7,1.161063691682E-5,3.256854381642E-6,6.797068116607E-8},
  {{7.23063310627E-15,-4.9798743298E-14,4.98543822225E-13},{Residual->6.55622193222E-16}},
  {{-.3,6.63253496652E-14},{-.2,3.79097861754E-14},{-.1,1.80414378405E-14},{5.55111512313E-17,6.83284789274E-15},
   {.1,6.28784079841E-15},{.2,1.73155816284E-14},{.3,3.74938579662E-14}}},
 {"R32",1,{-1.16875293587E-6,1.165004118328E-5,3.258081673018E-6,6.696545195653E-8},
  {{3.58946681878E-15,-2.8479044538E-14,4.35007568502E-13},{Residual->9.12734030147E-16}},
  {{-.3,5.22843188258E-14},{-.2,2.53326401549E-14},{-.1,9.87438410192E-15},{5.55111512313E-17,4.62001349818E-15},
   {.1,6.00089605554E-15},{.2,1.47980027001E-14},{.3,3.40181315755E-14}}},
 {"Y24",1,{-1.42721719676E-6,1.165975885315E-5,3.285149745843E-6,5.318139745274E-8},
  {{4.36085734103E-15,2.60597598753E-15,1.24678141851E-15},{Residual->8.7647884915E-17}},
  {{-1.5,3.39161290754E-15},{-1.2,2.90156044062E-15},{-.9,2.90371597493E-15},{-.6,3.22891300437E-15},{-.3,3.75549497701E-15},
   {0,4.48437175574E-15},{.3,5.29056882035E-15},{.6,6.36965932302E-15},{.9,7.62078814583E-15},{1.2,9.23567633103E-15},
   {1.5,1.11302051142E-14}}},
 {"Y46",1,{-1.48694796763E-6,1.162762279607E-5,3.264123689459E-6,4.016197522094E-8},
  {{3.06785689448E-15,6.26426335794E-15,6.4513026366E-15},{Residual->1.74633407405E-16}},
  {{-1,3.05473318429E-15},{-.8,2.37625711479E-15},{-.6,1.88544929002E-15},{-.4,1.61298425365E-15},{-.2,1.86937346133E-15},
   {0,2.82826103503E-15},{.2,4.48768950302E-15},{.4,6.75582820371E-15},{.6,9.33430964039E-15},{.8,1.2294455508E-14},
   {1,1.56328162461E-14}}},
 {"Y22",1,{-1.48694796763E-6,1.162762279607E-5,3.264123689459E-6,4.016197522102E-8},
  {{2.42873480013E-15,2.54263930261E-15,1.82879169605E-14},{Residual->4.70011073727E-16}},
  {{-.6,7.05933310893E-15},{-.4,4.89643057466E-15},{-.2,3.21913036305E-15},{1.11022302463E-16,1.61298425365E-15},
   {.2,3.53676592083E-15},{.4,6.58489411377E-15},{.6,1.05740722618E-14}}},
 {"Y26",1,{-1.48506932275E-6,1.162951399229E-5,3.271277736267E-6,3.924752884403E-8},
  {{2.16852452842E-15,-2.2814672046E-15,4.98154577668E-14},{Residual->4.27008043878E-16}},
  {{-.6,2.1062337095E-14},{-.4,1.14687556626E-14},{-.2,5.28527349035E-15},{1.11022302463E-16,1.61298425365E-15},
   {.2,3.32222514637E-15},{.4,9.35287164056E-15},{.6,1.88685371092E-14}}},
 {"Y66",1,{-1.48506932275E-6,1.162951399229E-5,3.271277736267E-6,3.924752884403E-8},
  {{3.1833099384E-15,6.55802394283E-15,9.64676023423E-13},{Residual->9.59087996276E-16}},
  {{-.2,4.05550230166E-14},{-.15,2.42650385188E-14},{-.1,1.2280317897E-14},{-.05,4.86155470247E-15},{0,1.54036852036E-15},
   {.05,6.05170468774E-15},{.1,1.51613912116E-14},{.15,2.68061947812E-14},{.2,4.18295996233E-14}}},
 {"Y44",1,{-1.48506932351E-6,1.162951399292E-5,3.271277736267E-6,3.924752884402E-8},
  {{1.73656559779E-15,1.18370931478E-15,1.41276347223E-14},{Residual->1.64015751555E-16}},
  {{-.6,6.18546946028E-15},{-.4,3.52322640566E-15},{-.2,1.95084337756E-15},{1.11022302463E-16,1.54036852036E-15},
   {.2,2.71657450691E-15},{.4,4.72138118267E-15},{.6,7.34104662008E-15}}},
 {"AY",1,{-1.484026981E-6,1.162957812117E-5,3.271967694328E-6,3.927322709032E-8},
  {{8.65509578309E-16,-3.1204164244E-15,3.62507285274E-12},{Residual->5.03141371053E-16}},
  {{-.1,3.75066849095E-14},{-.07,1.84261497306E-14},{-.04,6.95584431733E-15},{-.01,2.01546865052E-15},{.02,2.02236075514E-15},
   {.05,8.9361601329E-15},{.08,2.43037145878E-14}}},
 {"EY",1,{-1.36364885573E-6,1.162326656372E-5,3.260923815512E-6,3.761388234127E-8},
  {{1.56345125307E-15,-2.0303264078E-14,5.00656110323E-13},{Residual->5.65519904028E-17}},
  {{-.1,8.61073466597E-15},{-.07,5.4741414183E-15},{-.04,3.10768601428E-15},{-.01,1.76255634874E-15},{.02,1.41489543427E-15},
   {.05,1.87958696249E-15},{.08,3.08277967024E-15}}},
 {"R32",1,{-1.31918046347E-6,1.161791310617E-5,3.260417915563E-6,3.751579642765E-8},
  {{1.45660556868E-15,7.08651414405E-15,5.08015694801E-13},{Residual->3.68236190805E-17}},
  {{-.1,5.78509381208E-15},{-.07,3.51780090447E-15},{-.04,2.00162058369E-15},{-.01,1.40609078777E-15},{.02,1.76450808114E-15},
   {.05,3.10202199442E-15},{.08,5.28065332242E-15}}},
 {"Y24",1,{-1.38516762928E-6,1.161574978742E-5,3.267099723043E-6,3.56509910052E-8},
  {{1.4058344613E-15,9.03926744566E-16,1.65097148938E-15},{Residual->4.67163356087E-18}},
  {{-.3,1.28858151121E-15},{-.2,1.28389064129E-15},{-.1,1.32859909796E-15},{5.55111512313E-17,1.4074349816E-15},
   {.1,1.51995843043E-15},{.2,1.65078438229E-15},{.3,1.82386420132E-15}}},
 {"Y46",1,{-1.36410207553E-6,1.162447722273E-5,3.276555975853E-6,3.43890367503E-8},
  {{1.25862618222E-15,-4.6629950298E-16,4.82607788693E-15},{Residual->9.89533382207E-17}},
  {{-.45,2.348166602E-15},{-.3,1.91548987816E-15},{-.15,1.55631116113E-15},{-5.5511151231E-17,1.27099315965E-15},
   {.15,1.18260584861E-15},{.3,1.4410101219E-15},{.45,2.13623557282E-15}}},
 {"Y22",1,{-1.36410207553E-6,1.162447722273E-5,3.276555975854E-6,3.438903675022E-8},
  {{1.90602704931E-15,2.98541721153E-15,1.76655549346E-14},{Residual->4.01877840575E-16}},
  {{-.6,6.11435617373E-15},{-.4,4.03085986085E-15},{-.2,2.46506894003E-15},{1.11022302463E-16,1.18260584861E-15},
   {.2,3.15817328808E-15},{.4,6.09962000254E-15},{.6,1.00769267581E-14}}},
 {"Y26",1,{-1.35954814475E-6,1.162415036346E-5,3.285577020193E-6,3.355281073924E-8},
  {{1.38680768914E-15,-3.4536583124E-15,6.09333133951E-14},{Residual->1.6786207568E-16}},
  {{-.3,7.71497712823E-15},{-.2,4.7628967647E-15},{-.1,2.53139244705E-15},{5.55111512313E-17,1.18260584861E-15},
   {.1,1.52271088723E-15},{.2,3.15403229718E-15},{.3,5.90036620161E-15}}},
 {"Y66",1,{-1.35954814475E-6,1.162415036346E-5,3.285577020193E-6,3.355281073924E-8},
  {{2.626053772E-15,1.93382512993E-15,9.633958609E-13},{Residual->8.83172049771E-16}},
  {{-.2,4.07953678388E-14},{-.15,2.45169469228E-14},{-.1,1.20222437941E-14},{-.05,4.59357291134E-15},{0,1.1257911085E-15},
   {.05,5.39908344487E-15},{.1,1.35973968152E-14},{.15,2.5795870052E-14},{.2,4.02975901954E-14}}},
 {"Y44",1,{-1.36932638112E-6,1.163459980189E-5,3.287929696531E-6,3.317263560854E-8},
  {{1.3728545483E-15,-1.1070260678E-15,1.39100205662E-14},{Residual->1.50509257562E-16}},
  {{-.6,6.94296532447E-15},{-.4,4.26378640952E-15},{-.2,2.15316277498E-15},{1.11022302463E-16,1.12579110851E-15},
   {.2,1.73452992396E-15},{.4,3.33115232858E-15},{.6,5.63781700217E-15}}},
 {"AY",1,{-1.38213046988E-6,1.163394526423E-5,3.279452929833E-6,3.385669926826E-8},
  {{7.03024274119E-16,3.96131380955E-14,3.86981400872E-12},{Residual->4.2066715719E-16}},
  {{-.1,3.54233532604E-14},{-.07,1.66276888014E-14},{-.04,5.54015638264E-15},{-.01,1.33789152299E-15},{.02,2.62393350048E-15},
   {.05,1.17664079104E-14},{.08,2.90570016997E-14}}},
 {"EY",1,{-1.28764629174E-6,1.162919050875E-5,3.270656926118E-6,3.226964241285E-8},
  {{1.20625092802E-15,-1.6001366826E-14,4.95073993959E-13},{Residual->3.40568804418E-17}},
  {{-.1,7.73633338529E-15},{-.07,4.78881680215E-15},{-.04,2.65780988468E-15},{-.01,1.3647429139E-15},{.02,1.06686129046E-15},
   {.05,1.69592190147E-15},{.08,3.07578243958E-15}}},
 {"R32",1,{-1.25172798753E-6,1.162370912165E-5,3.270226956196E-6,3.239768304532E-8},
  {{1.0992209231E-15,5.88747380963E-15,4.95942488402E-13},{Residual->4.65736550626E-17}},
  {{-.1,5.41379957983E-15},{-.07,3.19408775282E-15},{-.04,1.69586011656E-15},{-.01,1.05501440289E-15},{.02,1.36110916374E-15},
   {.05,2.64441879349E-15},{.08,4.7630439353E-15}}},
 {"Y24",1,{-1.27369272009E-6,1.162319122464E-5,3.272445217471E-6,3.142442164685E-8},
  {{1.04375054384E-15,6.8700860313E-16,2.23646079831E-15},{Residual->4.94978255029E-18}},
  {{-.3,1.04235027076E-15},{-.2,9.9465928576E-16},{-.1,9.87494275839E-16},{5.55111512313E-17,1.0496098667E-15},
   {.1,1.13692529105E-15},{.2,1.27370906341E-15},{.3,1.44771477685E-15}}},
 {"Y46",1,{-1.27270893315E-6,1.162369077984E-5,3.272870351104E-6,3.139509384487E-8},
  {{9.83940096209E-16,-7.3061302758E-17,4.97025125202E-15},{Residual->5.99577325866E-17}},
  {{-.45,1.96004033445E-15},{-.3,1.51269422143E-15},{-.15,1.17702829805E-15},{-5.5511151231E-17,9.87494275839E-16},
   {.15,1.00602607644E-15},{.3,1.35701307185E-15},{.45,2.01854268418E-15}}},
 {"Y22",1,{-1.27270893315E-6,1.162369077984E-5,3.272870351104E-6,3.139509384487E-8},
  {{1.5397174975E-15,2.28194347315E-15,1.6591192191E-14},{Residual->2.88028568892E-16}},
  {{-.6,5.93176076893E-15},{-.4,3.56937401413E-15},{-.2,2.0741354187E-15},{1.11022302463E-16,9.85651917528E-16},
   {.2,2.65486299885E-15},{.4,5.3009316503E-15},{.6,8.84344096798E-15}}},
 {"Y26",1,{-1.27028699604E-6,1.162141023852E-5,3.280913068511E-6,3.084894508742E-8},
  {{1.25867226645E-15,-2.7959868695E-15,5.89472847546E-14},{Residual->1.94069224333E-16}},
  {{-.3,7.20403029531E-15},{-.2,4.49428781602E-15},{-.1,2.24771462557E-15},{5.55111512313E-17,9.85651917443E-16},
   {.1,1.46291957025E-15},{.2,3.20732577693E-15},{.3,5.71401559491E-15}}},
 {"Y66",1,{-1.27130282568E-6,1.16230471989E-5,3.278533260916E-6,3.059223096872E-8},
  {{2.1909891848E-15,-2.7355074127E-15,9.78266581376E-13},{Residual->7.72759811738E-16}},
  {{-.2,4.23078620797E-14},{-.15,2.4374779436E-14},{-.1,1.23549437531E-14},{-.05,4.38190128458E-15},{0,9.51657413007E-16},
   {.05,4.8552975094E-15},{.1,1.30622545783E-14},{.15,2.44195287491E-14},{.2,3.97506650665E-14}}},
 {"Y44",1,{-1.27130282551E-6,1.162304719885E-5,3.278533260916E-6,3.059223096869E-8},
  {{1.1099149864E-15,5.10630608801E-16,1.15787229886E-14},{Residual->9.8595198666E-17}},
  {{-.6,4.90212152318E-15},{-.4,2.88659559173E-15},{-.2,1.51874342457E-15},{1.11022302463E-16,9.35884595641E-16},
   {.2,1.67340625834E-15},{.4,3.27804544717E-15},{.6,5.5427778114E-15}}},
 {"AY",1,{-1.27460419486E-6,1.162291231253E-5,3.276591175867E-6,3.070414522685E-8},
  {{4.4413463649E-16,1.07078180817E-14,3.99086163003E-12},{Residual->2.59126550131E-16}},
  {{-.1,3.94423910441E-14},{-.07,1.89485148741E-14},{-.04,6.27363355722E-15},{-.01,1.18600795252E-15},{.02,2.2770575378E-15},
   {.05,1.06164486207E-14},{.08,2.69786578209E-14}}},
 {"EY",1,{-1.2592209953E-6,1.162211888427E-5,3.275110674152E-6,3.069664197775E-8},
  {{9.22811145755E-16,-2.4098842858E-15,4.55791336722E-13},{Residual->3.81107659794E-17}},
  {{-.1,5.76058176633E-15},{-.07,3.29147699506E-15},{-.04,1.69821146248E-15},{-.01,9.93290475496E-16},{.02,1.10709673059E-15},
   {.05,1.97390757028E-15},{.08,3.60880054114E-15}}},
 {"R32",1,{-1.230127656E-6,1.161774656586E-5,3.274846659995E-6,3.068564844888E-8},
  {{9.66305572186E-16,4.42598352492E-15,4.67318446809E-13},{Residual->1.87634207106E-17}},
  {{-.1,5.17664779353E-15},{-.07,2.97091455555E-15},{-.04,1.55731117996E-15},{-.01,9.56693675429E-16},{.02,1.21397574301E-15},
   {.05,2.36499076708E-15},{.08,4.31733421634E-15}}},
 {"Y24",1,{-1.2646686835E-6,1.161485037244E-5,3.278223592049E-6,2.978987091248E-8},
  {{9.38811838438E-16,6.84934963078E-16,2.15498088896E-15},{Residual->2.63336399654E-18}},
  {{-.3,9.24856463724E-16},{-.2,8.91472525329E-16},{-.1,8.91490432596E-16},{5.55111512313E-17,9.41609020729E-16},
   {.1,1.02459295479E-15},{.2,1.16093854618E-15},{.3,1.34011757463E-15}}},
 {"Y46",1,{-1.26050372267E-6,1.161728379427E-5,3.28006259897E-6,2.935875730503E-8},
  {{8.80031050283E-16,-3.2529748466E-16,5.05460392549E-15},{Residual->5.43458317244E-17}},
  {{-.45,1.99443460385E-15},{-.3,1.48250379188E-15},{-.15,1.10615082261E-15},{-5.5511151231E-17,8.87436408982E-16},
   {.15,8.74542284542E-16},{.3,1.18497924171E-15},{.45,1.81457067146E-15}}},
 {"Y22",1,{-1.26050372267E-6,1.161728379427E-5,3.280062598971E-6,2.935875730488E-8},
  {{1.3224121332E-15,1.84178568545E-15,1.63761178493E-14},{Residual->2.33398424418E-16}},
  {{-.6,5.9678019776E-15},{-.4,3.40486953839E-15},{-.2,1.86783423371E-15},{1.11022302463E-16,8.61936630487E-16},
   {.2,2.35902266661E-15},{.4,4.87405921506E-15},{.6,8.26261266169E-15}}},
 {"Y26",1,{-1.25835594465E-6,1.16166764159E-5,3.284035307961E-6,2.882566561764E-8},
  {{1.09946849322E-15,-1.3563869822E-15,6.12371959283E-14},{Residual->1.4650458859E-16}},
  {{-.3,6.90247573105E-15},{-.2,3.98794467136E-15},{-.1,1.98777235123E-15},{5.55111512313E-17,8.61936630496E-16},
   {.1,1.49877604975E-15},{.2,3.43693734872E-15},{.3,6.16685152989E-15}}},
 {"Y66",1,{-1.25835594465E-6,1.16166764159E-5,3.284035307961E-6,2.882566561764E-8},
  {{2.20719653595E-15,-3.7509469215E-15,9.69794311923E-13},{Residual->9.41892163608E-16}},
  {{-.2,4.20594082086E-14},{-.15,2.47282074486E-14},{-.1,1.22666816186E-14},{-.05,4.29892721978E-15},{0,8.309189983E-16},
   {.05,4.69463540334E-15},{.1,1.28575955392E-14},{.15,2.47982863111E-14},{.2,3.87992548645E-14}}},
 {"Y44",1,{-1.25835594467E-6,1.16166764159E-5,3.28403530796E-6,2.882566561796E-8},
  {{1.01941433118E-15,2.7972593721E-16,1.15550741523E-14},{Residual->1.11296987558E-16}},
  {{-.6,4.91072860588E-15},{-.4,2.93514986584E-15},{-.2,1.47312032019E-15},{1.11022302463E-16,8.30918998318E-16},
   {.2,1.54037163656E-15},{.4,3.06018234491E-15},{.6,5.32711159717E-15}}},
 {"OCT1",1,{-1.25835594467E-6,1.16166764159E-5,3.28403530796E-6,2.882566561796E-8},
  {{1.01364194239E-15,8.82789693336E-23,1.56700361469E-20},{Residual->9.79105853695E-17}},
  {{-370,3.111099957E-15},{-296,2.4542682136E-15},{-222,1.85913546606E-15},{-148,1.37967988579E-15},{-74,1.01334663715E-15},
   {0,8.30918998318E-16},{74,1.06442575424E-15},{148,1.47963260569E-15},{222,1.92818372594E-15},{296,2.426811253E-15},
   {370,3.0415833764E-15}}},
 {"OCT2",1,{-1.24635818378E-6,1.161688625724E-5,3.279937767756E-6,2.864754346652E-8},
  {{8.25009428512E-16,-2.4375163725E-19,1.42748624416E-21},{Residual->9.61038242145E-18}},
  {{-370,1.12288103763E-15},{-296,1.01994892965E-15},{-222,9.4566413962E-16},{-148,8.77506419696E-16},{-74,8.37166221116E-16},
   {0,8.30918998318E-16},{74,8.24831829598E-16},{148,8.28806511512E-16},{222,8.50742330876E-16},{296,8.78014965462E-16},
   {370,9.18500470418E-16}}},
 {"OCT1",1,{-1.24650542413E-6,1.161709316248E-5,3.279891022978E-6,2.862747241478E-8},
  {{1.24994563071E-15,1.75034612799E-20,1.15170581888E-20},{Residual->2.12920265029E-16}},
  {{-740,7.50052318425E-15},{-592,5.39201675665E-15},{-444,3.61546049647E-15},{-296,2.29104352742E-15},{-148,1.31206176415E-15},
   {0,8.20681746666E-16},{148,1.52125145357E-15},{296,2.53356748051E-15},{444,3.8357144126E-15},{592,5.38447422714E-15},
   {740,7.29254860926E-15}}},
 {"OCT2",1,{-1.2370160152E-6,1.161801508396E-5,3.276873720206E-6,2.878953437863E-8},
  {{8.28249446082E-16,-4.365814766E-19,1.40157105014E-21},{Residual->4.4141625947E-17}},
  {{-740,1.97260414654E-15},{-592,1.58495806709E-15},{-444,1.25495001429E-15},{-296,1.02169030112E-15},{-148,8.79021660244E-16},
   {0,8.30062414811E-16},{148,8.28837289738E-16},{296,8.77835430711E-16},{444,9.61709928293E-16},{592,1.06839021342E-15},
   {740,1.20787201573E-15}}}}
