{{"FD",1,{2.703446299357E-5,2.119018576711E-5,4.057475534026E-6,4.944009212171E-7}},
 {"EX2",1,{1.883788577243E-5,2.104620971211E-5,4.021703533294E-6,4.95752417788E-7}},
 {"FD",1,{1.943467766274E-5,2.098275794711E-5,4.020168050425E-6,4.959062834776E-7}},
 {"AY",1,{1.851455431484E-5,2.008040762156E-5,3.946001878148E-6,5.787195957468E-7},
  {{3.35726959333E-13,-4.0330201251E-14,3.1966992694E-12},{Residual->8.01749303263E-15}},
  {{-.5,1.145995848E-12},{-.35,7.54124461084E-13},{-.2,4.73757637397E-13},{-.05,3.45594721348E-13},{.1,3.60705149846E-13},
   {.25,5.14379319772E-13},{.4,8.39509925257E-13}}},
 {"EY",1,{1.870012304709E-5,1.990839918467E-5,3.881098270738E-6,1.602778384017E-7},
  {{3.36580283555E-13,7.79674826976E-13,4.63249667527E-13},{Residual->2.94195165467E-15}},
  {{-.5,6.33857899247E-14},{-.35,1.22233937099E-13},{-.2,1.93062790551E-13},{-.05,2.99495359799E-13},{.1,4.23258136753E-13},
   {.25,5.60582512421E-13},{.4,7.21111428621E-13}}},
 {"R32",1,{1.766215343834E-5,2.024512219944E-5,3.815304605679E-6,5.870658404427E-8},
  {{2.60012276334E-14,8.37644458779E-14,7.40051330597E-14},{Residual->5.32554454928E-16}},
  {{-.5,2.9583069499E-15},{-.35,5.7282954743E-15},{-.2,1.13114254307E-14},{-.05,2.20351232886E-14},{.1,3.55288824578E-14},
   {.25,5.22994107207E-14},{.4,7.07479167107E-14}}},
 {"AY",1,{1.775275476454E-5,2.024375085036E-5,3.799744929497E-6,5.596419823681E-8},
  {{-2.2382442093E-15,-1.1957292215E-13,3.26584850526E-12},{Residual->3.82817381727E-15}},
  {{-.5,8.746349437E-13},{-.35,4.41593087315E-13},{-.2,1.46756774097E-13},{-.05,1.10235916943E-14},{.1,2.5915604445E-14},
   {.25,1.68617627422E-13},{.4,4.72278091769E-13}}},
 {"EY",1,{1.771433983493E-5,2.025795195993E-5,3.803480432831E-6,4.620496708794E-8},
  {{2.57093436703E-15,-4.4142132115E-14,4.81348942552E-13},{Residual->5.32685491184E-16}},
  {{-.5,1.44868635797E-13},{-.35,7.74323415079E-14},{-.2,2.98226368455E-14},{-.05,6.60932403171E-15},{.1,3.26541795141E-15},
   {.25,2.0899814387E-14},{.4,6.22215565911E-14}}},
 {"R32",1,{1.786751168037E-5,2.020660585184E-5,3.813493225884E-6,4.203786295895E-8},
  {{2.3524225005E-15,-1.1758283836E-14,8.3750603806E-14},{Residual->2.37499508589E-16}},
  {{-.5,2.91194149772E-14},{-.35,1.67839407548E-14},{-.2,8.28562152434E-15},{-.05,2.78107946478E-15},{.1,1.91119918088E-15},
   {.25,5.04834765213E-15},{.4,1.08812692565E-14}}},
 {"AY",1,{1.794408979304E-5,2.020502904814E-5,3.801433102776E-6,4.085491612816E-8},
  {{-7.5958716238E-16,-2.1534511963E-14,3.0959955621E-12},{Residual->1.25769338275E-15}},
  {{-.3,2.84818001983E-13},{-.2,1.26248331922E-13},{-.1,3.19555997674E-14},{5.55111512313E-17,1.78560064088E-15},
   {.1,2.70242065885E-14},{.2,1.17604289574E-13},{.3,2.72125616776E-13}}},
 {"EY",1,{1.788520150687E-5,2.021741580497E-5,3.808393663999E-6,4.013407269938E-8},
  {{1.75046134739E-15,6.26195970048E-16,4.89560584961E-13},{Residual->6.19376098212E-16}},
  {{-.5,1.23569608441E-13},{-.35,6.13279280911E-14},{-.2,2.20346420999E-14},{-.05,3.4746465641E-15},{.1,5.76580751241E-15},
   {.25,3.1907627203E-14},{.4,8.09442796927E-14}}},
 {"R32",1,{1.784046677462E-5,2.022960217294E-5,3.809505916108E-6,4.065318007179E-8},
  {{2.18746635843E-15,1.59269089017E-15,8.58582890204E-14},{Residual->3.64030760023E-16}},
  {{-.5,2.25287945579E-14},{-.35,1.24622734142E-14},{-.2,5.89089176503E-15},{-.05,1.84846252803E-15},{.1,2.85896575482E-15},
   {.25,8.104353592E-15},{.4,1.66543232262E-14}}},
 {"AY",1,{1.776042790279E-5,2.023065294711E-5,3.818993511923E-6,4.081561753354E-8},
  {{6.86850253676E-16,9.93730419381E-14,3.10978133652E-12},{Residual->3.69168680661E-15}},
  {{-.3,2.51221638674E-13},{-.2,1.06521659838E-13},{-.1,1.85528349221E-14},{5.55111512313E-17,1.66617870768E-15},
   {.1,3.83737736362E-14},{.2,1.52500106262E-13},{.3,3.06710533962E-13}}},
 {"EY",1,{1.775412299872E-5,2.023134569407E-5,3.82449729357E-6,4.049821639002E-8},
  {{1.94932753812E-15,-3.2385129752E-15,4.88600595265E-13},{Residual->5.04481135421E-16}},
  {{-.3,4.73204313494E-14},{-.2,2.13220712906E-14},{-.1,7.60492911533E-15},{5.55111512313E-17,1.68380196867E-15},
   {.1,6.44097429955E-15},{.2,2.15421991386E-14},{.3,4.45390522791E-14}}},
 {"R32",1,{1.779049584171E-5,2.021444452364E-5,3.834842493054E-6,4.045209914346E-8},
  {{1.95547713303E-15,-3.9080425995E-15,8.6297911402E-14},{Residual->1.90589755987E-16}},
  {{-.3,1.06783480653E-14},{-.2,6.48296634401E-15},{-.1,3.34072843061E-15},{5.55111512313E-17,1.79233247599E-15},
   {.1,2.43394417211E-15},{.2,4.4050650431E-15},{.3,8.71837059262E-15}}},
 {"Y24",1,{1.775290280852E-5,2.021898364243E-5,3.828664949607E-6,3.848306613542E-8},
  {{1.58563361678E-15,4.63800763551E-16,1.04865012288E-15},{Residual->8.55021294635E-17}},
  {{-1.5,3.39185750455E-15},{-1.2,2.49970489166E-15},{-.9,1.91650625566E-15},{-.6,1.56115826055E-15},{-.3,1.48094637918E-15},
   {0,1.63637232511E-15},{.3,1.90234300244E-15},{.6,2.33306508239E-15},{.9,2.90742323907E-15},{1.2,3.6455742332E-15},
   {1.5,4.54865482731E-15}}},
 {"Y46",1,{1.777388753833E-5,2.021836713356E-5,3.825834952033E-6,3.806348212533E-8},
  {{1.60006846709E-15,8.35626528422E-16,1.94727781534E-15},{Residual->7.08124041576E-17}},
  {{-1,2.63440232383E-15},{-.8,2.20618371002E-15},{-.6,1.91680311775E-15},{-.4,1.64584029097E-15},{-.2,1.44882867151E-15},
   {0,1.48094637918E-15},{.2,1.80109165528E-15},{.4,2.26641912427E-15},{.6,2.86834117054E-15},{.8,3.56710013493E-15},
   {1,4.33281894721E-15}}},
 {"Y22",1,{1.778880888009E-5,2.022361054501E-5,3.822857456659E-6,3.782442971276E-8},
  {{1.69122055988E-15,2.63335938853E-15,1.46341026099E-14},{Residual->1.38127291151E-16}},
  {{-.6,5.39234912632E-15},{-.4,3.02220780574E-15},{-.2,1.74657343303E-15},{1.11022302463E-16,1.4488286715E-15},
   {.2,2.9287135915E-15},{.4,5.28406323469E-15},{.6,8.40600297944E-15}}},
 {"Y26",1,{1.778880888009E-5,2.022361054501E-5,3.822857456665E-6,3.782442970384E-8},
  {{2.96673496971E-15,1.40035700109E-14,1.84120815367E-13},{Residual->1.40443574887E-15}},
  {{-.6,5.94316519623E-14},{-.4,2.86609860175E-14},{-.2,9.04765734703E-15},{1.11022302463E-16,1.43068748242E-15},
   {.2,1.15226335192E-14},{.4,3.91045812004E-14},{.6,7.77842604699E-14}}},
 {"Y66",1,{1.778880888009E-5,2.022361054501E-5,3.822857456665E-6,3.782442970384E-8},
  {{1.8214380757E-15,-3.752469008E-14,2.34592442007E-12},{Residual->1.78866540805E-15}},
  {{-.2,1.0493448644E-13},{-.15,5.99107653018E-14},{-.1,2.75145393215E-14},{-.05,6.94930675951E-15},{0,1.43068748242E-15},
   {.05,7.86512177993E-15},{.1,2.38027947056E-14},{.15,5.0091769965E-14},{.2,8.57821339356E-14}}},
 {"Y44",1,{1.778880888009E-5,2.022361054501E-5,3.822857456659E-6,3.782442971276E-8},
  {{1.24589429102E-15,-1.2009634914E-16,2.22326515598E-14},{Residual->3.23892374728E-16}},
  {{-.6,9.71288316733E-15},{-.4,4.38920738269E-15},{-.2,1.8002648174E-15},{1.11022302463E-16,1.4306874831E-15},
   {.2,2.46237973807E-15},{.4,4.89681179487E-15},{.6,8.9295954006E-15}}},
 {"AY",1,{1.776415220461E-5,2.022453166464E-5,3.825081412404E-6,3.776791422313E-8},
  {{1.04132504073E-15,3.62509861942E-14,2.88455934386E-12},{Residual->1.45301808142E-15}},
  {{-.1,2.7636773785E-14},{-.07,9.47063175228E-15},{-.04,5.78835371964E-15},{-.01,1.509673822E-15},{.02,2.85266283858E-15},
   {.05,9.83358485337E-15},{.08,2.23701124867E-14}}},
 {"EY",1,{1.774025854131E-5,2.023000435274E-5,3.81820914433E-6,3.791955150197E-8},
  {{1.51345718017E-15,-3.8189999834E-15,4.56717823507E-13},{Residual->9.80857614452E-17}},
  {{-.1,6.49993862361E-15},{-.07,3.9210508413E-15},{-.04,2.50296176701E-15},{-.01,1.55927101054E-15},{.02,1.51342032459E-15},
   {.05,2.63099839062E-15},{.08,4.06288093121E-15}}},
 {"R32",1,{1.772366217E-5,2.023179452674E-5,3.825171732744E-6,3.832623473118E-8},
  {{1.43352229378E-15,-1.3121705336E-15,8.68499693636E-14},{Residual->3.62757592989E-17}},
  {{-.1,2.47212178239E-15},{-.07,1.89394684898E-15},{-.04,1.6024752971E-15},{-.01,1.50041172635E-15},{.02,1.42841449026E-15},
   {.05,1.61863904739E-15},{.08,1.85991300788E-15}}},
 {"Y24",1,{1.771213506492E-5,2.023205445229E-5,3.823136196611E-6,3.827409861325E-8},
  {{1.46841018072E-15,1.30650313963E-16,1.08283179156E-15},{Residual->6.90629835715E-19}},
  {{-.3,1.52663299769E-15},{-.2,1.48618294634E-15},{-.1,1.46490662466E-15},{5.55111512313E-17,1.46890026867E-15},
   {.1,1.49309300558E-15},{.2,1.5371455874E-15},{.3,1.60520273637E-15}}},
 {"Y46",1,{1.772909098807E-5,2.023178457394E-5,3.821870307733E-6,3.781853941792E-8},
  {{1.4696248083E-15,6.28766688458E-16,2.01496119056E-15},{Residual->1.41887660671E-17}},
  {{-.45,1.57780454994E-15},{-.3,1.48319335001E-15},{-.15,1.43388921022E-15},{-5.5511151231E-17,1.46490662466E-15},
   {.15,1.58902725271E-15},{.3,1.83845226307E-15},{.45,2.16952595757E-15}}},
 {"Y22",1,{1.772909098802E-5,2.023178457357E-5,3.821870307733E-6,3.781853941789E-8},
  {{1.53189226899E-15,5.62916109473E-16,1.38134597021E-14},{Residual->7.37062976569E-17}},
  {{-.6,6.12878804826E-15},{-.4,3.55119496936E-15},{-.2,2.07247119008E-15},{1.11022302463E-16,1.4302419237E-15},
   {.2,2.12806718408E-15},{.4,4.06518399876E-15},{.6,6.81837343501E-15}}},
 {"Y26",1,{1.772909098807E-5,2.023178457394E-5,3.821870307733E-6,3.781853941793E-8},
  {{1.38746201881E-15,6.05057207432E-15,2.05844377473E-13},{Residual->5.79710864226E-16}},
  {{-.3,1.75465885213E-14},{-.2,8.85154010939E-15},{-.1,3.62903897288E-15},{5.55111512313E-17,1.43024192371E-15},
   {.1,3.0647446179E-15},{.2,1.06307750914E-14},{.3,2.21957305877E-14}}},
 {"Y66",1,{1.772909098807E-5,2.023178457394E-5,3.821870307733E-6,3.781853941793E-8},
  {{1.67070493147E-15,-2.1425743983E-14,2.33720014624E-12},{Residual->1.34347867121E-15}},
  {{-.2,1.00508384803E-13},{-.15,5.76825249954E-14},{-.1,2.60454524594E-14},{-.05,6.37376793877E-15},{0,1.43024192371E-15},
   {.05,8.00685812943E-15},{.1,2.46224955156E-14},{.15,5.17698562725E-14},{.2,8.9176784282E-14}}},
 {"Y44",1,{1.772820985491E-5,2.023221976284E-5,3.824568042605E-6,3.756691849776E-8},
  {{1.22063471434E-15,5.71297120121E-16,2.15139661512E-14},{Residual->2.87738953879E-16}},
  {{-.6,8.97728926218E-15},{-.4,3.99104471847E-15},{-.2,1.67084477095E-15},{1.11022302463E-16,1.43024192371E-15},
   {.2,2.46014838668E-15},{.4,5.00763060274E-15},{.6,9.10288542498E-15}}},
 {"AY",1,{1.773222752122E-5,2.023213500969E-5,3.825284205096E-6,3.767941446457E-8},
  {{1.7082698696E-15,-1.9307120014E-14,2.23677598074E-12},{Residual->8.42024801247E-16}},
  {{-.1,2.5371561858E-14},{-.07,1.56056041482E-14},{-.04,5.31061708332E-15},{-.01,1.60523162704E-15},{.02,1.94023550722E-15},
   {.05,7.32544733884E-15},{.08,1.40831878268E-14}}},
 {"EY",1,{1.773647168936E-5,2.023102995152E-5,3.821963034655E-6,3.757469967682E-8},
  {{1.49242759334E-15,1.56675091824E-15,4.53896780996E-13},{Residual->1.01529597995E-16}},
  {{-.1,5.79750948804E-15},{-.07,3.65706260606E-15},{-.04,2.33211026061E-15},{-.01,1.43768857586E-15},{.02,1.55802660729E-15},
   {.05,2.761206857E-15},{.08,4.54964282205E-15}}},
 {"R32",1,{1.776985001548E-5,2.021727034567E-5,3.833496027703E-6,3.802392216148E-8},
  {{1.47945513017E-15,-3.7687046326E-15,7.19288182809E-14},{Residual->6.52747239729E-17}},
  {{-.1,2.61202889178E-15},{-.07,1.98832743869E-15},{-.04,1.85250651638E-15},{-.01,1.5008713776E-15},{.02,1.38759657742E-15},
   {.05,1.52132702811E-15},{.08,1.62029379899E-15}}},
 {"Y24",1,{1.778472327352E-5,2.02179689361E-5,3.835996510205E-6,3.778853014746E-8},
  {{1.44280591874E-15,-2.2367994656E-16,9.31415392143E-16},{Residual->2.78927490522E-18}},
  {{-.3,1.59663962274E-15},{-.2,1.51989705569E-15},{-.1,1.47351662527E-15},{5.55111512313E-17,1.44581865654E-15},
   {.1,1.43202217637E-15},{.2,1.43272723503E-15},{.3,1.45981636936E-15}}},
 {"Y46",1,{1.778472327352E-5,2.02179689361E-5,3.835996510205E-6,3.778853014746E-8},
  {{1.4309693961E-15,-3.0751448995E-17,2.18634059861E-15},{Residual->2.73796809495E-17}},
  {{-.45,1.86149226395E-15},{-.3,1.65581518222E-15},{-.15,1.52553638593E-15},{-5.5511151231E-17,1.42797301071E-15},
   {.15,1.44221070005E-15},{.3,1.59318166449E-15},{.45,1.88797114248E-15}}},
 {"Y22",1,{1.778385506518E-5,2.021724155711E-5,3.836106500976E-6,3.772228752483E-8},
  {{1.56589694663E-15,-1.6802877587E-16,1.50321413126E-14},{Residual->1.11727573306E-16}},
  {{-.6,7.12519239871E-15},{-.4,4.02629103568E-15},{-.2,2.15917167274E-15},{1.11022302463E-16,1.42797301074E-15},
   {.2,2.21303934345E-15},{.4,4.10349785351E-15},{.6,6.74211158164E-15}}},
 {"Y26",1,{1.778385506519E-5,2.021724155711E-5,3.836106500976E-6,3.772228752483E-8},
  {{1.61381646667E-15,1.38731266522E-14,2.1776146726E-13},{Residual->8.15636952277E-16}},
  {{-.3,1.61588424269E-14},{-.2,8.47051123681E-15},{-.1,3.40595062671E-15},{5.55111512313E-17,1.42297097611E-15},
   {.1,3.90519472059E-15},{.2,1.29563080503E-14},{.3,2.5950148062E-14}}},
 {"Y66",1,{1.778385506519E-5,2.021724155711E-5,3.836106500976E-6,3.772228752483E-8},
  {{2.23011918299E-15,-5.4779457092E-14,2.34336584639E-12},{Residual->1.90512050285E-15}},
  {{-.2,1.08342258927E-13},{-.15,6.34779653281E-14},{-.1,2.97254909926E-14},{-.05,7.97869902534E-15},{0,1.42297097611E-15},
   {.05,7.18608058041E-15},{.1,2.30364020612E-14},{.15,4.7988970136E-14},{.2,8.2417111579E-14}}},
 {"Y44",1,{1.778385506518E-5,2.021724155711E-5,3.836106500976E-6,3.772228752483E-8},
  {{1.25837822613E-15,-1.7792458977E-15,2.29858787914E-14},{Residual->4.08100768988E-16}},
  {{-.6,1.10618814189E-14},{-.4,5.17581925306E-15},{-.2,2.00348421082E-15},{1.11022302463E-16,1.42297097611E-15},
   {.2,2.31364607707E-15},{.4,4.46174581077E-15},{.6,8.11328408259E-15}}},
 {"AY",1,{1.780581185753E-5,2.021565558958E-5,3.831713890808E-6,3.79574188337E-8},
  {{1.6142209107E-15,-4.0274316972E-14,2.64414313145E-12},{Residual->1.14208538947E-15}},
  {{-.1,3.31301327447E-14},{-.07,1.54487024712E-14},{-.04,8.36458092666E-15},{-.01,1.67839044523E-15},{.02,1.92729309124E-15},
   {.05,7.68580781873E-15},{.08,1.43671481698E-14}}},
 {"EY",1,{1.782024577531E-5,2.021322614777E-5,3.83327078981E-6,3.71960195839E-8},
  {{1.54823738675E-15,-9.3040424733E-15,4.08353016281E-13},{Residual->1.16553611376E-16}},
  {{-.1,6.44547143302E-15},{-.07,4.30055262183E-15},{-.04,2.71657423595E-15},{-.01,1.69705663646E-15},{.02,1.37328586462E-15},
   {.05,1.99195946753E-15},{.08,3.54038754265E-15}}},
 {"R32",1,{1.778922690486E-5,2.022520096934E-5,3.824372052831E-6,3.699001254809E-8},
  {{1.42090403392E-15,5.20695042904E-15,1.07685001295E-13},{Residual->4.26220074782E-17}},
  {{-.1,1.94038640746E-15},{-.07,1.62107051402E-15},{-.04,1.4281755582E-15},{-.01,1.3491146243E-15},{.02,1.58018493282E-15},
   {.05,1.87983239795E-15},{.08,2.57211880617E-15}}},
 {"Y24",1,{1.780123154219E-5,2.022550567821E-5,3.826353191532E-6,3.662132382839E-8},
  {{1.36350245429E-15,-2.2409233648E-16,1.02380233171E-15},{Residual->4.67130046266E-18}},
  {{-.3,1.52043187361E-15},{-.2,1.45183884403E-15},{-.1,1.39729691852E-15},{5.55111512313E-17,1.36826102831E-15},
   {.1,1.34112135894E-15},{.2,1.36300510229E-15},{.3,1.38922670724E-15}}},
 {"Y46",1,{1.780123154219E-5,2.022550567821E-5,3.826353191532E-6,3.662132382839E-8},
  {{1.35471630397E-15,4.61703240799E-16,2.314822831E-15},{Residual->1.99857535097E-17}},
  {{-.45,1.59316430762E-15},{-.3,1.44795315885E-15},{-.15,1.36535759103E-15},{-5.5511151231E-17,1.34112135894E-15},
   {.15,1.45388027766E-15},{.3,1.69359728634E-15},{.45,2.04627853087E-15}}},
 {"Y22",1,{1.779988666649E-5,2.022462445085E-5,3.826591021623E-6,3.650636086483E-8},
  {{1.48314941173E-15,-2.4309981579E-16,1.43630803196E-14},{Residual->8.54864949974E-17}},
  {{-.6,6.77290043289E-15},{-.4,3.92726146631E-15},{-.2,2.16624140072E-15},{1.11022302463E-16,1.341121359E-15},
   {.2,1.98991792057E-15},{.4,3.82557103874E-15},{.6,6.44568222183E-15}}},
 {"Y26",1,{1.779988666649E-5,2.022462445085E-5,3.826591021623E-6,3.650636086483E-8},
  {{1.35996980205E-15,9.50524291379E-15,2.10438220559E-13},{Residual->6.51145667127E-16}},
  {{-.3,1.68161076396E-14},{-.2,8.41441544079E-15},{-.1,3.3981146458E-15},{5.55111512313E-17,1.33271438359E-15},
   {.1,3.28720406495E-15},{.2,1.15790580485E-14},{.3,2.36148761476E-14}}},
 {"Y66",1,{1.779988666649E-5,2.022462445085E-5,3.826591021623E-6,3.650636086483E-8},
  {{1.66792934748E-15,-3.6293296077E-14,2.34067305962E-12},{Residual->1.57271886418E-15}},
  {{-.2,1.03938771797E-13},{-.15,5.98529564332E-14},{-.1,2.72111506061E-14},{-.05,6.9455367564E-15},{0,1.33271438359E-15},
   {.05,7.58325086136E-15},{.1,2.37207244747E-14},{.15,4.93316646203E-14},{.2,8.61955531378E-14}}},
 {"Y44",1,{1.779988666649E-5,2.022462445085E-5,3.826591021623E-6,3.650636086483E-8},
  {{1.13445356156E-15,-4.469958398E-16,2.22123863277E-14},{Residual->3.14857077859E-16}},
  {{-.6,9.76976621322E-15},{-.4,4.4528350047E-15},{-.2,1.72334469178E-15},{1.11022302463E-16,1.33271438359E-15},
   {.2,2.25693433063E-15},{.4,4.67215667469E-15},{.6,8.61129631931E-15}}}}
