{{"FD",1,{-3.03316737283E-6,8.305470074494E-6,7.046509873595E-7,3.353614829681E-7}},
 {"EX2",1,{-4.74164432704E-5,6.842314102734E-6,-5.47175049633E-7,5.28556881245E-7}},
 {"FD",1,{-4.73990590427E-5,6.839553121995E-6,-4.74054320548E-7,3.253190403386E-7}},
 {"AY",1,{5.392842410665E-7,6.606728013419E-6,3.627484471647E-8,1.32185506645E-7,
   {{-4.46683966201E-5,6.608293948463E-6,7.847321060444E-7,1.348543963578E-7},
    {-4.46168616633E-5,6.598801251796E-6,8.160272923204E-7,1.334758287857E-7},
    {-4.48392202792E-5,6.625172563077E-6,7.770589014642E-7,1.340394253447E-7},
    {-4.38905478021E-5,6.601530061095E-6,8.565713962152E-7,1.275769546698E-7},
    {-4.47524600353E-5,6.582237725089E-6,8.231410792217E-7,1.302232942647E-7},
    {-4.37459291294E-5,6.645770039244E-6,7.690297553053E-7,1.373063805909E-7},
    {-4.36029763499E-5,6.585780415389E-6,7.830466026166E-7,1.302651691007E-7},
    {-4.38409580454E-5,6.587748216766E-6,7.355267883879E-7,1.326909856953E-7},
    {-4.38378682113E-5,6.60983608945E-6,8.13413660927E-7,1.344027085504E-7},
    {-4.32775113899E-5,6.574330190426E-6,8.230213648878E-7,1.30565454834E-7},
    {-4.52021148053E-5,6.607011357684E-6,7.43133614661E-7,1.314681019588E-7},
    {-4.37170717035E-5,6.61665203246E-6,8.159973428656E-7,1.314865817525E-7},
    {-4.46704014133E-5,6.613526407065E-6,8.08375066638E-7,1.319518279341E-7},
    {-4.48611913987E-5,6.621876269691E-6,7.767936141391E-7,1.311754583518E-7},
    {-4.40597417524E-5,6.61075471797E-6,8.555516349256E-7,1.302253393208E-7},
    {-4.43462446899E-5,6.589522378902E-6,7.59894223157E-7,1.339031209459E-7},
    {-4.44212576497E-5,6.648959320837E-6,7.51013317279E-7,1.352611010272E-7},
    {-4.41217794089E-5,6.61266732363E-6,7.573515237742E-7,1.331824153409E-7},
    {-4.32322693315E-5,6.57330541734E-6,8.534299526851E-7,1.272973238383E-7},
    {-4.43077901496E-5,6.620784542001E-6,8.040663145083E-7,1.323582642363E-7}}},
  {{1.72053115342E-14,4.2828783965E-14,1.18508209956E-12},{Residual->5.15440096224E-16}},
  {{-.5,2.9236440848E-13},{-.35,1.47220765167E-13},{-.2,5.52526660762E-14},{-.05,1.87471144073E-14},{.1,3.3044267547E-14},
   {.25,1.02586067287E-13},{.4,2.23572476855E-13}}},
 {"EY",1,
  {7.641187767018E-7,6.598740815578E-6,3.320181122675E-8,9.263982516632E-8,{{-4.58462402812E-5,6.60486424852E-6,4.418304812477E-7,
     9.287204398291E-8},
    {-4.48426171581E-5,6.59530327314E-6,4.789616782455E-7,9.264760478472E-8},
    {-4.47017824612E-5,6.628171952861E-6,4.113514487491E-7,9.363731522303E-8},
    {-4.59183873169E-5,6.603571445282E-6,4.406765224357E-7,9.313634112976E-8},
    {-4.52463577064E-5,6.571346093886E-6,4.892136627233E-7,9.16051736637E-8},
    {-4.67107158242E-5,6.574349378836E-6,4.394718523585E-7,9.090748348632E-8},
    {-4.58193115717E-5,6.56519439944E-6,5.267166122657E-7,9.111969003113E-8},
    {-4.50955507029E-5,6.587979594246E-6,4.588623389877E-7,9.235649405459E-8},
    {-4.55071084653E-5,6.630009882908E-6,4.247898332074E-7,9.406292834721E-8},
    {-4.65153868084E-5,6.594148932506E-6,4.070004034674E-7,9.186779062033E-8},
    {-4.4346414928E-5,6.592600432719E-6,4.481682678694E-7,9.277585664536E-8},
    {-4.5655693812E-5,6.573090854184E-6,4.471319187543E-7,9.108427754778E-8},
    {-4.58112358129E-5,6.593118668467E-6,4.974393217542E-7,9.40332997675E-8},
    {-4.68135472673E-5,6.599266285995E-6,4.825367453439E-7,9.342421698585E-8},
    {-4.52446683469E-5,6.582646430395E-6,4.540775635917E-7,9.190413423207E-8},
    {-4.42389980113E-5,6.588111505944E-6,4.723891346439E-7,9.291361647446E-8},
    {-4.6481219018E-5,6.675304039487E-6,4.302616785116E-7,9.477640956236E-8},
    {-4.48190783656E-5,6.559388485479E-6,5.191376614414E-7,9.036952032377E-8},
    {-4.45043944098E-5,6.616496038624E-6,4.176103091207E-7,9.325064833424E-8},
    {-4.59866571774E-5,6.639854368652E-6,4.366321449547E-7,9.405165812922E-8}}},
  {{1.81583233213E-14,-1.291796857E-13,4.87528368856E-13},{Residual->1.14179656377E-15}},
  {{-.5,2.03269152291E-13},{-.35,1.2505010058E-13},{-.2,6.41644113125E-14},{-.05,2.52946398848E-14},{.1,8.57597839278E-15},
   {.25,1.67449727484E-14},{.4,4.4896516868E-14}}},
 {"R32",1,
  {6.533733429598E-7,6.617004889135E-6,2.205001288968E-8,4.344560768709E-8,{{-4.44999432043E-5,6.590185059322E-6,3.926562950184E-7,
     4.352761354148E-8},
    {-4.4838481574E-5,6.638914525906E-6,3.743897067505E-7,4.247224000385E-8},
    {-4.39688448042E-5,6.591167734732E-6,3.616385427477E-7,4.322153033327E-8},
    {-4.34581653249E-5,6.603245462961E-6,3.592185526884E-7,4.338064904439E-8},
    {-4.54857730235E-5,6.626969777345E-6,3.741906601607E-7,4.315124247535E-8},
    {-4.38054896705E-5,6.634760201581E-6,3.087068823114E-7,4.438484841023E-8},
    {-4.48433962532E-5,6.611311101615E-6,3.309072679607E-7,4.379077837695E-8},
    {-4.40530718072E-5,6.61012890236E-6,3.873406383227E-7,4.289332139529E-8},
    {-4.40583107914E-5,6.624570257901E-6,3.287807371876E-7,4.340419688808E-8},
    {-4.4509326376E-5,6.640221396392E-6,3.484779291591E-7,4.334741495297E-8},
    {-4.41247745815E-5,6.590647935716E-6,3.565376521835E-7,4.397041585471E-8},
    {-4.52589689548E-5,6.624047912156E-6,3.844798023931E-7,4.310409118054E-8},
    {-4.34460227386E-5,6.674145730342E-6,3.808241179763E-7,4.270974531359E-8},
    {-4.54017070298E-5,6.593168629791E-6,3.534328150699E-7,4.214940907389E-8},
    {-4.38964475555E-5,6.619441141588E-6,3.625610816143E-7,4.371412035337E-8},
    {-4.46000026428E-5,6.606464677822E-6,3.405126559557E-7,4.49793112368E-8},
    {-4.58104578115E-5,6.631796005057E-6,3.300875802518E-7,4.328835353835E-8},
    {-4.4496892065E-5,6.605654108967E-6,3.465936867427E-7,4.373001633335E-8},
    {-4.48975288512E-5,6.629177269574E-6,3.453552374121E-7,4.459414969853E-8},
    {-4.49547938695E-5,6.594079951579E-6,3.774951221946E-7,4.309870573682E-8}}},
  {{8.46669060254E-15,-1.3267407784E-13,6.89716655213E-13},{Residual->4.11945411002E-16}},
  {{-.5,2.46728526658E-13},{-.35,1.4006944615E-13},{-.2,6.28386433223E-14},{-.05,1.66716272181E-14},{.1,1.86492013341E-15},
   {.25,1.79773233714E-14},{.4,6.61438088607E-14}}},
 {"AY",1,
  {7.463783664819E-7,6.633100177098E-6,2.153363174263E-8,4.451388710073E-8,{{-4.30343556557E-5,6.597266999117E-6,9.16076078084E-7,
     4.44513510016E-8},
    {-4.50240903563E-5,6.628317097189E-6,9.411804954722E-7,4.448120647232E-8},
    {-4.28944841906E-5,6.629814558417E-6,9.162232065031E-7,4.461454240329E-8},
    {-4.22774260437E-5,6.676707714839E-6,9.470168750847E-7,4.389563515101E-8},
    {-4.41111623799E-5,6.59522120402E-6,9.269638257846E-7,4.591427078778E-8},
    {-4.29843376421E-5,6.62137811276E-6,9.670421178825E-7,4.374168561319E-8},
    {-4.35288555578E-5,6.663631712457E-6,9.351479959875E-7,4.47123579651E-8},
    {-4.39536994888E-5,6.647242440752E-6,9.270567226551E-7,4.474447502513E-8},
    {-4.38159615139E-5,6.606256155751E-6,9.262420607694E-7,4.56106294484E-8},
    {-4.30329098075E-5,6.596953884103E-6,9.444539373874E-7,4.401460232482E-8},
    {-4.33229387624E-5,6.628652300573E-6,9.646937374442E-7,4.386064109121E-8},
    {-4.36256055955E-5,6.632096958412E-6,9.06367319707E-7,4.475395734803E-8},
    {-4.21794938286E-5,6.628347655114E-6,9.498233377638E-7,4.381358382217E-8},
    {-4.41095183013E-5,6.650757467412E-6,9.621977876916E-7,4.38693702232E-8},
    {-4.30655262026E-5,6.645290271497E-6,9.489776749172E-7,4.370506220552E-8},
    {-4.44659138153E-5,6.638625798379E-6,9.577997164786E-7,4.345159020865E-8},
    {-4.42638803647E-5,6.619298811803E-6,8.889287972554E-7,4.654161560425E-8},
    {-4.23893772108E-5,6.655493252307E-6,9.136851591003E-7,4.44398823209E-8},
    {-4.40540204675E-5,6.6462594842E-6,9.576087864589E-7,4.38606621637E-8},
    {-4.30509132898E-5,6.654391662854E-6,9.105223566149E-7,4.580062083435E-8}}},
  {{1.39162469588E-15,-1.8803569491E-14,1.19417288588E-12},{Residual->1.81963600217E-16}},
  {{-.5,3.09349089601E-13},{-.35,1.54399478746E-13},{-.2,5.25850059467E-14},{-.05,5.36131931711E-15},{.1,1.17350908809E-14},
   {.25,7.11902064968E-14},{.4,1.84929374812E-13}}},
 {"EY",1,
  {6.998139377467E-7,6.622271506763E-6,3.032490842744E-8,3.916413564537E-8,{{-4.58274533868E-5,6.643161275991E-6,1.49897547192E-6,
     3.898463850173E-8},
    {-4.59008133763E-5,6.672296659258E-6,1.465281369595E-6,3.887803050861E-8},
    {-4.62066831468E-5,6.605716255127E-6,1.557055517886E-6,3.98193411374E-8},
    {-4.47725879693E-5,6.593732146022E-6,1.51456889959E-6,3.904066505889E-8},
    {-4.61110892281E-5,6.666142216581E-6,1.542080826228E-6,3.911019573639E-8},
    {-4.61224514254E-5,6.634317488274E-6,1.524938592398E-6,3.931263557787E-8},
    {-4.46728713518E-5,6.599016757338E-6,1.496755257947E-6,3.892823804874E-8},
    {-4.53652667874E-5,6.59017257728E-6,1.486031733013E-6,3.88177346352E-8},
    {-4.44245678946E-5,6.605744444711E-6,1.491732729587E-6,3.868886202925E-8},
    {-4.70820539381E-5,6.600557571186E-6,1.54035199598E-6,3.993620693046E-8},
    {-4.54836455344E-5,6.600468362197E-6,1.508736524872E-6,3.899130457079E-8},
    {-4.46960830474E-5,6.639860800055E-6,1.507129579547E-6,3.871486396623E-8},
    {-4.56104160872E-5,6.589914797828E-6,1.52007418323E-6,3.899350759232E-8},
    {-4.5787146439E-5,6.600329543778E-6,1.516535844945E-6,3.942686508214E-8},
    {-4.51706363482E-5,6.594619863905E-6,1.528872889606E-6,3.917599594467E-8},
    {-4.49411894496E-5,6.653701238482E-6,1.481319759572E-6,3.894660422432E-8},
    {-4.62132248929E-5,6.675045749681E-6,1.484326840201E-6,3.920541599492E-8},
    {-4.59908568891E-5,6.592059592368E-6,1.435319735709E-6,3.913547118475E-8},
    {-4.44409894804E-5,6.644659811487E-6,1.517771161214E-6,3.89360588755E-8},
    {-4.6122151159E-5,6.64391298371E-6,1.566228657605E-6,4.024007730719E-8}}},
  {{1.86286121422E-15,-3.356262537E-14,4.89290110959E-13},{Residual->1.63053009149E-16}},
  {{-.5,1.41085382371E-13},{-.35,7.35043565723E-14},{-.2,2.79044717313E-14},{-.05,4.7593530795E-15},{.1,3.52361796197E-15},
   {.25,2.42944966581E-14},{.4,6.6530615851E-14}}},
 {"R32",1,
  {7.585234858605E-7,6.626481473095E-6,2.525886829525E-8,3.909726874702E-8,{{-4.42970663193E-5,6.607142615755E-6,2.006025664533E-6,
     3.885447987103E-8},
    {-4.50650257754E-5,6.640750134763E-6,1.999547242004E-6,3.947882924513E-8},
    {-4.38933474639E-5,6.642406209298E-6,2.002639094588E-6,3.904361908993E-8},
    {-4.34822535727E-5,6.642269194743E-6,1.965317726956E-6,3.872284543878E-8},
    {-4.48211202659E-5,6.602288771674E-6,1.971601841006E-6,3.90102841757E-8},
    {-4.35888362519E-5,6.617955924226E-6,2.02239818323E-6,3.883223344905E-8},
    {-4.35066162315E-5,6.611786172995E-6,1.996615928696E-6,3.870761910002E-8},
    {-4.44416141789E-5,6.655415187406E-6,2.011981913021E-6,3.954498140937E-8},
    {-4.40368859434E-5,6.651366308191E-6,1.943466102851E-6,3.87579826108E-8},
    {-4.45290153995E-5,6.606733805797E-6,1.978685106166E-6,3.892525940091E-8},
    {-4.41132961906E-5,6.620752610195E-6,1.971743082997E-6,3.883388674876E-8},
    {-4.57387098029E-5,6.612657968314E-6,1.999244514891E-6,3.935227273124E-8},
    {-4.49061499221E-5,6.642401125233E-6,2.010310163125E-6,3.9267853778E-8},
    {-4.47078597793E-5,6.596309570628E-6,2.020670694037E-6,3.908237153567E-8},
    {-4.40188279351E-5,6.605824071855E-6,1.967977610505E-6,3.878620403396E-8},
    {-4.46982603202E-5,6.639137025271E-6,2.001843877642E-6,3.926740045489E-8},
    {-4.58623287915E-5,6.650951496477E-6,2.017915443348E-6,3.991995133049E-8},
    {-4.34038954063E-5,6.645743211837E-6,2.021395853643E-6,3.875771551712E-8},
    {-4.58270895042E-5,6.611985531972E-6,1.975664073329E-6,3.969187265277E-8},
    {-4.52906580663E-5,6.625752525276E-6,1.934448139642E-6,3.910771236673E-8}}},
  {{1.55305898928E-15,-9.6459358668E-15,6.95879211812E-13},{Residual->1.49320120868E-16}},
  {{-.5,1.8051763138E-13},{-.35,8.99531688118E-14},{-.2,3.12026866661E-14},{-.05,3.87305132758E-15},{.1,7.5763220001E-15},
   {.25,4.28158629943E-14},{.4,1.08890556947E-13}}},
 {"AY",1,
  {5.178372715484E-7,6.619579398119E-6,1.955801023883E-8,3.856241269299E-8,{{-4.59566528316E-5,6.623920489153E-6,1.765697135819E-6,
     3.826954160137E-8},
    {-4.63254549544E-5,6.639882239966E-6,1.752882223133E-6,3.83152469408E-8},
    {-4.61127998895E-5,6.628910323769E-6,1.728810233586E-6,3.862447299571E-8},
    {-4.65623308115E-5,6.646298836262E-6,1.70770937027E-6,3.864345933412E-8},
    {-4.62680837989E-5,6.642061560042E-6,1.738111821355E-6,3.835718012981E-8},
    {-4.65822679666E-5,6.613363944375E-6,1.750499100888E-6,3.837576653867E-8},
    {-4.54628239073E-5,6.591194402275E-6,1.711566233876E-6,3.921016452285E-8},
    {-4.55600567603E-5,6.588756737235E-6,1.743089924509E-6,3.84220340712E-8},
    {-4.72397393355E-5,6.601617388579E-6,1.777551193689E-6,3.868724015351E-8},
    {-4.68788724922E-5,6.600866754821E-6,1.745137563203E-6,3.848017814635E-8},
    {-4.60191214413E-5,6.595894399238E-6,1.703458271529E-6,3.925505554322E-8},
    {-4.63942600334E-5,6.595833098076E-6,1.75753602991E-6,3.842058973E-8},
    {-4.53682488079E-5,6.645079260531E-6,1.734949676473E-6,3.839809371988E-8},
    {-4.6664395001E-5,6.632176729564E-6,1.735903084303E-6,3.850808002186E-8},
    {-4.51004386826E-5,6.657958886428E-6,1.745853635482E-6,3.818484481069E-8},
    {-4.57579185817E-5,6.58576782494E-6,1.742439524996E-6,3.892792044979E-8},
    {-4.65536469778E-5,6.5964422648E-6,1.703056573646E-6,3.901551572816E-8},
    {-4.62089374145E-5,6.618230551849E-6,1.736352592334E-6,3.849407370221E-8},
    {-4.6273152689E-5,6.685418389001E-6,1.754641136367E-6,3.826133046405E-8},
    {-4.6104630485E-5,6.601913881481E-6,1.737152188688E-6,3.839746525552E-8}}},
  {{1.19444040375E-15,1.74878961505E-14,1.19217419265E-12},{Residual->2.25088023554E-16}},
  {{-.3,1.03203869857E-13},{-.2,4.5589427967E-14},{-.1,1.09823130392E-14},{5.55111512313E-17,1.54073219521E-15},
   {.1,1.46787693529E-14},{.2,5.24641146573E-14},{.3,1.137106297E-13}}},
 {"EY",1,
  {6.653536937438E-7,6.615843334752E-6,2.756887641311E-8,3.84445653204E-8,{{-4.6171364904E-5,6.631476783067E-6,1.610105447739E-6,
     3.873542832699E-8},
    {-4.59710975805E-5,6.593403819772E-6,1.609599403344E-6,3.835450986399E-8},
    {-4.62026841118E-5,6.591072595188E-6,1.579147946155E-6,3.846569487312E-8},
    {-4.58362998899E-5,6.598993824035E-6,1.579625211802E-6,3.830584798473E-8},
    {-4.65407219581E-5,6.609844129907E-6,1.630782592505E-6,3.907154811088E-8},
    {-4.72653186621E-5,6.66549499359E-6,1.590571003709E-6,3.829991840857E-8},
    {-4.57886826008E-5,6.64682328254E-6,1.61456451148E-6,3.837472616711E-8},
    {-4.60996090156E-5,6.599461049652E-6,1.645692004332E-6,3.838896535871E-8},
    {-4.66971696976E-5,6.586808434465E-6,1.647019898835E-6,3.848220597774E-8},
    {-4.58731050542E-5,6.584825052772E-6,1.611842616069E-6,3.846756352394E-8},
    {-4.59445500256E-5,6.689510276619E-6,1.582526074115E-6,3.827898543025E-8},
    {-4.64109337638E-5,6.5949375834E-6,1.624008155046E-6,3.847313987542E-8},
    {-4.62794415664E-5,6.600311278645E-6,1.633276776755E-6,3.874927403669E-8},
    {-4.61976174296E-5,6.612428693407E-6,1.628584789185E-6,3.858452526543E-8},
    {-4.7211456251E-5,6.597386634982E-6,1.600942384147E-6,3.840552274727E-8},
    {-4.58207958984E-5,6.633579872288E-6,1.550485064877E-6,3.837127771942E-8},
    {-4.49419439466E-5,6.591545093894E-6,1.574485809016E-6,3.831001752334E-8},
    {-4.58531454001E-5,6.656579447211E-6,1.587177532442E-6,3.813087470541E-8},
    {-4.70412686051E-5,6.645983158203E-6,1.574455799727E-6,3.835639688654E-8},
    {-4.43838629456E-5,6.586400691404E-6,1.650255381031E-6,3.828488362254E-8}}},
  {{1.21611663484E-15,-7.1645225147E-15,4.86569760178E-13},{Residual->1.76980512104E-16}},
  {{-.5,1.26667711196E-13},{-.35,6.30010549968E-14},{-.2,2.2012031578E-14},{-.05,2.89204911959E-15},{.1,5.53119842328E-15},
   {.25,2.98750382779E-14},{.4,7.60952354479E-14}}},
 {"R32",1,
  {5.635541848829E-7,6.621764007005E-6,2.493460812891E-8,3.836562211532E-8,{{-4.68228699402E-5,6.595751285763E-6,1.388006318774E-6,
     3.856804576577E-8},
    {-4.74868950562E-5,6.666876293882E-6,1.408456729021E-6,3.810929984338E-8},
    {-4.66827599256E-5,6.616645508215E-6,1.410402476628E-6,3.819260499331E-8},
    {-4.68138288836E-5,6.623806032062E-6,1.386031218781E-6,3.833187724165E-8},
    {-4.70247641634E-5,6.605122009243E-6,1.416630022893E-6,3.834884514555E-8},
    {-4.66263675814E-5,6.635978598196E-6,1.372472293917E-6,3.848763085965E-8},
    {-4.71889180379E-5,6.61736374249E-6,1.378314237449E-6,3.855159301495E-8},
    {-4.77477221684E-5,6.585817302036E-6,1.420714449885E-6,3.85351506051E-8},
    {-4.68593286554E-5,6.598577194414E-6,1.415823273064E-6,3.837534871226E-8},
    {-4.62954579553E-5,6.684364889107E-6,1.422303522273E-6,3.802167340104E-8},
    {-4.77107208686E-5,6.635736757068E-6,1.399568268652E-6,3.832978638769E-8},
    {-4.63937440378E-5,6.601884905883E-6,1.414287250768E-6,3.821277466301E-8},
    {-4.59696467532E-5,6.591046452487E-6,1.370952724499E-6,3.880009761128E-8},
    {-4.72616261871E-5,6.680086031816E-6,1.373274373113E-6,3.80220769528E-8},
    {-4.53109889202E-5,6.586583200453E-6,1.376848202883E-6,3.849661603131E-8},
    {-4.65518940693E-5,6.630955855821E-6,1.396121194832E-6,3.820219973045E-8},
    {-4.64750650681E-5,6.629727601248E-6,1.389414082894E-6,3.808482177899E-8},
    {-4.71605475248E-5,6.594711398027E-6,1.355193066983E-6,3.84950141384E-8},
    {-4.69166410012E-5,6.627801159167E-6,1.326506361458E-6,3.890021952263E-8},
    {-4.65690822434E-5,6.626443922722E-6,1.424319339346E-6,3.824676590719E-8}}},
  {{1.65937762504E-15,-9.0211991685E-16,6.92075000038E-13},{Residual->1.22647794183E-16}},
  {{-.5,1.75004181917E-13},{-.35,8.69288673101E-14},{-.2,2.9618116863E-14},{-.05,3.34465136255E-15},{.1,8.31756643825E-15},
   {.25,4.47992648118E-14},{.4,1.12037299168E-13}}},
 {"AY",1,
  {7.35936628275E-7,6.608584371629E-6,2.739442513356E-8,3.850555241071E-8,{{-4.73302750562E-5,6.62699428663E-6,1.642912345321E-6,
     3.811231756401E-8},
    {-4.84079647346E-5,6.618762752341E-6,1.642775876658E-6,3.820820078122E-8},
    {-4.86644326376E-5,6.60917469043E-6,1.657780709157E-6,3.817929355135E-8},
    {-4.70316255009E-5,6.627970339822E-6,1.632159821841E-6,3.803460003812E-8},
    {-4.78390991458E-5,6.582757268916E-6,1.577353408833E-6,3.909245021054E-8},
    {-4.82196937949E-5,6.593665209022E-6,1.60838058298E-6,3.859077673812E-8},
    {-4.80047590267E-5,6.585107416642E-6,1.601367406212E-6,3.85125511045E-8},
    {-4.90245332145E-5,6.656484692104E-6,1.629532039448E-6,3.82489795384E-8},
    {-4.88545032159E-5,6.618219232778E-6,1.636610793641E-6,3.820464449386E-8},
    {-4.75058518008E-5,6.653392930153E-6,1.583365846513E-6,3.829012553184E-8},
    {-4.90280728469E-5,6.593117607475E-6,1.6331419151E-6,3.878348237793E-8},
    {-4.75516037506E-5,6.592185483383E-6,1.602993561249E-6,3.82664385334E-8},
    {-4.87566178093E-5,6.588251513358E-6,1.585164287288E-6,3.874177520194E-8},
    {-4.76767175258E-5,6.583078192963E-6,1.597080152498E-6,3.931314557795E-8},
    {-4.91310350759E-5,6.603024724929E-6,1.577896963633E-6,3.838532505821E-8},
    {-4.82812715152E-5,6.586184978788E-6,1.675568981147E-6,3.824232548227E-8},
    {-4.85147738996E-5,6.599147442266E-6,1.631872797173E-6,3.821643487721E-8},
    {-4.63331232663E-5,6.645848948069E-6,1.589978833839E-6,3.891655842012E-8},
    {-4.82161642004E-5,6.601890323058E-6,1.598887816099E-6,3.866932301819E-8},
    {-4.72962204625E-5,6.606429399454E-6,1.604412758812E-6,3.910230011506E-8}}},
  {{1.04544595773E-15,-1.6551406692E-14,1.19375979346E-12},{Residual->2.76521944397E-16}},
  {{-.3,1.13733529048E-13},{-.2,5.16604240687E-14},{-.1,1.44565108642E-14},{5.55111512313E-17,1.50067957505E-15},
   {.1,1.1244999161E-14},{.2,4.55351552282E-14},{.3,1.03439565929E-13}}},
 {"EY",1,
  {4.95909177751E-7,6.615694784035E-6,3.238741882691E-8,3.881667722189E-8,{{-4.77930628329E-5,6.608199530511E-6,2.055668505634E-6,
     3.82620771965E-8},
    {-4.73937861064E-5,6.613255575952E-6,1.971077447001E-6,4.017095501771E-8},
    {-4.80707487372E-5,6.58491257381E-6,2.073683553394E-6,3.881133584653E-8},
    {-4.72891299184E-5,6.640053747861E-6,2.026425224868E-6,3.865495139176E-8},
    {-4.79008626486E-5,6.626900804782E-6,2.049280402394E-6,3.839515750174E-8},
    {-4.6924895068E-5,6.605484338513E-6,2.045502240794E-6,3.847215235275E-8},
    {-4.73990785037E-5,6.620619050141E-6,2.027981418386E-6,3.854622070768E-8},
    {-4.75153248714E-5,6.626141404761E-6,1.963317232256E-6,3.91773506642E-8},
    {-4.72614076505E-5,6.625543586915E-6,2.082441322621E-6,3.803120657179E-8},
    {-4.71938088764E-5,6.615982297542E-6,2.035910472289E-6,3.871185336482E-8},
    {-4.73844049762E-5,6.584528877802E-6,2.052796051629E-6,3.869846643976E-8},
    {-4.76152702331E-5,6.631726551031E-6,2.062561310777E-6,3.816717826099E-8},
    {-4.717914325E-5,6.601705251902E-6,2.024433884201E-6,4.005197176511E-8},
    {-4.68434156781E-5,6.62368148014E-6,2.022734319908E-6,3.847940532106E-8},
    {-4.69117112509E-5,6.652029192935E-6,2.016180463313E-6,3.918235467892E-8},
    {-4.81939748341E-5,6.597750059814E-6,1.984688406737E-6,3.957597147195E-8},
    {-4.88648261276E-5,6.601981926913E-6,2.031830493137E-6,3.830452122108E-8},
    {-4.81892279112E-5,6.648144110259E-6,2.061913642619E-6,3.810971498953E-8},
    {-4.75955665876E-5,6.601721956674E-6,2.060228301716E-6,3.828340742752E-8},
    {-4.72012153099E-5,6.603533362434E-6,1.993595822548E-6,4.02472922464E-8}}},
  {{1.35882648888E-15,-2.7069701576E-15,4.82529628712E-13},{Residual->1.07836667015E-16}},
  {{-.3,4.5567681972E-14},{-.2,2.13293946864E-14},{-.1,6.2610564936E-15},{5.55111512313E-17,1.49770901422E-15},
   {.1,5.84300002168E-15},{.2,2.01633425014E-14},{.3,4.39578967722E-14}}},
 {"R32",1,
  {8.445281674665E-7,6.603235843919E-6,2.413495665752E-8,3.932004504262E-8,{{-4.93226495078E-5,6.610303595334E-6,2.289201731668E-6,
     3.955930320248E-8},
    {-5.02307540988E-5,6.592768355677E-6,2.300209283731E-6,3.905697280133E-8},
    {-4.82793961274E-5,6.609513831279E-6,2.312913150215E-6,3.914591958752E-8},
    {-4.92964073342E-5,6.578885813236E-6,2.289487794239E-6,4.010336752398E-8},
    {-4.90806104477E-5,6.593035375206E-6,2.349498899892E-6,3.915758208766E-8},
    {-4.77943571798E-5,6.58740445707E-6,2.326752319069E-6,3.984880457661E-8},
    {-5.07280363299E-5,6.603238912813E-6,2.283678763342E-6,3.87976206211E-8},
    {-4.84665516819E-5,6.575135914943E-6,2.336942160527E-6,3.960834071562E-8},
    {-4.96535582226E-5,6.612803848035E-6,2.325606606115E-6,3.843716021654E-8},
    {-4.83568139602E-5,6.607308441527E-6,2.297148610931E-6,3.984892600548E-8},
    {-5.03716329215E-5,6.617719469017E-6,2.286836493112E-6,3.88066970795E-8},
    {-4.85734591671E-5,6.58082124444E-6,2.265159446819E-6,4.0942335773E-8},
    {-4.87302479315E-5,6.578663963779E-6,2.311508347915E-6,3.973294474954E-8},
    {-4.92886166422E-5,6.609818048948E-6,2.339602629863E-6,3.838654696745E-8},
    {-4.96112530299E-5,6.619996213606E-6,2.322232073019E-6,3.890634210253E-8},
    {-5.05948487663E-5,6.598914077394E-6,2.297933814781E-6,3.939895821416E-8},
    {-4.77616646279E-5,6.65038095429E-6,2.274946989839E-6,3.975097889789E-8},
    {-4.87967504722E-5,6.594618506001E-6,2.314664836682E-6,3.879043361067E-8},
    {-4.89722627564E-5,6.658724855347E-6,2.330120380222E-6,3.870606974889E-8},
    {-4.96125995356E-5,6.584661000438E-6,2.265649588121E-6,3.941559637035E-8}}},
  {{1.57935354839E-15,8.59246506567E-15,6.9412582172E-13},{Residual->9.83079547502E-17}},
  {{-.3,6.14547660071E-14},{-.2,2.75563757168E-14},{-.1,7.83554122655E-15},{5.55111512313E-17,1.55836236508E-15},
   {.1,9.36553253562E-15},{.2,3.0914420878E-14},{.3,6.67257061912E-14}}},
 {"Y24",1,
  {5.387343931171E-7,6.60046889062E-6,2.65177094195E-8,3.932634284213E-8,{{-5.24586975224E-5,6.592472049835E-6,2.416940080009E-6,
     3.979828793291E-8},
    {-5.16040373059E-5,6.609552830868E-6,2.502299461377E-6,3.882162199265E-8},
    {-5.25645854852E-5,6.604735054983E-6,2.485424531071E-6,3.868510272401E-8},
    {-5.23157821684E-5,6.610354552866E-6,2.493793187824E-6,3.860398896006E-8},
    {-5.1318745607E-5,6.592836564891E-6,2.454010807735E-6,3.989774847218E-8},
    {-5.14721749869E-5,6.577895469124E-6,2.513750444797E-6,3.898738653601E-8},
    {-5.14942544764E-5,6.610707919248E-6,2.447234834202E-6,3.900384359414E-8},
    {-5.19515730468E-5,6.616552737019E-6,2.479924124855E-6,3.876790763695E-8},
    {-5.12674458466E-5,6.584612575876E-6,2.469410031176E-6,3.996981135619E-8},
    {-5.10939151116E-5,6.598688213527E-6,2.455425363934E-6,3.960713426752E-8},
    {-5.22843975614E-5,6.604164884133E-6,2.435524204752E-6,4.026445947486E-8},
    {-5.20495273451E-5,6.595499269414E-6,2.506288910296E-6,3.923929355714E-8},
    {-5.13376051091E-5,6.57357300422E-6,2.451813282055E-6,4.026925877557E-8},
    {-5.16999927097E-5,6.581449327762E-6,2.460320349575E-6,3.901086771988E-8},
    {-5.18916337075E-5,6.629457571549E-6,2.422742629013E-6,3.980799985412E-8},
    {-5.18501739714E-5,6.577827712767E-6,2.494210835232E-6,3.947227400947E-8},
    {-5.11818789556E-5,6.598791911107E-6,2.475517841306E-6,3.885624443456E-8},
    {-5.05083717425E-5,6.638143278757E-6,2.486261815918E-6,3.882204761389E-8},
    {-5.14115107985E-5,6.587302820191E-6,2.449943582401E-6,3.921055509991E-8},
    {-5.26035331823E-5,6.624760064254E-6,2.468080022448E-6,3.943102283053E-8}}},
  {{1.62142252276E-15,-9.7078856504E-17,1.09994025773E-15},{Residual->6.89891992294E-17}},
  {{-1.5,4.1386676733E-15},{-1.2,3.40519207512E-15},{-.9,2.72090550625E-15},{-.6,2.08973385126E-15},{-.3,1.6683895903E-15},
   {0,1.54065145123E-15},{.3,1.66496866414E-15},{.6,1.99911416131E-15},{.9,2.44451018083E-15},{1.2,3.14026505623E-15},
   {1.5,3.91265809195E-15}}},
 {"Y46",1,
  {7.095963804467E-7,6.602455972162E-6,2.056782401892E-8,3.801928450777E-8,{{-5.11669126002E-5,6.567303663376E-6,2.442298081212E-6,
     3.872651741448E-8},
    {-5.14684500842E-5,6.587052803906E-6,2.462914588477E-6,3.799651863705E-8},
    {-5.11432485978E-5,6.663343868389E-6,2.472682338135E-6,3.778771743045E-8},
    {-5.30838138947E-5,6.609118502027E-6,2.482297770182E-6,3.8218623591E-8},
    {-5.17486296162E-5,6.65339891469E-6,2.486235369246E-6,3.788049046406E-8},
    {-5.10505219301E-5,6.590499757353E-6,2.449087719566E-6,3.792541641794E-8},
    {-5.20585012032E-5,6.590199807879E-6,2.490641530334E-6,3.794498143185E-8},
    {-5.06301586933E-5,6.597623511607E-6,2.520204556584E-6,3.787557822592E-8},
    {-5.16463835643E-5,6.603626209462E-6,2.49516530419E-6,3.801546174141E-8},
    {-5.28983025843E-5,6.583966889832E-6,2.43465402261E-6,3.79862100937E-8},
    {-5.12615583677E-5,6.598192545305E-6,2.475960945618E-6,3.788610487618E-8},
    {-5.11130464265E-5,6.602854740956E-6,2.486538692603E-6,3.788382339319E-8},
    {-5.2100229713E-5,6.592686642487E-6,2.455650951969E-6,3.82488599323E-8},
    {-5.31285760167E-5,6.598718126948E-6,2.483349638634E-6,3.804156236932E-8},
    {-5.14447896259E-5,6.58593226721E-6,2.478946084558E-6,3.824721244985E-8},
    {-5.22745239407E-5,6.625437613996E-6,2.485430497114E-6,3.797454256504E-8},
    {-5.21820228337E-5,6.603855851093E-6,2.464807066696E-6,3.792570467793E-8},
    {-5.10748809043E-5,6.600881038229E-6,2.484014551141E-6,3.790476217576E-8},
    {-5.16653618976E-5,6.603958751514E-6,2.498079664404E-6,3.790878343498E-8},
    {-5.25723912916E-5,6.590467936973E-6,2.449581046396E-6,3.80068188329E-8}}},
  {{1.57267904751E-15,8.38217711256E-16,4.71340550164E-15},{Residual->1.02915474307E-16}},
  {{-1,5.5391077761E-15},{-.8,3.9450904861E-15},{-.6,2.72617366407E-15},{-.4,1.87592857324E-15},{-.2,1.45150809131E-15},
   {0,1.53269450565E-15},{.2,2.0032479504E-15},{.4,2.81867115955E-15},{.6,3.8897532771E-15},{.8,5.29266462956E-15},
   {1,6.9636136167E-15}}},
 {"Y22",1,
  {6.783472098324E-7,6.601218773077E-6,3.154238022979E-8,3.808795504379E-8,{{-5.23840484558E-5,6.597189761532E-6,2.460598314566E-6,
     3.792446312384E-8},
    {-5.12408190695E-5,6.59791811449E-6,2.486934774869E-6,3.789724753784E-8},
    {-5.2672650367E-5,6.575216302453E-6,2.520059291926E-6,3.800738050127E-8},
    {-5.24714363907E-5,6.590726951952E-6,2.419501752802E-6,3.795496493887E-8},
    {-5.33070913694E-5,6.580736553173E-6,2.513795670179E-6,3.820798371953E-8},
    {-5.22252533975E-5,6.575283623516E-6,2.454288350472E-6,3.809498250901E-8},
    {-5.26893688529E-5,6.609988975643E-6,2.451438097677E-6,3.789869682868E-8},
    {-5.06196863205E-5,6.593942354809E-6,2.469700476757E-6,3.816196185875E-8},
    {-5.25574999916E-5,6.589283822869E-6,2.501999537374E-6,3.795304789189E-8},
    {-5.11436494204E-5,6.603267908232E-6,2.451180640447E-6,3.81428335629E-8},
    {-5.19088103402E-5,6.569930589817E-6,2.429653440498E-6,3.877519084954E-8},
    {-5.18452508775E-5,6.605480499537E-6,2.450644985313E-6,3.78756406722E-8},
    {-5.31303809738E-5,6.575804667413E-6,2.422916659378E-6,3.839305589759E-8},
    {-5.13077295663E-5,6.6042913544E-6,2.47413297801E-6,3.81035649789E-8},
    {-5.14590880229E-5,6.624726175776E-6,2.432415010645E-6,3.819005381735E-8},
    {-5.25297714528E-5,6.570743150424E-6,2.530997463989E-6,3.812259216195E-8},
    {-5.17929626747E-5,6.663212329982E-6,2.474037888216E-6,3.786612342889E-8},
    {-5.25013364213E-5,6.603600253842E-6,2.460050677465E-6,3.82285765219E-8},
    {-5.17525058873E-5,6.672654888562E-6,2.488649401205E-6,3.810872788951E-8},
    {-5.22509294698E-5,6.620377183129E-6,2.438693762217E-6,3.785201218547E-8}}},
  {{2.56406256017E-15,9.90629795388E-16,2.78406770012E-14},{Residual->6.18538526516E-16}},
  {{-.6,1.17727729616E-14},{-.4,7.10944440802E-15},{-.2,3.75954158705E-15},{1.11022302463E-16,1.44626258571E-15},
   {.2,3.97142525623E-15},{.4,8.3387972062E-15},{.6,1.27317521578E-14}}},
 {"Y26",1,
  {8.125025470934E-7,6.593375480859E-6,2.051354075779E-8,3.802800284814E-8,{{-5.30090529023E-5,6.575259412118E-6,2.470893302052E-6,
     3.809955482841E-8},
    {-5.37907055392E-5,6.576449811593E-6,2.472276370069E-6,3.840143465299E-8},
    {-5.19374871913E-5,6.585205145263E-6,2.50198601538E-6,3.796959733075E-8},
    {-5.21312223502E-5,6.607408826415E-6,2.485549180033E-6,3.790903772622E-8},
    {-5.18314388067E-5,6.571980870949E-6,2.491610384879E-6,3.796745299129E-8},
    {-5.22209091543E-5,6.584542179584E-6,2.46742671188E-6,3.807477698589E-8},
    {-5.22351527399E-5,6.588536626761E-6,2.460782384921E-6,3.793215273797E-8},
    {-5.31706534267E-5,6.582903162649E-6,2.462693158516E-6,3.799488175474E-8},
    {-5.23783120411E-5,6.602511712343E-6,2.49798699258E-6,3.797876375252E-8},
    {-5.13941737039E-5,6.612967591615E-6,2.47119938338E-6,3.790009283623E-8},
    {-5.22058160923E-5,6.612129729191E-6,2.495137124022E-6,3.815118238135E-8},
    {-5.09785102975E-5,6.600101742066E-6,2.435718051073E-6,3.791880879342E-8},
    {-5.13319114048E-5,6.580145082241E-6,2.447678237076E-6,3.797509412731E-8},
    {-5.26160165979E-5,6.572020764427E-6,2.460406962258E-6,3.812721657153E-8},
    {-5.08805672901E-5,6.578434478812E-6,2.462851359561E-6,3.819899970568E-8},
    {-5.27400939428E-5,6.585382358331E-6,2.502873992851E-6,3.816627642266E-8},
    {-5.24987114969E-5,6.631074575531E-6,2.493389282906E-6,3.788825578056E-8},
    {-5.03032569303E-5,6.611259250657E-6,2.462963901046E-6,3.79263571569E-8},
    {-5.1572050594E-5,6.603824908872E-6,2.441421741927E-6,3.802745117141E-8},
    {-5.20604287266E-5,6.605371387765E-6,2.504747478998E-6,3.7952669255E-8}}},
  {{1.90151474866E-15,2.07851932811E-15,6.63345802021E-14},{Residual->4.27802738057E-16}},
  {{-.6,2.41083648796E-14},{-.4,1.21011681654E-14},{-.2,4.81447616075E-15},{1.11022302463E-16,1.44964933539E-15},
   {.2,4.49652966174E-15},{.4,1.3420348886E-14},{.6,2.7214795978E-14}}},
 {"Y66",1,
  {7.279187205085E-7,6.59110668888E-6,2.345939411489E-8,3.815591225103E-8,{{-5.22901854955E-5,6.573921023176E-6,2.480423962013E-6,
     3.805705675317E-8},
    {-5.19984936444E-5,6.576299505315E-6,2.443416737615E-6,3.844142237798E-8},
    {-5.23239252335E-5,6.622520181221E-6,2.44469636242E-6,3.797030722862E-8},
    {-5.175067244E-5,6.568547242655E-6,2.483739584894E-6,3.809005547105E-8},
    {-5.23296031183E-5,6.621737432049E-6,2.481557619157E-6,3.787183819695E-8},
    {-5.10882181151E-5,6.578163089519E-6,2.425177403989E-6,3.878323146065E-8},
    {-5.25197228291E-5,6.578704527368E-6,2.493813052279E-6,3.821002175726E-8},
    {-5.11734975856E-5,6.566487866826E-6,2.480853689639E-6,3.805952274548E-8},
    {-5.32359882302E-5,6.609703974544E-6,2.509577196549E-6,3.808108183186E-8},
    {-5.21441323273E-5,6.605281924069E-6,2.466458102549E-6,3.79324007467E-8},
    {-5.1409734754E-5,6.585822593799E-6,2.440586431832E-6,3.868819245118E-8},
    {-5.18681644645E-5,6.587149272581E-6,2.464878380557E-6,3.807614185999E-8},
    {-5.20448728066E-5,6.606924208176E-6,2.443924505375E-6,3.789457222799E-8},
    {-5.02758944967E-5,6.569831098893E-6,2.48465637924E-6,3.807708403563E-8},
    {-5.18433985795E-5,6.61931660557E-6,2.460151042292E-6,3.800784497039E-8},
    {-5.2409536258E-5,6.59305703253E-6,2.494781945988E-6,3.80751628669E-8},
    {-5.06304549387E-5,6.567475217734E-6,2.44813035257E-6,3.850650770344E-8},
    {-5.16925569706E-5,6.601191498776E-6,2.451525093275E-6,3.839235632566E-8},
    {-5.08956618955E-5,6.599778260363E-6,2.510683423748E-6,3.787814898675E-8},
    {-5.28398968165E-5,6.590221222436E-6,2.46614391154E-6,3.802529502296E-8}}},
  {{3.55175729918E-15,-1.3207169171E-14,1.42945914459E-12},{Residual->1.28354220221E-15}},
  {{-.2,6.36510884334E-14},{-.15,3.81583402146E-14},{-.1,1.91584579329E-14},{-.05,6.87664727547E-15},{0,1.44586454013E-15},
   {.05,7.12805231452E-15},{.1,1.88491559496E-14},{.15,3.46432570917E-14},{.2,5.64738236294E-14}}},
 {"Y44",1,
  {5.559358196251E-7,6.582666835515E-6,2.172971369202E-8,3.80531286492E-8,{{-5.18190666407E-5,6.578794478116E-6,2.490210379311E-6,
     3.79351474625E-8},
    {-5.17817670843E-5,6.576630394191E-6,2.465953644167E-6,3.807714902638E-8},
    {-5.12219339757E-5,6.595096826282E-6,2.480987945709E-6,3.794437393157E-8},
    {-5.2633743146E-5,6.598807516674E-6,2.470531784659E-6,3.797979078658E-8},
    {-5.22322732786E-5,6.573125565761E-6,2.484110074267E-6,3.804570878741E-8},
    {-5.18543312904E-5,6.571775649838E-6,2.463153549292E-6,3.798788246258E-8},
    {-5.2629129472E-5,6.572234519237E-6,2.478638930309E-6,3.819558030081E-8},
    {-5.24683069483E-5,6.578047517056E-6,2.43582209956E-6,3.818836091326E-8},
    {-5.09231212378E-5,6.565488520169E-6,2.453779322144E-6,3.811148378579E-8},
    {-5.18321062152E-5,6.568742217682E-6,2.461697872662E-6,3.814553958245E-8},
    {-5.23059966653E-5,6.616898876185E-6,2.480032185633E-6,3.787872879874E-8},
    {-5.1709271269E-5,6.575080357792E-6,2.494875916086E-6,3.804794292797E-8},
    {-5.3041215971E-5,6.573333717456E-6,2.466724911832E-6,3.856497498892E-8},
    {-5.13047147372E-5,6.566770259605E-6,2.520885027954E-6,3.800783766092E-8},
    {-5.18612618891E-5,6.587062181986E-6,2.506966005404E-6,3.797128187417E-8},
    {-5.28853542662E-5,6.590439202254E-6,2.425638494233E-6,3.808660303811E-8},
    {-5.18632601998E-5,6.605239626091E-6,2.480965069728E-6,3.790011109643E-8},
    {-5.2438079922E-5,6.574073838357E-6,2.455737102183E-6,3.814804963201E-8},
    {-5.14102316125E-5,6.595144002969E-6,2.489379520675E-6,3.793711327606E-8},
    {-5.16695649854E-5,6.590551442591E-6,2.479490450575E-6,3.79089126514E-8}}},
  {{1.87188666457E-15,-1.0750227961E-16,1.44977875268E-14},{Residual->2.84060353843E-16}},
  {{-.6,7.18437536083E-15},{-.4,4.35193451423E-15},{-.2,2.38534156472E-15},{1.11022302463E-16,1.45161688467E-15},
   {.2,2.61308277212E-15},{.4,4.63589161839E-15},{.6,6.71848596698E-15}}},
 {"AY",1,
  {6.816529094979E-7,6.587671651127E-6,2.912909726791E-8,3.804978996425E-8,{{-5.17340064092E-5,6.577727425203E-6,2.419314315588E-6,
     3.824577439112E-8},
    {-5.16195794467E-5,6.582465931701E-6,2.507523102279E-6,3.795177434117E-8},
    {-5.16967593806E-5,6.601368145051E-6,2.446139817231E-6,3.819209274381E-8},
    {-5.18101678227E-5,6.57103235946E-6,2.437206224752E-6,3.850072415497E-8},
    {-5.08284706566E-5,6.581594418679E-6,2.501224836131E-6,3.791785243767E-8},
    {-5.28352514184E-5,6.572134755184E-6,2.511111698714E-6,3.806301896177E-8},
    {-5.11027165127E-5,6.611900785536E-6,2.454791591927E-6,3.787242167546E-8},
    {-5.24123864078E-5,6.581814015491E-6,2.432945213989E-6,3.82438450982E-8},
    {-5.22994316483E-5,6.588895933715E-6,2.529831582566E-6,3.806108717398E-8},
    {-5.16362346877E-5,6.579563192302E-6,2.471605336323E-6,3.821190263247E-8},
    {-5.11371371378E-5,6.615852285297E-6,2.507488106614E-6,3.785968867021E-8},
    {-5.30547340372E-5,6.579487043983E-6,2.445690575015E-6,3.813259580075E-8},
    {-5.14196645594E-5,6.601185666427E-6,2.472373988205E-6,3.789016554137E-8},
    {-5.03298271807E-5,6.599916686303E-6,2.463311451597E-6,3.79297184293E-8},
    {-5.22674840824E-5,6.582193549974E-6,2.45246552158E-6,3.796821628582E-8},
    {-5.14622241966E-5,6.566884941826E-6,2.492873299247E-6,3.805619246287E-8},
    {-5.07382063075E-5,6.602245432361E-6,2.482263322064E-6,3.788069866748E-8},
    {-5.19971887371E-5,6.601137339384E-6,2.496072837996E-6,3.79408071787E-8},
    {-5.15755167231E-5,6.579400896076E-6,2.472735378587E-6,3.809204830437E-8},
    {-5.09652810301E-5,6.576632218587E-6,2.477812213884E-6,3.798517433352E-8}}},
  {{1.32677167236E-15,-2.086206881E-15,1.117689048E-12},{Residual->5.46810611381E-17}},
  {{-.1,1.27601467394E-14},{-.07,6.87860953884E-15},{-.04,3.14662759344E-15},{-.01,1.55781107216E-15},{.02,1.73903788194E-15},
   {.05,3.98238989635E-15},{.08,8.31695980939E-15}}},
 {"EY",1,
  {6.821713870763E-7,6.589882898717E-6,2.246365783058E-8,3.870640549764E-8,{{-4.93508894962E-5,6.602153051313E-6,2.778871039596E-6,
     3.854414979915E-8},
    {-4.98979481229E-5,6.598037548309E-6,2.785631973595E-6,3.866248302026E-8},
    {-4.83608965642E-5,6.631215165062E-6,2.850059834319E-6,3.874659329484E-8},
    {-4.96581752158E-5,6.569262019289E-6,2.798421802345E-6,3.862805652645E-8},
    {-5.02250248901E-5,6.57100041871E-6,2.8094048421E-6,3.880619256706E-8},
    {-4.95269135313E-5,6.571147910322E-6,2.820992174808E-6,3.870058165276E-8},
    {-4.97609695073E-5,6.600369380956E-6,2.785998155495E-6,3.856411899597E-8},
    {-4.98592639158E-5,6.569624593869E-6,2.847576738024E-6,3.919428413995E-8},
    {-4.93868548392E-5,6.593730072984E-6,2.802753625784E-6,3.880220525372E-8},
    {-4.94998634499E-5,6.585056744348E-6,2.846542731786E-6,3.869866795827E-8},
    {-5.07138941332E-5,6.605740962932E-6,2.814448501039E-6,3.908921895687E-8},
    {-4.85078385232E-5,6.571458427319E-6,2.794881489242E-6,3.85792101587E-8},
    {-4.91992855059E-5,6.599901805131E-6,2.830849111985E-6,3.880465741745E-8},
    {-4.88799196006E-5,6.599534246306E-6,2.806967599355E-6,3.854044311147E-8},
    {-4.85334289368E-5,6.569163811172E-6,2.791773835673E-6,3.870953910119E-8},
    {-4.94785200256E-5,6.596534640905E-6,2.837380375041E-6,3.877584161241E-8},
    {-4.87426435379E-5,6.629463994961E-6,2.810035356642E-6,3.854442901729E-8},
    {-4.77983036144E-5,6.583647564731E-6,2.799851901391E-6,3.86300309606E-8},
    {-4.87484521999E-5,6.572459436477E-6,2.835759538805E-6,3.851509415852E-8},
    {-4.96946924223E-5,6.578156179252E-6,2.781756210294E-6,3.859231224988E-8}}},
  {{1.49331951339E-15,4.0029738771E-15,4.75351750068E-13},{Residual->3.26049732727E-17}},
  {{-.1,5.88435839389E-15},{-.07,3.49877353184E-15},{-.04,2.06056186413E-15},{-.01,1.51646054648E-15},{.02,1.78415420817E-15},
   {.05,2.9173720569E-15},{.08,4.82295814771E-15}}},
 {"R32",1,
  {4.821259770843E-7,6.594283024111E-6,2.288976479539E-8,3.782742790229E-8,{{-4.43078835557E-5,6.600117540767E-6,2.776368051011E-6,
     3.779479463141E-8},
    {-4.34399117961E-5,6.580215837134E-6,2.757137867026E-6,3.773320965099E-8},
    {-4.37491078633E-5,6.583929326343E-6,2.786530329891E-6,3.774835786554E-8},
    {-4.37894089256E-5,6.601656598525E-6,2.727145251803E-6,3.831955106951E-8},
    {-4.46516673327E-5,6.598262540691E-6,2.74543602835E-6,3.811764236625E-8},
    {-4.34033864312E-5,6.592931615427E-6,2.767636822226E-6,3.771761492345E-8},
    {-4.35351944694E-5,6.58369202274E-6,2.751482638326E-6,3.78257106157E-8},
    {-4.38695433388E-5,6.601988184049E-6,2.714987258628E-6,3.783568872479E-8},
    {-4.26679323861E-5,6.609230545702E-6,2.753674044157E-6,3.764546439529E-8},
    {-4.3480344028E-5,6.58230995288E-6,2.782798329076E-6,3.795007177075E-8},
    {-4.38091881765E-5,6.585904691598E-6,2.715882548402E-6,3.792051062976E-8},
    {-4.28255010279E-5,6.572708140256E-6,2.768891717671E-6,3.773809327879E-8},
    {-4.38611630583E-5,6.594802869533E-6,2.75949826558E-6,3.794301768569E-8},
    {-4.44905069732E-5,6.573897154283E-6,2.775684352793E-6,3.779606326791E-8},
    {-4.42672196691E-5,6.630514007194E-6,2.773775412645E-6,3.772252580985E-8},
    {-4.35815753704E-5,6.600879241574E-6,2.75279731418E-6,3.770529881894E-8},
    {-4.36004026402E-5,6.595820410445E-6,2.759604729354E-6,3.768646539524E-8},
    {-4.3737022322E-5,6.610859319531E-6,2.716251307943E-6,3.787334467546E-8},
    {-4.37919705776E-5,6.615511595294E-6,2.790125260914E-6,3.769637449029E-8},
    {-4.31945761166E-5,6.570428888259E-6,2.776434818641E-6,3.777875798023E-8}}},
  {{1.4126034035E-15,-1.0759190013E-15,6.892483772E-13},{Residual->3.48114609922E-17}},
  {{-.1,8.44311416765E-15},{-.07,4.80874097633E-15},{-.04,2.54930813642E-15},{-.01,1.54287652723E-15},{.02,1.6782053452E-15},
   {.05,3.04369536483E-15},{.08,5.74913060637E-15}}},
 {"Y24",1,
  {6.695509325827E-7,6.573777971627E-6,2.753734783544E-8,3.791896420887E-8,{{-4.48816949577E-5,6.573452174857E-6,2.942694241932E-6,
     3.814667013147E-8},
    {-4.58926297489E-5,6.579219704834E-6,2.949639492566E-6,3.762451780565E-8},
    {-4.49734377788E-5,6.555713477385E-6,2.959627199543E-6,3.798384596972E-8},
    {-4.59529318236E-5,6.599322635912E-6,2.981645735368E-6,3.763137603497E-8},
    {-4.51741372678E-5,6.568544186505E-6,3.015383625504E-6,3.771585403172E-8},
    {-4.55426036657E-5,6.56816968666E-6,2.963712438334E-6,3.771830246807E-8},
    {-4.49158385518E-5,6.569933319669E-6,2.90812222091E-6,3.866525792666E-8},
    {-4.5051067759E-5,6.553915901273E-6,2.977805282068E-6,3.760765657686E-8},
    {-4.62950481756E-5,6.593184985887E-6,2.95035469605E-6,3.789241927425E-8},
    {-4.5640028212E-5,6.564058208048E-6,2.909068102942E-6,3.850571423596E-8},
    {-4.49126354199E-5,6.589735826494E-6,2.940645398394E-6,3.809119185046E-8},
    {-4.55042897713E-5,6.555964141046E-6,2.98305005339E-6,3.776530401038E-8},
    {-4.58901658631E-5,6.56813201138E-6,3.02162044529E-6,3.770233499715E-8},
    {-4.54879746604E-5,6.571920923384E-6,2.972559096946E-6,3.81788865752E-8},
    {-4.5969685815E-5,6.577682473675E-6,2.95786884422E-6,3.777121587233E-8},
    {-4.62124814761E-5,6.579955824098E-6,2.937529876988E-6,3.767356887727E-8},
    {-4.69937526497E-5,6.561829919676E-6,2.956690340695E-6,3.777231345197E-8},
    {-4.51611887912E-5,6.555179119622E-6,2.968538578996E-6,3.861238603419E-8},
    {-4.4408270144E-5,6.591636435906E-6,2.968377051931E-6,3.760424652997E-8},
    {-4.69286159059E-5,6.598008476229E-6,2.956437846049E-6,3.771622152312E-8}}},
  {{1.44452762142E-15,-3.7967904121E-16,1.77893829545E-15},{Residual->4.84360706116E-18}},
  {{-.3,1.71591244435E-15},{-.2,1.5936086415E-15},{-.1,1.50269800162E-15},{5.55111512313E-17,1.44566678012E-15},
   {.1,1.4259263057E-15},{.2,1.42932670163E-15},{.3,1.49665719778E-15}}},
 {"Y46",1,
  {5.142521980357E-7,6.578309490436E-6,2.892476327972E-8,3.738046720204E-8,{{-4.5426643819E-5,6.562542030042E-6,2.967581375505E-6,
     3.725642562678E-8},
    {-4.42566406205E-5,6.568205605851E-6,2.990127147334E-6,3.721013169121E-8},
    {-4.67550959454E-5,6.55473201592E-6,2.948579663146E-6,3.745170336949E-8},
    {-4.57259265404E-5,6.645418009803E-6,2.966436708418E-6,3.733026353964E-8},
    {-4.52268900578E-5,6.55072555131E-6,2.942068872246E-6,3.726433202264E-8},
    {-4.55751279482E-5,6.564770982859E-6,2.99480518816E-6,3.733540760937E-8},
    {-4.63428767236E-5,6.568367389383E-6,2.980283588882E-6,3.746158802417E-8},
    {-4.51201405833E-5,6.61149804182E-6,2.9906874223E-6,3.750199748512E-8},
    {-4.56447974272E-5,6.582201484119E-6,2.996081415917E-6,3.725960756445E-8},
    {-4.54968735356E-5,6.573698512706E-6,2.956088919166E-6,3.723129756709E-8},
    {-4.56277377595E-5,6.556771612476E-6,2.984081862907E-6,3.739347722733E-8},
    {-4.58252091706E-5,6.605252276833E-6,3.026947728532E-6,3.824647397412E-8},
    {-4.47671368489E-5,6.559677733212E-6,2.974998539027E-6,3.720061127827E-8},
    {-4.56272721364E-5,6.599072042714E-6,2.910520969843E-6,3.73742903293E-8},
    {-4.56402244137E-5,6.569275654143E-6,2.958050610612E-6,3.729064830169E-8},
    {-4.51100214987E-5,6.5859059739E-6,3.005567920523E-6,3.727656844093E-8},
    {-4.52754291526E-5,6.568755305039E-6,2.963429878148E-6,3.756806936332E-8},
    {-4.58972311735E-5,6.56441164506E-6,2.938003406373E-6,3.731709971721E-8},
    {-4.55893754852E-5,6.591033197948E-6,3.032940739969E-6,3.739028379314E-8},
    {-4.58502860367E-5,6.583874743572E-6,2.964602246009E-6,3.724906711544E-8}}},
  {{1.43858486198E-15,5.92360086043E-16,5.16701510446E-15},{Residual->3.78407083812E-17}},
  {{-.45,2.25603512889E-15},{-.3,1.68871644273E-15},{-.15,1.433910555E-15},{-5.5511151231E-17,1.42545793299E-15},
   {.15,1.68208762918E-15},{.3,2.13204402342E-15},{.45,2.70706183749E-15}}},
 {"Y22",1,
  {4.634683466335E-7,6.583984974579E-6,2.653240438632E-8,3.736594802528E-8,{{-4.48927907063E-5,6.601558873675E-6,2.989191591853E-6,
     3.760892209842E-8},
    {-4.52470594667E-5,6.5997964668E-6,2.95161710884E-6,3.72740773427E-8},
    {-4.50718985741E-5,6.579052752475E-6,3.002757340069E-6,3.767679599431E-8},
    {-4.55024188201E-5,6.596603502153E-6,2.981778398924E-6,3.725187805081E-8},
    {-4.5323686799E-5,6.563854589035E-6,2.963824668301E-6,3.745099750971E-8},
    {-4.4916728219E-5,6.599624071008E-6,2.96592302733E-6,3.733782387362E-8},
    {-4.61280759988E-5,6.582471307543E-6,3.004459363334E-6,3.739551585772E-8},
    {-4.56213605123E-5,6.575246519049E-6,2.953287341262E-6,3.721809309198E-8},
    {-4.61006393215E-5,6.578862769769E-6,3.001201373691E-6,3.755422965844E-8},
    {-4.58046923644E-5,6.563112422859E-6,2.989965211879E-6,3.727913201245E-8},
    {-4.54357805938E-5,6.563276571284E-6,2.917394141275E-6,3.733617276467E-8},
    {-4.62016623515E-5,6.590060618665E-6,2.947726018174E-6,3.726430459973E-8},
    {-4.65343887845E-5,6.622984120991E-6,2.966293113215E-6,3.7375216092E-8},
    {-4.61771186496E-5,6.565491675347E-6,2.940472558164E-6,3.734666442308E-8},
    {-4.52405262532E-5,6.583005783682E-6,2.923358758591E-6,3.723843960337E-8},
    {-4.57047734168E-5,6.563466468907E-6,2.962335137188E-6,3.733019252033E-8},
    {-4.50068866168E-5,6.56026475072E-6,3.015623575889E-6,3.717399674911E-8},
    {-4.57344959635E-5,6.617584541958E-6,2.977009470146E-6,3.727528069032E-8},
    {-4.56615035656E-5,6.611069137028E-6,2.971479273454E-6,3.746279849596E-8},
    {-4.51855129586E-5,6.562312548636E-6,2.941627971861E-6,3.746842907698E-8}}},
  {{2.35311986696E-15,9.42979442672E-16,2.69666903149E-14},{Residual->4.75400601323E-16}},
  {{-.6,1.11556696285E-14},{-.4,6.83104608721E-15},{-.2,3.63882598834E-15},{1.11022302463E-16,1.39659469127E-15},
   {.2,3.80674333523E-15},{.4,7.29508888061E-15},{.6,1.25505636103E-14}}},
 {"Y26",1,
  {6.12123024892E-7,6.581697101438E-6,2.926083854113E-8,3.734688968631E-8,{{-4.49163259567E-5,6.56247768658E-6,2.969097873947E-6,
     3.728436981999E-8},
    {-4.60157979877E-5,6.567850736322E-6,2.990264161847E-6,3.751632301151E-8},
    {-4.5579184226E-5,6.565508020828E-6,2.942831079361E-6,3.724607900482E-8},
    {-4.55796209645E-5,6.625299131447E-6,3.025814444929E-6,3.7602734653E-8},
    {-4.4388426059E-5,6.57244615572E-6,2.980841108277E-6,3.717331189326E-8},
    {-4.57151142093E-5,6.551720116668E-6,2.961087471924E-6,3.730949653021E-8},
    {-4.63372117613E-5,6.594751031539E-6,2.950905454721E-6,3.734986441641E-8},
    {-4.55739621496E-5,6.569208113682E-6,3.003885147926E-6,3.736401053156E-8},
    {-4.67346655593E-5,6.556023982208E-6,2.985939958889E-6,3.750681180314E-8},
    {-4.5453432064E-5,6.644152362354E-6,3.014005230298E-6,3.764578504373E-8},
    {-4.53879817204E-5,6.585869249532E-6,2.923139177761E-6,3.724458392584E-8},
    {-4.48306232577E-5,6.583628266696E-6,2.99508426516E-6,3.736848115297E-8},
    {-4.51711988379E-5,6.577002563683E-6,2.929269953799E-6,3.7258816137E-8},
    {-4.47866330113E-5,6.589632801054E-6,2.934271581732E-6,3.717599354455E-8},
    {-4.4903773083E-5,6.610394909765E-6,2.974479597018E-6,3.727475446479E-8},
    {-4.56589755921E-5,6.60102838684E-6,2.962142628416E-6,3.728314688133E-8},
    {-4.63159328642E-5,6.554459564698E-6,2.943057149664E-6,3.730411311963E-8},
    {-4.54012772923E-5,6.563437511565E-6,2.926807885996E-6,3.723967469225E-8},
    {-4.62882007068E-5,6.563840739787E-6,2.978061804085E-6,3.736061189231E-8},
    {-4.6336092847E-5,6.595210697789E-6,2.991788070734E-6,3.742883120794E-8}}},
  {{1.52680743465E-15,8.12507282357E-16,7.17394613656E-14},{Residual->1.09786770338E-16}},
  {{-.3,7.64358685956E-15},{-.2,4.31155264707E-15},{-.1,2.35652787043E-15},{5.55111512313E-17,1.39870981356E-15},
   {.1,2.21190289423E-15},{.2,4.58375218054E-15},{.3,8.26866895952E-15}}},
 {"Y66",1,
  {6.399226523395E-7,6.571222206039E-6,1.941170132404E-8,3.738058776406E-8,{{-4.67406943317E-5,6.555141999202E-6,2.993662205992E-6,
     3.738903084439E-8},
    {-4.62465733351E-5,6.553688974539E-6,2.988315114475E-6,3.727329527399E-8},
    {-4.48991947503E-5,6.578438117066E-6,2.959499080615E-6,3.720046099661E-8},
    {-4.53933974102E-5,6.564063980228E-6,2.952827194869E-6,3.729469444233E-8},
    {-4.52695481425E-5,6.561645531282E-6,2.942686579049E-6,3.732427898383E-8},
    {-4.47351625054E-5,6.579248019848E-6,2.992568877816E-6,3.7298036031E-8},
    {-4.62372352044E-5,6.567282115672E-6,2.993600458282E-6,3.73212532659E-8},
    {-4.67652100622E-5,6.577314009875E-6,2.999597500605E-6,3.766307125479E-8},
    {-4.66222713246E-5,6.561987956539E-6,3.000755395877E-6,3.742247233064E-8},
    {-4.60230548495E-5,6.559899986484E-6,2.973478987294E-6,3.731803972047E-8},
    {-4.59425867803E-5,6.609479740373E-6,2.993747856294E-6,3.810962342103E-8},
    {-4.6145225403E-5,6.615662913811E-6,2.991683200393E-6,3.765886154317E-8},
    {-4.55086470745E-5,6.551156937581E-6,2.984585177278E-6,3.729524906193E-8},
    {-4.55057944381E-5,6.598627698595E-6,2.971624261268E-6,3.730411381306E-8},
    {-4.63642157891E-5,6.566319464614E-6,3.02721379622E-6,3.740784684402E-8},
    {-4.56520521562E-5,6.551665831795E-6,2.982448030775E-6,3.729476886585E-8},
    {-4.45653117651E-5,6.565202367165E-6,2.966102618209E-6,3.720702571384E-8},
    {-4.55233171425E-5,6.569436836802E-6,2.97910720145E-6,3.724777840034E-8},
    {-4.6453668905E-5,6.556474528742E-6,2.986382317981E-6,3.735264646765E-8},
    {-4.5369233081E-5,6.581707110566E-6,3.012736671144E-6,3.722920800633E-8}}},
  {{3.79597771316E-15,-2.0509905091E-14,1.32694464736E-12},{Residual->1.55512235291E-15}},
  {{-.2,6.11104405648E-14},{-.15,3.75794252884E-14},{-.1,1.92278879488E-14},{-.05,6.78012084153E-15},{0,1.39789036352E-15},
   {.05,6.84554268515E-15},{.1,1.7408562137E-14},{.15,3.21989541392E-14},{.2,5.06566725533E-14}}},
 {"Y44",1,
  {4.605285274554E-7,6.580560840106E-6,3.133900693504E-8,3.73826004599E-8,{{-4.51176343427E-5,6.554098318308E-6,2.989432923382E-6,
     3.730275382102E-8},
    {-4.47466228093E-5,6.601689847686E-6,2.939246043366E-6,3.721433953208E-8},
    {-4.49989261979E-5,6.589686712415E-6,2.986289831828E-6,3.755022283497E-8},
    {-4.52038444741E-5,6.562301420888E-6,2.988170750657E-6,3.746081979672E-8},
    {-4.60956369247E-5,6.564579249796E-6,2.946254812515E-6,3.729960689889E-8},
    {-4.45184177796E-5,6.601727753084E-6,2.975651060345E-6,3.73957377585E-8},
    {-4.59170130496E-5,6.605508612853E-6,3.01511566613E-6,3.79692509246E-8},
    {-4.56614218707E-5,6.587530923695E-6,2.986952068877E-6,3.733143900501E-8},
    {-4.56480022048E-5,6.563328319448E-6,3.034094295496E-6,3.759568114736E-8},
    {-4.53704606099E-5,6.568916599295E-6,2.991108899848E-6,3.740875856152E-8},
    {-4.58162971963E-5,6.587285941595E-6,2.966271604412E-6,3.726137319911E-8},
    {-4.56286619947E-5,6.562955225732E-6,2.955555436404E-6,3.726574538381E-8},
    {-4.6148997731E-5,6.589208332598E-6,2.952745391516E-6,3.731039759033E-8},
    {-4.59672038438E-5,6.572159946598E-6,2.966441516474E-6,3.744734246849E-8},
    {-4.54548209334E-5,6.563415385513E-6,2.945670474572E-6,3.721430695879E-8},
    {-4.54687746564E-5,6.598804217915E-6,2.903851123532E-6,3.732522319724E-8},
    {-4.54462882974E-5,6.563525310975E-6,2.948282107648E-6,3.725901464962E-8},
    {-4.45659682611E-5,6.598796926128E-6,2.911348500798E-6,3.721459765754E-8},
    {-4.53001170537E-5,6.579547463097E-6,2.966226389414E-6,3.7222377877E-8},
    {-4.51639325151E-5,6.596150294491E-6,2.999585242979E-6,3.760301993538E-8}}},
  {{1.76371191307E-15,-2.9541279549E-16,1.46453665732E-14},{Residual->2.25470599956E-16}},
  {{-.6,7.24788485638E-15},{-.4,4.29003142764E-15},{-.2,2.36405968327E-15},{1.11022302463E-16,1.39426542057E-15},
   {.2,2.4982232634E-15},{.4,4.32774571692E-15},{.6,6.62658358524E-15}}},
 {"AY",1,
  {4.715413969472E-7,6.58083475665E-6,2.923330978142E-8,3.73659073023E-8,{{-4.54897878285E-5,6.568784162592E-6,2.963723053403E-6,
     3.723117522923E-8},
    {-4.52840701217E-5,6.555959181168E-6,3.009403067759E-6,3.748621844407E-8},
    {-4.58381594802E-5,6.585256824313E-6,2.939027934866E-6,3.71900571948E-8},
    {-4.47127925015E-5,6.575635172635E-6,2.95721824609E-6,3.722873356403E-8},
    {-4.57556885677E-5,6.625236923408E-6,2.996033157391E-6,3.73515077491E-8},
    {-4.49837162066E-5,6.611052283326E-6,2.999481347237E-6,3.716515162393E-8},
    {-4.56953380556E-5,6.56818507311E-6,2.913298305613E-6,3.764863677771E-8},
    {-4.4711958906E-5,6.578943284403E-6,2.964691432524E-6,3.719566430039E-8},
    {-4.50472373345E-5,6.550536231076E-6,2.953485216814E-6,3.754150258256E-8},
    {-4.52458176946E-5,6.576554398911E-6,3.018959167153E-6,3.717417578331E-8},
    {-4.64444005651E-5,6.589702800228E-6,2.986394690665E-6,3.74533659535E-8},
    {-4.56585840385E-5,6.618586051045E-6,3.013478516544E-6,3.799609718567E-8},
    {-4.57391674751E-5,6.566857238227E-6,2.93691796055E-6,3.735969020509E-8},
    {-4.57035432799E-5,6.559000582174E-6,2.956914032984E-6,3.724555095348E-8},
    {-4.6003548675E-5,6.596536471641E-6,2.965528928735E-6,3.732135560852E-8},
    {-4.53237863179E-5,6.606357646003E-6,2.94766537233E-6,3.719361772264E-8},
    {-4.61178081151E-5,6.556391295854E-6,2.935325358446E-6,3.728564661414E-8},
    {-4.61449926782E-5,6.558725393828E-6,2.994745402102E-6,3.755668702031E-8},
    {-4.61203306214E-5,6.553579971004E-6,2.951354637106E-6,3.728467123049E-8},
    {-4.57964044562E-5,6.61481414805E-6,2.998486184265E-6,3.740864030303E-8}}},
  {{1.32303488791E-15,3.90218872833E-15,1.10926137558E-12},{Residual->5.26873595939E-17}},
  {{-.1,1.20435757941E-14},{-.07,6.43143964179E-15},{-.04,2.95230620664E-15},{-.01,1.45788425129E-15},{.02,1.85874127876E-15},
   {.05,4.19262136243E-15},{.08,8.78139209698E-15}}},
 {"EY",1,
  {6.163870424019E-7,6.586600943486E-6,2.596647386472E-8,3.752383586532E-8,{{-4.66218006128E-5,6.608993557973E-6,2.838077078645E-6,
     3.737834080847E-8},
    {-4.7106803761E-5,6.570483105864E-6,2.851601567196E-6,3.744196040215E-8},
    {-4.74225555844E-5,6.603193398672E-6,2.904330641048E-6,3.766349906771E-8},
    {-4.7131305666E-5,6.599663273181E-6,2.809826162013E-6,3.743365646626E-8},
    {-4.77488439662E-5,6.567051639117E-6,2.855849498981E-6,3.755787709077E-8},
    {-4.71679801881E-5,6.574757266874E-6,2.88816384968E-6,3.76831349733E-8},
    {-4.60748690128E-5,6.597657183243E-6,2.89586851451E-6,3.75401774995E-8},
    {-4.7687644898E-5,6.611098565732E-6,2.872088961615E-6,3.772667023352E-8},
    {-4.76042993353E-5,6.574525943228E-6,2.845074897987E-6,3.747335883354E-8},
    {-4.73355116596E-5,6.567174175099E-6,2.870941713545E-6,3.755141772761E-8},
    {-4.67693451075E-5,6.611624009073E-6,2.902961438364E-6,3.76193318812E-8},
    {-4.8380727401E-5,6.609203643565E-6,2.854392943794E-6,3.7700523269E-8},
    {-4.72592832067E-5,6.556574239312E-6,2.85908940461E-6,3.745017581931E-8},
    {-4.64270726077E-5,6.597540238806E-6,2.835031210545E-6,3.734998222965E-8},
    {-4.63626670057E-5,6.577735442812E-6,2.827463767816E-6,3.740728967874E-8},
    {-4.62275361944E-5,6.583953279429E-6,2.863567999625E-6,3.737013064309E-8},
    {-4.68602820513E-5,6.574243700477E-6,2.875948438313E-6,3.748674871813E-8},
    {-4.62658239022E-5,6.576538618061E-6,2.817918537586E-6,3.744170005977E-8},
    {-4.73825380581E-5,6.571831920024E-6,2.85619370585E-6,3.744330579008E-8},
    {-4.79770581299E-5,6.598175669168E-6,2.87591756863E-6,3.775743611468E-8}}},
  {{1.38707762871E-15,6.73243135391E-16,4.79335772099E-13},{Residual->3.28432521308E-17}},
  {{-.1,6.14886755016E-15},{-.07,3.63096723542E-15},{-.04,2.12278288411E-15},{-.01,1.45490231319E-15},{.02,1.57915857253E-15},
   {.05,2.6567582749E-15},{.08,4.48377604852E-15}}},
 {"R32",1,
  {7.025263792943E-7,6.575989467622E-6,2.682327775241E-8,3.723741974591E-8,{{-4.75619193809E-5,6.570202106706E-6,2.703152186296E-6,
     3.710121392623E-8},
    {-4.70075344936E-5,6.585035417286E-6,2.664287058415E-6,3.757853987362E-8},
    {-4.73386096999E-5,6.576991845849E-6,2.767667716285E-6,3.719456182857E-8},
    {-4.72243455762E-5,6.553391723011E-6,2.686357225333E-6,3.759971930528E-8},
    {-4.64546180791E-5,6.572689945998E-6,2.704622566839E-6,3.70232395155E-8},
    {-4.71774882332E-5,6.610742092134E-6,2.704375738363E-6,3.705592301807E-8},
    {-4.8205637058E-5,6.611674294614E-6,2.749967113068E-6,3.759214993211E-8},
    {-4.56754211268E-5,6.567383631307E-6,2.72582284251E-6,3.702115548522E-8},
    {-4.78305345261E-5,6.566757761088E-6,2.70639781372E-6,3.714705913485E-8},
    {-4.73569448892E-5,6.566123285028E-6,2.700190469847E-6,3.757062015949E-8},
    {-4.65531168342E-5,6.563938426748E-6,2.664577142906E-6,3.723648972977E-8},
    {-4.90467723803E-5,6.599649767062E-6,2.726866391201E-6,3.738026006586E-8},
    {-4.74481849276E-5,6.572846421243E-6,2.683378865591E-6,3.71574286851E-8},
    {-4.72750330996E-5,6.55252646053E-6,2.681293336472E-6,3.710402612085E-8},
    {-4.73319348051E-5,6.587123458697E-6,2.7154836386E-6,3.720674369389E-8},
    {-4.71758832134E-5,6.584294025561E-6,2.68560329958E-6,3.705180396018E-8},
    {-4.70685918016E-5,6.607985430376E-6,2.710380357581E-6,3.71747648357E-8},
    {-4.7595088634E-5,6.554358419921E-6,2.71837651153E-6,3.716292453691E-8},
    {-4.8525534748E-5,6.561481570252E-6,2.751126199007E-6,3.725830459148E-8},
    {-4.74866207723E-5,6.554593269034E-6,2.694581735596E-6,3.713146651952E-8}}},
  {{1.4019920812E-15,-1.721299414E-15,6.88160454826E-13},{Residual->3.37071233617E-17}},
  {{-.1,8.41328214952E-15},{-.07,4.95238742028E-15},{-.04,2.59318890646E-15},{-.01,1.47802263111E-15},{.02,1.60258182366E-15},
   {.05,3.02674390592E-15},{.08,5.69158447041E-15}}},
 {"Y24",1,
  {6.305131948243E-7,6.603758411811E-6,3.63298335265E-8,3.705791488173E-8,{{-4.69635421535E-5,6.584742913289E-6,2.695315380642E-6,
     3.695575890924E-8},
    {-4.48670476247E-5,6.617897499263E-6,2.716345872196E-6,3.686245359174E-8},
    {-4.50282207225E-5,6.60220482908E-6,2.600877303955E-6,3.799212508918E-8},
    {-4.64562428973E-5,6.6077252445E-6,2.676729808854E-6,3.703789681019E-8},
    {-4.50627320818E-5,6.617981658427E-6,2.702937991836E-6,3.684257668242E-8},
    {-4.60633837409E-5,6.607488014095E-6,2.627232798452E-6,3.688102797125E-8},
    {-4.60134821598E-5,6.588020603833E-6,2.667516926772E-6,3.707484437086E-8},
    {-4.53859139496E-5,6.605171772504E-6,2.620245648828E-6,3.717630601753E-8},
    {-4.63874572373E-5,6.663502198193E-6,2.602163537245E-6,3.69781100581E-8},
    {-4.49917193548E-5,6.657172117295E-6,2.676222140542E-6,3.681549772279E-8},
    {-4.66036774384E-5,6.621021445553E-6,2.706935791713E-6,3.704390864316E-8},
    {-4.54615518056E-5,6.605426560519E-6,2.654266462148E-6,3.728182686215E-8},
    {-4.60415811326E-5,6.587454402778E-6,2.718191996622E-6,3.732496157041E-8},
    {-4.64765018128E-5,6.571197789222E-6,2.645104132076E-6,3.729880300193E-8},
    {-4.56749530839E-5,6.571527682511E-6,2.665209462775E-6,3.711603192067E-8},
    {-4.65649834466E-5,6.609419812394E-6,2.69112360489E-6,3.697998590708E-8},
    {-4.57799984655E-5,6.606379849149E-6,2.685950111088E-6,3.683999654455E-8},
    {-4.51111480664E-5,6.567110319789E-6,2.715840863071E-6,3.69235443858E-8},
    {-4.53760799678E-5,6.586930489839E-6,2.632376952855E-6,3.696498110203E-8},
    {-4.52069196717E-5,6.596793033997E-6,2.668365647216E-6,3.676766047345E-8}}},
  {{1.38808437731E-15,-3.7680359279E-16,1.75944271717E-15},{Residual->2.71967236911E-18}},
  {{-.3,1.65921484921E-15},{-.2,1.53426657386E-15},{-.1,1.44198873821E-15},{5.55111512313E-17,1.38969292709E-15},
   {.1,1.37086441358E-15},{.2,1.37736934003E-15},{.3,1.43583776002E-15}}},
 {"Y46",1,
  {7.691312246266E-7,6.593104127843E-6,3.330394426083E-8,3.684375461681E-8,{{-4.5328557807E-5,6.573378264808E-6,2.687457747176E-6,
     3.669742583554E-8},
    {-4.63334854706E-5,6.586388437289E-6,2.699338038736E-6,3.677916477538E-8},
    {-4.51775007316E-5,6.565547953484E-6,2.658759869553E-6,3.667441435581E-8},
    {-4.52286553451E-5,6.59999595579E-6,2.644866393519E-6,3.72982605969E-8},
    {-4.53665469815E-5,6.567966412954E-6,2.659762257276E-6,3.672910819863E-8},
    {-4.59637313174E-5,6.604969653297E-6,2.678775093392E-6,3.704811671691E-8},
    {-4.72101631209E-5,6.574825504679E-6,2.608422046135E-6,3.708512369155E-8},
    {-4.6554137985E-5,6.630691826951E-6,2.651854832201E-6,3.680663399554E-8},
    {-4.60711913668E-5,6.60324943195E-6,2.684234413594E-6,3.676994716183E-8},
    {-4.44090425693E-5,6.625675406235E-6,2.657919512901E-6,3.676858631771E-8},
    {-4.55995554086E-5,6.591058019385E-6,2.689845379303E-6,3.674037955431E-8},
    {-4.56392765437E-5,6.585761641849E-6,2.669560216774E-6,3.674864516812E-8},
    {-4.54161463173E-5,6.606245108705E-6,2.652549835219E-6,3.670960304316E-8},
    {-4.5522972321E-5,6.582271834108E-6,2.754645520409E-6,3.672503127064E-8},
    {-4.77626713702E-5,6.608730550233E-6,2.628069500419E-6,3.688418206023E-8},
    {-4.63706928359E-5,6.571925698938E-6,2.709612152329E-6,3.681312424868E-8},
    {-4.58177357198E-5,6.617385308452E-6,2.646465278164E-6,3.673244401749E-8},
    {-4.61699967274E-5,6.603244501933E-6,2.613716331114E-6,3.69413023923E-8},
    {-4.70743779754E-5,6.590222612937E-6,2.657438536926E-6,3.71283913306E-8},
    {-4.58085219118E-5,6.572548432891E-6,2.695831333821E-6,3.679520760488E-8}}},
  {{1.3794720605E-15,2.59226380687E-16,5.25471234372E-15},{Residual->4.41711922576E-17}},
  {{-.45,2.36670047579E-15},{-.3,1.74421747923E-15},{-.15,1.40663669435E-15},{-5.5511151231E-17,1.37377773361E-15},
   {.15,1.57385687177E-15},{.3,1.99468482859E-15},{.45,2.5068991167E-15}}},
 {"Y22",1,
  {7.23019321558E-7,6.596125096045E-6,2.356756292487E-8,3.685270124756E-8,{{-4.55508688961E-5,6.585249249649E-6,2.714891786493E-6,
     3.676935179641E-8},
    {-4.66844235584E-5,6.580232486851E-6,2.668031653689E-6,3.686327008096E-8},
    {-4.61415267269E-5,6.569616413588E-6,2.673910321641E-6,3.67544003279E-8},
    {-4.53710250073E-5,6.572413769324E-6,2.65561399664E-6,3.709224837803E-8},
    {-4.61201791334E-5,6.612139025464E-6,2.676609819761E-6,3.676845516773E-8},
    {-4.58329173645E-5,6.582517487598E-6,2.700999537644E-6,3.69991493071E-8},
    {-4.73484915424E-5,6.610131597314E-6,2.688133945446E-6,3.690264438871E-8},
    {-4.54200280474E-5,6.649178726278E-6,2.712931736337E-6,3.702957047065E-8},
    {-4.57930806762E-5,6.619596968962E-6,2.711753972034E-6,3.675968165607E-8},
    {-4.66132778072E-5,6.617280394404E-6,2.666982651119E-6,3.691416950467E-8},
    {-4.51594467215E-5,6.622608928346E-6,2.644733773593E-6,3.670880112476E-8},
    {-4.56216672622E-5,6.595375200384E-6,2.673725281861E-6,3.68714101606E-8},
    {-4.71372089276E-5,6.577992607167E-6,2.688598496376E-6,3.685369591905E-8},
    {-4.54557708913E-5,6.598709763536E-6,2.667277609388E-6,3.671789049488E-8},
    {-4.61831088741E-5,6.583491802991E-6,2.638177437049E-6,3.689255404559E-8},
    {-4.57075464442E-5,6.571878491317E-6,2.663739883955E-6,3.674645818607E-8},
    {-4.56163676128E-5,6.602520708612E-6,2.651547689091E-6,3.673338220587E-8},
    {-4.56712253269E-5,6.585410354279E-6,2.643897520768E-6,3.70135324374E-8},
    {-4.75281030149E-5,6.585332998955E-6,2.701207256166E-6,3.699034728888E-8},
    {-4.47312895902E-5,6.600824945886E-6,2.700087226111E-6,3.667301200987E-8}}},
  {{2.40736380756E-15,8.96679118589E-16,2.71268611033E-14},{Residual->5.35417961988E-16}},
  {{-.6,1.13213270337E-14},{-.4,6.95443554867E-15},{-.2,3.65564970745E-15},{1.11022302463E-16,1.35432088203E-15},
   {.2,3.82665255332E-15},{.4,7.64048367367E-15},{.6,1.24807616898E-14}}},
 {"Y26",1,
  {6.258384759554E-7,6.595499123916E-6,2.288891139263E-8,3.680767559366E-8,{{-4.5169588525E-5,6.579651995734E-6,2.658198708501E-6,
     3.67005705476E-8},
    {-4.62155958136E-5,6.660033955707E-6,2.678406128505E-6,3.690138797104E-8},
    {-4.67075987179E-5,6.605341164093E-6,2.670704265714E-6,3.681828539652E-8},
    {-4.55744948425E-5,6.584834299137E-6,2.674832584965E-6,3.690500539141E-8},
    {-4.63236846735E-5,6.583684024638E-6,2.715812589303E-6,3.685181318244E-8},
    {-4.66653710205E-5,6.575825051863E-6,2.679732374884E-6,3.683189405805E-8},
    {-4.63878708829E-5,6.571436876463E-6,2.693266189682E-6,3.678607264191E-8},
    {-4.66999364609E-5,6.588618832607E-6,2.668342305703E-6,3.68815593516E-8},
    {-4.59753195203E-5,6.586986351931E-6,2.702835354724E-6,3.674885176399E-8},
    {-4.58767841494E-5,6.605923878674E-6,2.711001915213E-6,3.687787070492E-8},
    {-4.53176188543E-5,6.631137250703E-6,2.69466094463E-6,3.681341952011E-8},
    {-4.65314258565E-5,6.574711185846E-6,2.689093087339E-6,3.681891912342E-8},
    {-4.48957285618E-5,6.601415938023E-6,2.708232654651E-6,3.665162223736E-8},
    {-4.54434347404E-5,6.584663250698E-6,2.707212604351E-6,3.671596805885E-8},
    {-4.49472785955E-5,6.601721501505E-6,2.647452162183E-6,3.687856505109E-8},
    {-4.56643740843E-5,6.620961010922E-6,2.677263372996E-6,3.677083185088E-8},
    {-4.57096349843E-5,6.57147966847E-6,2.713853727274E-6,3.674355218066E-8},
    {-4.68869905302E-5,6.583089616704E-6,2.667861897888E-6,3.682615782048E-8},
    {-4.61203924471E-5,6.605032079137E-6,2.657880062667E-6,3.682495275496E-8},
    {-4.69101581932E-5,6.593434545471E-6,2.632602877912E-6,3.680621226595E-8}}},
  {{1.55813909228E-15,1.24564862617E-15,7.27952163839E-14},{Residual->1.7297074755E-16}},
  {{-.3,7.55378321455E-15},{-.2,4.43083747228E-15},{-.1,2.39599053514E-15},{5.55111512313E-17,1.35910004382E-15},
   {.1,2.23425538196E-15},{.2,4.77442686243E-15},{.3,8.54124072326E-15}}},
 {"Y66",1,
  {6.615744868414E-7,6.58846654942E-6,2.575421188048E-8,3.685856557646E-8,{{-4.70170450327E-5,6.589620663881E-6,2.697978479755E-6,
     3.689337317549E-8},
    {-4.45660774929E-5,6.599275129561E-6,2.67850973565E-6,3.67954714375E-8},
    {-4.55036042654E-5,6.568780738584E-6,2.713035175382E-6,3.673634953609E-8},
    {-4.56676082544E-5,6.596945209949E-6,2.673426885313E-6,3.703755720803E-8},
    {-4.48564608949E-5,6.573290512535E-6,2.635950757463E-6,3.72075495185E-8},
    {-4.66466102238E-5,6.60348159074E-6,2.640308241542E-6,3.680247655999E-8},
    {-4.62053850477E-5,6.60119672952E-6,2.702463072199E-6,3.688555076917E-8},
    {-4.6213833337E-5,6.569598159253E-6,2.661926341094E-6,3.688932880994E-8},
    {-4.6848367341E-5,6.590751751546E-6,2.667882545585E-6,3.680240662036E-8},
    {-4.68499055671E-5,6.585627927338E-6,2.723887746269E-6,3.682114283024E-8},
    {-4.62312504516E-5,6.570982469362E-6,2.672964252322E-6,3.674990134749E-8},
    {-4.59161705323E-5,6.596103578746E-6,2.668496219831E-6,3.676631873092E-8},
    {-4.52608977237E-5,6.584449905917E-6,2.673139812577E-6,3.665501739164E-8},
    {-4.57320194493E-5,6.604491940562E-6,2.670051247732E-6,3.673341389824E-8},
    {-4.53207794663E-5,6.585808012163E-6,2.656315382816E-6,3.688471516503E-8},
    {-4.5454405185E-5,6.569044390918E-6,2.692026043848E-6,3.675351495675E-8},
    {-4.58279063139E-5,6.579512326101E-6,2.657589648841E-6,3.678330683978E-8},
    {-4.64573558047E-5,6.591752243652E-6,2.685223974674E-6,3.68593640691E-8},
    {-4.5260141064E-5,6.623504449367E-6,2.72804815655E-6,3.710994872497E-8},
    {-4.56085686198E-5,6.585113258714E-6,2.638686821612E-6,3.700460394005E-8}}},
  {{3.42777888758E-15,-1.4967283163E-14,1.47359498633E-12},{Residual->1.20551557189E-15}},
  {{-.2,6.53997983232E-14},{-.15,3.95296070108E-14},{-.1,1.9789663883E-14},{-.05,6.94235037614E-15},{0,1.35780391723E-15},
   {.05,7.05185845183E-15},{.1,1.85699892317E-14},{.15,3.53767409139E-14},{.2,5.787144583E-14}}},
 {"Y44",1,
  {5.48920683729E-7,6.594963861205E-6,2.863506837847E-8,3.687930171443E-8,{{-4.55868307782E-5,6.567007621556E-6,2.686954210294E-6,
     3.672158171251E-8},
    {-4.67291976424E-5,6.626913148209E-6,2.66859562309E-6,3.702941352549E-8},
    {-4.58018183087E-5,6.588495673368E-6,2.699205041857E-6,3.674825852382E-8},
    {-4.67577593444E-5,6.580580862629E-6,2.682034114083E-6,3.680333566023E-8},
    {-4.6488672612E-5,6.60811563685E-6,2.656200309523E-6,3.693876605686E-8},
    {-4.59493656805E-5,6.596299291023E-6,2.614877166475E-6,3.686576686743E-8},
    {-4.55131177564E-5,6.59587601345E-6,2.639589244367E-6,3.688451629968E-8},
    {-4.62048776547E-5,6.662674646034E-6,2.712413206269E-6,3.709523819432E-8},
    {-4.64130611217E-5,6.597773248192E-6,2.707845346312E-6,3.697009132521E-8},
    {-4.67852687077E-5,6.57354087776E-6,2.657522728534E-6,3.682642209088E-8},
    {-4.47194974689E-5,6.583150988749E-6,2.658271163239E-6,3.710507775428E-8},
    {-4.60879094059E-5,6.602142782878E-6,2.639767119734E-6,3.676134598761E-8},
    {-4.65200223725E-5,6.574877534178E-6,2.694719760453E-6,3.693552224537E-8},
    {-4.57755790499E-5,6.589885154953E-6,2.668892154814E-6,3.677139779515E-8},
    {-4.51916857215E-5,6.586451198827E-6,2.617948396418E-6,3.702157218391E-8},
    {-4.65462673976E-5,6.589387078762E-6,2.652041773144E-6,3.680111960351E-8},
    {-4.65116840543E-5,6.583203258124E-6,2.719198613034E-6,3.694374934163E-8},
    {-4.59883738694E-5,6.588114289502E-6,2.685655185676E-6,3.677400802971E-8},
    {-4.56454033635E-5,6.590822423509E-6,2.684483234815E-6,3.687315638218E-8},
    {-4.56374040865E-5,6.613965495558E-6,2.666974040897E-6,3.671569470885E-8}}},
  {{1.79720828319E-15,-1.0552550552E-16,1.45527997627E-14},{Residual->2.50106467193E-16}},
  {{-.6,7.04563326473E-15},{-.4,4.37849806645E-15},{-.2,2.37550767354E-15},{1.11022302463E-16,1.361204838E-15},
   {.2,2.51788907116E-15},{.4,4.4420107097E-15},{.6,6.75885009305E-15}}},
 {"AY",1,
  {6.550942852603E-7,6.592489671508E-6,2.106052294249E-8,3.681549383375E-8,{{-4.60850234975E-5,6.570341564257E-6,2.641100827618E-6,
     3.676018832861E-8},
    {-4.48214880048E-5,6.63894998071E-6,2.681609303597E-6,3.667832192443E-8},
    {-4.63084302298E-5,6.588196095611E-6,2.667492205032E-6,3.673976032996E-8},
    {-4.65279341811E-5,6.584171623792E-6,2.661716523221E-6,3.701923441999E-8},
    {-4.58293360255E-5,6.632762317889E-6,2.670547612146E-6,3.67125061689E-8},
    {-4.68267590221E-5,6.574442589918E-6,2.685849256775E-6,3.678919017176E-8},
    {-4.65988795814E-5,6.579619958198E-6,2.679458766855E-6,3.673388154589E-8},
    {-4.63536766162E-5,6.588177816937E-6,2.656583275805E-6,3.675601419394E-8},
    {-4.70273145673E-5,6.591633413254E-6,2.717111177296E-6,3.687104410564E-8},
    {-4.63842195371E-5,6.571693152078E-6,2.643419784154E-6,3.731681767348E-8},
    {-4.67376909397E-5,6.583758079663E-6,2.680399575189E-6,3.675325469285E-8},
    {-4.66945646149E-5,6.589485998429E-6,2.684645246696E-6,3.678003529484E-8},
    {-4.54430529551E-5,6.57217543236E-6,2.655618554192E-6,3.676612284918E-8},
    {-4.53820312027E-5,6.606397931017E-6,2.65227540121E-6,3.672700835116E-8},
    {-4.72049306837E-5,6.5810955899E-6,2.675492938256E-6,3.685852223615E-8},
    {-4.5431999625E-5,6.61107208011E-6,2.667401945783E-6,3.673273068303E-8},
    {-4.57878452327E-5,6.600798495783E-6,2.661270409993E-6,3.678198076342E-8},
    {-4.64184491422E-5,6.606383131121E-6,2.685336188979E-6,3.68794002023E-8},
    {-4.74607276908E-5,6.591472339638E-6,2.638376710635E-6,3.696036897766E-8},
    {-4.60317703251E-5,6.587165839493E-6,2.717042709632E-6,3.669349376173E-8}}},
  {{1.21803276077E-15,3.17590721884E-15,1.13388096016E-12},{Residual->1.17810615533E-16}},
  {{-.1,1.23583014451E-14},{-.07,6.35344900637E-15},{-.04,2.85969916718E-15},{-.01,1.41955226348E-15},{.02,1.84559536842E-15},
   {.05,4.09003823298E-15},{.08,8.74479720466E-15}}},
 {"EY",1,
  {6.958672328242E-7,6.602151401444E-6,2.379619753415E-8,3.660028687309E-8,{{-4.73751972426E-5,6.627020564396E-6,2.170392397557E-6,
     3.655717118125E-8},
    {-4.75180258119E-5,6.586399982086E-6,2.157436887608E-6,3.653593218627E-8},
    {-4.67902070179E-5,6.573501786235E-6,2.141809065479E-6,3.654415912701E-8},
    {-4.67116855842E-5,6.613251969379E-6,2.118220541578E-6,3.672803720243E-8},
    {-4.70093704397E-5,6.578506846351E-6,2.146913467977E-6,3.682881941551E-8},
    {-4.79251790702E-5,6.611098859112E-6,2.162796081691E-6,3.657136129298E-8},
    {-4.71465355199E-5,6.610030477248E-6,2.180097948802E-6,3.651130561284E-8},
    {-4.69186808496E-5,6.614049454501E-6,2.141540776176E-6,3.652646896898E-8},
    {-4.7486861519E-5,6.606133935766E-6,2.129468354662E-6,3.654447448156E-8},
    {-4.78927239181E-5,6.577664314257E-6,2.190515542853E-6,3.662013675847E-8},
    {-4.68822617699E-5,6.607537701776E-6,2.180012789269E-6,3.64909761679E-8},
    {-4.71659852683E-5,6.630211128567E-6,2.158180058037E-6,3.657441830425E-8},
    {-4.71807173756E-5,6.57760028027E-6,2.143757990964E-6,3.651092999469E-8},
    {-4.64716118231E-5,6.584422554063E-6,2.152902834537E-6,3.650686605772E-8},
    {-4.73202973262E-5,6.609163263647E-6,2.108001681814E-6,3.683207323062E-8},
    {-4.74856788585E-5,6.604831291761E-6,2.18639870941E-6,3.654093296115E-8},
    {-4.8882662689E-5,6.629629452912E-6,2.158682492474E-6,3.669686743588E-8},
    {-4.88255940674E-5,6.588776078706E-6,2.16574432961E-6,3.663032458063E-8},
    {-4.8964987287E-5,6.589654789188E-6,2.137952557431E-6,3.663787060847E-8},
    {-4.7325989994E-5,6.623543298665E-6,2.104678411746E-6,3.661661189327E-8}}},
  {{1.32582683989E-15,2.04673760736E-15,4.73351273695E-13},{Residual->1.15034651894E-17}},
  {{-.1,5.86400950374E-15},{-.07,3.48481064302E-15},{-.04,2.00081202661E-15},{-.01,1.36852188924E-15},{.02,1.54316702872E-15},
   {.05,2.62172644495E-15},{.08,4.51426669912E-15}}},
 {"R32",1,
  {8.387755753001E-7,6.601984815622E-6,2.80953226537E-8,3.65182608951E-8,{{-4.67883655547E-5,6.587038197614E-6,1.48836095135E-6,
     3.642102552424E-8},
    {-4.81647349033E-5,6.615799651522E-6,1.501427478556E-6,3.648406907813E-8},
    {-4.60233794931E-5,6.606381098532E-6,1.555391781899E-6,3.633714561351E-8},
    {-4.53125078351E-5,6.591751238979E-6,1.526485133315E-6,3.637865796937E-8},
    {-4.71835991132E-5,6.626316583553E-6,1.540368980586E-6,3.692022959817E-8},
    {-4.71706259755E-5,6.580247161692E-6,1.544214887055E-6,3.654747214143E-8},
    {-4.69844369217E-5,6.601896700393E-6,1.481312709115E-6,3.635755799481E-8},
    {-4.78503817646E-5,6.610327911247E-6,1.53092275349E-6,3.63558707722E-8},
    {-4.57518539037E-5,6.642647640054E-6,1.458169277744E-6,3.655847944753E-8},
    {-4.83473200304E-5,6.578134511464E-6,1.535370833404E-6,3.652944179614E-8},
    {-4.71308343169E-5,6.590304519074E-6,1.504689115716E-6,3.641024403596E-8},
    {-4.62698860674E-5,6.638022903748E-6,1.528791639083E-6,3.635794133394E-8},
    {-4.68690040743E-5,6.603544990825E-6,1.55158502478E-6,3.634706996966E-8},
    {-4.74064811235E-5,6.613946106E-6,1.507257738408E-6,3.634295969811E-8},
    {-4.64429166658E-5,6.619025046362E-6,1.482028832105E-6,3.670687302942E-8},
    {-4.63932412318E-5,6.6034736654E-6,1.538395929374E-6,3.64066354434E-8},
    {-4.65777186912E-5,6.575777637329E-6,1.557864396532E-6,3.692216756072E-8},
    {-4.7459208075E-5,6.5719203498E-6,1.483061677528E-6,3.699312178034E-8},
    {-4.69349778034E-5,6.572619511314E-6,1.514759387796E-6,3.668492681865E-8},
    {-4.50909639129E-5,6.610520887528E-6,1.540820285402E-6,3.630332829623E-8}}},
  {{1.37039006836E-15,-2.5214450181E-15,6.9330012943E-13},{Residual->3.34779898485E-17}},
  {{-.1,8.55462101832E-15},{-.07,4.91262955355E-15},{-.04,2.65227694695E-15},{-.01,1.44142859838E-15},{.02,1.56535148946E-15},
   {.05,2.98760049615E-15},{.08,5.61179687921E-15}}},
 {"Y24",1,
  {6.131806160194E-7,6.604886248649E-6,2.988887228126E-8,3.674203073741E-8,{{-4.86046037683E-5,6.576448470594E-6,1.623548037261E-6,
     3.840918483831E-8},
    {-4.9138017926E-5,6.583046932978E-6,1.631615816714E-6,3.694943206355E-8},
    {-4.85812027653E-5,6.640906364793E-6,1.637317870155E-6,3.647363929491E-8},
    {-4.89823809775E-5,6.584449240954E-6,1.635486919348E-6,3.71640583525E-8},
    {-4.88979605903E-5,6.584441008504E-6,1.654353129684E-6,3.737994186665E-8},
    {-4.84282916891E-5,6.594952499118E-6,1.658637315968E-6,3.718039181859E-8},
    {-4.84181054346E-5,6.652478934421E-6,1.674585021832E-6,3.630413927769E-8},
    {-4.71493161742E-5,6.579752109366E-6,1.629875188444E-6,3.695837431066E-8},
    {-4.8105103577E-5,6.677156251086E-6,1.674099564639E-6,3.61789697328E-8},
    {-4.72924701785E-5,6.584342221703E-6,1.713871313199E-6,3.629927469347E-8},
    {-4.82618279524E-5,6.681054311975E-6,1.714862621994E-6,3.588430346861E-8},
    {-4.88145420976E-5,6.592063557333E-6,1.678241386706E-6,3.654168856568E-8},
    {-4.87963703815E-5,6.579381400307E-6,1.657455571772E-6,3.706063791777E-8},
    {-4.75211085542E-5,6.615010976801E-6,1.719044586746E-6,3.607349374814E-8},
    {-4.79512502261E-5,6.582023669335E-6,1.689708190658E-6,3.663303411915E-8},
    {-4.8340996919E-5,6.581858704234E-6,1.694139823848E-6,3.689459432018E-8},
    {-4.9673365341E-5,6.628668895976E-6,1.712563774551E-6,3.589276924593E-8},
    {-4.78207379088E-5,6.591206500094E-6,1.671450553856E-6,3.711847341083E-8},
    {-4.86769293382E-5,6.591101739022E-6,1.645770570115E-6,3.648359499992E-8},
    {-4.86760255225E-5,6.597381184384E-6,1.664254568224E-6,3.696061870281E-8}}},
  {{1.35040017078E-15,-2.6503175835E-16,1.7946113607E-15},{Residual->6.99138369643E-18}},
  {{-.3,1.59175993841E-15},{-.2,1.47586453211E-15},{-.1,1.39352309525E-15},{5.55111512313E-17,1.35257133398E-15},
   {.1,1.33152399144E-15},{.2,1.38322939589E-15},{.3,1.42682008938E-15}}},
 {"Y46",1,
  {7.722368889712E-7,6.593679579444E-6,3.293496102229E-8,3.602475148751E-8,{{-4.92723310493E-5,6.591552026628E-6,1.696293849869E-6,
     3.581170372472E-8},
    {-4.79439103895E-5,6.581735837049E-6,1.690477770837E-6,3.602178508572E-8},
    {-4.85548322271E-5,6.573321327714E-6,1.684470286321E-6,3.617648003192E-8},
    {-4.85494923764E-5,6.588925784712E-6,1.726159465761E-6,3.589139906403E-8},
    {-4.90152509922E-5,6.605564303406E-6,1.655640584836E-6,3.648107085762E-8},
    {-4.77000893337E-5,6.587462527809E-6,1.748839316748E-6,3.589474089128E-8},
    {-4.84656844329E-5,6.604428218935E-6,1.747045994059E-6,3.58260585851E-8},
    {-4.93093594311E-5,6.579063696528E-6,1.666162552588E-6,3.60079648824E-8},
    {-4.6515312361E-5,6.602203577297E-6,1.630733869652E-6,3.639421459809E-8},
    {-4.85712031532E-5,6.591967049432E-6,1.713530433763E-6,3.581701998091E-8},
    {-4.78125917147E-5,6.602037178659E-6,1.713686575818E-6,3.588550246561E-8},
    {-4.84933957496E-5,6.574922757141E-6,1.669412335209E-6,3.595933007076E-8},
    {-4.75242634626E-5,6.600552853732E-6,1.692288880047E-6,3.592780786331E-8},
    {-4.68736796806E-5,6.617527167287E-6,1.667322901986E-6,3.612258167466E-8},
    {-4.78396079917E-5,6.573247545788E-6,1.676815466536E-6,3.621852103605E-8},
    {-4.93745537366E-5,6.573063270691E-6,1.642593478408E-6,3.593874560548E-8},
    {-4.8523776616E-5,6.596439020035E-6,1.678502241683E-6,3.59294987275E-8},
    {-4.92780988081E-5,6.607600514839E-6,1.637650940518E-6,3.580851124805E-8},
    {-4.80058752198E-5,6.574012251658E-6,1.677887806296E-6,3.597655043618E-8},
    {-4.78600955015E-5,6.64796467954E-6,1.647893179001E-6,3.640554292086E-8}}},
  {{1.34875650808E-15,7.834090589E-16,5.70141215365E-15},{Residual->4.81588143894E-17}},
  {{-.45,2.18661087393E-15},{-.3,1.60048571776E-15},{-.15,1.31858195598E-15},{-5.5511151231E-17,1.33312767278E-15},
   {.15,1.61307039273E-15},{.3,2.18729213258E-15},{.45,2.7940164676E-15}}},
 {"Y22",1,
  {6.540296805964E-7,6.599943163048E-6,2.360723745496E-8,3.601465528225E-8,{{-4.7469249022E-5,6.596011557722E-6,1.643398587134E-6,
     3.591381019304E-8},
    {-4.76250976584E-5,6.574465501644E-6,1.650275613602E-6,3.645843011535E-8},
    {-4.84587106522E-5,6.618322953833E-6,1.675782583516E-6,3.582740839161E-8},
    {-4.837906729E-5,6.595382196042E-6,1.706982810903E-6,3.587094642661E-8},
    {-4.76788331756E-5,6.572579861869E-6,1.650941264489E-6,3.604526398221E-8},
    {-4.78424112474E-5,6.620632645632E-6,1.654705477231E-6,3.621572751772E-8},
    {-4.85725470826E-5,6.573416027071E-6,1.65258885154E-6,3.631217919918E-8},
    {-4.74286773332E-5,6.566909725682E-6,1.700406963701E-6,3.607687046967E-8},
    {-4.70355422749E-5,6.584309095935E-6,1.673552256478E-6,3.597175081049E-8},
    {-4.78503240238E-5,6.585737877836E-6,1.643577869627E-6,3.641259802642E-8},
    {-4.90782971896E-5,6.572710561191E-6,1.652460804321E-6,3.604990623902E-8},
    {-4.78685020824E-5,6.62371462068E-6,1.701126825533E-6,3.604885639132E-8},
    {-4.87201474574E-5,6.606945759145E-6,1.647928616108E-6,3.580997520579E-8},
    {-4.69438749036E-5,6.597291926125E-6,1.669683642141E-6,3.597222809436E-8},
    {-4.73599580467E-5,6.660336862374E-6,1.633682596371E-6,3.615278346331E-8},
    {-4.82560520439E-5,6.573483165777E-6,1.706325820252E-6,3.598121641186E-8},
    {-4.84680964656E-5,6.634708067187E-6,1.686174044828E-6,3.576466747856E-8},
    {-4.87531037993E-5,6.603263107818E-6,1.641679613914E-6,3.58700537378E-8},
    {-4.94260260777E-5,6.610335017453E-6,1.695278501789E-6,3.574911910299E-8},
    {-4.79491414076E-5,6.628306729935E-6,1.657101514526E-6,3.57893143877E-8}}},
  {{2.34102771112E-15,1.0059356337E-15,2.65331995598E-14},{Residual->5.28205424471E-16}},
  {{-.6,1.09404141837E-14},{-.4,6.75946437442E-15},{-.2,3.61602094774E-15},{1.11022302463E-16,1.29293293698E-15},
   {.2,3.73878281589E-15},{.4,7.41963769787E-15},{.6,1.23371245282E-14}}},
 {"Y26",1,
  {6.217414897872E-7,6.599678324297E-6,2.558308026193E-8,3.576659227612E-8,{{-4.88864294849E-5,6.577562833601E-6,1.68922571575E-6,
     3.568700704619E-8},
    {-4.83011996929E-5,6.603999404331E-6,1.698888303234E-6,3.577167465379E-8},
    {-4.76221325766E-5,6.645752591602E-6,1.725039831469E-6,3.557850327728E-8},
    {-4.80109835293E-5,6.616926597173E-6,1.665027000245E-6,3.584677255894E-8},
    {-4.92857782887E-5,6.616535854533E-6,1.674137092656E-6,3.560484802282E-8},
    {-4.95142181744E-5,6.58683395117E-6,1.629876238729E-6,3.604052755864E-8},
    {-4.84940255836E-5,6.601690488082E-6,1.70182190901E-6,3.566585507988E-8},
    {-4.72729825295E-5,6.596071556056E-6,1.694973004781E-6,3.584866928154E-8},
    {-4.84460890286E-5,6.576836221179E-6,1.669156662134E-6,3.58112425689E-8},
    {-4.83084208765E-5,6.57541284742E-6,1.685002938134E-6,3.581626230302E-8},
    {-4.80709333641E-5,6.579655632421E-6,1.688958499055E-6,3.575901858422E-8},
    {-4.89984469137E-5,6.639022570353E-6,1.65373864659E-6,3.579348661902E-8},
    {-4.85638978847E-5,6.602171178884E-6,1.67710012828E-6,3.576958738529E-8},
    {-4.93956639602E-5,6.613827788224E-6,1.735001152366E-6,3.578178698866E-8},
    {-4.78365223097E-5,6.581772581771E-6,1.677962120327E-6,3.586182163833E-8},
    {-4.85186572403E-5,6.627377848985E-6,1.649351028828E-6,3.57604275891E-8},
    {-4.8014180057E-5,6.574591116288E-6,1.714284568602E-6,3.575033968924E-8},
    {-4.95156408403E-5,6.599952786078E-6,1.701349496116E-6,3.560175606315E-8},
    {-4.82282720333E-5,6.587110306863E-6,1.654004016048E-6,3.577648323802E-8},
    {-4.79055832904E-5,6.59046233092E-6,1.669915225454E-6,3.58057753764E-8}}},
  {{1.46472659532E-15,-7.0437251846E-16,7.40864560629E-14},{Residual->1.12954492127E-16}},
  {{-.3,8.25175084432E-15},{-.2,4.6394100942E-15},{-.1,2.48214925738E-15},{5.55111512313E-17,1.30178900855E-15},
   {.1,2.06476232345E-15},{.2,4.29308040741E-15},{.3,7.96435192959E-15}}},
 {"Y66",1,
  {9.52147533063E-7,6.592070142835E-6,2.028533904437E-8,3.578467351155E-8,{{-4.91605765613E-5,6.576089940123E-6,1.718560347255E-6,
     3.572206407232E-8},
    {-4.89464128249E-5,6.611153905826E-6,1.639686830879E-6,3.574498102012E-8},
    {-4.81746997122E-5,6.603629555948E-6,1.65691848241E-6,3.582615880634E-8},
    {-4.78978316085E-5,6.571189286953E-6,1.707203908297E-6,3.577154540167E-8},
    {-4.96097588685E-5,6.573445593187E-6,1.70066021767E-6,3.578008107661E-8},
    {-4.87357136304E-5,6.605067162366E-6,1.702739449483E-6,3.590281854246E-8},
    {-4.70020910297E-5,6.582111668345E-6,1.666665510312E-6,3.614485467359E-8},
    {-4.70590705806E-5,6.583001285629E-6,1.666750418549E-6,3.572982095862E-8},
    {-4.75908740426E-5,6.61884164142E-6,1.66240822203E-6,3.568622647736E-8},
    {-4.97104508926E-5,6.592855315911E-6,1.66210951414E-6,3.564233725896E-8},
    {-4.84297650414E-5,6.59891111471E-6,1.693454517061E-6,3.565773611838E-8},
    {-4.70495666698E-5,6.601982818077E-6,1.664726982545E-6,3.571746868966E-8},
    {-4.69758661036E-5,6.583535842074E-6,1.665825439111E-6,3.574374021956E-8},
    {-4.92882819667E-5,6.598535198389E-6,1.675719439245E-6,3.56474816335E-8},
    {-4.85262621661E-5,6.571938109802E-6,1.692976178845E-6,3.579116314574E-8},
    {-4.68931545156E-5,6.568914822681E-6,1.666824708145E-6,3.581064143636E-8},
    {-4.80153719467E-5,6.568387011765E-6,1.664620207494E-6,3.622673445324E-8},
    {-4.80916676284E-5,6.574636295081E-6,1.682547213534E-6,3.587913265364E-8},
    {-4.66987472476E-5,6.646803426294E-6,1.661832312745E-6,3.567729822754E-8},
    {-4.90829230839E-5,6.610372862111E-6,1.701800882818E-6,3.559118536536E-8}}},
  {{3.48577592622E-15,-7.9773049252E-15,1.37907606994E-12},{Residual->1.11315036604E-15}},
  {{-.2,6.04420909584E-14},{-.15,3.56921623168E-14},{-.1,1.85496760734E-14},{-.05,6.95218914821E-15},{0,1.28672705552E-15},
   {.05,7.40006709485E-15},{.1,1.86161126662E-14},{.15,3.28452891765E-14},{.2,5.64490793367E-14}}},
 {"Y44",1,
  {4.631975681889E-7,6.600131706569E-6,1.76914953386E-8,3.573466370369E-8,{{-4.84163398563E-5,6.576299691538E-6,1.668120755396E-6,
     3.594365236593E-8},
    {-4.81862959009E-5,6.60665940163E-6,1.674821111198E-6,3.571258808539E-8},
    {-4.84788480913E-5,6.623487381187E-6,1.694186053092E-6,3.564252420251E-8},
    {-4.87752894676E-5,6.573142100621E-6,1.702518922943E-6,3.569221342388E-8},
    {-4.7556240888E-5,6.672989595246E-6,1.654925598934E-6,3.5621639123E-8},
    {-4.78917172751E-5,6.604643397571E-6,1.676813174782E-6,3.572273416509E-8},
    {-4.79769643532E-5,6.601967631869E-6,1.667596539733E-6,3.575008612786E-8},
    {-4.90499675032E-5,6.648826366439E-6,1.706188309206E-6,3.553362387792E-8},
    {-4.85141437823E-5,6.573203406977E-6,1.663171269758E-6,3.610767407606E-8},
    {-4.85059533839E-5,6.578094324612E-6,1.656850127517E-6,3.587434824865E-8},
    {-4.7693382006E-5,6.620966600092E-6,1.683427818246E-6,3.565370144926E-8},
    {-4.87297404069E-5,6.595899207736E-6,1.670176577372E-6,3.566237143759E-8},
    {-4.77775043639E-5,6.589693170855E-6,1.641375064879E-6,3.580055933691E-8},
    {-4.72349998872E-5,6.605916547611E-6,1.686069069962E-6,3.568957655325E-8},
    {-4.83981212505E-5,6.601342568377E-6,1.670154631088E-6,3.565233529664E-8},
    {-4.74541063275E-5,6.576859662715E-6,1.696629985462E-6,3.568499444251E-8},
    {-4.82977584801E-5,6.6031950045E-6,1.689750356043E-6,3.566301218681E-8},
    {-4.79438068066E-5,6.573817834829E-6,1.647099892852E-6,3.571438572207E-8},
    {-4.78860720097E-5,6.572565948098E-6,1.655798314488E-6,3.589697423913E-8},
    {-4.81107593299E-5,6.603064288878E-6,1.674268262766E-6,3.567427971332E-8}}},
  {{1.66491745141E-15,1.68770941086E-16,1.50649504945E-14},{Residual->1.99590097091E-16}},
  {{-.6,6.95209476159E-15},{-.4,4.12165258409E-15},{-.2,2.30287925234E-15},{1.11022302463E-16,1.28022954951E-15},
   {.2,2.42624579721E-15},{.4,4.41085412898E-15},{.6,7.03321064007E-15}}},
 {"OCT1",1,
  {5.702595279287E-7,6.592073805138E-6,2.811659511928E-8,3.576451802737E-8,{{-4.76084143035E-5,6.568876373822E-6,1.670490248444E-6,
     3.577006187949E-8},
    {-4.81255197061E-5,6.601418053475E-6,1.657480319308E-6,3.568053497865E-8},
    {-4.7983351859E-5,6.586341460952E-6,1.706926371451E-6,3.582611146025E-8},
    {-4.75244919666E-5,6.569138575872E-6,1.650118983638E-6,3.576329933446E-8},
    {-4.72068042529E-5,6.593029115685E-6,1.69086991668E-6,3.579214525812E-8},
    {-4.89825309743E-5,6.578417706215E-6,1.714562719142E-6,3.570080825494E-8},
    {-4.76888373244E-5,6.589100841466E-6,1.62212458586E-6,3.64895484965E-8},
    {-4.77393668413E-5,6.570568984103E-6,1.694346017282E-6,3.579930060986E-8},
    {-4.8835063273E-5,6.593294672917E-6,1.704126949107E-6,3.569673584875E-8},
    {-4.82072036196E-5,6.590653924367E-6,1.656186465993E-6,3.578823620817E-8},
    {-4.75328767394E-5,6.600876512489E-6,1.7077645831E-6,3.565746672444E-8},
    {-4.8143443914E-5,6.606774774683E-6,1.634357223203E-6,3.573925174537E-8},
    {-4.72144968758E-5,6.61631443952E-6,1.642614869343E-6,3.576377950538E-8},
    {-4.83833591021E-5,6.612749711179E-6,1.655388971466E-6,3.570125712131E-8},
    {-4.84873975489E-5,6.587810952545E-6,1.713762199311E-6,3.569002264952E-8},
    {-4.8716423558E-5,6.599989480174E-6,1.707808205085E-6,3.575266740459E-8},
    {-4.91206746414E-5,6.593705031209E-6,1.687043831834E-6,3.561874386415E-8},
    {-4.77484541353E-5,6.584050612558E-6,1.665016784585E-6,3.57174738175E-8},
    {-4.88789960539E-5,6.622764772324E-6,1.702331148695E-6,3.560436435342E-8},
    {-4.8068856465E-5,6.575600107204E-6,1.667534872242E-6,3.573855103257E-8}}},
  {{1.43756845914E-15,1.54560014223E-19,8.0252817047E-21},{Residual->8.05794217977E-17}},
  {{-370,2.39443841695E-15},{-296,2.1436042146E-15},{-222,1.90954619689E-15},{-148,1.6473573151E-15},{-74,1.43453386552E-15},
   {0,1.28109870196E-15},{74,1.43218873264E-15},{148,1.67644216446E-15},{222,1.96976231424E-15},{296,2.22384723412E-15},
   {370,2.53457312099E-15}}},
 {"OCT2",1,
  {7.00638232803E-7,6.594041435428E-6,2.62633795106E-8,3.57819782141E-8,{{-4.78566879282E-5,6.591935434442E-6,1.67801299698E-6,
     3.615102903948E-8},
    {-4.7665949723E-5,6.580258000185E-6,1.659412117727E-6,3.571278878978E-8},
    {-4.74778963417E-5,6.6038327845E-6,1.716048111858E-6,3.56692526037E-8},
    {-4.91953500831E-5,6.612259091224E-6,1.703374318578E-6,3.561738158716E-8},
    {-4.90460994091E-5,6.595694423023E-6,1.72607899632E-6,3.564161189044E-8},
    {-4.82902854992E-5,6.572794186857E-6,1.669709001569E-6,3.585169136502E-8},
    {-4.91695465843E-5,6.573484978E-6,1.716212603291E-6,3.571356269644E-8},
    {-4.76880079093E-5,6.616657819656E-6,1.659528999947E-6,3.579192910433E-8},
    {-4.77169569059E-5,6.60105224824E-6,1.739422122582E-6,3.57721949421E-8},
    {-4.94139082189E-5,6.611552439394E-6,1.660446522138E-6,3.564783584044E-8},
    {-4.83644001756E-5,6.588015334108E-6,1.668337380652E-6,3.594071571944E-8},
    {-4.87975695147E-5,6.592381350621E-6,1.70876076126E-6,3.599805567384E-8},
    {-4.75623655254E-5,6.570888340535E-6,1.653947430952E-6,3.633158215978E-8},
    {-4.78194064403E-5,6.625880031269E-6,1.679327963194E-6,3.580974633697E-8},
    {-4.76910612921E-5,6.570971230354E-6,1.693949546433E-6,3.570729975184E-8},
    {-4.77515816201E-5,6.606724680323E-6,1.701262143593E-6,3.55851387108E-8},
    {-4.89590332212E-5,6.574901223753E-6,1.677670765222E-6,3.576815353791E-8},
    {-4.79605467304E-5,6.601074952814E-6,1.738887588468E-6,3.56010121689E-8},
    {-4.94003980922E-5,6.611320223366E-6,1.675156912442E-6,3.557367880203E-8},
    {-4.93407110934E-5,6.579149935893E-6,1.700371958852E-6,3.575490356167E-8}}},
  {{1.28034067982E-15,-5.3935102872E-21,1.82343848772E-22},{Residual->2.49887678939E-18}},
  {{-370,1.30742494267E-15},{-296,1.29426262116E-15},{-222,1.29251175628E-15},{-148,1.28857028481E-15},{-74,1.28468945554E-15},
   {0,1.27735861586E-15},{74,1.28000030053E-15},{148,1.2795058478E-15},{222,1.28987374799E-15},{296,1.29606464805E-15},
   {370,1.30334909727E-15}}}}
