FD	 2.829289E-6	 4.915944E-7	
EX2	 2.156962E-6	 5.723353E-7	
FD	 2.154855E-6	 5.546996E-7	
AY	 2.155459E-6	 5.546635E-7	
EY	 2.141164E-6	 4.928520E-7	
R32	 2.132811E-6	 4.188497E-7	
AY	 2.136366E-6	 4.187122E-7	
EY	 2.141385E-6	 3.401074E-7	
R32	 2.135979E-6	 2.905646E-7	
AY	 2.135343E-6	 2.906619E-7	
EY	 2.137956E-6	 2.370003E-7	
R32	 2.135351E-6	 2.045544E-7	
AY	 2.135348E-6	 2.045791E-7	
EY	 2.136312E-6	 1.679920E-7	
R32	 2.135422E-6	 1.463172E-7	
AY	 2.135337E-6	 1.463020E-7	
EY	 2.134847E-6	 1.218056E-7	
R32	 2.135456E-6	 1.072541E-7	
AY	 2.135205E-6	 1.072647E-7	
EY	 2.134748E-6	 9.070156E-8	
R32	 2.135274E-6	 8.041450E-8	
Y24	 2.144381E-6	 8.036719E-8	
Y46	 2.295374E-6	 7.894214E-8	
Y22	 2.296041E-6	 7.804835E-8	
Y26	 2.295469E-6	 7.696563E-8	
Y66	 2.295469E-6	 7.696563E-8	
Y44	 2.295458E-6	 7.629689E-8	
AY	 2.296128E-6	 7.623868E-8	
EY	 2.296014E-6	 6.170504E-8	
R32	 2.295934E-6	 5.602786E-8	
Y24	 2.276201E-6	 5.539812E-8	
Y46	 2.371654E-6	 5.490260E-8	
Y22	 2.371654E-6	 5.490260E-8	
Y26	 2.371654E-6	 5.490260E-8	
Y66	 2.371654E-6	 5.490260E-8	
Y44	 2.371654E-6	 5.490260E-8	
AY	 2.371552E-6	 5.451531E-8	
EY	 2.372291E-6	 4.944036E-8	
R32	 2.371457E-6	 4.670725E-8	
Y24	 2.357967E-6	 4.635756E-8	
Y46	 2.383734E-6	 4.633359E-8	
Y22	 2.383734E-6	 4.633359E-8	
Y26	 2.383734E-6	 4.633359E-8	
Y66	 2.383734E-6	 4.633359E-8	
Y44	 2.383734E-6	 4.633359E-8	
