{{"FD",1,{7.100246741577E-6,6.905464408073E-6,-1.48432819198E-6,7.592874653927E-7}},
 {"EX2",1,{7.102691299982E-6,6.90545501812E-6,-1.48426484439E-6,7.59264568392E-7}},
 {"FD",1,{7.103495500532E-6,6.905409809821E-6,-1.48401780601E-6,7.592833747074E-7}},
 {"AY",1,{7.549889053163E-6,6.66778825985E-6,-1.75991170872E-6,9.934758518027E-7},
  {{9.86892875294E-13,5.59819527834E-15,1.20362307406E-12},{Residual->1.38503890632E-15}},
  {{-.5,1.28424308462E-12},{-.35,1.13269263994E-12},{-.2,1.03475850536E-12},{-.05,9.91061411246E-13},{.1,9.98322543506E-13},
   {.25,1.0611343188E-12},{.4,1.18342419569E-12}}},
 {"EY",1,{7.293953037488E-6,6.67862370416E-6,-1.6115380424E-6,9.743512924257E-7},
  {{9.90757716752E-13,2.42684139127E-13,3.76850789868E-13},{Residual->1.93893478944E-15}},
  {{-.5,9.64418150667E-13},{-.35,9.50486108843E-13},{-.2,9.5635343608E-13},{-.05,9.83405001548E-13},{.1,1.01604217044E-12},
   {.25,1.07547777437E-12},{.4,1.14819281306E-12}}},
 {"R32",1,{7.149274848986E-6,6.731865817276E-6,-2.04252451782E-6,1.045014360851E-7},
  {{9.49402543977E-13,2.08029650508E-12,1.15788595993E-12},{Residual->1.99540430652E-15}},
  {{-.5,1.98144458598E-13},{-.35,3.61940465809E-13},{-.2,5.83840476117E-13},{-.05,8.47126712687E-13},{.1,1.1681006055E-12},
   {.25,1.53989001803E-12},{.4,1.96840245338E-12}}},
 {"AY",1,{7.164539776065E-6,6.733075749384E-6,-2.04541511717E-6,1.033226358801E-7},
  {{1.10184842453E-14,-2.55356816E-14,1.14701094151E-12},{Residual->3.65421637176E-16}},
  {{-.5,3.10567900041E-13},{-.35,1.6005423058E-13},{-.2,6.25512750156E-14},{-.05,1.54769758704E-14},{.1,1.93944155223E-14},
   {.25,7.61604350071E-14},{.4,1.8455123087E-13}}},
 {"EY",1,{7.175464014292E-6,6.718345254795E-6,-1.96146343918E-6,4.310579984029E-8},
  {{1.05653557947E-14,9.85624185394E-14,2.7972302285E-13},{Residual->6.32994553246E-17}},
  {{-.5,3.11807587032E-14},{-.35,1.04116819878E-14},{-.2,1.9641124523E-15},{-.05,6.40094652742E-15},{.1,2.32328280448E-14},
   {.25,5.25975081998E-14},{.4,9.47934654541E-14}}},
 {"R32",1,{7.176318916995E-6,6.721272342461E-6,-1.96965623377E-6,4.030731573062E-8},
  {{2.16181967358E-15,3.15672147436E-14,1.15717747247E-12},{Residual->5.46957997716E-16}},
  {{-.5,2.76013555178E-13},{-.35,1.32228182611E-13},{-.2,4.25201600525E-14},{-.05,3.25153579978E-15},{.1,1.65357111453E-14},
   {.25,8.33732004175E-14},{.4,1.99434280772E-13}}},
 {"AY",1,{7.173868286057E-6,6.721293177479E-6,-1.96963135772E-6,4.033748548646E-8},
  {{1.32933665908E-15,8.94440620617E-16,1.12895568079E-12},{Residual->2.75458964122E-16}},
  {{-.3,1.02787430643E-13},{-.2,4.63806439296E-14},{-.1,1.19255752438E-14},{5.55111512313E-17,1.62469138646E-15},
   {.1,1.29196132086E-14},{.2,4.66910029133E-14},{.3,1.03083989911E-13}}},
 {"EY",1,{7.174052492342E-6,6.721408320985E-6,-1.96936217893E-6,4.0458034061E-8},
  {{1.68710688999E-15,9.87972745821E-16,2.79693534238E-13},{Residual->1.09714732511E-16}},
  {{-.5,7.12360398362E-14},{-.35,3.54558464445E-14},{-.2,1.26311807825E-14},{-.05,2.28126533982E-15},{.1,4.71255021084E-15},
   {.25,1.95292716005E-14},{.4,4.67193669736E-14}}},
 {"R32",1,{7.174030998203E-6,6.721480810499E-6,-1.96922235395E-6,4.054993411917E-8},
  {{2.06049528744E-15,-6.5910620925E-15,1.15344609394E-12},{Residual->2.95075887017E-16}},
  {{-.5,2.93676651621E-13},{-.35,1.45509940048E-13},{-.2,5.01087543631E-14},{-.05,4.85952866658E-15},{.1,1.27842452835E-14},
   {.25,7.26981699798E-14},{.4,1.83949394611E-13}}},
 {"AY",1,{7.173498729845E-6,6.72163406542E-6,-1.96921832921E-6,4.054065832222E-8},
  {{1.46180802608E-15,-1.9137677682E-15,1.13147413883E-12},{Residual->2.54922413485E-16}},
  {{-.3,1.03691796868E-13},{-.2,4.7561817556E-14},{-.1,1.25805236537E-14},{5.55111512313E-17,1.64448278519E-15},
   {.1,1.24308690921E-14},{.2,4.64176447683E-14},{.3,1.0271828033E-13}}},
 {"EY",1,{7.173682675674E-6,6.721741128514E-6,-1.96912583984E-6,4.070249873056E-8},
  {{1.69868613312E-15,5.02344555904E-16,2.81672702325E-13},{Residual->5.31996868665E-17}},
  {{-.3,2.68377874677E-14},{-.2,1.29493949032E-14},{-.1,4.5055668321E-15},{5.55111512313E-17,1.63955196517E-15},
   {.1,4.56910306294E-15},{.2,1.30180853196E-14},{.3,2.7239670032E-14}}},
 {"R32",1,{7.173564463524E-6,6.720586068746E-6,-1.96591324326E-6,4.00896306711E-8},
  {{1.66099903061E-15,-1.3061860692E-14,1.15795099486E-12},{Residual->3.26185783122E-16}},
  {{-.3,1.09419480074E-13},{-.2,5.11438625394E-14},{-.1,1.4592303958E-14},{5.55111512313E-17,1.64117501523E-15},
   {.1,1.18306262523E-14},{.2,4.4942838735E-14},{.3,1.022829852E-13}}},
 {"Y24",1,{7.186723923846E-6,6.727593068623E-6,-1.96597400888E-6,3.986098913544E-8},
  {{1.76904746188E-15,2.08833173566E-16,1.41409043117E-15},{Residual->9.84769178732E-17}},
  {{-1.5,4.5794784E-15},{-1.2,3.63445385628E-15},{-.9,2.81931333244E-15},{-.6,2.16332719843E-15},{-.3,1.71079126587E-15},
   {0,1.60717848735E-15},{.3,1.94859977687E-15},{.6,2.50760732792E-15},{.9,3.23597970413E-15},{1.2,4.11110573221E-15},
   {1.5,5.14118226777E-15}}},
 {"Y46",1,{7.229676959477E-6,6.750457662125E-6,-1.96602500221E-6,3.982512768144E-8},
  {{1.64947148757E-15,1.94613585491E-16,1.33967420981E-15},{Residual->4.21091055815E-17}},
  {{-1,2.76897427209E-15},{-.8,2.38241981402E-15},{-.6,2.05354960537E-15},{-.4,1.79326649238E-15},{-.2,1.62391254932E-15},
   {0,1.58889845486E-15},{.2,1.71323266976E-15},{.4,1.97891989658E-15},{.6,2.3105884367E-15},{.8,2.70064740204E-15},
   {1,3.12434329327E-15}}},
 {"Y22",1,{7.229676959482E-6,6.750457662122E-6,-1.96602500221E-6,3.982512768134E-8},
  {{3.94001135348E-15,2.49657833622E-15,5.06924408477E-14},{Residual->1.209981718E-15}},
  {{-.6,1.99525072814E-14},{-.4,1.24028013236E-14},{-.2,6.18558900272E-15},{1.11022302463E-16,1.58604079483E-15},
   {.2,6.80199117775E-15},{.4,1.42524899311E-14},{.6,2.31741937124E-14}}},
 {"Y26",1,{7.229676959482E-6,6.750457662122E-6,-1.96602500221E-6,3.982512768134E-8},
  {{3.00153426802E-15,-1.921456732E-15,4.55878648326E-14},{Residual->6.9643638143E-16}},
  {{-.6,2.01881049346E-14},{-.4,1.17632090154E-14},{-.2,5.6395724767E-15},{1.11022302463E-16,1.58604079483E-15},
   {.2,4.78452819277E-15},{.4,1.01374598039E-14},{.6,1.79702332705E-14}}},
 {"Y66",1,{7.229676959482E-6,6.750457662122E-6,-1.96602500221E-6,3.982512768134E-8},
  {{6.83293387918E-15,1.27405423608E-14,1.53922399042E-12},{Residual->2.49401918068E-15}},
  {{-.2,6.34290422568E-14},{-.15,4.22273418125E-14},{-.1,2.36706495426E-14},{-.05,1.01238803599E-14},{0,1.58604079483E-15},
   {.05,1.09979523962E-14},{.1,2.61095640122E-14},{.15,4.40742086302E-14},{.2,7.01613236702E-14}}},
 {"Y44",1,{7.229676959482E-6,6.750457662122E-6,-1.96602500221E-6,3.982512768134E-8},
  {{2.69868260968E-15,9.53692258104E-16,2.05251525925E-14},{Residual->5.62755463755E-16}},
  {{-.6,9.19626480163E-15},{-.4,6.1935196674E-15},{-.2,3.6632346431E-15},{1.11022302463E-16,1.58604079483E-15},
   {.2,3.9086116572E-15},{.4,6.92269945063E-15},{.6,1.04085781566E-14}}},
 {"AY",1,{7.227968532975E-6,6.750413342337E-6,-1.96595422597E-6,3.98842106883E-8},
  {{1.45232054673E-15,6.75786636467E-16,1.08239538764E-12},{Residual->1.36606615729E-16}},
  {{-.1,1.23530120433E-14},{-.07,6.44314694785E-15},{-.04,3.15802091006E-15},{-.01,1.68606445835E-15},{.02,1.98792754689E-15},
   {.05,4.07558053737E-15},{.08,8.44922685874E-15}}},
 {"EY",1,{7.228463009558E-6,6.750524456854E-6,-1.96655118934E-6,3.98710386627E-8},
  {{1.61129904568E-15,-8.3470588384E-16,2.93167193657E-13},{Residual->1.01525784466E-17}},
  {{-.1,4.61686185492E-15},{-.07,3.11360265007E-15},{-.04,2.13136789706E-15},{-.01,1.63934075792E-15},{.02,1.70520566603E-15},
   {.05,2.29493136402E-15},{.08,3.42924285735E-15}}},
 {"R32",1,{7.228372347017E-6,6.75099960557E-6,-1.96809520792E-6,3.99465640509E-8},
  {{1.73129254623E-15,2.76360642136E-15,1.13993431074E-12},{Residual->9.0509233504E-17}},
  {{-.1,1.28266494755E-14},{-.07,7.13401683816E-15},{-.04,3.56482232703E-15},{-.01,1.71266194568E-15},{.02,2.14582431005E-15},
   {.05,4.86024428421E-15},{.08,9.20567484166E-15}}},
 {"Y24",1,{7.22711444258E-6,6.750343178296E-6,-1.96809391571E-6,3.994565850189E-8},
  {{1.59736565645E-15,-3.2599024864E-17,2.37042314226E-15},{Residual->2.21228915951E-18}},
  {{-.3,1.8182050785E-15},{-.2,1.70120024913E-15},{-.1,1.62721599791E-15},{5.55111512313E-17,1.59572797947E-15},
   {.1,1.6146026741E-15},{.2,1.6866264997E-15},{.3,1.80169959619E-15}}},
 {"Y46",1,{7.227464095034E-6,6.750514521529E-6,-1.96809361001E-6,3.994511038695E-8},
  {{1.59942554951E-15,1.92594463479E-18,1.72047562625E-15},{Residual->6.18055368629E-18}},
  {{-.45,1.93984681802E-15},{-.3,1.76175884717E-15},{-.15,1.64541141279E-15},{-5.5511151231E-17,1.59565563315E-15},
   {.15,1.63029338563E-15},{.3,1.75447204008E-15},{.45,1.95244035428E-15}}},
 {"Y22",1,{7.227464095034E-6,6.750514521529E-6,-1.96809361001E-6,3.994511038695E-8},
  {{3.85958066663E-15,2.13567366543E-15,5.07762284181E-14},{Residual->1.15689063179E-15}},
  {{-.6,2.01363510774E-14},{-.4,1.24753447744E-14},{-.2,6.0858773713E-15},{1.11022302463E-16,1.59561184383E-15},
   {.2,6.73602123555E-15},{.4,1.39023311335E-14},{.6,2.29549030587E-14}}},
 {"Y26",1,{7.227464095034E-6,6.750514521529E-6,-1.96809361001E-6,3.994511038695E-8},
  {{2.30401544947E-15,-2.0618651912E-15,6.32048439054E-14},{Residual->3.51310466206E-16}},
  {{-.3,8.49379811027E-15},{-.2,5.53052297934E-15},{-.1,3.26938672973E-15},{5.55111512313E-17,1.59561184383E-15},
   {.1,2.99105562058E-15},{.2,4.787718605E-15},{.3,7.15737055108E-15}}},
 {"Y66",1,{7.227464095034E-6,6.750514521529E-6,-1.96809361001E-6,3.994511038695E-8},
  {{6.78131600178E-15,1.3302196049E-14,1.5498446791E-12},{Residual->2.37318751347E-15}},
  {{-.2,6.41474447155E-14},{-.15,4.16750405695E-14},{-.1,2.35704292438E-14},{-.05,1.03046589305E-14},{0,1.59561184383E-15},
   {.05,1.09712957875E-14},{.1,2.60353474536E-14},{.15,4.49098539083E-14},{.2,7.02988634291E-14}}},
 {"Y44",1,{7.227464095034E-6,6.750514521529E-6,-1.96809361001E-6,3.994511038695E-8},
  {{2.70481368292E-15,9.24797488163E-16,2.03215921866E-14},{Residual->5.59207571676E-16}},
  {{-.6,9.16188197741E-15},{-.4,6.15624453849E-15},{-.2,3.6624773325E-15},{1.11022302463E-16,1.59561184383E-15},
   {.2,3.9101306136E-15},{.4,6.89325050888E-15},{.6,1.03142822147E-14}}},
 {"AY",1,{7.226194405313E-6,6.750336328835E-6,-1.96813328154E-6,4.012981453623E-8},
  {{1.5397222085E-15,-1.8464356906E-15,1.06034414979E-12},{Residual->1.21348925205E-16}},
  {{-.1,1.24132884087E-14},{-.07,6.63142694237E-15},{-.04,3.44047949848E-15},{-.01,1.76532436445E-15},{.02,1.8916296535E-15},
   {.05,3.99743045109E-15},{.08,8.23064011895E-15}}},
 {"EY",1,{7.226578029943E-6,6.750415994165E-6,-1.96801779304E-6,4.015589310189E-8},
  {{1.64737249418E-15,5.88796821879E-16,2.88695430398E-13},{Residual->2.44972696756E-17}},
  {{-.1,4.45128383286E-15},{-.07,3.05849129276E-15},{-.04,2.09892000755E-15},{-.01,1.64870335788E-15},{.02,1.74563812546E-15},
   {.05,2.42507807163E-15},{.08,3.53948864087E-15}}},
 {"R32",1,{7.225761922303E-6,6.749750339919E-6,-1.96652387562E-6,4.004966419788E-8},
  {{1.65077882545E-15,-6.3975275774E-15,1.17854342784E-12},{Residual->1.10771947057E-16}},
  {{-.1,1.41766883083E-14},{-.07,7.64585336473E-15},{-.04,3.93318878311E-15},{-.01,1.80422639758E-15},{.02,1.99967073947E-15},
   {.05,4.32194074418E-15},{.08,8.64598515228E-15}}},
 {"Y24",1,{7.225761922303E-6,6.749750339919E-6,-1.96652387562E-6,4.004966419788E-8},
  {{1.60696932694E-15,4.40134769217E-17,2.45207501738E-15},{Residual->2.99459380003E-18}},
  {{-.3,1.81142381555E-15},{-.2,1.700151084E-15},{-.1,1.63027196743E-15},{5.55111512313E-17,1.60397560236E-15},
   {.1,1.63218195105E-15},{.2,1.71618425267E-15},{.3,1.84117762035E-15}}},
 {"Y46",1,{7.225761922303E-6,6.749750339919E-6,-1.96652387562E-6,4.004966419788E-8},
  {{1.60969126181E-15,-5.6602345938E-17,1.67896097553E-15},{Residual->7.49072833942E-18}},
  {{-.45,1.96602091136E-15},{-.3,1.78929490248E-15},{-.15,1.66375511391E-15},{-5.5511151231E-17,1.60397560236E-15},
   {.15,1.63114380472E-15},{.3,1.74264774194E-15},{.45,1.92874617046E-15}}},
 {"Y22",1,{7.225761922303E-6,6.749750339919E-6,-1.96652387562E-6,4.004966419788E-8},
  {{3.84077246852E-15,2.11886117409E-15,5.18709405994E-14},{Residual->1.11768127031E-15}},
  {{-.6,2.05130187701E-14},{-.4,1.25724580663E-14},{-.2,6.22560785234E-15},{1.11022302463E-16,1.60397560236E-15},
   {.2,6.79799138935E-15},{.4,1.38262157309E-14},{.6,2.34415933396E-14}}},
 {"Y26",1,{7.225761922303E-6,6.749750339919E-6,-1.96652387562E-6,4.004966419788E-8},
  {{2.35538113786E-15,-1.9259785922E-15,6.26714340785E-14},{Residual->3.80374552713E-16}},
  {{-.3,8.40234818455E-15},{-.2,5.6402851726E-15},{-.1,3.28073299512E-15},{5.55111512313E-17,1.60397560236E-15},
   {.1,3.04780072136E-15},{.2,4.85377337861E-15},{.3,7.20675345241E-15}}},
 {"Y66",1,{7.225761922303E-6,6.749750339919E-6,-1.96652387562E-6,4.004966419788E-8},
  {{7.07361219947E-15,1.32715279961E-14,1.52201230189E-12},{Residual->2.5749799594E-15}},
  {{-.2,6.32926909982E-14},{-.15,4.15537817561E-14},{-.1,2.36413822149E-14},{-.05,1.02910891373E-14},{0,1.60397560236E-15},
   {.05,1.104897201E-14},{.1,2.64971805987E-14},{.15,4.49639174346E-14},{.2,6.90713653263E-14}}},
 {"Y44",1,{7.225761922303E-6,6.749750339919E-6,-1.96652387562E-6,4.004966419788E-8},
  {{2.67655486836E-15,1.09382867699E-15,2.07460011569E-14},{Residual->5.35007848101E-16}},
  {{-.6,9.18586102034E-15},{-.4,6.09839794161E-15},{-.2,3.64898766502E-15},{1.11022302463E-16,1.60397560236E-15},
   {.2,3.91895981876E-15},{.4,6.93582259694E-15},{.6,1.05794007292E-14}}},
 {"AY",1,{7.231033311068E-6,6.749862841802E-6,-1.96664899823E-6,3.987546953147E-8},
  {{1.55529154926E-15,-7.948509106E-15,1.06065927252E-12},{Residual->7.3670452252E-17}},
  {{-.1,1.29248670416E-14},{-.07,7.36107355911E-15},{-.04,3.52353476681E-15},{-.01,1.81161360887E-15},{.02,1.84524662863E-15},
   {.05,3.66531515221E-15},{.08,7.78286088319E-15}}},
 {"EY",1,{7.230720549296E-6,6.749804339773E-6,-1.9663231552E-6,3.984915525024E-8},
  {{1.59753196204E-15,6.32360391645E-16,2.95367259939E-13},{Residual->8.91741899276E-18}},
  {{-.1,4.49811127653E-15},{-.07,2.98390248666E-15},{-.04,2.04638087865E-15},{-.01,1.61834962838E-15},{.02,1.74067504534E-15},
   {.05,2.36629627284E-15},{.08,3.53475495085E-15}}},
 {"R32",1,{7.23062956814E-6,6.749967782782E-6,-1.96678337814E-6,3.981689784795E-8},
  {{1.70644456406E-15,1.13200759272E-15,1.15160941495E-12},{Residual->1.61042534105E-16}},
  {{-.1,1.31505617698E-14},{-.07,7.26114809455E-15},{-.04,3.47393966531E-15},{-.01,1.72451406026E-15},{.02,2.09690402329E-15},
   {.05,5.00159760526E-15},{.08,8.98389004558E-15}}},
 {"Y24",1,{7.23062956814E-6,6.749967782782E-6,-1.96678337814E-6,3.981689784795E-8},
  {{1.58790885967E-15,-6.4483041058E-17,2.47925479321E-15},{Residual->4.05886355191E-18}},
  {{-.3,1.82562825837E-15},{-.2,1.70632415958E-15},{-.1,1.62263426522E-15},{5.55111512313E-17,1.58538535423E-15},
   {.1,1.60080797423E-15},{.2,1.67551317422E-15},{.3,1.79326017395E-15}}},
 {"Y46",1,{7.23062956814E-6,6.749967782782E-6,-1.96678337814E-6,3.981689784795E-8},
  {{1.59122796443E-15,-1.5049196118E-17,1.74255693147E-15},{Residual->7.73485269804E-18}},
  {{-.45,1.94143426008E-15},{-.3,1.76464033625E-15},{-.15,1.64047441871E-15},{-5.5511151231E-17,1.58538535423E-15},
   {.15,1.61984610989E-15},{.3,1.74287327808E-15},{.45,1.94175286056E-15}}},
 {"Y22",1,{7.230629568143E-6,6.749967782784E-6,-1.96678337814E-6,3.981689784794E-8},
  {{3.85836079167E-15,2.53015133486E-15,5.11620866712E-14},{Residual->1.14896357885E-15}},
  {{-.6,1.99966807497E-14},{-.4,1.23754171315E-14},{-.2,6.13350161756E-15},{1.11022302463E-16,1.58538535423E-15},
   {.2,6.81895165828E-15},{.4,1.39761043599E-14},{.6,2.34240217422E-14}}},
 {"Y26",1,{7.230629568143E-6,6.749967782784E-6,-1.96678337814E-6,3.981689784794E-8},
  {{2.3243036728E-15,-2.1623470972E-15,6.26705037404E-14},{Residual->3.73756769198E-16}},
  {{-.3,8.47239062607E-15},{-.2,5.61697554486E-15},{-.1,3.25243830275E-15},{5.55111512313E-17,1.58538535423E-15},
   {.1,3.02097431737E-15},{.2,4.78109275386E-15},{.3,7.08860985778E-15}}},
 {"Y66",1,{7.230629568143E-6,6.749967782784E-6,-1.96678337814E-6,3.981689784794E-8},
  {{6.72738035259E-15,1.30625180021E-14,1.53851809566E-12},{Residual->2.39261654851E-15}},
  {{-.2,6.3573156599E-14},{-.15,4.15799196745E-14},{-.1,2.35340057227E-14},{-.05,9.93173316481E-15},{0,1.58538535423E-15},
   {.05,1.10189188835E-14},{.1,2.60751271474E-14},{.15,4.4053053047E-14},{.2,6.99728379292E-14}}},
 {"Y44",1,{7.230629568143E-6,6.749967782784E-6,-1.96678337814E-6,3.981689784794E-8},
  {{2.71002770537E-15,9.67792007177E-16,2.02368827185E-14},{Residual->5.71564485205E-16}},
  {{-.6,9.0908994071E-15},{-.4,6.16267020848E-15},{-.2,3.66304924526E-15},{1.11022302463E-16,1.58538535423E-15},
   {.2,3.90174305236E-15},{.4,6.91628587318E-15},{.6,1.03154694417E-14}}}}
