FD	 7.071349E-6	 7.110793E-7	
EX2	 7.019392E-6	 7.139192E-7	
FD	 7.018822E-6	 7.100841E-7	
AY	 6.822903E-6	 7.208197E-7	
EY	 6.826069E-6	 7.217707E-7	
R32	 6.797383E-6	 1.137348E-7	
AY	 6.796485E-6	 1.135774E-7	
EY	 6.788760E-6	 4.592530E-8	
R32	 6.791965E-6	 3.655742E-8	
AY	 6.792166E-6	 3.644475E-8	
EY	 6.792001E-6	 3.640986E-8	
R32	 6.792039E-6	 3.643284E-8	
AY	 6.791841E-6	 3.641591E-8	
EY	 6.791829E-6	 3.641340E-8	
R32	 6.791887E-6	 3.642535E-8	
Y24	 6.798089E-6	 3.626654E-8	
Y46	 6.798089E-6	 3.626654E-8	
Y22	 6.798089E-6	 3.626654E-8	
Y26	 6.798089E-6	 3.626654E-8	
Y66	 6.798089E-6	 3.626654E-8	
Y44	 6.798089E-6	 3.626654E-8	
AY	 6.797346E-6	 3.624255E-8	
EY	 6.797622E-6	 3.625119E-8	
R32	 6.797760E-6	 3.641301E-8	
Y24	 6.803292E-6	 3.628809E-8	
Y46	 6.803292E-6	 3.628809E-8	
Y22	 6.803292E-6	 3.628809E-8	
Y26	 6.803292E-6	 3.628809E-8	
Y66	 6.803292E-6	 3.628809E-8	
Y44	 6.803292E-6	 3.628809E-8	
AY	 6.803355E-6	 3.627727E-8	
EY	 6.803318E-6	 3.627813E-8	
R32	 6.803133E-6	 3.629947E-8	
Y24	 6.801234E-6	 3.620756E-8	
Y46	 6.801234E-6	 3.620756E-8	
Y22	 6.801234E-6	 3.620756E-8	
Y26	 6.801234E-6	 3.620756E-8	
Y66	 6.801234E-6	 3.620756E-8	
Y44	 6.801234E-6	 3.620756E-8	
AY	 6.801680E-6	 3.622494E-8	
EY	 6.801841E-6	 3.621149E-8	
R32	 6.801549E-6	 3.628560E-8	
Y24	 6.799681E-6	 3.624520E-8	
Y46	 6.799681E-6	 3.624520E-8	
Y22	 6.799681E-6	 3.624520E-8	
Y26	 6.799681E-6	 3.624520E-8	
Y66	 6.799681E-6	 3.624520E-8	
Y44	 6.799681E-6	 3.624520E-8	
