{{"FD",1,{-1.28663398377E-5,7.120149490062E-6,2.676546501761E-6,4.24471355047E-7}},
 {"EX2",1,{-1.2564398776E-5,7.101494635568E-6,2.633594365379E-6,4.265994280409E-7}},
 {"FD",1,{-1.25638434731E-5,7.10184236632E-6,2.656188667796E-6,4.248208047701E-7}},
 {"AY",1,{-1.27094671982E-5,6.991165048114E-6,2.819802086735E-6,7.141884678668E-7},
  {{5.10670533157E-13,-6.3086771808E-15,1.26306547313E-12},{Residual->2.76645519741E-15}},
  {{-.5,8.30045828489E-13},{-.35,6.69754328753E-13},{-.2,5.58158411232E-13},{-.05,5.12284120981E-13},{.1,5.25706498901E-13},
   {.25,5.91248311391E-13},{.4,7.07539163217E-13}}},
 {"EY",1,{-1.28042781872E-5,7.056174417906E-6,2.579414026511E-6,6.432858154742E-7},
  {{5.02897924909E-13,-3.8795563883E-13,4.90444311434E-13},{Residual->8.60306387796E-15}},
  {{-.5,8.19398114965E-13},{-.35,6.98455189571E-13},{-.2,6.02559617629E-13},{-.05,5.24776054182E-13},{.1,4.54924318532E-13},
   {.25,4.53218304925E-13},{.4,4.20301039799E-13}}},
 {"R32",1,{-1.25688464941E-5,6.848313048638E-6,2.653398678687E-6,1.517704437386E-7},
  {{4.14101394962E-13,-1.2128575462E-12,9.08699377568E-13},{Residual->8.09506728152E-15}},
  {{-.5,1.2394521627E-12},{-.35,9.56963530641E-13},{-.2,7.06274255038E-13},{-.05,4.70815112908E-13},{.1,2.94314641422E-13},
   {.25,1.62731419934E-13},{.4,8.10416302221E-14}}},
 {"AY",1,{-1.2577613886E-5,6.849764358416E-6,2.65275646933E-6,1.517739320992E-7},
  {{2.591595005E-14,9.12173419509E-15,1.17916074809E-12},{Residual->3.9915656513E-15}},
  {{-.5,3.11345473111E-13},{-.35,1.73249535829E-13},{-.2,7.46133234029E-14},{-.05,2.60988879605E-14},{.1,3.66215629843E-14},
   {.25,9.77995126147E-14},{.4,2.21997331868E-13}}},
 {"EY",1,{-1.25186468E-5,6.871919868097E-6,2.490789696551E-6,4.403875839593E-8},
  {{2.34175672315E-14,-1.6257724023E-13,3.06802997327E-13},{Residual->4.53827993698E-16}},
  {{-.5,1.81139331015E-13},{-.35,1.18638003799E-13},{-.2,6.78639947678E-14},{-.05,3.16945627088E-14},{.1,1.07950694585E-14},
   {.25,1.9656930426E-15},{.4,7.38329067757E-15}}},
 {"R32",1,{-1.25286245621E-5,6.875022780174E-6,2.489810412858E-6,3.968699803474E-8},
  {{8.1734862829E-16,2.83995997745E-14,1.03457214656E-12},{Residual->1.5368236612E-15}},
  {{-.5,2.4600989125E-13},{-.35,1.15473591135E-13},{-.2,3.76286532521E-14},{-.05,2.8349032738E-15},{.1,1.49499521747E-14},
   {.25,6.98965882633E-14},{.4,1.78873466024E-13}}},
 {"AY",1,{-1.25015034302E-5,6.873345347725E-6,2.495762442567E-6,3.989781952346E-8},
  {{1.35833061554E-15,2.81354026923E-14,1.17369907628E-12},{Residual->1.2446268384E-15}},
  {{-.3,9.72990757416E-14},{-.2,4.53242901436E-14},{-.1,9.0287455184E-15},{5.55111512313E-17,1.55943748184E-15},
   {.1,1.51462484145E-14},{.2,5.41513429488E-14},{.3,1.15634915419E-13}}},
 {"EY",1,{-1.24996253943E-5,6.872643560064E-6,2.49996850326E-6,4.000155597073E-8},
  {{1.55540828486E-15,3.20709470335E-15,3.11495112989E-13},{Residual->1.69637473537E-16}},
  {{-.5,7.80404795733E-14},{-.35,3.82892339295E-14},{-.2,1.32503572531E-14},{-.05,2.31653861812E-15},{.1,5.09926630288E-15},
   {.25,2.18949066668E-14},{.4,5.25676781647E-14}}},
 {"R32",1,{-1.25074770522E-5,6.873773850276E-6,2.500729857216E-6,3.970597809828E-8},
  {{1.96583457901E-15,4.24390369664E-15,9.96483069028E-13},{Residual->1.80764776352E-15}},
  {{-.5,2.47596791653E-13},{-.35,1.25946754033E-13},{-.2,3.9067753609E-14},{-.05,2.97760636437E-15},{.1,1.41552927947E-14},
   {.25,6.43643431275E-14},{.4,1.63389721373E-13}}},
 {"AY",1,{-1.25115088398E-5,6.875125581246E-6,2.494401548938E-6,3.99847129104E-8},
  {{1.27672318265E-15,-1.5423769327E-14,1.16110612131E-12},{Residual->1.3129309821E-15}},
  {{-.3,1.09284584428E-13},{-.2,5.23505365467E-14},{-.1,1.44516013309E-14},{5.55111512313E-17,1.62813639503E-15},
   {.1,1.14966884073E-14},{.2,4.21825022267E-14},{.3,1.02652726911E-13}}},
 {"EY",1,{-1.25107088676E-5,6.874336958633E-6,2.496231654667E-6,3.991260721546E-8},
  {{1.69650935394E-15,-1.0197801229E-15,3.02987578353E-13},{Residual->1.27441681409E-16}},
  {{-.3,2.93473026225E-14},{-.2,1.40015289898E-14},{-.1,4.69453672249E-15},{5.55111512313E-17,1.60698523841E-15},
   {.1,4.74067556579E-15},{.2,1.3819732173E-14},{.3,2.85013261045E-14}}},
 {"R32",1,{-1.25088115336E-5,6.874017553042E-6,2.496908793359E-6,4.002800743558E-8},
  {{1.71370438424E-16,8.03683829831E-15,1.04113357291E-12},{Residual->1.22290121955E-15}},
  {{-.3,9.10229490174E-14},{-.2,4.04219027868E-14},{-.1,9.85401345928E-15},{5.55111512313E-17,1.61092804802E-15},
   {.1,1.10830719286E-14},{.2,4.09856433413E-14},{.3,9.77384849031E-14}}},
 {"Y24",1,{-1.24983963035E-5,6.878746598946E-6,2.497001857246E-6,3.991219366227E-8},
  {{1.71011349881E-15,2.05723336559E-16,1.27841895039E-15},{Residual->7.522694577E-17}},
  {{-1.5,4.26136378679E-15},{-1.2,3.35918869543E-15},{-.9,2.60318942267E-15},{-.6,2.02600435169E-15},{-.3,1.68253483258E-15},
   {0,1.60224137926E-15},{.3,1.87249493018E-15},{.6,2.38325958191E-15},{.9,3.05103836334E-15},{1.2,3.84697731769E-15},
   {1.5,4.77930343426E-15}}},
 {"Y46",1,{-1.24703109438E-5,6.891413849012E-6,2.497752191917E-6,3.98350379187E-8},
  {{1.6462641403E-15,2.29196137362E-16,2.03642503857E-15},{Residual->3.64084636094E-17}},
  {{-1,3.42086732128E-15},{-.8,2.79881881696E-15},{-.6,2.28888927554E-15},{-.4,1.88596012587E-15},{-.2,1.63868304041E-15},
   {0,1.59298320293E-15},{.2,1.75871886578E-15},{.4,2.0923852123E-15},{.6,2.56215606484E-15},{.8,3.1593284055E-15},
   {1,3.87038538162E-15}}},
 {"Y22",1,{-1.24703109438E-5,6.891413849012E-6,2.497752191917E-6,3.983503791867E-8},
  {{3.85363858454E-15,4.54510653816E-15,4.77259623032E-14},{Residual->1.21314573358E-15}},
  {{-.6,1.74477565733E-14},{-.4,1.12797351485E-14},{-.2,5.40879759898E-15},{1.11022302463E-16,1.58683024598E-15},
   {.2,6.96388807565E-15},{.4,1.44243745329E-14},{.6,2.3317165696E-14}}},
 {"Y26",1,{-1.24703109438E-5,6.891413849012E-6,2.497752191917E-6,3.983503791867E-8},
  {{2.86382796584E-15,-1.6312743691E-15,4.19245104296E-14},{Residual->6.61836484914E-16}},
  {{-.6,1.87296572804E-14},{-.4,1.07881529252E-14},{-.2,5.00601131009E-15},{1.11022302463E-16,1.58683024598E-15},
   {.2,4.65930884264E-15},{.4,9.72001682098E-15},{.6,1.65122700167E-14}}},
 {"Y66",1,{-1.24703109438E-5,6.891413849012E-6,2.497752191917E-6,3.983503791867E-8},
  {{6.67356261843E-15,7.03700074718E-15,1.38918648711E-12},{Residual->2.43452492675E-15}},
  {{-.2,5.88336087815E-14},{-.15,3.90415482961E-14},{-.1,2.23633844978E-14},{-.05,1.0120058357E-14},{0,1.58683024598E-15},
   {.05,9.93800209E-15},{.1,2.31887327068E-14},{.15,4.13700445225E-14},{.2,6.19978271344E-14}}},
 {"Y44",1,{-1.24698903467E-5,6.891212176879E-6,2.495728176463E-6,3.953550294412E-8},
  {{2.51654944144E-15,-2.4807437761E-16,1.99017442291E-14},{Residual->4.64027858357E-16}},
  {{-.6,9.59382717829E-15},{-.4,6.24007347336E-15},{-.2,3.65377416035E-15},{1.11022302463E-16,1.58683024598E-15},
   {.2,3.44569161707E-15},{.4,6.07631434471E-15},{.6,9.30928860694E-15}}},
 {"AY",1,{-1.24666581174E-5,6.894691409016E-6,2.497108708351E-6,3.930095425611E-8},
  {{1.79085190208E-15,1.63541612925E-14,1.08735672327E-12},{Residual->5.47275099042E-16}},
  {{-.1,1.05466191126E-14},{-.07,7.0871438775E-15},{-.04,2.35459727207E-15},{-.01,1.57947396854E-15},{.02,2.25915258578E-15},
   {.05,5.80068070754E-15},{.08,9.92604363287E-15}}},
 {"EY",1,{-1.24697903029E-5,6.895175852995E-6,2.49153671149E-6,3.917849820208E-8},
  {{1.62903837305E-15,-4.1368775559E-15,3.03358264601E-13},{Residual->1.16790853526E-16}},
  {{-.1,4.95216125835E-15},{-.07,3.66438489223E-15},{-.04,2.18662730814E-15},{-.01,1.64229316509E-15},{.02,1.67166670796E-15},
   {.05,2.1692691175E-15},{.08,3.26342664414E-15}}},
 {"R32",1,{-1.24650693027E-5,6.894856487753E-6,2.490424176909E-6,3.941994998847E-8},
  {{2.57701038356E-15,-4.9557083263E-15,8.58510410408E-13},{Residual->8.31648405588E-16}},
  {{-.1,1.15974723826E-14},{-.07,6.8997323001E-15},{-.04,5.27830428858E-15},{-.01,1.78526720922E-15},{.02,2.03804162373E-15},
   {.05,5.82134775553E-15},{.08,7.20122633757E-15}}},
 {"Y24",1,{-1.24670989574E-5,6.8937987947E-6,2.490398559653E-6,3.939212828095E-8},
  {{1.55600679213E-15,-5.9343115043E-17,1.94459276947E-15},{Residual->5.04255049712E-18}},
  {{-.3,1.74300425011E-15},{-.2,1.65210379435E-15},{-.1,1.58738224238E-15},{5.55111512313E-17,1.55393245709E-15},
   {.1,1.56260584956E-15},{.2,1.62067877087E-15},{.3,1.716826156E-15}}},
 {"Y46",1,{-1.24511212824E-5,6.90014959077E-6,2.490845217167E-6,3.936387990009E-8},
  {{1.55633089145E-15,1.42829563384E-16,2.33060160648E-15},{Residual->9.39094906589E-18}},
  {{-.45,1.96933474412E-15},{-.3,1.72072870183E-15},{-.15,1.58014762864E-15},{-5.5511151231E-17,1.5517397705E-15},
   {.15,1.63227110029E-15},{.3,1.82789758994E-15},{.45,2.0804757169E-15}}},
 {"Y22",1,{-1.24511212824E-5,6.900149590772E-6,2.490845217167E-6,3.936387990009E-8},
  {{3.68216315182E-15,4.33420400262E-15,4.79343599738E-14},{Residual->1.09112253766E-15}},
  {{-.6,1.76238604174E-14},{-.4,1.08167038417E-14},{-.2,5.55128119226E-15},{1.11022302463E-16,1.54951504079E-15},
   {.2,6.67781793259E-15},{.4,1.40773458162E-14},{.6,2.31651009925E-14}}},
 {"Y26",1,{-1.24511212824E-5,6.900149590772E-6,2.490845217167E-6,3.936387990006E-8},
  {{2.14929558232E-15,-2.0249750639E-15,5.86363436245E-14},{Residual->3.0654444374E-16}},
  {{-.3,7.94211546931E-15},{-.2,5.1438175181E-15},{-.1,3.02731481174E-15},{5.55111512313E-17,1.54951504079E-15},
   {.1,2.73597501198E-15},{.2,4.45813125272E-15},{.3,6.60637618647E-15}}},
 {"Y66",1,{-1.24511212824E-5,6.900149590772E-6,2.490845217167E-6,3.936387990006E-8},
  {{6.80997475141E-15,6.81584992487E-15,1.38155971044E-12},{Residual->2.53356944904E-15}},
  {{-.2,5.91042540637E-14},{-.15,3.8949038565E-14},{-.1,2.21402963418E-14},{-.05,9.72186239184E-15},{0,1.54951504079E-15},
   {.05,1.0353758412E-14},{.1,2.40251798612E-14},{.15,4.14092799417E-14},{.2,6.12705447101E-14}}},
 {"Y44",1,{-1.24511212824E-5,6.900149590772E-6,2.490845217167E-6,3.936387990009E-8},
  {{2.50553934636E-15,4.05807855407E-16,1.94414307206E-14},{Residual->4.8337436061E-16}},
  {{-.6,8.98791438121E-15},{-.4,5.9612507806E-15},{-.2,3.48840451495E-15},{1.11022302463E-16,1.54951504079E-15},
   {.2,3.53598705651E-15},{.4,6.25913201897E-15},{.6,9.53097403853E-15}}},
 {"AY",1,{-1.24497297388E-5,6.900335659715E-6,2.491814981032E-6,3.928890503287E-8},
  {{1.39259129729E-15,1.14728360127E-15,1.16585700471E-12},{Residual->3.81084613926E-16}},
  {{-.1,1.32345624646E-14},{-.07,6.72103635289E-15},{-.04,2.95092792961E-15},{-.01,1.57535078761E-15},{.02,1.78330123081E-15},
   {.05,5.1043333125E-15},{.08,8.49401357304E-15}}},
 {"EY",1,{-1.24521486224E-5,6.900229730937E-6,2.497155536412E-6,3.914196696146E-8},
  {{1.61455532652E-15,4.23191509867E-15,3.15802219451E-13},{Residual->8.36960383648E-17}},
  {{-.1,4.30998745111E-15},{-.07,2.99266429848E-15},{-.04,1.80012214226E-15},{-.01,1.68995302761E-15},{.02,1.79160227976E-15},
   {.05,2.62866233103E-15},{.08,3.97193918228E-15}}},
 {"R32",1,{-1.24553664854E-5,6.900447856312E-6,2.496734577419E-6,3.9041729017E-8},
  {{2.02794481012E-15,-3.7498934827E-15,9.21476486022E-13},{Residual->5.05174281506E-16}},
  {{-.1,1.10019561605E-14},{-.07,7.7485591655E-15},{-.04,3.93909588435E-15},{-.01,1.56597469155E-15},{.02,2.1829024678E-15},
   {.05,4.02911176021E-15},{.08,7.85674707267E-15}}},
 {"Y24",1,{-1.24626412693E-5,6.897429093953E-6,2.49665471012E-6,3.891709213455E-8},
  {{1.52794828311E-15,-2.1365535975E-16,1.99621087811E-15},{Residual->5.69081627771E-18}},
  {{-.3,1.76533123254E-15},{-.2,1.65704488209E-15},{-.1,1.57727321504E-15},{5.55111512313E-17,1.52425660464E-15},
   {.1,1.52005481211E-15},{.2,1.56278198623E-15},{.3,1.64783429498E-15}}},
 {"Y46",1,{-1.24626412693E-5,6.897429093953E-6,2.49665471012E-6,3.891709213455E-8},
  {{1.52348055482E-15,-9.7043842636E-17,2.48664569117E-15},{Residual->7.12538200939E-18}},
  {{-.45,2.07047010121E-15},{-.3,1.78198716976E-15},{-.15,1.58904370801E-15},{-5.5511151231E-17,1.51454006021E-15},
   {.15,1.56878822739E-15},{.3,1.73030822315E-15},{.45,1.97581317946E-15}}},
 {"Y22",1,{-1.24626412693E-5,6.897429093919E-6,2.49665471012E-6,3.891709213455E-8},
  {{3.59994896191E-15,4.24317812199E-15,4.80916380521E-14},{Residual->1.04828530108E-15}},
  {{-.6,1.76258064798E-14},{-.4,1.0818968774E-14},{-.2,5.47687946245E-15},{1.11022302463E-16,1.51454006021E-15},
   {.2,6.71916308625E-15},{.4,1.36858876204E-14},{.6,2.32210318687E-14}}},
 {"Y26",1,{-1.24626412693E-5,6.897429093953E-6,2.49665471012E-6,3.891709213455E-8},
  {{2.12700791295E-15,-1.8804355009E-15,5.79584237361E-14},{Residual->3.12000550226E-16}},
  {{-.3,7.82755651088E-15},{-.2,5.05177038786E-15},{-.1,2.97835742503E-15},{5.55111512313E-17,1.51454006021E-15},
   {.1,2.74784038658E-15},{.2,4.4405398543E-15},{.3,6.55680941192E-15}}},
 {"Y66",1,{-1.24626412693E-5,6.897429093953E-6,2.49665471012E-6,3.891709213455E-8},
  {{6.41498016338E-15,7.21382764495E-15,1.4069978741E-12},{Residual->2.32317648385E-15}},
  {{-.2,5.95161040882E-14},{-.15,3.89231640877E-14},{-.1,2.22599793769E-14},{-.05,9.39773945648E-15},{0,1.51454006021E-15},
   {.05,9.95535088958E-15},{.1,2.39366101542E-14},{.15,4.05595393232E-14},{.2,6.27214751483E-14}}},
 {"Y44",1,{-1.24626412693E-5,6.897429093963E-6,2.49665471012E-6,3.891709213434E-8},
  {{2.46771381398E-15,3.99726165279E-16,1.95138293737E-14},{Residual->4.78445308583E-16}},
  {{-.6,9.01204891207E-15},{-.4,5.8876892205E-15},{-.2,3.45300826413E-15},{1.11022302463E-16,1.51454006019E-15},
   {.2,3.51519936433E-15},{.4,6.25319872289E-15},{.6,9.49380105226E-15}}},
 {"AY",1,{-1.24825116096E-5,6.89685470309E-6,2.493538216337E-6,3.920288658948E-8},
  {{1.53885995828E-15,-7.0196244892E-15,1.09527504557E-12},{Residual->1.60540852948E-16}},
  {{-.1,1.32981642837E-14},{-.07,7.0961588622E-15},{-.04,3.83166008468E-15},{-.01,1.71091841836E-15},{.02,1.74247693649E-15},
   {.05,3.97602716437E-15},{.08,7.97561135278E-15}}},
 {"EY",1,{-1.2485609587E-5,6.897279661197E-6,2.494168557398E-6,3.939511698912E-8},
  {{1.59713111859E-15,4.26727737565E-19,3.11865356613E-13},{Residual->7.03551526741E-17}},
  {{-.1,4.77001223552E-15},{-.07,3.05944763237E-15},{-.04,2.08731889879E-15},{-.01,1.54775464286E-15},{.02,1.86012562889E-15},
   {.05,2.38047926967E-15},{.08,3.55206238736E-15}}},
 {"R32",1,{-1.24686616628E-5,6.893290697913E-6,2.495882304453E-6,4.366217051013E-8},
  {{1.84490953951E-15,-1.5232372837E-14,8.73124759442E-13},{Residual->3.62961729797E-16}},
  {{-.1,1.18076695001E-14},{-.07,7.79398178251E-15},{-.04,3.7423069593E-15},{-.01,1.85912794217E-15},{.02,1.55007357587E-15},
   {.05,3.78469684722E-15},{.08,6.05670753752E-15}}},
 {"Y24",1,{-1.24435459081E-5,6.906323275198E-6,2.49620285944E-6,4.301576418748E-8},
  {{1.90695555199E-15,5.91920806471E-16,1.55995459075E-15},{Residual->1.70812594749E-18}},
  {{-.3,1.87083018308E-15},{-.2,1.85072635456E-15},{-.1,1.86123589416E-15},{5.55111512313E-17,1.90638513366E-15},
   {.1,1.98282897201E-15},{.2,2.09068039712E-15},{.3,2.22278921479E-15}}},
 {"Y46",1,{-1.24165854053E-5,6.918437181481E-6,2.497130089234E-6,4.29346923347E-8},
  {{1.85178491063E-15,2.70849107608E-16,2.46194788686E-15},{Residual->2.91049055775E-18}},
  {{-.45,2.22979091666E-15},{-.3,1.99262011569E-15},{-.15,1.86269567776E-15},{-5.5511151231E-17,1.85035596863E-15},
   {.15,1.9499259596E-15},{.3,2.1594497629E-15},{.45,2.4686831419E-15}}},
 {"Y22",1,{-1.24165854053E-5,6.918437181481E-6,2.497130089234E-6,4.29346923347E-8},
  {{3.93319971311E-15,2.98864961502E-15,4.81576714132E-14},{Residual->1.11849687463E-15}},
  {{-.6,1.86399796254E-14},{-.4,1.19770199796E-14},{-.2,5.79492715803E-15},{1.11022302463E-16,1.84338780588E-15},
   {.2,6.73912269359E-15},{.4,1.37574369921E-14},{.6,2.27171157199E-14}}},
 {"Y26",1,{-1.24197290084E-5,6.920701625151E-6,2.505657801566E-6,4.284619014926E-8},
  {{2.32296507224E-15,-2.2635028996E-15,5.77419318053E-14},{Residual->2.53702174747E-16}},
  {{-.3,8.05959478984E-15},{-.2,5.38343117791E-15},{-.1,3.19991968346E-15},{5.55111512313E-17,1.84338780589E-15},
   {.1,2.780698566E-15},{.2,4.45733344021E-15},{.3,6.70413094784E-15}}},
 {"Y66",1,{-1.24197290084E-5,6.920701625151E-6,2.505657801566E-6,4.284619014926E-8},
  {{6.2752828399E-15,6.55896707362E-15,1.4306680838E-12},{Residual->1.99951551215E-15}},
  {{-.2,6.07080836605E-14},{-.15,3.88180464357E-14},{-.1,2.20739920106E-14},{-.05,1.01994781213E-14},{0,1.83579601031E-15},
   {.05,9.69992828944E-15},{.1,2.37725939137E-14},{.15,3.9813637554E-14},{.2,6.41562021334E-14}}},
 {"Y44",1,{-1.24185156191E-5,6.919589975852E-6,2.502172765363E-6,4.247076461468E-8},
  {{2.60913715627E-15,-4.676821147E-16,1.92873940345E-14},{Residual->3.95634219664E-16}},
  {{-.6,9.58063625619E-15},{-.4,6.3015951604E-15},{-.2,3.78206710584E-15},{1.11022302463E-16,1.83579601031E-15},
   {.2,3.35429253341E-15},{.4,5.88050921957E-15},{.6,9.13094512678E-15}}}}
