{{"FD",1,{2.538085737855E-5,1.331839587558E-5,5.611469493947E-6,5.195598090369E-7}},
 {"EX2",1,{2.289391120605E-5,1.319029132105E-5,5.348133825115E-6,5.491175204129E-7}},
 {"FD",1,{2.286744459138E-5,1.318507457511E-5,5.342881746213E-6,5.211208780875E-7}},
 {"AY",1,{2.27992198466E-5,1.418015702493E-5,5.427088174341E-6,6.234452717762E-7},
  {{3.85516999528E-13,-1.8451367669E-14,2.44669195326E-12},{Residual->3.07618089778E-15}},
  {{-.5,1.00881220071E-12},{-.35,6.89648128584E-13},{-.2,4.82250843886E-13},{-.05,3.95660205867E-13},{.1,4.12289905415E-13},
   {.25,5.31358758756E-13},{.4,7.69289971894E-13}}},
 {"EY",1,{2.346123499888E-5,1.424072288969E-5,5.619236438904E-6,2.537568800013E-7},
  {{3.88694738373E-13,7.78767629117E-13,4.62658099351E-13},{Residual->4.53600172415E-16}},
  {{-.5,1.15009867588E-13},{-.35,1.72775625326E-13},{-.2,2.51754599888E-13},{-.05,3.4999161118E-13},{.1,4.71864191268E-13},
   {.25,6.12430264894E-13},{.4,7.74039457604E-13}}},
 {"R32",1,{2.237947919177E-5,1.416676764914E-5,5.340983487128E-6,4.588457152768E-8},
  {{6.46840048232E-14,2.0159228117E-13,1.6076441667E-13},{Residual->3.54218011768E-16}},
  {{-.5,4.10701936647E-15},{-.35,1.35629370835E-14},{-.2,3.10055829676E-14},{-.05,5.52646408209E-14},{.1,8.65724531094E-14},
   {.25,1.24392597361E-13},{.4,1.71420464438E-13}}},
 {"AY",1,{2.240166736071E-5,1.416373332467E-5,5.336383603781E-6,4.385535126003E-8},
  {{6.53947683674E-16,-2.9343334356E-14,2.49696935174E-12},{Residual->1.81589808655E-15}},
  {{-.5,6.38338128506E-13},{-.35,3.17700769109E-13},{-.2,1.07891073759E-13},{-.05,8.52391558602E-15},{.1,2.27383397752E-14},
   {.25,1.45730162286E-13},{.4,3.90713067041E-13}}},
 {"EY",1,{2.245074685897E-5,1.416200026944E-5,5.346274514923E-6,3.320207615014E-8},
  {{1.95430454858E-15,4.20547273415E-14,4.66590138428E-13},{Residual->1.00843999275E-16}},
  {{-.5,9.74974704169E-14},{-.35,4.44503687309E-14},{-.2,1.22852011057E-14},{-.05,1.11526248352E-15},{.1,1.06404109434E-14},
   {.25,4.1568199097E-14},{.4,9.35211791251E-14}}},
 {"R32",1,{2.244821771843E-5,1.416250038838E-5,5.344265563293E-6,3.328169328805E-8},
  {{1.40411438777E-15,2.36035492692E-15,1.61637791575E-13},{Residual->9.65352603582E-17}},
  {{-.5,4.05628433357E-14},{-.35,2.04213281354E-14},{-.2,7.57644503905E-15},{-.05,1.57844611364E-15},{.1,3.14946016584E-15},
   {.25,1.21400818515E-14},{.4,2.82345418933E-14}}},
 {"AY",1,{2.245187408603E-5,1.41641019315E-5,5.343754272475E-6,3.350197868209E-8},
  {{-1.5644287892E-15,1.06831401195E-14,2.49519592023E-12},{Residual->1.2536577813E-15}},
  {{-.3,2.20168527457E-13},{-.2,9.53674495238E-14},{-.1,2.14775184853E-14},{5.55111512313E-17,1.10912374228E-15},
   {.1,2.33246971336E-14},{.2,9.94635242913E-14},{.3,2.26793015507E-13}}},
 {"EY",1,{2.24374243542E-5,1.416489838184E-5,5.342797523641E-6,3.348706390235E-8},
  {{9.85090915282E-16,-1.8541301361E-15,4.65639060179E-13},{Residual->1.86980463776E-16}},
  {{-.5,1.18383702049E-13},{-.35,5.87478471717E-14},{-.2,1.96631436836E-14},{-.05,2.33129425863E-15},{.1,5.44091126514E-15},
   {.25,2.99236439177E-14},{.4,7.45553310752E-14}}},
 {"R32",1,{2.243395277761E-5,1.416493205328E-5,5.3427663782E-6,3.348636304826E-8},
  {{1.15202210474E-15,7.99200973217E-17,1.66120036924E-13},{Residual->1.74393865155E-16}},
  {{-.5,4.27199821416E-14},{-.35,2.12104293347E-14},{-.2,7.94884950749E-15},{-.05,1.72416609619E-15},{.1,2.79522487282E-15},
   {.25,1.13010853337E-14},{.4,2.78991693207E-14}}},
 {"AY",1,{2.242323734169E-5,1.416766677542E-5,5.344654560939E-6,3.322421153337E-8},
  {{-3.1541722422E-16,2.82856760439E-14,2.47967890226E-12},{Residual->1.1998771221E-15}},
  {{-.3,2.13468382105E-13},{-.2,9.46338211115E-14},{-.1,2.09510542569E-14},{5.55111512313E-17,1.12087809271E-15},
   {.1,2.6543364452E-14},{.2,1.02873644871E-13},{.3,2.32511027174E-13}}},
 {"EY",1,{2.24298349596E-5,1.416754816578E-5,5.343695666497E-6,3.319863324163E-8},
  {{1.08019816402E-15,8.85815101347E-16,4.62120302272E-13},{Residual->1.09854081637E-16}},
  {{-.3,4.22784961005E-14},{-.2,1.95432958293E-14},{-.1,5.68220049193E-15},{5.55111512313E-17,1.10885445947E-15},
   {.1,5.63501403593E-15},{.2,1.96720839017E-14},{.3,4.30351269655E-14}}},
 {"R32",1,{2.243247031102E-5,1.416686141926E-5,5.347472712656E-6,3.310600968086E-8},
  {{1.29575593099E-15,-5.9765653086E-16,1.663320093E-13},{Residual->1.71131539135E-16}},
  {{-.3,1.62559706828E-14},{-.2,8.27949315996E-15},{-.1,3.24866408906E-15},{5.55111512313E-17,1.10229573337E-15},
   {.1,2.82594665127E-15},{.2,7.71647389402E-15},{.3,1.62144099105E-14}}},
 {"Y24",1,{2.243287785872E-5,1.416800038768E-5,5.348663927207E-6,3.308379884254E-8},
  {{1.08097393191E-15,-1.7181751397E-16,1.80675804833E-15},{Residual->2.74832493546E-17}},
  {{-1.5,5.45361878952E-15},{-1.2,3.87135334441E-15},{-.9,2.65509905496E-15},{-.6,1.79583991497E-15},{-.3,1.30012383637E-15},
   {0,1.09600787699E-15},{.3,1.21086066157E-15},{.6,1.65773547575E-15},{.9,2.40081361882E-15},{1.2,3.46896905429E-15},
   {1.5,4.86719630175E-15}}},
 {"Y46",1,{2.248708685035E-5,1.414701448031E-5,5.35078749653E-6,3.07309923763E-8},
  {{1.1286063834E-15,8.98762641544E-16,1.31749644089E-15},{Residual->3.20761194971E-17}},
  {{-1,1.55512052391E-15},{-.8,1.27176491497E-15},{-.6,1.0695216713E-15},{-.4,9.58160820536E-16},{-.2,9.59316738296E-16},
   {0,1.09453774585E-15},{.2,1.37118149281E-15},{.4,1.74179424884E-15},{.6,2.18601099409E-15},{.8,2.71438621975E-15},
   {1,3.28985918698E-15}}},
 {"Y22",1,{2.248708685035E-5,1.414701448034E-5,5.35078749653E-6,3.073099237627E-8},
  {{1.22081167907E-15,7.08586421796E-16,1.40090904823E-14},{Residual->1.41565602651E-16}},
  {{-.6,5.82939685376E-15},{-.4,3.23234328633E-15},{-.2,1.69416370437E-15},{1.11022302463E-16,9.4439389243E-16},
   {.2,2.03182800017E-15},{.4,3.92791526959E-15},{.6,6.57582208701E-15}}},
 {"Y26",1,{2.248708685035E-5,1.414701448034E-5,5.350787496531E-6,3.073099237514E-8},
  {{1.96291640356E-15,5.81398720625E-15,8.78255788745E-14},{Residual->6.83972667813E-16}},
  {{-.6,2.96145388872E-14},{-.4,1.44519045619E-14},{-.2,4.81597804354E-15},{1.11022302463E-16,9.44393892361E-16},
   {.2,6.21028857873E-15},{.4,1.92924339969E-14},{.6,3.67755252038E-14}}},
 {"Y66",1,{2.248708685035E-5,1.414701448034E-5,5.350787496531E-6,3.073099237514E-8},
  {{1.83850236947E-15,-1.5676887417E-14,1.20394881534E-12},{Residual->6.85987484575E-16}},
  {{-.2,5.32173574319E-14},{-.15,3.16240699415E-14},{-.1,1.56013850671E-14},{-.05,4.71509484258E-15},{0,9.44393892361E-16},
   {.05,4.65001048272E-15},{.1,1.31105561936E-14},{.15,2.73461836889E-14},{.2,4.59297920853E-14}}},
 {"Y44",1,{2.248708685036E-5,1.414701448034E-5,5.350787496529E-6,3.073099237652E-8},
  {{9.56492233989E-16,-3.8198688438E-16,1.59857851048E-14},{Residual->1.78083831874E-16}},
  {{-.6,7.11684960197E-15},{-.4,3.52257547992E-15},{-.2,1.43726867247E-15},{1.11022302463E-16,9.44393892446E-16},
   {.2,1.76626759296E-15},{.4,3.50893485386E-15},{.6,6.30323486167E-15}}},
 {"AY",1,{2.248355222794E-5,1.414589111062E-5,5.350835172971E-6,3.056812470163E-8},
  {{4.81791352962E-16,1.2869374807E-14,2.2804878961E-12},{Residual->4.03688999886E-16}},
  {{-.1,2.18969693438E-14},{-.07,1.09966372395E-14},{-.04,3.21391630998E-15},{-.01,1.02129028552E-15},{.02,1.87056446197E-15},
   {.05,6.08521376566E-15},{.08,1.64517283368E-14}}},
 {"EY",1,{2.248977935455E-5,1.414581717063E-5,5.349810105474E-6,3.017442981891E-8},
  {{9.9166283867E-16,-6.6054140448E-15,4.59383628473E-13},{Residual->7.28901088286E-17}},
  {{-.1,6.15437410981E-15},{-.07,3.8294314384E-15},{-.04,2.04018749961E-15},{-.01,1.06421063794E-15},{.02,9.96774259884E-16},
   {.05,1.75202496687E-15},{.08,3.46505191874E-15}}},
 {"R32",1,{2.247726365776E-5,1.414592459608E-5,5.349067918687E-6,3.017601993908E-8},
  {{9.01844219932E-16,1.15185268924E-15,1.69693320345E-13},{Residual->1.44949701357E-17}},
  {{-.1,2.47288859169E-15},{-.07,1.66235431072E-15},{-.04,1.138355167E-15},{-.01,9.16950715539E-16},{.02,9.61465425951E-16},
   {.05,1.38899529718E-15},{.08,2.08632734012E-15}}},
 {"Y24",1,{2.247653911872E-5,1.414847321285E-5,5.351084708769E-6,2.993290891573E-8},
  {{9.10260889158E-16,-2.7024191668E-16,1.59717951652E-15},{Residual->4.06600840503E-18}},
  {{-.3,1.13079204144E-15},{-.2,1.03323056798E-15},{-.1,9.5578495441E-16},{5.55111512313E-17,9.10592179364E-16},
   {.1,8.97018691332E-16},{.2,9.13928005933E-16},{.3,9.77690048267E-16}}},
 {"Y46",1,{2.248771852541E-5,1.414412440717E-5,5.351600087907E-6,2.992505661375E-8},
  {{9.01496239212E-16,2.19779848177E-16,1.7305579192E-15},{Residual->7.32793367941E-18}},
  {{-.45,1.14402875668E-15},{-.3,1.00379684301E-15},{-.15,9.13255899545E-16},{-5.5511151231E-17,8.95979036158E-16},
   {.15,9.65442359579E-16},{.3,1.12409794743E-15},{.45,1.35412432118E-15}}},
 {"Y22",1,{2.248771852541E-5,1.414412440717E-5,5.351600087904E-6,2.992505661555E-8},
  {{1.20852210655E-15,-2.941079902E-16,1.46161879117E-14},{Residual->1.82891835081E-16}},
  {{-.6,6.68206499354E-15},{-.4,3.69581821654E-15},{-.2,1.83737083721E-15},{1.11022302463E-16,8.95509013444E-16},
   {.2,1.92172445733E-15},{.4,3.68542001832E-15},{.6,6.1118776706E-15}}},
 {"Y26",1,{2.248771852541E-5,1.414412440717E-5,5.351600087904E-6,2.992505661555E-8},
  {{1.15718692862E-15,8.75264959774E-15,1.05892404021E-13},{Residual->4.10009955843E-16}},
  {{-.3,7.62023104981E-15},{-.2,4.10907311258E-15},{-.1,1.89471342408E-15},{5.55111512313E-17,8.95509013444E-16},
   {.1,2.5081661772E-15},{.2,7.19466105183E-15},{.3,1.35278277972E-14}}},
 {"Y66",1,{2.248771852541E-5,1.414412440717E-5,5.351600087904E-6,2.992505661555E-8},
  {{2.09059651154E-15,-3.3141434438E-14,1.18693325174E-12},{Residual->8.8739542365E-16}},
  {{-.2,5.6074583118E-14},{-.15,3.45712001558E-14},{-.1,1.74485756879E-14},{-.05,5.49537373903E-15},{0,8.95509013444E-16},
   {.05,4.06523202059E-15},{.1,1.19363694895E-14},{.15,2.44318688193E-14},{.2,4.1936644321E-14}}},
 {"Y44",1,{2.24877185254E-5,1.414412440718E-5,5.351600087907E-6,2.992505661382E-8},
  {{9.53117043791E-16,-9.4118709965E-16,1.67332240628E-14},{Residual->1.75596295782E-16}},
  {{-.6,7.68946011385E-15},{-.4,3.91819106942E-15},{-.2,1.58101019059E-15},{1.11022302463E-16,8.9550901334E-16},
   {.2,1.65718651977E-15},{.4,3.45708165669E-15},{.6,6.21459169327E-15}}},
 {"AY",1,{2.250373355414E-5,1.414369581324E-5,5.351002216098E-6,2.991447161568E-8},
  {{6.65218065474E-16,-1.2097301316E-14,2.07952318066E-12},{Residual->3.76921732716E-16}},
  {{-.1,2.31185420028E-14},{-.07,1.1097945339E-14},{-.04,4.30360266211E-15},{-.01,1.03546698683E-15},{.02,1.47962186247E-15},
   {.05,5.70565228329E-15},{.08,1.26221567931E-14}}},
 {"EY",1,{2.250179877097E-5,1.414362036357E-5,5.352511764986E-6,2.998225132223E-8},
  {{9.40856489878E-16,1.71180637459E-17,4.68710645413E-13},{Residual->2.40970375211E-17}},
  {{-.1,5.61629171636E-15},{-.07,3.24563065127E-15},{-.04,1.72289925011E-15},{-.01,9.41586408949E-16},{.02,1.12633898884E-15},
   {.05,2.13823055252E-15},{.08,3.93342531282E-15}}},
 {"R32",1,{2.250029705564E-5,1.414362968365E-5,5.352109655676E-6,2.993976154839E-8},
  {{9.21641099031E-16,1.30950040191E-16,1.64218865252E-13},{Residual->4.10989110028E-17}},
  {{-.1,2.51083403E-15},{-.07,1.7471972285E-15},{-.04,1.24447447242E-15},{-.01,9.18591361063E-16},{.02,9.50515712206E-16},
   {.05,1.299954584E-15},{.08,2.02402241224E-15}}},
 {"Y24",1,{2.250004441098E-5,1.414525914717E-5,5.353481148925E-6,2.973909796491E-8},
  {{8.95642917874E-16,-1.8587498537E-16,1.62267154851E-15},{Residual->4.19634488169E-18}},
  {{-.3,1.09380171983E-15},{-.2,9.99931725585E-16},{-.1,9.36465384141E-16},{5.55111512313E-17,8.96389321575E-16},
   {.1,8.87585918686E-16},{.2,9.19325049612E-16},{.3,9.9034933928E-16}}},
 {"Y46",1,{2.250004441098E-5,1.414525914717E-5,5.353481148925E-6,2.973909796491E-8},
  {{8.87662961907E-16,5.78183871032E-17,1.7023026389E-15},{Residual->1.01722442754E-17}},
  {{-.45,1.19456662082E-15},{-.3,1.03635774737E-15},{-.15,9.29175971011E-16},{-5.5511151231E-17,8.84413947766E-16},
   {.15,9.21665453217E-16},{.3,1.05297186624E-15},{.45,1.26693978944E-15}}},
 {"Y22",1,{2.250004441098E-5,1.414525914717E-5,5.353481148925E-6,2.973909796491E-8},
  {{1.19967777286E-15,-1.1518706283E-16,1.44815519543E-14},{Residual->1.82612643949E-16}},
  {{-.6,6.49706948476E-15},{-.4,3.6338630361E-15},{-.2,1.77400787374E-15},{1.11022302463E-16,8.84413947766E-16},
   {.2,1.93507743881E-15},{.4,3.72513504338E-15},{.6,6.16751577428E-15}}},
 {"Y26",1,{2.250004441098E-5,1.414525914717E-5,5.353481148925E-6,2.973909796518E-8},
  {{1.16068125856E-15,8.56568155609E-15,1.05839338277E-13},{Residual->4.13675661702E-16}},
  {{-.3,7.66869545253E-15},{-.2,4.16145025633E-15},{-.1,1.91620301721E-15},{5.55111512313E-17,8.84413947783E-16},
   {.1,2.4962745232E-15},{.2,7.16541526994E-15},{.3,1.34673310605E-14}}},
 {"Y66",1,{2.250004441098E-5,1.414525914717E-5,5.353481148925E-6,2.973909796518E-8},
  {{2.03955085928E-15,-3.1831008289E-14,1.18781193129E-12},{Residual->8.72760466991E-16}},
  {{-.2,5.58849016546E-14},{-.15,3.42974848717E-14},{-.1,1.71095521325E-14},{-.05,5.43570784421E-15},{0,8.84413947783E-16},
   {.05,4.15322473223E-15},{.1,1.20012096197E-14},{.15,2.46068059932E-14},{.2,4.21544466309E-14}}},
 {"Y44",1,{2.250004441098E-5,1.414525914717E-5,5.353481148925E-6,2.973909796491E-8},
  {{9.48073106425E-16,-8.8263022851E-16,1.67223490433E-14},{Residual->1.60040340969E-16}},
  {{-.6,7.63244682598E-15},{-.4,3.89345215516E-15},{-.2,1.59134595509E-15},{1.11022302463E-16,8.84413947766E-16},
   {.2,1.6555414445E-15},{.4,3.44770701591E-15},{.6,6.26063532911E-15}}},
 {"AY",1,{2.249926553561E-5,1.414540090074E-5,5.354121292518E-6,2.987366187718E-8},
  {{5.06685658308E-16,-4.3687826619E-15,2.23153360378E-12},{Residual->5.1636203039E-16}},
  {{-.1,2.38298155466E-14},{-.07,1.0930724173E-14},{-.04,4.00103738576E-15},{-.01,1.17480990368E-15},{.02,1.2123698789E-15},
   {.05,6.52171302019E-15},{.08,1.39788648243E-14}}},
 {"EY",1,{2.24982794938E-5,1.414532605142E-5,5.355519022534E-6,2.988445128899E-8},
  {{9.53044838597E-16,-1.5644581762E-16,4.67205428497E-13},{Residual->5.35392595412E-17}},
  {{-.1,5.59953603631E-15},{-.07,3.31836834929E-15},{-.04,1.74402295141E-15},{-.01,9.31023429644E-16},{.02,1.09202575348E-15},
   {.05,2.18685114614E-15},{.08,3.91105800921E-15}}},
 {"R32",1,{2.249292290671E-5,1.414545234142E-5,5.355006182691E-6,2.991547466925E-8},
  {{8.98341120358E-16,8.37224853468E-16,1.68918336138E-13},{Residual->4.35091074912E-17}},
  {{-.1,2.53535387743E-15},{-.07,1.58026172656E-15},{-.04,1.20176567657E-15},{-.01,9.08879146627E-16},{.02,9.75189148951E-16},
   {.05,1.35134985501E-15},{.08,2.05196757759E-15}}},
 {"Y24",1,{2.249307266093E-5,1.414454126534E-5,5.354213847956E-6,2.987932926517E-8},
  {{8.94538110176E-16,1.09728082427E-16,1.78950614078E-15},{Residual->4.46538086871E-18}},
  {{-.3,1.01786194157E-15},{-.2,9.48979431592E-16},{-.1,9.06396836025E-16},{5.55111512313E-17,8.94935624687E-16},
   {.1,9.1672712564E-16},{.2,9.85329564304E-16},{.3,1.09259796683E-15}}},
 {"Y46",1,{2.249307266093E-5,1.414454126534E-5,5.354213847956E-6,2.987932926517E-8},
  {{8.96678861293E-16,8.66521776692E-17,1.71175978311E-15},{Residual->1.38598528692E-17}},
  {{-.45,1.18777420347E-15},{-.3,1.04393475444E-15},{-.15,9.36412649578E-16},{-5.5511151231E-17,8.92774317336E-16},
   {.15,9.30809145623E-16},{.3,1.06963209643E-15},{.45,1.29382352554E-15}}},
 {"Y22",1,{2.249307266093E-5,1.414454126534E-5,5.354213847956E-6,2.987932926517E-8},
  {{1.21572529778E-15,-2.6779722682E-16,1.45918553438E-14},{Residual->1.90418210814E-16}},
  {{-.6,6.65623134062E-15},{-.4,3.71410796915E-15},{-.2,1.82127784443E-15},{1.11022302463E-16,8.92774317336E-16},
   {.2,1.93771368133E-15},{.4,3.71174009689E-15},{.6,6.11910981975E-15}}},
 {"Y26",1,{2.249307266093E-5,1.414454126534E-5,5.354213847956E-6,2.987932926517E-8},
  {{1.16747218369E-15,8.94336959179E-15,1.06854885122E-13},{Residual->3.78487591102E-16}},
  {{-.3,7.715043309E-15},{-.2,4.0502847977E-15},{-.1,1.87373518094E-15},{5.55111512313E-17,8.92774317336E-16},
   {.1,2.58459855935E-15},{.2,7.34943986616E-15},{.3,1.36257970896E-14}}},
 {"Y66",1,{2.249307266093E-5,1.414454126534E-5,5.354213847956E-6,2.987932926517E-8},
  {{2.0569371766E-15,-3.4138613119E-14,1.18743457844E-12},{Residual->8.36815575902E-16}},
  {{-.2,5.62927515375E-14},{-.15,3.4565173366E-14},{-.1,1.75974552874E-14},{-.05,5.58227231645E-15},{0,8.92774317336E-16},
   {.05,3.9894500176E-15},{.1,1.16336509236E-14},{.15,2.43252564381E-14},{.2,4.17488371508E-14}}},
 {"Y44",1,{2.249307266093E-5,1.414454126534E-5,5.354213847956E-6,2.987932926517E-8},
  {{9.62377360994E-16,-9.7970676404E-16,1.67848433402E-14},{Residual->1.66856411398E-16}},
  {{-.6,7.72836804054E-15},{-.4,3.96295709803E-15},{-.2,1.61756166401E-15},{1.11022302463E-16,8.92774317336E-16},
   {.2,1.65397732372E-15},{.4,3.45183809377E-15},{.6,6.22818953061E-15}}}}
