FD	 1.294441E-5	 1.669643E-6	
EX2	 9.615842E-5	 8.516674E-6	
FD	 1.236546E-5	 1.674114E-6	
AY	 1.382531E-5	 2.970930E-6	
EY	 1.382531E-5	 2.970930E-6	
R32	 1.336604E-5	 2.915915E-6	
AY	 1.329198E-5	 2.921966E-6	
EY	 1.846007E-5	 2.005773E-6	
R32	 1.466843E-5	 1.669820E-6	
AY	 1.455977E-5	 1.644159E-6	
EY	 1.290818E-5	 7.860809E-7	
R32	 1.287898E-5	 7.993195E-7	
AY	 1.285250E-5	 7.935437E-7	
EY	 1.310492E-5	 2.737196E-7	
R32	 1.297625E-5	 2.458260E-7	
Y24	 1.295898E-5	 2.193870E-7	
Y46	 1.312022E-5	 1.989095E-7	
Y22	 1.312022E-5	 1.989095E-7	
Y26	 1.313759E-5	 1.979169E-7	
Y66	 1.313759E-5	 1.979169E-7	
Y44	 1.313759E-5	 1.979169E-7	
AY	 1.317321E-5	 2.059703E-7	
EY	 1.323217E-5	 9.849819E-8	
R32	 1.323899E-5	 9.884307E-8	
Y24	 1.323842E-5	 9.822561E-8	
Y46	 1.318448E-5	 9.585951E-8	
Y22	 1.391930E-5	 6.405878E-8	
Y26	 1.391930E-5	 6.405878E-8	
Y66	 1.391930E-5	 6.405878E-8	
Y44	 1.391930E-5	 6.405878E-8	
AY	 1.394372E-5	 1.287511E-7	
EY	 1.396450E-5	 1.413796E-7	
R32	 1.386865E-5	 1.354729E-7	
Y24	 1.388271E-5	 1.244257E-7	
Y46	 1.399566E-5	 1.093935E-7	
Y22	 1.404636E-5	 1.079254E-7	
Y26	 1.404636E-5	 1.079254E-7	
Y66	 1.404636E-5	 1.079254E-7	
Y44	 1.404636E-5	 1.079254E-7	
AY	 1.407635E-5	 1.069792E-7	
EY	 1.409112E-5	 8.081849E-8	
R32	 1.408808E-5	 8.297760E-8	
Y24	 1.406756E-5	 7.591476E-8	
Y46	 1.404239E-5	 7.361272E-8	
Y22	 1.411850E-5	 7.149450E-8	
Y26	 1.411850E-5	 7.149450E-8	
Y66	 1.411850E-5	 7.149450E-8	
Y44	 1.411850E-5	 7.149450E-8	
