FD	 -4.63482E-6	 1.407961E-5	 -2.44675E-6	 9.138536E-7	
EX2	 -1.16407E-5	 1.374869E-5	 -2.61278E-6	 9.593415E-7	
FD	 -1.14334E-5	 1.372826E-5	 -2.55920E-6	 9.185025E-7	
AY	 6.733123E-8	 1.418960E-5	 1.732016E-8	 1.402658E-6	
EY	 6.792911E-8	 1.447485E-5	 2.581881E-8	 5.796666E-7	
R32	 5.499965E-8	 1.421145E-5	 1.347622E-8	 9.748223E-8	
AY	 5.692750E-8	 1.420586E-5	 1.830239E-8	 8.348110E-8	
EY	 5.868043E-8	 1.419914E-5	 1.643383E-8	 5.188553E-8	
R32	 6.161530E-8	 1.421373E-5	 2.002960E-8	 3.510913E-8	
AY	 5.345963E-8	 1.421708E-5	 1.902873E-8	 3.498498E-8	
EY	 6.478432E-8	 1.421771E-5	 1.502834E-8	 3.517122E-8	
R32	 6.451971E-8	 1.421648E-5	 1.790030E-8	 3.488757E-8	
AY	 5.149349E-8	 1.421537E-5	 1.501226E-8	 3.473500E-8	
EY	 7.190579E-8	 1.421365E-5	 2.109814E-8	 3.492367E-8	
R32	 5.404734E-8	 1.420994E-5	 1.686388E-8	 3.490025E-8	
Y24	 7.697375E-8	 1.420355E-5	 2.118765E-8	 3.583093E-8	
Y46	 5.409090E-8	 1.420353E-5	 1.392338E-8	 3.583214E-8	
Y22	 6.075614E-8	 1.420354E-5	 1.898228E-8	 3.582743E-8	
Y26	 6.488925E-8	 1.420354E-5	 1.367227E-8	 3.583325E-8	
Y66	 7.607463E-8	 1.420354E-5	 1.608360E-8	 3.582842E-8	
Y44	 5.372788E-8	 1.420355E-5	 1.601871E-8	 3.583354E-8	
AY	 7.806447E-8	 1.420241E-5	 1.503222E-8	 3.554891E-8	
EY	 5.355610E-8	 1.420797E-5	 1.643460E-8	 3.501508E-8	
R32	 5.105840E-8	 1.420972E-5	 1.395605E-8	 3.513974E-8	
Y24	 4.355296E-8	 1.420440E-5	 2.087542E-8	 3.570083E-8	
Y46	 4.674409E-8	 1.420439E-5	 1.823262E-8	 3.570104E-8	
Y22	 8.112130E-8	 1.420439E-5	 1.464592E-8	 3.571436E-8	
Y26	 5.282535E-8	 1.420439E-5	 2.177694E-8	 3.571027E-8	
Y66	 4.115867E-8	 1.420440E-5	 1.532950E-8	 3.569370E-8	
Y44	 5.403027E-8	 1.420440E-5	 1.086158E-8	 3.569945E-8	
AY	 6.893611E-8	 1.420492E-5	 1.586341E-8	 3.560952E-8	
EY	 5.577882E-8	 1.420364E-5	 1.996437E-8	 3.655875E-8	
R32	 6.321651E-8	 1.420490E-5	 2.131332E-8	 3.538852E-8	
Y24	 5.496698E-8	 1.420364E-5	 1.724026E-8	 3.585638E-8	
Y46	 6.442039E-8	 1.420363E-5	 1.628226E-8	 3.585637E-8	
Y22	 8.769495E-8	 1.420363E-5	 1.438578E-8	 3.586753E-8	
Y26	 6.224663E-8	 1.420363E-5	 1.811729E-8	 3.586364E-8	
Y66	 4.602507E-8	 1.420363E-5	 1.265446E-8	 3.585636E-8	
Y44	 8.570921E-8	 1.420364E-5	 1.558460E-8	 3.586317E-8	
AY	 6.394937E-8	 1.420400E-5	 1.416750E-8	 3.569150E-8	
EY	 4.530099E-8	 1.419578E-5	 2.366218E-8	 3.657150E-8	
R32	 8.920283E-8	 1.419386E-5	 1.493542E-8	 3.683264E-8	
Y24	 7.827670E-8	 1.419462E-5	 1.957055E-8	 3.601548E-8	
Y46	 5.710108E-8	 1.419462E-5	 1.112430E-8	 3.601301E-8	
Y22	 6.244881E-8	 1.419462E-5	 1.707902E-8	 3.601603E-8	
Y26	 7.029367E-8	 1.419462E-5	 2.188401E-8	 3.601412E-8	
Y66	 6.315268E-8	 1.419462E-5	 1.708664E-8	 3.601495E-8	
Y44	 6.609745E-8	 1.419462E-5	 1.647132E-8	 3.601372E-8	
OCT1	 5.994148E-8	 1.419460E-5	 1.828070E-8	 3.601255E-8	
OCT2	 5.335213E-8	 1.419574E-5	 1.890517E-8	 3.600231E-8	
