FD	 1.340246E-5	 5.625280E-7	
EX2	 1.206283E-5	 6.633727E-7	
FD	 1.204046E-5	 5.613869E-7	
AY	 1.104564E-5	 4.481827E-7	
EY	 1.049624E-5	 2.297296E-7	
R32	 1.080705E-5	 1.705967E-7	
AY	 1.080703E-5	 1.706033E-7	
EY	 1.068255E-5	 1.222417E-7	
R32	 1.082665E-5	 1.138136E-7	
AY	 1.082686E-5	 1.135938E-7	
EY	 1.077025E-5	 8.704112E-8	
R32	 1.083072E-5	 8.727409E-8	
AY	 1.083084E-5	 8.723520E-8	
EY	 1.079518E-5	 7.720998E-8	
R32	 1.083419E-5	 7.798502E-8	
Y24	 1.080515E-5	 5.386330E-8	
Y46	 1.080150E-5	 5.297082E-8	
Y22	 1.080150E-5	 5.297082E-8	
Y26	 1.088352E-5	 4.132251E-8	
Y66	 1.088352E-5	 4.132251E-8	
Y44	 1.087612E-5	 3.874137E-8	
AY	 1.087629E-5	 3.780640E-8	
EY	 1.086852E-5	 3.709918E-8	
R32	 1.086278E-5	 3.673607E-8	
Y24	 1.085959E-5	 3.665235E-8	
Y46	 1.085959E-5	 3.665235E-8	
Y22	 1.085959E-5	 3.665235E-8	
Y26	 1.085959E-5	 3.665235E-8	
Y66	 1.085959E-5	 3.665235E-8	
Y44	 1.085959E-5	 3.665235E-8	
AY	 1.085935E-5	 3.653265E-8	
EY	 1.086241E-5	 3.659642E-8	
R32	 1.085850E-5	 3.650679E-8	
Y24	 1.085850E-5	 3.650679E-8	
Y46	 1.085850E-5	 3.650679E-8	
Y22	 1.085850E-5	 3.650679E-8	
Y26	 1.085850E-5	 3.650679E-8	
Y66	 1.085850E-5	 3.650679E-8	
Y44	 1.085850E-5	 3.650679E-8	
AY	 1.085849E-5	 3.650102E-8	
EY	 1.086041E-5	 3.646687E-8	
R32	 1.085800E-5	 3.634732E-8	
Y24	 1.085800E-5	 3.634732E-8	
Y46	 1.085800E-5	 3.634732E-8	
Y22	 1.085800E-5	 3.634732E-8	
Y26	 1.085800E-5	 3.634732E-8	
Y66	 1.085800E-5	 3.634732E-8	
Y44	 1.085800E-5	 3.634732E-8	
OCT1	 1.085800E-5	 3.634732E-8	
OCT2	 1.085832E-5	 3.632862E-8	
OCT1	 1.085832E-5	 3.632862E-8	
OCT2	 1.085842E-5	 3.628383E-8	
