FD	 8.094900E-6	 7.232235E-7	
EX2	 6.910507E-6	 8.484997E-7	
FD	 6.908108E-6	 7.433484E-7	
AY	 6.754686E-6	 1.271793E-6	
EY	 6.942148E-6	 1.040441E-6	
R32	 6.594879E-6	 2.867254E-7	
AY	 6.594621E-6	 2.867504E-7	
EY	 6.609682E-6	 1.194429E-7	
R32	 6.597018E-6	 4.428365E-8	
AY	 6.595524E-6	 4.422888E-8	
EY	 6.597305E-6	 3.848540E-8	
R32	 6.596267E-6	 3.704775E-8	
AY	 6.596370E-6	 3.705591E-8	
EY	 6.596499E-6	 3.704551E-8	
R32	 6.596313E-6	 3.694262E-8	
Y24	 6.597614E-6	 3.693347E-8	
Y46	 6.588903E-6	 3.632693E-8	
Y22	 6.588903E-6	 3.632693E-8	
Y26	 6.588692E-6	 3.631481E-8	
Y66	 6.588692E-6	 3.631481E-8	
Y44	 6.588692E-6	 3.631481E-8	
AY	 6.589095E-6	 3.618781E-8	
EY	 6.588924E-6	 3.613030E-8	
R32	 6.589344E-6	 3.611808E-8	
Y24	 6.591089E-6	 3.573486E-8	
Y46	 6.593209E-6	 3.547875E-8	
Y22	 6.593209E-6	 3.547875E-8	
Y26	 6.593921E-6	 3.544453E-8	
Y66	 6.593921E-6	 3.544453E-8	
Y44	 6.593943E-6	 3.543957E-8	
AY	 6.594092E-6	 3.540076E-8	
EY	 6.593879E-6	 3.532051E-8	
R32	 6.593506E-6	 3.527442E-8	
Y24	 6.593692E-6	 3.501284E-8	
Y46	 6.596378E-6	 3.487127E-8	
Y22	 6.596378E-6	 3.487127E-8	
Y26	 6.596378E-6	 3.487127E-8	
Y66	 6.596378E-6	 3.487127E-8	
Y44	 6.598446E-6	 3.478496E-8	
AY	 6.598550E-6	 3.476496E-8	
EY	 6.598181E-6	 3.472860E-8	
R32	 6.598178E-6	 3.473187E-8	
Y24	 6.598167E-6	 3.460327E-8	
Y46	 6.598167E-6	 3.460327E-8	
Y22	 6.598167E-6	 3.460327E-8	
Y26	 6.598167E-6	 3.460327E-8	
Y66	 6.598167E-6	 3.460327E-8	
Y44	 6.598167E-6	 3.460327E-8	
OCT1	 6.598167E-6	 3.460327E-8	
OCT2	 6.599439E-6	 3.456705E-8	
