{{"FD",1,{5.829151538986E-6,6.987039701882E-6,-2.5611858806E-6,9.243150585791E-8}},
 {"EX2",1,{6.78256384851E-6,6.942496471506E-6,-2.4892628397E-6,1.08838002684E-7}},
 {"FD",1,{6.776442707484E-6,6.941921345123E-6,-2.50218124324E-6,9.24145694388E-8}},
 {"AY",1,{6.737627103232E-6,6.911265716355E-6,-2.71175444396E-6,6.643069213052E-8},
  {{5.33716455921E-15,-1.79311414E-14,1.10100888678E-12},{Residual->2.46272718813E-15}},
  {{-.5,2.91771970595E-13},{-.35,1.4338392622E-13},{-.2,5.2841927778E-14},{-.05,8.57692789265E-15},{.1,1.42850703269E-14},
   {.25,7.41323529976E-14},{.4,1.71547129785E-13}}},
 {"EY",1,{6.719504686E-6,6.912960942876E-6,-2.65718622261E-6,6.083761702366E-8},
  {{4.54272911098E-15,1.99538723023E-14,2.28769490658E-13},{Residual->1.85142903265E-16}},
  {{-.5,5.16903719949E-14},{-.35,2.56371965435E-14},{-.2,9.66421636433E-15},{-.05,4.45053045154E-15},{.1,8.53250814865E-15},
   {.25,2.37057156263E-14},{.4,4.92629545428E-14}}},
 {"R32",1,{6.72660964514E-6,6.910434755429E-6,-2.68913090776E-6,5.231261121071E-8},
  {{3.43586831709E-15,9.04084464411E-14,1.39337408608E-12},{Residual->9.72865939184E-16}},
  {{-.5,3.06565345448E-13},{-.35,1.42067711045E-13},{-.2,4.19390754167E-14},{-.05,2.75032415718E-15},{.1,2.45391104397E-14},
   {.25,1.14539046265E-13},{.4,2.62217229928E-13}}},
 {"AY",1,{6.715624750509E-6,6.911881472018E-6,-2.68607488421E-6,5.183850727518E-8},
  {{5.33548291923E-15,1.73339543714E-14,1.14006239724E-12},{Residual->2.86274456776E-15}},
  {{-.5,2.79131207666E-13},{-.35,1.42567743437E-13},{-.2,4.98855125551E-14},{-.05,4.20899007186E-15},{.1,1.5191859797E-14},
   {.25,8.42605911321E-14},{.4,1.94225993961E-13}}},
 {"EY",1,{6.713160069372E-6,6.912219596552E-6,-2.68824962489E-6,5.132176216007E-8},
  {{3.15766165948E-15,2.88161987879E-15,2.11319631177E-13},{Residual->4.15801461361E-16}},
  {{-.5,5.43147707253E-14},{-.35,2.86217536642E-14},{-.2,1.09291349245E-14},{-.05,2.94970358209E-15},{.1,5.58526688733E-15},
   {.25,1.76914422502E-14},{.4,3.78324538125E-14}}},
 {"R32",1,{6.716851400416E-6,6.912165129973E-6,-2.6922801864E-6,5.15366583776E-8},
  {{2.10607715554E-15,-9.6459050842E-15,1.37894699155E-12},{Residual->2.8501376622E-15}},
  {{-.5,3.49724496224E-13},{-.35,1.77246492246E-13},{-.2,5.87873692373E-14},{-.05,6.5315675318E-15},{.1,1.65638871495E-14},
   {.25,8.01794970682E-14},{.4,2.21953474438E-13}}},
 {"AY",1,{6.763933279898E-6,6.916455374806E-6,-2.69475140233E-6,5.323693990785E-8},
  {{1.5976559149E-15,-1.6369866554E-14,1.22940019461E-12},{Residual->1.26310638139E-15}},
  {{-.3,1.18484301297E-13},{-.2,5.2817783992E-14},{-.1,1.35250979469E-14},{5.55111512313E-17,2.66781794724E-15},
   {.1,1.34189762085E-14},{.2,4.81460382554E-14},{.3,1.0635563025E-13}}},
 {"EY",1,{6.758852262295E-6,6.916906860192E-6,-2.67363768633E-6,5.243398033026E-8},
  {{2.98804856142E-15,4.12066355427E-15,2.15128867921E-13},{Residual->1.881873166E-16}},
  {{-.5,5.44721875577E-14},{-.35,2.82340979139E-14},{-.2,1.09052481142E-14},{-.05,3.17639971013E-15},{.1,5.38089218591E-15},
   {.25,1.74418957184E-14},{.4,3.91593284645E-14}}},
 {"R32",1,{6.759706761441E-6,6.916674729281E-6,-2.67695856578E-6,5.354650505564E-8},
  {{1.70910929105E-15,1.01661369688E-15,1.41946664979E-12},{Residual->2.12235902103E-15}},
  {{-.5,3.5612405967E-13},{-.35,1.77502024115E-13},{-.2,5.38148644625E-14},{-.05,5.82898967753E-15},{.1,1.74672604164E-14},
   {.25,9.21086070214E-14},{.4,2.2786680062E-13}}},
 {"AY",1,{6.692120023799E-6,6.911209239964E-6,-2.67333960016E-6,5.196088287937E-8},
  {{4.41301896238E-15,2.82355263739E-14,1.14611781083E-12},{Residual->1.56919995343E-15}},
  {{-.3,9.76018532982E-14},{-.2,4.63059158981E-14},{-.1,1.51011655696E-14},{5.55111512313E-17,2.77603637678E-15},
   {.1,1.67193337777E-14},{.2,5.70407472178E-14},{.3,1.16259067631E-13}}},
 {"EY",1,{6.69161212284E-6,6.91121065535E-6,-2.66712926173E-6,5.159868405666E-8},
  {{2.8694094421E-15,-2.3231834375E-15,2.12248939015E-13},{Residual->2.02409955165E-16}},
  {{-.3,2.26563709379E-14},{-.2,1.18371300498E-14},{-.1,5.372671253E-15},{5.55111512313E-17,2.64056910243E-15},
   {.1,4.6100841508E-15},{.2,1.12951841841E-14},{.3,2.11035593408E-14}}},
 {"R32",1,{6.691005964458E-6,6.911186471267E-6,-2.66714981702E-6,5.24777843976E-8},
  {{4.15973629323E-16,1.33533455821E-14,1.38851360745E-12},{Residual->1.83125384319E-15}},
  {{-.3,1.22097514114E-13},{-.2,5.3548608335E-14},{-.1,9.70248041513E-15},{5.55111512313E-17,2.73550718308E-15},
   {.1,1.48102244149E-14},{.2,6.07324904473E-14},{.3,1.28068800583E-13}}},
 {"Y24",1,{6.748634253435E-6,6.939458214777E-6,-2.66875157118E-6,5.131151132375E-8},
  {{3.03943721961E-15,9.74855851929E-16,2.55599758462E-15},{Residual->2.13352381891E-16}},
  {{-1.5,7.27786942758E-15},{-1.2,5.71072876034E-15},{-.9,4.36620549462E-15},{-.6,3.3113924834E-15},{-.3,2.70629385743E-15},
   {0,2.75391785528E-15},{.3,3.53603590055E-15},{.6,4.81351359064E-15},{.9,6.32005707858E-15},{1.2,8.00388899159E-15},
   {1.5,9.93828206342E-15}}},
 {"Y46",1,{6.746125283498E-6,6.9381345922E-6,-2.66873672057E-6,5.130741529011E-8},
  {{2.65109363821E-15,-1.3212204195E-17,2.33637243997E-15},{Residual->7.29448294478E-17}},
  {{-1,5.04329553101E-15},{-.8,4.20678558211E-15},{-.6,3.4811424514E-15},{-.4,2.92834951422E-15},{-.2,2.63681231901E-15},
   {0,2.63287119433E-15},{.2,2.80958213382E-15},{.4,3.1246834958E-15},{.6,3.55884232042E-15},{.8,4.14410696429E-15},
   {1,4.8755972498E-15}}},
 {"Y22",1,{6.746125283501E-6,6.938134592165E-6,-2.66873672057E-6,5.13074152901E-8},
  {{6.14654236139E-15,2.73396700587E-17,7.82024231828E-14},{Residual->1.87686589881E-15}},
  {{-.6,3.28640530036E-14},{-.4,2.09923604034E-14},{-.2,1.06506861695E-14},{1.11022302463E-16,2.63245086375E-15},
   {.2,9.37399934151E-15},{.4,2.02902133398E-14},{.6,3.38087473728E-14}}},
 {"Y26",1,{6.742332157699E-6,6.937816852207E-6,-2.65301140962E-6,5.055993624102E-8},
  {{4.48882583426E-15,-3.9300031523E-15,8.28963011158E-14},{Residual->9.76837610305E-16}},
  {{-.6,3.58675575402E-14},{-.4,2.06199583178E-14},{-.2,9.38037465046E-15},{1.11022302463E-16,2.63245086375E-15},
   {.2,7.22147367958E-15},{.4,1.66379965391E-14},{.6,3.19058264986E-14}}},
 {"Y66",1,{6.743528028402E-6,6.938122922734E-6,-2.65708638197E-6,5.000378986671E-8},
  {{1.03484070779E-14,-3.7983769506E-15,2.61276773367E-12},{Residual->3.42176142915E-15}},
  {{-.2,1.13059810866E-13},{-.15,7.23700577303E-14},{-.1,4.06709468088E-14},{-.05,1.68369779535E-14},{0,2.5563071527E-15},
   {.05,1.79603043502E-14},{.1,3.98409028929E-14},{.15,6.85310167461E-14},{.2,1.1322449925E-13}}},
 {"Y44",1,{6.743528028402E-6,6.938122922757E-6,-2.65708638197E-6,5.000378986672E-8},
  {{4.13576132106E-15,-2.635369197E-15,4.09480684567E-14},{Residual->8.16931948965E-16}},
  {{-.6,2.01901806533E-14},{-.4,1.2409018965E-14},{-.2,6.57754615761E-15},{1.11022302463E-16,2.50037900103E-15},
   {.2,5.83943996284E-15},{.4,1.05181849565E-14},{.6,1.67774162228E-14}}},
 {"AY",1,{6.78366740216E-6,6.939952722701E-6,-2.65563651266E-6,5.035067220635E-8},
  {{2.14878672257E-15,5.72332060746E-15,1.20240103128E-12},{Residual->4.65564592073E-16}},
  {{-.1,1.34936678674E-14},{-.07,8.06788624508E-15},{-.04,3.09747466739E-15},{-.01,2.71325816606E-15},{.02,3.0394326832E-15},
   {.05,4.83195502767E-15},{.08,1.05393866687E-14}}},
 {"EY",1,{6.782249275007E-6,6.940084684946E-6,-2.66195603392E-6,4.911311038156E-8},
  {{2.71825121218E-15,-2.687866394E-15,3.39098899514E-13},{Residual->5.2876627462E-16}},
  {{-.1,6.94686047584E-15},{-.07,3.89043003332E-15},{-.04,2.96775401238E-15},{-.01,2.94651164778E-15},{.02,2.94419827151E-15},
   {.05,4.21812061606E-15},{.08,4.08469557337E-15}}},
 {"R32",1,{6.785037223104E-6,6.939233044772E-6,-2.68148530797E-6,4.932829417773E-8},
  {{1.40795335418E-15,1.68280138933E-14,1.80930744337E-12},{Residual->1.17065050122E-15}},
  {{-.1,1.91630050729E-14},{-.07,6.62385521034E-15},{-.04,3.81824039772E-15},{-.01,2.32760283087E-15},{.02,3.16190217904E-15},
   {.05,6.20027831755E-15},{.08,1.42438912816E-14}}},
 {"Y24",1,{6.743662785552E-6,6.921497373489E-6,-2.68065047131E-6,4.851458770807E-8},
  {{2.43420970723E-15,-1.0608824312E-15,3.72526483978E-15},{Residual->7.40009515441E-18}},
  {{-.3,3.07949627481E-15},{-.2,2.80422926303E-15},{-.1,2.58503355224E-15},{5.55111512313E-17,2.43328060648E-15},
   {.1,2.35871889475E-15},{.2,2.36255934281E-15},{.3,2.45922417165E-15}}},
 {"Y46",1,{6.748311302123E-6,6.923975345897E-6,-2.68067103405E-6,4.848629280154E-8},
  {{2.36314693165E-15,4.05232692457E-17,3.54785714059E-15},{Residual->2.17068375923E-17}},
  {{-.45,3.07937527938E-15},{-.3,2.66365376324E-15},{-.15,2.40835028755E-15},{-5.5511151231E-17,2.35366522048E-15},
   {.15,2.47485906157E-15},{.3,2.7227024023E-15},{.45,3.07457250561E-15}}},
 {"Y22",1,{6.748311302123E-6,6.923975345897E-6,-2.68067103405E-6,4.848629280162E-8},
  {{5.76937152249E-15,1.52507575625E-16,7.88375584749E-14},{Residual->1.87205463816E-15}},
  {{-.6,3.2584603557E-14},{-.4,2.07578402645E-14},{-.2,1.02374149108E-14},{1.11022302463E-16,2.35092058964E-15},
   {.2,8.9056156917E-15},{.4,2.00864805643E-14},{.6,3.37607905713E-14}}},
 {"Y26",1,{6.748311302123E-6,6.923975345898E-6,-2.68067103405E-6,4.84862928016E-8},
  {{3.33371068659E-15,-4.1146013926E-15,1.06139594352E-13},{Residual->4.90736106942E-16}},
  {{-.3,1.3856297332E-14},{-.2,8.9036163066E-15},{-.1,5.08708313378E-15},{5.55111512313E-17,2.35092058964E-15},
   {.1,4.20026188107E-15},{.2,7.22858398176E-15},{.3,1.14282979997E-14}}},
 {"Y66",1,{6.745740450342E-6,6.923278636632E-6,-2.67335920719E-6,4.80266024413E-8},
  {{1.10053698664E-14,6.28723402623E-15,2.52371122876E-12},{Residual->4.57136531571E-15}},
  {{-.2,1.07670053383E-13},{-.15,7.1391753609E-14},{-.1,3.93199929291E-14},{-.05,1.51163711336E-14},{0,2.35092058964E-15},
   {.05,1.75054082284E-14},{.1,4.16859808408E-14},{.15,7.36619660761E-14},{.2,1.08902566322E-13}}},
 {"Y44",1,{6.746779364734E-6,6.923489203416E-6,-2.67505349332E-6,4.802114943686E-8},
  {{3.90214969104E-15,-2.6783404145E-16,4.11535265485E-14},{Residual->7.91439597594E-16}},
  {{-.6,1.85769921099E-14},{-.4,1.12729433982E-14},{-.2,5.93422770182E-15},{1.11022302463E-16,2.30655454204E-15},
   {.2,6.01324357289E-15},{.4,1.12111321176E-14},{.6,1.80919041292E-14}}},
 {"AY",1,{6.732255417464E-6,6.922533849152E-6,-2.67347946839E-6,4.910428750623E-8},
  {{2.16024488947E-15,1.17804205656E-14,1.26235337428E-12},{Residual->4.08263393545E-16}},
  {{-.1,1.36060692258E-14},{-.07,7.70555937288E-15},{-.04,3.41279964939E-15},{-.01,2.30514851306E-15},{.02,2.41822643006E-15},
   {.05,6.72078573789E-15},{.08,1.08234482514E-14}}},
 {"EY",1,{6.731557342468E-6,6.922543580258E-6,-2.66825560127E-6,4.938000687106E-8},
  {{2.5083535383E-15,1.83587370395E-15,2.19816095557E-13},{Residual->8.04234144439E-17}},
  {{-.1,4.58663484874E-15},{-.07,3.35905047983E-15},{-.04,2.82835213085E-15},{-.01,2.4075492101E-15},{.02,2.71920412133E-15},
   {.05,3.23085205746E-15},{.08,3.99155763548E-15}}},
 {"R32",1,{6.731219275225E-6,6.922877956638E-6,-2.66378618704E-6,4.883664738176E-8},
  {{2.33374413187E-15,-1.3637584257E-14,1.22045818221E-12},{Residual->6.27769272547E-16}},
  {{-.1,1.65276098899E-14},{-.07,8.55900879326E-15},{-.04,4.11994819346E-15},{-.01,3.28464930544E-15},{.02,2.45715022265E-15},
   {.05,5.45264401651E-15},{.08,8.49969631915E-15}}},
 {"Y24",1,{6.772508932975E-6,6.940958436998E-6,-2.66498373949E-6,4.783256234139E-8},
  {{2.3899078115E-15,1.27815720727E-15,4.46847218722E-15},{Residual->1.2195160556E-17}},
  {{-.3,2.41674264515E-15},{-.2,2.30995191196E-15},{-.1,2.29258746892E-15},{5.55111512313E-17,2.38501812749E-15},
   {.1,2.57105433974E-15},{.2,2.84501213021E-15},{.3,3.16016026949E-15}}},
 {"Y46",1,{6.693455255461E-6,6.900240080566E-6,-2.66482304946E-6,4.748314059779E-8},
  {{2.30453731405E-15,-6.8384759184E-16,3.52742842708E-15},{Residual->1.55197820168E-17}},
  {{-.45,3.30832764195E-15},{-.3,2.85199461233E-15},{-.15,2.50133561664E-15},{-5.5511151231E-17,2.28795402014E-15},
   {.15,2.26728860211E-15},{.3,2.42056256338E-15},{.45,2.71657805086E-15}}},
 {"Y22",1,{6.69345525546E-6,6.900240080565E-6,-2.66482304946E-6,4.748314059781E-8},
  {{5.76987958696E-15,2.66015189285E-15,7.93469196301E-14},{Residual->1.8486177341E-15}},
  {{-.6,3.14392737407E-14},{-.4,1.94608994804E-14},{-.2,9.97849034033E-15},{1.11022302463E-16,2.25464864103E-15},
   {.2,9.51624507122E-15},{.4,2.12257334102E-14},{.6,3.53824164105E-14}}},
 {"Y26",1,{6.693455255461E-6,6.900240080566E-6,-2.66482304946E-6,4.748314059781E-8},
  {{3.29142654165E-15,-3.8768945948E-15,1.04680494222E-13},{Residual->5.17529634884E-16}},
  {{-.3,1.36407349639E-14},{-.2,8.79059452502E-15},{-.1,4.86965364138E-15},{5.55111512313E-17,2.25464864103E-15},
   {.1,4.35785312658E-15},{.2,7.15122823684E-15},{.3,1.12858110391E-14}}},
 {"Y66",1,{6.693455255461E-6,6.900240080566E-6,-2.66482304946E-6,4.748314059781E-8},
  {{1.08017142958E-14,1.03513326436E-14,2.56401378658E-12},{Residual->4.34363924007E-15}},
  {{-.2,1.07649961222E-13},{-.15,7.19664347959E-14},{-.1,3.91408221639E-14},{-.05,1.54899024308E-14},{0,2.25464864103E-15},
   {.05,1.75695033869E-14},{.1,4.16778134216E-14},{.15,7.38740786101E-14},{.2,1.12194331976E-13}}},
 {"Y44",1,{6.693864138233E-6,6.900281342617E-6,-2.66542937421E-6,4.746790271238E-8},
  {{3.88958838529E-15,-9.8802350366E-17,4.12697627515E-14},{Residual->8.0756841174E-16}},
  {{-.6,1.85105259555E-14},{-.4,1.11789094032E-14},{-.2,5.95586618019E-15},{1.11022302463E-16,2.25464864103E-15},
   {.2,6.01657285253E-15},{.4,1.13227930004E-14},{.6,1.82099369459E-14}}},
 {"AY",1,{6.705873359765E-6,6.901497807497E-6,-2.66735157396E-6,4.75349274588E-8},
  {{2.03770096411E-15,-1.7213671743E-14,1.20726330521E-12},{Residual->5.87559944782E-16}},
  {{-.1,1.65022947006E-14},{-.07,8.41428778109E-15},{-.04,4.08791167452E-15},{-.01,2.41842726206E-15},{.02,2.7131891416E-15},
   {.05,4.83394404239E-15},{.08,7.76692877345E-15}}},
 {"EY",1,{6.710114429813E-6,6.901472312506E-6,-2.65679802488E-6,4.801916224222E-8},
  {{2.20702515737E-15,1.31891875309E-15,2.38978691952E-13},{Residual->8.72577315484E-17}},
  {{-.1,4.57719182409E-15},{-.07,3.11161906702E-15},{-.04,2.51294063194E-15},{-.01,2.2661020337E-15},{.02,2.38275186443E-15},
   {.05,2.90933136627E-15},{.08,3.78646312302E-15}}},
 {"R32",1,{6.70921716823E-6,6.901184489917E-6,-2.65410921201E-6,4.995820827384E-8},
  {{3.54194859947E-15,1.27698270716E-14,1.13380885625E-12},{Residual->1.95148998994E-15}},
  {{-.1,1.16201649103E-14},{-.07,1.22918601279E-14},{-.04,3.7735437587E-15},{-.01,2.30473411955E-15},{.02,3.21177842398E-15},
   {.05,8.50531473618E-15},{.08,1.15580056014E-14}}},
 {"Y24",1,{6.72397618718E-6,6.908490716926E-6,-2.65443874911E-6,4.979792817463E-8},
  {{2.50189290783E-15,4.61078440972E-16,4.39077597622E-15},{Residual->5.72492151397E-18}},
  {{-.3,2.76062743673E-15},{-.2,2.58718564907E-15},{-.1,2.4938238796E-15},{5.55111512313E-17,2.49582257393E-15},
   {.1,2.59823592305E-15},{.2,2.77805529779E-15},{.3,3.02891686801E-15}}},
 {"Y46",1,{6.847433665712E-6,6.9726118178E-6,-2.65475305421E-6,4.885381377329E-8},
  {{2.4902315235E-15,9.05720517165E-16,3.11436307895E-15},{Residual->3.13857738209E-17}},
  {{-.45,2.74147760863E-15},{-.3,2.47840833425E-15},{-.15,2.3866951202E-15},{-5.5511151231E-17,2.47983365049E-15},
   {.15,2.73543555604E-15},{.3,3.07892217331E-15},{.45,3.49289696134E-15}}},
 {"Y22",1,{6.847433665725E-6,6.972611817794E-6,-2.65475305421E-6,4.885381377331E-8},
  {{5.76460527655E-15,2.61373423915E-15,7.96466098067E-14},{Residual->1.73717295923E-15}},
  {{-.6,3.1670398213E-14},{-.4,1.93579188138E-14},{-.2,9.92130377555E-15},{1.11022302463E-16,2.3866951202E-15},
   {.2,9.67315537561E-15},{.4,2.10288134572E-14},{.6,3.55181551639E-14}}},
 {"Y26",1,{6.847433665725E-6,6.972611817794E-6,-2.65475305421E-6,4.88538137731E-8},
  {{3.3786244044E-15,-3.0848486478E-15,1.05392981925E-13},{Residual->5.10205213682E-16}},
  {{-.3,1.36142192108E-14},{-.2,8.69495686606E-15},{-.1,4.79819090901E-15},{5.55111512313E-17,2.38669512018E-15},
   {.1,4.5489341544E-15},{.2,7.50797662251E-15},{.3,1.16094328867E-14}}},
 {"Y66",1,{6.847433665725E-6,6.972611817794E-6,-2.65475305421E-6,4.88538137731E-8},
  {{1.07474052013E-14,1.8838317916E-15,2.55265835264E-12},{Residual->3.9143231911E-15}},
  {{-.2,1.11160862376E-13},{-.15,6.94499401004E-14},{-.1,3.98629684873E-14},{-.05,1.61607743813E-14},{0,2.38669512018E-15},
   {.05,1.77504862959E-14},{.1,4.14201731883E-14},{.15,7.17933551683E-14},{.2,1.09640144589E-13}}},
 {"Y44",1,{6.854032930326E-6,6.974028398153E-6,-2.66441258016E-6,4.872249591234E-8},
  {{4.05673129295E-15,-1.5607217792E-15,4.16455448212E-14},{Residual->8.5307263944E-16}},
  {{-.6,1.96217945902E-14},{-.4,1.21590777539E-14},{-.2,6.34597886461E-15},{1.11022302463E-16,2.38669512019E-15},
   {.2,5.86161152081E-15},{.4,1.10670495436E-14},{.6,1.75979218571E-14}}}}
