FD	 2.119019E-5	 4.944009E-7	
EX2	 2.105153E-5	 5.099838E-7	
FD	 2.097404E-5	 4.960242E-7	
AY	 1.981975E-5	 3.421454E-7	
EY	 1.983129E-5	 2.782139E-7	
R32	 2.078640E-5	 3.296624E-7	
AY	 2.078393E-5	 2.489149E-7	
EY	 2.085899E-5	 2.614787E-7	
R32	 2.036336E-5	 1.071499E-7	
AY	 2.035730E-5	 2.022839E-7	
EY	 2.047641E-5	 2.167848E-7	
R32	 2.018930E-5	 1.958369E-7	
AY	 2.017816E-5	 4.597196E-8	
EY	 2.018087E-5	 4.577722E-8	
R32	 2.016316E-5	 5.723399E-8	
Y24	 2.019841E-5	 4.690968E-8	
Y46	 2.020988E-5	 4.226788E-8	
Y22	 2.019592E-5	 4.221972E-8	
Y26	 2.019592E-5	 4.221972E-8	
Y66	 2.019592E-5	 4.221972E-8	
Y44	 2.019834E-5	 4.099474E-8	
AY	 2.019246E-5	 1.325399E-7	
EY	 2.024071E-5	 1.403425E-7	
R32	 2.020420E-5	 1.351921E-7	
Y24	 2.029507E-5	 7.182778E-8	
Y46	 2.024839E-5	 6.574032E-8	
Y22	 2.026490E-5	 6.392517E-8	
Y26	 2.025669E-5	 6.266722E-8	
Y66	 2.025147E-5	 6.253351E-8	
Y44	 2.025724E-5	 6.200743E-8	
AY	 2.026218E-5	 1.124356E-7	
EY	 2.022272E-5	 1.156750E-7	
R32	 1.993136E-5	 1.595636E-7	
Y24	 1.994999E-5	 1.332229E-7	
Y46	 1.994507E-5	 1.311144E-7	
Y22	 1.994571E-5	 1.303987E-7	
Y26	 1.994571E-5	 1.303987E-7	
Y66	 1.994571E-5	 1.303987E-7	
Y44	 1.994571E-5	 1.303987E-7	
AY	 1.993379E-5	 1.488833E-7	
EY	 2.007859E-5	 2.009326E-7	
R32	 2.003949E-5	 1.958460E-7	
Y24	 2.005079E-5	 1.941758E-7	
Y46	 2.020590E-5	 1.352644E-7	
Y22	 2.016818E-5	 1.285491E-7	
Y26	 2.017352E-5	 1.231696E-7	
Y66	 2.017352E-5	 1.231696E-7	
Y44	 2.017352E-5	 1.231696E-7	
