FD	 7.155067E-6	 2.363221E-7	
EX2	 6.953797E-6	 4.693322E-7	
FD	 6.954900E-6	 4.479130E-7	
AY	 6.953866E-6	 4.479973E-7	
EY	 6.962098E-6	 2.594317E-7	
R32	 6.956630E-6	 1.249665E-7	
AY	 6.956603E-6	 1.249572E-7	
EY	 6.954064E-6	 6.341144E-8	
R32	 6.956632E-6	 4.226730E-8	
AY	 6.956606E-6	 4.226712E-8	
EY	 6.956453E-6	 3.831686E-8	
R32	 6.956614E-6	 3.748575E-8	
AY	 6.956610E-6	 3.747884E-8	
EY	 6.956600E-6	 3.746343E-8	
R32	 6.956611E-6	 3.743060E-8	
Y24	 6.956611E-6	 3.743060E-8	
Y46	 6.956212E-6	 3.743046E-8	
Y22	 6.956212E-6	 3.743046E-8	
Y26	 6.956334E-6	 3.728125E-8	
Y66	 6.956334E-6	 3.728125E-8	
Y44	 6.956334E-6	 3.728125E-8	
AY	 6.956349E-6	 3.730884E-8	
EY	 6.956349E-6	 3.730869E-8	
R32	 6.956345E-6	 3.731338E-8	
Y24	 6.956345E-6	 3.731338E-8	
Y46	 6.955032E-6	 3.729492E-8	
Y22	 6.955032E-6	 3.729492E-8	
Y26	 6.955249E-6	 3.722441E-8	
Y66	 6.955249E-6	 3.722441E-8	
Y44	 6.955211E-6	 3.715654E-8	
AY	 6.955224E-6	 3.717927E-8	
EY	 6.955224E-6	 3.716729E-8	
R32	 6.955222E-6	 3.717182E-8	
Y24	 6.955109E-6	 3.716883E-8	
Y46	 6.954469E-6	 3.714855E-8	
Y22	 6.954469E-6	 3.714855E-8	
Y26	 6.954469E-6	 3.714855E-8	
Y66	 6.954469E-6	 3.714855E-8	
Y44	 6.954469E-6	 3.714855E-8	
AY	 6.954466E-6	 3.714747E-8	
EY	 6.954466E-6	 3.712993E-8	
R32	 6.954464E-6	 3.713866E-8	
Y24	 6.954464E-6	 3.713866E-8	
Y46	 6.953990E-6	 3.712562E-8	
Y22	 6.953990E-6	 3.712562E-8	
Y26	 6.953990E-6	 3.712562E-8	
Y66	 6.953990E-6	 3.712562E-8	
Y44	 6.953990E-6	 3.712562E-8	
