{{"FD",1,{-1.4190340036E-6,1.17591449812E-5,2.795783110113E-6,9.268724606671E-7}},
 {"EX2",1,{5.001673144481E-7,1.686940351328E-5,3.013748189317E-6,1.204638303141E-6}},
 {"FD",1,{-8.54693798879E-7,1.193774283169E-5,3.100410737749E-6,9.26505978726E-7}},
 {"AY",1,{-2.42111645135E-7,1.288696117303E-5,2.873982769068E-6,1.46471378052E-6},
  {{2.16061807969E-12,-7.2283070416E-14,5.0644486319E-12},{Residual->3.72769977144E-14}},
  {{-.5,3.44434341043E-12},{-.35,2.79713631847E-12},{-.2,2.45200932869E-12},{-.05,2.16982716487E-12},{.1,2.14877606014E-12},
   {.25,2.4504127014E-12},{.4,2.96635113762E-12}}},
 {"EY",1,{-5.74316370017E-8,1.334624797189E-5,1.986790182923E-6,6.325625129035E-7},
  {{2.11597835504E-12,-1.8197301298E-12,5.7851579451E-13},{Residual->6.7330354078E-14}},
  {{-.5,3.21525158366E-12},{-.35,2.76238846734E-12},{-.2,2.45510270745E-12},{-.05,2.2504594549E-12},{.1,2.04336737362E-12},
   {.25,1.59389642147E-12},{.4,1.50287699922E-12}}},
 {"R32",1,{-1.67811123543E-6,1.291892798785E-5,1.849517560618E-6,4.219946401494E-7},
  {{3.7866137333E-13,-5.3860543402E-13,3.91185860948E-13},{Residual->1.96685257376E-14}},
  {{-.5,7.35020387985E-13},{-.35,6.40721942838E-13},{-.2,4.9673258181E-13},{-.05,3.75589518797E-13},{.1,3.58255355359E-13},
   {.25,2.59802328604E-13},{.4,2.26312244793E-13}}},
 {"AY",1,{-1.80595575218E-6,1.300764849522E-5,1.973483607085E-6,4.812200636698E-7},
  {{1.31233159306E-13,-3.4045930697E-14,4.92953794898E-12},{Residual->1.11113588632E-13}},
  {{-.5,1.47859161528E-12},{-.35,6.41297257093E-13},{-.2,2.17312089711E-13},{-.05,1.75016879772E-13},{.1,3.83260567155E-13},
   {.25,3.41814776471E-13},{.4,8.85130827376E-13}}},
 {"EY",1,{-1.84659520145E-6,1.312444739528E-5,1.698958713814E-6,3.724301244513E-7},
  {{2.2326809883E-13,-4.7348353206E-13,5.18815133262E-13},{Residual->1.05851487423E-14}},
  {{-.5,5.85563285238E-13},{-.35,4.55497038161E-13},{-.2,3.51059773104E-13},{-.05,2.30303896054E-13},{.1,1.93566924605E-13},
   {.25,1.26969839055E-13},{.4,1.21567970604E-13}}},
 {"R32",1,{-3.70614886295E-6,1.300600620029E-5,1.547751842869E-6,3.412439539386E-7},
  {{1.51475824413E-13,-3.0066904381E-13,1.7908591577E-13},{Residual->9.37600123883E-15}},
  {{-.5,3.44047909873E-13},{-.35,2.73036901498E-13},{-.2,2.3505280851E-13},{-.05,1.71074613778E-13},{.1,1.07288339918E-13},
   {.25,8.51115467416E-14},{.4,6.5910946367E-14}}},
 {"AY",1,{-3.45975253576E-6,1.285528755511E-5,1.35055167865E-6,2.212453419763E-7},
  {{1.28038051986E-13,1.19008281238E-12,4.23383204923E-12},{Residual->1.47130415663E-14}},
  {{-.3,1.44551596966E-13},{-.2,6.17808711956E-14},{-.1,6.55069499767E-14},{5.55111512313E-17,1.40047127829E-13},
   {.1,2.57060712711E-13},{.2,5.4048159183E-13},{.3,8.72310487182E-13}}},
 {"EY",1,{-3.76822840887E-6,1.286388103708E-5,1.241165197622E-6,2.481671821576E-7},
  {{5.31219768256E-14,-1.2406835302E-13,4.78488097319E-13},{Residual->5.91923164125E-15}},
  {{-.5,2.29607031791E-13},{-.35,1.66698373455E-13},{-.2,9.00052194299E-14},{-.05,6.14415470265E-14},{.1,4.73503135262E-14},
   {.25,4.71682927312E-14},{.4,8.282802639E-14}}},
 {"R32",1,{-2.63206070412E-6,1.283486548363E-5,1.364505304766E-6,8.50904530837E-8},
  {{5.71261926856E-14,2.44924781162E-13,2.99882666173E-13},{Residual->5.96929003944E-15}},
  {{-.5,1.25354992779E-14},{-.35,4.39324305474E-15},{-.2,1.65993072189E-14},{-.05,4.72489973361E-14},{.1,9.49164704788E-14},
   {.25,1.2711137135E-13},{.4,2.05528813023E-13}}},
 {"AY",1,{-2.61304540766E-6,1.28127764736E-5,1.429319938964E-6,5.579456549658E-8},
  {{4.32699390448E-15,-4.3877154907E-13,4.57727559618E-12},{Residual->1.97662840154E-14}},
  {{-.3,5.63061514843E-13},{-.2,2.59900881457E-13},{-.1,8.17739172142E-14},{5.55111512313E-17,5.09236254849E-15},
   {.1,2.63508707499E-15},{.2,1.38822283196E-13},{.3,2.60640077927E-13}}},
 {"EY",1,{-2.61063439055E-6,1.280586901523E-5,1.436534127767E-6,6.075130271913E-8},
  {{3.78103542572E-15,1.02987835287E-14,4.3980895087E-13},{Residual->9.45671149837E-16}},
  {{-.3,4.0985147912E-14},{-.2,1.86279865233E-14},{-.1,6.59628331986E-15},{5.55111512313E-17,2.94998997581E-15},
   {.1,1.12122920237E-14},{.2,2.32941614481E-14},{.3,4.5947893021E-14}}},
 {"R32",1,{-2.96265573077E-6,1.278598355466E-5,1.400161419906E-6,7.480367722228E-8},
  {{5.90335391702E-15,-4.795374167E-14,4.80795271791E-13},{Residual->2.85131849569E-15}},
  {{-.3,6.51444223204E-14},{-.2,2.96006909436E-14},{-.1,2.01312744744E-14},{5.55111512313E-17,5.76313499853E-15},
   {.1,6.09067736189E-15},{.2,1.32430909808E-14},{.3,3.5972862441E-14}}},
 {"Y24",1,{-2.92819797568E-6,1.284867857751E-5,1.426935377269E-6,5.778159743005E-8},
  {{5.12798337358E-15,-1.1541962894E-15,2.41336908987E-15},{Residual->1.14752392467E-15}},
  {{-1.5,1.09939621598E-14},{-1.2,9.89144899857E-15},{-.9,8.95687921089E-15},{-.6,8.00659230596E-15},{-.3,6.94319946779E-15},
   {0,5.59559012597E-15},{.3,4.07802852181E-15},{.6,3.33871300157E-15},{.9,4.74117513988E-15},{1.2,7.47773982341E-15},
   {1.5,1.02768423436E-14}}},
 {"Y46",1,{-2.92819797568E-6,1.284867857751E-5,1.426935377269E-6,5.778159743005E-8},
  {{4.66702181407E-15,6.5636691983E-15,1.25996267136E-14},{Residual->9.23405724392E-16}},
  {{-1,9.18650872503E-15},{-.8,8.1166934852E-15},{-.6,6.82478022048E-15},{-.4,5.2449807694E-15},{-.2,3.52973489811E-15},
   {0,3.33871300157E-15},{.2,5.62023603864E-15},{.4,9.22759431202E-15},{.6,1.34706531156E-14},{.8,1.8271821626E-14},
   {1,2.39438813027E-14}}},
 {"Y22",1,{-2.92819797566E-6,1.28486785775E-5,1.426935377269E-6,5.778159742941E-8},
  {{5.66487554028E-15,-4.3028044255E-14,1.19860060832E-13},{Residual->2.15952599163E-15}},
  {{-.6,7.5542349091E-14},{-.4,4.24326090639E-14},{-.2,1.68231651867E-14},{1.11022302463E-16,3.33871300149E-15},
   {.2,4.82804920693E-15},{.4,1.02672005382E-14},{.6,2.06653108254E-14}}},
 {"Y26",1,{-2.92819797568E-6,1.284867857751E-5,1.426935377269E-6,5.778159742961E-8},
  {{1.71220355554E-14,2.50644234473E-13,9.34541730894E-13},{Residual->9.30638286627E-15}},
  {{-.6,1.94134491014E-13},{-.4,7.72855761767E-14},{-.2,1.67664372763E-14},{1.11022302463E-16,3.33871300152E-15},
   {.2,9.82278730823E-14},{.4,2.71242788175E-13},{.6,5.05545108763E-13}}},
 {"Y66",1,{-2.92819797568E-6,1.284867857751E-5,1.426935377269E-6,5.778159742961E-8},
  {{1.39942667804E-14,-6.0397018072E-13,9.80786748894E-12},{Residual->8.11783563797E-15}},
  {{-.2,5.3120212843E-13},{-.15,3.27209334342E-13},{-.1,1.69242286397E-13},{-.05,6.07198159428E-14},{0,3.33871300152E-15},
   {.05,1.63416044789E-14},{.1,6.43036107725E-14},{.15,1.50302586686E-13},{.2,2.74468444313E-13}}},
 {"Y44",1,{-2.92819797568E-6,1.284867857751E-5,1.426935377269E-6,5.778159742941E-8},
  {{5.70376245874E-15,-4.169387778E-14,1.01623802507E-13},{Residual->1.94368454224E-15}},
  {{-.6,6.7938518619E-14},{-.4,3.91877823509E-14},{-.2,1.64015289475E-14},{1.11022302463E-16,3.33871300149E-15},
   {.2,3.78634173239E-15},{.4,7.95574189261E-15},{.6,1.51363694745E-14}}},
 {"AY",1,{-2.86078939865E-6,1.279969817243E-5,1.39697475926E-6,4.352164373175E-8},
  {{1.56279165645E-14,2.04607968811E-13,1.83268871731E-12},{Residual->1.05041509359E-14}},
  {{-.1,1.80218564535E-15},{-.07,3.28675310455E-14},{-.04,4.9007918095E-15},{-.01,7.20193623374E-15},{.02,2.25506500086E-14},
   {.05,2.5075919332E-14},{.08,4.81404818382E-14}}},
 {"EY",1,{-2.95886468279E-6,1.278284917972E-5,1.390536701378E-6,5.582912504265E-8},
  {{2.35673068468E-15,5.05112402996E-15,5.62852319443E-13},{Residual->1.00748244249E-15}},
  {{-.1,7.88907146029E-15},{-.07,3.62917696148E-15},{-.04,4.34513806315E-15},{-.01,1.82795050626E-15},{.02,1.73278913296E-15},
   {.05,5.56691272773E-15},{.08,5.73037233236E-15}}},
 {"R32",1,{-3.18974907126E-6,1.277446816969E-5,1.340600478558E-6,1.104038404509E-7},
  {{4.40268315577E-15,1.5968630049E-14,-1.551631424E-13},{Residual->1.20818887576E-15}},
  {{-.1,1.83622923597E-15},{-.07,1.94580816455E-15},{-.04,1.858289331E-15},{-.01,6.47004689917E-15},{.02,4.93372425867E-15},
   {.05,3.56920498534E-15},{.08,5.06894972406E-15}}},
 {"Y24",1,{-3.1606799727E-6,1.277382377344E-5,1.351984189389E-6,9.956840601507E-8},
  {{1.22057583029E-14,-7.4095603247E-15,-8.6419948659E-16},{Residual->1.48498641639E-17}},
  {{-.3,1.43347503836E-14},{-.2,1.36702970425E-14},{-.1,1.29600082725E-14},{5.55111512313E-17,1.21890079863E-14},
   {.1,1.14443200353E-14},{.2,1.06860810674E-14},{.3,9.91386747638E-15}}},
 {"Y46",1,{-3.20507958468E-6,1.279652067628E-5,1.373217411014E-6,9.566142040275E-8},
  {{9.90341224729E-15,-5.0159230507E-15,1.01720972385E-14},{Residual->1.37558875778E-16}},
  {{-.45,1.40684842023E-14},{-.3,1.24816548318E-14},{-.15,1.10264867052E-14},{-5.5511151231E-17,9.91386747638E-15},
   {.15,9.19702486527E-15},{.3,9.20301943304E-15},{.45,9.84176947721E-15}}},
 {"Y22",1,{-2.8500895911E-6,1.262853741208E-5,1.365605906156E-6,8.052606683581E-8},
  {{8.04591655859E-15,-4.0727936503E-14,9.79970336004E-14},{Residual->2.35446506054E-15}},
  {{-.6,7.01265655522E-14},{-.4,3.81206551778E-14},{-.2,1.63622984393E-14},{1.11022302463E-16,9.15110735356E-15},
   {.2,6.48444744005E-15},{.4,9.07664514199E-15},{.6,1.67563744378E-14}}},
 {"Y26",1,{-2.89934886483E-6,1.267002776776E-5,1.276240452792E-6,7.936142595299E-8},
  {{6.08586549773E-15,1.37174499382E-13,1.07362448101E-12},{Residual->3.8291945338E-15}},
  {{-.3,5.7842569868E-14},{-.2,2.47321550172E-14},{-.1,8.06573611308E-15},{5.55111512313E-17,6.48444744003E-15},
   {.1,2.39724949897E-14},{.2,7.51816701834E-14},{.3,1.46936839555E-13}}},
 {"Y66",1,{-2.88067617067E-6,1.265924139899E-5,1.285107477227E-6,7.83576154358E-8},
  {{6.8549290082E-15,3.62149277286E-14,9.53185018906E-12},{Residual->7.47246345893E-15}},
  {{-.2,3.87495441036E-13},{-.15,2.16880476922E-13},{-.1,8.98279901998E-14},{-.05,1.77142340195E-14},{0,6.29823592929E-15},
   {.05,4.26656633416E-14},{.1,1.15198919858E-13},{.15,2.27989023053E-13},{.2,3.87401905074E-13}}},
 {"Y44",1,{-2.78567197785E-6,1.263196443057E-5,1.33146639765E-6,7.373818375636E-8},
  {{5.60420457277E-15,1.55740710466E-14,6.7340655257E-14},{Residual->5.81717880671E-16}},
  {{-.6,2.07167368667E-14},{-.4,9.25853945908E-15},{-.2,5.97806251432E-15},{1.11022302463E-16,6.13991589433E-15},
   {.2,1.07255653059E-14},{.4,2.23618529833E-14},{.6,3.94702928736E-14}}},
 {"AY",1,{-3.08937152836E-6,1.274170739282E-5,1.510395396165E-6,2.723370899469E-7},
  {{1.69001679895E-14,-1.5541230454E-13,5.2398132889E-13},{Residual->1.37515217119E-14}},
  {{-.1,2.08297161854E-14},{-.07,5.87212573255E-14},{-.04,2.60634286446E-14},{-.01,6.77049680825E-15},{.02,5.5849395534E-15},
   {.05,1.32830152722E-14},{.08,1.14982998729E-14}}},
 {"EY",1,{-3.01298916047E-6,1.274850054853E-5,1.488841008067E-6,2.661084882449E-7},
  {{7.08872207123E-14,-1.2876858949E-14,1.75489015926E-12},{Residual->2.3480779721E-15}},
  {{-.1,9.25386058749E-14},{-.07,7.64217239399E-14},{-.04,7.21646523055E-14},{-.01,7.38911298834E-14},{.02,7.29419086805E-14},
   {.05,7.44333857214E-14},{.08,8.01721738313E-14}}},
 {"R32",1,{-3.22244978553E-6,1.273759141088E-5,1.482416260775E-6,2.720558326621E-7},
  {{7.12073392343E-14,3.43605340589E-15,1.27649336488E-12},{Residual->2.81588656963E-15}},
  {{-.1,8.6458692706E-14},{-.07,7.19658044819E-14},{-.04,7.43574202784E-14},{-.01,7.09346172117E-14},{.02,7.55217949122E-14},
   {.05,7.25165896073E-14},{.08,7.95171098548E-14}}},
 {"Y24",1,{-3.30212742171E-6,1.271726855573E-5,1.451445620722E-6,2.515308364424E-7},
  {{7.37646528468E-14,1.07282142519E-14,4.91430742659E-15},{Residual->2.33319195802E-16}},
  {{-.3,7.10830339192E-14},{-.2,7.15117267077E-14},{-.1,7.29512753986E-14},{5.55111512313E-17,7.40143760855E-14},
   {.1,7.44958328766E-14},{.2,7.62499954572E-14},{.3,7.7422335562E-14}}},
 {"Y46",1,{-3.02204228279E-6,1.267385601216E-5,1.247933402078E-6,1.692266282666E-7},
  {{6.33146307747E-14,3.83806793255E-14,8.65309267327E-15},{Residual->2.69232364158E-16}},
  {{-.45,4.77951779878E-14},{-.3,5.25426424101E-14},{-.15,5.77711771521E-14},{-5.5511151231E-17,6.32677616814E-14},
   {.15,6.9664916819E-14},{.3,7.50606309862E-14},{.45,8.25515567705E-14}}},
 {"Y22",1,{-2.6882129242E-6,1.259205644475E-5,1.262928029187E-6,1.330348275907E-7},
  {{3.28860397126E-14,-1.0518275086E-13,1.63275028225E-13},{Residual->2.70351596431E-15}},
  {{-.6,1.52637523536E-13},{-.4,1.05041222908E-13},{-.2,6.14376341422E-14},{1.11022302463E-16,2.86376517145E-14},
   {.2,1.76982653521E-14},{.4,2.01430554475E-14},{.6,2.74749564994E-14}}},
 {"Y26",1,{-2.6882129242E-6,1.259205644475E-5,1.262928029187E-6,1.330348275907E-7},
  {{1.43707927379E-14,9.51662144115E-14,9.4786679054E-13},{Residual->9.0910793851E-15}},
  {{-.3,6.28162354166E-14},{-.2,3.96552257379E-14},{-.1,2.46959854345E-14},{5.55111512313E-17,1.76982653521E-14},
   {.1,2.1865306438E-14},{.2,6.07464593382E-14},{.3,1.38520772799E-13}}},
 {"Y66",1,{-2.6882129242E-6,1.259205644475E-5,1.262928029187E-6,1.330348275907E-7},
  {{1.98894825325E-14,-6.8612450568E-13,8.59203071166E-12},{Residual->2.99044443445E-14}},
  {{-.2,5.32049490579E-13},{-.15,3.1014376908E-13},{-.1,1.42109483098E-13},{-.05,3.5488463079E-14},{0,1.76982653521E-14},
   {.05,4.11173417357E-14},{.1,8.5325281194E-14},{.15,1.07316144022E-13},{.2,1.96561711401E-13}}},
 {"Y44",1,{-2.67804476237E-6,1.259256379948E-5,1.267526470426E-6,1.32204360174E-7},
  {{1.74943859672E-14,1.68809181603E-15,6.44814975951E-14},{Residual->1.39080893648E-15}},
  {{-.6,4.13986045015E-14},{-.4,2.48462184084E-14},{-.2,1.90154582195E-14},{1.11022302463E-16,1.76982653521E-14},
   {.2,2.14667289397E-14},{.4,2.98738171961E-14},{.6,4.03808864596E-14}}},
 {"AY",1,{-2.627332232E-6,1.257557036136E-5,1.24945297024E-6,1.390045338329E-7},
  {{2.37707769362E-14,3.95719702163E-14,3.8896203754E-13},{Residual->6.67534938595E-15}},
  {{-.1,2.91525161237E-14},{-.07,1.8580057609E-14},{-.04,1.76750735646E-14},{-.01,1.75984773903E-14},{.02,3.45014286906E-14},
   {.05,3.40786908833E-14},{.08,2.21132731492E-14}}},
 {"EY",1,{-2.67225549649E-6,1.257416026721E-5,1.228692167957E-6,1.443621633725E-7},
  {{1.92840612748E-14,4.41053837959E-14,1.39279041941E-12},{Residual->2.23411344383E-15}},
  {{-.1,3.02930063941E-14},{-.07,2.00525711769E-14},{-.04,2.20476949624E-14},{-.01,1.6845405056E-14},{.02,2.06517964772E-14},
   {.05,2.82218461979E-14},{.08,2.9862003656E-14}}},
 {"R32",1,{-2.6752032439E-6,1.25860214773E-5,1.217803667777E-6,1.664777578945E-7},
  {{2.51605818624E-14,-4.3637253751E-14,-2.422426061E-13},{Residual->2.35756131698E-15}},
  {{-.1,2.74680750456E-14},{-.07,2.76885319402E-14},{-.04,2.41985739209E-14},{-.01,2.45652512338E-14},{.02,2.90366171057E-14},
   {.05,1.94850157022E-14},{.08,2.04625323532E-14}}},
 {"Y24",1,{-2.60440942441E-6,1.259490862888E-5,1.235183024574E-6,1.532837666945E-7},
  {{2.77417963189E-14,-6.6993884087E-15,2.88805928868E-15},{Residual->4.32860544433E-17}},
  {{-.3,3.00310952493E-14},{-.2,2.91293406172E-14},{-.1,2.85149050567E-14},{5.55111512313E-17,2.77148438736E-14},
   {.1,2.71210610565E-14},{.2,2.64824315021E-14},{.3,2.6007553478E-14}}},
 {"Y46",1,{-2.67197647486E-6,1.259679263249E-5,1.264865421033E-6,1.473019548343E-7},
  {{2.34393895676E-14,-6.2512389304E-15,5.52616958977E-15},{Residual->4.41734238009E-17}},
  {{-.45,2.73781216479E-14},{-.3,2.57873530825E-14},{-.15,2.4495747044E-14},{-5.5511151231E-17,2.34959131321E-14},
   {.15,2.26387309018E-14},{.3,2.19731602763E-14},{.45,2.17881877301E-14}}},
 {"Y22",1,{-2.67197647486E-6,1.259679263249E-5,1.264865421033E-6,1.473019548343E-7},
  {{2.19512532616E-14,-2.7553478055E-14,1.25552552099E-13},{Residual->2.90587134201E-15}},
  {{-.6,8.54665472742E-14},{-.4,5.31759869612E-14},{-.2,2.73947401105E-14},{1.11022302463E-16,2.1697865898E-14},
   {.2,2.48450191323E-14},{.4,3.40905558059E-14},{.6,4.76069160007E-14}}},
 {"Y26",1,{-2.67197647487E-6,1.259679263249E-5,1.264865421033E-6,1.473019548341E-7},
  {{2.07749892163E-14,1.55566282145E-13,1.00266558624E-12},{Residual->6.68684876193E-15}},
  {{-.3,5.78068501388E-14},{-.2,3.50738172165E-14},{-.1,2.38841824819E-14},{5.55111512313E-17,2.16978658979E-14},
   {.1,3.67723976745E-14},{.2,8.65429660899E-14},{.3,1.64393209161E-13}}},
 {"Y66",1,{-2.67197647487E-6,1.259679263249E-5,1.264865421033E-6,1.473019548341E-7},
  {{2.43168818551E-14,-6.2793745237E-13,9.31337654093E-12},{Residual->1.67929008906E-14}},
  {{-.2,5.39744250199E-13},{-.15,3.25531544222E-13},{-.1,1.62207459541E-13},{-.05,5.60105496238E-14},{0,2.16978658979E-14},
   {.05,3.69060249134E-14},{.1,7.72143575639E-14},{.15,1.45335458482E-13},{.2,2.51210907392E-13}}},
 {"Y44",1,{-2.84762622127E-6,1.258338045276E-5,1.185693421957E-6,1.409631482651E-7},
  {{2.08920906025E-14,-2.7480306122E-14,6.73239794877E-14},{Residual->1.42840842345E-15}},
  {{-.6,6.3320334028E-14},{-.4,4.06310392266E-14},{-.2,2.74977363199E-14},{1.11022302463E-16,2.16978658981E-14},
   {.2,1.98706091688E-14},{.4,2.09292264029E-14},{.6,2.77006801995E-14}}}}
