FD	 7.071349E-6	 7.110793E-7	
EX2	 7.020149E-6	 7.169823E-7	
FD	 7.018499E-6	 7.101909E-7	
AY	 6.881895E-6	 1.901584E-6	
EY	 7.126483E-6	 1.445635E-6	
R32	 6.821497E-6	 1.137721E-6	
AY	 6.822068E-6	 1.121781E-6	
EY	 6.866522E-6	 4.158898E-7	
R32	 6.819832E-6	 3.234639E-7	
AY	 6.814082E-6	 3.184075E-7	
EY	 6.790519E-6	 4.657831E-8	
R32	 6.791757E-6	 3.700631E-8	
AY	 6.791751E-6	 3.640987E-8	
EY	 6.791572E-6	 3.714904E-8	
R32	 6.791746E-6	 3.696922E-8	
Y24	 6.799587E-6	 3.669307E-8	
Y46	 6.799587E-6	 3.669307E-8	
Y22	 6.799587E-6	 3.669307E-8	
Y26	 6.799587E-6	 3.669307E-8	
Y66	 6.799587E-6	 3.669307E-8	
Y44	 6.799587E-6	 3.669307E-8	
AY	 6.795605E-6	 4.324046E-8	
EY	 6.799857E-6	 5.151257E-8	
R32	 6.799336E-6	 5.155718E-8	
Y24	 6.824411E-6	 4.446382E-8	
Y46	 6.888034E-6	 4.246081E-8	
Y22	 6.888034E-6	 4.246081E-8	
Y26	 6.888034E-6	 4.246081E-8	
Y66	 6.888034E-6	 4.246081E-8	
Y44	 6.888034E-6	 4.246081E-8	
AY	 6.889754E-6	 4.152204E-8	
EY	 6.889474E-6	 4.184524E-8	
R32	 6.889214E-6	 4.603264E-8	
Y24	 6.859225E-6	 4.110460E-8	
Y46	 6.859225E-6	 4.110460E-8	
Y22	 6.859225E-6	 4.110460E-8	
Y26	 6.859225E-6	 4.110460E-8	
Y66	 6.859225E-6	 4.110460E-8	
Y44	 6.859225E-6	 4.110460E-8	
AY	 6.859297E-6	 3.988555E-8	
EY	 6.859767E-6	 3.806266E-8	
R32	 6.859368E-6	 3.940247E-8	
Y24	 6.842230E-6	 3.690686E-8	
Y46	 6.832190E-6	 3.673199E-8	
Y22	 6.832190E-6	 3.673199E-8	
Y26	 6.832190E-6	 3.673199E-8	
Y66	 6.832190E-6	 3.673199E-8	
Y44	 6.832190E-6	 3.673199E-8	
