FD	 -3.08924E-6	 9.059836E-6	 3.527995E-7	 1.996455E-7	
EX2	 -4.34054E-5	 6.775774E-6	 5.315730E-7	 5.880415E-7	
FD	 -4.33900E-5	 6.772435E-6	 3.755515E-8	 2.000495E-7	
AY	 7.779029E-8	 6.726293E-6	 1.921349E-8	 4.672242E-8	
EY	 6.186299E-8	 6.716783E-6	 1.497756E-8	 4.541425E-8	
R32	 4.167767E-8	 6.727784E-6	 2.017673E-8	 3.983451E-8	
AY	 5.385393E-8	 6.729398E-6	 1.910343E-8	 3.910766E-8	
EY	 4.130978E-8	 6.736438E-6	 1.567766E-8	 3.879585E-8	
R32	 6.520086E-8	 6.736482E-6	 2.052404E-8	 3.893876E-8	
AY	 6.175536E-8	 6.744057E-6	 1.750825E-8	 3.889452E-8	
EY	 6.307257E-8	 6.748914E-6	 1.776472E-8	 3.995361E-8	
R32	 7.432070E-8	 6.754903E-6	 1.793441E-8	 3.916385E-8	
AY	 6.760709E-8	 6.754637E-6	 1.907364E-8	 3.926605E-8	
EY	 6.717470E-8	 6.754187E-6	 1.466376E-8	 3.924489E-8	
R32	 4.897341E-8	 6.755833E-6	 2.123357E-8	 3.937756E-8	
Y24	 4.588447E-8	 6.757658E-6	 1.343912E-8	 3.927301E-8	
Y46	 7.444678E-8	 6.752685E-6	 1.938844E-8	 3.886623E-8	
Y22	 5.924923E-8	 6.752705E-6	 1.590598E-8	 3.885945E-8	
Y26	 7.693153E-8	 6.752703E-6	 2.471670E-8	 3.886107E-8	
Y66	 6.559931E-8	 6.752705E-6	 2.124877E-8	 3.886508E-8	
Y44	 7.251292E-8	 6.752704E-6	 1.556388E-8	 3.886959E-8	
AY	 6.709883E-8	 6.754399E-6	 2.044341E-8	 3.826684E-8	
EY	 5.840742E-8	 6.750596E-6	 2.088370E-8	 3.836408E-8	
R32	 7.313234E-8	 6.738310E-6	 1.795542E-8	 3.859390E-8	
Y24	 6.034605E-8	 6.731661E-6	 2.270287E-8	 3.880808E-8	
Y46	 6.942871E-8	 6.715405E-6	 1.800405E-8	 3.793330E-8	
Y22	 5.248175E-8	 6.715425E-6	 1.761587E-8	 3.792804E-8	
Y26	 7.316526E-8	 6.712289E-6	 1.912423E-8	 3.781047E-8	
Y66	 6.990423E-8	 6.712296E-6	 1.348121E-8	 3.781129E-8	
Y44	 5.682458E-8	 6.712161E-6	 1.610113E-8	 3.774715E-8	
AY	 5.170037E-8	 6.715210E-6	 1.384802E-8	 3.768841E-8	
EY	 5.967068E-8	 6.726647E-6	 1.849336E-8	 3.849392E-8	
R32	 5.853242E-8	 6.717721E-6	 1.500087E-8	 3.783189E-8	
Y24	 5.215364E-8	 6.724025E-6	 1.496206E-8	 3.776127E-8	
Y46	 5.376786E-8	 6.724014E-6	 1.955249E-8	 3.775873E-8	
Y22	 6.907797E-8	 6.724001E-6	 2.030990E-8	 3.775739E-8	
Y26	 7.241393E-8	 6.724004E-6	 1.898799E-8	 3.775847E-8	
Y66	 5.412471E-8	 6.723998E-6	 2.447759E-8	 3.776070E-8	
Y44	 4.999182E-8	 6.724019E-6	 1.872864E-8	 3.775357E-8	
AY	 6.030785E-8	 6.726446E-6	 1.923995E-8	 3.778861E-8	
EY	 5.219191E-8	 6.711868E-6	 2.125164E-8	 3.751420E-8	
R32	 5.650512E-8	 6.705841E-6	 1.655153E-8	 3.755433E-8	
Y24	 5.742714E-8	 6.707778E-6	 2.273091E-8	 3.751227E-8	
Y46	 5.586048E-8	 6.704884E-6	 1.878474E-8	 3.746255E-8	
Y22	 6.630385E-8	 6.704879E-6	 1.720111E-8	 3.746589E-8	
Y26	 9.110672E-8	 6.704875E-6	 1.859743E-8	 3.746508E-8	
Y66	 6.134626E-8	 6.704869E-6	 1.492862E-8	 3.746615E-8	
Y44	 5.632440E-8	 6.704853E-6	 1.474452E-8	 3.746234E-8	
OCT1	 5.613927E-8	 6.769496E-6	 1.300962E-8	 3.696672E-8	
OCT2	 6.845444E-8	 6.769491E-6	 2.199156E-8	 3.696848E-8	
