{{"FD",1,{-6.51457034803E-6,1.274000156515E-5,-4.12133220127E-6,2.039468119152E-6}},
 {"EX2",1,{-2.40047703461E-5,1.188050936171E-5,-5.3318362556E-7,2.069880200904E-6}},
 {"FD",1,{-2.40002024854E-5,1.187883747042E-5,-5.65633192075E-7,2.049510092699E-6}},
 {"OCT1",1,{-2.7841718378E-5,1.138491323027E-5,-6.37898553235E-7,4.002099875175E-6},
  {{1.70231897131E-11,2.7282951094E-15,8.5201299614E-20},{Residual->4.94534734157E-15}},
  {{-370,1.60168034109E-11},{-296,1.62255757113E-11},{-222,1.64304183187E-11},{-148,1.66265078622E-11},{-74,1.68220640765E-11},
   {0,1.70213169795E-11},{74,1.7221575926E-11},{148,1.74264329389E-11},{222,1.76275283093E-11},{296,1.7838783886E-11},
   {370,1.80497629152E-11}}},
 {"OCT2",1,{-2.77680377008E-5,1.139707535567E-5,-6.70720994179E-7,4.000937422962E-6},
  {{1.60165095566E-11,-2.413281763E-17,-5.2363675291E-22},{Residual->7.89391923086E-16}},
  {{-370,1.60265138665E-11},{-296,1.60235808146E-11},{-222,1.60207404823E-11},{-148,1.60190450447E-11},{-74,1.60179707978E-11},
   {0,1.60168034109E-11},{74,1.60158518473E-11},{148,1.60139982562E-11},{222,1.60111165662E-11},{296,1.60085086059E-11},
   {370,1.60075002625E-11}}},
 {"OCT1",1,{-2.87737136161E-5,1.132651920486E-5,-6.9452126451E-7,3.870752773014E-6},
  {{1.70236106382E-11,2.75485546756E-15,9.04967899656E-21},{Residual->6.08181294846E-15}},
  {{-740,1.49827270298E-11},{-592,1.54046749388E-11},{-444,1.57996698748E-11},{-296,1.6217259112E-11},{-148,1.66205216201E-11},
   {0,1.70228897159E-11},{148,1.741886922E-11},{296,1.78382990233E-11},{444,1.82504474691E-11},{592,1.86613346334E-11},
   {740,1.90686566393E-11}}},
 {"OCT2",1,{-2.87884864401E-5,1.132693486788E-5,-6.87699097723E-7,3.870587219257E-6},
  {{1.49902144873E-11,-9.5141584065E-18,1.13157774095E-20},{Residual->3.97039493892E-15}},
  {{-740,1.50016291869E-11},{-592,1.49981646608E-11},{-444,1.49978009599E-11},{-296,1.49999903184E-11},{-148,1.4997127049E-11},
   {0,1.49917288811E-11},{148,1.49854247736E-11},{296,1.49814454219E-11},{444,1.49848566379E-11},{592,1.49905936955E-11},
   {740,1.49942328696E-11}}}}
