{{"FD",1,{1.741577035723E-6,1.171718356914E-5,-3.90308075772E-6,3.682844538078E-7}},
 {"EX2",1,{-1.86628965174E-5,1.096260698155E-5,-3.62070601063E-6,6.536472179338E-7}},
 {"FD",1,{-1.87095877357E-5,1.091817798387E-5,-3.74519451645E-6,3.701239469714E-7}},
 {"AY",1,{1.006662339392E-6,1.013084731089E-5,3.215583110139E-8,3.83055602708E-7,
   {{-2.12077166348E-5,1.009469682947E-5,-2.29255819749E-6,3.912649452795E-7},
    {-2.30613481557E-5,1.012358777949E-5,-2.26173027135E-6,3.848038902931E-7},
    {-2.25985038592E-5,1.010566993056E-5,-2.27830860332E-6,3.84117908284E-7},
    {-2.54379693232E-5,1.016858927856E-5,-2.26047888383E-6,3.744395370753E-7},
    {-2.23917336064E-5,1.009537209524E-5,-2.25009373293E-6,3.833424511017E-7},
    {-2.27777129041E-5,1.0120730196E-5,-2.22395358696E-6,3.790059938694E-7},
    {-2.13879822802E-5,1.009754549823E-5,-2.25169352066E-6,3.859626724201E-7},
    {-2.28187306404E-5,1.011980402112E-5,-2.25592667353E-6,3.829944749265E-7},
    {-2.32561271902E-5,1.015877863794E-5,-2.26417685052E-6,3.856786520542E-7},
    {-2.308473575E-5,1.013919653074E-5,-2.28707790636E-6,3.920606037293E-7},
    {-2.27943719719E-5,1.009410909884E-5,-2.27655077169E-6,3.861239985555E-7},
    {-2.39491508324E-5,1.016974649997E-5,-2.23977571725E-6,3.798663410025E-7},
    {-2.25485283039E-5,1.015262452112E-5,-2.2192108181E-6,3.734122621526E-7},
    {-2.31404881254E-5,1.011765231571E-5,-2.27894758876E-6,3.875503213592E-7},
    {-2.27608698546E-5,1.016029686973E-5,-2.23396507054E-6,3.765168176695E-7},
    {-2.12687971289E-5,1.008297392802E-5,-2.21850274516E-6,3.867220335199E-7},
    {-2.47164370706E-5,1.016203026085E-5,-2.26569105536E-6,3.81129703948E-7},
    {-2.19634250248E-5,1.009532243813E-5,-2.25034240042E-6,3.878230338973E-7},
    {-2.27741341227E-5,1.017165493361E-5,-2.31611936665E-6,3.871978036098E-7},
    {-2.29957727058E-5,1.018656455443E-5,-2.16363555138E-6,3.71098609413E-7}}},
  {{1.41429240048E-13,1.68264933122E-13,7.67114533409E-12},{Residual->4.08226413732E-15}},
  {{-.5,1.9772329951E-12},{-.35,1.01688269372E-12},{-.2,4.15166139685E-13},{-.05,1.58388941448E-13},{.1,2.34560405332E-13},
   {.25,6.56940360924E-13},{.4,1.43900702135E-12}}},
 {"EY",1,
  {7.809537996609E-7,9.852251766458E-6,3.583403734103E-8,2.369712883567E-7,{{-2.546901225E-5,9.893849043664E-6,-1.42733555716E-6,
     2.344326609783E-7},
    {-2.53787198508E-5,9.841105951287E-6,-1.46334738421E-6,2.373544166594E-7},
    {-2.38314648644E-5,9.822670274477E-6,-1.42972231324E-6,2.393745266221E-7},
    {-2.51950241293E-5,9.874334983063E-6,-1.47834468342E-6,2.351634417447E-7},
    {-2.57611068209E-5,9.868372135274E-6,-1.46699274257E-6,2.354169692456E-7},
    {-2.69542191388E-5,9.888597947293E-6,-1.43522278337E-6,2.35644887378E-7},
    {-2.49955240571E-5,9.834432446267E-6,-1.45301725863E-6,2.386527120043E-7},
    {-2.45445951224E-5,9.861723019559E-6,-1.40320822079E-6,2.359349330168E-7},
    {-2.45416685483E-5,9.859456908887E-6,-1.43967369566E-6,2.363648833389E-7},
    {-2.61410959669E-5,9.855854478949E-6,-1.49066353492E-6,2.369709575288E-7},
    {-2.54856484311E-5,9.834676367996E-6,-1.46488665109E-6,2.394024871066E-7},
    {-2.55148611593E-5,9.834842079591E-6,-1.51852012533E-6,2.375327972341E-7},
    {-2.44639894068E-5,9.851819199921E-6,-1.44335809485E-6,2.368132224723E-7},
    {-2.37861882507E-5,9.842724825802E-6,-1.40872136514E-6,2.373694603065E-7},
    {-2.46840975996E-5,9.814289750631E-6,-1.50650178544E-6,2.40044862103E-7},
    {-2.45131637545E-5,9.848345452426E-6,-1.48448702153E-6,2.368668194428E-7},
    {-2.62285162985E-5,9.877073597136E-6,-1.52205371253E-6,2.34189334628E-7},
    {-2.51065554939E-5,9.835552021605E-6,-1.45622171911E-6,2.38410806385E-7},
    {-2.44683072376E-5,9.855138344589E-6,-1.3991126436E-6,2.365469844648E-7},
    {-2.47309497034E-5,9.850176500741E-6,-1.49711168911E-6,2.369386044743E-7}}},
  {{1.49470102183E-13,-4.1816027605E-13,4.509984142E-13},{Residual->1.61676331664E-15}},
  {{-.5,4.69731562937E-13},{-.35,3.53785851121E-13},{-.2,2.50151722631E-13},{-.05,1.72437457578E-13},{.1,1.11711496542E-13},
   {.25,7.10364590868E-14},{.4,5.58137351964E-14}}},
 {"R32",1,
  {9.41656746684E-7,1.05805257872E-5,2.178836075967E-8,5.317167387143E-8,{{-2.54763338365E-5,1.056401764603E-5,-1.51429606227E-6,
     5.172969918443E-8},
    {-2.48502859221E-5,1.05719049732E-5,-1.47681137197E-6,5.239831139581E-8},
    {-2.38396345697E-5,1.055717480815E-5,-1.53801237405E-6,5.340644338933E-8},
    {-2.53372856569E-5,1.057152798433E-5,-1.48528537578E-6,5.166016508851E-8},
    {-2.347431E-5,1.052763053247E-5,-1.51329248879E-6,5.144817597914E-8},
    {-2.51836665196E-5,1.055358904052E-5,-1.50762256676E-6,5.244450317643E-8},
    {-2.52201287819E-5,1.055587406897E-5,-1.49990504343E-6,5.059207132059E-8},
    {-2.68821211833E-5,1.063639082518E-5,-1.48935962228E-6,5.341650146438E-8},
    {-2.76641501794E-5,1.059299784497E-5,-1.5079912533E-6,4.97970770072E-8},
    {-2.53622757764E-5,1.057523767278E-5,-1.49280658162E-6,5.266187832821E-8},
    {-2.48404139382E-5,1.056341924648E-5,-1.5228359909E-6,5.21595536918E-8},
    {-2.52119713726E-5,1.057219835441E-5,-1.50168312607E-6,5.201851878154E-8},
    {-2.53211819448E-5,1.056048275268E-5,-1.48296906078E-6,5.103345012893E-8},
    {-2.57419091331E-5,1.060398466803E-5,-1.50156441555E-6,5.445901494242E-8},
    {-2.3985640133E-5,1.062682358061E-5,-1.45853607683E-6,5.390941591921E-8},
    {-2.52558827496E-5,1.053680542533E-5,-1.46314615873E-6,4.972813772813E-8},
    {-2.43611795071E-5,1.059606095907E-5,-1.53754740157E-6,5.736998786127E-8},
    {-2.40879185952E-5,1.064228191693E-5,-1.49528819258E-6,5.802062380375E-8},
    {-2.50566100092E-5,1.062299183082E-5,-1.5364603043E-6,6.079424290731E-8},
    {-2.52786158795E-5,1.057912161301E-5,-1.49886067974E-6,5.438570533021E-8}}},
  {{5.62154364587E-14,-2.4547643718E-13,2.87094161033E-13},{Residual->8.47047114265E-16}},
  {{-.5,2.51744221349E-13},{-.35,1.75941033503E-13},{-.2,1.16432561599E-13},{-.05,6.91017304563E-14},{.1,3.53726128932E-14},
   {.25,1.35842571109E-14},{.4,3.14186058165E-15}}},
 {"AY",1,
  {1.027264588043E-6,1.057478178217E-5,2.017912643304E-8,5.012057152075E-8,{{-2.94385833234E-5,1.057420576533E-5,-1.49851177566E-6,
     5.059226172884E-8},
    {-2.83077960643E-5,1.064122757494E-5,-1.48185932256E-6,5.050855006519E-8},
    {-3.00236490579E-5,1.063948826075E-5,-1.4709249815E-6,5.045851268132E-8},
    {-2.67354267019E-5,1.055507500835E-5,-1.45927119247E-6,4.944596526621E-8},
    {-2.83045286696E-5,1.055516482201E-5,-1.47345562625E-6,5.080771862201E-8},
    {-2.87670356584E-5,1.055669295795E-5,-1.4734568901E-6,5.016666701002E-8},
    {-2.73913246857E-5,1.05865418231E-5,-1.50851561933E-6,4.993398550712E-8},
    {-2.76510109909E-5,1.058685623372E-5,-1.48964814178E-6,4.972390286805E-8},
    {-2.58459685016E-5,1.053119800565E-5,-1.47299620318E-6,4.9960168579E-8},
    {-2.71460123599E-5,1.057885380793E-5,-1.49225947202E-6,4.97974371799E-8},
    {-2.6804358166E-5,1.056370050727E-5,-1.48628097795E-6,5.003582505503E-8},
    {-2.77496253525E-5,1.056106714165E-5,-1.48119636565E-6,4.96879778549E-8},
    {-2.74537213915E-5,1.057724771622E-5,-1.45797875483E-6,4.993359856182E-8},
    {-2.76910805904E-5,1.059017569578E-5,-1.43531614258E-6,4.982220086446E-8},
    {-2.65285932149E-5,1.062362118727E-5,-1.48160372414E-6,5.110475941717E-8},
    {-2.72110503642E-5,1.054668496355E-5,-1.4712984564E-6,5.021262047926E-8},
    {-2.87413381102E-5,1.0561671998E-5,-1.49472555854E-6,4.976862813566E-8},
    {-2.91976278737E-5,1.057020114122E-5,-1.46423404376E-6,5.006410151145E-8},
    {-2.70860713844E-5,1.053626099352E-5,-1.43116764519E-6,5.05608591235E-8},
    {-2.79474718221E-5,1.05597000391E-5,-1.44062116953E-6,4.982568990413E-8}}},
  {{-1.3646325575E-14,-2.8421744407E-13,7.75059894144E-12},{Residual->2.9913856689E-15}},
  {{-.5,2.06898505969E-12},{-.35,1.03031236297E-12},{-.2,3.52029827834E-13},{-.05,2.39613600141E-14},{.1,3.7088683579E-14},
   {.25,3.96705811853E-13},{.4,1.11338153503E-12}}},
 {"EY",1,
  {8.076951210865E-7,1.05825229901E-5,2.202234511723E-8,5.021290319348E-8,{{-3.13171815742E-5,1.052830415502E-5,-1.06013999462E-6,
     5.125993929584E-8},
    {-3.15663783354E-5,1.064880185399E-5,-1.04201888292E-6,5.057067671479E-8},
    {-3.14544833325E-5,1.056116884228E-5,-1.05668658621E-6,5.073227678286E-8},
    {-3.05790535469E-5,1.060339310091E-5,-1.10520514266E-6,5.080930708657E-8},
    {-2.98345157387E-5,1.056774215328E-5,-1.00280020169E-6,4.95701719486E-8},
    {-3.01436400431E-5,1.05551675103E-5,-1.06938407596E-6,4.959775298388E-8},
    {-3.13380548258E-5,1.066035274901E-5,-1.03933865581E-6,5.022849232619E-8},
    {-3.03007362888E-5,1.06047247689E-5,-1.07936476434E-6,5.007113232604E-8},
    {-3.02841375147E-5,1.063316217164E-5,-1.08255209929E-6,5.053637380552E-8},
    {-3.20516808221E-5,1.05729357432E-5,-1.062123398E-6,5.047019222326E-8},
    {-3.01234158089E-5,1.053130973829E-5,-1.09157355274E-6,5.002026566845E-8},
    {-3.01390233542E-5,1.054007430261E-5,-1.06749004418E-6,4.9963553949E-8},
    {-3.0599575656E-5,1.064671586744E-5,-1.05532817167E-6,5.044846362087E-8},
    {-2.86605509055E-5,1.052336084837E-5,-1.0432709721E-6,4.924969168592E-8},
    {-2.93970181605E-5,1.053454364402E-5,-1.06217275479E-6,4.956339522037E-8},
    {-3.13216891996E-5,1.061258133246E-5,-1.06533840303E-6,5.056817621471E-8},
    {-3.12219666192E-5,1.0556561272E-5,-1.04432501972E-6,5.034928311039E-8},
    {-3.0105709449E-5,1.058028269793E-5,-1.07182517607E-6,4.985058572696E-8},
    {-2.99463991119E-5,1.055531482093E-5,-1.04198000599E-6,5.009449892979E-8},
    {-3.07972632125E-5,1.063396222952E-5,-1.03610815167E-6,5.030383424968E-8}}},
  {{3.55244954515E-15,4.41854747931E-16,4.42983841223E-13},{Residual->7.98823659544E-16}},
  {{-.5,1.13176811074E-13},{-.35,5.91377577107E-14},{-.2,2.15238458553E-14},{-.05,3.7260780571E-15},{.1,7.48491009159E-15},
   {.25,3.18379351353E-14},{.4,7.46571969218E-14}}},
 {"R32",1,
  {1.183126465577E-6,1.054392447864E-5,1.687710309192E-8,5.13889620022E-8,{{-3.31837043471E-5,1.05994260508E-5,-9.18031571675E-7,
     5.167131754578E-8},
    {-3.02381918032E-5,1.050705679751E-5,-9.15798268353E-7,5.107211029168E-8},
    {-3.07228729443E-5,1.05318951855E-5,-9.39429099594E-7,5.078114216842E-8},
    {-3.25803522584E-5,1.053426561622E-5,-9.39611615935E-7,5.148630318379E-8},
    {-3.03026359835E-5,1.050361396167E-5,-9.43565112207E-7,5.071706461744E-8},
    {-3.36763693614E-5,1.060997258827E-5,-9.2833774732E-7,5.248217952065E-8},
    {-3.23906403036E-5,1.049950253677E-5,-9.64719022688E-7,5.362906228941E-8},
    {-3.06249180508E-5,1.049530565786E-5,-9.30452462431E-7,5.090615254397E-8},
    {-3.02274728269E-5,1.049502687469E-5,-9.47238354613E-7,5.098291241051E-8},
    {-3.34521644694E-5,1.061958695909E-5,-9.22930574018E-7,5.169923919404E-8},
    {-3.30146954082E-5,1.053732543023E-5,-9.78342187182E-7,5.167224598526E-8},
    {-3.03218890669E-5,1.051268054972E-5,-9.14281792289E-7,5.068485597601E-8},
    {-3.29060341506E-5,1.054258302804E-5,-9.35769209935E-7,5.17269657619E-8},
    {-3.10856997008E-5,1.059973815933E-5,-9.11529833428E-7,5.118360834583E-8},
    {-3.29904130629E-5,1.056543589139E-5,-9.378051212E-7,5.14974861397E-8},
    {-3.28190419232E-5,1.057150255139E-5,-9.63837115855E-7,5.114654301935E-8},
    {-3.16156286752E-5,1.052918264085E-5,-9.38261240592E-7,5.115995652488E-8},
    {-3.15549645034E-5,1.053029214633E-5,-9.39941781303E-7,5.129458480404E-8},
    {-3.06968235039E-5,1.054910761752E-5,-9.39563523407E-7,5.105491311471E-8},
    {-3.16674539415E-5,1.054498932962E-5,-9.31578439802E-7,5.093059660668E-8}}},
  {{3.70780529718E-15,1.02801014561E-14,3.09019555111E-13},{Residual->9.30358316075E-16}},
  {{-.5,7.47347443848E-14},{-.35,3.91631297856E-14},{-.2,1.51103198778E-14},{-.05,3.59303206779E-15},{.1,6.69328558652E-15},
   {.25,2.51210154226E-14},{.4,5.80312363801E-14}}},
 {"AY",1,
  {8.74673533871E-7,1.055776905782E-5,1.280044854684E-8,5.145902059515E-8,{{-3.01604104302E-5,1.051586387906E-5,-7.33421364648E-7,
     5.265671743228E-8},
    {-2.95877852412E-5,1.057464730687E-5,-7.45990609898E-7,5.100260430353E-8},
    {-2.81605310095E-5,1.051602930523E-5,-7.66933149941E-7,5.049457525554E-8},
    {-2.91745620042E-5,1.053489138983E-5,-7.35043782469E-7,5.082877297702E-8},
    {-3.09045920416E-5,1.062785418072E-5,-7.47155813074E-7,5.171407354121E-8},
    {-2.99101994921E-5,1.052693065528E-5,-7.44559616147E-7,5.16456912289E-8},
    {-3.01786892209E-5,1.057702812447E-5,-7.5699948063E-7,5.190872082513E-8},
    {-3.02145356234E-5,1.054048858884E-5,-7.35544431264E-7,5.118844376842E-8},
    {-2.97742812802E-5,1.054689697784E-5,-7.44703173116E-7,5.147002144767E-8},
    {-3.16068354831E-5,1.055755639805E-5,-7.38423445801E-7,5.255641674239E-8},
    {-2.88932411722E-5,1.050677540316E-5,-7.6849346786E-7,5.097815611811E-8},
    {-2.98533273849E-5,1.056534903789E-5,-7.40267196225E-7,5.08872685011E-8},
    {-3.00948058214E-5,1.057530973836E-5,-7.42332031656E-7,5.119920458588E-8},
    {-3.198372033E-5,1.064785590604E-5,-7.22099979245E-7,5.188341383346E-8},
    {-2.95866258434E-5,1.055324269144E-5,-7.56014023413E-7,5.139389749142E-8},
    {-2.99493468299E-5,1.054276834334E-5,-7.30273583922E-7,5.125265377054E-8},
    {-2.95058203131E-5,1.05098618858E-5,-7.45726431801E-7,5.188106752831E-8},
    {-3.05049837684E-5,1.059358997331E-5,-7.41311388899E-7,5.139749444919E-8},
    {-3.12562606495E-5,1.059673232631E-5,-7.72478826518E-7,5.14966277674E-8},
    {-3.04669441979E-5,1.054570904454E-5,-7.36755244197E-7,5.134459033561E-8}}},
  {{-8.8644505111E-15,-5.9266086158E-14,7.71136139796E-12},{Residual->5.42711982327E-15}},
  {{-.3,7.05668900068E-13},{-.2,3.0649412495E-13},{-.1,7.05837241868E-14},{5.55111512313E-17,2.56899285277E-15},
   {.1,5.81005053042E-14},{.2,2.84608243723E-13},{.3,6.69105546766E-13}}},
 {"EY",1,
  {7.958467554165E-7,1.053811794839E-5,1.903666118826E-8,5.140420379995E-8,{{-2.94845305689E-5,1.05702061706E-5,-1.57008579566E-6,
     5.224584513078E-8},
    {-2.89458693307E-5,1.049869413911E-5,-1.55143189073E-6,5.320150371038E-8},
    {-2.93046566162E-5,1.053122509809E-5,-1.58026161385E-6,5.096436790303E-8},
    {-2.79384451917E-5,1.051021402952E-5,-1.55998980708E-6,5.122357670584E-8},
    {-2.90079684158E-5,1.060322858349E-5,-1.5438265295E-6,5.178398523971E-8},
    {-2.92807266302E-5,1.054260821263E-5,-1.56553149011E-6,5.104532488539E-8},
    {-3.00812162187E-5,1.05628807286E-5,-1.55639269296E-6,5.124864376546E-8},
    {-2.9401628208E-5,1.049032652086E-5,-1.54403303803E-6,5.333344678369E-8},
    {-2.71030679368E-5,1.049054021673E-5,-1.5942520068E-6,5.023500828284E-8},
    {-2.8319271038E-5,1.053283210572E-5,-1.5972673396E-6,5.122556346589E-8},
    {-2.87430485796E-5,1.051260556261E-5,-1.59412634274E-6,5.082106330146E-8},
    {-2.92677852753E-5,1.051883067197E-5,-1.56796925646E-6,5.153744118135E-8},
    {-2.98920112737E-5,1.053060102357E-5,-1.56306233736E-6,5.126421885327E-8},
    {-3.05587195475E-5,1.055765964399E-5,-1.57158135812E-6,5.118254320241E-8},
    {-2.9766023157E-5,1.054140646538E-5,-1.54238090336E-6,5.112871548655E-8},
    {-2.86356706138E-5,1.054169812349E-5,-1.55620824498E-6,5.073822536798E-8},
    {-3.02132416972E-5,1.055295442644E-5,-1.58197829452E-6,5.128585296222E-8},
    {-2.85294355236E-5,1.052595053479E-5,-1.59133184045E-6,5.07261999289E-8},
    {-2.93834795204E-5,1.055505471044E-5,-1.56573266845E-6,5.134812422689E-8},
    {-2.9658839499E-5,1.059284199968E-5,-1.52660272016E-6,5.154442561489E-8}}},
  {{3.22288737249E-15,-7.1624577458E-16,4.47151769628E-13},{Residual->3.60989460763E-16}},
  {{-.5,1.15268666589E-13},{-.35,5.84328596871E-14},{-.2,2.15328583252E-14},{-.05,3.67573105736E-15},{.1,7.71376452737E-15},
   {.25,3.14745273888E-14},{.4,7.42432608879E-14}}},
 {"R32",1,
  {5.378095652174E-7,1.054258528856E-5,1.951893168476E-8,5.155562141136E-8,{{-3.02992431621E-5,1.049867650596E-5,-1.40569267492E-6,
     5.062968246145E-8},
    {-3.11272499861E-5,1.05201256801E-5,-1.40251598684E-6,5.056066730518E-8},
    {-3.12795232786E-5,1.05170894476E-5,-1.42196271173E-6,5.130175019099E-8},
    {-3.06268051298E-5,1.054979910446E-5,-1.45485458701E-6,5.177125913116E-8},
    {-3.20617504034E-5,1.053452728067E-5,-1.45749111809E-6,5.087283642181E-8},
    {-3.07267635442E-5,1.052300889113E-5,-1.4161235884E-6,5.084749041084E-8},
    {-3.07956172197E-5,1.060609394266E-5,-1.42947857968E-6,5.34051418787E-8},
    {-3.08130474901E-5,1.048410907705E-5,-1.41777168205E-6,5.180723433536E-8},
    {-3.066829049E-5,1.054370039203E-5,-1.39293202483E-6,5.103557181233E-8},
    {-3.09952108849E-5,1.051128305177E-5,-1.40418187032E-6,5.141506894881E-8},
    {-3.17833078706E-5,1.054731809189E-5,-1.41836590493E-6,5.091590323626E-8},
    {-3.17522841516E-5,1.051433323575E-5,-1.42814448339E-6,5.101484701217E-8},
    {-3.09318658311E-5,1.053805720646E-5,-1.40891224743E-6,5.146174655309E-8},
    {-3.11827968428E-5,1.053489908951E-5,-1.40898426976E-6,5.096061187922E-8},
    {-3.09540617366E-5,1.054516378883E-5,-1.40569958078E-6,5.194589424302E-8},
    {-3.09445319057E-5,1.053205261658E-5,-1.41088576843E-6,5.123052564612E-8},
    {-3.25578139571E-5,1.061730152911E-5,-1.41397550558E-6,5.166692413323E-8},
    {-3.1508101848E-5,1.060618533825E-5,-1.45768983752E-6,5.497112854596E-8},
    {-3.08399290242E-5,1.05524178656E-5,-1.45345936366E-6,5.15974927418E-8},
    {-3.15666717808E-5,1.057556363584E-5,-1.43807011248E-6,5.170065133968E-8}}},
  {{3.77926817851E-15,2.98135531765E-15,3.12377052012E-13},{Residual->9.14300134766E-16}},
  {{-.5,7.93955777259E-14},{-.35,4.20244500276E-14},{-.2,1.68186924383E-14},{-.05,4.14291485579E-15},{.1,5.74664289785E-15},
   {.25,2.40107850998E-14},{.4,5.5536481021E-14}}},
 {"AY",1,
  {7.847770952507E-7,1.05561764117E-5,1.567536972588E-8,5.077485306953E-8,{{-2.74018666131E-5,1.054451462927E-5,-1.61243141084E-6,
     5.071327999757E-8},
    {-2.96553671433E-5,1.056751538649E-5,-1.61517772546E-6,5.132363509906E-8},
    {-2.94036038086E-5,1.056499025929E-5,-1.60335855777E-6,5.08152502235E-8},
    {-2.8636277601E-5,1.055732445546E-5,-1.58842864143E-6,5.054880400845E-8},
    {-2.80262155298E-5,1.060193971908E-5,-1.5929405908E-6,5.080753261311E-8},
    {-2.98474273662E-5,1.058198033892E-5,-1.59193586355E-6,5.121598929897E-8},
    {-2.82612175906E-5,1.053909803812E-5,-1.61050278393E-6,5.066377041824E-8},
    {-2.84179638398E-5,1.055448973606E-5,-1.5990899776E-6,5.039364531384E-8},
    {-2.7419183404E-5,1.051371605133E-5,-1.62943209194E-6,5.044395933826E-8},
    {-2.81992071932E-5,1.05767992279E-5,-1.63107008605E-6,5.072212201444E-8},
    {-2.86058059085E-5,1.052551043411E-5,-1.60706469835E-6,5.064236332753E-8},
    {-2.83177120955E-5,1.054903728541E-5,-1.57756381636E-6,5.03763230851E-8},
    {-2.77073323344E-5,1.051160851622E-5,-1.62536673366E-6,5.06976386236E-8},
    {-2.77306960317E-5,1.059073857815E-5,-1.5962100484E-6,5.063776871135E-8},
    {-2.95427215859E-5,1.063354565248E-5,-1.59779673601E-6,5.160028477252E-8},
    {-2.7729230581E-5,1.055262856111E-5,-1.58697249614E-6,5.068365783874E-8},
    {-2.80303463868E-5,1.054832656014E-5,-1.60234788274E-6,5.112830873801E-8},
    {-2.74510066437E-5,1.050103702082E-5,-1.59393268398E-6,5.074724703761E-8},
    {-2.94923089191E-5,1.055906274271E-5,-1.58318733924E-6,5.100678336674E-8},
    {-2.77136956402E-5,1.054966504096E-5,-1.57479686144E-6,5.032869756395E-8}}},
  {{-8.3538366472E-15,-1.440484115E-13,7.59593988332E-12},{Residual->5.37198863712E-15}},
  {{-.3,7.18714321292E-13},{-.2,3.239747121E-13},{-.1,7.71247101134E-14},{5.55111512313E-17,2.56629965544E-15},
   {.1,4.96560854775E-14},{.2,2.60825085976E-13},{.3,6.35525096185E-13}}},
 {"EY",1,
  {8.182996121156E-7,1.055003618842E-5,2.057431100921E-8,5.072464519972E-8,{{-2.65590414258E-5,1.054379928923E-5,-1.11777149879E-6,
     5.041959125308E-8},
    {-2.5279006118E-5,1.050289406698E-5,-1.13482822463E-6,5.09651237824E-8},
    {-2.55393684643E-5,1.053367908792E-5,-1.09861966762E-6,5.002095058744E-8},
    {-2.55429449099E-5,1.057740322761E-5,-1.13618432673E-6,5.114277301853E-8},
    {-2.73753474697E-5,1.062084527084E-5,-1.14107843607E-6,5.190409111406E-8},
    {-2.59111739161E-5,1.052348010717E-5,-1.11484044682E-6,5.059147318346E-8},
    {-2.62354217369E-5,1.058468302327E-5,-1.1614601324E-6,5.171415230346E-8},
    {-2.67506073773E-5,1.057769016572E-5,-1.1734690944E-6,5.268228543187E-8},
    {-2.54902821957E-5,1.052538423972E-5,-1.1539821408E-6,5.048106236543E-8},
    {-2.47846319719E-5,1.050950059831E-5,-1.1451463053E-6,4.998585386378E-8},
    {-2.73043844244E-5,1.058163569521E-5,-1.14658486555E-6,5.15827225861E-8},
    {-2.43215002664E-5,1.054149525265E-5,-1.15880355703E-6,5.058483446769E-8},
    {-2.54461211539E-5,1.051315948697E-5,-1.11942920515E-6,4.998826217096E-8},
    {-2.68215438782E-5,1.055962605985E-5,-1.12622753182E-6,5.037045167152E-8},
    {-2.67838520533E-5,1.053830377918E-5,-1.09548038474E-6,5.020998126003E-8},
    {-2.69815145642E-5,1.059345199038E-5,-1.16601167703E-6,5.082594412323E-8},
    {-2.55549370014E-5,1.051450582466E-5,-1.13902607408E-6,4.990428832514E-8},
    {-2.59349257552E-5,1.052097787329E-5,-1.1524425635E-6,5.027170348071E-8},
    {-2.68166231076E-5,1.059915235568E-5,-1.13136783409E-6,5.073066264157E-8},
    {-2.58596353463E-5,1.053905637384E-5,-1.13699079192E-6,5.011669636403E-8}}},
  {{3.00860737894E-15,-2.8372474713E-15,4.50274257381E-13},{Residual->3.34291227567E-16}},
  {{-.3,4.43353737349E-14},{-.2,2.18760426656E-14},{-.1,7.64339008852E-15},{5.55111512313E-17,2.55590331044E-15},
   {.1,7.34205585363E-15},{.2,2.10375863475E-14},{.3,4.23466917188E-14}}},
 {"R32",1,
  {8.116408072174E-7,1.056564322098E-5,1.799748900604E-8,5.07605483208E-8,{{-2.70976538143E-5,1.05597300753E-5,-1.90380787855E-6,
     5.086957564296E-8},
    {-2.63033902875E-5,1.053984940164E-5,-1.8703402306E-6,5.027517224865E-8},
    {-2.75960444504E-5,1.053186737863E-5,-1.85673801179E-6,5.063408023538E-8},
    {-2.66142355561E-5,1.059230931889E-5,-1.8516809016E-6,5.062726967875E-8},
    {-2.95287820491E-5,1.05964156485E-5,-1.89560153059E-6,5.100308602601E-8},
    {-2.74869966566E-5,1.062827104821E-5,-1.90661306062E-6,5.238380359665E-8},
    {-2.66532895226E-5,1.052989998447E-5,-1.85980637117E-6,5.006178806096E-8},
    {-2.74809734844E-5,1.06280249178E-5,-1.89007244211E-6,5.142184490106E-8},
    {-2.73893183446E-5,1.060099809928E-5,-1.8978177991E-6,5.066196026539E-8},
    {-2.80202001746E-5,1.062536549219E-5,-1.87202592023E-6,5.098055844822E-8},
    {-2.73350557246E-5,1.05550815591E-5,-1.90409061501E-6,5.036314905038E-8},
    {-2.83539765016E-5,1.055113081673E-5,-1.88154268514E-6,5.079075576768E-8},
    {-2.87055727437E-5,1.057009546664E-5,-1.86271693534E-6,5.084400308856E-8},
    {-2.76744252796E-5,1.054647179713E-5,-1.88456575581E-6,5.050751141187E-8},
    {-2.67251611168E-5,1.053077741056E-5,-1.86490287414E-6,5.053306474358E-8},
    {-2.82024731975E-5,1.057644506724E-5,-1.88752233143E-6,5.093048737189E-8},
    {-2.68552991984E-5,1.055879288599E-5,-1.90151010445E-6,5.079993551105E-8},
    {-2.77142504619E-5,1.052221592783E-5,-1.87364584774E-6,5.039287517825E-8},
    {-2.69516799892E-5,1.051825445155E-5,-1.91312230345E-6,5.003519432171E-8},
    {-2.62215614543E-5,1.055086767184E-5,-1.88807276293E-6,5.109485086693E-8}}},
  {{3.0989323294E-15,1.03620203199E-15,3.19001903904E-13},{Residual->4.7391188504E-16}},
  {{-.3,3.1038742407E-14},{-.2,1.61715050374E-14},{-.1,6.83350463703E-15},{5.55111512313E-17,2.54175705775E-15},
   {.1,5.87019693583E-15},{.2,1.63481492851E-14},{.3,3.22092040388E-14}}},
 {"Y24",1,
  {1.045255258739E-6,1.058100995167E-5,1.454672651837E-8,4.98092695733E-8,{{-2.57653797694E-5,1.060843336912E-5,-2.39229621755E-6,
     4.978754428709E-8},
    {-2.57383166954E-5,1.053013345231E-5,-2.40514795714E-6,4.924260814503E-8},
    {-2.77473303474E-5,1.056787250736E-5,-2.39240235532E-6,4.963576470882E-8},
    {-2.6823666636E-5,1.054053781653E-5,-2.38254179487E-6,4.920080538244E-8},
    {-2.60461753457E-5,1.052522211466E-5,-2.37569234972E-6,5.044441931014E-8},
    {-2.74863646323E-5,1.056247766177E-5,-2.37325773097E-6,5.01577769658E-8},
    {-2.63081704771E-5,1.056341010632E-5,-2.36592350708E-6,4.932409317182E-8},
    {-2.523829774E-5,1.059823199412E-5,-2.39124889367E-6,4.935683551499E-8},
    {-2.74621325453E-5,1.055554225998E-5,-2.39340756317E-6,4.952766071608E-8},
    {-2.57248433356E-5,1.061037665829E-5,-2.35940490256E-6,4.978443650821E-8},
    {-2.72818329669E-5,1.062606889455E-5,-2.386937386E-6,4.990508285954E-8},
    {-2.75632219607E-5,1.063170443189E-5,-2.39890168675E-6,5.131564532198E-8},
    {-2.87386913682E-5,1.061008236707E-5,-2.37925509277E-6,5.018835515455E-8},
    {-2.87377427573E-5,1.066820472329E-5,-2.3963005106E-6,5.036257358986E-8},
    {-2.62549282215E-5,1.05634509478E-5,-2.40981135378E-6,4.938544991428E-8},
    {-2.71079972483E-5,1.056574802963E-5,-2.3830753959E-6,4.960326560486E-8},
    {-2.82748435724E-5,1.058515791444E-5,-2.40258212698E-6,5.027462992899E-8},
    {-2.57885755197E-5,1.056181238098E-5,-2.40284829768E-6,4.921270453082E-8},
    {-2.8225950769E-5,1.055500772979E-5,-2.42024088723E-6,4.980607921542E-8},
    {-2.69718405949E-5,1.059072367357E-5,-2.39034116826E-6,4.966966063526E-8}}},
  {{2.33574569018E-15,-9.5988256748E-16,2.91144007416E-15},{Residual->2.18577515032E-16}},
  {{-1.5,1.07291107209E-14},{-1.2,7.26770147292E-15},{-.9,5.37942598784E-15},{-.6,3.83468005946E-15},{-.3,2.92746579936E-15},
   {0,2.60640750287E-15},{.3,2.51143741511E-15},{.6,2.77509989579E-15},{.9,3.73072185566E-15},{1.2,5.25050720384E-15},
   {1.5,7.50390141244E-15}}},
 {"Y46",1,
  {9.026087283489E-7,1.056518543463E-5,2.394690440975E-8,4.612284025953E-8,{{-2.5646476386E-5,1.054878291708E-5,-2.4299963408E-6,
     4.509229751385E-8},
    {-2.56281048197E-5,1.057899997312E-5,-2.40642999117E-6,4.519681517255E-8},
    {-2.80456948406E-5,1.05613610711E-5,-2.34667454873E-6,4.801156231849E-8},
    {-2.71833899126E-5,1.054718093375E-5,-2.35598246477E-6,4.847659865024E-8},
    {-2.60353797477E-5,1.056132817801E-5,-2.38578232475E-6,4.560255527174E-8},
    {-2.73751054441E-5,1.054306458639E-5,-2.38971168372E-6,4.636035651483E-8},
    {-2.65475434537E-5,1.055299605826E-5,-2.3787486079E-6,4.637592986795E-8},
    {-2.56984184203E-5,1.05391524923E-5,-2.40010571179E-6,4.610096905496E-8},
    {-2.79752492397E-5,1.06227988087E-5,-2.38322537665E-6,4.596740743646E-8},
    {-2.66694794706E-5,1.056682206565E-5,-2.38024642254E-6,4.555717496725E-8},
    {-2.70330756728E-5,1.057025889533E-5,-2.40080846467E-6,4.556167167781E-8},
    {-2.78087165269E-5,1.061240868876E-5,-2.37723554439E-6,4.643532295501E-8},
    {-2.67157161048E-5,1.057059922438E-5,-2.433055811E-6,4.543984776978E-8},
    {-2.65619544022E-5,1.056104694209E-5,-2.38990222303E-6,4.533386096799E-8},
    {-2.62741407907E-5,1.057120905185E-5,-2.37347646818E-6,4.543623386099E-8},
    {-2.78168405886E-5,1.056617884134E-5,-2.38502701309E-6,4.650003706538E-8},
    {-2.50351302985E-5,1.050824350933E-5,-2.43520970557E-6,4.60357403693E-8},
    {-2.75652390232E-5,1.055870118068E-5,-2.4211821802E-6,4.669056653873E-8},
    {-2.69329220677E-5,1.056646848449E-5,-2.42215096888E-6,4.564532615686E-8},
    {-2.82731395394E-5,1.059610679004E-5,-2.38552076999E-6,4.663653106051E-8}}},
  {{2.47000652715E-15,2.07799219159E-15,2.88907211617E-15},{Residual->4.48362056399E-17}},
  {{-1,3.30575283863E-15},{-.8,2.61541098026E-15},{-.6,2.21774760376E-15},{-.4,2.11024300998E-15},{-.2,2.27115744181E-15},
   {0,2.50891283573E-15},{.2,2.95080768683E-15},{.4,3.72093612328E-15},{.6,4.73523357383E-15},{.8,5.97619313069E-15},
   {1,7.46959388493E-15}}},
 {"Y22",1,
  {7.23470190362E-7,1.058571159513E-5,1.614960035447E-8,4.614901229598E-8,{{-2.68507490622E-5,1.060896118601E-5,-2.38968792215E-6,
     4.559929503496E-8},
    {-2.7453249673E-5,1.058203419421E-5,-2.40313745569E-6,4.617194813298E-8},
    {-2.87424295338E-5,1.067910313833E-5,-2.40111542141E-6,4.654694176814E-8},
    {-2.72356005611E-5,1.055959343909E-5,-2.3971371725E-6,4.549263723051E-8},
    {-2.80365441281E-5,1.056086256225E-5,-2.40717045751E-6,4.738719886568E-8},
    {-2.6144809245E-5,1.057355564857E-5,-2.42733556332E-6,4.574916816018E-8},
    {-2.69752803898E-5,1.054927148765E-5,-2.39425421541E-6,4.582849757623E-8},
    {-2.78109842267E-5,1.059642347104E-5,-2.37333908387E-6,4.599726091599E-8},
    {-2.68991655107E-5,1.062279494865E-5,-2.40933946093E-6,4.589890826881E-8},
    {-2.6187420384E-5,1.056127789437E-5,-2.40289248577E-6,4.610195741469E-8},
    {-2.7568256274E-5,1.057085666448E-5,-2.39588373547E-6,4.572866762686E-8},
    {-2.76091559191E-5,1.064950508621E-5,-2.38214195697E-6,4.633239202607E-8},
    {-2.69685193748E-5,1.052474764804E-5,-2.42344865316E-6,4.716138644785E-8},
    {-2.73389780287E-5,1.058909195891E-5,-2.41031290025E-6,4.616551717122E-8},
    {-2.75812852019E-5,1.056786136692E-5,-2.41859231265E-6,4.604911325739E-8},
    {-2.74694810238E-5,1.055959079605E-5,-2.40109503941E-6,4.758077175063E-8},
    {-2.65406200102E-5,1.058796765993E-5,-2.41779031058E-6,4.667710928312E-8},
    {-2.54635289207E-5,1.054539292917E-5,-2.43658090119E-6,4.512021269366E-8},
    {-2.78193015966E-5,1.061152854457E-5,-2.38005637749E-6,4.584370475511E-8},
    {-2.75526627055E-5,1.061381127808E-5,-2.42235802517E-6,4.554755753951E-8}}},
  {{3.82500827563E-15,2.01253851499E-14,8.06358646486E-14},{Residual->1.4721955062E-15}},
  {{-.6,1.91979621879E-14},{-.4,1.03510965998E-14},{-.2,5.22668426472E-15},{1.11022302463E-16,2.12910540469E-15},
   {.2,9.92117157086E-15},{.4,2.44798696268E-14},{.6,4.5781336681E-14}}},
 {"Y26",1,
  {7.217488155752E-7,1.055434064471E-5,1.622394424195E-8,4.462735451651E-8,{{-2.73369112521E-5,1.054850736668E-5,-2.41030822116E-6,
     4.413663334602E-8},
    {-2.63399282621E-5,1.054170870085E-5,-2.43340552131E-6,4.421687031889E-8},
    {-2.71241989974E-5,1.054160287583E-5,-2.37962595862E-6,4.464507973974E-8},
    {-2.69213326105E-5,1.05495944539E-5,-2.37918297095E-6,4.575342028641E-8},
    {-2.62808755953E-5,1.053818905354E-5,-2.37840780134E-6,4.473523726415E-8},
    {-2.83203137633E-5,1.060173463055E-5,-2.37878202696E-6,4.465459120603E-8},
    {-2.74655072352E-5,1.05576735739E-5,-2.37775930629E-6,4.481870351791E-8},
    {-2.57321125288E-5,1.052038035238E-5,-2.37696708869E-6,4.426263171411E-8},
    {-2.66768435388E-5,1.053336739564E-5,-2.39227517041E-6,4.463095665265E-8},
    {-2.66088351507E-5,1.055399161872E-5,-2.39179150194E-6,4.445782392744E-8},
    {-2.75856867682E-5,1.053882742405E-5,-2.37242775323E-6,4.472966579454E-8},
    {-2.85577206347E-5,1.055535440502E-5,-2.37160928077E-6,4.4472144788E-8},
    {-2.67141845149E-5,1.059245442107E-5,-2.40837437753E-6,4.45023522126E-8},
    {-2.71682486846E-5,1.055839240147E-5,-2.40309647609E-6,4.483720606539E-8},
    {-2.67482744323E-5,1.054780902737E-5,-2.37011549577E-6,4.451626640135E-8},
    {-2.69272307669E-5,1.055337336192E-5,-2.38783948824E-6,4.485867725317E-8},
    {-2.6108262529E-5,1.053820372887E-5,-2.40712485463E-6,4.420493380013E-8},
    {-2.6072293916E-5,1.061168421379E-5,-2.37881040391E-6,4.472021468953E-8},
    {-2.60011239709E-5,1.054292548235E-5,-2.3771820991E-6,4.488250725172E-8},
    {-2.73193125226E-5,1.056103840628E-5,-2.37897840538E-6,4.451117410047E-8}}},
  {{2.52240562058E-15,-6.4167003853E-15,1.33669016958E-13},{Residual->6.76324936118E-16}},
  {{-.6,5.37530002674E-14},{-.4,2.73282666994E-14},{-.2,9.95237461459E-15},{1.11022302463E-16,2.11635551584E-15},
   {.2,5.58746032582E-15},{.4,2.15391164085E-14},{.6,4.7089564505E-14}}},
 {"Y66",1,
  {8.056157884581E-7,1.055884698161E-5,1.502076544224E-8,4.483320106307E-8,{{-2.85434723536E-5,1.056874261331E-5,-2.40771296972E-6,
     4.464821604277E-8},
    {-2.62807910528E-5,1.053999669565E-5,-2.39265154829E-6,4.445469620941E-8},
    {-2.6783370917E-5,1.054789785349E-5,-2.38050680177E-6,4.530545572917E-8},
    {-2.82830703381E-5,1.055154256698E-5,-2.38646433055E-6,4.482373427424E-8},
    {-2.81547372144E-5,1.057297623708E-5,-2.39656779458E-6,4.430469081645E-8},
    {-2.8285485396E-5,1.06132371358E-5,-2.4085303557E-6,4.453702806702E-8},
    {-2.74812421437E-5,1.055114211185E-5,-2.37880991703E-6,4.481033322356E-8},
    {-2.6137805969E-5,1.053522112629E-5,-2.36657059717E-6,4.47378808587E-8},
    {-2.78894492226E-5,1.055802758071E-5,-2.38882213942E-6,4.583731656286E-8},
    {-2.81186841134E-5,1.055712653852E-5,-2.38692762136E-6,4.575867603493E-8},
    {-2.85245877355E-5,1.058423840188E-5,-2.39553030179E-6,4.461147903621E-8},
    {-2.7693219069E-5,1.055471336671E-5,-2.35665770728E-6,4.598648892112E-8},
    {-2.71845639254E-5,1.055387032438E-5,-2.38553402181E-6,4.42945701638E-8},
    {-2.68967500958E-5,1.054721159966E-5,-2.36040603513E-6,4.427042163212E-8},
    {-2.68926285006E-5,1.055811340104E-5,-2.39820829695E-6,4.457027447444E-8},
    {-2.66776240235E-5,1.055221573296E-5,-2.35153133984E-6,4.466153156817E-8},
    {-2.67974736956E-5,1.054110909236E-5,-2.38325207016E-6,4.523140768726E-8},
    {-2.8215343535E-5,1.056560837524E-5,-2.39018807666E-6,4.439899501768E-8},
    {-2.60597508981E-5,1.05436923663E-5,-2.38369064985E-6,4.491906891976E-8},
    {-2.79793019991E-5,1.058025651193E-5,-2.38488661655E-6,4.450175602181E-8}}},
  {{3.95352359355E-15,1.64406212936E-14,3.91640235162E-12},{Residual->1.95526764544E-15}},
  {{-.2,1.59522787808E-13},{-.15,8.64303514418E-14},{-.1,4.26589386571E-14},{-.05,1.24037809846E-14},{0,2.03228731007E-15},
   {.05,1.54131210651E-14},{.1,4.62172402528E-14},{.15,9.68761040945E-14},{.2,1.61487453471E-13}}},
 {"Y44",1,
  {7.558400987082E-7,1.055871047265E-5,2.185068698523E-8,4.475501730261E-8,{{-2.64358381892E-5,1.055044774186E-5,-2.41982442373E-6,
     4.390052940845E-8},
    {-2.70436737869E-5,1.058206343693E-5,-2.3864420127E-6,4.438585614678E-8},
    {-2.64668737109E-5,1.052274844365E-5,-2.34938472181E-6,4.547638766413E-8},
    {-2.78269363758E-5,1.056471057335E-5,-2.34760879923E-6,4.471222908797E-8},
    {-2.59678878213E-5,1.055848866787E-5,-2.3848375287E-6,4.423412001066E-8},
    {-2.84995904545E-5,1.05623373259E-5,-2.39652708043E-6,4.541751576021E-8},
    {-2.6766493235E-5,1.054490016777E-5,-2.38170728445E-6,4.396435333552E-8},
    {-2.66646453284E-5,1.055035454424E-5,-2.39729219712E-6,4.464065227651E-8},
    {-2.77849599611E-5,1.054314347655E-5,-2.41003583469E-6,4.525664411414E-8},
    {-2.75615163324E-5,1.053131811368E-5,-2.4206448453E-6,4.480238316462E-8},
    {-2.79181603433E-5,1.059870204476E-5,-2.40713984373E-6,4.452939672327E-8},
    {-2.75290009601E-5,1.060453760457E-5,-2.37801730655E-6,4.416860932119E-8},
    {-2.86999089413E-5,1.055648619019E-5,-2.40616694362E-6,4.551827785933E-8},
    {-2.85951719313E-5,1.058798945045E-5,-2.39753859436E-6,4.531037517591E-8},
    {-2.71866858648E-5,1.05485236899E-5,-2.38316492619E-6,4.403507659912E-8},
    {-2.64216711529E-5,1.052783480741E-5,-2.38314001631E-6,4.458978947302E-8},
    {-2.72313344561E-5,1.058999637966E-5,-2.39079426771E-6,4.431112541209E-8},
    {-2.67532532937E-5,1.055312452829E-5,-2.38280398732E-6,4.46289682104E-8},
    {-2.73255084127E-5,1.055963425078E-5,-2.44001381877E-6,4.412840356204E-8},
    {-2.78377761542E-5,1.053686801518E-5,-2.37192539317E-6,4.708965274684E-8}}},
  {{2.41452864653E-15,-3.4615876016E-16,4.74285876714E-14},{Residual->4.20021730352E-16}},
  {{-.6,1.92030656035E-14},{-.4,1.09625732247E-14},{-.2,4.49419618369E-15},{1.11022302463E-16,2.02640184991E-15},
   {.2,3.91874456673E-15},{.4,1.00789060472E-14},{.6,1.93378312418E-14}}},
 {"AY",1,
  {9.084263722041E-7,1.056575085254E-5,2.460797773126E-8,4.393985940723E-8,{{-2.62545920201E-5,1.051647688319E-5,-2.38397728707E-6,
     4.387963282525E-8},
    {-2.82370373284E-5,1.054538935562E-5,-2.37557360412E-6,4.471573425859E-8},
    {-2.60552273709E-5,1.052011359289E-5,-2.36406941133E-6,4.36284427808E-8},
    {-2.82174718526E-5,1.056938282854E-5,-2.39317196992E-6,4.352683023824E-8},
    {-2.71194080283E-5,1.056735420015E-5,-2.38416650429E-6,4.403836448649E-8},
    {-2.71800675573E-5,1.063380984543E-5,-2.40321236954E-6,4.494962998418E-8},
    {-2.77257081007E-5,1.056906034395E-5,-2.43340146641E-6,4.377427085216E-8},
    {-2.61864945159E-5,1.057555703493E-5,-2.40816918921E-6,4.432113863611E-8},
    {-2.70649887925E-5,1.061376309725E-5,-2.45226074659E-6,4.464212390808E-8},
    {-2.80603273231E-5,1.063166037977E-5,-2.3568986013E-6,4.424105848255E-8},
    {-2.67505835122E-5,1.055513731976E-5,-2.39712862567E-6,4.371889937534E-8},
    {-2.50087706173E-5,1.052429628735E-5,-2.40334549352E-6,4.367551480985E-8},
    {-2.61255459015E-5,1.053889200577E-5,-2.3813781205E-6,4.363743956322E-8},
    {-2.79082765015E-5,1.059514321521E-5,-2.38411867414E-6,4.37494641581E-8},
    {-2.77168308211E-5,1.054227656232E-5,-2.36090288596E-6,4.397734679137E-8},
    {-2.70391567061E-5,1.054002389006E-5,-2.35558037256E-6,4.366938425541E-8},
    {-2.8216940131E-5,1.059333554949E-5,-2.42132664143E-6,4.361756559088E-8},
    {-2.75567211652E-5,1.05608080402E-5,-2.40666915938E-6,4.362459400224E-8},
    {-2.84552017957E-5,1.056932823248E-5,-2.38336431681E-6,4.363180665048E-8},
    {-2.787832838E-5,1.055320838644E-5,-2.37766911187E-6,4.377794649535E-8}}},
  {{-7.6603809552E-16,4.73481156228E-14,6.18949737909E-12},{Residual->1.84658740782E-15}},
  {{-.1,5.80580944026E-14},{-.07,2.33671095101E-14},{-.04,6.4254319663E-15},{-.01,1.97116287311E-15},{.02,3.63899326647E-15},
   {.05,1.50278639302E-14},{.08,4.31426914074E-14}}},
 {"EY",1,
  {1.040480775641E-6,1.05468970603E-5,1.921075056038E-8,4.361160892751E-8,{{-2.7637989685E-5,1.048912833957E-5,-2.84615964161E-6,
     4.414404107367E-8},
    {-2.83592379406E-5,1.053432644703E-5,-2.88695289764E-6,4.336353836769E-8},
    {-3.01830070833E-5,1.054136487807E-5,-2.8592800406E-6,4.417780084211E-8},
    {-2.79503930519E-5,1.054099536175E-5,-2.84578949762E-6,4.35908016094E-8},
    {-2.7663126152E-5,1.051775424733E-5,-2.87036211405E-6,4.353993589491E-8},
    {-2.92765947772E-5,1.055608024634E-5,-2.86293848951E-6,4.31734816409E-8},
    {-3.11245074177E-5,1.058709939827E-5,-2.8703681949E-6,4.348916782569E-8},
    {-2.89847288394E-5,1.05662242176E-5,-2.8445848562E-6,4.35660248361E-8},
    {-2.91086453082E-5,1.055661735325E-5,-2.84533727311E-6,4.386411159659E-8},
    {-2.951829076E-5,1.060827346839E-5,-2.84464134033E-6,4.337467294294E-8},
    {-2.83345724765E-5,1.054195760823E-5,-2.87308292419E-6,4.357346384891E-8},
    {-2.86232192912E-5,1.053486634233E-5,-2.88108622642E-6,4.325012179857E-8},
    {-2.84591843471E-5,1.05814190541E-5,-2.84675057763E-6,4.359297223742E-8},
    {-2.96154598E-5,1.054542251565E-5,-2.88142286602E-6,4.363178393328E-8},
    {-2.73512074153E-5,1.055890795598E-5,-2.82875872318E-6,4.360148585784E-8},
    {-2.8756699517E-5,1.053040020852E-5,-2.87429493195E-6,4.333178149665E-8},
    {-2.98931926575E-5,1.055183457235E-5,-2.90509902918E-6,4.326102349981E-8},
    {-2.82140690124E-5,1.051292005408E-5,-2.84123700962E-6,4.462259031965E-8},
    {-2.87016552528E-5,1.05198075599E-5,-2.84749141038E-6,4.373970685699E-8},
    {-3.11784863957E-5,1.056254137725E-5,-2.88104193091E-6,4.334367207107E-8}}},
  {{2.08103059858E-15,-1.2164671883E-14,5.26818810319E-13},{Residual->7.16536849743E-17}},
  {{-.1,8.48142339081E-15},{-.07,5.61852869994E-15},{-.04,3.48485117221E-15},{-.01,2.21117717763E-15},{.02,1.95341763698E-15},
   {.05,2.79797028281E-15},{.08,4.51598004884E-15}}},
 {"R32",1,
  {8.919467365283E-7,1.060792320514E-5,2.140280025473E-8,4.044227115737E-8,{{-2.98739395848E-5,1.061829065028E-5,-2.66691923867E-6,
     3.987020972188E-8},
    {-2.90273777309E-5,1.063368020957E-5,-2.67270309476E-6,4.061798960905E-8},
    {-3.06670826621E-5,1.063344086088E-5,-2.6525333225E-6,4.031565876335E-8},
    {-2.90782340074E-5,1.056555844083E-5,-2.69113789177E-6,3.987895963627E-8},
    {-3.02061964231E-5,1.060565093172E-5,-2.72702698395E-6,4.025259553007E-8},
    {-2.81419901291E-5,1.058442964515E-5,-2.69843371554E-6,3.942429997276E-8},
    {-2.96690961902E-5,1.060840821274E-5,-2.68250935248E-6,4.109221435007E-8},
    {-2.99715314574E-5,1.064616454145E-5,-2.71675638937E-6,4.228174277081E-8},
    {-2.93327591324E-5,1.063753077145E-5,-2.6662531109E-6,4.000394173542E-8},
    {-2.95749532823E-5,1.059378332846E-5,-2.6861667654E-6,3.968413905516E-8},
    {-3.14577796882E-5,1.066344708429E-5,-2.69148730372E-6,4.240205068276E-8},
    {-2.99452157364E-5,1.058344623044E-5,-2.66910084004E-6,4.024932566931E-8},
    {-2.94445408421E-5,1.060410501756E-5,-2.72011374892E-6,4.064592345918E-8},
    {-2.96399596719E-5,1.058932068835E-5,-2.71024152843E-6,4.134913043045E-8},
    {-2.86154935295E-5,1.059102500637E-5,-2.67315628881E-6,3.991018743799E-8},
    {-2.94405003529E-5,1.060721493785E-5,-2.69283224825E-6,4.075414393462E-8},
    {-2.95411449433E-5,1.061892654581E-5,-2.6577439513E-6,3.959782141153E-8},
    {-2.71391760951E-5,1.055184253033E-5,-2.65442959219E-6,3.950661322393E-8},
    {-2.84757714406E-5,1.059095812362E-5,-2.70061980224E-6,4.044463802113E-8},
    {-2.94426906801E-5,1.063124034562E-5,-2.68709089536E-6,4.056383773163E-8}}},
  {{1.91007036525E-15,-1.5307670735E-14,3.22115171697E-13},{Residual->6.34116355343E-17}},
  {{-.1,6.59306742615E-15},{-.07,4.63144731343E-15},{-.04,3.10083286133E-15},{-.01,2.10670713501E-15},{.02,1.63935842058E-15},
   {.05,1.9066048516E-15},{.08,2.80679444706E-15}}},
 {"Y24",1,
  {9.510882164908E-7,1.062350193128E-5,2.363279180423E-8,3.859800831112E-8,{{-2.72275087669E-5,1.065802392822E-5,-2.39854703842E-6,
     3.850653055693E-8},
    {-2.64585031212E-5,1.070342423155E-5,-2.44020044603E-6,3.876324346067E-8},
    {-2.75713449979E-5,1.064394626837E-5,-2.34366999466E-6,3.8010738515E-8},
    {-2.62824285515E-5,1.070016760588E-5,-2.4217194049E-6,3.988618481869E-8},
    {-2.46854082828E-5,1.057996965835E-5,-2.41542268767E-6,3.736887892725E-8},
    {-2.66146704422E-5,1.061570694735E-5,-2.42979765287E-6,3.910667768319E-8},
    {-2.70392528123E-5,1.060574843273E-5,-2.4427141716E-6,3.885581166686E-8},
    {-2.51424709735E-5,1.05735202595E-5,-2.40439876707E-6,3.784704868074E-8},
    {-2.63111806549E-5,1.063109818052E-5,-2.44497987026E-6,3.91500622249E-8},
    {-2.55725839473E-5,1.058417663255E-5,-2.42656567249E-6,3.741716690425E-8},
    {-2.40443411088E-5,1.059735489919E-5,-2.41177132312E-6,3.865185023861E-8},
    {-2.68588363778E-5,1.061745513077E-5,-2.43330996141E-6,3.993897128935E-8},
    {-2.78418910736E-5,1.062682198863E-5,-2.39237384279E-6,3.844555297772E-8},
    {-2.6291947939E-5,1.063847279904E-5,-2.41995580498E-6,3.978105864851E-8},
    {-2.7183028328E-5,1.065898557555E-5,-2.44918491822E-6,3.823874317289E-8},
    {-2.55748961934E-5,1.061231850853E-5,-2.44369102166E-6,3.88211627728E-8},
    {-2.57954434317E-5,1.059958737257E-5,-2.41405291925E-6,3.771479269621E-8},
    {-2.67324388439E-5,1.060094971081E-5,-2.42712767349E-6,3.802395975163E-8},
    {-2.5405104184E-5,1.061340863114E-5,-2.41238317681E-6,3.936944387637E-8},
    {-2.67049417463E-5,1.060890186438E-5,-2.39990411295E-6,3.806228735975E-8}}},
  {{1.62543495995E-15,-1.6502064172E-15,4.1896942776E-15},{Residual->1.27782346149E-17}},
  {{-.3,2.51306615692E-15},{-.2,2.09787392271E-15},{-.1,1.83471881409E-15},{5.55111512313E-17,1.62423075472E-15},
   {.1,1.5111753742E-15},{.2,1.47237049625E-15},{.3,1.49772359847E-15}}},
 {"Y46",1,
  {8.961582638795E-7,1.061127504945E-5,2.747322766676E-8,3.856752620944E-8,{{-2.72263207124E-5,1.061462428479E-5,-2.42209774034E-6,
     3.785062491989E-8},
    {-2.53375886337E-5,1.059932531216E-5,-2.41736378716E-6,3.752305281945E-8},
    {-2.46143565681E-5,1.061094168318E-5,-2.44230715252E-6,3.944513491202E-8},
    {-2.59733916699E-5,1.061305961441E-5,-2.42791915101E-6,3.987349554678E-8},
    {-2.69284703596E-5,1.062808073665E-5,-2.44945011023E-6,4.005328285769E-8},
    {-2.54978478584E-5,1.060155820559E-5,-2.49274604076E-6,4.046432749996E-8},
    {-2.49012799988E-5,1.060377288045E-5,-2.41637504383E-6,3.76823338803E-8},
    {-2.69951644357E-5,1.06245242966E-5,-2.41991954013E-6,3.886259300379E-8},
    {-2.57768883329E-5,1.059641336301E-5,-2.38014374073E-6,3.787954753277E-8},
    {-2.67140115553E-5,1.06305900357E-5,-2.39175335071E-6,3.814136171404E-8},
    {-2.65081354483E-5,1.061546317469E-5,-2.40982615155E-6,3.814596323069E-8},
    {-2.59050595663E-5,1.062901357837E-5,-2.45982026665E-6,3.8925874778E-8},
    {-2.51461300231E-5,1.056935282899E-5,-2.4308436666E-6,3.751065181878E-8},
    {-2.63876671953E-5,1.059918701445E-5,-2.42847577928E-6,3.779370946316E-8},
    {-2.5472773258E-5,1.059518591853E-5,-2.41656957761E-6,3.846179492339E-8},
    {-2.48880600629E-5,1.060557288489E-5,-2.42403148527E-6,3.727670325993E-8},
    {-2.57503814413E-5,1.061683037597E-5,-2.45632437853E-6,3.810870022098E-8},
    {-2.50628309011E-5,1.056933359958E-5,-2.42235667319E-6,3.748028880783E-8},
    {-2.79780448685E-5,1.062200903188E-5,-2.40588406267E-6,3.844448743997E-8},
    {-2.69017257881E-5,1.068066216904E-5,-2.4876063783E-6,4.142659555943E-8}}},
  {{1.45089608579E-15,4.30937437571E-16,4.25076452123E-15},{Residual->1.39946373892E-17}},
  {{-.45,2.13000906823E-15},{-.3,1.69637945468E-15},{-.15,1.45567801713E-15},{-5.5511151231E-17,1.46312100177E-15},
   {.15,1.62603894429E-15},{.3,1.96672086374E-15},{.45,2.49630689907E-15}}},
 {"Y22",1,
  {6.224971194099E-7,1.060666262189E-5,1.890305539458E-8,3.847488683782E-8,{{-2.68684775688E-5,1.063400674399E-5,-2.40977228891E-6,
     3.765405651523E-8},
    {-2.56058934289E-5,1.058662320191E-5,-2.43490561878E-6,3.785292126633E-8},
    {-2.65353534664E-5,1.066248456142E-5,-2.46298853112E-6,3.834016228229E-8},
    {-2.66376726018E-5,1.060177746458E-5,-2.41551163734E-6,3.790420201893E-8},
    {-2.53671520402E-5,1.064091119672E-5,-2.40731030092E-6,3.811557265638E-8},
    {-2.64365633747E-5,1.062168060205E-5,-2.42465818852E-6,3.990388934021E-8},
    {-2.60561226805E-5,1.059556067718E-5,-2.41054805056E-6,3.808724310537E-8},
    {-2.61923735101E-5,1.058216465158E-5,-2.43260204591E-6,3.897165909485E-8},
    {-2.57612106435E-5,1.059832753899E-5,-2.43082043899E-6,3.815488471884E-8},
    {-2.48167283505E-5,1.057104272909E-5,-2.43937613338E-6,3.784277898403E-8},
    {-2.66676710706E-5,1.06205402738E-5,-2.39312146558E-6,3.827044250824E-8},
    {-2.59813789333E-5,1.058034815487E-5,-2.43275373923E-6,3.754011729702E-8},
    {-2.6027574411E-5,1.060227200096E-5,-2.4520866522E-6,3.858425580331E-8},
    {-2.51906646539E-5,1.060314069943E-5,-2.44607023549E-6,4.046957787664E-8},
    {-2.55682052777E-5,1.060492756173E-5,-2.44983032608E-6,3.931183935743E-8},
    {-2.56083684949E-5,1.061401732258E-5,-2.39469929746E-6,3.916013312644E-8},
    {-2.56694421826E-5,1.063183307133E-5,-2.41279776855E-6,3.953102970745E-8},
    {-2.46974171246E-5,1.059480552908E-5,-2.42598721908E-6,3.787000236577E-8},
    {-2.60725240308E-5,1.060706300309E-5,-2.42771028053E-6,3.811723118061E-8},
    {-2.48209828088E-5,1.057972545347E-5,-2.40222116678E-6,3.781573755103E-8}}},
  {{2.81952161689E-15,1.52256575796E-14,7.6101306154E-14},{Residual->1.20940002088E-15}},
  {{-.6,1.97195922962E-14},{-.4,1.04907708859E-14},{-.2,4.42509719239E-15},{1.11022302463E-16,1.47564185577E-15},
   {.2,7.86245725443E-15},{.4,2.1023023134E-14},{.6,3.9973531592E-14}}},
 {"Y26",1,
  {6.952484745826E-7,1.059856682667E-5,1.926286413941E-8,3.570225959831E-8,{{-2.55565006759E-5,1.055620435832E-5,-2.42309634412E-6,
     3.521725486397E-8},
    {-2.68858309015E-5,1.064795287181E-5,-2.43695314903E-6,3.602765265402E-8},
    {-2.56630135131E-5,1.059761403705E-5,-2.43190192957E-6,3.573868846184E-8},
    {-2.61360379971E-5,1.057859997653E-5,-2.39442769549E-6,3.514043601665E-8},
    {-2.74745806832E-5,1.062379015359E-5,-2.40118428539E-6,3.597965173218E-8},
    {-2.57701279295E-5,1.057512293157E-5,-2.4308233761E-6,3.514428067306E-8},
    {-2.59847292924E-5,1.058169817909E-5,-2.42205483388E-6,3.52321785193E-8},
    {-2.63904128765E-5,1.059887695813E-5,-2.42232457688E-6,3.546363771523E-8},
    {-2.47962027908E-5,1.058415985106E-5,-2.38382636918E-6,3.562049483286E-8},
    {-2.67701036738E-5,1.060296187064E-5,-2.40899239305E-6,3.555172714034E-8},
    {-2.67788558299E-5,1.065813092772E-5,-2.42734974435E-6,3.606469621796E-8},
    {-2.56193839862E-5,1.066814484373E-5,-2.40447693119E-6,3.813954558229E-8},
    {-2.5097420659E-5,1.05806778654E-5,-2.40315698635E-6,3.536279063651E-8},
    {-2.49848353276E-5,1.057692222483E-5,-2.40817767521E-6,3.548541533699E-8},
    {-2.5838488212E-5,1.06050986532E-5,-2.41247865235E-6,3.557963870252E-8},
    {-2.54940398861E-5,1.056262520605E-5,-2.38170937526E-6,3.597220008592E-8},
    {-2.53314632933E-5,1.058065326964E-5,-2.38780498033E-6,3.527928186321E-8},
    {-2.60908073725E-5,1.060131674033E-5,-2.36195835671E-6,3.587550020479E-8},
    {-2.49530858388E-5,1.057091550942E-5,-2.39929738472E-6,3.53020317479E-8},
    {-2.58414422889E-5,1.061987010534E-5,-2.42595009008E-6,3.586808897864E-8}}},
  {{1.48772688915E-15,-9.1720595924E-15,1.5530151237E-13},{Residual->3.45378026069E-16}},
  {{-.3,1.78345021487E-14},{-.2,9.93915114916E-15},{-.1,4.33594127019E-15},{5.55111512313E-17,1.47313813841E-15},
   {.1,1.57950502235E-15},{.2,5.75234374316E-15},{.3,1.29839302158E-14}}},
 {"Y66",1,
  {7.29847346505E-7,1.061188221719E-5,1.586301188743E-8,3.518853868669E-8,{{-2.5713167212E-5,1.060425020394E-5,-2.42202970061E-6,
     3.486973515154E-8},
    {-2.62972086037E-5,1.061254497541E-5,-2.40930345062E-6,3.606523168759E-8},
    {-2.72995145652E-5,1.061657589858E-5,-2.4108457528E-6,3.542230971494E-8},
    {-2.64248569614E-5,1.061809867595E-5,-2.38679398482E-6,3.507478842291E-8},
    {-2.58664910635E-5,1.063857764748E-5,-2.4124213578E-6,3.542252095622E-8},
    {-2.57976046434E-5,1.064875708934E-5,-2.41560793662E-6,3.518695253541E-8},
    {-2.60100691858E-5,1.060665796949E-5,-2.41062181806E-6,3.505714028908E-8},
    {-2.63713290503E-5,1.057855130296E-5,-2.38113861198E-6,3.483292988038E-8},
    {-2.50940863384E-5,1.057459678815E-5,-2.41903330302E-6,3.473834702789E-8},
    {-2.53114050232E-5,1.059221302054E-5,-2.38037968089E-6,3.483380682789E-8},
    {-2.51717167914E-5,1.058223485199E-5,-2.39976529436E-6,3.486093588281E-8},
    {-2.54169476868E-5,1.059686712262E-5,-2.41329882618E-6,3.508227506406E-8},
    {-2.5451685695E-5,1.057894818289E-5,-2.42492028611E-6,3.496890944929E-8},
    {-2.70329499891E-5,1.059948360796E-5,-2.41234550408E-6,3.488710915498E-8},
    {-2.50282692454E-5,1.062627282122E-5,-2.38716117302E-6,3.545672837612E-8},
    {-2.64381077308E-5,1.061102565383E-5,-2.40737323579E-6,3.505109393034E-8},
    {-2.53077924506E-5,1.05850339042E-5,-2.3854924697E-6,3.481768057958E-8},
    {-2.7043332867E-5,1.06743001131E-5,-2.39586076852E-6,3.570287697712E-8},
    {-2.68609707978E-5,1.06131480436E-5,-2.43737392892E-6,3.578117764484E-8},
    {-2.71590502963E-5,1.067950647048E-5,-2.42687432114E-6,3.565822418071E-8}}},
  {{4.33632423417E-15,-7.8882143543E-15,3.98939593748E-12},{Residual->2.78767333778E-15}},
  {{-.2,1.66117161993E-13},{-.15,9.7380622359E-14},{-.1,4.26680221216E-14},{-.05,1.3329701942E-14},{0,1.26845570331E-15},
   {.05,1.4381754011E-14},{.1,4.78022819631E-14},{.15,9.63279343154E-14},{.2,1.58160374322E-13}}},
 {"Y44",1,
  {9.22216560483E-7,1.060014389879E-5,2.066441725564E-8,3.513845980267E-8,{{-2.60954802199E-5,1.061779756493E-5,-2.41057391066E-6,
     3.598815793169E-8},
    {-2.46304569041E-5,1.055791045311E-5,-2.3846109298E-6,3.467283404357E-8},
    {-2.68817010269E-5,1.059957018176E-5,-2.41263054595E-6,3.491464047249E-8},
    {-2.62557587674E-5,1.058746250733E-5,-2.40287011695E-6,3.48139333089E-8},
    {-2.62624442567E-5,1.060034012599E-5,-2.38409227401E-6,3.520570417831E-8},
    {-2.61954975199E-5,1.058818806508E-5,-2.40160674602E-6,3.54447038302E-8},
    {-2.58742916635E-5,1.06041949862E-5,-2.41248797431E-6,3.562080694233E-8},
    {-2.78018600817E-5,1.066154134181E-5,-2.41847934429E-6,3.526516788042E-8},
    {-2.76522464886E-5,1.061640948671E-5,-2.42635474747E-6,3.50156068232E-8},
    {-2.57765523268E-5,1.059510697624E-5,-2.36286598245E-6,3.50490685632E-8},
    {-2.54505036386E-5,1.056178549331E-5,-2.37946368214E-6,3.478446725402E-8},
    {-2.50535059141E-5,1.059052551361E-5,-2.38645622659E-6,3.509062332901E-8},
    {-2.61924129502E-5,1.059812037977E-5,-2.40757737441E-6,3.603672145877E-8},
    {-2.79162917129E-5,1.064868892211E-5,-2.36319808501E-6,3.522213784703E-8},
    {-2.55895253601E-5,1.057610315801E-5,-2.39982910553E-6,3.468926458396E-8},
    {-2.73006702999E-5,1.061109605721E-5,-2.41338317664E-6,3.510712682294E-8},
    {-2.49744716514E-5,1.057153969517E-5,-2.43075192742E-6,3.47690268731E-8},
    {-2.5591298185E-5,1.05938994189E-5,-2.37105358465E-6,3.500917811642E-8},
    {-2.71252073663E-5,1.060911766104E-5,-2.42677313214E-6,3.50283641602E-8},
    {-2.61778005615E-5,1.061347998751E-5,-2.42273148391E-6,3.504166163363E-8}}},
  {{1.29030894633E-15,3.85083302087E-15,4.77753548482E-14},{Residual->1.62970752881E-16}},
  {{-.6,1.60688484152E-14},{-.4,7.41128816382E-15},{-.2,2.7227577341E-15},{1.11022302463E-16,1.23883686142E-15},
   {.2,3.85506926937E-15},{.4,1.02698038764E-14},{.6,2.0973955734E-14}}},
 {"AY",1,
  {1.178265271785E-6,1.061092476309E-5,2.874231095162E-8,3.602780688097E-8,{{-2.40545205055E-5,1.057649698421E-5,-2.44247826929E-6,
     3.55430814783E-8},
    {-2.47446384321E-5,1.064420508632E-5,-2.39433334019E-6,3.654360658408E-8},
    {-2.64574032568E-5,1.063469523105E-5,-2.40199684127E-6,3.617044693092E-8},
    {-2.5726898936E-5,1.061104579421E-5,-2.42726422494E-6,3.56461403627E-8},
    {-2.78162136203E-5,1.060375958682E-5,-2.35003705076E-6,3.704317165123E-8},
    {-2.63186448698E-5,1.060007593993E-5,-2.43733546829E-6,3.569003279637E-8},
    {-2.67299550822E-5,1.060870330167E-5,-2.39462880009E-6,3.574211353577E-8},
    {-2.68337090338E-5,1.058907152749E-5,-2.45744211701E-6,3.593168604371E-8},
    {-2.61514416108E-5,1.060481883259E-5,-2.40739754505E-6,3.57611460614E-8},
    {-2.78544069311E-5,1.067782464151E-5,-2.42274010669E-6,3.618724733064E-8},
    {-2.76142591198E-5,1.064617250456E-5,-2.38401133639E-6,3.596633095807E-8},
    {-2.67489701702E-5,1.064346252579E-5,-2.46518722027E-6,3.672744078302E-8},
    {-2.49740047378E-5,1.062792629598E-5,-2.42306015192E-6,3.658389820758E-8},
    {-2.63496789958E-5,1.060103034232E-5,-2.37665583133E-6,3.587765886374E-8},
    {-2.38845175582E-5,1.058555085511E-5,-2.41804797244E-6,3.592698816838E-8},
    {-2.6916944794E-5,1.060904520592E-5,-2.45974452109E-6,3.575235420216E-8},
    {-2.41076222971E-5,1.057583491823E-5,-2.39823343945E-6,3.588943188786E-8},
    {-2.58570831041E-5,1.05991155723E-5,-2.42267903428E-6,3.580459012092E-8},
    {-2.66843560701E-5,1.059262735756E-5,-2.40814059373E-6,3.609812613588E-8},
    {-2.53856729962E-5,1.058703275827E-5,-2.39112282353E-6,3.567064551676E-8}}},
  {{-7.1180098271E-16,-3.668632828E-14,6.95781487234E-12},{Residual->1.03589237149E-15}},
  {{-.1,7.34250681163E-14},{-.07,3.50520552237E-14},{-.04,1.03655365436E-14},{-.01,1.51488963292E-15},{.02,2.60466052906E-15},
   {.05,1.40595085452E-14},{.08,4.07711227034E-14}}},
 {"EY",1,
  {9.39833965335E-7,1.060670157794E-5,1.856631009429E-8,3.481566313684E-8,{{-2.31549181198E-5,1.058754772438E-5,-2.36105082394E-6,
     3.493833780536E-8},
    {-2.38921328568E-5,1.060270196943E-5,-2.34998145627E-6,3.58274366103E-8},
    {-2.55919018297E-5,1.05977509432E-5,-2.35591549771E-6,3.627807485883E-8},
    {-2.29392773263E-5,1.063198499525E-5,-2.39738845359E-6,3.615582765035E-8},
    {-2.48030129743E-5,1.06020800441E-5,-2.33832513811E-6,3.420122697584E-8},
    {-2.30289132372E-5,1.058689706487E-5,-2.34134498463E-6,3.363423997917E-8},
    {-2.26753511994E-5,1.062659197049E-5,-2.37036419772E-6,3.393389194354E-8},
    {-2.51601505166E-5,1.064930159753E-5,-2.38953672674E-6,3.58207014409E-8},
    {-2.29273968367E-5,1.05983733848E-5,-2.38388631708E-6,3.690732672171E-8},
    {-2.40381683856E-5,1.060807254712E-5,-2.35670802732E-6,3.418538714225E-8},
    {-2.32857545746E-5,1.056775355315E-5,-2.344404902E-6,3.349112392842E-8},
    {-2.45667168119E-5,1.065042976752E-5,-2.36829206597E-6,3.645535825075E-8},
    {-2.47961417421E-5,1.05945741619E-5,-2.33064306052E-6,3.365087914518E-8},
    {-2.54979195653E-5,1.058211675742E-5,-2.33812662553E-6,3.420673698721E-8},
    {-2.41905387171E-5,1.057614396856E-5,-2.38217724279E-6,3.466839280571E-8},
    {-2.51785703245E-5,1.066466130782E-5,-2.36668139277E-6,3.437850946477E-8},
    {-2.48101385457E-5,1.065590716134E-5,-2.34354190182E-6,3.467944913547E-8},
    {-2.41272620659E-5,1.060295157665E-5,-2.36860922035E-6,3.55331958657E-8},
    {-2.26850270074E-5,1.056541341992E-5,-2.37367344135E-6,3.350869806585E-8},
    {-2.40583725351E-5,1.058277764327E-5,-2.34329129849E-6,3.385846795946E-8}}},
  {{1.34453269445E-15,-1.2551047303E-14,4.66692482251E-13},{Residual->5.04901553855E-17}},
  {{-.1,7.22652788799E-15},{-.07,4.55939005323E-15},{-.04,2.63813965079E-15},{-.01,1.49055601065E-15},{.02,1.19512194468E-15},
   {.05,1.94563770585E-15},{.08,3.32226420945E-15}}},
 {"R32",1,
  {9.20780272545E-7,1.060879622939E-5,1.565125119781E-8,3.436366947741E-8,{{-2.40612484792E-5,1.065428925476E-5,-2.15001457579E-6,
     3.525336773954E-8},
    {-2.31036517865E-5,1.064841689339E-5,-2.13722323086E-6,3.425952979596E-8},
    {-2.13414625965E-5,1.058637567505E-5,-2.11288644897E-6,3.400070211159E-8},
    {-2.27766244315E-5,1.063981776038E-5,-2.13522211062E-6,3.390602539381E-8},
    {-2.41581057026E-5,1.066302915971E-5,-2.12936815669E-6,3.429172913324E-8},
    {-2.24576552452E-5,1.060840231175E-5,-2.1470838503E-6,3.623611514749E-8},
    {-2.15935168595E-5,1.058317253298E-5,-2.12766151955E-6,3.343497469977E-8},
    {-2.40042821938E-5,1.060886436507E-5,-2.15594288816E-6,3.5107110936E-8},
    {-2.11292600506E-5,1.055256170663E-5,-2.16349614176E-6,3.404216776447E-8},
    {-2.30573237083E-5,1.060119857905E-5,-2.11989581851E-6,3.451440592733E-8},
    {-2.27973242563E-5,1.057498310067E-5,-2.15381502422E-6,3.400829371468E-8},
    {-2.13931454845E-5,1.060210263236E-5,-2.12451647893E-6,3.385482199148E-8},
    {-2.28037726251E-5,1.059482363358E-5,-2.1122537862E-6,3.390750627842E-8},
    {-2.41558020977E-5,1.061179246889E-5,-2.11864121923E-6,3.384998234514E-8},
    {-2.34589534545E-5,1.060434609335E-5,-2.16035144169E-6,3.510638380545E-8},
    {-2.26391898234E-5,1.058879863278E-5,-2.14189070809E-6,3.422172911976E-8},
    {-2.32019112835E-5,1.060008397592E-5,-2.12606832999E-6,3.513901058335E-8},
    {-2.3611404411E-5,1.059316631951E-5,-2.12579029746E-6,3.394490795343E-8},
    {-2.31538277732E-5,1.062029431003E-5,-2.13889270722E-6,3.408802484806E-8},
    {-2.34963238E-5,1.063940518191E-5,-2.11626581432E-6,3.41066002593E-8}}},
  {{1.27230146159E-15,-5.5485010494E-15,2.98774045568E-13},{Residual->3.93332993375E-17}},
  {{-.1,4.78406877755E-15},{-.07,3.14341782385E-15},{-.04,2.03899809939E-15},{-.01,1.33754500572E-15},{.02,1.21595294855E-15},
   {.05,1.75636900493E-15},{.08,2.75640142478E-15}}},
 {"Y24",1,
  {7.581020074262E-7,1.059318364237E-5,2.502528561947E-8,3.208134482118E-8,{{-2.29072622588E-5,1.061951477034E-5,-2.15239960042E-6,
     3.146392027497E-8},
    {-2.18276097651E-5,1.05889132645E-5,-2.200184868E-6,3.235241703211E-8},
    {-2.31368591626E-5,1.060086874303E-5,-2.18074654844E-6,3.483003433488E-8},
    {-2.18847481927E-5,1.058714548352E-5,-2.16326099699E-6,3.149450831965E-8},
    {-2.21509111606E-5,1.061491385846E-5,-2.15530063229E-6,3.12197950839E-8},
    {-2.06663057414E-5,1.060720654899E-5,-2.15646060983E-6,3.32204922974E-8},
    {-2.18337624386E-5,1.059257391548E-5,-2.20852518197E-6,3.116327741917E-8},
    {-2.08541105697E-5,1.057911270511E-5,-2.20005752554E-6,3.224321283357E-8},
    {-2.30056728464E-5,1.058561012542E-5,-2.14782456388E-6,3.166707059595E-8},
    {-2.13217055826E-5,1.059312141566E-5,-2.18746000868E-6,3.091619311685E-8},
    {-2.17060125711E-5,1.061117570505E-5,-2.21495279291E-6,3.221857102621E-8},
    {-2.15783182633E-5,1.057702788942E-5,-2.21286790016E-6,3.173474359681E-8},
    {-2.09433013702E-5,1.057436823291E-5,-2.23325157179E-6,3.321384737844E-8},
    {-2.25152754891E-5,1.059665978534E-5,-2.17483662226E-6,3.187655849482E-8},
    {-2.06451575557E-5,1.0559543558E-5,-2.18382598895E-6,3.151517394294E-8},
    {-2.23241003993E-5,1.059630353465E-5,-2.15053098353E-6,3.276792511598E-8},
    {-2.20585908441E-5,1.057863644766E-5,-2.16031415877E-6,3.320886402187E-8},
    {-2.05837050749E-5,1.061164126073E-5,-2.17182575192E-6,3.089043923436E-8},
    {-2.15774653794E-5,1.059255924399E-5,-2.20044175833E-6,3.162880101068E-8},
    {-2.18221634338E-5,1.05967763592E-5,-2.20993078266E-6,3.200105129312E-8}}},
  {{1.20904231313E-15,-2.0205634792E-15,5.22315856491E-15},{Residual->1.16724620616E-17}},
  {{-.3,2.28373788163E-15},{-.2,1.83089057051E-15},{-.1,1.45068144241E-15},{5.55111512313E-17,1.21759070782E-15},
   {.1,1.04473919416E-15},{.2,1.03306308806E-15},{.3,1.06507770547E-15}}},
 {"Y46",1,
  {1.04916111898E-6,1.060790495847E-5,1.926101562912E-8,3.290913441582E-8,{{-2.25278979767E-5,1.06098197773E-5,-2.2119106598E-6,
     3.456524805877E-8},
    {-2.21684499502E-5,1.059116388457E-5,-2.20057534571E-6,3.357400007638E-8},
    {-2.13509944643E-5,1.062867097126E-5,-2.21283348593E-6,3.388672478372E-8},
    {-2.06273044812E-5,1.059716552888E-5,-2.13670462142E-6,3.101257871531E-8},
    {-2.18398521955E-5,1.059390934866E-5,-2.19248594556E-6,3.27929945085E-8},
    {-2.18499815503E-5,1.06183265604E-5,-2.22455810981E-6,3.37964975766E-8},
    {-2.43556888316E-5,1.065567992376E-5,-2.17287858638E-6,3.229476953058E-8},
    {-2.24546242431E-5,1.062965794048E-5,-2.20494766559E-6,3.376070434352E-8},
    {-2.31825083372E-5,1.062709140171E-5,-2.17917966958E-6,3.25510851805E-8},
    {-2.29182598104E-5,1.061031415599E-5,-2.1960320765E-6,3.429153776585E-8},
    {-2.33306468686E-5,1.060285155771E-5,-2.19879835126E-6,3.354201773566E-8},
    {-2.3291248093E-5,1.063660665904E-5,-2.20790913415E-6,3.375835101505E-8},
    {-2.16227299838E-5,1.063203897707E-5,-2.19716894214E-6,3.387262060939E-8},
    {-2.24291768053E-5,1.059226413337E-5,-2.20682155798E-6,3.152162667882E-8},
    {-2.1451437561E-5,1.060064585288E-5,-2.21666798432E-6,3.293746324404E-8},
    {-2.21357343062E-5,1.063123428419E-5,-2.16943470611E-6,3.152167154227E-8},
    {-2.23852332232E-5,1.057556555107E-5,-2.19490070927E-6,3.165850703749E-8},
    {-2.06936822879E-5,1.058923200808E-5,-2.19652160644E-6,3.262732660156E-8},
    {-2.18564161762E-5,1.05818836385E-5,-2.18166379787E-6,3.25159909313E-8},
    {-1.9629739831E-5,1.055397701443E-5,-2.20119251173E-6,3.170097238103E-8}}},
  {{1.08944708391E-15,3.11953614818E-17,4.61435754976E-15},{Residual->2.97720723492E-17}},
  {{-.45,2.00554982728E-15},{-.3,1.52291961372E-15},{-.15,1.17203014126E-15},{-5.5511151231E-17,1.04388535103E-15},
   {.15,1.22261036063E-15},{.3,1.55560964133E-15},{.45,2.01056990849E-15}}},
 {"Y22",1,
  {9.675238574242E-7,1.059817453012E-5,1.984577428162E-8,3.239375002717E-8,{{-2.24257674036E-5,1.060638202638E-5,-2.19219107987E-6,
     3.272416335783E-8},
    {-2.0104337888E-5,1.058451640835E-5,-2.16845640878E-6,3.107225414071E-8},
    {-2.06320337884E-5,1.056876264832E-5,-2.21078892142E-6,3.305528895649E-8},
    {-2.19349902996E-5,1.05715880815E-5,-2.20417952029E-6,3.154314858669E-8},
    {-2.12892648189E-5,1.062128523505E-5,-2.17610934745E-6,3.367929572334E-8},
    {-2.17064033468E-5,1.057072432346E-5,-2.19394802037E-6,3.162181632438E-8},
    {-2.25526242956E-5,1.059926084626E-5,-2.22354683625E-6,3.311081971915E-8},
    {-2.39574650644E-5,1.060410200321E-5,-2.16992027327E-6,3.215788431799E-8},
    {-2.06498978237E-5,1.057627142069E-5,-2.21610388206E-6,3.228396927149E-8},
    {-2.2269952949E-5,1.062133488397E-5,-2.18098775907E-6,3.347358291456E-8},
    {-2.28371361295E-5,1.062308391485E-5,-2.18786386685E-6,3.240577949609E-8},
    {-2.2164039396E-5,1.062110079711E-5,-2.21695537368E-6,3.219860904683E-8},
    {-2.09874987607E-5,1.058758687486E-5,-2.1525862236E-6,3.080740891906E-8},
    {-2.06322667659E-5,1.055609408441E-5,-2.17928049081E-6,3.167164120062E-8},
    {-2.25872163917E-5,1.05963466663E-5,-2.1605668226E-6,3.122991475369E-8},
    {-2.31046267046E-5,1.062066465703E-5,-2.20124289323E-6,3.319601614E-8},
    {-2.10613151079E-5,1.064775506413E-5,-2.2066514905E-6,3.389636967218E-8},
    {-2.21070055654E-5,1.057921766783E-5,-2.20099132692E-6,3.273536237266E-8},
    {-2.12191147467E-5,1.063002429088E-5,-2.17196240575E-6,3.164211610158E-8},
    {-2.10702952192E-5,1.057738870783E-5,-2.20841299443E-6,3.336955952813E-8}}},
  {{1.26576094412E-15,7.97800530049E-15,7.68887449652E-14},{Residual->3.19774308165E-16}},
  {{-.6,2.41415539831E-14},{-.4,1.00752044756E-14},{-.2,3.45036059343E-15},{1.11022302463E-16,1.03190157723E-15},
   {.2,5.68639938846E-15},{.4,1.67550410675E-14},{.6,3.38352598844E-14}}},
 {"Y26",1,
  {8.15886162535E-7,1.057941739353E-5,2.394986945459E-8,2.891835703942E-8,{{-2.20405522149E-5,1.05686970022E-5,-2.17091983047E-6,
     2.871842756367E-8},
    {-2.23537675336E-5,1.060828363367E-5,-2.18951886075E-6,2.960655777667E-8},
    {-2.21618321132E-5,1.061939028175E-5,-2.18218853252E-6,2.924581844405E-8},
    {-2.02882064204E-5,1.055318493378E-5,-2.195881687E-6,2.834241922689E-8},
    {-2.14555020186E-5,1.057166444127E-5,-2.12279594936E-6,2.772761505241E-8},
    {-2.06079085775E-5,1.055968432396E-5,-2.16566189787E-6,2.867904295262E-8},
    {-2.05335557159E-5,1.054522968494E-5,-2.16230755666E-6,2.813929190005E-8},
    {-2.28809202646E-5,1.064019441957E-5,-2.18896894499E-6,3.076857646431E-8},
    {-2.17336001684E-5,1.05641093181E-5,-2.19240561026E-6,2.972572158176E-8},
    {-2.22300690534E-5,1.062781842534E-5,-2.1646621284E-6,2.848251738318E-8},
    {-2.19294494154E-5,1.056396204603E-5,-2.16035987662E-6,2.942371723017E-8},
    {-2.01006198805E-5,1.053894420704E-5,-2.18081346382E-6,2.856161257202E-8},
    {-2.17748721001E-5,1.057427927886E-5,-2.14767396935E-6,2.793633101507E-8},
    {-2.04102040676E-5,1.055918134552E-5,-2.14847567007E-6,2.809034917058E-8},
    {-2.101343007E-5,1.056895874162E-5,-2.16251221315E-6,2.791595142922E-8},
    {-2.0965299033E-5,1.056648412284E-5,-2.13511720839E-6,2.876152999833E-8},
    {-2.24451917329E-5,1.061898647909E-5,-2.1636425727E-6,3.010409809467E-8},
    {-2.25156915441E-5,1.057951407325E-5,-2.18778046697E-6,2.938637804646E-8},
    {-2.19465582443E-5,1.05807437816E-5,-2.11210038139E-6,2.840612230451E-8},
    {-2.19413096901E-5,1.057903733017E-5,-2.20344690672E-6,3.034506258167E-8}}},
  {{1.30147850597E-15,-7.7837443435E-15,1.62081960124E-13},{Residual->2.29785984674E-16}},
  {{-.3,1.79733532348E-14},{-.2,9.67714631193E-15},{-.1,3.94401750224E-15},{5.55111512313E-17,1.01496952208E-15},
   {.1,1.94635031834E-15},{.2,6.33484911107E-15},{.3,1.36026123761E-14}}},
 {"Y66",1,
  {9.161367958503E-7,1.058287581604E-5,2.765885916025E-8,2.873121235314E-8,{{-2.19430696822E-5,1.063639440572E-5,-2.10123794871E-6,
     2.950589381469E-8},
    {-2.19624612884E-5,1.056760184418E-5,-2.1605218733E-6,2.770053995003E-8},
    {-2.27785918357E-5,1.062377916317E-5,-2.16774875764E-6,2.819336363086E-8},
    {-2.29361440357E-5,1.058043470696E-5,-2.23073811608E-6,2.943762343703E-8},
    {-2.28626360757E-5,1.067533350876E-5,-2.18695346628E-6,2.990503202965E-8},
    {-2.13978496661E-5,1.057415523241E-5,-2.15287836682E-6,2.846712869892E-8},
    {-2.12516017403E-5,1.054941355477E-5,-2.17441770443E-6,2.856319658367E-8},
    {-2.15254774804E-5,1.061721736314E-5,-2.12446913901E-6,2.912826233655E-8},
    {-2.16795647651E-5,1.056414670143E-5,-2.17302278923E-6,2.814412764849E-8},
    {-2.17469331506E-5,1.056602252109E-5,-2.15955306181E-6,2.923951618699E-8},
    {-2.00851709297E-5,1.055888481662E-5,-2.16770575715E-6,2.86102299445E-8},
    {-2.20120906294E-5,1.057036201276E-5,-2.15205351067E-6,2.930699317229E-8},
    {-2.1850969156E-5,1.056634748901E-5,-2.17294888437E-6,2.875571983104E-8},
    {-2.36752260277E-5,1.061967334341E-5,-2.13489013081E-6,2.826992801224E-8},
    {-1.9991812007E-5,1.054940616045E-5,-2.18795114822E-6,2.827740964334E-8},
    {-2.19290596356E-5,1.05766092264E-5,-2.14533325697E-6,2.789506577809E-8},
    {-2.07423220402E-5,1.055515397639E-5,-2.20900971081E-6,2.86879817576E-8},
    {-2.30172896455E-5,1.058481617952E-5,-2.18089420572E-6,2.928828301135E-8},
    {-2.23184019563E-5,1.056167239871E-5,-2.15514355536E-6,2.761184873236E-8},
    {-2.13503193594E-5,1.056009171587E-5,-2.17467820445E-6,2.963610286305E-8}}},
  {{4.45238598274E-15,5.74881864684E-16,3.81062034213E-12},{Residual->2.1672484134E-15}},
  {{-.2,1.55979471136E-13},{-.15,9.10118529447E-14},{-.1,4.50856821888E-14},{-.05,1.23406188799E-14},{0,8.66820842951E-16},
   {.05,1.3464557705E-14},{.1,4.59613502181E-14},{.15,9.20138709048E-14},{.2,1.54940300343E-13}}},
 {"Y44",1,
  {9.631983670822E-7,1.058172319372E-5,2.590796883532E-8,2.900476470421E-8,{{-2.12574067725E-5,1.060470515436E-5,-2.1805749531E-6,
     2.969328894912E-8},
    {-2.24181626925E-5,1.058069961829E-5,-2.12483891591E-6,2.800364004878E-8},
    {-2.22674350012E-5,1.058413017978E-5,-2.20256475135E-6,2.990005195881E-8},
    {-2.3247456439E-5,1.063531271641E-5,-2.14266856839E-6,2.816210045718E-8},
    {-2.05638666418E-5,1.058107864405E-5,-2.18546394061E-6,2.799933068923E-8},
    {-2.25248163035E-5,1.066794116328E-5,-2.21055183031E-6,2.979756101247E-8},
    {-2.1820817319E-5,1.05697077176E-5,-2.14698044408E-6,2.882089310186E-8},
    {-2.15149468724E-5,1.061966098474E-5,-2.18295988668E-6,2.848888015086E-8},
    {-2.15670585579E-5,1.056825167036E-5,-2.17803255384E-6,3.014867036553E-8},
    {-2.15568496154E-5,1.062210399503E-5,-2.15707665591E-6,2.898211773128E-8},
    {-2.00278160595E-5,1.054108905237E-5,-2.1634841374E-6,2.950143441492E-8},
    {-1.97818795424E-5,1.054637718321E-5,-2.14981928842E-6,2.937511899078E-8},
    {-2.1638277992E-5,1.0581521926E-5,-2.20744998736E-6,2.899864485641E-8},
    {-2.08031880665E-5,1.05441726558E-5,-2.20810913564E-6,3.088732672274E-8},
    {-2.121321728E-5,1.056381353691E-5,-2.15714986457E-6,2.895900082104E-8},
    {-2.07059664309E-5,1.056578252084E-5,-2.16526093006E-6,2.769750358902E-8},
    {-2.06659621727E-5,1.056217408971E-5,-2.17512001434E-6,2.831805646689E-8},
    {-2.08944492424E-5,1.056971074388E-5,-2.13038696663E-6,2.932013351296E-8},
    {-1.9338077674E-5,1.054687834369E-5,-2.13068880056E-6,2.766112881386E-8},
    {-2.23088866282E-5,1.057935197815E-5,-2.15980897749E-6,2.938041143048E-8}}},
  {{9.67009851372E-16,4.93205120768E-16,4.5668027911E-14},{Residual->7.76195221148E-17}},
  {{-.6,1.70966386683E-14},{-.4,8.15736319065E-15},{-.2,2.64061175703E-15},{1.11022302463E-16,8.43964088514E-16},
   {.2,3.00494156022E-15},{.4,8.51896160612E-15},{.6,1.7654779349E-14}}},
 {"AY",1,
  {8.267217794179E-7,1.057764871057E-5,1.928830742489E-8,2.911431513789E-8,{{-2.05479974906E-5,1.056489419756E-5,-2.16226141154E-6,
     2.873552067607E-8},
    {-2.16249129635E-5,1.05515711394E-5,-2.19155130093E-6,2.902418412865E-8},
    {-2.09677764274E-5,1.054896356895E-5,-2.17306147755E-6,2.870589478555E-8},
    {-2.28288811954E-5,1.063136417428E-5,-2.15778663822E-6,2.923621591939E-8},
    {-2.04932763246E-5,1.056053772163E-5,-2.17885108521E-6,2.85230359876E-8},
    {-2.09015825699E-5,1.061600111734E-5,-2.19343981198E-6,2.908481075994E-8},
    {-2.31776070905E-5,1.062738153527E-5,-2.17058370678E-6,2.947088207529E-8},
    {-2.11695830941E-5,1.057405904745E-5,-2.19209546447E-6,2.939285342422E-8},
    {-2.21745401534E-5,1.058510437698E-5,-2.17902327724E-6,2.90672963051E-8},
    {-1.93161027502E-5,1.054912331865E-5,-2.1633255738E-6,2.962742998106E-8},
    {-2.17428287685E-5,1.056008744004E-5,-2.16860993245E-6,2.895885640755E-8},
    {-2.09862954427E-5,1.055572140005E-5,-2.19081954043E-6,2.938835303291E-8},
    {-2.1147047228E-5,1.056318006914E-5,-2.20720849711E-6,2.868084871722E-8},
    {-2.11409893139E-5,1.061807772511E-5,-2.14841876604E-6,2.933185095663E-8},
    {-2.09175590289E-5,1.054842518048E-5,-2.15289804178E-6,2.850859834784E-8},
    {-2.17070997623E-5,1.056883965879E-5,-2.19781398633E-6,2.994506231721E-8},
    {-2.1167986821E-5,1.056000674891E-5,-2.22065312815E-6,2.923533240812E-8},
    {-2.21793950729E-5,1.060444180386E-5,-2.17614552444E-6,2.963301644797E-8},
    {-2.11479036855E-5,1.054992615402E-5,-2.15382381632E-6,2.84140306862E-8},
    {-2.11036236183E-5,1.06152678335E-5,-2.15586746384E-6,2.932222939328E-8}}},
  {{3.59802600019E-16,-3.8224376611E-14,7.23261254813E-12},{Residual->2.1147092909E-16}},
  {{-.1,7.6694503524E-14},{-.07,3.8231339776E-14},{-.04,1.32778045287E-14},{-.01,1.60449769203E-15},{.02,2.81734915301E-15},
   {.05,1.62902063194E-14},{.08,4.36032885664E-14}}},
 {"EY",1,
  {9.45050398116E-7,1.057835530607E-5,2.446891453413E-8,3.021993462592E-8,{{-2.02541255904E-5,1.054515841762E-5,-2.09647463996E-6,
     3.011402241218E-8},
    {-2.0951232932E-5,1.057579865452E-5,-2.0743929557E-6,3.008833105277E-8},
    {-2.11048003782E-5,1.055602945358E-5,-2.09515298645E-6,2.961933695744E-8},
    {-2.04526490657E-5,1.060158282685E-5,-2.12671725347E-6,3.184400928683E-8},
    {-2.18899405634E-5,1.061395732446E-5,-2.11069994149E-6,3.179279807746E-8},
    {-2.03892661757E-5,1.055780030681E-5,-2.0901442646E-6,2.84328071822E-8},
    {-2.30731679093E-5,1.065106201796E-5,-2.10958269085E-6,2.936897161351E-8},
    {-2.05702867244E-5,1.055392866033E-5,-2.14091987274E-6,3.091366642524E-8},
    {-1.93446806761E-5,1.057024910688E-5,-2.10165764889E-6,3.10281007741E-8},
    {-2.18839669231E-5,1.061826934586E-5,-2.07512760367E-6,2.956564974003E-8},
    {-2.16081714992E-5,1.056237069835E-5,-2.08802614123E-6,2.940959108527E-8},
    {-2.21373196402E-5,1.056952772731E-5,-2.04313114532E-6,2.892714561523E-8},
    {-2.06626196296E-5,1.058725079544E-5,-2.09111799839E-6,3.081046657065E-8},
    {-2.10000791291E-5,1.057484809195E-5,-2.06300983355E-6,3.15174969585E-8},
    {-1.98808340866E-5,1.058519287439E-5,-2.07531188578E-6,3.107665968515E-8},
    {-1.93463983287E-5,1.053000956843E-5,-2.11855476578E-6,3.026093309592E-8},
    {-2.14605748796E-5,1.064710350579E-5,-2.14630364483E-6,3.219484100115E-8},
    {-2.08586923677E-5,1.055718234349E-5,-2.1034657246E-6,2.969936861602E-8},
    {-1.9678694762E-5,1.054705049978E-5,-2.10147491402E-6,2.897069189008E-8},
    {-2.15185647071E-5,1.056273390157E-5,-2.08452926605E-6,2.876380447871E-8}}},
  {{8.86353577968E-16,-2.0103790545E-15,4.26592443665E-13},{Residual->1.89450934889E-17}},
  {{-.1,5.36296748168E-15},{-.07,3.10202762383E-15},{-.04,1.65660867119E-15},{-.01,9.42181109695E-16},{.02,1.00261855196E-15},
   {.05,1.891150944E-15},{.08,3.43639148818E-15}}},
 {"R32",1,
  {8.840667744688E-7,1.059056283954E-5,2.684105042635E-8,2.984132705518E-8,{{-1.93234379271E-5,1.058289004452E-5,-2.25592130724E-6,
     3.152283804518E-8},
    {-1.91303419969E-5,1.063381693759E-5,-2.25536442717E-6,2.990522586136E-8},
    {-1.85104685175E-5,1.058007966521E-5,-2.24839232143E-6,3.066689023681E-8},
    {-2.01098989959E-5,1.062958390536E-5,-2.27312119091E-6,2.930198748515E-8},
    {-1.72260783818E-5,1.058951818175E-5,-2.27609689668E-6,3.020041345896E-8},
    {-1.79807083043E-5,1.060353422209E-5,-2.29032413476E-6,3.33323940875E-8},
    {-1.99424952175E-5,1.064459036603E-5,-2.26063502665E-6,2.926990973146E-8},
    {-1.77112616639E-5,1.058310536255E-5,-2.25590067819E-6,3.185207868731E-8},
    {-1.80087177944E-5,1.056409202421E-5,-2.2517837113E-6,2.824951168363E-8},
    {-1.7729953619E-5,1.059982985608E-5,-2.28950341629E-6,3.024040579581E-8},
    {-1.87555070741E-5,1.061914274207E-5,-2.26872486071E-6,3.068532027998E-8},
    {-1.70916789625E-5,1.055057416493E-5,-2.26845626268E-6,2.958320212049E-8},
    {-1.85241427849E-5,1.058441321717E-5,-2.19878717041E-6,2.893673835531E-8},
    {-1.65706531337E-5,1.055931469079E-5,-2.22094971349E-6,2.775821591286E-8},
    {-1.80101735585E-5,1.057658344747E-5,-2.25454242319E-6,3.013592972619E-8},
    {-1.84198430258E-5,1.058335154523E-5,-2.22750342129E-6,2.816765549871E-8},
    {-1.86215920555E-5,1.063052144527E-5,-2.23732810906E-6,2.924420186291E-8},
    {-1.80057581514E-5,1.057211085892E-5,-2.25888368416E-6,2.895896739374E-8},
    {-1.742913629E-5,1.056119905907E-5,-2.22065295091E-6,2.773537885843E-8},
    {-1.79003660313E-5,1.056300505456E-5,-2.31989306893E-6,3.107927602183E-8}}},
  {{8.95928747287E-16,-3.2295348745E-15,3.02688010655E-13},{Residual->2.02756281017E-17}},
  {{-.1,4.23237750566E-15},{-.07,2.64380941007E-15},{-.04,1.48331170144E-15},{-.01,9.43475694002E-16},{.02,9.68413251392E-16},
   {.05,1.49571984328E-15},{.08,2.57008074234E-15}}},
 {"Y24",1,
  {9.967119435959E-7,1.058189264434E-5,2.096947444527E-8,3.203654536387E-8,{{-2.00370748338E-5,1.057343006345E-5,-1.96986407747E-6,
     2.989893442782E-8},
    {-2.18920676763E-5,1.061227685457E-5,-1.99755432396E-6,3.29585045701E-8},
    {-2.00840911322E-5,1.057713425149E-5,-1.93517711387E-6,3.000402653945E-8},
    {-2.00460386297E-5,1.054728010215E-5,-1.9811404361E-6,3.329271214852E-8},
    {-2.27194906324E-5,1.06333297466E-5,-1.97297712061E-6,3.190743565352E-8},
    {-2.07826204788E-5,1.057061819357E-5,-2.01666858026E-6,3.406392613015E-8},
    {-2.03392490954E-5,1.056379363543E-5,-1.97609965442E-6,3.237468297914E-8},
    {-1.99394849514E-5,1.055426415391E-5,-2.01142258273E-6,3.220822304155E-8},
    {-2.02304681879E-5,1.055250876754E-5,-1.98208012953E-6,3.307286199583E-8},
    {-1.932361233E-5,1.058148640995E-5,-1.98791032193E-6,3.133055468695E-8},
    {-2.26390060074E-5,1.058273274252E-5,-1.99231906392E-6,3.382721978772E-8},
    {-2.07530985397E-5,1.061429369022E-5,-1.95844550084E-6,3.073484479179E-8},
    {-2.298304189E-5,1.064977490797E-5,-1.98160743176E-6,3.115003780227E-8},
    {-1.96328118612E-5,1.057177662012E-5,-1.94637677693E-6,2.977936705052E-8},
    {-2.10077242973E-5,1.057854347591E-5,-1.99692268884E-6,3.075673852007E-8},
    {-2.03995469052E-5,1.058179913507E-5,-1.94029846239E-6,3.25481683864E-8},
    {-2.06558210231E-5,1.057215680615E-5,-1.96957559862E-6,3.227248894494E-8},
    {-2.06806790215E-5,1.057193919056E-5,-1.95999236637E-6,3.335625282524E-8},
    {-2.05855664048E-5,1.056303400304E-5,-1.97892757076E-6,3.431741654932E-8},
    {-2.04738997917E-5,1.058568013648E-5,-1.97380001783E-6,3.087651044613E-8}}},
  {{1.19111361291E-15,-1.7517760229E-15,4.24804918556E-15},{Residual->2.12469066991E-17}},
  {{-.3,2.12488151981E-15},{-.2,1.67446533581E-15},{-.1,1.39148760146E-15},{5.55111512313E-17,1.21467735603E-15},
   {.1,1.07202429759E-15},{.2,1.01107318402E-15},{.3,1.03863976762E-15}}},
 {"Y46",1,
  {8.413123108062E-7,1.05944099468E-5,2.521412505429E-8,3.11815499824E-8,{{-2.20871495271E-5,1.062510114582E-5,-1.95223083856E-6,
     3.089676723606E-8},
    {-1.95605738702E-5,1.060562616077E-5,-1.97911029311E-6,3.198134291103E-8},
    {-2.06533536948E-5,1.058606023719E-5,-1.9542788493E-6,3.087978493281E-8},
    {-2.10506735805E-5,1.059752970096E-5,-2.00705351194E-6,3.002605644262E-8},
    {-2.00001781988E-5,1.057012454059E-5,-1.9661244972E-6,3.101180980862E-8},
    {-2.01003063015E-5,1.058396752627E-5,-1.9900074757E-6,3.207233610946E-8},
    {-2.13862916937E-5,1.06523914764E-5,-1.93334464735E-6,3.047453757605E-8},
    {-2.06847887004E-5,1.063627183572E-5,-1.97244757093E-6,3.214716313671E-8},
    {-2.06671536556E-5,1.058575585705E-5,-1.99007963459E-6,3.231282142919E-8},
    {-1.82371520719E-5,1.05481507068E-5,-1.92298026733E-6,2.943263446952E-8},
    {-2.11005139598E-5,1.059085183803E-5,-1.96511920148E-6,3.101851066323E-8},
    {-2.00075719447E-5,1.059517751054E-5,-1.95480308005E-6,2.929795738555E-8},
    {-2.03725059747E-5,1.056629285452E-5,-2.00146395619E-6,3.252227607703E-8},
    {-1.93095642296E-5,1.055508009617E-5,-1.93033896566E-6,3.018876081535E-8},
    {-2.1253475376E-5,1.063338077254E-5,-1.95950177855E-6,3.014255351592E-8},
    {-2.06147642142E-5,1.058939397858E-5,-1.9340319387E-6,3.053514232325E-8},
    {-2.16354904705E-5,1.062310262882E-5,-1.94445592323E-6,3.258389275817E-8},
    {-2.08015398294E-5,1.061261335632E-5,-1.99507975701E-6,3.125379570673E-8},
    {-2.02618417735E-5,1.057035158376E-5,-1.99179587407E-6,3.20556080239E-8},
    {-2.05217601249E-5,1.056097512908E-5,-1.93784202302E-6,3.279724832672E-8}}},
  {{1.03283176607E-15,5.74070142488E-16,4.70805302672E-15},{Residual->2.30640098825E-17}},
  {{-.45,1.73217221271E-15},{-.3,1.29169883616E-15},{-.15,1.04308312545E-15},{-5.5511151231E-17,1.00029726329E-15},
   {.15,1.24189036573E-15},{.3,1.66806022922E-15},{.45,2.21869373673E-15}}},
 {"Y22",1,
  {1.121153284906E-6,1.058256830561E-5,2.059244566856E-8,3.127305317004E-8,{{-1.89755269907E-5,1.055591410654E-5,-1.96327637918E-6,
     3.21284118235E-8},
    {-2.13107635458E-5,1.058463037359E-5,-1.92031085418E-6,3.057725796451E-8},
    {-2.26533303922E-5,1.058425624437E-5,-1.99425770052E-6,3.32797010565E-8},
    {-1.99796796209E-5,1.057824871734E-5,-1.94903056801E-6,3.104564163906E-8},
    {-1.82970942178E-5,1.057828131895E-5,-1.99493330341E-6,3.209143807791E-8},
    {-2.03644310087E-5,1.056609912817E-5,-1.96087978007E-6,3.409533325245E-8},
    {-2.23886500599E-5,1.061015854103E-5,-1.97110041345E-6,3.118451516687E-8},
    {-2.15825762231E-5,1.061090693335E-5,-1.95937109586E-6,3.17257605653E-8},
    {-2.07579819725E-5,1.058343110371E-5,-1.96544832305E-6,2.930635307433E-8},
    {-1.9366270761E-5,1.058311325178E-5,-1.95529061618E-6,3.031491027081E-8},
    {-2.03111369156E-5,1.062077475411E-5,-1.9105526063E-6,2.923914301105E-8},
    {-2.03202029061E-5,1.055678401076E-5,-1.96893945499E-6,3.367600770748E-8},
    {-1.99997694493E-5,1.059266675951E-5,-1.95091005176E-6,2.924313679011E-8},
    {-1.87304069712E-5,1.053838149832E-5,-1.96997467303E-6,3.289774322845E-8},
    {-1.95019030279E-5,1.057439242509E-5,-1.94167668892E-6,2.961660119811E-8},
    {-2.11161337508E-5,1.057890546014E-5,-1.99123068993E-6,3.213283621567E-8},
    {-1.91228860925E-5,1.056494157527E-5,-1.9582992817E-6,3.112110547897E-8},
    {-2.0535944545E-5,1.061649353343E-5,-1.95749539882E-6,3.201655755778E-8},
    {-1.9948019947E-5,1.05905482465E-5,-1.96169095054E-6,2.937513972545E-8},
    {-2.07424137104E-5,1.058243813026E-5,-1.97383561996E-6,3.039346959642E-8}}},
  {{1.11910068442E-15,5.48647609809E-15,8.25839074278E-14},{Residual->4.35427274682E-16}},
  {{-.6,2.73327567566E-14},{-.4,1.20788152922E-14},{-.2,4.07962851826E-15},{1.11022302463E-16,9.80230345746E-16},
   {.2,5.37073823713E-15},{.4,1.58674785954E-14},{.6,3.46180333647E-14}}},
 {"Y26",1,
  {1.068612910484E-6,1.058265162619E-5,1.373401353387E-8,3.130149657191E-8,{{-1.97008400521E-5,1.055834848115E-5,-1.95757909256E-6,
     3.096726416495E-8},
    {-2.21134550095E-5,1.060463000308E-5,-1.95467184812E-6,3.267598162034E-8},
    {-2.01144517515E-5,1.057945525469E-5,-1.95391185628E-6,2.95246001147E-8},
    {-2.11329665399E-5,1.061932779656E-5,-1.96644239824E-6,3.134912746335E-8},
    {-1.95208911405E-5,1.057341878734E-5,-1.95430528559E-6,3.101151057653E-8},
    {-1.96281060376E-5,1.055526434539E-5,-1.97360741011E-6,3.196175728339E-8},
    {-1.9289990747E-5,1.054159243128E-5,-1.97899287676E-6,3.194699399488E-8},
    {-2.14543199437E-5,1.058166597915E-5,-1.95339137271E-6,3.060988930016E-8},
    {-1.96200390592E-5,1.055361713107E-5,-1.95807989428E-6,3.226820002877E-8},
    {-2.07025646781E-5,1.057155622882E-5,-1.96774942205E-6,3.175273891014E-8},
    {-2.21116740615E-5,1.064831886952E-5,-1.94381567276E-6,2.967874388881E-8},
    {-2.09431583766E-5,1.062618556681E-5,-1.93434126855E-6,2.949188414146E-8},
    {-2.14347043815E-5,1.06307602536E-5,-1.96479130163E-6,3.165382059897E-8},
    {-1.82601211496E-5,1.055892384224E-5,-1.95760791417E-6,2.993977508335E-8},
    {-2.03458646711E-5,1.057196601172E-5,-1.97124202696E-6,3.076930077194E-8},
    {-2.26147675004E-5,1.062209588117E-5,-1.9852426255E-6,3.31161220717E-8},
    {-2.01944086198E-5,1.056769620329E-5,-1.94350043028E-6,3.124006713161E-8},
    {-2.01774716698E-5,1.055508804512E-5,-1.97235065568E-6,3.367536201517E-8},
    {-2.08276507336E-5,1.057502190117E-5,-1.9891761297E-6,3.136080374566E-8},
    {-1.96914372235E-5,1.055809951053E-5,-1.95338486267E-6,3.103598853227E-8}}},
  {{1.38560637081E-15,-1.0976320445E-15,1.58563443255E-13},{Residual->2.25136655731E-16}},
  {{-.3,1.58827827604E-14},{-.2,8.14368875196E-15},{-.1,3.21428814351E-15},{5.55111512313E-17,9.79759565108E-16},
   {.1,2.86147753294E-15},{.2,7.82986918878E-15},{.3,1.51851427645E-14}}},
 {"Y66",1,
  {9.019424375662E-7,1.059234044018E-5,1.486369604397E-8,3.124516059067E-8,{{-2.21272504121E-5,1.061126077121E-5,-1.9801610497E-6,
     3.039979490601E-8},
    {-2.09056406173E-5,1.058298399105E-5,-1.98401836966E-6,3.184908880981E-8},
    {-2.08918296417E-5,1.057385557056E-5,-1.9940190345E-6,3.093764496294E-8},
    {-2.08234138719E-5,1.062780068415E-5,-1.98933828078E-6,3.202477410395E-8},
    {-2.11615538675E-5,1.059968614386E-5,-1.97425603099E-6,3.167462241961E-8},
    {-2.07639769594E-5,1.059526433634E-5,-1.97908663427E-6,3.222664530072E-8},
    {-2.11811822398E-5,1.062937245433E-5,-1.98520450849E-6,3.132414236011E-8},
    {-2.03293995613E-5,1.058394274442E-5,-1.96486772829E-6,3.232536355748E-8},
    {-1.99249921008E-5,1.063184531677E-5,-1.95193472045E-6,3.211622372281E-8},
    {-1.77871468009E-5,1.055018172538E-5,-1.9722806017E-6,3.13925879893E-8},
    {-2.09397861855E-5,1.059739110913E-5,-1.96035090657E-6,3.028501842169E-8},
    {-2.02836450986E-5,1.057864932778E-5,-1.95665475241E-6,3.051026234947E-8},
    {-2.21883549808E-5,1.063172741517E-5,-1.94738443561E-6,3.048958899686E-8},
    {-1.98741642345E-5,1.058045744626E-5,-1.95495693885E-6,3.061077308774E-8},
    {-2.00516107717E-5,1.058591095251E-5,-1.95369459425E-6,2.973046255063E-8},
    {-2.02930378729E-5,1.058977380691E-5,-1.97298090394E-6,2.956742773799E-8},
    {-2.08944085078E-5,1.057385841698E-5,-1.97571981061E-6,3.26368561557E-8},
    {-1.99093308645E-5,1.055596735832E-5,-2.00160722652E-6,3.247630125307E-8},
    {-1.99669084602E-5,1.059422043701E-5,-1.95770729575E-6,3.083902446074E-8},
    {-2.03725844822E-5,1.05726587954E-5,-1.97847589507E-6,3.148660866675E-8}}},
  {{4.19820340647E-15,-1.5487194419E-14,3.81449453213E-12},{Residual->1.89227815694E-15}},
  {{-.2,1.58811430804E-13},{-.15,9.43793126397E-14},{-.1,4.47477124966E-14},{-.05,1.36268922358E-14},{0,9.80101712055E-16},
   {.05,1.34200554541E-14},{.1,4.18263530011E-14},{.15,9.06929748849E-14},{.2,1.51473177249E-13}}},
 {"Y44",1,
  {9.959006124534E-7,1.058026330321E-5,1.942359639004E-8,3.093511012289E-8,{{-2.09550283252E-5,1.057836788805E-5,-1.95932268421E-6,
     3.130986397815E-8},
    {-2.08383158327E-5,1.056654939644E-5,-1.96174546769E-6,3.007756786849E-8},
    {-1.99732855905E-5,1.060061042383E-5,-1.97000640613E-6,3.132413577227E-8},
    {-2.02158926138E-5,1.057697161027E-5,-1.93232479494E-6,2.872273906729E-8},
    {-2.16942360902E-5,1.05928091005E-5,-1.9650384734E-6,3.249124843991E-8},
    {-1.9379226782E-5,1.05337346041E-5,-1.96182550447E-6,3.150977942444E-8},
    {-1.96152895408E-5,1.054949384453E-5,-1.96831708092E-6,3.057338756451E-8},
    {-1.88814964541E-5,1.055776688764E-5,-1.95911419531E-6,2.974293600989E-8},
    {-2.2750637462E-5,1.05993721173E-5,-1.92134090921E-6,3.272964263615E-8},
    {-2.08906610539E-5,1.06032041018E-5,-1.93569681397E-6,2.982952162428E-8},
    {-2.0697438282E-5,1.060837651675E-5,-1.976989319E-6,3.086377126438E-8},
    {-2.12397172918E-5,1.061558110327E-5,-1.91443040836E-6,3.076111849916E-8},
    {-2.11841176657E-5,1.05732115832E-5,-1.96662758865E-6,3.176531571119E-8},
    {-1.90601128468E-5,1.055669319623E-5,-1.92973298852E-6,2.909503016281E-8},
    {-2.2361207418E-5,1.059802401159E-5,-1.93838768565E-6,3.244593510536E-8},
    {-1.96748703027E-5,1.056369891589E-5,-1.97957236738E-6,2.986930317727E-8},
    {-2.10501178681E-5,1.058661790219E-5,-1.96577704445E-6,3.228779817861E-8},
    {-2.08837061775E-5,1.057364111544E-5,-1.96801772374E-6,3.073838902359E-8},
    {-2.09431834443E-5,1.057020402531E-5,-1.98389022332E-6,3.109783156226E-8},
    {-2.00443795663E-5,1.060033771985E-5,-1.95663670385E-6,3.146688738772E-8}}},
  {{1.23221777273E-15,2.27717977001E-15,4.66034471101E-14},{Residual->1.68325199959E-16}},
  {{-.6,1.67146692882E-14},{-.4,7.76353468307E-15},{-.2,2.56968878824E-15},{1.11022302463E-16,9.76817547191E-16},
   {.2,3.81622870291E-15},{.4,9.76459446062E-15},{.6,1.92158517023E-14}}},
 {"OCT1",1,
  {8.859994557779E-7,1.057877385668E-5,1.875223186518E-8,3.120035042952E-8,{{-1.96388182101E-5,1.055436100108E-5,-1.96577551039E-6,
     3.032092187664E-8},
    {-2.13628336393E-5,1.060884885663E-5,-2.00085088906E-6,3.418487695435E-8},
    {-2.00603570159E-5,1.059252598994E-5,-1.95755156747E-6,3.096373995738E-8},
    {-2.09073172461E-5,1.057148545904E-5,-1.9776176463E-6,3.25378598584E-8},
    {-2.15875475185E-5,1.058080442236E-5,-1.96769065611E-6,3.297124984897E-8},
    {-2.22639943205E-5,1.057911845711E-5,-1.98510694996E-6,3.30462531448E-8},
    {-1.98357056458E-5,1.060640789444E-5,-1.93067387045E-6,3.000384245587E-8},
    {-1.95271387318E-5,1.056995383268E-5,-1.99207007779E-6,3.18563201457E-8},
    {-2.07982675163E-5,1.057064100372E-5,-1.95328283621E-6,3.039593719481E-8},
    {-2.16680178882E-5,1.060802652214E-5,-1.94958288238E-6,3.167648237893E-8},
    {-2.02260391687E-5,1.055731878607E-5,-1.95345429511E-6,3.197167769496E-8},
    {-2.15411323621E-5,1.058365602951E-5,-1.9566465242E-6,3.125169046236E-8},
    {-2.11545452536E-5,1.057615776833E-5,-1.92957760917E-6,2.969146324683E-8},
    {-2.10288378005E-5,1.061036815947E-5,-1.95739398244E-6,3.004458266071E-8},
    {-2.18073510171E-5,1.057178569182E-5,-1.96965928537E-6,3.159914523294E-8},
    {-1.87587751236E-5,1.055339922985E-5,-1.95944339831E-6,2.984296810214E-8},
    {-2.035571887E-5,1.056835247778E-5,-1.93053762104E-6,3.045190731166E-8},
    {-1.99402720559E-5,1.055391961795E-5,-1.9614898177E-6,3.055081192504E-8},
    {-2.1015013397E-5,1.059153067147E-5,-1.95190859983E-6,3.056419387928E-8},
    {-2.01072297771E-5,1.056681526219E-5,-1.9436032445E-6,3.008108425868E-8}}},
  {{1.09711962177E-15,-1.2486689979E-18,9.02240516505E-21},{Residual->9.38834613079E-17}},
  {{-370,2.6741024299E-15},{-296,2.40581836446E-15},{-222,1.88298147477E-15},{-148,1.5091337747E-15},{-74,1.1902296651E-15},
   {0,9.41509734965E-16},{74,9.91692680864E-16},{148,1.17568116705E-15},{222,1.37533047533E-15},{296,1.56496160978E-15},
   {370,1.79163374469E-15}}},
 {"OCT2",1,
  {1.067741349224E-6,1.05879890432E-5,1.651383776917E-8,3.057095307201E-8,{{-2.31142020606E-5,1.059855541903E-5,-1.96685786348E-6,
     3.166559732824E-8},
    {-2.06598996614E-5,1.060596782628E-5,-1.97931178072E-6,3.237020744296E-8},
    {-2.14507726279E-5,1.062359442528E-5,-1.9618754044E-6,3.026179241457E-8},
    {-2.1882847835E-5,1.063392074625E-5,-1.97520599243E-6,3.058163309335E-8},
    {-1.97672737947E-5,1.053809864973E-5,-1.97622694682E-6,3.135534123231E-8},
    {-2.0719868237E-5,1.057561100625E-5,-1.98449643167E-6,3.341006200122E-8},
    {-2.04994159466E-5,1.063311988564E-5,-1.97744312498E-6,3.105750575732E-8},
    {-1.94186226786E-5,1.05593922413E-5,-1.95337847839E-6,3.024084361916E-8},
    {-1.99817682117E-5,1.061791191147E-5,-1.95465191524E-6,2.863713762323E-8},
    {-1.97008533719E-5,1.055094313725E-5,-1.9645894315E-6,3.294537245972E-8},
    {-1.96638279651E-5,1.057635187148E-5,-1.95895080388E-6,3.091692897238E-8},
    {-1.86190993684E-5,1.056044695327E-5,-1.92874981139E-6,2.924716835209E-8},
    {-2.04476497299E-5,1.062819165887E-5,-1.92832080094E-6,2.821558728692E-8},
    {-2.08465629969E-5,1.058371786722E-5,-1.93662099737E-6,2.870734528437E-8},
    {-2.04950055406E-5,1.057562932801E-5,-1.95126085043E-6,2.863194369298E-8},
    {-2.17890757857E-5,1.05765610914E-5,-1.97592715079E-6,3.119637155542E-8},
    {-2.18053868898E-5,1.056837116869E-5,-1.9468585415E-6,3.062535174265E-8},
    {-2.02057576812E-5,1.064147951393E-5,-1.94380425112E-6,2.852041944378E-8},
    {-1.97413815972E-5,1.057994087407E-5,-1.97551502455E-6,3.132336070291E-8},
    {-1.90588323992E-5,1.053197528858E-5,-1.95778435191E-6,3.150909143456E-8}}},
  {{9.49782498951E-16,2.02266821535E-20,1.45221041097E-22},{Residual->2.26864885333E-17}},
  {{-370,9.62306457669E-16},{-296,9.66172807594E-16},{-222,9.47165193546E-16},{-148,9.30501708669E-16},{-74,9.60740335898E-16},
   {0,9.66796128168E-16},{74,9.33078482069E-16},{148,9.52761209435E-16},{222,9.43880536117E-16},{296,1.02463522615E-15},
   {370,9.4706492634E-16}}}}
