FD	 9.763174E-7	 8.789355E-6	 2.142179E-6	 2.028452E-7	
EX2	 -4.32294E-5	 6.814542E-6	 2.435508E-6	 5.782103E-7	
FD	 -4.32022E-5	 6.810759E-6	 2.715233E-6	 2.097599E-7	
AY	 7.149678E-7	 7.003879E-6	 3.811304E-8	 3.013261E-7	
EY	 7.237249E-7	 7.007859E-6	 3.423539E-8	 2.449200E-7	
R32	 5.895001E-7	 6.984166E-6	 2.696448E-8	 9.715925E-8	
AY	 7.499266E-7	 6.979625E-6	 2.409155E-8	 9.907158E-8	
EY	 6.270128E-7	 6.968306E-6	 2.284889E-8	 4.902511E-8	
R32	 7.520228E-7	 6.960948E-6	 2.647861E-8	 4.082384E-8	
AY	 6.361406E-7	 6.969272E-6	 2.046118E-8	 3.985795E-8	
EY	 6.453571E-7	 6.968898E-6	 2.442781E-8	 3.840747E-8	
R32	 6.479220E-7	 6.978574E-6	 2.346222E-8	 3.858984E-8	
AY	 7.426884E-7	 6.975704E-6	 2.682002E-8	 3.848529E-8	
EY	 6.254100E-7	 6.980842E-6	 2.085341E-8	 3.865861E-8	
R32	 6.526315E-7	 6.989989E-6	 2.342520E-8	 3.856240E-8	
Y24	 5.346529E-7	 6.992892E-6	 2.249733E-8	 3.863261E-8	
Y46	 8.042322E-7	 6.990692E-6	 2.580262E-8	 3.826559E-8	
Y22	 5.806142E-7	 6.993131E-6	 2.593418E-8	 3.810398E-8	
Y26	 6.582149E-7	 6.988032E-6	 2.569226E-8	 3.832508E-8	
Y66	 5.876049E-7	 6.983811E-6	 2.243401E-8	 3.816527E-8	
Y44	 5.010104E-7	 6.996596E-6	 2.498468E-8	 3.808019E-8	
AY	 6.106192E-7	 6.978839E-6	 2.650171E-8	 3.817771E-8	
EY	 8.426145E-7	 6.985825E-6	 2.187560E-8	 3.835342E-8	
R32	 6.475866E-7	 6.977842E-6	 3.473978E-8	 3.859255E-8	
Y24	 7.143061E-7	 6.981125E-6	 2.562381E-8	 3.793863E-8	
Y46	 8.424040E-7	 6.983462E-6	 1.893619E-8	 3.724813E-8	
Y22	 8.078554E-7	 6.980944E-6	 2.387080E-8	 3.732884E-8	
Y26	 5.780370E-7	 6.985908E-6	 2.146485E-8	 3.738100E-8	
Y66	 5.451124E-7	 6.974625E-6	 2.001222E-8	 3.745845E-8	
Y44	 6.918259E-7	 6.980102E-6	 2.792431E-8	 3.733694E-8	
AY	 7.362792E-7	 6.989286E-6	 2.719638E-8	 3.753237E-8	
EY	 4.886063E-7	 6.980886E-6	 2.054100E-8	 3.713844E-8	
R32	 6.339796E-7	 6.971850E-6	 2.182168E-8	 3.749015E-8	
Y24	 9.008026E-7	 6.995646E-6	 2.267161E-8	 3.786213E-8	
Y46	 5.363034E-7	 7.003748E-6	 1.836293E-8	 3.794245E-8	
Y22	 6.599832E-7	 7.003413E-6	 2.952547E-8	 3.805150E-8	
Y26	 4.767899E-7	 7.004726E-6	 2.499957E-8	 3.795443E-8	
Y66	 6.738730E-7	 7.005415E-6	 2.500368E-8	 3.802736E-8	
Y44	 7.399172E-7	 7.001972E-6	 2.662538E-8	 3.795413E-8	
AY	 6.307978E-7	 7.008068E-6	 2.414649E-8	 3.794252E-8	
EY	 8.271427E-7	 7.013321E-6	 2.863966E-8	 3.842304E-8	
R32	 7.126501E-7	 7.023257E-6	 1.783036E-8	 3.856669E-8	
Y24	 6.696138E-7	 7.005664E-6	 2.463374E-8	 3.784599E-8	
Y46	 5.879973E-7	 6.992720E-6	 2.079825E-8	 3.753469E-8	
Y22	 7.834629E-7	 6.981228E-6	 2.097468E-8	 3.767835E-8	
Y26	 7.056809E-7	 6.989888E-6	 2.690802E-8	 3.743583E-8	
Y66	 8.016998E-7	 6.993516E-6	 3.038639E-8	 3.724558E-8	
Y44	 7.467423E-7	 6.985739E-6	 2.206589E-8	 3.734485E-8	
OCT1	 8.601040E-7	 7.007427E-6	 2.815348E-8	 3.743203E-8	
OCT2	 6.498786E-7	 6.988962E-6	 2.895013E-8	 3.705638E-8	
