FD	 1.041699E-5	 2.045654E-7	
EX2	 1.044558E-5	 3.258420E-7	
FD	 1.046203E-5	 3.244651E-7	
AY	 1.046186E-5	 3.244131E-7	
EY	 1.051532E-5	 2.884950E-7	
R32	 1.041892E-5	 2.261076E-7	
AY	 1.041890E-5	 2.260413E-7	
EY	 1.045361E-5	 1.609633E-7	
R32	 1.041377E-5	 1.388620E-7	
AY	 1.041375E-5	 1.388159E-7	
EY	 1.042789E-5	 9.533186E-8	
R32	 1.041126E-5	 9.230178E-8	
AY	 1.041127E-5	 9.232074E-8	
EY	 1.041856E-5	 6.787661E-8	
R32	 1.041074E-5	 6.877231E-8	
Y24	 1.040634E-5	 5.436912E-8	
Y46	 1.041710E-5	 4.882143E-8	
AY	 1.041716E-5	 4.824277E-8	
EY	 1.041886E-5	 4.748785E-8	
R32	 1.041633E-5	 4.639513E-8	
Y24	 1.041681E-5	 4.457937E-8	
Y46	 1.041444E-5	 4.415536E-8	
AY	 1.041445E-5	 4.328319E-8	
EY	 1.041608E-5	 4.259183E-8	
R32	 1.041239E-5	 4.018429E-8	
Y24	 1.041246E-5	 3.977821E-8	
Y46	 1.041246E-5	 3.977821E-8	
AY	 1.041245E-5	 3.995543E-8	
EY	 1.041426E-5	 3.891408E-8	
R32	 1.041122E-5	 3.721355E-8	
Y24	 1.041116E-5	 3.702952E-8	
Y46	 1.040828E-5	 3.673544E-8	
