{{"FD",1,{3.079082707696E-6,1.159820021067E-5,1.045695706966E-6,6.078178863209E-7}},
 {"EX2",1,{-1.15350715265E-5,1.112454219283E-5,8.650368458925E-7,1.557178075764E-6}},
 {"FD",1,{-1.15408781617E-5,1.112861356387E-5,8.87329158444E-7,6.05958053643E-7}},
 {"AY",1,{-1.43324457877E-5,1.11306868431E-5,7.296894922633E-7,4.793885341828E-7},
  {{2.31173268604E-13,2.38612577484E-14,1.18113334385E-13},{Residual->2.85526110056E-16}},
  {{-.5,2.4902131525E-13},{-.35,2.36904718181E-13},{-.2,2.31142334025E-13},{-.05,2.30325387696E-13},{.1,2.34594938089E-13},
   {.25,2.45022932217E-13},{.4,2.59328198573E-13}}},
 {"EY",1,{-1.41201708575E-5,1.105152701345E-5,6.649596964128E-7,4.562551223665E-7},
  {{2.29906016648E-13,-1.4734376555E-13,2.45493342815E-13},{Residual->6.56639074351E-16}},
  {{-.5,3.64239479436E-13},{-.35,3.12247300755E-13},{-.2,2.69964367224E-13},{-.05,2.37814446561E-13},{.1,2.16920884888E-13},
   {.25,2.07743182425E-13},{.4,2.10939712665E-13}}},
 {"R32",1,{-1.41832565019E-5,1.088039304899E-5,-1.32977758121E-7,2.281915635428E-7},
  {{2.07228689147E-13,-3.4461354257E-13,1.90418326424E-13},{Residual->2.21060946136E-16}},
  {{-.5,4.26861055645E-13},{-.35,3.51617283796E-13},{-.2,2.8378694814E-13},{-.05,2.24873110483E-13},{.1,1.74454216677E-13},
   {.25,1.32958556523E-13},{.4,9.99602590202E-14}}},
 {"AY",1,{-1.41352106084E-5,1.088267266856E-5,-1.34776941714E-7,2.236542761703E-7},
  {{5.18939322427E-14,-2.7578594304E-14,9.44123757866E-14},{Residual->1.57554918551E-16}},
  {{-.5,8.94784437973E-14},{-.35,7.28646985845E-14},{-.2,6.10752574611E-14},{-.05,5.35229112727E-14},{.1,5.0294243631E-14},
   {.25,5.09570283574E-14},{.4,5.58494639234E-14}}},
 {"EY",1,{-1.43466312573E-5,1.088296053821E-5,-3.64953617197E-8,1.146923050058E-7},
  {{4.94722889225E-14,1.64060944911E-13,1.93083221013E-13},{Residual->7.7876982931E-16}},
  {{-.5,1.67114621008E-14},{-.35,1.42792153816E-14},{-.2,2.39897536819E-14},{-.05,4.20401994367E-14},{.1,6.85682853533E-14},
   {.25,1.02876182978E-13},{.4,1.45440978413E-13}}},
 {"R32",1,{-1.42656189882E-5,1.088167525475E-5,-2.35869836278E-7,7.233526321044E-8},
  {{1.38478898049E-14,-9.0966889555E-14,1.92843015454E-13},{Residual->1.1910267182E-15}},
  {{-.5,1.08171896237E-13},{-.35,6.9198790126E-14},{-.2,3.87228679797E-14},{-.05,1.78205977954E-14},{.1,7.70627250984E-15},
   {.25,5.18234170258E-15},{.4,6.83672613494E-15}}},
 {"AY",1,{-1.42680221518E-5,1.088151474713E-5,-2.35285078931E-7,7.231361630681E-8},
  {{5.14571732383E-15,7.66328798768E-16,5.15500820787E-14},{Residual->9.80177101543E-17}},
  {{-.3,9.67637075662E-15},{-.2,6.87730936124E-15},{-.1,5.51920518516E-15},{5.55111512313E-17,5.23239030372E-15},
   {.1,5.825897142E-15},{.2,7.34585482822E-15},{.3,9.97701667187E-15}}},
 {"EY",1,{-1.42920552405E-5,1.088195986146E-5,-2.26858375586E-7,6.737600634725E-8},
  {{6.58446243637E-15,1.57155625325E-14,2.28319534401E-13},{Residual->9.89446509362E-16}},
  {{-.5,5.51971373149E-14},{-.35,3.0228720344E-14},{-.2,1.30321593139E-14},{-.05,4.49471253299E-15},{.1,1.07011513579E-14},
   {.25,2.58304047111E-14},{.4,4.89434031182E-14}}},
 {"R32",1,{-1.42577157891E-5,1.088234341152E-5,-2.86252705388E-7,6.482081060445E-8},
  {{2.89634493855E-15,-2.0656928046E-14,1.55033388311E-13},{Residual->1.49078988651E-15}},
  {{-.5,5.36565931787E-14},{-.35,2.73368299456E-14},{-.2,1.12610181517E-14},{-.05,5.15679551487E-15},{.1,4.37795315729E-15},
   {.25,7.64442156895E-15},{.4,1.84548468001E-14}}},
 {"AY",1,{-1.42477838588E-5,1.088279746929E-5,-2.87860172853E-7,6.493971767199E-8},
  {{4.10558345966E-15,-2.9619316579E-15,4.93848975704E-14},{Residual->1.20910110541E-16}},
  {{-.3,9.58056719808E-15},{-.2,6.4992777724E-15},{-.1,4.75950622317E-15},{5.55111512313E-17,4.20173748742E-15},
   {.1,4.44592077512E-15},{.2,5.4791042985E-15},{.3,7.60074178265E-15}}},
 {"EY",1,{-1.42601508767E-5,1.088443754476E-5,-2.8403240958E-7,6.355359822441E-8},
  {{5.14690806774E-15,8.5517284996E-15,2.50652304316E-13},{Residual->5.79056335151E-16}},
  {{-.3,2.4950104239E-14},{-.2,1.41501295846E-14},{-.1,6.51425643429E-15},{5.55111512313E-17,4.21716693132E-15},
   {.1,8.97697789973E-15},{.2,1.75744095622E-14},{.3,2.98279570317E-14}}},
 {"R32",1,{-1.42521171572E-5,1.088229551776E-5,-2.96600675402E-7,6.297882771581E-8},
  {{3.57032049329E-15,-3.3365689778E-15,1.16467397657E-13},{Residual->3.4840690266E-16}},
  {{-.3,1.53152615051E-14},{-.2,8.34046657817E-15},{-.1,5.09173374712E-15},{5.55111512313E-17,4.03905984727E-15},
   {.1,4.48669346157E-15},{.2,7.10033415338E-15},{.3,1.32295655042E-14}}},
 {"Y24",1,{-1.41681412347E-5,1.088168126339E-5,-3.02547730996E-7,5.628184990186E-8},
  {{3.81547587302E-15,-2.7463161894E-15,3.81868930141E-15},{Residual->2.43917086326E-16}},
  {{-1.5,1.62067228579E-14},{-1.2,1.27467018557E-14},{-.9,9.49545657586E-15},{-.6,6.97701286619E-15},{-.3,5.23493658496E-15},
   {0,3.96633274046E-15},{.3,3.23538683701E-15},{.6,3.21370821875E-15},{.9,4.08175678286E-15},{1.2,5.92697095434E-15},
   {1.5,8.69027241307E-15}}},
 {"Y46",1,{-1.41681412347E-5,1.088168126339E-5,-3.02547730996E-7,5.628184990186E-8},
  {{3.15573491612E-15,3.14407215627E-16,6.45822228372E-15},{Residual->4.09684066638E-16}},
  {{-1,8.75382602293E-15},{-.8,7.06085366038E-15},{-.6,5.69677919533E-15},{-.4,4.54450788854E-15},{-.2,3.74875390939E-15},
   {0,3.16764662838E-15},{.2,3.20123941595E-15},{.4,3.75710158267E-15},{.6,5.19180982376E-15},{.8,7.46698127172E-15},
   {1,1.05397627266E-14}}},
 {"Y22",1,{-1.41698622069E-5,1.088135576526E-5,-3.03723361923E-7,5.606219864793E-8},
  {{3.18252037041E-15,9.27871290231E-17,1.2524845426E-15},{Residual->1.39618428379E-17}},
  {{-.6,3.58552656838E-15},{-.4,3.33601013128E-15},{-.2,3.2179831506E-15},{1.11022302463E-16,3.16764662839E-15},
   {.2,3.25344200084E-15},{.4,3.44670136325E-15},{.6,3.67311543783E-15}}},
 {"Y26",1,{-1.41698622069E-5,1.088135576559E-5,-3.03723361923E-7,5.60621986483E-8},
  {{3.32958116012E-15,-5.5585769447E-16,1.03706462991E-14},{Residual->1.37826217508E-16}},
  {{-.6,7.36823597119E-15},{-.4,5.35585093838E-15},{-.2,3.76606801901E-15},{1.11022302463E-16,3.14297011728E-15},
   {.2,3.70828596726E-15},{.4,4.98095413538E-15},{.6,6.59982682742E-15}}},
 {"Y66",1,{-1.4192795269E-5,1.087908974088E-5,-3.00650999387E-7,5.560422719847E-8},
  {{3.14766210964E-15,-1.6199872775E-15,1.30073437945E-14},{Residual->1.76073479339E-17}},
  {{-.2,3.99264309721E-15},{-.15,3.68993983633E-15},{-.1,3.45079501995E-15},{-.05,3.23025730931E-15},{0,3.14297011728E-15},
   {.05,3.09183008234E-15},{.1,3.1510396684E-15},{.15,3.20397370492E-15},{.2,3.32661172019E-15}}},
 {"Y44",1,{-1.41963201537E-5,1.087828004091E-5,-3.01308185465E-7,5.5418281179E-8},
  {{3.10014318291E-15,-1.5815758784E-16,3.67359613499E-16},{Residual->1.34283166829E-17}},
  {{-.6,3.31960383693E-15},{-.4,3.22063947459E-15},{-.2,3.1740844278E-15},{1.11022302463E-16,3.09183008234E-15},
   {.2,3.07314650428E-15},{.4,3.08407627309E-15},{.6,3.14906444846E-15}}},
 {"AY",1,{-1.41783651685E-5,1.087947180655E-5,-3.04108186733E-7,5.414370759729E-8},
  {{3.06542969099E-15,-6.2701889041E-15,5.74066532917E-14},{Residual->2.94887715798E-17}},
  {{-.1,4.29005967153E-15},{-.07,3.76872639987E-15},{-.04,3.38045561468E-15},{-.01,3.11991727909E-15},{.02,2.98656993673E-15},
   {.05,2.9439463982E-15},{.08,2.89407808036E-15}}},
 {"EY",1,{-1.41768334488E-5,1.087934661413E-5,-3.04538791508E-7,5.405233663711E-8},
  {{2.99738872382E-15,-1.4966515386E-15,3.32921964493E-13},{Residual->6.06506134496E-17}},
  {{-.1,6.41950510668E-15},{-.07,4.82540476499E-15},{-.04,3.62435999245E-15},{-.01,2.97097461055E-15},{.02,3.0502607352E-15},
   {.05,3.82283322347E-15},{.08,4.99582712147E-15}}},
 {"R32",1,{-1.41778959459E-5,1.087950982771E-5,-3.02643197329E-7,5.395822441985E-8},
  {{2.91709011317E-15,3.13466003701E-16,7.63934636636E-14},{Residual->7.23568313657E-18}},
  {{-.1,3.65516661133E-15},{-.07,3.2564103034E-15},{-.04,3.03681403087E-15},{-.01,2.91582906152E-15},{.02,2.95934062284E-15},
   {.05,3.12245965014E-15},{.08,3.4302586007E-15}}},
 {"Y24",1,{-1.41112822254E-5,1.088454110557E-5,-3.07710519123E-7,5.060693660125E-8},
  {{2.90507118423E-15,-2.1457786048E-15,3.22284838481E-15},{Residual->1.30404648637E-17}},
  {{-.3,3.84532086115E-15},{-.2,3.44505416617E-15},{-.1,3.16115611694E-15},{5.55111512313E-17,2.91148998254E-15},
   {.1,2.73176451412E-15},{.2,2.5820481643E-15},{.3,2.56106203216E-15}}},
 {"Y46",1,{-1.41059086318E-5,1.088461914218E-5,-3.0718368953E-7,5.029548545019E-8},
  {{2.58594346435E-15,-3.5524180219E-16,7.22301676963E-15},{Residual->6.5214830379E-17}},
  {{-.45,4.14092013841E-15},{-.3,3.40070173595E-15},{-.15,2.90007212398E-15},{-5.5511151231E-17,2.56106203216E-15},
   {.15,2.61187557093E-15},{.3,3.09207477071E-15},{.45,3.94539844319E-15}}},
 {"Y22",1,{-1.41008359893E-5,1.088702010965E-5,-3.02497514986E-7,5.013514378141E-8},
  {{2.55971697942E-15,-4.7508477741E-16,1.72049024715E-15},{Residual->2.27205527286E-17}},
  {{-.6,3.45261493802E-15},{-.4,3.04696108825E-15},{-.2,2.73324298839E-15},{1.11022302463E-16,2.52963585672E-15},
   {.2,2.51924970941E-15},{.4,2.68450453982E-15},{.6,2.87875881213E-15}}},
 {"Y26",1,{-1.41008359892E-5,1.088702010963E-5,-3.02497514986E-7,5.013514378083E-8},
  {{2.53623660775E-15,-1.6579546006E-16,1.27938317479E-14},{Residual->3.14612812311E-17}},
  {{-.3,3.74754389565E-15},{-.2,3.09078372894E-15},{-.1,2.64815169434E-15},{5.55111512313E-17,2.51353264192E-15},
   {.1,2.66311945698E-15},{.2,3.07338908352E-15},{.3,3.59940864234E-15}}},
 {"Y66",1,{-1.41220081655E-5,1.088446058024E-5,-2.99298502593E-7,4.966360491027E-8},
  {{2.5176309032E-15,-1.4881569417E-15,1.39796313546E-14},{Residual->1.36444563592E-17}},
  {{-.2,3.35755462326E-15},{-.15,3.0738681837E-15},{-.1,2.82767609442E-15},{-.05,2.60861594115E-15},{0,2.51353264192E-15},
   {.05,2.46647365268E-15},{.1,2.51560677803E-15},{.15,2.61554652697E-15},{.2,2.77674838988E-15}}},
 {"Y44",1,{-1.41220081655E-5,1.088446058029E-5,-2.99298502593E-7,4.966360491027E-8},
  {{2.48020317936E-15,-1.1875791906E-16,4.52348989271E-16},{Residual->1.19305855077E-17}},
  {{-.6,2.70233681671E-15},{-.4,2.61433622589E-15},{-.2,2.53463177776E-15},{1.11022302463E-16,2.46647365268E-15},
   {.2,2.47719665204E-15},{.4,2.49116031429E-15},{.6,2.58191768411E-15}}},
 {"AY",1,{-1.41027445034E-5,1.088598604832E-5,-3.03424445415E-7,4.794396876239E-8},
  {{2.48495916941E-15,-6.9285893724E-15,5.81610330125E-14},{Residual->2.04670090779E-17}},
  {{-.1,3.7761476329E-15},{-.07,3.24050046567E-15},{-.04,2.84232980755E-15},{-.01,2.54175602441E-15},{.02,2.39525303246E-15},
   {.05,2.31089752418E-15},{.08,2.27920170979E-15}}},
 {"EY",1,{-1.41013464861E-5,1.088584696914E-5,-3.03829515493E-7,4.798921369389E-8},
  {{2.3420262037E-15,-1.1575585808E-15,2.94444643491E-13},{Residual->3.44705171574E-17}},
  {{-.1,5.37987543774E-15},{-.07,3.90700390357E-15},{-.04,2.87693056217E-15},{-.01,2.32448189084E-15},{.02,2.43099988799E-15},
   {.05,3.06556575604E-15},{.08,4.11647135462E-15}}},
 {"R32",1,{-1.40965659718E-5,1.088417785335E-5,-3.12170279911E-7,4.791843034626E-8},
  {{2.29643564716E-15,-1.6686707551E-15,8.9530431567E-14},{Residual->8.44067938222E-18}},
  {{-.1,3.36359830296E-15},{-.07,2.84637547426E-15},{-.04,2.50250935595E-15},{-.01,2.31748153564E-15},{.02,2.316980298E-15},
   {.05,2.42796885056E-15},{.08,2.73578084322E-15}}},
 {"Y24",1,{-1.40508738982E-5,1.088965081005E-5,-3.15101777002E-7,4.5926806555E-8},
  {{2.29736469325E-15,-1.3990866224E-15,2.47820293931E-15},{Residual->9.7442348144E-18}},
  {{-.3,2.92975061382E-15},{-.2,2.68592704464E-15},{-.1,2.47467895358E-15},{5.55111512313E-17,2.29617596685E-15},
   {.1,2.16956869433E-15},{.2,2.10927156034E-15},{.3,2.11007684222E-15}}},
 {"Y46",1,{-1.40160358882E-5,1.088713765804E-5,-3.10992235265E-7,4.506434476011E-8},
  {{2.08639827961E-15,-6.9452292673E-16,6.34618056049E-15},{Residual->8.12855027072E-17}},
  {{-.45,3.60525506563E-15},{-.3,2.93422754908E-15},{-.15,2.4207214312E-15},{-5.5511151231E-17,2.10927156034E-15},
   {.15,2.03079516866E-15},{.3,2.35068254104E-15},{.45,3.15192839442E-15}}},
 {"Y22",1,{-1.40160358882E-5,1.0887137658E-5,-3.10992235265E-7,4.50643447601E-8},
  {{2.05393922753E-15,-2.6282018556E-16,1.72755562899E-15},{Residual->1.49430588574E-17}},
  {{-.6,2.8185100537E-15},{-.4,2.4607941969E-15},{-.2,2.18313431864E-15},{1.11022302463E-16,2.03079516866E-15},
   {.2,2.06717634787E-15},{.4,2.23479694756E-15},{.6,2.51722986381E-15}}},
 {"Y26",1,{-1.40160358882E-5,1.088713765803E-5,-3.10992235265E-7,4.50643447601E-8},
  {{2.10595519019E-15,-3.745993385E-16,1.44673178232E-14},{Residual->6.58191043181E-17}},
  {{-.3,3.51979458178E-15},{-.2,2.82087402087E-15},{-.1,2.21313565424E-15},{5.55111512313E-17,2.03079516866E-15},
   {.1,2.28428709764E-15},{.2,2.68984420007E-15},{.3,3.23380459858E-15}}},
 {"Y66",1,{-1.40382101671E-5,1.088287756087E-5,-3.07761639575E-7,4.451753680032E-8},
  {{2.03352093963E-15,-1.9287419039E-15,1.75598118546E-14},{Residual->1.4881246816E-17}},
  {{-.2,3.13300900859E-15},{-.15,2.72069560615E-15},{-.1,2.38491410585E-15},{-.05,2.1605051253E-15},{0,2.03079516866E-15},
   {.05,1.98181108277E-15},{.1,2.04398600897E-15},{.15,2.15132913665E-15},{.2,2.32861499189E-15}}},
 {"Y44",1,{-1.40382101671E-5,1.088287756085E-5,-3.07761639575E-7,4.451753680036E-8},
  {{1.99317653203E-15,-7.7169857909E-18,4.69003005849E-16},{Residual->9.23315992332E-18}},
  {{-.6,2.15744991698E-15},{-.4,2.09022246985E-15},{-.2,2.01009453057E-15},{1.11022302463E-16,1.98181108277E-15},
   {.2,2.01358441972E-15},{.4,2.06698033153E-15},{.6,2.15737633934E-15}}},
 {"AY",1,{-1.40153203263E-5,1.088454776263E-5,-3.13335966604E-7,4.078547355733E-8},
  {{1.98536927181E-15,-9.0732302326E-15,6.433487194E-14},{Residual->2.24937358335E-17}},
  {{-.1,3.55846983794E-15},{-.07,2.91801235668E-15},{-.04,2.41557388703E-15},{-.01,2.0914549439E-15},{.02,1.85764799051E-15},
   {.05,1.70645467872E-15},{.08,1.65137050743E-15}}},
 {"EY",1,{-1.40121224833E-5,1.088527947067E-5,-3.14266990428E-7,4.069627403309E-8},
  {{1.72842491751E-15,-2.4927024019E-15,2.82389777923E-13},{Residual->4.31856834118E-17}},
  {{-.1,4.75266160724E-15},{-.07,3.35057189947E-15},{-.04,2.32465707515E-15},{-.01,1.73987238316E-15},{.02,1.74297081327E-15},
   {.05,2.32707858611E-15},{.08,3.34954647454E-15}}},
 {"R32",1,{-1.40089047688E-5,1.088621507812E-5,-3.19208353566E-7,4.063142821807E-8},
  {{1.63219410265E-15,-1.4017600633E-15,1.26713383916E-13},{Residual->1.23134957653E-17}},
  {{-.1,3.04905167512E-15},{-.07,2.34154985588E-15},{-.04,1.87263562409E-15},{-.01,1.6763432154E-15},{.02,1.6660999252E-15},
   {.05,1.86850767911E-15},{.08,2.3311705916E-15}}},
 {"Y24",1,{-1.39762217431E-5,1.08887239674E-5,-3.21117424932E-7,3.976795491616E-8},
  {{1.64757120936E-15,-9.1329041735E-16,3.06314995191E-15},{Residual->2.67017725823E-18}},
  {{-.3,2.19772907246E-15},{-.2,1.95429360601E-15},{-.1,1.76381548395E-15},{5.55111512313E-17,1.65091295904E-15},
   {.1,1.58845423387E-15},{.2,1.58650277937E-15},{.3,1.64897231739E-15}}},
 {"Y46",1,{-1.39762217431E-5,1.08887239674E-5,-3.21117424932E-7,3.976795491616E-8},
  {{1.55220148718E-15,4.00460566926E-17,6.27803307442E-15},{Residual->8.50792804148E-17}},
  {{-.45,2.73301528225E-15},{-.3,2.15363497942E-15},{-.15,1.78874533034E-15},{-5.5511151231E-17,1.58149023821E-15},
   {.15,1.60659217126E-15},{.3,2.01461733428E-15},{.45,2.94247591141E-15}}},
 {"Y22",1,{-1.39762217431E-5,1.08887239674E-5,-3.21117424932E-7,3.976795491616E-8},
  {{1.59558419262E-15,-7.4072647377E-18,1.43148181049E-15},{Residual->9.28783259324E-18}},
  {{-.6,2.11211443292E-15},{-.4,1.83976107272E-15},{-.2,1.64742889926E-15},{1.11022302463E-16,1.58149023821E-15},
   {.2,1.66196469731E-15},{.4,1.82891994345E-15},{.6,2.10066969224E-15}}},
 {"Y26",1,{-1.39763189619E-5,1.088868381057E-5,-3.20941861846E-7,3.97544638917E-8},
  {{1.62127005385E-15,-5.1595927018E-17,1.11719939822E-14},{Residual->4.88150958412E-17}},
  {{-.3,2.66027895151E-15},{-.2,2.09459147089E-15},{-.1,1.67770431957E-15},{5.55111512313E-17,1.58149023821E-15},
   {.1,1.77785680779E-15},{.2,2.12998199949E-15},{.3,2.55514490449E-15}}},
 {"Y66",1,{-1.39763189619E-5,1.088868381057E-5,-3.20941861846E-7,3.97544638917E-8},
  {{1.58190724274E-15,1.21730075635E-17,1.40608554739E-14},{Residual->1.70812133647E-17}},
  {{-.2,2.16398137381E-15},{-.15,1.88272905006E-15},{-.1,1.70290547096E-15},{-.05,1.60087808968E-15},{0,1.58041739932E-15},
   {.05,1.65100515001E-15},{.1,1.73434750656E-15},{.15,1.8924973248E-15},{.2,2.13753214055E-15}}},
 {"Y44",1,{-1.39802171189E-5,1.088856116889E-5,-3.21440767999E-7,3.948014816949E-8},
  {{1.58038844915E-15,-1.5550172762E-16,3.28368307447E-16},{Residual->4.71163890846E-18}},
  {{-.6,1.79144132626E-15},{-.4,1.69060324735E-15},{-.2,1.63392575339E-15},{1.11022302463E-16,1.58041739931E-15},
   {.2,1.55868209949E-15},{.4,1.56630101508E-15},{.6,1.60912080752E-15}}},
 {"OCT1",1,{-1.39802171189E-5,1.088856116889E-5,-3.21440767999E-7,3.948014816949E-8},
  {{1.5741986481E-15,-1.4027208117E-19,4.71668705559E-21},{Residual->4.04041923446E-17}},
  {{-370,2.30985500308E-15},{-296,2.04488448334E-15},{-222,1.80039132989E-15},{-148,1.65982646003E-15},{-74,1.57119843046E-15},
   {0,1.55868209949E-15},{74,1.60845481208E-15},{148,1.70418452183E-15},{222,1.83448031092E-15},{296,1.96826491264E-15},
   {370,2.09713982193E-15}}},
 {"OCT2",1,{-1.39668621556E-5,1.088332056331E-5,-3.20727839157E-7,3.906166401117E-8},
  {{1.56238460793E-15,1.12410356892E-19,5.9778079403E-23},{Residual->3.04610038319E-18}},
  {{-370,1.52581359532E-15},{-296,1.53590250415E-15},{-222,1.54078680108E-15},{-148,1.54952499143E-15},{-74,1.55810053309E-15},
   {0,1.55868209949E-15},{74,1.5738948801E-15},{148,1.57792507714E-15},{222,1.58541530915E-15},{296,1.59991179884E-15},
   {370,1.61631421215E-15}}},
 {"OCT1",1,{-1.39668621556E-5,1.088332056331E-5,-3.20727839157E-7,3.906166401117E-8},
  {{1.65098464556E-15,-9.0547629436E-19,3.65083569871E-21},{Residual->1.24429390369E-16}},
  {{-740,4.37106803212E-15},{-592,3.51384834539E-15},{-444,2.80578126386E-15},{-296,2.13414705723E-15},{-148,1.70000641419E-15},
   {0,1.52581359532E-15},{148,1.64525274505E-15},{296,1.88106844314E-15},{444,2.15943103013E-15},{592,2.43673367408E-15},
   {740,2.78452127479E-15}}},
 {"OCT2",1,{-1.39641146802E-5,1.088269523075E-5,-3.20546356106E-7,3.894930302241E-8},
  {{1.55637446524E-15,9.73263276197E-20,1.24406653096E-22},{Residual->8.77467189285E-18}},
  {{-740,1.56686430831E-15},{-592,1.53817099713E-15},{-444,1.51704820593E-15},{-296,1.53590250415E-15},{-148,1.54952499143E-15},
   {0,1.55868209949E-15},{148,1.57792507714E-15},{296,1.59991179884E-15},{444,1.63222185897E-15},{592,1.65029938149E-15},
   {740,1.69366819706E-15}}}}
