FD	 1.066434E-5	 3.702253E-7	
EX2	 1.070292E-5	 4.118208E-7	
FD	 1.070820E-5	 4.054784E-7	
AY	 1.070821E-5	 4.058413E-7	
EY	 1.065944E-5	 3.965105E-7	
R32	 1.052344E-5	 3.001808E-7	
AY	 1.052345E-5	 3.001279E-7	
EY	 1.057436E-5	 2.240421E-7	
R32	 1.051816E-5	 1.767135E-7	
AY	 1.051817E-5	 1.766445E-7	
EY	 1.053403E-5	 1.232210E-7	
R32	 1.051546E-5	 1.102518E-7	
AY	 1.051546E-5	 1.101913E-7	
EY	 1.052367E-5	 7.600464E-8	
R32	 1.051545E-5	 7.539910E-8	
Y24	 1.050994E-5	 6.850178E-8	
Y46	 1.051051E-5	 6.848846E-8	
Y22	 1.053211E-5	 5.988118E-8	
Y26	 1.053211E-5	 5.988118E-8	
Y66	 1.053211E-5	 5.988118E-8	
Y44	 1.053924E-5	 5.240913E-8	
AY	 1.053894E-5	 4.865635E-8	
EY	 1.053900E-5	 4.408868E-8	
R32	 1.053871E-5	 4.386711E-8	
Y24	 1.053498E-5	 4.041567E-8	
Y46	 1.052890E-5	 3.672336E-8	
Y22	 1.052890E-5	 3.672336E-8	
Y26	 1.052890E-5	 3.672336E-8	
Y66	 1.052890E-5	 3.672336E-8	
Y44	 1.052890E-5	 3.672336E-8	
AY	 1.052889E-5	 3.577054E-8	
EY	 1.052859E-5	 3.518328E-8	
R32	 1.052777E-5	 3.456674E-8	
Y24	 1.052509E-5	 3.347464E-8	
Y46	 1.052509E-5	 3.347464E-8	
Y22	 1.052509E-5	 3.347464E-8	
Y26	 1.052509E-5	 3.347464E-8	
Y66	 1.052509E-5	 3.347464E-8	
Y44	 1.052536E-5	 3.338520E-8	
AY	 1.052524E-5	 3.289221E-8	
EY	 1.052595E-5	 3.130965E-8	
R32	 1.052467E-5	 3.110632E-8	
Y24	 1.052449E-5	 3.109745E-8	
Y46	 1.052657E-5	 3.101835E-8	
Y22	 1.052625E-5	 3.092886E-8	
Y26	 1.052625E-5	 3.092887E-8	
Y66	 1.052625E-5	 3.092887E-8	
Y44	 1.052686E-5	 3.037508E-8	
