FD	 1.204892E-5	 1.207443E-6	
EX2	 2.811058E-5	 3.247860E-6	
FD	 1.066927E-5	 1.210726E-6	
AY	 1.150267E-5	 1.925313E-6	
EY	 1.253879E-5	 5.417180E-7	
R32	 1.149701E-5	 1.472151E-7	
AY	 1.151033E-5	 1.403222E-7	
EY	 1.156349E-5	 4.622701E-8	
R32	 1.154304E-5	 3.893000E-8	
AY	 1.154262E-5	 4.075291E-8	
EY	 1.155263E-5	 3.956496E-8	
R32	 1.155905E-5	 4.154222E-8	
AY	 1.157019E-5	 4.504037E-8	
EY	 1.156582E-5	 4.465946E-8	
R32	 1.154358E-5	 4.205432E-8	
Y24	 1.154358E-5	 4.205432E-8	
Y46	 1.154358E-5	 4.205432E-8	
Y22	 1.154358E-5	 4.205432E-8	
Y26	 1.154358E-5	 4.205432E-8	
Y66	 1.154358E-5	 4.205432E-8	
Y44	 1.154358E-5	 4.205432E-8	
AY	 1.154667E-5	 4.292311E-8	
EY	 1.153881E-5	 4.340297E-8	
R32	 1.154605E-5	 4.234541E-8	
Y24	 1.153613E-5	 4.225240E-8	
Y46	 1.153613E-5	 4.225240E-8	
Y22	 1.153613E-5	 4.225240E-8	
Y26	 1.153613E-5	 4.225240E-8	
Y66	 1.153613E-5	 4.225240E-8	
Y44	 1.153613E-5	 4.225240E-8	
AY	 1.152649E-5	 4.438529E-8	
EY	 1.152877E-5	 4.251766E-8	
R32	 1.154176E-5	 3.785487E-8	
Y24	 1.155045E-5	 3.739237E-8	
Y46	 1.155045E-5	 3.739237E-8	
Y22	 1.155045E-5	 3.739237E-8	
Y26	 1.155045E-5	 3.739237E-8	
Y66	 1.155045E-5	 3.739237E-8	
Y44	 1.155045E-5	 3.739237E-8	
AY	 1.155256E-5	 3.778660E-8	
EY	 1.154681E-5	 3.770041E-8	
R32	 1.155333E-5	 3.862360E-8	
Y24	 1.154797E-5	 3.793746E-8	
Y46	 1.154797E-5	 3.793746E-8	
Y22	 1.154797E-5	 3.793746E-8	
Y26	 1.154797E-5	 3.793746E-8	
Y66	 1.154797E-5	 3.793746E-8	
Y44	 1.154797E-5	 3.793746E-8	
