FD	 6.966774E-6	 2.200222E-7	
EX2	 6.915673E-6	 2.350376E-7	
FD	 6.915280E-6	 2.191592E-7	
AY	 6.848170E-6	 1.737210E-7	
EY	 6.847836E-6	 1.728004E-7	
R32	 6.858223E-6	 4.313446E-8	
AY	 6.860023E-6	 4.312433E-8	
EY	 6.859394E-6	 4.524134E-8	
R32	 6.859129E-6	 4.215074E-8	
AY	 6.864897E-6	 4.382008E-8	
EY	 6.864868E-6	 4.405154E-8	
R32	 6.863278E-6	 4.177387E-8	
AY	 6.874052E-6	 4.057612E-8	
EY	 6.873600E-6	 4.389051E-8	
R32	 6.877914E-6	 4.077777E-8	
Y24	 6.871282E-6	 4.065065E-8	
Y46	 6.911949E-6	 4.027681E-8	
Y22	 6.911949E-6	 4.027681E-8	
Y26	 6.911949E-6	 4.027681E-8	
Y66	 6.911949E-6	 4.027681E-8	
Y44	 6.911949E-6	 4.027681E-8	
AY	 6.919215E-6	 4.003559E-8	
EY	 6.921765E-6	 4.876553E-8	
R32	 6.916420E-6	 4.378420E-8	
Y24	 6.929915E-6	 4.351640E-8	
Y46	 6.893773E-6	 4.343506E-8	
Y22	 6.893773E-6	 4.343506E-8	
Y26	 6.893911E-6	 4.232167E-8	
Y66	 6.893911E-6	 4.232167E-8	
Y44	 6.893911E-6	 4.232167E-8	
AY	 6.905281E-6	 4.240251E-8	
EY	 6.904117E-6	 4.669695E-8	
R32	 6.906336E-6	 3.887121E-8	
Y24	 6.898479E-6	 3.872121E-8	
Y46	 6.929170E-6	 3.828832E-8	
Y22	 6.929170E-6	 3.828832E-8	
Y26	 6.929170E-6	 3.828832E-8	
Y66	 6.928153E-6	 3.674539E-8	
Y44	 6.928153E-6	 3.674539E-8	
AY	 6.939699E-6	 3.750181E-8	
EY	 6.937305E-6	 4.951126E-8	
R32	 6.940054E-6	 3.805021E-8	
Y24	 6.934799E-6	 3.798805E-8	
Y46	 6.910412E-6	 3.765099E-8	
Y22	 6.910412E-6	 3.765099E-8	
Y26	 6.910412E-6	 3.765099E-8	
Y66	 6.910412E-6	 3.765099E-8	
Y44	 6.910412E-6	 3.765099E-8	
