{{"FD",1,{4.710648148742E-6,1.313086994872E-5,-3.13202658628E-6,5.162598856989E-7}},
 {"EX2",1,{-2.06470560982E-5,1.176957217167E-5,-2.43751645279E-6,9.552897322005E-7}},
 {"FD",1,{-2.01841976192E-5,1.173876166154E-5,-2.6910997676E-6,5.104483526815E-7}},
 {"AY",1,{-1.96911843363E-5,1.114161626914E-5,-3.08089994677E-6,4.121684681093E-7},
  {{1.99083822237E-13,5.6523333145E-14,4.85230426471E-12},{Residual->6.16778448439E-14}},
  {{-.5,1.30938825975E-12},{-.35,8.72015095573E-13},{-.2,4.23702674944E-13},{-.05,1.79013878039E-13},{.1,2.24972476651E-13},
   {.25,4.49379269803E-13},{.4,1.0571989457E-12}}},
 {"EY",1,{-1.92480718817E-5,1.083202772114E-5,-3.32459996683E-6,1.346741161397E-7},
  {{1.65528375478E-13,5.72720455696E-13,5.6996325292E-13},{Residual->5.21009076686E-15}},
  {{-.5,1.72232862831E-14},{-.35,3.78193677415E-14},{-.2,8.00694517515E-14},{-.05,1.40160111466E-13},{.1,2.22560263786E-13},
   {.25,3.37536452271E-13},{.4,4.91928741816E-13}}},
 {"R32",1,{-1.88493752359E-5,1.056604801493E-5,-3.34679376312E-6,5.947178544118E-8},
  {{1.98963241821E-14,-1.1653056201E-13,2.59270253929E-13},{Residual->1.30892260044E-15}},
  {{-.5,1.42002018274E-13},{-.35,9.29891573136E-14},{-.2,5.49561940503E-14},{-.05,2.74025771586E-14},{.1,8.63559164393E-15},
   {.25,5.87264610215E-15},{.4,1.60792708544E-14}}},
 {"AY",1,{-1.90201506748E-5,1.056185251078E-5,-3.35936151744E-6,5.039253308452E-8},
  {{-6.9537772243E-15,4.09484957315E-14,5.43457016315E-12},{Residual->1.68120534137E-14}},
  {{-.5,1.31450760498E-12},{-.35,6.78223770296E-13},{-.2,1.8683557755E-13},{-.05,5.50224859108E-15},{.1,5.40151144402E-14},
   {.25,3.28119319948E-13},{.4,8.88672130761E-13}}},
 {"EY",1,{-1.89887452933E-5,1.055819458546E-5,-3.4076410793E-6,5.130144804597E-8},
  {{3.75902764389E-15,1.79093310118E-14,5.14902907912E-13},{Residual->2.23734938669E-15}},
  {{-.5,1.25784695984E-13},{-.35,5.63439083828E-14},{-.2,2.26575219036E-14},{-.05,2.61472240392E-15},{.1,1.24073060738E-14},
   {.25,4.16571278616E-14},{.4,9.19792779166E-14}}},
 {"R32",1,{-1.91086908526E-5,1.059215130291E-5,-3.36011419207E-6,5.549775057466E-8},
  {{3.45204237973E-15,7.54589496226E-15,3.25104422811E-13},{Residual->2.28459770771E-15}},
  {{-.5,7.88168682608E-14},{-.35,4.22355937815E-14},{-.2,1.8359696634E-14},{-.05,3.67861962814E-15},{.1,3.69016194484E-15},
   {.25,2.50019925306E-14},{.4,6.02454144115E-14}}},
 {"AY",1,{-1.94450291662E-5,1.057045982702E-5,-3.33192525001E-6,8.176639097409E-8},
  {{1.01123667618E-14,-1.1229182476E-14,5.59816432039E-12},{Residual->2.45957263596E-14}},
  {{-.3,4.93214332902E-13},{-.2,2.87801552007E-13},{-.1,4.80109806867E-14},{5.55111512313E-17,2.5233899183E-15},
   {.1,4.93296096452E-14},{.2,2.49692372826E-13},{.3,5.07700339058E-13}}},
 {"EY",1,{-1.94413135222E-5,1.056954639545E-5,-3.35950181053E-6,7.331969339825E-8},
  {{6.48696073409E-15,4.71702631074E-14,5.34466700999E-13},{Residual->1.82295356832E-15}},
  {{-.5,1.16250502183E-13},{-.35,5.51499581831E-14},{-.2,1.9412674962E-14},{-.05,5.19613567483E-15},{.1,1.8483344241E-14},
   {.25,4.7801275848E-14},{.4,1.12672430857E-13}}},
 {"R32",1,{-1.93631254628E-5,1.050914994495E-5,-3.34426307029E-6,6.606939573353E-8},
  {{9.53155808231E-15,-2.2979863478E-14,2.77301524488E-13},{Residual->4.98699300233E-15}},
  {{-.5,8.60194142803E-14},{-.35,5.41710384498E-14},{-.2,3.45857403753E-14},{-.05,7.36238195055E-15},{.1,4.48490055839E-15},
   {.25,1.9560268188E-14},{.4,4.81328520966E-14}}},
 {"AY",1,{-1.93623532671E-5,1.049755369393E-5,-3.36542922554E-6,5.286790346728E-8},
  {{-8.1086763217E-16,-1.6048201937E-13,4.94038151164E-12},{Residual->2.01215386292E-14}},
  {{-.3,4.95899734306E-13},{-.2,2.3205601004E-13},{-.1,4.54011332618E-14},{5.55111512313E-17,1.54186238715E-14},
   {.1,8.76933349752E-15},{.2,2.01164376056E-13},{.3,3.78921538803E-13}}},
 {"EY",1,{-1.93673385706E-5,1.050012156943E-5,-3.35665740639E-6,5.309743425194E-8},
  {{4.44963192336E-15,-1.5823891786E-14,4.74329641604E-13},{Residual->1.60346424754E-15}},
  {{-.3,5.10994156565E-14},{-.2,2.9373280632E-14},{-.1,8.35184958565E-15},{5.55111512313E-17,3.77740852696E-15},
   {.1,8.11694327568E-15},{.2,2.17496587645E-14},{.3,4.14911666712E-14}}},
 {"R32",1,{-1.93405584486E-5,1.050783709832E-5,-3.38566894305E-6,5.188182890439E-8},
  {{2.60536505146E-15,1.89149802501E-14,3.75893765423E-13},{Residual->1.15265128678E-15}},
  {{-.3,2.95739004469E-14},{-.2,1.57512668243E-14},{-.1,4.63072487829E-15},{5.55111512313E-17,2.52954809494E-15},
   {.1,6.41539961887E-15},{.2,2.23594044969E-14},{.3,4.22275653183E-14}}},
 {"Y24",1,{-1.94561659341E-5,1.053341752E-5,-3.3932955667E-6,4.820198829566E-8},
  {{2.73063883702E-15,2.22873405888E-15,3.0065720639E-15},{Residual->8.19944292767E-17}},
  {{-1.5,5.9874190259E-15},{-1.2,4.48369338085E-15},{-.9,3.30070405866E-15},{-.6,2.52152110904E-15},{-.3,2.32343167566E-15},
   {0,2.69172417046E-15},{.3,3.62691194988E-15},{.6,5.07864843325E-15},{.9,7.16349059407E-15},{1.2,9.70873314325E-15},
   {1.5,1.29158130988E-14}}},
 {"Y46",1,{-1.94181144429E-5,1.056130949679E-5,-3.39924484407E-6,4.724797265907E-8},
  {{2.57159122948E-15,2.2958670241E-15,4.65415566949E-15},{Residual->1.69041199129E-16}},
  {{-1,4.65954531846E-15},{-.8,3.82257516989E-15},{-.6,3.16613777782E-15},{-.4,2.60256267216E-15},{-.2,2.23237092039E-15},
   {0,2.32343167566E-15},{.2,3.06002742058E-15},{.4,4.23808492961E-15},{.6,5.66908373729E-15},{.8,7.47028133241E-15},
   {1,9.52168751581E-15}}},
 {"Y22",1,{-1.9386516461E-5,1.053272145033E-5,-3.40137538576E-6,4.541168748571E-8},
  {{2.70150448664E-15,3.37947972204E-15,3.54466625334E-14},{Residual->3.24002720498E-16}},
  {{-.6,1.36041413887E-14},{-.4,6.92600093939E-15},{-.2,3.33703270584E-15},{1.11022302463E-16,2.23237092039E-15},
   {.2,5.25020494699E-15},{.4,1.01067873808E-14},{.6,1.71542551618E-14}}},
 {"Y26",1,{-1.9386516461E-5,1.053272145033E-5,-3.40137538576E-6,4.54116874862E-8},
  {{7.68297653117E-15,3.6224142634E-14,3.05405105219E-13},{Residual->3.21499891208E-15}},
  {{-.6,9.35100566445E-14},{-.4,4.57912161998E-14},{-.2,1.53496265778E-14},{1.11022302463E-16,2.06222136034E-15},
   {.2,2.62679124956E-14},{.4,7.45110456904E-14},{.6,1.38342474595E-13}}},
 {"Y66",1,{-1.9386516461E-5,1.053272145033E-5,-3.40137538576E-6,4.54116874862E-8},
  {{6.20329022521E-15,-1.1358052519E-13,4.21077952843E-12},{Residual->3.39869844608E-15}},
  {{-.2,1.97246076106E-13},{-.15,1.20917812565E-13},{-.1,5.98107856105E-14},{-.05,1.7457385829E-14},{0,2.06222136034E-15},
   {.05,1.39261607989E-14},{.1,4.18617037846E-14},{.15,8.62320257061E-14},{.2,1.4793236953E-13}}},
 {"Y44",1,{-1.94047913413E-5,1.053923803058E-5,-3.39654103203E-6,4.500841662874E-8},
  {{2.31145948498E-15,1.44500589589E-15,4.63842650397E-14},{Residual->3.82463258386E-16}},
  {{-.6,1.84401424861E-14},{-.4,8.96915238681E-15},{-.2,3.49370957995E-15},{1.11022302463E-16,2.06222136034E-15},
   {.2,4.90586620023E-15},{.4,1.08398950489E-14},{.6,1.94196061769E-14}}},
 {"AY",1,{-1.98182054486E-5,1.05359059049E-5,-3.40253732524E-6,4.482909391377E-8},
  {{6.71335488349E-16,5.41520806885E-14,2.82448230611E-12},{Residual->2.54396251262E-15}},
  {{-.1,2.207118007E-14},{-.07,1.16710819945E-14},{-.04,4.22213281695E-15},{-.01,2.17113560911E-15},{.02,2.36356635054E-15},
   {.05,5.24037727123E-15},{.08,2.63233203862E-14}}},
 {"EY",1,{-1.97487526769E-5,1.050977914668E-5,-3.45608359256E-6,4.701228243734E-8},
  {{2.27749628048E-15,-1.3993363895E-15,5.51291793196E-13},{Residual->4.22001428579E-16}},
  {{-.1,7.46101727759E-15},{-.07,5.58913029359E-15},{-.04,3.5863157002E-15},{-.01,2.41983105523E-15},{.02,1.94216682029E-15},
   {.05,3.19295481548E-15},{.08,6.12746899202E-15}}},
 {"R32",1,{-1.98594620513E-5,1.054856451887E-5,-3.45798386229E-6,4.854082970197E-8},
  {{2.40123675986E-15,1.46442895492E-14,2.91473712845E-13},{Residual->5.36793483477E-16}},
  {{-.1,4.25275939627E-15},{-.07,2.05348694111E-15},{-.04,2.09917506338E-15},{-.01,3.30230944302E-15},{.02,2.34198623362E-15},
   {.05,3.82214166132E-15},{.08,5.46086747456E-15}}},
 {"Y24",1,{-1.97356107206E-5,1.052307525612E-5,-3.44752302037E-6,4.652924197712E-8},
  {{2.34696130156E-15,-1.2225966522E-15,1.94983047473E-15},{Residual->1.15722267541E-17}},
  {{-.3,2.87972325616E-15},{-.2,2.67681614562E-15},{-.1,2.49909351667E-15},{5.55111512313E-17,2.35621214816E-15},
   {.1,2.2233057407E-15},{.2,2.17327330001E-15},{.3,2.16625753654E-15}}},
 {"Y46",1,{-1.97356107206E-5,1.052307525612E-5,-3.44752302037E-6,4.652924197712E-8},
  {{2.23907318953E-15,7.06157569225E-16,6.66404246792E-15},{Residual->8.70083456499E-17}},
  {{-.45,3.16616494763E-15},{-.3,2.76093683216E-15},{-.15,2.37369800182E-15},{-5.5511151231E-17,2.16497035897E-15},
   {.15,2.40321943886E-15},{.3,3.05189964521E-15},{.45,3.95096985683E-15}}},
 {"Y22",1,{-1.97356107206E-5,1.052307525612E-5,-3.44752302037E-6,4.652924197719E-8},
  {{2.63660461195E-15,-3.5911502088E-15,4.06774516005E-14},{Residual->5.34993918204E-16}},
  {{-.6,1.98043939829E-14},{-.4,1.03920535934E-14},{-.2,4.49503811103E-15},{1.11022302463E-16,2.16497035897E-15},
   {.2,4.23752657268E-15},{.4,8.41862686716E-15},{.6,1.45023685901E-14}}},
 {"Y26",1,{-1.97356107201E-5,1.052307525599E-5,-3.44752302037E-6,4.652924197712E-8},
  {{4.43406088E-15,5.19090454775E-14,4.13738966838E-13},{Residual->1.96799714749E-15}},
  {{-.3,2.41567367413E-14},{-.2,1.31864351785E-14},{-.1,5.4170135336E-15},{5.55111512313E-17,2.16497035897E-15},
   {.1,1.16213369199E-14},{.2,3.30324478955E-14},{.3,5.73063962468E-14}}},
 {"Y66",1,{-1.97356107201E-5,1.052307525599E-5,-3.44752302037E-6,4.652924197712E-8},
  {{8.58637533424E-15,-1.7935730769E-13,4.17380124837E-12},{Residual->4.31155117673E-15}},
  {{-.2,2.09286608325E-13},{-.15,1.3457133016E-13},{-.1,7.02287866592E-14},{-.05,2.27548070709E-14},{0,2.16497035897E-15},
   {.05,1.21369437936E-14},{.1,3.83389965266E-14},{.15,7.82745452129E-14},{.2,1.35590577156E-13}}},
 {"Y44",1,{-1.97356107206E-5,1.052307525612E-5,-3.44752302037E-6,4.652924197713E-8},
  {{2.62180412226E-15,-5.5788700816E-15,5.15118717341E-14},{Residual->7.7365174635E-16}},
  {{-.6,2.49836340608E-14},{-.4,1.30508344673E-14},{-.2,4.76843996594E-15},{1.11022302463E-16,2.16497035897E-15},
   {.2,4.50534518868E-15},{.4,9.64411003179E-15},{.6,1.69285911245E-14}}},
 {"AY",1,{-1.93318514292E-5,1.052950237631E-5,-3.43091135451E-6,5.290581743957E-8},
  {{3.62966303992E-15,-1.2040296211E-13,5.42524950655E-12},{Residual->1.03640660314E-14}},
  {{-.1,5.99302577082E-14},{-.07,6.12336716116E-14},{-.04,5.49357369623E-15},{-.01,3.72411415045E-15},{.02,2.10581891876E-15},
   {.05,1.22239330413E-14},{.08,2.96384417202E-14}}},
 {"EY",1,{-1.92907347861E-5,1.052098270484E-5,-3.41266218502E-6,5.236339255977E-8},
  {{4.02535728965E-15,-2.5566777254E-15,3.97926646916E-13},{Residual->4.77009602683E-16}},
  {{-.1,8.0053719751E-15},{-.07,6.68669164644E-15},{-.04,4.93402789238E-15},{-.01,3.1276267254E-15},{.02,4.50286914313E-15},
   {.05,5.23066271309E-15},{.08,6.1755185279E-15}}},
 {"R32",1,{-1.92892425933E-5,1.051102000258E-5,-3.4044802101E-6,5.318016085542E-8},
  {{2.76157812709E-15,-2.9748821154E-15,3.64674573599E-13},{Residual->2.73843707899E-16}},
  {{-.1,6.89898644714E-15},{-.07,4.35852075121E-15},{-.04,3.51585229033E-15},{-.01,2.98812273239E-15},{.02,3.14059772665E-15},
   {.05,3.08301884441E-15},{.08,4.99926130177E-15}}},
 {"Y24",1,{-1.9404289245E-5,1.054047309204E-5,-3.41515153665E-6,5.064490686899E-8},
  {{2.84185150261E-15,2.65693103759E-15,6.06029780591E-15},{Residual->2.11458861798E-17}},
  {{-.3,2.56490659177E-15},{-.2,2.58213406858E-15},{-.1,2.66138270781E-15},{5.55111512313E-17,2.82812950861E-15},
   {.1,3.14840299991E-15},{.2,3.60328955608E-15},{.3,4.20159847114E-15}}},
 {"Y46",1,{-1.9404289245E-5,1.054047309204E-5,-3.41515153665E-6,5.064490686899E-8},
  {{2.59172723336E-15,6.62573328709E-16,6.80909027538E-15},{Residual->7.95542931907E-17}},
  {{-.45,3.57855207513E-15},{-.3,3.11293503934E-15},{-.15,2.72716473082E-15},{-5.5511151231E-17,2.56490659177E-15},
   {.15,2.77131821343E-15},{.3,3.33064176762E-15},{.45,4.34629908893E-15}}},
 {"Y22",1,{-1.9404289245E-5,1.054047309203E-5,-3.41515153665E-6,5.064490686949E-8},
  {{3.10122498339E-15,-4.9439891172E-15,4.18793004768E-14},{Residual->5.89369047963E-16}},
  {{-.6,2.150325274E-14},{-.4,1.16723501907E-14},{-.2,5.19087364439E-15},{1.11022302463E-16,2.56490659182E-15},
   {.2,4.52777488075E-15},{.4,8.63148180107E-15},{.6,1.45227515689E-14}}},
 {"Y26",1,{-1.9404289245E-5,1.054047309203E-5,-3.41515153665E-6,5.064490686956E-8},
  {{4.76574718416E-15,5.75794163003E-14,4.44205375289E-13},{Residual->1.86890741894E-15}},
  {{-.3,2.55525775369E-14},{-.2,1.35248071527E-14},{-.1,5.49020422117E-15},{5.55111512313E-17,2.56490659183E-15},
   {.1,1.30263406872E-14},{.2,3.53431214501E-14},{.3,6.22357777302E-14}}},
 {"Y66",1,{-1.9404289245E-5,1.054047309203E-5,-3.41515153665E-6,5.064490686956E-8},
  {{8.83866988558E-15,-2.0332672894E-13,4.38165299682E-12},{Residual->4.62060339161E-15}},
  {{-.2,2.2360181263E-13},{-.15,1.43192338311E-13},{-.1,7.29720770985E-14},{-.05,2.44927926169E-14},{0,2.56490659183E-15},
   {.05,1.23028680838E-14},{.1,3.89325390209E-14},{.15,8.0673497257E-14},{.2,1.38063146884E-13}}},
 {"Y44",1,{-1.9404289245E-5,1.054047309203E-5,-3.41515153665E-6,5.064490686954E-8},
  {{2.97225781875E-15,-6.2417585622E-15,5.34106724769E-14},{Residual->5.46006304023E-16}},
  {{-.6,2.62426463229E-14},{-.4,1.40244819768E-14},{-.2,5.6938040935E-15},{1.11022302463E-16,2.56490659182E-15},
   {.2,4.50128021172E-15},{.4,9.78033727052E-15},{.6,1.78183014382E-14}}},
 {"AY",1,{-1.97049141548E-5,1.055440347297E-5,-3.39980310745E-6,6.570634938279E-8},
  {{1.21265387722E-15,4.60133185363E-14,6.73276017966E-12},{Residual->9.12571345865E-15}},
  {{-.1,5.40745419162E-14},{-.07,4.79674323667E-14},{-.04,5.82450181247E-15},{-.01,3.41611570557E-15},{.02,2.88915048998E-15},
   {.05,9.78851525905E-15},{.08,5.56858759462E-14}}},
 {"EY",1,{-1.96635603506E-5,1.05396733433E-5,-3.43972021182E-6,6.474055615488E-8},
  {{4.5885894761E-15,-1.1187524655E-14,5.72241141603E-13},{Residual->7.1350731326E-16}},
  {{-.1,1.2059963306E-14},{-.07,7.72690503608E-15},{-.04,5.02049305006E-15},{-.01,4.79389159586E-15},{.02,5.10700496651E-15},
   {.05,6.51210582988E-15},{.08,6.50393484168E-15}}},
 {"R32",1,{-1.97014012919E-5,1.0546748368E-5,-3.43123880413E-6,6.682075675384E-8},
  {{4.65067178891E-15,2.03123776629E-15,2.8753478783E-13},{Residual->9.89380874285E-16}},
  {{-.1,6.1822821747E-15},{-.07,7.32034309262E-15},{-.04,5.78148616983E-15},{-.01,4.34452913697E-15},{.02,4.31784320067E-15},
   {.05,4.21271835956E-15},{.08,7.70046474917E-15}}},
 {"Y24",1,{-1.98077396368E-5,1.056484766578E-5,-3.44409621431E-6,6.561108259859E-8},
  {{4.47825850673E-15,1.46608642321E-15,3.40009057191E-15},{Residual->5.65250955577E-17}},
  {{-.3,4.30481415976E-15},{-.2,4.35015955579E-15},{-.1,4.42123699782E-15},{5.55111512313E-17,4.46501353316E-15},
   {.1,4.66833707325E-15},{.2,4.79811726198E-15},{.3,5.29215632549E-15}}},
 {"Y46",1,{-1.98077396368E-5,1.056484766578E-5,-3.44409621431E-6,6.561108259859E-8},
  {{4.31867301693E-15,-2.0801213425E-16,5.78223346161E-15},{Residual->8.9482135959E-17}},
  {{-.45,5.48966318949E-15},{-.3,4.98703947117E-15},{-.15,4.59298526746E-15},{-5.5511151231E-17,4.30481415976E-15},
   {.15,4.32823238951E-15},{.3,4.67818074097E-15},{.45,5.49260298099E-15}}},
 {"Y22",1,{-1.98077396368E-5,1.056484766578E-5,-3.44409621431E-6,6.561108259859E-8},
  {{4.77017314809E-15,-9.6939631702E-15,4.63299621812E-14},{Residual->6.22302014057E-16}},
  {{-.6,2.76510582827E-14},{-.4,1.59645040355E-14},{-.2,7.87083126525E-15},{1.11022302463E-16,4.30481415976E-15},
   {.2,5.40332457988E-15},{.4,9.19521621856E-15},{.6,1.4891021138E-14}}},
 {"Y26",1,{-1.97720176538E-5,1.053909126225E-5,-3.5206564478E-6,6.536232269407E-8},
  {{6.67581991621E-15,8.23882984752E-14,4.93451756477E-13},{Residual->1.75863735201E-15}},
  {{-.3,2.46717521627E-14},{-.2,1.23606139483E-14},{-.1,5.00542907175E-15},{5.55111512313E-17,4.30481415976E-15},
   {.1,1.83883656953E-14},{.2,4.44579850757E-14},{.3,7.57082711134E-14}}},
 {"Y66",1,{-1.97720176538E-5,1.053909126225E-5,-3.5206564478E-6,6.536232269407E-8},
  {{6.81948690928E-15,-6.214323703E-14,4.50816699743E-12},{Residual->6.05180125184E-15}},
  {{-.2,2.03923797595E-13},{-.15,1.18300894561E-13},{-.1,5.4738842973E-14},{-.05,1.14967585006E-14},{0,4.27223322796E-15},
   {.05,2.07066454245E-14},{.1,5.44302959296E-14},{.15,1.03348484211E-13},{.2,1.66382479375E-13}}},
 {"Y44",1,{-1.99191748972E-5,1.058615412645E-5,-3.47672499787E-6,5.990104115993E-8},
  {{4.67379641566E-15,1.27346379023E-14,4.42343529155E-14},{Residual->4.04979277499E-16}},
  {{-.6,1.32938389396E-14},{-.4,6.26328737558E-15},{-.2,3.85221113367E-15},{1.11022302463E-16,4.27223322796E-15},
   {.2,9.35360880436E-15},{.4,1.7450945929E-14},{.6,2.77729247648E-14}}}}
