{{"FD",1,{-1.83834860412E-5,1.240803453198E-5,2.263134851037E-6,2.637533313081E-6}},
 {"EX2",1,{-1.50222890959E-5,1.207994913042E-5,3.13840122114E-6,2.636896886117E-6}},
 {"FD",1,{-1.61396654554E-5,1.179470890209E-5,3.14335650277E-6,2.638865658957E-6}},
 {"OCT1",1,{7.105902688029E-8,1.341576571389E-5,1.880075537887E-8,4.757701832534E-6,
   {{-1.73859782871E-5,1.341593754567E-5,3.322099093398E-6,4.757682755392E-6},
    {-1.7469201781E-5,1.341583896021E-5,3.317981941491E-6,4.757716952143E-6},
    {-1.730388915E-5,1.341574649688E-5,3.349599603581E-6,4.757667265452E-6},
    {-1.73777724356E-5,1.341647343109E-5,3.336840532404E-6,4.7576714058E-6},
    {-1.74353415956E-5,1.341603040327E-5,3.311987084051E-6,4.757685217625E-6},
    {-1.74212640749E-5,1.341648405333E-5,3.342556031473E-6,4.757769357445E-6},
    {-1.73876009784E-5,1.341487303541E-5,3.343600598167E-6,4.757758068063E-6},
    {-1.73313204206E-5,1.341700756229E-5,3.315603814532E-6,4.757693497732E-6},
    {-1.74010139031E-5,1.341528638452E-5,3.305694407386E-6,4.757673938458E-6},
    {-1.74502458178E-5,1.341533649359E-5,3.336445539896E-6,4.757729401628E-6},
    {-1.74314431676E-5,1.341630692414E-5,3.31600374734E-6,4.757678344374E-6},
    {-1.73942524375E-5,1.341628056542E-5,3.292483974587E-6,4.757572109371E-6},
    {-1.7484844691E-5,1.341562478724E-5,3.333148539898E-6,4.757743510713E-6},
    {-1.75071931639E-5,1.341554471236E-5,3.328061143153E-6,4.757712763375E-6},
    {-1.72474969506E-5,1.341541502778E-5,3.352647216387E-6,4.757773454315E-6},
    {-1.73948177571E-5,1.341533040858E-5,3.309724338704E-6,4.757621601378E-6},
    {-1.73353486127E-5,1.341527777322E-5,3.341692097108E-6,4.757658061681E-6},
    {-1.73159620525E-5,1.341509914024E-5,3.373116762863E-6,4.757781636679E-6},
    {-1.72795222506E-5,1.34153765789E-5,3.344751351533E-6,4.757731565496E-6},
    {-1.74975494391E-5,1.34160439937E-5,3.343644494745E-6,4.757715743557E-6}}},
  {{2.44433078242E-11,-4.8456699675E-15,-1.4265784458E-19},{Residual->5.74138787005E-15}},
  {{-370,2.62180691545E-11},{-296,2.58640737196E-11},{-222,2.55128250474E-11},{-148,2.51583568063E-11},{-74,2.47970038423E-11},
   {0,2.44402266696E-11},{74,2.40846322039E-11},{148,2.37305084051E-11},{222,2.33673900475E-11},{296,2.29821797219E-11},
   {370,2.26357083349E-11}}},
 {"OCT2",1,
  {6.803279633785E-8,1.339118417041E-5,1.786323972217E-8,4.753274655597E-6,{{-1.7104080073E-5,1.339092820618E-5,3.298672518107E-6,
     4.753241803515E-6},
    {-1.71220571668E-5,1.339123953333E-5,3.334142141882E-6,4.753360310779E-6},
    {-1.70284413594E-5,1.339145604214E-5,3.343227780786E-6,4.753344077333E-6},
    {-1.71539892118E-5,1.339134202557E-5,3.322423935913E-6,4.753294960708E-6},
    {-1.71567479653E-5,1.33912906815E-5,3.315039753702E-6,4.753240026082E-6},
    {-1.71713560599E-5,1.339086983942E-5,3.330077247321E-6,4.753270295017E-6},
    {-1.69807910624E-5,1.339093551235E-5,3.333024616662E-6,4.753298535905E-6},
    {-1.70611566372E-5,1.339118580305E-5,3.334952354181E-6,4.753337652175E-6},
    {-1.70067916438E-5,1.339107906828E-5,3.29042866801E-6,4.753166717361E-6},
    {-1.71374502467E-5,1.339108609129E-5,3.303939920718E-6,4.753214387866E-6},
    {-1.72260925755E-5,1.339170921465E-5,3.344760709625E-6,4.753296604343E-6},
    {-1.71689241468E-5,1.339073819478E-5,3.333135648848E-6,4.753288038405E-6},
    {-1.71451428151E-5,1.339179089116E-5,3.302788230607E-6,4.753228941434E-6},
    {-1.70714825125E-5,1.339122291538E-5,3.332955179479E-6,4.753265533911E-6},
    {-1.72357066863E-5,1.33910362921E-5,3.336236491474E-6,4.75331632755E-6},
    {-1.71759012378E-5,1.339108266716E-5,3.347282899199E-6,4.753265849357E-6},
    {-1.70592857901E-5,1.339124204843E-5,3.32589938523E-6,4.753269690653E-6},
    {-1.71766525486E-5,1.339137839017E-5,3.289505682742E-6,4.753237193021E-6},
    {-1.70871431118E-5,1.339115902037E-5,3.344544309388E-6,4.753284887396E-6},
    {-1.71618039247E-5,1.339091097093E-5,3.332828255508E-6,4.753271279124E-6}}},
  {{2.26378720307E-11,1.26267525479E-16,1.76904809565E-20},{Residual->1.34020422058E-15}},
  {{-370,2.25933729644E-11},{-296,2.26017882478E-11},{-222,2.26112403244E-11},{-148,2.26217252108E-11},{-74,2.26282973072E-11},
   {0,2.26358014746E-11},{74,2.26455352797E-11},{148,2.26575441025E-11},{222,2.26687567581E-11},{296,2.26779276687E-11},
   {370,2.26857399491E-11}}}}
