{{"FD",1,{7.100246741577E-6,6.905464408073E-6,-1.48432819198E-6,7.592874653927E-7}},
 {"EX2",1,{7.15704476262E-6,6.905728565213E-6,-1.48292842661E-6,7.595234027548E-7}},
 {"FD",1,{7.155421793017E-6,6.906008211866E-6,-1.47880014798E-6,7.592122836507E-7}},
 {"AY",1,{7.551524464287E-6,6.668109275957E-6,-1.74214484869E-6,9.867410937205E-7},
  {{9.73318809098E-13,-1.2880193204E-15,1.30860376152E-12},{Residual->2.46434545801E-15}},
  {{-.5,1.29892888645E-12},{-.35,1.13857745006E-12},{-.2,1.02343927702E-12},{-.05,9.77301390439E-13},{.1,9.86958106413E-13},
   {.25,1.05199541784E-12},{.4,1.18380287781E-12}}},
 {"EY",1,{7.673370908407E-6,6.662732803893E-6,-1.88758729929E-6,1.025060784524E-6},
  {{1.03156591658E-12,9.84517255763E-14,-1.6530184149E-13},{Residual->3.87175295171E-14}},
  {{-.5,9.6100194857E-13},{-.35,9.47197759063E-13},{-.2,9.68999717626E-13},{-.05,1.10845011634E-12},{.1,1.00747608232E-12},
   {.25,1.03718521741E-12},{.4,1.04915952839E-12}}},
 {"R32",1,{6.94555508752E-6,6.786918676949E-6,-2.30889556077E-6,3.786678306401E-7},
  {{1.05166318949E-12,1.92014800005E-12,1.06734963902E-12},{Residual->3.4614127345E-14}},
  {{-.5,3.50534146315E-13},{-.35,4.85061588368E-13},{-.2,7.78806110209E-13},{-.05,9.52377358842E-13},{.1,1.23270880142E-12},
   {.25,1.55947656122E-12},{.4,2.02173485129E-12}}},
 {"AY",1,{6.973261478369E-6,6.784964656387E-6,-2.34322619263E-6,3.780400575605E-7},
  {{1.39390271052E-13,-5.9452598223E-14,1.27608876628E-12},{Residual->4.11314617741E-15}},
  {{-.5,4.88911510084E-13},{-.35,3.11361906564E-13},{-.2,2.0841033018E-13},{-.05,1.46850839192E-13},{.1,1.45782069081E-13},
   {.25,1.9804497333E-13},{.4,3.23446154482E-13}}},
 {"EY",1,{7.240332717397E-6,6.717617162497E-6,-1.97536444965E-6,7.690659645616E-8},
  {{1.41978116937E-13,3.96859159638E-13,3.00975166356E-13},{Residual->3.72557473253E-15}},
  {{-.5,1.6255584979E-14},{-.35,4.07426886304E-14},{-.2,8.13335539034E-14},{-.05,1.19798548233E-13},{.1,1.8390431608E-13},
   {.25,2.55298252597E-13},{.4,3.5249458848E-13}}},
 {"R32",1,{7.243574298984E-6,6.730692677293E-6,-2.01332148346E-6,6.666581933176E-8},
  {{9.13736227966E-15,7.55773002581E-14,1.10230954406E-12},{Residual->1.00662306523E-14}},
  {{-.5,2.52952546602E-13},{-.35,1.07752681454E-13},{-.2,4.31045627123E-14},{-.05,2.98830467408E-15},{.1,2.24131370715E-14},
   {.25,1.16621953471E-13},{.4,2.05421724663E-13}}},
 {"AY",1,{7.193952645082E-6,6.739129279172E-6,-2.01102248632E-6,6.63733473264E-8},
  {{6.8082758679E-15,2.63285995408E-14,1.03560475864E-12},{Residual->4.32142220201E-15}},
  {{-.3,9.29242390483E-14},{-.2,4.62337708676E-14},{-.1,7.23310042743E-15},{5.55111512313E-17,4.28428312991E-15},
   {.1,2.63373729637E-14},{.2,5.59874261159E-14},{.3,1.04627070942E-13}}},
 {"EY",1,{7.200125568599E-6,6.739568131744E-6,-1.99660559301E-6,7.287577935532E-8},
  {{2.58077961747E-15,2.64087562934E-14,2.79638454398E-13},{Residual->1.66286090108E-15}},
  {{-.5,6.13716352809E-14},{-.35,2.48413061402E-14},{-.2,7.36460050324E-15},{-.05,2.37831757403E-15},{.1,9.71808829722E-15},
   {.25,2.77303762257E-14},{.4,5.6483967821E-14}}},
 {"R32",1,{7.201155826942E-6,6.739842561472E-6,-1.99141614308E-6,7.955929144495E-8},
  {{1.0415232484E-14,-1.0894678493E-13,1.03926307363E-12},{Residual->6.65973082174E-15}},
  {{-.5,3.23291226227E-13},{-.35,1.73310008121E-13},{-.2,8.70904588975E-14},{-.05,8.20919307485E-15},{.1,7.4364779444E-15},
   {.25,5.17897458563E-14},{.4,1.32833732172E-13}}},
 {"AY",1,{7.193522387829E-6,6.74658767836E-6,-1.99237584304E-6,7.900017805636E-8},
  {{1.01103349319E-14,-3.4510683678E-14,1.07498297711E-12},{Residual->5.52223663287E-15}},
  {{-.3,1.12878640774E-13},{-.2,7.10651210251E-14},{-.1,1.85721341159E-14},{5.55111512313E-17,6.35676473217E-15},
   {.1,1.75716059511E-14},{.2,5.08331563097E-14},{.3,9.44901552067E-14}}},
 {"EY",1,{7.197859948842E-6,6.751652341014E-6,-2.00110803871E-6,9.272290073185E-8},
  {{7.92315264189E-15,-3.5815961427E-15,3.26237665136E-13},{Residual->2.07835444031E-15}},
  {{-.3,3.70839880456E-14},{-.2,2.48528916559E-14},{-.1,1.01157344836E-14},{5.55111512313E-17,5.61459632922E-15},
   {.1,1.38071328805E-14},{.2,1.87649341573E-14},{.3,3.65693371791E-14}}},
 {"R32",1,{7.191318585826E-6,6.728192997186E-6,-1.94772073624E-6,4.447958427978E-8},
  {{9.98966711937E-15,-2.0477159655E-13,1.12599915336E-12},{Residual->5.7563136966E-15}},
  {{-.3,1.6618569889E-13},{-.2,1.08256220857E-13},{-.1,3.9581488365E-14},{5.55111512313E-17,5.93391531329E-15},
   {.1,1.71961607877E-15},{.2,1.10205394814E-14},{.3,5.2509953791E-14}}},
 {"Y24",1,{7.207568725878E-6,6.736786267679E-6,-1.94769786031E-6,4.428699994599E-8},
  {{2.11469866416E-15,2.57778912734E-16,1.40529201835E-15},{Residual->8.82675161482E-17}},
  {{-1.5,4.83042076751E-15},{-1.2,3.89643529302E-15},{-.9,3.11289075682E-15},{-.6,2.48469205518E-15},{-.3,2.06498482895E-15},
   {0,1.9784334177E-15},{.3,2.27987856106E-15},{.6,2.85348327029E-15},{.9,3.61039337395E-15},{1.2,4.51275469862E-15},
   {1.5,5.54970926434E-15}}},
 {"Y46",1,{7.245886930208E-6,6.75547023077E-6,-1.94775718028E-6,4.418882696273E-8},
  {{1.99173765306E-15,1.68929979348E-16,1.30358169056E-15},{Residual->2.38172256964E-17}},
  {{-1,3.10279235259E-15},{-.8,2.70828779655E-15},{-.6,2.38887039261E-15},{-.4,2.14773076642E-15},{-.2,1.98935668744E-15},
   {0,1.96133836422E-15},{.2,2.0570780019E-15},{.4,2.27220578415E-15},{.6,2.59094523918E-15},{.8,2.99066458037E-15},
   {1,3.43560365674E-15}}},
 {"Y22",1,{7.245886930208E-6,6.75547023077E-6,-1.94775718028E-6,4.41888269627E-8},
  {{4.07748843429E-15,2.72886895135E-15,5.25128961266E-14},{Residual->1.05689433985E-15}},
  {{-.6,2.06808656179E-14},{-.4,1.24452327181E-14},{-.2,6.54541484222E-15},{1.11022302463E-16,1.95265242834E-15},
   {.2,7.00605589487E-15},{.4,1.44258362363E-14},{.6,2.43008049641E-14}}},
 {"Y26",1,{7.245886930208E-6,6.75547023077E-6,-1.94775718028E-6,4.41888269627E-8},
  {{3.2259114866E-15,-1.8640499601E-15,4.61754613121E-14},{Residual->6.31381856567E-16}},
  {{-.6,2.05394083954E-14},{-.4,1.20937114109E-14},{-.2,5.8788592014E-15},{1.11022302463E-16,1.95265242834E-15},
   {.2,5.00160729034E-15},{.4,1.02507549053E-14},{.6,1.8580903444E-14}}},
 {"Y66",1,{7.245886930208E-6,6.75547023077E-6,-1.94775718028E-6,4.41888269627E-8},
  {{7.33629954239E-15,9.63379747592E-15,1.48983808072E-12},{Residual->2.53534805896E-15}},
  {{-.2,6.32099825818E-14},{-.15,4.13537095872E-14},{-.1,2.40848321986E-14},{-.05,1.03121372588E-14},{0,1.95265242834E-15},
   {.05,1.12838215859E-14},{.1,2.61866136394E-14},{.15,4.38474305326E-14},{.2,6.72712281775E-14}}},
 {"Y44",1,{7.245886930208E-6,6.75547023077E-6,-1.94775718028E-6,4.41888269627E-8},
  {{2.90243229006E-15,9.52499041217E-16,2.08591710829E-14},{Residual->4.97722008631E-16}},
  {{-.6,9.59426558848E-15},{-.4,6.3442125025E-15},{-.2,3.80670551541E-15},{1.11022302463E-16,1.95265242834E-15},
   {.2,4.05060982862E-15},{.4,7.23124325157E-15},{.6,1.06996085283E-14}}},
 {"AY",1,{7.231376663181E-6,6.75920760294E-6,-1.9457794534E-6,4.915830451967E-8},
  {{1.0640810182E-15,-6.1804579994E-15,1.18638567103E-12},{Residual->1.43437594166E-15}},
  {{-.1,1.53473384516E-14},{-.07,4.44987557735E-15},{-.04,2.87721808907E-15},{-.01,1.96645800267E-15},{.02,2.82396359194E-15},
   {.05,3.55904604933E-15},{.08,7.58468830508E-15}}},
 {"EY",1,{7.239347600965E-6,6.759360789384E-6,-1.94549047812E-6,5.144408379875E-8},
  {{2.48134322817E-15,-1.1455352051E-15,3.42606076203E-13},{Residual->2.95881179413E-16}},
  {{-.1,6.21993809247E-15},{-.07,3.89136244268E-15},{-.04,3.12353269931E-15},{-.01,2.42777742358E-15},{.02,3.12380170726E-15},
   {.05,2.8857867074E-15},{.08,4.65088836253E-15}}},
 {"R32",1,{7.240580159202E-6,6.770451949815E-6,-1.9789264752E-6,6.30942652951E-8},
  {{3.86171506102E-15,6.4911549524E-14,9.30404879706E-13},{Residual->1.52502686947E-15}},
  {{-.1,6.85829131899E-15},{-.07,3.67732485514E-15},{-.04,3.41679393868E-15},{-.01,2.15289650388E-15},{.02,4.25340064431E-15},
   {.05,1.26931116688E-14},{.08,1.35338644151E-14}}},
 {"Y24",1,{7.293793601935E-6,6.795567843869E-6,-1.98098587622E-6,6.193847082597E-8},
  {{3.97800994498E-15,3.57293907807E-16,-3.6441445922E-16},{Residual->5.42855490018E-18}},
  {{-.3,3.83637416826E-15},{-.2,3.89265190565E-15},{-.1,3.93972731121E-15},{5.55111512313E-17,3.98088631313E-15},
   {.1,4.01290201693E-15},{.2,4.02280100115E-15},{.3,4.05869084998E-15}}},
 {"Y46",1,{7.109247615397E-6,6.714741110353E-6,-1.97979012238E-6,6.152141298527E-8},
  {{3.82987215426E-15,-3.5124922044E-16,6.9061771868E-16},{Residual->5.9260300225E-18}},
  {{-.45,4.13468268481E-15},{-.3,3.9852344816E-15},{-.15,3.89755927267E-15},{-5.5511151231E-17,3.83637416826E-15},
   {.15,3.79465854281E-15},{.3,3.7848842557E-15},{.45,3.81080083675E-15}}},
 {"Y22",1,{7.109613606887E-6,6.715010425148E-6,-1.98154308796E-6,6.141449119203E-8},
  {{5.15472508877E-15,4.94360247336E-16,5.41745031532E-14},{Residual->7.67301531489E-16}},
  {{-.6,2.40633309529E-14},{-.4,1.44720999247E-14},{-.2,7.15962953073E-15},{1.11022302463E-16,3.78488425558E-15},
   {.2,7.9013241084E-15},{.4,1.49708356266E-14},{.6,2.44064147541E-14}}},
 {"Y26",1,{7.108981305078E-6,6.714481108073E-6,-1.97796598763E-6,6.124546406871E-8},
  {{3.73393337807E-15,-1.2024651534E-15,5.58333545003E-14},{Residual->1.36541897818E-16}},
  {{-.3,9.04243846885E-15},{-.2,6.30686134213E-15},{-.1,4.467335125E-15},{5.55111512313E-17,3.77173972838E-15},
   {.1,3.89720910729E-15},{.2,5.91160572564E-15},{.3,8.37368340927E-15}}},
 {"Y66",1,{7.108266606696E-6,6.714799981548E-6,-1.96279751002E-6,5.843242045586E-8},
  {{7.91486698626E-15,1.60292212293E-14,1.62661818709E-12},{Residual->2.06406474575E-15}},
  {{-.2,6.76906801825E-14},{-.15,4.38618343627E-14},{-.1,2.54802319301E-14},{-.05,1.15882913662E-14},{0,3.75100686899E-15},
   {.05,1.18734281701E-14},{.1,2.74051828201E-14},{.15,4.80026520314E-14},{.2,7.5573223207E-14}}},
 {"Y44",1,{7.108266606694E-6,6.714799981556E-6,-1.96279751002E-6,5.84324204558E-8},
  {{3.93537066852E-15,-1.5525327748E-15,1.86310659397E-14},{Residual->3.90338608322E-16}},
  {{-.6,1.1182173094E-14},{-.4,7.95043873901E-15},{-.2,5.59120098253E-15},{1.11022302463E-16,3.41434776032E-15},
   {.2,4.08035930984E-15},{.4,6.32355104525E-15},{.6,9.87231760114E-15}}},
 {"AY",1,{7.186007741759E-6,6.703985525006E-6,-1.96261518772E-6,7.808134400881E-8},
  {{5.01079849069E-15,-3.0486705741E-14,4.29554281754E-13},{Residual->1.55185733056E-15}},
  {{-.1,1.10544542187E-14},{-.07,1.00524783242E-14},{-.04,9.89459656335E-15},{-.01,3.68032891286E-15},{.02,3.22592476811E-15},
   {.05,4.17034949632E-15},{.08,6.25698245053E-15}}},
 {"EY",1,{7.188798837605E-6,6.704716745757E-6,-1.96780840845E-6,7.990300079598E-8},
  {{7.37211782096E-15,5.91798698952E-15,3.08746571424E-13},{Residual->1.17821936883E-15}},
  {{-.1,9.27925600294E-15},{-.07,1.03610104651E-14},{-.04,5.79964587386E-15},{-.01,7.87785221923E-15},{.02,6.91533641259E-15},
   {.05,9.6337375794E-15},{.08,9.32026330425E-15}}},
 {"R32",1,{7.182495245248E-6,6.701011678973E-6,-1.95104675072E-6,7.318531078318E-8},
  {{6.69463697932E-15,-9.0538576568E-14,1.01862801821E-12},{Residual->1.27432859822E-15}},
  {{-.1,2.64206421542E-14},{-.07,1.63551037795E-14},{-.04,1.42769484059E-14},{-.01,6.08732353102E-15},{.02,5.54631994358E-15},
   {.05,5.15145375684E-15},{.08,5.74483331573E-15}}},
 {"Y24",1,{7.127269034829E-6,6.675555268488E-6,-1.95305082971E-6,6.659114497454E-8},
  {{5.36721668244E-15,-3.2916717976E-15,5.20376306508E-16},{Residual->1.04591686328E-17}},
  {{-.3,6.3911117652E-15},{-.2,6.05562340449E-15},{-.1,5.71897254833E-15},{5.55111512313E-17,5.35608971443E-15},
   {.1,5.0363563903E-15},{.2,4.7236877311E-15},{.3,4.43438058902E-15}}},
 {"Y46",1,{7.41436465402E-6,6.810366004395E-6,-1.95178325767E-6,6.572610800822E-8},
  {{4.43363465134E-15,3.91452024425E-16,4.10567372521E-16},{Residual->1.37040678522E-17}},
  {{-.45,4.32743026246E-15},{-.3,4.36338498408E-15},{-.15,4.40246871155E-15},{-5.5511151231E-17,4.43438058902E-15},
   {.15,4.48498211671E-15},{.3,4.57371416771E-15},{.45,4.70773917252E-15}}},
 {"Y22",1,{7.414364654019E-6,6.810366004399E-6,-1.95178325767E-6,6.572610800822E-8},
  {{6.81784322485E-15,1.31029260067E-14,6.1851014831E-14},{Residual->1.32571085154E-15}},
  {{-.6,2.01910719019E-14},{-.4,1.33682301604E-14},{-.2,7.25324317694E-15},{1.11022302463E-16,4.31992127391E-15},
   {.2,1.24313337303E-14},{.4,2.27947457132E-14},{.6,3.66394932281E-14}}},
 {"Y26",1,{7.415349545145E-6,6.811059321282E-6,-1.9664517826E-6,5.996471011725E-8},
  {{4.60975293777E-15,4.63281081556E-15,6.07220633372E-14},{Residual->5.84910596705E-16}},
  {{-.3,9.0001605846E-15},{-.2,6.18973799717E-15},{-.1,3.83172350485E-15},{5.55111512313E-17,4.31992127391E-15},
   {.1,6.5759387951E-15},{.2,8.45128568803E-15},{.3,1.09016804551E-14}}},
 {"Y66",1,{7.415593786116E-6,6.810867936168E-6,-1.97601334727E-6,5.825050464287E-8},
  {{1.11931908125E-14,-8.2316681286E-15,1.60118297133E-12},{Residual->3.78076753185E-15}},
  {{-.2,7.31240275784E-14},{-.15,5.11239814852E-14},{-.1,3.4053423084E-14},{-.05,1.62661346207E-14},{0,3.59576645945E-15},
   {.05,1.33565145648E-14},{.1,2.85889291282E-14},{.15,4.8217886016E-14},{.2,7.25895000756E-14}}},
 {"Y44",1,{7.415593786114E-6,6.810867936164E-6,-1.97601334727E-6,5.825050464457E-8},
  {{4.77366147657E-15,2.50352386278E-16,2.52858682286E-14},{Residual->6.78646304869E-16}},
  {{-.6,1.33564477713E-14},{-.4,9.37720069129E-15},{-.2,6.20433971353E-15},{1.11022302463E-16,3.39312129135E-15},
   {.2,6.13021333899E-15},{.4,9.52359540265E-15},{.6,1.37508845429E-14}}},
 {"AY",1,{7.330399437311E-6,6.820543506175E-6,-1.97927965414E-6,4.742918520749E-8},
  {{3.52316610697E-15,6.92930211876E-14,1.24396567466E-12},{Residual->1.92381906564E-15}},
  {{-.1,6.87104445773E-15},{-.07,8.46077472248E-15},{-.04,2.25456301139E-15},{-.01,2.36908566941E-15},{.02,5.59687837463E-15},
   {.05,7.93416609352E-15},{.08,1.85438499103E-14}}},
 {"EY",1,{7.318163955425E-6,6.807471171629E-6,-1.92323105926E-6,5.910642355783E-8},
  {{4.27726154507E-15,7.23622009607E-15,6.6109093896E-14},{Residual->1.05913083327E-15}},
  {{-.1,4.05776433623E-15},{-.07,4.26697191583E-15},{-.04,3.96595503021E-15},{-.01,5.38911775688E-15},{.02,2.31278054094E-15},
   {.05,6.13359064891E-15},{.08,5.02034071167E-15}}},
 {"R32",1,{7.310432670993E-6,6.806703871311E-6,-1.92562475123E-6,6.145366105062E-8},
  {{3.87604068049E-15,2.72226565644E-14,4.5762336525E-13},{Residual->1.25228523427E-15}},
  {{-.1,4.33370022244E-15},{-.07,5.89958255274E-15},{-.04,4.75072720705E-15},{-.01,2.61373348626E-15},{.02,4.39959301604E-15},
   {.05,4.91506349636E-15},{.08,1.0166743983E-14}}},
 {"Y24",1,{7.276332670343E-6,6.789133117114E-6,-1.92630771721E-6,6.081239342265E-8},
  {{3.7719396613E-15,-8.2951252862E-16,2.48464729142E-15},{Residual->5.54798934158E-18}},
  {{-.3,4.23987241828E-15},{-.2,4.04092826305E-15},{-.1,3.88377799751E-15},{5.55111512313E-17,3.77655245652E-15},
   {.1,3.70683965696E-15},{.2,3.69814719379E-15},{.3,3.75316088458E-15}}},
 {"Y46",1,{7.276332670343E-6,6.789133117114E-6,-1.92630771721E-6,6.081239342265E-8},
  {{3.70384901478E-15,1.69125426561E-17,1.48218604807E-15},{Residual->3.76692800391E-18}},
  {{-.45,3.99728281872E-15},{-.3,3.82860081072E-15},{-.15,3.7405645973E-15},{-5.5511151231E-17,3.69814719379E-15},
   {.15,3.74360613291E-15},{.3,3.84051505966E-15},{.45,4.01200370061E-15}}},
 {"Y22",1,{7.276332670343E-6,6.789133117114E-6,-1.92630771721E-6,6.081239342264E-8},
  {{6.80950826735E-15,1.82947506561E-15,6.5918365299E-14},{Residual->1.56925775577E-15}},
  {{-.6,2.83705856485E-14},{-.4,1.84420882919E-14},{-.2,1.02027294536E-14},{1.11022302463E-16,3.69814719379E-15},
   {.2,1.03153518665E-14},{.4,1.92703021726E-14},{.6,3.11959223795E-14}}},
 {"Y26",1,{7.276237185175E-6,6.788834146087E-6,-1.91888156012E-6,6.06107323337E-8},
  {{4.57117524218E-15,-2.5161297237E-15,7.94566354927E-14},{Residual->4.61344492377E-16}},
  {{-.3,1.21921675271E-14},{-.2,8.7744229101E-15},{-.1,5.88426674521E-15},{5.55111512313E-17,3.69814719379E-15},
   {.1,5.18833407879E-15},{.2,7.75012069311E-15},{.3,1.07586254851E-14}}},
 {"Y66",1,{7.276237185175E-6,6.788834146087E-6,-1.91888156012E-6,6.06107323337E-8},
  {{1.13315574351E-14,-1.3767258983E-14,1.78488117856E-12},{Residual->3.79917942418E-15}},
  {{-.2,8.39529963458E-14},{-.15,5.60761500975E-14},{-.1,3.31395753639E-14},{-.05,1.57195412348E-14},{0,3.67366087403E-15},
   {.05,1.51237126932E-14},{.1,3.24347517459E-14},{.15,5.36390868767E-14},{.2,7.59567184685E-14}}},
 {"Y44",1,{7.276617887395E-6,6.78888718224E-6,-1.92430744194E-6,6.041134572761E-8},
  {{5.02015615525E-15,-8.8263538815E-16,2.51518750557E-14},{Residual->6.9582508441E-16}},
  {{-.6,1.42726250674E-14},{-.4,1.00794391975E-14},{-.2,6.52696160896E-15},{1.11022302463E-16,3.67366087403E-15},
   {.2,6.10149101219E-15},{.4,9.5115801471E-15},{.6,1.3145435242E-14}}}}
