{{"FD",1,{-3.83802990186E-6,1.440430798916E-5,3.158657737727E-6,2.660660744084E-7}},
 {"EX2",1,{-7.62153498817E-6,1.431347542315E-5,3.179236315856E-6,3.504409846347E-7}},
 {"FD",1,{-7.70841938125E-6,1.430481801143E-5,3.247267607427E-6,2.662996507219E-7}},
 {"AY",1,{-8.40670478499E-6,1.476035768978E-5,2.958158808018E-6,1.330510591994E-7},
  {{-5.7346933802E-15,-6.1981785273E-14,2.66479183177E-12},{Residual->2.54345513917E-14}},
  {{-.5,6.84251538069E-13},{-.35,3.78671402606E-13},{-.2,6.14330670593E-14},{-.05,2.16630788843E-14},{.1,1.80111249252E-14},
   {.25,1.54936518074E-13},{.4,3.88036752638E-13}}},
 {"EY",1,{-8.51704123976E-6,1.478046908227E-5,2.943431142682E-6,1.266870469287E-7},
  {{1.88416880315E-14,8.68481499809E-14,5.23539987215E-13},{Residual->7.14792230511E-15}},
  {{-.5,1.12193561147E-13},{-.35,4.49128562618E-14},{-.2,2.18245214195E-14},{-.05,1.31146110851E-14},{.1,3.26692853432E-14},
   {.25,8.68797432464E-14},{.4,1.28892526946E-13}}},
 {"R32",1,{-8.53907274526E-6,1.472848481422E-5,2.926165410597E-6,7.305355947449E-8},
  {{1.94285655157E-14,8.17935124014E-14,1.46248494865E-13},{Residual->2.2333215081E-15}},
  {{-.5,1.54539421353E-14},{-.35,9.20072062044E-15},{-.2,8.73313742599E-15},{-.05,1.16291586536E-14},{.1,3.21718767608E-14},
   {.25,5.12049697397E-14},{.4,7.36743243585E-14}}},
 {"AY",1,{-8.56294029975E-6,1.47364529814E-5,2.925585787681E-6,5.257135522599E-8},
  {{1.8410904642E-14,2.48510745388E-13,2.88528196358E-12},{Residual->8.67221343265E-15}},
  {{-.5,6.24007484979E-13},{-.35,2.68155989048E-13},{-.2,9.24369921905E-14},{-.05,7.4294027811E-15},{.1,7.87805792709E-14},
   {.25,2.64004032402E-13},{.4,5.75303162358E-13}}},
 {"EY",1,{-8.58775941042E-6,1.474436688103E-5,2.890921672992E-6,5.216611567991E-8},
  {{4.73729601194E-15,3.6003217953E-14,5.14684491591E-13},{Residual->1.4782348514E-15}},
  {{-.5,1.15617847291E-13},{-.35,5.47049247349E-14},{-.2,1.94250431849E-14},{-.05,2.39798387535E-15},{.1,1.27913752919E-14},
   {.25,4.86998510105E-14},{.4,1.00181128717E-13}}},
 {"R32",1,{-8.51292054495E-6,1.473345199038E-5,2.86384200415E-6,4.933076314238E-8},
  {{2.802299944E-15,1.73193825051E-14,1.97603042511E-13},{Residual->1.99090226522E-15}},
  {{-.5,4.19036894346E-14},{-.35,2.31973821396E-14},{-.2,6.75228752838E-15},{-.05,4.88705451089E-15},{.1,4.17193067512E-15},
   {.25,1.73355063032E-14},{.4,4.32544351654E-14}}},
 {"AY",1,{-8.63744258441E-6,1.475533971847E-5,2.860744865438E-6,3.625074991401E-8},
  {{-1.5897363649E-14,1.21939403349E-13,3.00629698793E-12},{Residual->2.26750583434E-14}},
  {{-.3,2.18748892412E-13},{-.2,6.5234149033E-14},{-.1,1.34433215537E-14},{5.55111512313E-17,6.52335487673E-15},
   {.1,2.76720963989E-14},{.2,8.26628605688E-14},{.3,3.16196936232E-13}}},
 {"EY",1,{-8.61463616214E-6,1.475503054144E-5,2.87966742943E-6,3.513156893965E-8},
  {{1.10548593724E-15,-2.431010852E-15,5.12414316673E-13},{Residual->1.98440073561E-15}},
  {{-.5,1.32321339033E-13},{-.35,6.22918014035E-14},{-.2,2.18245501951E-14},{-.05,1.2356110091E-15},{.1,7.28756901186E-15},
   {.25,3.55896217513E-14},{.4,7.98270330014E-14}}},
 {"R32",1,{-8.64358975719E-6,1.475171353049E-5,2.843738771085E-6,4.643271574307E-8},
  {{1.06070989919E-15,4.70403132801E-15,1.4140375442E-13},{Residual->7.6160704673E-16}},
  {{-.5,3.49609585655E-14},{-.35,1.52057814149E-14},{-.2,5.62730705352E-15},{-.05,1.91087414947E-15},{.1,3.42695030632E-15},
   {.25,1.07547034861E-14},{.4,2.54509143408E-14}}},
 {"AY",1,{-8.74616537595E-6,1.476259962538E-5,2.836164758962E-6,1.098382410274E-7},
  {{9.28875819863E-15,2.10585500183E-14,1.83132072834E-12},{Residual->1.39179782409E-14}},
  {{-.3,1.56439859858E-13},{-.2,1.04234989394E-13},{-.1,1.58293790684E-14},{5.55111512313E-17,2.06439057387E-15},
   {.1,2.05831744746E-14},{.2,1.03918250869E-13},{.3,1.74721067089E-13}}},
 {"EY",1,{-8.69210441316E-6,1.47577170405E-5,2.869671302515E-6,1.169359326776E-7},
  {{1.36823178458E-14,-3.7662659073E-14,5.29327100291E-13},{Residual->1.06974267101E-15}},
  {{-.3,7.15638063724E-14},{-.2,4.4526088311E-14},{-.1,2.19990102901E-14},{5.55111512313E-17,1.31242569714E-14},
   {.1,1.58102492909E-14},{.2,2.64162939638E-14},{.3,5.05481078022E-14}}},
 {"R32",1,{-8.66310317429E-6,1.476693984049E-5,2.878013943336E-6,1.214271090134E-7},
  {{1.50917089284E-14,-2.7353168084E-14,1.31246667355E-13},{Residual->3.21752636072E-16}},
  {{-.3,3.51941352548E-14},{-.2,2.54118974447E-14},{-.1,1.97561182532E-14},{5.55111512313E-17,1.48539544071E-14},
   {.1,1.34213476546E-14},{.2,1.51086284126E-14},{.3,1.86449479311E-14}}},
 {"Y24",1,{-8.7227657915E-6,1.472928232211E-5,2.874240467879E-6,8.835467176451E-8},
  {{1.46664916235E-14,5.10910487379E-15,2.51333651181E-16},{Residual->1.3086997918E-16}},
  {{-1.5,7.80654802261E-15},{-1.2,8.8073530426E-15},{-.9,1.00819207217E-14},{-.6,1.15302009081E-14},{-.3,1.3113096631E-14},
   {0,1.47445428034E-14},{.3,1.63264435859E-14},{.6,1.79691254827E-14},{.9,1.95007983079E-14},{1.2,2.11831232433E-14},
   {1.5,2.27564582566E-14}}},
 {"Y46",1,{-8.62285406143E-6,1.470478560945E-5,2.877421437678E-6,7.183115683993E-8},
  {{7.80877354436E-15,5.15205796639E-15,2.28066248055E-15},{Residual->1.98112622484E-16}},
  {{-1,5.17653983209E-15},{-.8,5.15971509296E-15},{-.6,5.38521135113E-15},{-.4,5.84237682173E-15},{-.2,6.65725348412E-15},
   {0,7.80654802261E-15},{.2,9.09796989783E-15},{.4,1.0463699952E-14},{.6,1.19807194198E-14},{.8,1.34100022279E-14},
   {1,1.49513878002E-14}}},
 {"Y22",1,{-8.64294792857E-6,1.467513227519E-5,2.881080546021E-6,7.132663514658E-8},
  {{5.13595904901E-15,-3.9947099542E-15,1.2495105703E-14},{Residual->2.41510189267E-16}},
  {{-.6,1.22733561978E-14},{-.4,8.53359192717E-15},{-.2,6.10140272117E-15},{1.11022302463E-16,5.15971509296E-15},
   {.2,5.12505174695E-15},{.4,5.76611445453E-15},{.6,6.98699958983E-15}}},
 {"Y26",1,{-8.631529526E-6,1.469059238272E-5,2.847405949512E-6,6.920545850911E-8},
  {{6.49874188295E-15,9.47241606663E-15,3.84479760102E-14},{Residual->1.15076219402E-15}},
  {{-.6,1.48219106844E-14},{-.4,9.39621512388E-15},{-.2,5.43100367594E-15},{1.11022302463E-16,5.08748888127E-15},
   {.2,1.06041061204E-14},{.4,1.8506015649E-14},{.6,2.47061861773E-14}}},
 {"Y66",1,{-8.631529526E-6,1.469059238272E-5,2.847405949512E-6,6.920545850911E-8},
  {{5.26829294275E-15,1.66180425715E-14,5.86287352261E-13},{Residual->3.44358260926E-16}},
  {{-.2,2.49300970186E-14},{-.15,1.6662222211E-14},{-.1,9.54925431579E-15},{-.05,5.94394950498E-15},{0,4.78939548746E-15},
   {.05,7.37549671857E-15},{.1,1.30795281585E-14},{.15,2.10420961135E-14},{.2,3.19856997956E-14}}},
 {"Y44",1,{-8.63394449618E-6,1.467556220911E-5,2.862432180077E-6,6.846093175236E-8},
  {{4.76963832197E-15,1.32460433704E-15,4.24474568943E-15},{Residual->2.51228515637E-17}},
  {{-.6,5.48694008403E-15},{-.4,4.9276841199E-15},{-.2,4.6933138169E-15},{1.11022302463E-16,4.78939548747E-15},
   {.2,5.1856173461E-15},{.4,5.9342284645E-15},{.6,7.12440410704E-15}}},
 {"AY",1,{-8.4933195599E-6,1.470529188248E-5,2.873831579541E-6,1.125346994402E-7},
  {{3.10424480261E-15,-1.1174319683E-14,2.03841635521E-12},{Residual->4.18363533482E-15}},
  {{-.1,2.88798748208E-14},{-.07,5.07199656593E-15},{-.04,8.8244148001E-15},{-.01,6.91322898682E-15},{.02,5.06193072887E-15},
   {.05,4.75208271672E-15},{.08,1.58033709769E-14}}},
 {"EY",1,{-8.46647972935E-6,1.471954149871E-5,2.8426916665E-6,1.055678595533E-7},
  {{1.38149485286E-14,6.11917918209E-14,7.09786116619E-13},{Residual->6.67096092941E-16}},
  {{-.1,1.54467264888E-14},{-.07,1.17275458958E-14},{-.04,1.31557070457E-14},{-.01,1.28467758595E-14},{.02,1.57106166073E-14},
   {.05,1.90348483224E-14},{.08,2.28824544739E-14}}},
 {"R32",1,{-8.486610284E-6,1.471449941596E-5,2.859425620495E-6,1.077639287551E-7},
  {{1.11982368636E-14,-3.410647015E-16,5.84555011341E-14},{Residual->1.45252389092E-16}},
  {{-.1,1.18166565642E-14},{-.07,1.14849472895E-14},{-.04,1.14610389855E-14},{-.01,1.09955716066E-14},{.02,1.11563650397E-14},
   {.05,1.15768602547E-14},{.08,1.14340903133E-14}}},
 {"Y24",1,{-8.51197939432E-6,1.470038423858E-5,2.85419529818E-6,1.018412433598E-7},
  {{1.15770345207E-14,2.63954374545E-15,1.98081135689E-15},{Residual->4.40240067346E-17}},
  {{-.3,1.0940326208E-14},{-.2,1.11730847889E-14},{-.1,1.12949580554E-14},{5.55111512313E-17,1.16130643407E-14},
   {.1,1.18797963122E-14},{.2,1.21048849266E-14},{.3,1.25877541931E-14}}},
 {"Y46",1,{-8.42001128182E-6,1.467868336528E-5,2.851383312291E-6,9.190828538986E-8},
  {{1.03381979782E-14,5.05083965399E-15,3.40314470491E-15},{Residual->5.84438451395E-17}},
  {{-.45,8.75295396004E-15},{-.3,9.07234808872E-15},{-.15,9.74536934534E-15},{-5.5511151231E-17,1.03716388491E-14},
   {.15,1.11340675303E-14},{.3,1.20765812951E-14},{.45,1.3358407943E-14}}},
 {"Y22",1,{-8.42802499741E-6,1.467454335316E-5,2.852180894521E-6,9.169251904987E-8},
  {{8.32717348466E-15,-1.5961544901E-15,1.36505704598E-14},{Residual->3.31797344187E-16}},
  {{-.6,1.4582862697E-14},{-.4,1.07378083309E-14},{-.2,8.79617079941E-15},{1.11022302463E-16,8.44713292375E-15},
   {.2,8.93394043989E-15},{.4,1.00948443821E-14},{.6,1.19860937345E-14}}},
 {"Y26",1,{-8.40712162981E-6,1.468249948666E-5,2.802786471348E-6,7.98794366438E-8},
  {{8.31497250431E-15,2.57463894615E-14,7.32312926576E-14},{Residual->5.38604675065E-16}},
  {{-.3,6.72697093335E-15},{-.2,6.38072439853E-15},{-.1,7.172400616E-15},{5.55111512313E-17,8.40751804959E-15},
   {.1,1.11114982269E-14},{.2,1.56382172715E-14},{.3,2.32722399785E-14}}},
 {"Y66",1,{-8.40712162981E-6,1.468249948666E-5,2.802786471348E-6,7.98794366438E-8},
  {{6.65387623263E-15,6.44568903736E-15,6.62048553868E-13},{Residual->6.33683672447E-16}},
  {{-.2,3.23627640445E-14},{-.15,1.94990561255E-14},{-.1,1.278029935E-14},{-.05,8.95481020167E-15},{0,6.38072439853E-15},
   {.05,7.94370841465E-15},{.1,1.39969015197E-14},{.15,2.32324313631E-14},{.2,3.40414737562E-14}}},
 {"Y44",1,{-8.4015338127E-6,1.468565290081E-5,2.793948998612E-6,7.816566983785E-8},
  {{6.38287473905E-15,-1.025131815E-15,5.18504512778E-15},{Residual->2.07934122896E-16}},
  {{-.6,8.68310920292E-15},{-.4,7.72940783347E-15},{-.2,7.11292609682E-15},{1.11022302463E-16,6.38072439922E-15},
   {.2,6.13914364937E-15},{.4,6.58500004462E-15},{.6,7.85706249004E-15}}},
 {"AY",1,{-8.44154696425E-6,1.467979132156E-5,2.793921851486E-6,8.335849378487E-8},
  {{7.15937034749E-15,-9.7538984343E-15,1.68562002369E-12},{Residual->3.45931268009E-15}},
  {{-.1,2.90878541719E-14},{-.07,9.41007965551E-15},{-.04,1.11522034081E-14},{-.01,6.47170278921E-15},{.02,1.05283463332E-14},
   {.05,1.32213249159E-14},{.08,1.45844126624E-14}}},
 {"EY",1,{-8.50568179218E-6,1.468140401994E-5,2.792203047684E-6,7.585231848831E-8},
  {{7.29416597907E-15,5.7226410732E-14,7.09095262199E-13},{Residual->1.39887586517E-15}},
  {{-.1,8.58178999923E-15},{-.07,6.20801951134E-15},{-.04,6.56321694546E-15},{-.01,8.08615194693E-15},{.02,9.0599387367E-15},
   {.05,8.93721792146E-15},{.08,1.79825453321E-14}}},
 {"R32",1,{-8.4845842679E-6,1.467816614724E-5,2.785388469541E-6,7.450780365136E-8},
  {{5.83726265654E-15,1.41715123138E-14,1.67560122379E-13},{Residual->4.19582925871E-16}},
  {{-.1,5.8232017882E-15},{-.07,5.82684554655E-15},{-.04,5.8514272366E-15},{-.01,5.99664217784E-15},{.02,5.9393491826E-15},
   {.05,6.1890871157E-15},{.08,8.58208685596E-15}}},
 {"Y24",1,{-8.4390569266E-6,1.469276640816E-5,2.786144999397E-6,6.601019840801E-8},
  {{5.58152043706E-15,-1.3935613211E-15,7.07701270807E-16},{Residual->3.14252581943E-17}},
  {{-.3,6.03903782646E-15},{-.2,5.92912590758E-15},{-.1,5.74176758078E-15},{5.55111512313E-17,5.55141280495E-15},
   {.1,5.41449048565E-15},{.2,5.37822373897E-15},{.3,5.21474107085E-15}}},
 {"Y46",1,{-8.55108300144E-6,1.472337569764E-5,2.783730858451E-6,5.505023944634E-8},
  {{4.34944973714E-15,-2.8286627124E-15,1.53089977352E-15},{Residual->2.11372552348E-17}},
  {{-.45,5.93718996354E-15},{-.3,5.30597684003E-15},{-.15,4.84397486247E-15},{-5.5511151231E-17,4.35734629386E-15},
   {.15,3.94722794285E-15},{.3,3.61681024541E-15},{.45,3.40208886913E-15}}},
 {"Y22",1,{-8.54493796921E-6,1.474265191689E-5,2.780721322237E-6,5.252680760679E-8},
  {{3.3524315781E-15,2.4771884542E-15,1.4772158508E-14},{Residual->2.27348390212E-16}},
  {{-.6,7.22819023706E-15},{-.4,4.82891750859E-15},{-.2,3.27640669999E-15},{1.11022302463E-16,3.0305288631E-15},
   {.2,4.73372538214E-15},{.4,6.98486726472E-15},{.6,9.92920262009E-15}}},
 {"Y26",1,{-8.54493796916E-6,1.47426519169E-5,2.780721322237E-6,5.252680760716E-8},
  {{2.69849505975E-15,2.53037908541E-15,6.19474556864E-14},{Residual->3.51468862772E-16}},
  {{-.3,7.18968027253E-15},{-.2,4.93558507765E-15},{-.1,3.45629852356E-15},{5.55111512313E-17,2.7590655174E-15},
   {.1,3.26300028458E-15},{.2,5.17479935313E-15},{.3,9.45632398159E-15}}},
 {"Y66",1,{-8.54493796916E-6,1.47426519169E-5,2.780721322237E-6,5.252680760716E-8},
  {{3.68065965966E-15,-7.786460719E-15,7.37327834772E-13},{Residual->1.3290651752E-15}},
  {{-.2,3.59671332129E-14},{-.15,2.14243292621E-14},{-.1,1.00967742056E-14},{-.05,5.10778146645E-15},{0,2.7590655174E-15},
   {.05,6.24198038445E-15},{.1,1.22630275574E-14},{.15,2.01446493266E-14},{.2,2.97203712199E-14}}},
 {"Y44",1,{-8.54548406686E-6,1.473973877543E-5,2.783654667896E-6,5.25063628844E-8},
  {{2.85024427284E-15,3.83674089589E-16,6.7182097463E-15},{Residual->7.34906370523E-17}},
  {{-.6,4.96547172191E-15},{-.4,3.8622408423E-15},{-.2,3.13203732475E-15},{1.11022302463E-16,2.7590655177E-15},
   {.2,3.12177449509E-15},{.4,4.12681019032E-15},{.6,5.50870473368E-15}}},
 {"AY",1,{-8.29374125588E-6,1.474624703306E-5,2.788558940377E-6,5.190291478567E-8},
  {{4.21089624598E-15,-8.8216774763E-14,1.25104634846E-12},{Residual->3.93375623765E-15}},
  {{-.1,2.26022469218E-14},{-.07,2.44534158291E-14},{-.04,3.8205051749E-15},{-.01,5.23451180843E-15},{.02,3.16203891905E-15},
   {.05,4.09011995708E-15},{.08,4.69070977007E-15}}},
 {"EY",1,{-8.26433682632E-6,1.474857441883E-5,2.77127844432E-6,5.661496573739E-8},
  {{3.61654010527E-15,2.11539748964E-14,7.88270917188E-13},{Residual->7.13797618563E-16}},
  {{-.1,8.8154558103E-15},{-.07,6.82514085115E-15},{-.04,4.2106580566E-15},{-.01,3.0103795945E-15},{.02,4.95843536656E-15},
   {.05,5.41818938313E-15},{.08,1.10129601871E-14}}},
 {"R32",1,{-8.33954783014E-6,1.474984828428E-5,2.731344090249E-6,9.005825403423E-8},
  {{3.64865033959E-15,1.4644612153E-14,1.30409600753E-13},{Residual->6.90771888286E-16}},
  {{-.1,4.06553488415E-15},{-.07,2.75882422168E-15},{-.04,2.69760085155E-15},{-.01,3.36191809958E-15},{.02,4.27556666135E-15},
   {.05,5.95390020099E-15},{.08,4.77969326664E-15}}},
 {"Y24",1,{-8.35536165092E-6,1.474528017983E-5,2.732910911277E-6,8.876753799607E-8},
  {{8.09049850328E-15,4.90728982677E-16,-5.7255101697E-16},{Residual->1.87813248405E-17}},
  {{-.3,7.87967580188E-15},{-.2,7.98149630495E-15},{-.1,8.03761812683E-15},{5.55111512313E-17,8.11048911969E-15},
   {.1,8.12302568748E-15},{.2,8.13195698579E-15},{.3,8.20891321161E-15}}},
 {"Y46",1,{-8.29822757487E-6,1.472909550278E-5,2.739812219007E-6,8.399529801901E-8},
  {{7.92953377565E-15,1.7130907782E-15,-5.0381980884E-16},{Residual->2.59985591541E-17}},
  {{-.45,7.0552100893E-15},{-.3,7.38233438777E-15},{-.15,7.66555624982E-15},{-5.5511151231E-17,7.87967580188E-15},
   {.15,8.19922673776E-15},{.3,8.43037022646E-15},{.45,8.57695645701E-15}}},
 {"Y22",1,{-8.24836478593E-6,1.478578309182E-5,2.731272515311E-6,6.947058546765E-8},
  {{6.81979410237E-15,8.32925666838E-15,9.7214819363E-15},{Residual->1.36271871206E-16}},
  {{-.6,5.42000726749E-15},{-.4,4.82616224522E-15},{-.2,5.55718252924E-15},{1.11022302463E-16,7.05521008931E-15},
   {.2,8.78513181405E-15},{.4,1.16205392688E-14},{.6,1.53623852711E-14}}},
 {"Y26",1,{-8.24836478597E-6,1.478578309184E-5,2.731272515311E-6,6.947058546618E-8},
  {{5.27533841196E-15,3.75819217036E-15,7.0114712143E-14},{Residual->3.15973569187E-16}},
  {{-.3,1.04014942453E-14},{-.2,7.48757942215E-15},{-.1,5.71616278486E-15},{5.55111512313E-17,4.82616224501E-15},
   {.1,6.26460398076E-15},{.2,9.43631835559E-15},{.3,1.24271672501E-14}}},
 {"Y66",1,{-8.24836478597E-6,1.478578309184E-5,2.731272515311E-6,6.947058546618E-8},
  {{6.10028100709E-15,3.32489186133E-14,5.17302749737E-13},{Residual->1.15905189982E-15}},
  {{-.2,2.01824574637E-14},{-.15,1.12997726736E-14},{-.1,9.12847344097E-15},{-.05,8.03052651605E-15},{0,4.82616224501E-15},
   {.05,7.99492063485E-15},{.1,1.41172301578E-14},{.15,2.32395974065E-14},{.2,3.36788009859E-14}}},
 {"Y44",1,{-8.24836478595E-6,1.478578309188E-5,2.731272515311E-6,6.947058546756E-8},
  {{5.01671834732E-15,-7.0654876469E-16,8.53818343311E-15},{Residual->1.03880024173E-16}},
  {{-.6,8.44162059667E-15},{-.4,6.82044752103E-15},{-.2,5.50565698541E-15},{1.11022302463E-16,4.82616224521E-15},
   {.2,5.29358744656E-15},{.4,6.15580395575E-15},{.6,7.63651512572E-15}}}}
