{{"FD",1,{-3.20642297321E-5,1.064526011288E-5,7.255325510724E-7,6.444181820807E-7}},
 {"EX2",0,{-2.95476649225E-5,1.284111517432E-5,1.058593675903E-6,8.87716770663E-7}},
 {"FD",1,{-3.12259805126E-5,1.064385797641E-5,1.128310611206E-6,6.486166672373E-7}},
 {"AY",1,{1.081461507838E-6,1.04175280285E-5,3.390070712282E-8,6.139611532755E-7,
   {{-2.60543786619E-5,1.041218457657E-5,5.964901426801E-7,5.995458750041E-7},
    {-2.48145472698E-5,1.039570748258E-5,5.263988514043E-7,6.080122888585E-7},
    {-2.70306412824E-5,1.043416118437E-5,5.061613581101E-7,6.209526589023E-7},
    {-2.54974947692E-5,1.040441516305E-5,5.184968562829E-7,6.09089877712E-7},
    {-2.87683078555E-5,1.044187666175E-5,5.593931113775E-7,6.230546112492E-7},
    {-2.67406870021E-5,1.041843401489E-5,5.673765602718E-7,6.165804151597E-7},
    {-2.50703697387E-5,1.043159725893E-5,5.365839037845E-7,6.153253565491E-7},
    {-2.50926372786E-5,1.039637400894E-5,5.173000530358E-7,6.096800554662E-7},
    {-2.63287951313E-5,1.040795044692E-5,5.438339022758E-7,6.08951337103E-7},
    {-2.5001007635E-5,1.041531351049E-5,4.726130164481E-7,6.17002022798E-7},
    {-2.48606158592E-5,1.040398550409E-5,5.249641587916E-7,6.084778526263E-7},
    {-2.79593340011E-5,1.0424353758E-5,5.330789810859E-7,6.254085126934E-7},
    {-2.71266963209E-5,1.045357297088E-5,5.168541618791E-7,6.238340270227E-7},
    {-2.68841271928E-5,1.040854659019E-5,5.915267834965E-7,6.09839253034E-7},
    {-2.57423152419E-5,1.040122502741E-5,5.775478714928E-7,6.06576574688E-7},
    {-2.61236983115E-5,1.042087918747E-5,5.053119633591E-7,6.190180786437E-7},
    {-2.67143436791E-5,1.043798313685E-5,5.151464514692E-7,6.214302158527E-7},
    {-2.78136443387E-5,1.041847237433E-5,6.077534833856E-7,6.081280071159E-7},
    {-2.65838860471E-5,1.042407702242E-5,5.168669667092E-7,6.189163173603E-7},
    {-2.57838361611E-5,1.039945068986E-5,5.356102278994E-7,6.093997276702E-7}}},
  {{3.921138945E-13,-3.5954720517E-13,5.10597396503E-12},{Residual->5.54154528431E-15}},
  {{-.5,1.84377473561E-12},{-.35,1.14675936245E-12},{-.2,6.78577349916E-13},{-.05,4.15524850303E-13},{.1,4.03195033796E-13},
   {.25,6.21158859948E-13},{.4,1.06776673364E-12}}},
 {"EY",1,
  {8.378443447125E-7,1.062373793834E-5,1.970098953656E-8,4.683164874797E-8,{{-2.38603610172E-5,1.062099869607E-5,3.386180135826E-7,
     4.577967802764E-8},
    {-2.30648293494E-5,1.063082339803E-5,3.861770181009E-7,4.721187134483E-8},
    {-2.20223323334E-5,1.061483678765E-5,3.557056025708E-7,4.646729772919E-8},
    {-2.26332153325E-5,1.061246016422E-5,3.799653606862E-7,4.657777689584E-8},
    {-2.29633200243E-5,1.061650265553E-5,3.948270044518E-7,4.6730832263E-8},
    {-2.36566243716E-5,1.061727100381E-5,3.470934968557E-7,4.572940559893E-8},
    {-2.35515384823E-5,1.062466508171E-5,4.019191027473E-7,4.610032470767E-8},
    {-2.15770752251E-5,1.060499687482E-5,3.669692881705E-7,4.738533402142E-8},
    {-2.22104891557E-5,1.06185351038E-5,3.973960499191E-7,4.846602989672E-8},
    {-2.22049284361E-5,1.06109011221E-5,3.52204820411E-7,4.812286189285E-8},
    {-2.30238281519E-5,1.061495940608E-5,3.856044772217E-7,4.54357010659E-8},
    {-2.46658656583E-5,1.065691692209E-5,3.364359655472E-7,4.642342812014E-8},
    {-2.24918970597E-5,1.060825164349E-5,3.449020886051E-7,4.586783656553E-8},
    {-2.2556193432E-5,1.064383656917E-5,3.717971304121E-7,5.030492452871E-8},
    {-2.42533220725E-5,1.066306441684E-5,3.745573467478E-7,4.693650023476E-8},
    {-2.18711522586E-5,1.060040452207E-5,3.864279272047E-7,4.726596383235E-8},
    {-2.4082963312E-5,1.062567308866E-5,3.799175928754E-7,4.56550262734E-8},
    {-2.27097212785E-5,1.063717528351E-5,3.810224348724E-7,4.759537620697E-8},
    {-2.38510444089E-5,1.062829615961E-5,3.616814340586E-7,4.601207664695E-8},
    {-2.33888133033E-5,1.062418986749E-5,3.912776311799E-7,4.656472910669E-8}}},
  {{3.78161396626E-13,-7.5668197347E-13,3.7436807643E-13},{Residual->1.12586716359E-15}},
  {{-.5,8.50373940575E-13},{-.35,6.87376872382E-13},{-.2,5.46193210907E-13},{-.05,4.17616049229E-13},{.1,3.04498771256E-13},
   {.25,2.12667731242E-13},{.4,1.35645220996E-13}}},
 {"R32",1,
  {1.012663312611E-6,1.060221929996E-5,1.677814032403E-8,4.164527649161E-8,{{-2.17990047033E-5,1.059230504559E-5,8.264032571737E-7,
     4.149857858577E-8},
    {-2.224612E-5,1.060574919232E-5,7.948508188489E-7,4.195520787054E-8},
    {-2.06672784676E-5,1.058756506953E-5,8.337232763763E-7,4.384418110587E-8},
    {-2.03596060547E-5,1.058112661201E-5,8.29010053795E-7,4.578894073566E-8},
    {-2.26835889476E-5,1.061165841332E-5,8.003569371441E-7,4.074396405568E-8},
    {-2.26719748729E-5,1.061137060135E-5,8.055321139899E-7,4.037969420319E-8},
    {-2.06356642309E-5,1.059929381296E-5,8.344964421789E-7,4.163491936243E-8},
    {-2.28161182559E-5,1.058975364262E-5,8.204839789126E-7,4.145141277485E-8},
    {-2.22970004636E-5,1.065306940631E-5,7.88710897361E-7,4.337694487356E-8},
    {-2.14208401098E-5,1.059422467105E-5,8.167593999546E-7,4.208271970302E-8},
    {-2.25346570939E-5,1.060126380422E-5,8.135206470104E-7,4.086312225465E-8},
    {-2.25718289727E-5,1.059775550527E-5,8.204395955955E-7,3.960258064565E-8},
    {-2.09693385057E-5,1.058067276589E-5,8.152547854403E-7,4.301815685101E-8},
    {-2.28862907695E-5,1.060449283638E-5,8.076564703878E-7,3.880862264274E-8},
    {-2.0819381028E-5,1.059738041882E-5,8.333522198346E-7,4.197546552644E-8},
    {-2.07753438946E-5,1.057879305535E-5,7.764136165648E-7,4.310100583664E-8},
    {-2.24750652471E-5,1.062072629346E-5,8.366027698134E-7,4.15304541267E-8},
    {-2.19397048912E-5,1.05892433733E-5,8.05277025674E-7,4.104465817448E-8},
    {-2.45428884029E-5,1.06147174341E-5,8.027791324085E-7,3.829243320244E-8},
    {-2.22116797869E-5,1.063322404534E-5,7.898067818767E-7,4.191246730094E-8}}},
  {{3.46589452886E-15,-1.7473634158E-14,3.32677995074E-13},{Residual->6.08334855304E-16}},
  {{-.5,9.47318903077E-14},{-.35,5.10552428639E-14},{-.2,2.10964303705E-14},{-.05,4.54937005842E-15},{.1,4.33846051232E-15},
   {.25,2.0093818948E-14},{.4,4.99208224068E-14}}},
 {"AY",1,
  {1.024652339346E-6,1.060392375559E-5,1.666335475982E-8,3.779695789198E-8,{{-2.30299736297E-5,1.060543555518E-5,5.243489775685E-7,
     3.679363255162E-8},
    {-2.17432318807E-5,1.060026127006E-5,5.256461249326E-7,3.754227153335E-8},
    {-2.24287490639E-5,1.060597631043E-5,5.021690975148E-7,3.704855298539E-8},
    {-2.08904348714E-5,1.058925102826E-5,4.824975304634E-7,3.868971224605E-8},
    {-2.26236296885E-5,1.064156372681E-5,4.933446516411E-7,3.773181022589E-8},
    {-2.05202651094E-5,1.059526502172E-5,5.153242777696E-7,3.820147333787E-8},
    {-2.0055490034E-5,1.0580472823E-5,4.650599214721E-7,4.022812723165E-8},
    {-2.20410544015E-5,1.061426980158E-5,5.009482518473E-7,3.784002112122E-8},
    {-2.02751704253E-5,1.058774314255E-5,4.916206985933E-7,3.742603752928E-8},
    {-2.06708140151E-5,1.059531282532E-5,5.030565985334E-7,3.872719412229E-8},
    {-2.10233841841E-5,1.059551705396E-5,5.196347450109E-7,3.734342351225E-8},
    {-2.10796945557E-5,1.058670873792E-5,4.940782022798E-7,3.716462274002E-8},
    {-2.34688163261E-5,1.061254673428E-5,5.136200283695E-7,3.63405217935E-8},
    {-2.13502324088E-5,1.059520999695E-5,5.162744690073E-7,3.821038710083E-8},
    {-2.21922888135E-5,1.060590653541E-5,4.946439189713E-7,3.669404928978E-8},
    {-2.00165365169E-5,1.058400374281E-5,5.253028210329E-7,3.898812656501E-8},
    {-2.27993112915E-5,1.06035200268E-5,5.25220791541E-7,3.644492083148E-8},
    {-2.28491357246E-5,1.067469158686E-5,4.947420296622E-7,3.883001894351E-8},
    {-2.21399264352E-5,1.060922049569E-5,5.215479120901E-7,3.758972862215E-8},
    {-2.18879224261E-5,1.059559869624E-5,5.254666794463E-7,3.810452555652E-8}}},
  {{-6.3847890572E-15,-9.2037476525E-14,5.06512160546E-12},{Residual->4.20621108412E-15}},
  {{-.5,1.3038304148E-12},{-.35,6.47572118958E-13},{-.2,2.15941369404E-13},{-.05,1.49233849852E-14},{.1,3.36444879596E-14},
   {.25,2.7879828234E-13},{.4,7.72475774465E-13}}},
 {"EY",1,
  {8.805914313774E-7,1.059121203604E-5,1.799914946573E-8,3.597321050806E-8,{{-2.24552513843E-5,1.058591908721E-5,6.915684102799E-7,
     3.548203832487E-8},
    {-2.1804638813E-5,1.057623137192E-5,7.023312749658E-7,3.61153629222E-8},
    {-2.24048493708E-5,1.060222280268E-5,7.402828041485E-7,3.592648798159E-8},
    {-2.35588374701E-5,1.063941126265E-5,7.238812911384E-7,3.592653132842E-8},
    {-2.26187414751E-5,1.059666483473E-5,7.142278927676E-7,3.677853737108E-8},
    {-2.15440761814E-5,1.057758149971E-5,7.304682585795E-7,3.55863367244E-8},
    {-2.23423256775E-5,1.058888136779E-5,7.274255172047E-7,3.504184379027E-8},
    {-2.22771344014E-5,1.059773297268E-5,7.478311345494E-7,3.524626514305E-8},
    {-2.22871391441E-5,1.059216605895E-5,7.097531496136E-7,3.576679454124E-8},
    {-2.01934981544E-5,1.056775433483E-5,7.021518878965E-7,3.616987541283E-8},
    {-2.29412677677E-5,1.059000973652E-5,6.945686378512E-7,3.651294306715E-8},
    {-2.3257660873E-5,1.060085650634E-5,7.055758138625E-7,3.501877916905E-8},
    {-2.21539298802E-5,1.062597863224E-5,6.772262097152E-7,3.764259007837E-8},
    {-2.10867966946E-5,1.058452122137E-5,7.310313749195E-7,3.464810210371E-8},
    {-2.18957876856E-5,1.059726865062E-5,6.99910956709E-7,3.601144823979E-8},
    {-2.1069041694E-5,1.057299142716E-5,6.917194533864E-7,3.637468642011E-8},
    {-2.10821246766E-5,1.057956033919E-5,7.096279793021E-7,3.645133370253E-8},
    {-2.26043075494E-5,1.059011358127E-5,7.2935760824E-7,3.537777763852E-8},
    {-2.13571817501E-5,1.058264275603E-5,6.970775021524E-7,3.634641848823E-8},
    {-2.03443562239E-5,1.057573227687E-5,7.194431072657E-7,3.704005771371E-8}}},
  {{2.5085828729E-15,1.586499031E-14,3.82484639456E-13},{Residual->4.643228623E-16}},
  {{-.5,8.99168502821E-14},{-.35,4.40903333386E-14},{-.2,1.53161185715E-14},{-.05,1.74503246104E-15},{.1,8.01724878037E-15},
   {.25,3.05221643038E-14},{.4,7.00583898123E-14}}},
 {"R32",1,
  {8.189464260992E-7,1.059795193455E-5,2.031753166955E-8,3.622281162045E-8,{{-2.36374158409E-5,1.059148688831E-5,1.579319173245E-6,
     3.511611829451E-8},
    {-2.50192496897E-5,1.060116214649E-5,1.554151734176E-6,3.647333548043E-8},
    {-2.4039570498E-5,1.059929262675E-5,1.555288876117E-6,3.572233239061E-8},
    {-2.25070625986E-5,1.058652348238E-5,1.56633157835E-6,3.498697314514E-8},
    {-2.34828122893E-5,1.059289886578E-5,1.524805944095E-6,3.561624871774E-8},
    {-2.33882432296E-5,1.058952598361E-5,1.567380345579E-6,3.558781630532E-8},
    {-2.40168375081E-5,1.059560654887E-5,1.579538578559E-6,3.587601914566E-8},
    {-2.2712238596E-5,1.062705908257E-5,1.578393989372E-6,3.675201490921E-8},
    {-2.30931080368E-5,1.058082869853E-5,1.568411494048E-6,3.702202593016E-8},
    {-2.36236108078E-5,1.062034740204E-5,1.586759765856E-6,3.628108503033E-8},
    {-2.43490767055E-5,1.063133107321E-5,1.582016043449E-6,3.609617663382E-8},
    {-2.46946839086E-5,1.064197110643E-5,1.564125042291E-6,3.871070606702E-8},
    {-2.56219511639E-5,1.060315928465E-5,1.532624685721E-6,3.550498003794E-8},
    {-2.30646632567E-5,1.0572831419E-5,1.531467470692E-6,3.684290673104E-8},
    {-2.29505121553E-5,1.058672180318E-5,1.594335911552E-6,3.615226459562E-8},
    {-2.23842797442E-5,1.057756873177E-5,1.548414775543E-6,3.699555495488E-8},
    {-2.32634823001E-5,1.058357877659E-5,1.593501792296E-6,3.649788377168E-8},
    {-2.44338902513E-5,1.058926463533E-5,1.549960921735E-6,3.701934147822E-8},
    {-2.36129182494E-5,1.059652489192E-5,1.587191823487E-6,3.568764679053E-8},
    {-2.37641243253E-5,1.059135524361E-5,1.580512475781E-6,3.551480199904E-8}}},
  {{2.7019885866E-15,3.69530502209E-15,3.3319087767E-13},{Residual->6.28517186455E-16}},
  {{-.5,8.35778276917E-14},{-.35,4.30662404664E-14},{-.2,1.58633538895E-14},{-.05,2.4015119381E-15},{.1,6.0089022295E-15},
   {.25,2.50309331352E-14},{.4,5.74128872896E-14}}},
 {"AY",1,
  {8.766631809389E-7,1.058960740098E-5,2.38982560761E-8,3.623826279476E-8,{{-2.52295561261E-5,1.057437622093E-5,1.967415950592E-6,
     3.591612447156E-8},
    {-2.47286608329E-5,1.059369553054E-5,1.992674764736E-6,3.748893005745E-8},
    {-2.48720130519E-5,1.05858143481E-5,1.990915547525E-6,3.547811551986E-8},
    {-2.52271103662E-5,1.057694815975E-5,1.96369909909E-6,3.629580469983E-8},
    {-2.46728398079E-5,1.057705186344E-5,1.995945511249E-6,3.604823241046E-8},
    {-2.36089746321E-5,1.056459010253E-5,1.939365625856E-6,3.62254844451E-8},
    {-2.56423046509E-5,1.061640332118E-5,1.92639453019E-6,3.754584964644E-8},
    {-2.49578276949E-5,1.057983846377E-5,1.955665229386E-6,3.525275398817E-8},
    {-2.58181302741E-5,1.06178256151E-5,1.922839899095E-6,3.838490865492E-8},
    {-2.52685680669E-5,1.058404297398E-5,1.986722616032E-6,3.759752400157E-8},
    {-2.75920277168E-5,1.060085473531E-5,1.966938727561E-6,3.594476401947E-8},
    {-2.39203662289E-5,1.062246227106E-5,1.96691368469E-6,3.616366341073E-8},
    {-2.46540677329E-5,1.062376401793E-5,1.960233310217E-6,3.603992674514E-8},
    {-2.46259210954E-5,1.058428118818E-5,1.974167511208E-6,3.50458173823E-8},
    {-2.47202438246E-5,1.058158619685E-5,1.991851652267E-6,3.542077260235E-8},
    {-2.43587026075E-5,1.057954629037E-5,1.975506409847E-6,3.558813003101E-8},
    {-2.5199189442E-5,1.057824151043E-5,1.960532437031E-6,3.611366855391E-8},
    {-2.56199692001E-5,1.058220665016E-5,1.949483247915E-6,3.649160923204E-8},
    {-2.33471346452E-5,1.058595458015E-5,2.025351642574E-6,3.604622476111E-8},
    {-2.54486074158E-5,1.058266397988E-5,1.97121989115E-6,3.567695126171E-8}}},
  {{-4.3659498088E-15,1.39522654469E-16,5.03200463463E-12},{Residual->2.67356759286E-15}},
  {{-.3,4.49651708398E-13},{-.2,1.94633575582E-13},{-.1,4.43183009633E-14},{5.55111512313E-17,1.29582026786E-15},
   {.1,4.35548847511E-14},{.2,1.95459721209E-13},{.3,4.49485637862E-13}}},
 {"EY",1,
  {1.009998452183E-6,1.059446125052E-5,1.947431098022E-8,3.552708464239E-8,{{-2.39529977721E-5,1.058314086252E-5,2.47615459841E-6,
     3.595958640114E-8},
    {-2.67477659496E-5,1.05922023969E-5,2.443580112524E-6,3.541306318813E-8},
    {-2.71746135715E-5,1.059673024681E-5,2.410340634542E-6,3.506530171932E-8},
    {-2.57198766996E-5,1.058617868959E-5,2.41270648382E-6,3.50646244255E-8},
    {-2.48040733536E-5,1.056750099009E-5,2.413505037624E-6,3.681559564649E-8},
    {-2.40511825088E-5,1.058359058726E-5,2.44579748927E-6,3.540366624509E-8},
    {-2.66611488577E-5,1.059538640494E-5,2.413508248918E-6,3.51413569016E-8},
    {-2.64440077589E-5,1.059528226107E-5,2.407104580845E-6,3.530820848799E-8},
    {-2.71953910145E-5,1.059555751671E-5,2.416237814331E-6,3.541109486293E-8},
    {-2.62663702387E-5,1.059603374216E-5,2.435409481088E-6,3.551367017656E-8},
    {-2.7791631902E-5,1.063401483632E-5,2.450224390228E-6,3.571152078783E-8},
    {-2.70413812469E-5,1.060848730686E-5,2.407210107628E-6,3.571841499857E-8},
    {-2.57815337867E-5,1.058544860347E-5,2.425333593217E-6,3.580343485039E-8},
    {-2.61744500887E-5,1.059075195641E-5,2.412888769153E-6,3.56340159604E-8},
    {-2.51780007402E-5,1.058731011602E-5,2.415286482939E-6,3.517918398745E-8},
    {-2.66137806343E-5,1.059250420312E-5,2.424410366451E-6,3.554263949862E-8},
    {-2.63876428159E-5,1.058535639159E-5,2.383991236072E-6,3.538527842239E-8},
    {-2.68565049325E-5,1.064316525951E-5,2.411366745299E-6,3.602696334557E-8},
    {-2.58067657537E-5,1.058744787774E-5,2.417807105989E-6,3.519754419576E-8},
    {-2.51906116098E-5,1.058313476127E-5,2.4128345374E-6,3.524652874601E-8}}},
  {{2.18488758727E-15,-3.7274493028E-15,3.8495075148E-13},{Residual->3.78585492501E-16}},
  {{-.5,1.00114814472E-13},{-.35,5.05476412283E-14},{-.2,1.91580637706E-14},{-.05,2.96934176886E-15},{.1,5.33208933583E-15},
   {.25,2.52663465082E-14},{.4,6.24661348661E-14}}},
 {"R32",1,
  {9.960363330383E-7,1.059919680938E-5,1.434190395407E-8,3.55421418285E-8,{{-2.33320876504E-5,1.05934108619E-5,1.841294358257E-6,
     3.559235861378E-8},
    {-2.38076044393E-5,1.058989441345E-5,1.809805444496E-6,3.533633581062E-8},
    {-2.42944254509E-5,1.063317509523E-5,1.818270385178E-6,3.562763739787E-8},
    {-2.32244538913E-5,1.058903860069E-5,1.80885100355E-6,3.603473964927E-8},
    {-2.47185252275E-5,1.059478662527E-5,1.826908673199E-6,3.507553712989E-8},
    {-2.29623609098E-5,1.059052682128E-5,1.843116058691E-6,3.5259274358E-8},
    {-2.35362621838E-5,1.062590309982E-5,1.823168108589E-6,3.584428234756E-8},
    {-2.50030830056E-5,1.06455399306E-5,1.823129118945E-6,3.592048045328E-8},
    {-2.46813439374E-5,1.059047751819E-5,1.828913115568E-6,3.487628271996E-8},
    {-2.32739856071E-5,1.058224105844E-5,1.81378327929E-6,3.481115567597E-8},
    {-2.53403251618E-5,1.062125099515E-5,1.8439773527E-6,3.546030106475E-8},
    {-2.48898109416E-5,1.059103838048E-5,1.827653746628E-6,3.568714415357E-8},
    {-2.48149491547E-5,1.05954409877E-5,1.847017735085E-6,3.508529905359E-8},
    {-2.39706687728E-5,1.058703621946E-5,1.825761300192E-6,3.615209460785E-8},
    {-2.56886301147E-5,1.06288852681E-5,1.819536181794E-6,3.620277105687E-8},
    {-2.31974462415E-5,1.059106324105E-5,1.820219391001E-6,3.546707399002E-8},
    {-2.28642451754E-5,1.05910365698E-5,1.870799916988E-6,3.549944868495E-8},
    {-2.38168689351E-5,1.058899718987E-5,1.832188971466E-6,3.502188087724E-8},
    {-2.31075181673E-5,1.057447820196E-5,1.828663707221E-6,3.6503605883E-8},
    {-2.15122592828E-5,1.057971510908E-5,1.838524250384E-6,3.538513304189E-8}}},
  {{2.77488134745E-15,8.93952148151E-15,3.33677235107E-13},{Residual->5.89517494228E-16}},
  {{-.5,8.12954774918E-14},{-.35,4.10883704651E-14},{-.2,1.50185213706E-14},{-.05,2.12036077544E-15},{.1,6.78976413071E-15},
   {.25,2.64230751119E-14},{.4,5.96157772997E-14}}},
 {"AY",1,
  {1.353507299967E-6,1.060037537474E-5,2.338240483986E-8,3.65632923341E-8,{{-2.71852680976E-5,1.0611714363E-5,2.120695989272E-6,
     3.688096623267E-8},
    {-2.59570063796E-5,1.059027854571E-5,2.145303620405E-6,3.697963343806E-8},
    {-2.91732266964E-5,1.060888381664E-5,2.124420967161E-6,3.598758584596E-8},
    {-2.74944003014E-5,1.058865861517E-5,2.102135146265E-6,3.692156691819E-8},
    {-2.61967847311E-5,1.059378131479E-5,2.148259788552E-6,3.632685399667E-8},
    {-2.94615352482E-5,1.059863596035E-5,2.117009940212E-6,3.56602602027E-8},
    {-2.74573169826E-5,1.059246257683E-5,2.114499610193E-6,3.646361473372E-8},
    {-2.82452025015E-5,1.059859495462E-5,2.105344311985E-6,3.672868144153E-8},
    {-2.86265434323E-5,1.060246893875E-5,2.104850686322E-6,3.616461828591E-8},
    {-2.69712441665E-5,1.058524653827E-5,2.080659006266E-6,3.658720163513E-8},
    {-2.59927716334E-5,1.057532653811E-5,2.112428130206E-6,3.931176592991E-8},
    {-2.9917517548E-5,1.063425755856E-5,2.088632220707E-6,3.6311214396E-8},
    {-2.71303250033E-5,1.059374401394E-5,2.082336542548E-6,3.792503174824E-8},
    {-2.80573789552E-5,1.059886423827E-5,2.074232084333E-6,3.601285275464E-8},
    {-2.93966120136E-5,1.060233479698E-5,2.128422916635E-6,3.622147605343E-8},
    {-2.56144426839E-5,1.058326196495E-5,2.160193957101E-6,3.630498650187E-8},
    {-2.77654812931E-5,1.060007708541E-5,2.139512498656E-6,3.642483292354E-8},
    {-2.89397514312E-5,1.060627481871E-5,2.14223633597E-6,3.564135828109E-8},
    {-2.8010845867E-5,1.063892774994E-5,2.099805108334E-6,3.671156312046E-8},
    {-3.04735408797E-5,1.060371310584E-5,2.11089882498E-6,3.569978224233E-8}}},
  {{-6.5146487655E-15,4.41544177476E-14,5.028753003E-12},{Residual->4.2681076335E-15}},
  {{-.3,4.34429461752E-13},{-.2,1.80935953656E-13},{-.1,4.02826680902E-14},{5.55111512313E-17,1.28835097922E-15},
   {.1,4.38743101306E-14},{.2,1.99711644406E-13},{.3,4.61925910469E-13}}},
 {"EY",1,
  {9.491395873253E-7,1.059912361211E-5,1.74282708737E-8,3.590409411586E-8,{{-3.01756838549E-5,1.061327292896E-5,2.484384245088E-6,
     3.634513615931E-8},
    {-2.80914883619E-5,1.057960982179E-5,2.492869328395E-6,3.613284669093E-8},
    {-2.91988132585E-5,1.060052465616E-5,2.474096522259E-6,3.557197929587E-8},
    {-2.90382552344E-5,1.063128328312E-5,2.473647960365E-6,3.597379687944E-8},
    {-2.93908983285E-5,1.059806745847E-5,2.47476626576E-6,3.576019768451E-8},
    {-2.72735836363E-5,1.058487554026E-5,2.469197319199E-6,3.559151344901E-8},
    {-2.86959737499E-5,1.060566336799E-5,2.483617790847E-6,3.592070975248E-8},
    {-2.8901801035E-5,1.058218380541E-5,2.45464255367E-6,3.620342918721E-8},
    {-2.77940154042E-5,1.058806606496E-5,2.456574288529E-6,3.555774001574E-8},
    {-2.98256113258E-5,1.059354201103E-5,2.531999570163E-6,3.661314699079E-8},
    {-2.73723347497E-5,1.059096306363E-5,2.48324718447E-6,3.585210340501E-8},
    {-2.84875528275E-5,1.059646203235E-5,2.512383138906E-6,3.595147140948E-8},
    {-3.02637612127E-5,1.065621228618E-5,2.482129968323E-6,3.659540311243E-8},
    {-2.73530396567E-5,1.059073506725E-5,2.46339205718E-6,3.518414374246E-8},
    {-2.81379014115E-5,1.059080172506E-5,2.477484679667E-6,3.59931027834E-8},
    {-2.81412894269E-5,1.057701959796E-5,2.481333726951E-6,3.63869821776E-8},
    {-2.87644829172E-5,1.059703076029E-5,2.474164259624E-6,3.567655088886E-8},
    {-3.04598708949E-5,1.06077371102E-5,2.476194948977E-6,3.541642402297E-8},
    {-2.90386375732E-5,1.060594588664E-5,2.468235919654E-6,3.615754522286E-8},
    {-2.95649042152E-5,1.059247577443E-5,2.464176653215E-6,3.519765944675E-8}}},
  {{1.93378260765E-15,-1.5234471056E-15,3.91551785971E-13},{Residual->3.64228281657E-16}},
  {{-.3,3.74126881871E-14},{-.2,1.83038496488E-14},{-.1,6.19656583929E-15},{5.55111512313E-17,1.3041158643E-15},
   {.1,5.65020955114E-15},{.2,1.77841794532E-14},{.3,3.65193697818E-14}}},
 {"R32",1,
  {8.909050610152E-7,1.060866893284E-5,2.086093947586E-8,3.533614169321E-8,{{-2.98601935106E-5,1.060724821115E-5,2.277014949116E-6,
     3.511529092623E-8},
    {-2.91787451061E-5,1.061436753908E-5,2.267882303628E-6,3.586596107467E-8},
    {-3.05813265045E-5,1.063012176926E-5,2.254679088597E-6,3.521006820018E-8},
    {-2.823220709E-5,1.059738864346E-5,2.270709044219E-6,3.457959263537E-8},
    {-2.73500196116E-5,1.060193592094E-5,2.232584405162E-6,3.580650612644E-8},
    {-2.81176843223E-5,1.060865290032E-5,2.256096527583E-6,3.599094945241E-8},
    {-2.9895184764E-5,1.062737559769E-5,2.254388443676E-6,3.532739807632E-8},
    {-2.77473450693E-5,1.059514572875E-5,2.232751043697E-6,3.506905691444E-8},
    {-2.85917136703E-5,1.05995178084E-5,2.238699323907E-6,3.504083340786E-8},
    {-2.95104151415E-5,1.060485901757E-5,2.20902478551E-6,3.485173765484E-8},
    {-2.93221419007E-5,1.06047298439E-5,2.223076309187E-6,3.492736754032E-8},
    {-2.87417983169E-5,1.061088374173E-5,2.249327856966E-6,3.580432756086E-8},
    {-2.78410008818E-5,1.060028169949E-5,2.272873784613E-6,3.617188570073E-8},
    {-2.88093816444E-5,1.061437492765E-5,2.242668960253E-6,3.541311633339E-8},
    {-2.91464196999E-5,1.060764734825E-5,2.243957126056E-6,3.506663207494E-8},
    {-2.73535302038E-5,1.062951399234E-5,2.272535386279E-6,3.648755795564E-8},
    {-2.79455429878E-5,1.059552490651E-5,2.255510032415E-6,3.44276103659E-8},
    {-2.81365393144E-5,1.059919246102E-5,2.222595940099E-6,3.507912933523E-8},
    {-2.80941401876E-5,1.059689315137E-5,2.296150941039E-6,3.479505290549E-8},
    {-2.76256819845E-5,1.062772344787E-5,2.254106996491E-6,3.569275962304E-8}}},
  {{2.15922816827E-15,-3.3675713297E-15,3.47114254525E-13},{Residual->4.54908750546E-16}},
  {{-.3,3.40895997768E-14},{-.2,1.72687013074E-14},{-.1,6.26978962504E-15},{5.55111512313E-17,1.30063411258E-15},
   {.1,5.34227862014E-15},{.2,1.58022417824E-14},{.3,3.22333432206E-14}}},
 {"Y24",1,
  {7.448124057731E-7,1.059509996598E-5,2.001283365868E-8,3.534522180469E-8,{{-2.72481108837E-5,1.060257222153E-5,1.948287861945E-6,
     3.568336772583E-8},
    {-2.59883104832E-5,1.058120230326E-5,1.896541798076E-6,3.474251187592E-8},
    {-2.71729984166E-5,1.060285923829E-5,1.919625145127E-6,3.56838286792E-8},
    {-2.70854550875E-5,1.059282120943E-5,1.914161148754E-6,3.526126240043E-8},
    {-2.6724497697E-5,1.059721604948E-5,1.886527557156E-6,3.525214144401E-8},
    {-2.77024010822E-5,1.060485026787E-5,1.970682287018E-6,3.535756049341E-8},
    {-2.62394189062E-5,1.057723392976E-5,1.92540898381E-6,3.55814591257E-8},
    {-2.74127375073E-5,1.059385011143E-5,1.898645545617E-6,3.46174088119E-8},
    {-2.68036352634E-5,1.05850502703E-5,1.92041771152E-6,3.476578564916E-8},
    {-2.6728979452E-5,1.059418849393E-5,1.918110767273E-6,3.61356083193E-8},
    {-2.73806104419E-5,1.059329966773E-5,1.95795659225E-6,3.490593169216E-8},
    {-2.72295699465E-5,1.060203537332E-5,1.940178309013E-6,3.555932910938E-8},
    {-2.76372778609E-5,1.06375430783E-5,1.918626905037E-6,3.649579717167E-8},
    {-2.72832681031E-5,1.060261481779E-5,1.928362761971E-6,3.56230544633E-8},
    {-2.65052903978E-5,1.05790087786E-5,1.905179602008E-6,3.493027012527E-8},
    {-2.69929286414E-5,1.060033873673E-5,1.921123418542E-6,3.527787586266E-8},
    {-2.72113521367E-5,1.058764797313E-5,1.908092985841E-6,3.475433440944E-8},
    {-2.81645452592E-5,1.060323956643E-5,1.909949280216E-6,3.608038641896E-8},
    {-2.6289595414E-5,1.059164692043E-5,1.910951972846E-6,3.501579840096E-8},
    {-2.45836534728E-5,1.057278031178E-5,1.920049348304E-6,3.518072391505E-8}}},
  {{-6.0490023289E-16,2.44998662642E-15,2.24750000826E-14},{Residual->1.36255270632E-15}},
  {{-1.5,4.7461205845E-14},{-1.2,2.66543288682E-14},{-.9,1.49721509096E-14},{-.6,5.97148466687E-15},{-.3,2.30277004938E-15},
   {0,1.25188293896E-15},{.3,2.30197615359E-15},{.6,7.40562583684E-15},{.9,1.86450926886E-14},{1.2,3.35238119057E-14},
   {1.5,5.5358268393E-14}}},
 {"Y46",1,
  {1.115205936519E-6,1.059568871959E-5,1.755254045244E-8,3.504643519753E-8,{{-2.68608333357E-5,1.059869566842E-5,1.952245255573E-6,
     3.555329530491E-8},
    {-2.66588803157E-5,1.058801073718E-5,1.885351580789E-6,3.515353948882E-8},
    {-2.71927162652E-5,1.059025142819E-5,1.913357324025E-6,3.496516914307E-8},
    {-2.8817138226E-5,1.06163993586E-5,1.933599718215E-6,3.49836336989E-8},
    {-2.42540175944E-5,1.057974896267E-5,1.895355411678E-6,3.465108975871E-8},
    {-2.78263782077E-5,1.059848667792E-5,1.928091887164E-6,3.488255533896E-8},
    {-2.67108175229E-5,1.060151417211E-5,1.916743414178E-6,3.655748214082E-8},
    {-2.78642488837E-5,1.060683701867E-5,1.938755597473E-6,3.542347008122E-8},
    {-2.83780293367E-5,1.060009168638E-5,1.939818477051E-6,3.453721615752E-8},
    {-2.62059375566E-5,1.059457957264E-5,1.917271900017E-6,3.476142155808E-8},
    {-2.69100481112E-5,1.059038230625E-5,1.909648805055E-6,3.494303631867E-8},
    {-2.76690765316E-5,1.059815131807E-5,1.906977180239E-6,3.491918397385E-8},
    {-2.59225567507E-5,1.059507451271E-5,1.942751320489E-6,3.539443756857E-8},
    {-2.76010236465E-5,1.059430535448E-5,1.919952084974E-6,3.471929909354E-8},
    {-2.72370165909E-5,1.05979940608E-5,1.925880574419E-6,3.430430122161E-8},
    {-2.76803277311E-5,1.059953160653E-5,1.949480294293E-6,3.468169210874E-8},
    {-2.71207447318E-5,1.059598013664E-5,1.946136069415E-6,3.456536473337E-8},
    {-2.70618314601E-5,1.058477432019E-5,1.934010029428E-6,3.479369287527E-8},
    {-2.7741247405E-5,1.059647118105E-5,1.921351810735E-6,3.489933157063E-8},
    {-2.44016607849E-5,1.058649431223E-5,1.911685982802E-6,3.623949181542E-8}}},
  {{1.10376467077E-15,1.63028292514E-15,9.59209047143E-15},{Residual->1.51076900249E-16}},
  {{-1,9.2735365014E-15},{-.8,5.76680447123E-15},{-.6,3.33036112096E-15},{-.4,1.98393576718E-15},{-.2,1.38773689241E-15},
   {0,1.2344756668E-15},{.2,1.7286131512E-15},{.4,3.15290221519E-15},{.6,5.58334306026E-15},{.8,8.66113325833E-15},
   {1,1.22437673478E-14}}},
 {"Y22",1,
  {7.80063832463E-7,1.059369280006E-5,2.267378750964E-8,3.535668260409E-8,{{-2.73779385775E-5,1.058692935007E-5,1.885943407129E-6,
     3.518486411399E-8},
    {-2.79559155908E-5,1.060393634758E-5,1.932039852007E-6,3.5235862251E-8},
    {-2.64187029138E-5,1.059167686351E-5,1.924810492651E-6,3.546459762245E-8},
    {-2.68391975608E-5,1.058635530453E-5,1.92034784894E-6,3.458500368166E-8},
    {-2.67722023508E-5,1.059774102313E-5,1.974780499197E-6,3.526461901136E-8},
    {-2.75673972431E-5,1.059212669539E-5,1.93777987053E-6,3.523507501334E-8},
    {-2.72680380478E-5,1.060534954529E-5,1.913091664904E-6,3.615047527237E-8},
    {-2.71997799987E-5,1.059752348634E-5,1.915764966685E-6,3.455505957992E-8},
    {-2.79764161551E-5,1.05972568435E-5,1.94024920652E-6,3.514809801996E-8},
    {-2.62045023189E-5,1.058594517896E-5,1.966567127917E-6,3.528954764956E-8},
    {-2.66857231089E-5,1.058585479465E-5,1.917474651015E-6,3.4789956485E-8},
    {-2.67537269812E-5,1.060018293184E-5,1.913723118017E-6,3.673170714059E-8},
    {-2.68150296495E-5,1.059844973084E-5,1.913337429951E-6,3.539185498454E-8},
    {-2.6388020989E-5,1.059122780603E-5,1.936112242444E-6,3.516943937409E-8},
    {-2.68753658871E-5,1.059118331179E-5,1.913145707106E-6,3.510877540028E-8},
    {-2.58184251627E-5,1.057606414633E-5,1.931423360615E-6,3.500307412525E-8},
    {-2.65079079744E-5,1.059280572202E-5,1.899460577718E-6,3.500183562218E-8},
    {-2.75611722079E-5,1.059021319549E-5,1.925160141414E-6,3.545511887826E-8},
    {-2.88182845572E-5,1.061239535928E-5,1.956232595155E-6,3.518562465345E-8},
    {-2.87800537081E-5,1.059063836465E-5,1.884951035796E-6,3.718306320251E-8}}},
  {{4.58351363082E-15,2.13080155863E-14,6.69687434631E-13},{Residual->2.5435392892E-15}},
  {{-.6,2.30161020717E-13},{-.4,1.06566623221E-13},{-.2,3.03258346724E-14},{1.11022302463E-16,1.26433962552E-15},
   {.2,3.36057131125E-14},{.4,1.20971655127E-13},{.6,2.59239335727E-13}}},
 {"Y26",1,
  {1.049786529942E-6,1.059938993358E-5,2.026834790164E-8,3.544582863173E-8,{{-2.67049348784E-5,1.058683710478E-5,1.94023488507E-6,
     3.501504265062E-8},
    {-2.57925613914E-5,1.05933286574E-5,1.951894071966E-6,3.557437098158E-8},
    {-2.48143399252E-5,1.057962314796E-5,1.916939369476E-6,3.529568992464E-8},
    {-2.70613068368E-5,1.059382434901E-5,1.930550929938E-6,3.522333035867E-8},
    {-2.70037722772E-5,1.059602006556E-5,1.922203779302E-6,3.501073668506E-8},
    {-2.85389025559E-5,1.061050010052E-5,1.951593132528E-6,3.507687609067E-8},
    {-2.67038790064E-5,1.059882264983E-5,1.939099814163E-6,3.421194840636E-8},
    {-2.58509764536E-5,1.059288617499E-5,1.920624360374E-6,3.465339729377E-8},
    {-2.87980976245E-5,1.059814674806E-5,1.922899760734E-6,3.459605129798E-8},
    {-2.68083466977E-5,1.059683963491E-5,1.913931196631E-6,3.501329333829E-8},
    {-2.52642782725E-5,1.058914103477E-5,1.925420970803E-6,3.528602115531E-8},
    {-2.64549612967E-5,1.058716804445E-5,1.911682644651E-6,3.528398746884E-8},
    {-2.62314649285E-5,1.060126977513E-5,1.90511558546E-6,3.544889086368E-8},
    {-2.80648509178E-5,1.06188263895E-5,1.948252006946E-6,3.54113671475E-8},
    {-2.79266826574E-5,1.060034372611E-5,1.882379461635E-6,3.495217386178E-8},
    {-2.7244122815E-5,1.060483513412E-5,1.927445511142E-6,3.624123760104E-8},
    {-2.77768923803E-5,1.062281891739E-5,1.931490788362E-6,3.540111183115E-8},
    {-2.54008629669E-5,1.059361631396E-5,1.920441809932E-6,3.621299079987E-8},
    {-2.72320442691E-5,1.061502064847E-5,1.982909080088E-6,3.938882516514E-8},
    {-2.71227541778E-5,1.060793005471E-5,1.925239535882E-6,3.561922971254E-8}}},
  {{2.00527440295E-15,-1.7950891642E-14,4.79583326103E-13},{Residual->5.32855953082E-16}},
  {{-.6,1.84954576425E-13},{-.4,8.63911298164E-14},{-.2,2.55289951184E-14},{1.11022302463E-16,1.24861166466E-15},
   {.2,1.77139508723E-14},{.4,7.10629065167E-14},{.6,1.64270075642E-13}}},
 {"Y66",1,
  {9.050069553823E-7,1.059946660451E-5,2.351382466958E-8,3.564828294314E-8,{{-2.69527567643E-5,1.058616407218E-5,1.899958366046E-6,
     3.460026516987E-8},
    {-2.66047696081E-5,1.059357327971E-5,1.920159928697E-6,3.646495716893E-8},
    {-2.6615076054E-5,1.060384448408E-5,1.947974258963E-6,3.870263599815E-8},
    {-2.8029693096E-5,1.06119878042E-5,1.906242540198E-6,3.526386413933E-8},
    {-2.74469158782E-5,1.06016485208E-5,1.911500550917E-6,3.470492983167E-8},
    {-2.91558711841E-5,1.067327092285E-5,1.985617383683E-6,3.627139645759E-8},
    {-2.65230279756E-5,1.059006337262E-5,1.926160663766E-6,3.503448195877E-8},
    {-2.58677850867E-5,1.059409672675E-5,1.905411492797E-6,3.606733500982E-8},
    {-2.72029411053E-5,1.060656899785E-5,1.939044820223E-6,3.644650221118E-8},
    {-2.78055362828E-5,1.05991925936E-5,1.93943083094E-6,3.498585435667E-8},
    {-2.68096910685E-5,1.059964998061E-5,1.926216918635E-6,3.586004602909E-8},
    {-2.74020756156E-5,1.058918425136E-5,1.89713114346E-6,3.581135367967E-8},
    {-2.52419638244E-5,1.058588618008E-5,1.926217098852E-6,3.517367326198E-8},
    {-2.57695608621E-5,1.05869158142E-5,1.947636715482E-6,3.523929703302E-8},
    {-2.69427536132E-5,1.059734394381E-5,1.951383427735E-6,3.536911226597E-8},
    {-2.83795618904E-5,1.060839663816E-5,1.919053014522E-6,3.56501210866E-8},
    {-2.78585992222E-5,1.060659358999E-5,1.954232624441E-6,3.556489917484E-8},
    {-2.70227939903E-5,1.058575816571E-5,1.943575373994E-6,3.449586858152E-8},
    {-2.70075112196E-5,1.05866413339E-5,1.885339176642E-6,3.615176728178E-8},
    {-2.62518319355E-5,1.058255141785E-5,1.911560736322E-6,3.510729816631E-8}}},
  {{9.88936584603E-15,1.03862085814E-14,2.78315893452E-11},{Residual->1.09213196003E-14}},
  {{-.2,1.11635530542E-12},{-.15,6.5211264565E-13},{-.1,2.79552609844E-13},{-.05,7.08220465593E-14},{0,1.2520252873E-15},
   {.05,8.05252634596E-14},{.1,2.98126856411E-13},{.15,6.53917692723E-13},{.2,1.11107824904E-12}}},
 {"Y44",1,
  {1.109570796944E-6,1.05990548954E-5,1.955874309284E-8,3.536156004065E-8,{{-2.73642691037E-5,1.058444861817E-5,1.899983465085E-6,
     3.564405757608E-8},
    {-2.74208213277E-5,1.059867852136E-5,1.940521301733E-6,3.528369559978E-8},
    {-2.48943002704E-5,1.058378107495E-5,1.901278503525E-6,3.53114016583E-8},
    {-2.73566022499E-5,1.059043579608E-5,1.909842606221E-6,3.518861895917E-8},
    {-2.53113982346E-5,1.058228431058E-5,1.924112076767E-6,3.601773156463E-8},
    {-2.57753445033E-5,1.058509026826E-5,1.893411347957E-6,3.509935972108E-8},
    {-2.65318288127E-5,1.058960458246E-5,1.93238987908E-6,3.49945430017E-8},
    {-2.79011109166E-5,1.059378503263E-5,1.91009106279E-6,3.525271719534E-8},
    {-2.80276868195E-5,1.060222182765E-5,1.886744316073E-6,3.502447247164E-8},
    {-2.75081796354E-5,1.059828033609E-5,1.899829818846E-6,3.420155395164E-8},
    {-2.7173998641E-5,1.059223002626E-5,1.909971749677E-6,3.44751309518E-8},
    {-2.74950700099E-5,1.062306817602E-5,1.928293004014E-6,3.675566073451E-8},
    {-2.76496734197E-5,1.05950068431E-5,1.898471284219E-6,3.485193618629E-8},
    {-2.71425390468E-5,1.063068469183E-5,1.897628869592E-6,3.564495854901E-8},
    {-2.8545485288E-5,1.061113870921E-5,1.94489812334E-6,3.68091362422E-8},
    {-2.75886206952E-5,1.063483656707E-5,1.917263117828E-6,3.574811974623E-8},
    {-2.91391642813E-5,1.061261544672E-5,1.960562730803E-6,3.545909746214E-8},
    {-2.68519471312E-5,1.059630942784E-5,1.920041113965E-6,3.512213899212E-8},
    {-2.62856921434E-5,1.058953445501E-5,1.942866485529E-6,3.551208087749E-8},
    {-2.48717934285E-5,1.058706319666E-5,1.929692309135E-6,3.48347893719E-8}}},
  {{2.12182342507E-15,9.40256141379E-15,1.99121752036E-13},{Residual->5.8316729263E-16}},
  {{-.6,6.78212039614E-14},{-.4,3.04277051429E-14},{-.2,9.23173510039E-15},{1.11022302463E-16,1.24121300016E-15},
   {.2,1.15251544534E-14},{.4,3.81863970584E-14},{.6,7.94357175392E-14}}},
 {"AY",1,
  {9.415855987495E-7,1.059887228564E-5,1.870531935011E-8,3.566424829538E-8,{{-2.68342892559E-5,1.059749875451E-5,1.922715333451E-6,
     3.486951002111E-8},
    {-2.72997623163E-5,1.05954349167E-5,1.91806897535E-6,3.518492074956E-8},
    {-2.58145081403E-5,1.059404597691E-5,1.892179440003E-6,3.521859266846E-8},
    {-2.74384841789E-5,1.060720416816E-5,1.893542606801E-6,3.588642321595E-8},
    {-2.68052351346E-5,1.060192896583E-5,1.923121093338E-6,3.642588883243E-8},
    {-2.62552800406E-5,1.058985411443E-5,1.90482644351E-6,3.575192073737E-8},
    {-2.76963485173E-5,1.061889817099E-5,1.927424139452E-6,3.585493761954E-8},
    {-2.79010140559E-5,1.060868539933E-5,1.927808925939E-6,3.532003594375E-8},
    {-2.54013376519E-5,1.059129697E-5,1.914472003994E-6,3.58320515764E-8},
    {-2.74274371028E-5,1.060166041591E-5,1.923555802278E-6,3.670082282022E-8},
    {-2.6702754945E-5,1.058590902393E-5,1.945605877839E-6,3.51592759103E-8},
    {-2.89533559446E-5,1.060477329682E-5,1.896601716996E-6,3.465052071484E-8},
    {-2.82730349541E-5,1.060891611222E-5,1.974508551238E-6,3.611038350445E-8},
    {-2.71055488167E-5,1.063523624561E-5,1.923064167807E-6,3.628740004773E-8},
    {-2.6978726231E-5,1.060194472927E-5,1.920985936536E-6,3.530352766852E-8},
    {-2.6973847635E-5,1.058630457267E-5,1.930630685635E-6,3.70800227542E-8},
    {-2.56465394989E-5,1.058644711884E-5,1.939728219697E-6,3.571461125985E-8},
    {-2.58748786068E-5,1.059396425902E-5,1.909587154098E-6,3.593703262442E-8},
    {-2.66184384698E-5,1.058729311747E-5,1.939383100161E-6,3.484532098319E-8},
    {-2.52736661688E-5,1.058014938426E-5,1.914392380749E-6,3.515176625539E-8}}},
  {{-3.5006276729E-16,2.45389553057E-14,4.14973561878E-12},{Residual->1.1958049665E-15}},
  {{-.1,3.95776721794E-14},{-.07,1.64714710348E-14},{-.04,5.19067669443E-15},{-.01,1.48287791223E-15},{.02,2.19454071499E-15},
   {.05,9.60898459614E-15},{.08,2.87837631521E-14}}},
 {"EY",1,
  {7.886712074189E-7,1.060153209465E-5,1.606580535277E-8,3.54667241462E-8,{{-2.58075984532E-5,1.059525033395E-5,1.83889004373E-6,
     3.473704536443E-8},
    {-2.61340827658E-5,1.060659360814E-5,1.813113592681E-6,3.527094331443E-8},
    {-2.56913278805E-5,1.06032911111E-5,1.829859680509E-6,3.534329364342E-8},
    {-2.40629657617E-5,1.058521008347E-5,1.83368476619E-6,3.46538857556E-8},
    {-2.4168068267E-5,1.059084179456E-5,1.839654292443E-6,3.490942639199E-8},
    {-2.46861403709E-5,1.060417803391E-5,1.828640627498E-6,3.752597173823E-8},
    {-2.65181028881E-5,1.061423666003E-5,1.83504387688E-6,3.592183020971E-8},
    {-2.50363619099E-5,1.060035967049E-5,1.819667163293E-6,3.588144407897E-8},
    {-2.48728654088E-5,1.0593844313E-5,1.798509114417E-6,3.561156348776E-8},
    {-2.67557196541E-5,1.060956382826E-5,1.850089841593E-6,3.587352732382E-8},
    {-2.59897670252E-5,1.05964634133E-5,1.816370130591E-6,3.515414242642E-8},
    {-2.50500208983E-5,1.058399725957E-5,1.810451511057E-6,3.501333017599E-8},
    {-2.60688018319E-5,1.061514346368E-5,1.853634524102E-6,3.5188811056E-8},
    {-2.57069095904E-5,1.060623947694E-5,1.804782699621E-6,3.555110988377E-8},
    {-2.54777189891E-5,1.060875017291E-5,1.841900933853E-6,3.613547252938E-8},
    {-2.50573494835E-5,1.058796295352E-5,1.796080553967E-6,3.527266935364E-8},
    {-2.69288431547E-5,1.061713409117E-5,1.838647591955E-6,3.507553303471E-8},
    {-2.65785175013E-5,1.060752582562E-5,1.811174155406E-6,3.555071987493E-8},
    {-2.52620222596E-5,1.060442943777E-5,1.820826149537E-6,3.566216119644E-8},
    {-2.54521323042E-5,1.059962636161E-5,1.821969599813E-6,3.500160208445E-8}}},
  {{1.34744191534E-15,4.74896616349E-15,4.78271421354E-13},{Residual->4.92922189041E-17}},
  {{-.1,5.60305989262E-15},{-.07,3.44172229706E-15},{-.04,1.95257791105E-15},{-.01,1.28155051064E-15},{.02,1.60446806737E-15},
   {.05,2.81564491641E-15},{.08,4.78787199381E-15}}},
 {"R32",1,
  {8.856753524719E-7,1.060777964104E-5,1.704226661748E-8,3.603026115139E-8,{{-2.63107513013E-5,1.062748625324E-5,1.668097841161E-6,
     3.560452368642E-8},
    {-2.65384376679E-5,1.059381473941E-5,1.664431061386E-6,3.611581233687E-8},
    {-2.7913304364E-5,1.060724678032E-5,1.667456594732E-6,3.469517982151E-8},
    {-2.65575263641E-5,1.061429769805E-5,1.667400694191E-6,3.767791095273E-8},
    {-2.52849847145E-5,1.059101963927E-5,1.641622957581E-6,3.589380339638E-8},
    {-2.55835608088E-5,1.059343159921E-5,1.637343500728E-6,3.461627693228E-8},
    {-2.48460130202E-5,1.060117375222E-5,1.664214453886E-6,3.636133733685E-8},
    {-2.65731781386E-5,1.059740238096E-5,1.650701764932E-6,3.512432846325E-8},
    {-2.42445111436E-5,1.060224278593E-5,1.664431482784E-6,3.714913272654E-8},
    {-2.65524893306E-5,1.06230241025E-5,1.657764559329E-6,3.564398904951E-8},
    {-2.57503589984E-5,1.05973185559E-5,1.681511195656E-6,3.481669183162E-8},
    {-2.59191862003E-5,1.063891427864E-5,1.642125379223E-6,3.7080154216E-8},
    {-2.45377674237E-5,1.059905405229E-5,1.674737165312E-6,3.592441699078E-8},
    {-2.74991915233E-5,1.063139403346E-5,1.655089119215E-6,3.537338068674E-8},
    {-2.68815052857E-5,1.062074513318E-5,1.685750222491E-6,3.701489085337E-8},
    {-2.61896687918E-5,1.060760649615E-5,1.687026543952E-6,3.540489058136E-8},
    {-2.57704527508E-5,1.060350898888E-5,1.673248485744E-6,3.548136720162E-8},
    {-2.63891738102E-5,1.060800815117E-5,1.668095115581E-6,3.915832570348E-8},
    {-2.6368432635E-5,1.059471488377E-5,1.658877249272E-6,3.595769316718E-8},
    {-2.64807261005E-5,1.060318851626E-5,1.615216527017E-6,3.551111709329E-8}}},
  {{1.41298274019E-15,-5.9326855581E-16,4.55566603051E-13},{Residual->8.75631741861E-17}},
  {{-.1,5.93113992016E-15},{-.07,3.79701286103E-15},{-.04,2.28233038818E-15},{-.01,1.38065836782E-15},{.02,1.4848090417E-15},
   {.05,2.5337949502E-15},{.08,4.32183747016E-15}}},
 {"Y24",1,
  {1.448665830144E-6,1.060240020566E-5,1.774523475487E-8,3.559326210489E-8,{{-2.40262730902E-5,1.058093434373E-5,1.50187459872E-6,
     3.496402483892E-8},
    {-2.70714985888E-5,1.064238772249E-5,1.487308496168E-6,3.586319311601E-8},
    {-2.52506572039E-5,1.058740147312E-5,1.496032737903E-6,3.482875845199E-8},
    {-2.71817424668E-5,1.06104513317E-5,1.451390745995E-6,3.516472026851E-8},
    {-2.31915998495E-5,1.057407798751E-5,1.465790691774E-6,3.546551954442E-8},
    {-2.43477809415E-5,1.058460227696E-5,1.46376828568E-6,3.577337939022E-8},
    {-2.41774433928E-5,1.057975484832E-5,1.476740005747E-6,3.506845567206E-8},
    {-2.53512399419E-5,1.060271965492E-5,1.482052185543E-6,3.680471959841E-8},
    {-2.75620924129E-5,1.06011932591E-5,1.461576853934E-6,3.487531523041E-8},
    {-2.35780824935E-5,1.058467799188E-5,1.480494446129E-6,3.517261780411E-8},
    {-2.63854584215E-5,1.060162979645E-5,1.459934287285E-6,3.524611809551E-8},
    {-2.41394610293E-5,1.058015765533E-5,1.420043876869E-6,3.516173641779E-8},
    {-2.74155159484E-5,1.061568431859E-5,1.455320932415E-6,3.580495811947E-8},
    {-2.58770525261E-5,1.059918044172E-5,1.469728377382E-6,3.512801626791E-8},
    {-2.46043908325E-5,1.059774931886E-5,1.470968190249E-6,3.549796751412E-8},
    {-2.42594445895E-5,1.061087389051E-5,1.473910863243E-6,3.694056463596E-8},
    {-2.70766046293E-5,1.061129506088E-5,1.492200450639E-6,3.578147139377E-8},
    {-2.35539555333E-5,1.058702699582E-5,1.456850503436E-6,3.515553421527E-8},
    {-2.53629009123E-5,1.064839624886E-5,1.473022152746E-6,3.65368604717E-8},
    {-2.73024766038E-5,1.064780949645E-5,1.464796675052E-6,3.663131105132E-8}}},
  {{1.28695027479E-15,-6.9353928779E-16,1.0872397147E-14},{Residual->1.25199581438E-17}},
  {{-.3,2.47281664602E-15},{-.2,1.8727168257E-15},{-.1,1.44926009688E-15},{5.55111512313E-17,1.2740364555E-15},
   {.1,1.34870954462E-15},{.2,1.583626532E-15},{.3,2.05175702397E-15}}},
 {"Y46",1,
  {1.031178421616E-6,1.061000725595E-5,2.004706346104E-8,3.50416600077E-8,{{-2.39028092253E-5,1.05891565148E-5,1.468703581448E-6,
     3.523108948635E-8},
    {-2.77822418073E-5,1.066298210266E-5,1.471872343232E-6,3.64145408978E-8},
    {-2.569029167E-5,1.060888625469E-5,1.443321599888E-6,3.494792065393E-8},
    {-2.4958137284E-5,1.059524760123E-5,1.447440950813E-6,3.517786973495E-8},
    {-2.47521024765E-5,1.059503997589E-5,1.494636718456E-6,3.565218669813E-8},
    {-2.6216302189E-5,1.059877351887E-5,1.486151319702E-6,3.402658057873E-8},
    {-2.74477290764E-5,1.063264391564E-5,1.466785700682E-6,3.504604019702E-8},
    {-2.52605691979E-5,1.061688884692E-5,1.455811141498E-6,3.557969580552E-8},
    {-2.56987522352E-5,1.060927964234E-5,1.471958664394E-6,3.521778966494E-8},
    {-2.5470840963E-5,1.059886179934E-5,1.423150387827E-6,3.504221249495E-8},
    {-2.6116742906E-5,1.061424722663E-5,1.491855122816E-6,3.46961835602E-8},
    {-2.64940780853E-5,1.061225507368E-5,1.482356055768E-6,3.444277668379E-8},
    {-2.53132407525E-5,1.062514979745E-5,1.49325085406E-6,3.561527516042E-8},
    {-2.3910418816E-5,1.059003657959E-5,1.471962817757E-6,3.482919523712E-8},
    {-2.6869658381E-5,1.060818647032E-5,1.45156756319E-6,3.40858527733E-8},
    {-2.60769736327E-5,1.06106578049E-5,1.447434401394E-6,3.50112725677E-8},
    {-2.6065075029E-5,1.06073237992E-5,1.457507700666E-6,3.45992448622E-8},
    {-2.60828997548E-5,1.062472758435E-5,1.472246148931E-6,3.51066587835E-8},
    {-2.42821487876E-5,1.05977563208E-5,1.468552586399E-6,3.513599278842E-8},
    {-2.48288767588E-5,1.060204428962E-5,1.507164799896E-6,3.497482152509E-8}}},
  {{1.26336076004E-15,1.35362372959E-15,8.10420049373E-15},{Residual->5.87780956768E-17}},
  {{-.45,2.2609723803E-15},{-.3,1.58714202968E-15},{-.15,1.32804156012E-15},{-5.5511151231E-17,1.27705262713E-15},
   {.15,1.60586521891E-15},{.3,2.30569623972E-15},{.45,3.58440157544E-15}}},
 {"Y22",1,
  {1.065001258064E-6,1.060772025313E-5,1.747058263155E-8,3.523923312612E-8,{{-2.64110313903E-5,1.06214844712E-5,1.501162724084E-6,
     3.739941535925E-8},
    {-2.71819144609E-5,1.061131364145E-5,1.457866020374E-6,3.41779569508E-8},
    {-2.52623404653E-5,1.060171566064E-5,1.468628379801E-6,3.420208263538E-8},
    {-2.66814251367E-5,1.0608717101E-5,1.459891815508E-6,3.457144249259E-8},
    {-2.53308613637E-5,1.059783830713E-5,1.470655951065E-6,3.466686927034E-8},
    {-2.55660336327E-5,1.060257032991E-5,1.469253739019E-6,3.503212464732E-8},
    {-2.37236248281E-5,1.059768091077E-5,1.496795202806E-6,3.526934649253E-8},
    {-2.59294910348E-5,1.064813253712E-5,1.467698649889E-6,3.555410475354E-8},
    {-2.43219938435E-5,1.060498576329E-5,1.479055908291E-6,3.622455724964E-8},
    {-2.48530737763E-5,1.059000029102E-5,1.498308372728E-6,3.484680294371E-8},
    {-2.31267073809E-5,1.058068249643E-5,1.442627621356E-6,3.561530391948E-8},
    {-2.62187249999E-5,1.061744258682E-5,1.512659660807E-6,3.604682673679E-8},
    {-2.57939414775E-5,1.060052165661E-5,1.470042947119E-6,3.586927272767E-8},
    {-2.61533289083E-5,1.060775415404E-5,1.492092616062E-6,3.509519780489E-8},
    {-2.56195782113E-5,1.06040421428E-5,1.471663198083E-6,3.472130173778E-8},
    {-2.48780012961E-5,1.062310198059E-5,1.483549523495E-6,3.560185314082E-8},
    {-2.52135875506E-5,1.061430736427E-5,1.484686434014E-6,3.599135876938E-8},
    {-2.60079642064E-5,1.060571815468E-5,1.452618166421E-6,3.51897324145E-8},
    {-2.56357747204E-5,1.060997042911E-5,1.467876694378E-6,3.491588484435E-8},
    {-2.77609382511E-5,1.060642508377E-5,1.491746196927E-6,3.379322763158E-8}}},
  {{6.52509602263E-15,3.6338772617E-14,6.53924419238E-13},{Residual->4.49211185081E-15}},
  {{-.6,2.1569813839E-13},{-.4,1.02192573984E-13},{-.2,3.06716872731E-14},{1.11022302463E-16,1.22804414977E-15},
   {.2,3.50932444233E-14},{.4,1.29006867809E-13},{.6,2.64180465675E-13}}},
 {"Y26",1,
  {1.425180500261E-6,1.061082207106E-5,1.6547660302E-8,3.508325879266E-8,{{-2.66322099698E-5,1.059162642201E-5,1.444346596523E-6,
     3.592879046791E-8},
    {-2.48983074211E-5,1.059498721742E-5,1.481993507681E-6,3.464412951641E-8},
    {-2.58774669971E-5,1.060236152673E-5,1.434023335958E-6,3.388333281699E-8},
    {-2.27662062949E-5,1.058944057543E-5,1.45973138236E-6,3.490189426809E-8},
    {-2.7536176737E-5,1.062036278072E-5,1.481029679559E-6,3.456795338849E-8},
    {-2.79076017384E-5,1.06088923039E-5,1.446033015507E-6,3.396190474792E-8},
    {-2.56950431954E-5,1.060617069959E-5,1.454034762496E-6,3.448273460723E-8},
    {-2.33045232946E-5,1.060091540407E-5,1.488954188645E-6,3.582292126273E-8},
    {-2.72603669832E-5,1.06077393709E-5,1.46698911685E-6,3.423602711436E-8},
    {-2.46577225088E-5,1.061510427878E-5,1.484223270003E-6,3.542319789623E-8},
    {-2.57327139843E-5,1.065285525883E-5,1.453864823312E-6,3.582686116119E-8},
    {-2.58994759458E-5,1.060583543294E-5,1.436165299968E-6,3.53089893514E-8},
    {-2.32851316416E-5,1.058846309525E-5,1.457309709753E-6,3.442594305464E-8},
    {-2.39073405759E-5,1.063024024006E-5,1.466603723209E-6,3.658163383584E-8},
    {-2.57231786336E-5,1.063515198018E-5,1.471721284621E-6,3.522396575435E-8},
    {-2.74612447181E-5,1.062378961622E-5,1.460495349281E-6,3.451286593076E-8},
    {-2.46057425626E-5,1.060141965443E-5,1.483000618526E-6,3.494885976718E-8},
    {-2.57196512141E-5,1.059296869739E-5,1.4743946483E-6,3.438497934844E-8},
    {-2.48862644212E-5,1.061460206565E-5,1.488808147994E-6,3.704859037409E-8},
    {-2.53816585702E-5,1.063351480069E-5,1.459505386397E-6,3.554960118905E-8}}},
  {{1.40035521939E-15,-2.0742202481E-14,4.94647157791E-13},{Residual->1.60387554509E-16}},
  {{-.3,5.2266011922E-14},{-.2,2.51694786622E-14},{-.1,8.41056132614E-15},{5.55111512313E-17,1.2402550166E-15},
   {.1,4.59657876896E-15},{.2,1.69896063641E-14},{.3,3.96311986573E-14}}},
 {"Y66",1,
  {9.050816527521E-7,1.060232673507E-5,2.186857462479E-8,3.506489120576E-8,{{-2.43489992802E-5,1.059634412024E-5,1.47256104918E-6,
     3.566053547395E-8},
    {-2.46238945183E-5,1.060124315122E-5,1.489882168314E-6,3.474098284598E-8},
    {-2.52572219446E-5,1.061161170068E-5,1.476726359724E-6,3.565206589122E-8},
    {-2.38612257354E-5,1.059243711958E-5,1.467399701362E-6,3.541654184949E-8},
    {-2.54599871311E-5,1.060650655321E-5,1.507824857653E-6,3.440898582899E-8},
    {-2.46091496306E-5,1.059575067811E-5,1.453338693659E-6,3.592629630941E-8},
    {-2.68874702086E-5,1.060478007473E-5,1.45130886685E-6,3.391759422327E-8},
    {-2.48530927857E-5,1.060347633892E-5,1.484204367034E-6,3.494979610695E-8},
    {-2.42181472057E-5,1.059388483256E-5,1.479402708978E-6,3.53310499029E-8},
    {-2.5461360055E-5,1.061001026301E-5,1.460725345521E-6,3.479166461208E-8},
    {-2.56830585897E-5,1.060905242885E-5,1.530985594155E-6,3.643453854231E-8},
    {-2.34929456199E-5,1.058781356186E-5,1.507242290601E-6,3.536628470194E-8},
    {-2.63304106565E-5,1.060877459327E-5,1.476846394538E-6,3.435930108343E-8},
    {-2.35852149688E-5,1.059165763129E-5,1.497406451104E-6,3.507739627135E-8},
    {-2.57759721796E-5,1.061331567798E-5,1.488002466861E-6,3.511016979222E-8},
    {-2.55686702959E-5,1.059367993779E-5,1.445454509872E-6,3.498972402316E-8},
    {-2.45166123231E-5,1.060272749814E-5,1.46306490387E-6,3.512833809487E-8},
    {-2.62222060843E-5,1.060547678324E-5,1.498194079443E-6,3.408151458531E-8},
    {-2.53367338849E-5,1.061098080304E-5,1.486769820158E-6,3.540316044451E-8},
    {-2.57606122183E-5,1.060701095362E-5,1.44871954416E-6,3.455188353181E-8}}},
  {{8.23559781578E-15,1.39629168163E-13,2.80926165882E-11},{Residual->1.56116699399E-14}},
  {{-.2,1.08068643422E-12},{-.15,6.48631005838E-13},{-.1,2.81465437704E-13},{-.05,7.08896158693E-14},{0,1.2172015892E-15},
   {.05,8.21233415367E-14},{.1,3.05982321507E-13},{.15,6.40811275597E-13},{.2,1.17620623471E-12}}},
 {"Y44",1,
  {7.482667102928E-7,1.060261679843E-5,1.920816144223E-8,3.51796659276E-8,{{-2.35771381911E-5,1.061008808179E-5,1.479076861795E-6,
     3.675678029854E-8},
    {-2.45084951139E-5,1.059929431014E-5,1.495593041018E-6,3.501293137784E-8},
    {-2.5779158067E-5,1.065094287969E-5,1.476337746484E-6,3.541920403071E-8},
    {-2.43838572874E-5,1.058724839603E-5,1.428236440032E-6,3.491741974711E-8},
    {-2.47872162936E-5,1.058843751553E-5,1.445716361003E-6,3.579892144481E-8},
    {-2.53889695382E-5,1.060180802823E-5,1.492892522087E-6,3.428844980089E-8},
    {-2.59075589926E-5,1.060768352608E-5,1.463133995005E-6,3.452901945912E-8},
    {-2.45551443333E-5,1.059554030601E-5,1.4772468206E-6,3.513577681056E-8},
    {-2.46363434888E-5,1.059871826801E-5,1.447694887743E-6,3.62588959715E-8},
    {-2.51659508537E-5,1.060105738902E-5,1.467993395247E-6,3.490176626681E-8},
    {-2.56830966759E-5,1.061615231596E-5,1.500333354237E-6,3.565632795182E-8},
    {-2.59920682992E-5,1.060140056578E-5,1.440959634627E-6,3.551646130208E-8},
    {-2.70681274178E-5,1.06074759951E-5,1.486332034364E-6,3.356916790068E-8},
    {-2.48006946585E-5,1.059493223089E-5,1.466712090084E-6,3.598632124546E-8},
    {-2.47415425415E-5,1.060195633271E-5,1.473176071478E-6,3.519652841493E-8},
    {-2.50488546539E-5,1.059399498474E-5,1.458426645924E-6,3.464314473011E-8},
    {-2.48091653511E-5,1.059827897889E-5,1.485171782678E-6,3.485708951669E-8},
    {-2.56603941804E-5,1.06117070074E-5,1.482424446387E-6,3.563179663267E-8},
    {-2.44519593233E-5,1.05950831029E-5,1.491404757227E-6,3.514384580578E-8},
    {-2.4696142218E-5,1.059053575372E-5,1.458604407098E-6,3.437346984386E-8}}},
  {{2.14937485688E-15,8.50918168409E-15,1.94756421899E-13},{Residual->6.10306022022E-16}},
  {{-.6,6.67988879101E-14},{-.4,2.99904757775E-14},{-.2,9.46470739445E-15},{1.11022302463E-16,1.24497915035E-15},
   {.2,1.15150695971E-14},{.4,3.64974195745E-14},{.6,7.76612771215E-14}}},
 {"AY",1,
  {7.575393694764E-7,1.060323372531E-5,1.643820656146E-8,3.501158824174E-8,{{-2.50193464715E-5,1.06049176928E-5,1.503317639624E-6,
     3.597179162874E-8},
    {-2.45897965192E-5,1.060104090978E-5,1.436039692742E-6,3.522356225462E-8},
    {-2.65150886796E-5,1.062026764661E-5,1.487258918401E-6,3.804294980954E-8},
    {-2.61990629864E-5,1.060531362069E-5,1.464378428215E-6,3.38055968595E-8},
    {-2.52720885021E-5,1.060847364219E-5,1.465067647775E-6,3.447073582082E-8},
    {-2.43784160183E-5,1.058654831619E-5,1.478241588777E-6,3.612251619569E-8},
    {-2.51224653775E-5,1.060036357012E-5,1.481647648642E-6,3.452762886265E-8},
    {-2.54346678481E-5,1.060600456557E-5,1.457459689768E-6,3.453093470897E-8},
    {-2.56919873715E-5,1.060420304073E-5,1.492224038945E-6,3.457817315596E-8},
    {-2.43567964886E-5,1.06211163933E-5,1.476291603578E-6,3.554705017276E-8},
    {-2.61597422106E-5,1.059732310765E-5,1.445552217816E-6,3.501153565602E-8},
    {-2.65436042083E-5,1.05935553252E-5,1.450968528476E-6,3.461850859608E-8},
    {-2.4927759546E-5,1.059510246323E-5,1.464101727763E-6,3.455217247428E-8},
    {-2.54513648288E-5,1.060447452836E-5,1.485536389501E-6,3.483319539058E-8},
    {-2.51025767036E-5,1.059718528401E-5,1.478643498783E-6,3.395624859708E-8},
    {-2.47753949642E-5,1.05997617401E-5,1.491563106E-6,3.447659809282E-8},
    {-2.68096020441E-5,1.060962071944E-5,1.479000409383E-6,3.443100095861E-8},
    {-2.45649852813E-5,1.0592902926E-5,1.468944023716E-6,3.512800641321E-8},
    {-2.59818182309E-5,1.060061243664E-5,1.470625845148E-6,3.514552192822E-8},
    {-2.63752811536E-5,1.061588657749E-5,1.485036866714E-6,3.52580372586E-8}}},
  {{-1.8650102671E-16,-5.8755722067E-15,4.04697754533E-12},{Residual->9.33221638143E-16}},
  {{-.1,4.12285179665E-14},{-.07,1.93373344544E-14},{-.04,6.08865471978E-15},{-.01,1.60493334249E-15},{.02,1.75217382073E-15},
   {.05,7.96066067039E-15},{.08,2.59502263172E-14}}},
 {"EY",1,
  {1.064283114658E-6,1.06090939879E-5,1.486174341628E-8,3.505602807573E-8,{{-2.80968321925E-5,1.060236106719E-5,9.516258290857E-7,
     3.510993790902E-8},
    {-2.76700553429E-5,1.059255051224E-5,9.886876361299E-7,3.607201279341E-8},
    {-3.0827667679E-5,1.061430992049E-5,9.393795298807E-7,3.485720581074E-8},
    {-3.04653344337E-5,1.060877538336E-5,9.414800381113E-7,3.432772784109E-8},
    {-2.96678434594E-5,1.062551283515E-5,9.395034248594E-7,3.451356267459E-8},
    {-2.92003057668E-5,1.060606360173E-5,9.513186943875E-7,3.537201655726E-8},
    {-2.85380709582E-5,1.060263771181E-5,9.822111937605E-7,3.449780826025E-8},
    {-2.75402954852E-5,1.059205318537E-5,9.513054642911E-7,3.442142174578E-8},
    {-3.06159931668E-5,1.06136295581E-5,9.60305663965E-7,3.547057997325E-8},
    {-2.97993707261E-5,1.060133781694E-5,9.57851035882E-7,3.411836949981E-8},
    {-3.09879227533E-5,1.062330508508E-5,9.487657534349E-7,3.494989186073E-8},
    {-3.09057905977E-5,1.060885171014E-5,9.394430610367E-7,3.46522374447E-8},
    {-2.91205839928E-5,1.06071392458E-5,9.549814895555E-7,3.56993267086E-8},
    {-2.89671520722E-5,1.061648401503E-5,9.668398410154E-7,3.446074053596E-8},
    {-2.96625243323E-5,1.060788324742E-5,9.326207926238E-7,3.431228717532E-8},
    {-2.8011748079E-5,1.060308663536E-5,9.498574576128E-7,3.468313242902E-8},
    {-2.82661877369E-5,1.060556387537E-5,9.697068041159E-7,3.743436427618E-8},
    {-2.9568156731E-5,1.06149383094E-5,9.477118317156E-7,3.744614132245E-8},
    {-2.87190588179E-5,1.059301941094E-5,9.449230189065E-7,3.395270709625E-8},
    {-2.97718177002E-5,1.064237663107E-5,9.302567271973E-7,3.476908960022E-8}}},
  {{1.3686630806E-15,6.45407579169E-16,4.74506783474E-13},{Residual->7.74889558865E-17}},
  {{-.1,5.96964777425E-15},{-.07,3.76962427232E-15},{-.04,2.15264267841E-15},{-.01,1.33020345881E-15},{.02,1.48880324913E-15},
   {.05,2.66034217726E-15},{.08,4.45392511544E-15}}},
 {"R32",1,
  {9.400650127213E-7,1.061370676543E-5,2.135027622196E-8,3.472735513791E-8,{{-2.99135456641E-5,1.060628171049E-5,1.309396006337E-6,
     3.41305048045E-8},
    {-3.17928931316E-5,1.061581187017E-5,1.295135740351E-6,3.455279439174E-8},
    {-2.99593547382E-5,1.061350541662E-5,1.344305050252E-6,3.45273012536E-8},
    {-3.13556973434E-5,1.06199653361E-5,1.288271170246E-6,3.444812931409E-8},
    {-2.88485099321E-5,1.060555870303E-5,1.312448980347E-6,3.513134606858E-8},
    {-2.93158894012E-5,1.063641647713E-5,1.306284661673E-6,3.472166448163E-8},
    {-2.84798899348E-5,1.060712655731E-5,1.299221393343E-6,3.514178865721E-8},
    {-2.95686422224E-5,1.060469350556E-5,1.305804787431E-6,3.455639885713E-8},
    {-2.96398668289E-5,1.061063677152E-5,1.320578150776E-6,3.495750438052E-8},
    {-3.0333151932E-5,1.061351364296E-5,1.300852286371E-6,3.515743610597E-8},
    {-2.9727570692E-5,1.059878523265E-5,1.293115654587E-6,3.412034061099E-8},
    {-2.88739482128E-5,1.061692183425E-5,1.288944966053E-6,3.472909402685E-8},
    {-3.16172689903E-5,1.061434888798E-5,1.308031703211E-6,3.476329142395E-8},
    {-2.90195804427E-5,1.060860017703E-5,1.301256331285E-6,3.486766156521E-8},
    {-3.04620220517E-5,1.060800505485E-5,1.297476014361E-6,3.423707511084E-8},
    {-2.96797008691E-5,1.063589500278E-5,1.336212801419E-6,3.509685400178E-8},
    {-2.95691802812E-5,1.060435157896E-5,1.353399505694E-6,3.436757095262E-8},
    {-2.99039945834E-5,1.064716128511E-5,1.258172056175E-6,3.483870159068E-8},
    {-2.85273669738E-5,1.060043803655E-5,1.301742922555E-6,3.41718238873E-8},
    {-2.87464807219E-5,1.06061182275E-5,1.336434982336E-6,3.602982127303E-8}}},
  {{1.35920835721E-15,5.15666047301E-15,4.48536951035E-13},{Residual->8.80818938903E-17}},
  {{-.1,5.24569208231E-15},{-.07,3.32839881386E-15},{-.04,1.93019650642E-15},{-.01,1.22617058753E-15},{.02,1.58819802062E-15},
   {.05,2.82378348481E-15},{.08,4.62815980358E-15}}},
 {"Y24",1,
  {9.290400906442E-7,1.061188930087E-5,2.337787780716E-8,3.492921483101E-8,{{-3.00743070731E-5,1.060826836011E-5,1.121701383679E-6,
     3.466413809143E-8},
    {-3.19549465704E-5,1.061843395397E-5,1.168487399915E-6,3.769539222538E-8},
    {-3.00903115376E-5,1.061177752065E-5,1.150163080726E-6,3.455910392343E-8},
    {-3.14535315574E-5,1.061143663679E-5,1.131525046887E-6,3.401502945319E-8},
    {-3.04429846472E-5,1.061144732577E-5,1.155201853376E-6,3.45790783104E-8},
    {-3.15672360643E-5,1.062340871229E-5,1.156212115519E-6,3.506126043322E-8},
    {-3.07985124689E-5,1.061631324273E-5,1.153485900863E-6,3.602502495659E-8},
    {-2.93422378908E-5,1.059954353768E-5,1.180875146219E-6,3.471408022956E-8},
    {-3.1884355572E-5,1.065651521828E-5,1.151568785187E-6,3.597916196461E-8},
    {-3.08856956388E-5,1.059993369788E-5,1.110329067189E-6,3.379736604888E-8},
    {-3.08924791137E-5,1.061239384863E-5,1.085999135669E-6,3.404475311167E-8},
    {-3.05262649845E-5,1.06096940407E-5,1.122390739372E-6,3.464743268971E-8},
    {-2.87414504275E-5,1.060772344815E-5,1.137122705178E-6,3.48180838653E-8},
    {-2.90317115419E-5,1.059643201357E-5,1.139757815232E-6,3.363404622088E-8},
    {-2.97688007219E-5,1.060260952227E-5,1.168880388187E-6,3.422244546842E-8},
    {-3.00382662825E-5,1.059830785724E-5,1.139194253697E-6,3.456476931368E-8},
    {-2.88908703484E-5,1.060382054549E-5,1.167361827808E-6,3.616405348921E-8},
    {-3.05872658265E-5,1.061781436165E-5,1.106572930218E-6,3.588751576067E-8},
    {-2.95746625975E-5,1.060734445587E-5,1.126902811102E-6,3.464673904703E-8},
    {-3.06775821676E-5,1.062456771762E-5,1.153344757715E-6,3.486482201687E-8}}},
  {{1.20744970145E-15,-1.4399705698E-15,1.30548828779E-14},{Residual->3.85516310137E-17}},
  {{-.3,2.8383736495E-15},{-.2,1.97128412889E-15},{-.1,1.4661910539E-15},{5.55111512313E-17,1.27175602668E-15},
   {.1,1.19955994207E-15},{.2,1.38864822199E-15},{.3,1.97170209292E-15}}},
 {"Y46",1,
  {9.931363553716E-7,1.062275103024E-5,2.14228599125E-8,3.456347899419E-8,{{-2.95845895172E-5,1.064579509391E-5,1.16874884376E-6,
     3.560185053146E-8},
    {-3.13796714426E-5,1.0633244258E-5,1.166118301737E-6,3.395849673795E-8},
    {-2.83673286042E-5,1.05999002905E-5,1.156624797696E-6,3.473406284523E-8},
    {-3.14408752179E-5,1.066348323094E-5,1.116014605553E-6,3.4420297864E-8},
    {-2.99723125235E-5,1.061755983116E-5,1.133321775967E-6,3.427012082642E-8},
    {-3.05808570583E-5,1.061602781926E-5,1.145736461483E-6,3.33408485828E-8},
    {-2.91418372672E-5,1.061395313908E-5,1.169627992954E-6,3.446336617008E-8},
    {-3.20561958337E-5,1.067793726657E-5,1.179900919072E-6,3.669373900442E-8},
    {-2.96285416346E-5,1.060886058442E-5,1.109918839546E-6,3.520543898157E-8},
    {-2.96319682059E-5,1.063090553874E-5,1.161082337827E-6,3.524929858642E-8},
    {-3.08489238359E-5,1.062094528428E-5,1.137012109331E-6,3.383136734107E-8},
    {-3.10107838372E-5,1.061970301974E-5,1.137068480017E-6,3.379341434897E-8},
    {-3.12032876745E-5,1.062741022458E-5,1.138572513404E-6,3.389183627887E-8},
    {-2.93562301596E-5,1.061671785744E-5,1.149584861751E-6,3.471006380571E-8},
    {-2.86235511082E-5,1.060259331546E-5,1.113929955627E-6,3.625249545348E-8},
    {-3.06304227477E-5,1.06189876414E-5,1.113987580625E-6,3.401605260097E-8},
    {-2.93674030432E-5,1.060801447879E-5,1.139696408245E-6,3.507840400648E-8},
    {-2.93362488298E-5,1.061098979094E-5,1.151278026283E-6,3.397101017514E-8},
    {-2.96441913468E-5,1.061212233526E-5,1.143389500139E-6,3.376844262341E-8},
    {-2.92741925121E-5,1.060986960428E-5,1.184616978092E-6,3.401897311938E-8}}},
  {{1.20345013432E-15,2.07186565049E-15,9.16764244257E-15},{Residual->7.96159009427E-17}},
  {{-.45,2.05279100388E-15},{-.3,1.46904762642E-15},{-.15,1.18676256124E-15},{-5.5511151231E-17,1.22063118604E-15},
   {.15,1.64285092538E-15},{.3,2.54083149587E-15},{.45,4.08685088022E-15}}},
 {"Y22",1,
  {1.04133585081E-6,1.061843388682E-5,1.905949953826E-8,3.46674053911E-8,{{-3.00063396543E-5,1.06404081941E-5,1.146234451908E-6,
     3.447545854713E-8},
    {-3.05706690806E-5,1.061039022992E-5,1.133363869122E-6,3.346394407851E-8},
    {-2.98958069346E-5,1.060515724027E-5,1.09930519441E-6,3.489247491524E-8},
    {-3.24994811111E-5,1.063418479958E-5,1.14702418941E-6,3.45220127656E-8},
    {-3.01919093513E-5,1.061654536772E-5,1.153419515774E-6,3.411569032196E-8},
    {-2.85589617177E-5,1.06233112371E-5,1.153041755448E-6,3.491601532624E-8},
    {-2.80069920127E-5,1.060712203527E-5,1.143725806412E-6,3.64213963941E-8},
    {-2.88240217881E-5,1.061069496054E-5,1.159814502191E-6,3.482526998482E-8},
    {-2.85209839242E-5,1.061761212514E-5,1.167097078498E-6,3.491790667434E-8},
    {-2.98757728407E-5,1.063769823038E-5,1.171226550237E-6,3.474561282678E-8},
    {-2.98880838478E-5,1.064283494019E-5,1.154872402866E-6,3.48808197378E-8},
    {-3.05402860168E-5,1.061495808337E-5,1.175297274541E-6,3.380732478619E-8},
    {-3.01934706187E-5,1.062911035542E-5,1.164692947044E-6,3.420559686454E-8},
    {-2.8670230557E-5,1.060293246077E-5,1.119288916142E-6,3.430872446872E-8},
    {-2.91933175546E-5,1.061500657715E-5,1.167723927292E-6,3.480004769799E-8},
    {-3.02361637337E-5,1.061976163577E-5,1.147658222419E-6,3.423145228944E-8},
    {-3.04613757096E-5,1.061346997421E-5,1.11260997026E-6,3.435502138894E-8},
    {-2.8496936066E-5,1.061418619217E-5,1.148107399573E-6,3.707830702491E-8},
    {-2.91001667318E-5,1.060769687952E-5,1.148128360573E-6,3.413045346647E-8},
    {-2.84550896426E-5,1.060559621773E-5,1.15285043821E-6,3.425457826238E-8}}},
  {{4.40691564578E-15,3.46196698083E-14,6.9576915357E-13},{Residual->2.75778170225E-15}},
  {{-.6,2.32250945875E-13},{-.4,1.03257697346E-13},{-.2,2.98345246219E-14},{1.11022302463E-16,1.18806786141E-15},
   {.2,3.58535953851E-14},{.4,1.32055778812E-13},{.6,2.75669251618E-13}}},
 {"Y26",1,
  {9.786049771125E-7,1.061903754944E-5,2.107683730819E-8,3.461798992017E-8,{{-2.92637218551E-5,1.06195203561E-5,1.137496500243E-6,
     3.452543022039E-8},
    {-3.07896229982E-5,1.062097555879E-5,1.139581132192E-6,3.387580206692E-8},
    {-3.04517568654E-5,1.063043539511E-5,1.16335085331E-6,3.596585072194E-8},
    {-2.89443434721E-5,1.060950426611E-5,1.135990266603E-6,3.463173174416E-8},
    {-2.78890296274E-5,1.060030892939E-5,1.186600310308E-6,3.453955335147E-8},
    {-2.87876109895E-5,1.061602884774E-5,1.178960325331E-6,3.547428775357E-8},
    {-3.04476039522E-5,1.065795581907E-5,1.153935719096E-6,3.499671986598E-8},
    {-2.89772820594E-5,1.060305079525E-5,1.163429762936E-6,3.416129203373E-8},
    {-3.02622627928E-5,1.061906016E-5,1.191176635045E-6,3.526387418963E-8},
    {-3.04905567678E-5,1.061391742751E-5,1.128817288312E-6,3.360762560137E-8},
    {-3.01355806405E-5,1.065213882664E-5,1.126012194159E-6,3.455124507654E-8},
    {-2.97313050304E-5,1.06100477734E-5,1.186623868776E-6,3.369733818226E-8},
    {-3.05669649801E-5,1.065919613608E-5,1.138714572039E-6,3.582968801728E-8},
    {-3.09007738693E-5,1.061670826926E-5,1.152291875503E-6,3.353953404118E-8},
    {-2.9608083011E-5,1.061355641305E-5,1.162891161389E-6,3.431866345828E-8},
    {-2.94853216231E-5,1.060839823814E-5,1.168440797783E-6,3.401891129831E-8},
    {-2.90496716611E-5,1.061215549846E-5,1.167438583207E-6,3.536018324438E-8},
    {-2.99452470753E-5,1.060854919549E-5,1.135919884504E-6,3.392831300665E-8},
    {-2.82325284648E-5,1.060592585344E-5,1.137477062588E-6,3.546166978453E-8},
    {-2.72899756583E-5,1.060331722987E-5,1.189469827908E-6,3.461208474479E-8}}},
  {{1.50511094136E-15,-1.575061921E-14,4.78736994517E-13},{Residual->4.63074468841E-16}},
  {{-.3,4.87388325285E-14},{-.2,2.47866922743E-14},{-.1,7.87788863454E-15},{5.55111512313E-17,1.19270442166E-15},
   {.1,4.4396916942E-15},{.2,1.75126312162E-14},{.3,4.0033694285E-14}}},
 {"Y66",1,
  {1.070828402205E-6,1.061911519479E-5,1.711146307129E-8,3.463963997777E-8,{{-3.03688668218E-5,1.062539578724E-5,1.133453549237E-6,
     3.410403569912E-8},
    {-2.90249111004E-5,1.061014940129E-5,1.148799914147E-6,3.461600259936E-8},
    {-3.0214642902E-5,1.062209659399E-5,1.126779048277E-6,3.455432988351E-8},
    {-3.05577545501E-5,1.062127175059E-5,1.145321599184E-6,3.42365094296E-8},
    {-3.23664385188E-5,1.062182402179E-5,1.134249361046E-6,3.308472801547E-8},
    {-2.99353127231E-5,1.061502783015E-5,1.145566878629E-6,3.405960918E-8},
    {-3.07490142741E-5,1.062207361527E-5,1.162088315746E-6,3.427089914088E-8},
    {-2.82757829241E-5,1.060572633876E-5,1.124540010033E-6,3.489565156251E-8},
    {-2.93997537713E-5,1.060997421352E-5,1.183197862129E-6,3.399738517283E-8},
    {-2.92047264796E-5,1.060604800117E-5,1.14580758686E-6,3.426239885109E-8},
    {-2.89666864229E-5,1.061921884539E-5,1.142839221159E-6,3.402240742393E-8},
    {-3.13781694711E-5,1.062828575819E-5,1.134928280583E-6,3.652473012623E-8},
    {-2.96660302647E-5,1.061116498953E-5,1.150201259393E-6,3.460556947701E-8},
    {-3.05974934404E-5,1.064406733343E-5,1.111523853142E-6,3.548358237893E-8},
    {-3.02637858978E-5,1.063775623404E-5,1.123060300972E-6,3.426826849436E-8},
    {-2.97250243488E-5,1.06126845401E-5,1.166776002956E-6,3.49123817932E-8},
    {-2.9593689992E-5,1.06093893932E-5,1.129514077044E-6,3.411258457917E-8},
    {-3.11462503006E-5,1.061910516521E-5,1.128732172533E-6,3.42370226618E-8},
    {-3.06382324726E-5,1.062845185288E-5,1.140683061834E-6,3.677218994904E-8},
    {-2.75714760488E-5,1.061259223004E-5,1.114413178012E-6,3.577251313739E-8}}},
  {{7.47336842744E-15,3.89605794407E-14,2.91951891995E-11},{Residual->9.33522103036E-15}},
  {{-.2,1.15695747703E-12},{-.15,6.80586499912E-13},{-.1,2.87908927215E-13},{-.05,7.69123060782E-14},{0,1.19363529929E-15},
   {.05,7.94067021946E-14},{.1,3.11824842349E-13},{.15,6.70848302933E-13},{.2,1.18090000275E-12}}},
 {"Y44",1,
  {9.744324336633E-7,1.062039581267E-5,2.396559549644E-8,3.470321011364E-8,{{-2.9408190639E-5,1.060359225261E-5,1.143490614692E-6,
     3.435440033938E-8},
    {-2.91209720646E-5,1.061417352664E-5,1.145747448803E-6,3.585893779076E-8},
    {-2.93414768128E-5,1.06056456509E-5,1.12102157665E-6,3.430208932926E-8},
    {-3.00618594366E-5,1.061729733706E-5,1.176288290436E-6,3.397206602907E-8},
    {-3.06005243221E-5,1.06196997432E-5,1.180647794858E-6,3.396348351848E-8},
    {-3.11006444609E-5,1.063970429143E-5,1.175324346791E-6,3.491676970024E-8},
    {-2.95238927067E-5,1.061428276137E-5,1.127454808294E-6,3.427931160248E-8},
    {-3.18841583413E-5,1.06679195415E-5,1.17776620253E-6,3.717823134791E-8},
    {-2.75941438718E-5,1.060093931681E-5,1.135635929542E-6,3.440716830455E-8},
    {-2.85356976535E-5,1.059993857717E-5,1.094129709564E-6,3.529331555152E-8},
    {-2.9683350355E-5,1.06265895513E-5,1.148109528306E-6,3.520670536634E-8},
    {-2.93349262223E-5,1.060926018676E-5,1.190973630312E-6,3.445043227477E-8},
    {-3.04462719692E-5,1.062644817146E-5,1.144972981351E-6,3.428569153453E-8},
    {-3.089734707E-5,1.062026287309E-5,1.160278995808E-6,3.342963229779E-8},
    {-3.03304315475E-5,1.062250531513E-5,1.137140499917E-6,3.472762504077E-8},
    {-2.98171241968E-5,1.062724135094E-5,1.146115884393E-6,3.442362452389E-8},
    {-2.86571475901E-5,1.060769928063E-5,1.111690654199E-6,3.549191952516E-8},
    {-3.09056011322E-5,1.063494627249E-5,1.133851170051E-6,3.422973010225E-8},
    {-2.97462053799E-5,1.063644718304E-5,1.150076611816E-6,3.483273399068E-8},
    {-2.93303028408E-5,1.061332306985E-5,1.158345486429E-6,3.446033410303E-8}}},
  {{1.56077393137E-15,4.51548960903E-15,2.04465742195E-13},{Residual->7.88474289819E-16}},
  {{-.6,7.22072888397E-14},{-.4,3.23046785378E-14},{-.2,9.8461303929E-15},{1.11022302463E-16,1.20573500137E-15},
   {.2,1.10707309135E-14},{.4,3.45840903922E-14},{.6,7.87083947001E-14}}},
 {"AY",1,
  {1.118255436422E-6,1.062393902841E-5,1.747769238055E-8,3.408495690226E-8,{{-3.08232401102E-5,1.061960408766E-5,1.159993994319E-6,
     3.343249998702E-8},
    {-2.96322670006E-5,1.061523191206E-5,1.147960183261E-6,3.372286450609E-8},
    {-3.03921445503E-5,1.06185775245E-5,1.143641764892E-6,3.625665574404E-8},
    {-2.98680421987E-5,1.064008880149E-5,1.117720832503E-6,3.56135330337E-8},
    {-3.04767193806E-5,1.061314271185E-5,1.117314316476E-6,3.327897345827E-8},
    {-3.19888757759E-5,1.069782257939E-5,1.155471755708E-6,3.41957200072E-8},
    {-3.06781133899E-5,1.061895284182E-5,1.170280571321E-6,3.386082337966E-8},
    {-3.04557196511E-5,1.06134508538E-5,1.173802529313E-6,3.360111563129E-8},
    {-3.04763108916E-5,1.061679036941E-5,1.13588479708E-6,3.382185156984E-8},
    {-2.7914580387E-5,1.060649805629E-5,1.162027375931E-6,3.425908802635E-8},
    {-2.8398908987E-5,1.061526011652E-5,1.172560405731E-6,3.437584242423E-8},
    {-2.93189373465E-5,1.061088770939E-5,1.151757910725E-6,3.51098098657E-8},
    {-2.93051195941E-5,1.065044613808E-5,1.12228632546E-6,3.461109590639E-8},
    {-2.86081745128E-5,1.060963342438E-5,1.14106867919E-6,3.49197059469E-8},
    {-2.96037619716E-5,1.061627118945E-5,1.13844206984E-6,3.372180637249E-8},
    {-2.9913198169E-5,1.061962651694E-5,1.148236384201E-6,3.391413833404E-8},
    {-3.01417118707E-5,1.061664358167E-5,1.154936196769E-6,3.34317381895E-8},
    {-3.09890128591E-5,1.061448605797E-5,1.15094027203E-6,3.298455278873E-8},
    {-3.07915809904E-5,1.06238877623E-5,1.140330064598E-6,3.360302207075E-8},
    {-3.27726622321E-5,1.064147833329E-5,1.115237260317E-6,3.298430080299E-8}}},
  {{-5.7887049242E-16,-1.3983712792E-14,3.87624640948E-12},{Residual->1.14291472527E-15}},
  {{-.1,4.0741749409E-14},{-.07,1.76990575651E-14},{-.04,5.17714290484E-15},{-.01,1.53877099486E-15},{.02,1.50201541141E-15},
   {.05,7.55720408082E-15},{.08,2.3105608088E-14}}},
 {"EY",1,
  {1.291961679317E-6,1.062095257655E-5,1.756809795477E-8,3.434731643824E-8,{{-3.18939178977E-5,1.065065531027E-5,1.518217613451E-6,
     3.408100978784E-8},
    {-3.1260340357E-5,1.061385461523E-5,1.541163862568E-6,3.398425128915E-8},
    {-2.89656082425E-5,1.061871669642E-5,1.541727042436E-6,3.48954371911E-8},
    {-2.86496116701E-5,1.060311016417E-5,1.530485970637E-6,3.422671656501E-8},
    {-3.24775932964E-5,1.062231002826E-5,1.503563219634E-6,3.340879930672E-8},
    {-3.03498299545E-5,1.062224458106E-5,1.513382819346E-6,3.419718841471E-8},
    {-3.13107337107E-5,1.061153428582E-5,1.525621056858E-6,3.356711638122E-8},
    {-3.07402657837E-5,1.062442639877E-5,1.561181191139E-6,3.436913942552E-8},
    {-3.01783186192E-5,1.06220213085E-5,1.541044483496E-6,3.429893892969E-8},
    {-3.20063210004E-5,1.066724470412E-5,1.557212027669E-6,3.420386773191E-8},
    {-2.83168826055E-5,1.059350194263E-5,1.505881418687E-6,3.538440798112E-8},
    {-3.14811499849E-5,1.061742761255E-5,1.527240890339E-6,3.406974280067E-8},
    {-2.95361617431E-5,1.060552289029E-5,1.54811162475E-6,3.415909743571E-8},
    {-2.90219634149E-5,1.060013193455E-5,1.531780314692E-6,3.39032024527E-8},
    {-3.13350696387E-5,1.062035778174E-5,1.521998392213E-6,3.406049833099E-8},
    {-3.13035265409E-5,1.066759559675E-5,1.509972053218E-6,3.43125815861E-8},
    {-2.98952870136E-5,1.060065393007E-5,1.533859277783E-6,3.468352209693E-8},
    {-2.93827337777E-5,1.061014323186E-5,1.504883733691E-6,3.721691085635E-8},
    {-3.04239503452E-5,1.060281014631E-5,1.500222418877E-6,3.371877527974E-8},
    {-3.30256419773E-5,1.064478837163E-5,1.540588930441E-6,3.420512492159E-8}}},
  {{1.28483436943E-15,2.83470151173E-15,4.92063025792E-13},{Residual->7.53576643628E-17}},
  {{-.1,5.8398322758E-15},{-.07,3.6367492581E-15},{-.04,1.98366735834E-15},{-.01,1.21880635859E-15},{.02,1.4895755807E-15},
   {.05,2.71206149218E-15},{.08,4.65915152447E-15}}},
 {"R32",1,
  {8.794118918333E-7,1.06086245853E-5,2.028742524344E-8,3.394874755681E-8,{{-2.8859218678E-5,1.059808762064E-5,8.650700041278E-7,
     3.314018484638E-8},
    {-2.76591862183E-5,1.059492276932E-5,8.913433110855E-7,3.305184595208E-8},
    {-2.8171032255E-5,1.060260652197E-5,9.151596832409E-7,3.306602878212E-8},
    {-2.87135902342E-5,1.060691369498E-5,9.21248958284E-7,3.425376049342E-8},
    {-2.98548371848E-5,1.061375538219E-5,9.231819870069E-7,3.290841190927E-8},
    {-2.78351282484E-5,1.059535861502E-5,8.993863585031E-7,3.29364384326E-8},
    {-2.88716143363E-5,1.061194051971E-5,9.378429987124E-7,3.715010446036E-8},
    {-2.81336392505E-5,1.059661685169E-5,8.648850018062E-7,3.312560397128E-8},
    {-2.90517178012E-5,1.060593174785E-5,9.042113403145E-7,3.315782164015E-8},
    {-2.97960677533E-5,1.061805320406E-5,9.286333740977E-7,3.39068617606E-8},
    {-2.79492332964E-5,1.060692739623E-5,8.984711631387E-7,3.320442017824E-8},
    {-3.08742499719E-5,1.062065559464E-5,9.168344262382E-7,3.356688306302E-8},
    {-2.88686379243E-5,1.060936675764E-5,9.233343432665E-7,3.337093739063E-8},
    {-2.8567848647E-5,1.061120327673E-5,9.311409620722E-7,3.557704376461E-8},
    {-3.04317769847E-5,1.06227240751E-5,9.297974396996E-7,3.783253126838E-8},
    {-2.97294912129E-5,1.061292942504E-5,9.194356351332E-7,3.403775930703E-8},
    {-3.002896585E-5,1.061772341627E-5,9.365253619273E-7,3.44866150012E-8},
    {-2.82059892014E-5,1.061083790638E-5,9.185948022308E-7,3.331119045745E-8},
    {-2.95453996246E-5,1.060840862255E-5,9.28792373072E-7,3.396966630325E-8},
    {-2.90356119472E-5,1.060752830796E-5,9.074856404312E-7,3.292084215403E-8}}},
  {{1.23390141246E-15,-1.0234114882E-15,4.3363116402E-13},{Residual->7.26583482981E-17}},
  {{-.1,5.60690999825E-15},{-.07,3.50034694142E-15},{-.04,2.07639755846E-15},{-.01,1.18940400318E-15},{.02,1.31919346325E-15},
   {.05,2.30927285765E-15},{.08,3.9384710173E-15}}},
 {"Y24",1,
  {7.978689276968E-7,1.062209203202E-5,1.856152718076E-8,3.410471984122E-8,{{-2.82506715711E-5,1.06138705964E-5,9.111805985094E-7,
     3.353376844979E-8},
    {-2.81447427417E-5,1.060360337368E-5,9.003543658827E-7,3.334894679428E-8},
    {-3.01514131011E-5,1.062447100382E-5,8.658668929492E-7,3.307368592232E-8},
    {-2.96622079936E-5,1.062414028503E-5,9.23568314783E-7,3.495433720885E-8},
    {-2.97630048738E-5,1.063228724172E-5,8.770611993634E-7,3.35434327043E-8},
    {-2.93868253596E-5,1.062673674005E-5,9.023242313923E-7,3.591438935633E-8},
    {-2.93166146203E-5,1.061726776008E-5,8.927277331715E-7,3.328431602255E-8},
    {-2.92169139701E-5,1.063963899349E-5,8.985231818042E-7,3.379940909691E-8},
    {-2.74549914305E-5,1.063135840695E-5,8.997344522402E-7,3.403820423637E-8},
    {-2.88343122076E-5,1.062684064856E-5,9.002784501634E-7,3.41836428846E-8},
    {-2.951971539E-5,1.061625303025E-5,8.864961190172E-7,3.317921571365E-8},
    {-2.8886579887E-5,1.061662366409E-5,9.126316263991E-7,3.396743241756E-8},
    {-2.82478655882E-5,1.061428187518E-5,8.867738576899E-7,3.425076784581E-8},
    {-2.753329541E-5,1.060412786246E-5,8.719884683649E-7,3.349372164876E-8},
    {-2.71598191601E-5,1.060901216218E-5,9.063367739375E-7,3.470568737701E-8},
    {-2.81493174317E-5,1.062149326894E-5,8.848710615713E-7,3.352570663375E-8},
    {-2.85098638137E-5,1.062033550176E-5,9.359210074037E-7,3.662943107566E-8},
    {-2.92852467754E-5,1.062729067563E-5,8.74267304558E-7,3.372647203115E-8},
    {-2.88800147222E-5,1.064052816211E-5,8.710863569771E-7,3.475358476998E-8},
    {-2.84809246542E-5,1.063167938806E-5,8.696127829846E-7,3.418824463478E-8}}},
  {{1.10666795092E-15,-4.2224323846E-16,1.34760289164E-14},{Residual->6.80059189283E-17}},
  {{-.3,2.41718774132E-15},{-.2,1.73131804871E-15},{-.1,1.33377946855E-15},{5.55111512313E-17,1.15302454995E-15},
   {.1,1.18270651118E-15},{.2,1.42285108888E-15},{.3,2.27909634444E-15}}},
 {"Y46",1,
  {1.091390849815E-6,1.061540840708E-5,2.197588835148E-8,3.408576149347E-8,{{-2.99288719691E-5,1.065218142581E-5,8.81327105733E-7,
     3.328901436785E-8},
    {-2.66624613754E-5,1.0610604583E-5,9.0771398506E-7,3.512846159555E-8},
    {-2.71289554409E-5,1.06049226347E-5,8.688143720384E-7,3.372567644234E-8},
    {-2.83791610848E-5,1.061661023405E-5,8.847841988009E-7,3.487264019377E-8},
    {-2.77094004135E-5,1.061180870507E-5,8.913634412221E-7,3.396205151586E-8},
    {-2.84561204728E-5,1.06130793061E-5,9.233884170692E-7,3.361971758673E-8},
    {-2.90791393432E-5,1.06138431997E-5,8.5904283672E-7,3.304118474312E-8},
    {-2.87467613355E-5,1.061626627003E-5,9.202596348399E-7,3.413128366352E-8},
    {-2.80228642701E-5,1.061128007677E-5,9.079693234311E-7,3.349900861265E-8},
    {-2.74510860844E-5,1.061106878204E-5,8.93560197957E-7,3.424030927403E-8},
    {-2.96286540922E-5,1.062499680164E-5,8.929762811954E-7,3.418748285904E-8},
    {-2.86763758654E-5,1.061684688417E-5,8.924916708593E-7,3.411282070806E-8},
    {-2.87627067586E-5,1.061537270716E-5,9.014488466289E-7,3.332602037494E-8},
    {-2.97140154986E-5,1.063078800533E-5,9.539618537624E-7,3.50255481265E-8},
    {-2.81266343726E-5,1.061856123543E-5,9.379216596988E-7,3.612597978311E-8},
    {-2.70821107504E-5,1.060462093151E-5,8.934858009626E-7,3.389850950833E-8},
    {-2.57444656981E-5,1.060130027447E-5,8.765842046295E-7,3.408250286359E-8},
    {-2.94648599439E-5,1.061585491731E-5,8.905480908308E-7,3.308546133371E-8},
    {-2.85323749471E-5,1.061695299624E-5,8.933268629222E-7,3.466630394256E-8},
    {-2.69948476367E-5,1.060120817114E-5,8.885232457545E-7,3.369525237415E-8}}},
  {{1.15827243666E-15,4.53765348784E-16,8.48641443528E-15},{Residual->4.37857473575E-17}},
  {{-.45,2.62159705344E-15},{-.3,1.84441092845E-15},{-.15,1.31991986009E-15},{-5.5511151231E-17,1.15747335576E-15},
   {.15,1.3668619194E-15},{.3,2.01976967833E-15},{.45,3.12431535539E-15}}},
 {"Y22",1,
  {1.08883421149E-6,1.061639854356E-5,2.065248525262E-8,3.408459951886E-8,{{-2.84514501639E-5,1.061730232449E-5,8.869747797677E-7,
     3.3660912217E-8},
    {-2.84209374936E-5,1.061974555907E-5,8.580556530625E-7,3.3729556479E-8},
    {-2.85015880069E-5,1.061764996574E-5,8.541281869532E-7,3.344619281799E-8},
    {-2.81437345644E-5,1.061954254643E-5,9.455308156193E-7,3.668366069531E-8},
    {-2.82013345324E-5,1.061397537467E-5,8.913699607705E-7,3.349541285666E-8},
    {-2.77884459081E-5,1.061092506222E-5,8.83665981665E-7,3.361742522562E-8},
    {-2.76887774106E-5,1.061146549359E-5,9.047207963961E-7,3.437282232826E-8},
    {-3.11370068873E-5,1.063904893013E-5,9.076124924698E-7,3.67801099776E-8},
    {-2.83922420298E-5,1.060803946022E-5,9.038969127267E-7,3.328716559007E-8},
    {-2.98949108543E-5,1.061952789919E-5,9.16755939115E-7,3.331890558123E-8},
    {-3.0744818305E-5,1.063226114576E-5,8.758977980838E-7,3.392178284117E-8},
    {-2.74100896248E-5,1.061037790374E-5,9.069545723757E-7,3.380870973319E-8},
    {-2.8916446608E-5,1.06212322471E-5,9.008688043291E-7,3.331699692686E-8},
    {-2.74117456875E-5,1.060753227371E-5,9.04704077471E-7,3.394799039801E-8},
    {-2.77575139088E-5,1.062408865834E-5,9.109654301488E-7,3.592316894813E-8},
    {-2.7708898731E-5,1.06073528534E-5,9.039883386362E-7,3.33494459071E-8},
    {-2.72258017324E-5,1.060926379294E-5,8.98895453806E-7,3.425244269652E-8},
    {-2.8355003763E-5,1.061919130088E-5,8.798023194458E-7,3.33203949865E-8},
    {-2.86350375821E-5,1.06166637835E-5,8.856703836734E-7,3.375571657259E-8},
    {-2.66815408933E-5,1.060278429602E-5,8.699200646456E-7,3.370317759848E-8}}},
  {{3.10776164477E-15,2.66688813515E-14,7.07118582302E-13},{Residual->1.64782698353E-15}},
  {{-.6,2.4203877398E-13},{-.4,1.04197471293E-13},{-.2,2.85529957418E-14},{1.11022302463E-16,1.17446354268E-15},
   {.2,3.5832910103E-14},{.4,1.29214501364E-13},{.6,2.72716027668E-13}}},
 {"Y26",1,
  {9.167047426113E-7,1.061793128373E-5,1.478984652123E-8,3.397822607044E-8,{{-3.03933818013E-5,1.063072955429E-5,8.838183456409E-7,
     3.435817734429E-8},
    {-2.8098088308E-5,1.062139564225E-5,8.62289290427E-7,3.374538477539E-8},
    {-2.9494868371E-5,1.061925928178E-5,8.850861379234E-7,3.412081565985E-8},
    {-2.69088692913E-5,1.060992843638E-5,9.224240415551E-7,3.449537336069E-8},
    {-2.78601904128E-5,1.061790138699E-5,9.124436901721E-7,3.374683945456E-8},
    {-2.67847541126E-5,1.060648405063E-5,9.094057062179E-7,3.455409515155E-8},
    {-2.80033198992E-5,1.061446482354E-5,8.989594482099E-7,3.366510410698E-8},
    {-2.88718793597E-5,1.061697888163E-5,8.869656519122E-7,3.453493781143E-8},
    {-2.78252534542E-5,1.061028836352E-5,8.968752864375E-7,3.449949981071E-8},
    {-2.85910414643E-5,1.06176325432E-5,8.879740523929E-7,3.436486379585E-8},
    {-2.95545969382E-5,1.061916120803E-5,8.844625775505E-7,3.36367448012E-8},
    {-2.88684352995E-5,1.06196926733E-5,8.885863729755E-7,3.384260977692E-8},
    {-2.73103741799E-5,1.061162597373E-5,8.788845438585E-7,3.441449019096E-8},
    {-2.8410862638E-5,1.061154044371E-5,9.047739261318E-7,3.375071474975E-8},
    {-2.92180071064E-5,1.062118533793E-5,8.911605835709E-7,3.373497577718E-8},
    {-2.94424093668E-5,1.063437414176E-5,8.931224454146E-7,3.335233639216E-8},
    {-2.83051172391E-5,1.061148700346E-5,9.155723292119E-7,3.348679424415E-8},
    {-2.9440110368E-5,1.061914126937E-5,8.698659597099E-7,3.375587550486E-8},
    {-2.82909064386E-5,1.061670124048E-5,9.018231097015E-7,3.357965610293E-8},
    {-2.79467538913E-5,1.062865341868E-5,9.039725920193E-7,3.392523259733E-8}}},
  {{1.6835668932E-15,-7.8617696103E-15,4.80558758595E-13},{Residual->5.85085974718E-16}},
  {{-.3,4.65893104592E-14},{-.2,2.36633788241E-14},{-.1,7.38249039071E-15},{5.55111512313E-17,1.1682729817E-15},
   {.1,5.30096275932E-15},{.2,1.95477539839E-14},{.3,4.26892512602E-14}}},
 {"Y66",1,
  {9.19797064494E-7,1.061941399983E-5,2.115004358655E-8,3.451615930812E-8,{{-2.81976456863E-5,1.060432905611E-5,8.405102865383E-7,
     3.378171119255E-8},
    {-2.94838988525E-5,1.061762126015E-5,8.72791854113E-7,3.364900791908E-8},
    {-2.99690767712E-5,1.063720396104E-5,8.523570292251E-7,3.359665445607E-8},
    {-2.89745442583E-5,1.062147715793E-5,8.821501080139E-7,3.453880414751E-8},
    {-2.80432798494E-5,1.061405550449E-5,8.821739366706E-7,3.523480744749E-8},
    {-2.92522116005E-5,1.063656342265E-5,9.143538955554E-7,3.519570864632E-8},
    {-3.03816710346E-5,1.062137657475E-5,8.848371027653E-7,3.380426248894E-8},
    {-2.90907968031E-5,1.061819096745E-5,8.644506594123E-7,3.395112052041E-8},
    {-2.90027796504E-5,1.06225615878E-5,8.778452071784E-7,3.525899339216E-8},
    {-2.88805941932E-5,1.061822499689E-5,8.620345678875E-7,3.487532868272E-8},
    {-3.01626866119E-5,1.065600220788E-5,8.856190054129E-7,3.516956698319E-8},
    {-2.99635157351E-5,1.064023175218E-5,8.661783159439E-7,3.474114415913E-8},
    {-2.78560199312E-5,1.060911943459E-5,9.183738237453E-7,3.462192502466E-8},
    {-2.99721162877E-5,1.061054810714E-5,8.887430034409E-7,3.356087619118E-8},
    {-2.91899331814E-5,1.061645834296E-5,9.052585920838E-7,3.608296986001E-8},
    {-2.80650367991E-5,1.060544856574E-5,8.579168872616E-7,3.399464234559E-8},
    {-2.81634012487E-5,1.061271220005E-5,8.804338300301E-7,3.432625642491E-8},
    {-2.71198495896E-5,1.060441532298E-5,8.618872238922E-7,3.461914565468E-8},
    {-2.77600263657E-5,1.060722654284E-5,8.623836938521E-7,3.356845089085E-8},
    {-2.785155949E-5,1.061451303095E-5,9.157987081072E-7,3.57518097349E-8}}},
  {{5.61985040543E-15,-6.0682144328E-14,2.92585026757E-11},{Residual->3.4877957847E-15}},
  {{-.2,1.19099154678E-12},{-.15,6.70992565406E-13},{-.1,3.03583555146E-13},{-.05,7.97849027438E-14},{0,1.17656507774E-15},
   {.05,7.98431323951E-14},{.1,2.98858899949E-13},{.15,6.52203018919E-13},{.2,1.16191986859E-12}}},
 {"Y44",1,
  {9.169622904737E-7,1.062091846301E-5,1.711879236004E-8,3.454690483436E-8,{{-2.77814202102E-5,1.06374502543E-5,9.029774918665E-7,
     3.474160933846E-8},
    {-3.00711526185E-5,1.064035805018E-5,8.681701865242E-7,3.46458468669E-8},
    {-2.84599209448E-5,1.062291500868E-5,8.887355641891E-7,3.586695667771E-8},
    {-2.82377736736E-5,1.060142241485E-5,8.836077567027E-7,3.365868614044E-8},
    {-2.88861198114E-5,1.06116547704E-5,8.824826321328E-7,3.363699149461E-8},
    {-2.69163632133E-5,1.064267257425E-5,8.958084513116E-7,3.563537324676E-8},
    {-2.71088281386E-5,1.060187050876E-5,8.561142610566E-7,3.401308558297E-8},
    {-2.92087252132E-5,1.061138272818E-5,8.803011644293E-7,3.387375994206E-8},
    {-2.76901325473E-5,1.060367938316E-5,8.841924470481E-7,3.407546817244E-8},
    {-2.91137270632E-5,1.062571654937E-5,8.738540681607E-7,3.606587584083E-8},
    {-2.86190252034E-5,1.06104903553E-5,8.616711134612E-7,3.39201546238E-8},
    {-2.94028253988E-5,1.061697795775E-5,8.741167391573E-7,3.454212426399E-8},
    {-2.89206266484E-5,1.061346742959E-5,8.804421158857E-7,3.354482818669E-8},
    {-2.85994557624E-5,1.064758710324E-5,8.884523465008E-7,3.453740806985E-8},
    {-2.98330273683E-5,1.065029318791E-5,8.452746493294E-7,3.37906148692E-8},
    {-2.68291205214E-5,1.060738814992E-5,8.97695914487E-7,3.524198585572E-8},
    {-2.97093638381E-5,1.061709528214E-5,8.937662727033E-7,3.505768648843E-8},
    {-2.81938460828E-5,1.061730915717E-5,8.654539920266E-7,3.476562086037E-8},
    {-2.78098652096E-5,1.060990290085E-5,8.39157863583E-7,3.437753773382E-8},
    {-2.86285422279E-5,1.062873549419E-5,8.966112294145E-7,3.494648243206E-8}}},
  {{2.47045159438E-15,7.26250682166E-15,2.01865128322E-13},{Residual->7.74284906089E-16}},
  {{-.6,7.0515130445E-14},{-.4,3.25998850422E-14},{-.2,9.15767945708E-15},{1.11022302463E-16,1.17716153685E-15},
   {.2,1.21654760353E-14},{.4,3.88929140526E-14},{.6,7.88738583124E-14}}},
 {"OCT1",1,
  {8.57903710033E-7,1.062332682881E-5,1.991594793532E-8,3.427519688662E-8,{{-2.84300823454E-5,1.065162145431E-5,8.474726751325E-7,
     3.491851311749E-8},
    {-2.97465987453E-5,1.065081497936E-5,9.081819395798E-7,3.423658604817E-8},
    {-2.94475612438E-5,1.062244072879E-5,9.021522834091E-7,3.404678082053E-8},
    {-3.04796620542E-5,1.063361150383E-5,8.90964191996E-7,3.526088259122E-8},
    {-2.84871493764E-5,1.060789318787E-5,8.790034668853E-7,3.398708021428E-8},
    {-2.94389122631E-5,1.061896396487E-5,8.541866296305E-7,3.369415665828E-8},
    {-2.95636006582E-5,1.061510474102E-5,8.700346028519E-7,3.381238163527E-8},
    {-2.80491763136E-5,1.060539888536E-5,9.12210176906E-7,3.384709932602E-8},
    {-2.99840237863E-5,1.062993367992E-5,9.147338040786E-7,3.423628364571E-8},
    {-2.78100333885E-5,1.060938938634E-5,8.768163531092E-7,3.39046354529E-8},
    {-2.85148688383E-5,1.061134642345E-5,8.729810212742E-7,3.383456256997E-8},
    {-2.96303382104E-5,1.06217367655E-5,8.681774519375E-7,3.383139208446E-8},
    {-2.87165301488E-5,1.063793636272E-5,8.647948545634E-7,3.465610278783E-8},
    {-2.98645880575E-5,1.063866704152E-5,8.898888005189E-7,3.373172388256E-8},
    {-2.78860373003E-5,1.061187558037E-5,8.927714210955E-7,3.560621469939E-8},
    {-3.01577282068E-5,1.062462972037E-5,8.896383857455E-7,3.34603887245E-8},
    {-2.87521863339E-5,1.062066387136E-5,9.074570808616E-7,3.587272073061E-8},
    {-2.95452649326E-5,1.061768223602E-5,8.951155800364E-7,3.350683354117E-8},
    {-2.83447598625E-5,1.060923758245E-5,8.597170672137E-7,3.42844193761E-8},
    {-2.74001246001E-5,1.062758848075E-5,8.591454904124E-7,3.477517982594E-8}}},
  {{1.09439472079E-15,1.48726684096E-17,1.58389488818E-19},{Residual->7.24382145177E-16}},
  {{-370,1.68500625465E-14},{-296,9.77563689024E-15},{-222,6.44823059454E-15},{-148,3.17000956806E-15},{-74,1.83092778952E-15},
   {0,1.17914356984E-15},{74,2.25570142903E-15},{148,5.76496505512E-15},{222,1.16104759465E-14},{296,1.94885608847E-14},
   {370,2.90721433879E-14}}},
 {"OCT2",1,
  {1.040968416166E-6,1.061065488083E-5,1.754745184963E-8,3.427164884067E-8,{{-2.95124643666E-5,1.061144835906E-5,8.762053877418E-7,
     3.412964457457E-8},
    {-2.74985700663E-5,1.059934135318E-5,8.85363648601E-7,3.305005921692E-8},
    {-2.84415343012E-5,1.06433829654E-5,8.908682322406E-7,3.460381262429E-8},
    {-2.9047744137E-5,1.061583643424E-5,9.040734712902E-7,3.485721861878E-8},
    {-2.61711011148E-5,1.059643483203E-5,9.303758763644E-7,3.53180396078E-8},
    {-2.64688804041E-5,1.059829561742E-5,9.011266174615E-7,3.478791111604E-8},
    {-2.74272356259E-5,1.05961514228E-5,9.00645755049E-7,3.334949157195E-8},
    {-2.83671217363E-5,1.061925378585E-5,8.714131267736E-7,3.509242628052E-8},
    {-2.87385624278E-5,1.060308094201E-5,9.218875905105E-7,3.298998476322E-8},
    {-2.86874633821E-5,1.060762783133E-5,8.765165315378E-7,3.550191789439E-8},
    {-2.79971855559E-5,1.060338283308E-5,8.75094731876E-7,3.317815030194E-8},
    {-2.94400433316E-5,1.061739566103E-5,9.195604700543E-7,3.386459303457E-8},
    {-2.84412035838E-5,1.061554250785E-5,8.940958869733E-7,3.340225547711E-8},
    {-2.78828327511E-5,1.061349362296E-5,8.893737627801E-7,3.354875135229E-8},
    {-2.72817858209E-5,1.06044203707E-5,8.6511993701E-7,3.293473446016E-8},
    {-2.7757224053E-5,1.061234472352E-5,8.828192209279E-7,3.513304053956E-8},
    {-3.00378923837E-5,1.064453730238E-5,9.062955974162E-7,3.392994637123E-8},
    {-2.6345073555E-5,1.059764876523E-5,8.886314297532E-7,3.618986748061E-8},
    {-2.73951510679E-5,1.060532592699E-5,9.080197509559E-7,3.549189913639E-8},
    {-2.88457180215E-5,1.060815235954E-5,8.770222516274E-7,3.407923239104E-8}}},
  {{1.18073804865E-15,-2.0575828388E-19,6.5572449187E-22},{Residual->2.21103129036E-17}},
  {{-370,1.34171084461E-15},{-296,1.30125414287E-15},{-222,1.25625423207E-15},{-148,1.22475268092E-15},{-74,1.20323467756E-15},
   {0,1.1841130243E-15},{74,1.19313620443E-15},{148,1.17660761611E-15},{222,1.12898928138E-15},{296,1.13848377652E-15},
   {370,1.23458934257E-15}}}}
