FD	 6.987040E-6	 9.243151E-8	
EX2	 6.942505E-6	 1.083000E-7	
FD	 6.941917E-6	 9.241603E-8	
AY	 6.913477E-6	 6.166781E-8	
EY	 6.913448E-6	 5.955990E-8	
R32	 6.910878E-6	 5.295080E-8	
AY	 6.912277E-6	 5.213164E-8	
EY	 6.912515E-6	 5.135116E-8	
R32	 6.912619E-6	 5.181329E-8	
AY	 6.915625E-6	 5.419925E-8	
EY	 6.917312E-6	 5.305078E-8	
R32	 6.916256E-6	 5.463860E-8	
AY	 6.911919E-6	 5.232558E-8	
EY	 6.911501E-6	 5.184001E-8	
R32	 6.911461E-6	 5.327493E-8	
Y24	 6.943307E-6	 5.177538E-8	
Y46	 7.032575E-6	 5.166130E-8	
Y22	 7.032575E-6	 5.166130E-8	
Y26	 7.032575E-6	 5.166130E-8	
Y66	 7.032575E-6	 5.166130E-8	
Y44	 7.032024E-6	 5.097760E-8	
AY	 7.025107E-6	 5.318635E-8	
EY	 7.019963E-6	 5.712889E-8	
R32	 7.023255E-6	 5.358877E-8	
Y24	 7.029033E-6	 5.354805E-8	
Y46	 6.902366E-6	 4.998557E-8	
Y22	 6.902366E-6	 4.998557E-8	
Y26	 6.902366E-6	 4.998557E-8	
Y66	 6.902366E-6	 4.998557E-8	
Y44	 6.902068E-6	 4.946082E-8	
AY	 6.902782E-6	 4.949632E-8	
EY	 6.903461E-6	 5.339789E-8	
R32	 6.901877E-6	 5.020456E-8	
Y24	 6.889726E-6	 4.975640E-8	
Y46	 6.889726E-6	 4.975640E-8	
Y22	 6.889896E-6	 4.891534E-8	
Y26	 6.889896E-6	 4.891534E-8	
Y66	 6.889896E-6	 4.891534E-8	
Y44	 6.890020E-6	 4.789439E-8	
AY	 6.888871E-6	 4.794511E-8	
EY	 6.887967E-6	 5.197737E-8	
R32	 6.887018E-6	 5.885238E-8	
Y24	 6.853050E-6	 5.687303E-8	
Y46	 6.814489E-6	 5.657573E-8	
Y22	 6.814489E-6	 5.657573E-8	
Y26	 6.814489E-6	 5.657573E-8	
Y66	 6.814489E-6	 5.657573E-8	
Y44	 6.815784E-6	 5.628343E-8	
