{{"FD",1,{1.089118432245E-5,1.363747427968E-5,3.410415030068E-6,6.588393297479E-7}},
 {"EX2",0,{-2.96800892455E-5,1.254563316468E-5,3.779004063756E-6,1.095567434477E-6}},
 {"FD",1,{-3.00751005598E-5,1.249673837874E-5,4.011872464562E-6,6.535936592202E-7}},
 {"AY",1,{-2.93825477329E-5,1.220403893343E-5,2.891749989147E-6,5.109647778224E-7},
  {{2.64243788052E-13,-2.7897986665E-13,3.53759547874E-12},{Residual->1.52865317253E-14}},
  {{-.5,1.29911214605E-12},{-.35,7.83828232335E-13},{-.2,4.52929790106E-13},{-.05,2.89486566682E-13},{.1,2.65501336019E-13},
   {.25,4.46337597051E-13},{.4,7.00746873931E-13}}},
 {"EY",1,{-2.90673884379E-5,1.219904927823E-5,2.515494826626E-6,4.867094870105E-7},
  {{2.56667073166E-13,2.0239261741E-13,4.30978200177E-13},{Residual->4.64680109498E-15}},
  {{-.5,2.63532570856E-13},{-.35,2.42843237562E-13},{-.2,2.24368468921E-13},{-.05,2.47789645893E-13},{.1,2.88130740284E-13},
   {.25,3.33117386117E-13},{.4,4.05108431048E-13}}},
 {"R32",1,{-2.93598137333E-5,1.269221977014E-5,2.069123211614E-6,7.432671997313E-8},
  {{2.39067087675E-13,-4.0714754954E-13,1.78427435273E-13},{Residual->7.46105203349E-15}},
  {{-.5,4.78296655149E-13},{-.35,4.19453580576E-13},{-.2,3.26950439747E-13},{-.05,2.53434058822E-13},{.1,1.97536657552E-13},
   {.25,1.49243207734E-13},{.4,1.06588420821E-13}}},
 {"AY",1,{-2.93151143637E-5,1.269086425427E-5,2.068528524453E-6,7.160743461826E-8},
  {{5.91641792977E-15,1.61882539377E-14,3.47610924698E-12},{Residual->5.87178492236E-15}},
  {{-.5,8.67373542295E-13},{-.35,4.25538294403E-13},{-.2,1.44747370809E-13},{-.05,8.32917980717E-15},{.1,3.80523089238E-14},
   {.25,2.39550173064E-13},{.4,5.62938904751E-13}}},
 {"EY",1,{-2.92850622715E-5,1.266220794091E-5,2.235486922953E-6,3.996839716093E-8},
  {{4.98342653523E-15,-8.8910449228E-14,4.55164077718E-13},{Residual->8.57525676268E-16}},
  {{-.5,1.62620011341E-13},{-.35,9.32338237915E-14},{-.2,4.07299016363E-14},{-.05,9.19566842024E-15},{.1,1.61414533515E-15},
   {.25,1.11328598192E-14},{.4,4.21949729556E-14}}},
 {"R32",1,{-2.92830999148E-5,1.264008786495E-5,2.231358917791E-6,3.99079960539E-8},
  {{2.20828618668E-15,5.43302281726E-15,1.87125949443E-13},{Residual->8.27732956159E-16}},
  {{-.5,4.63648563989E-14},{-.35,2.39884817699E-14},{-.2,7.13132818232E-15},{-.05,2.10371446837E-15},{.1,5.41524130277E-15},
   {.25,1.61372097066E-14},{.4,3.35796657564E-14}}},
 {"AY",1,{-2.93702479333E-5,1.263739126898E-5,2.230335484305E-6,3.966983083308E-8},
  {{-1.0828711219E-14,-1.6696348109E-14,3.94081605994E-12},{Residual->1.26210489937E-14}},
  {{-.3,3.59792714896E-13},{-.2,1.30682194283E-13},{-.1,2.70593472164E-14},{5.55111512313E-17,1.79762304403E-15},
   {.1,3.86931544853E-14},{.2,1.26448501696E-13},{.3,3.4315398263E-13}}},
 {"EY",1,{-2.93658142981E-5,1.264969334676E-5,2.262995172615E-6,3.932547218018E-8},
  {{6.78931331096E-16,-2.1928409219E-15,4.68738680796E-13},{Residual->1.06304636932E-15}},
  {{-.5,1.20298616463E-13},{-.35,5.68047976072E-14},{-.2,1.94449349487E-14},{-.05,2.65072250734E-15},{.1,6.15104491932E-15},
   {.25,2.93154222057E-14},{.4,7.43627708048E-14}}},
 {"R32",1,{-2.93656503766E-5,1.266259002949E-5,2.249619439398E-6,3.965315308228E-8},
  {{2.0424284229E-15,3.79564096777E-15,1.93234431599E-13},{Residual->1.37012228167E-15}},
  {{-.5,4.84784898552E-14},{-.35,2.56589721714E-14},{-.2,6.83765647544E-15},{-.05,2.30855695398E-15},{.1,4.36887703194E-15},
   {.25,1.73003756372E-14},{.4,3.31348909568E-14}}},
 {"AY",1,{-2.94002262809E-5,1.26577984983E-5,2.250393531152E-6,4.164896888066E-8},
  {{-1.3656291716E-15,-4.6157843861E-14,3.50643250496E-12},{Residual->3.46896322986E-15}},
  {{-.3,3.30239617541E-13},{-.2,1.46906569806E-13},{-.1,3.34439806945E-14},{5.55111512313E-17,2.06827419227E-15},
   {.1,2.74863771318E-14},{.2,1.35043000481E-13},{.3,2.97053877342E-13}}},
 {"EY",1,{-2.94004420282E-5,1.264301395356E-5,2.254963376678E-6,4.093059967404E-8},
  {{1.01945970452E-15,1.8025560288E-15,4.64670160669E-13},{Residual->5.81037435537E-16}},
  {{-.3,4.27765784958E-14},{-.2,1.84746055125E-14},{-.1,5.04969982605E-15},{5.55111512313E-17,2.04304803823E-15},
   {.1,5.94081424075E-15},{.2,1.94423614383E-14},{.3,4.35167553672E-14}}},
 {"R32",1,{-2.93944628213E-5,1.265832714311E-5,2.212593771182E-6,4.124388326075E-8},
  {{1.93642059854E-15,-1.6668946854E-15,2.00671646184E-13},{Residual->5.24259837809E-16}},
  {{-.3,2.09205518255E-14},{-.2,9.81343340155E-15},{-.1,3.96314952428E-15},{5.55111512313E-17,1.68760556693E-15},
   {.1,3.88105455677E-15},{.2,1.06283186107E-14},{.3,1.88488916356E-14}}},
 {"Y24",1,{-2.93025359371E-5,1.266638711396E-5,2.214874559567E-6,3.947683265691E-8},
  {{1.77848606681E-15,-1.4240302672E-15,1.81538095655E-15},{Residual->1.07189871409E-16}},
  {{-1.5,8.08218838576E-15},{-1.2,6.11237734744E-15},{-.9,4.52561061193E-15},{-.6,3.18986603475E-15},{-.3,2.2290073854E-15},
   {0,1.70105790643E-15},{.3,1.55842031662E-15},{.6,1.74249474737E-15},{.9,2.12258477164E-15},{1.2,2.71819382317E-15},
   {1.5,3.55381687423E-15}}},
 {"Y46",1,{-2.93025359371E-5,1.266638711396E-5,2.214874559567E-6,3.947683265691E-8},
  {{1.31991612583E-15,-1.1858307813E-15,1.24405358579E-14},{Residual->5.26752460374E-16}},
  {{-1,1.57261008302E-14},{-.8,1.02131327881E-14},{-.6,5.75835819031E-15},{-.4,2.95059329738E-15},{-.2,1.79074074122E-15},
   {0,1.55842031662E-15},{.2,2.17281694356E-15},{.4,3.44344330616E-15},{.6,5.38201787924E-15},{.8,8.153051501E-15},
   {1,1.21087593649E-14}}},
 {"Y22",1,{-2.93025359372E-5,1.266638711405E-5,2.214874559567E-6,3.947683265687E-8},
  {{1.96020452547E-15,2.84298968428E-15,9.77211662888E-15},{Residual->2.26865279273E-16}},
  {{-.6,3.56751924916E-15},{-.4,2.69145079153E-15},{-.2,1.99296635257E-15},{1.11022302463E-16,1.55842031662E-15},
   {.2,2.88595615191E-15},{.4,4.79645655943E-15},{.6,7.17343288143E-15}}},
 {"Y26",1,{-2.92948995181E-5,1.266223840639E-5,2.232392311874E-6,3.875760954455E-8},
  {{1.66187052803E-15,-4.3188655102E-15,2.73920201483E-14},{Residual->1.01643394038E-16}},
  {{-.6,1.40196380316E-14},{-.4,7.96524010461E-15},{-.2,3.59557016322E-15},{1.11022302463E-16,1.55842031662E-15},
   {.2,1.84783885375E-15},{.4,4.42486762093E-15},{.6,8.9005811715E-15}}},
 {"Y66",1,{-2.92948995181E-5,1.266223840639E-5,2.232392311874E-6,3.875760954455E-8},
  {{1.9854238585E-15,2.56634097652E-16,5.30831618365E-13},{Residual->3.41800888694E-16}},
  {{-.2,2.29114636653E-14},{-.15,1.42218718083E-14},{-.1,7.58001490977E-15},{-.05,3.19010484651E-15},{0,1.50215229761E-15},
   {.05,3.06174972187E-15},{.1,7.63565920623E-15},{.15,1.44637251924E-14},{.2,2.29268158333E-14}}},
 {"Y44",1,{-2.92948995181E-5,1.266223840639E-5,2.232392311874E-6,3.875760954455E-8},
  {{1.42170293475E-15,-2.5892999943E-16,7.15589965674E-15},{Residual->4.88535314042E-17}},
  {{-.6,4.18909176903E-15},{-.4,2.59670206672E-15},{-.2,1.75284744628E-15},{1.11022302463E-16,1.50215229761E-15},
   {.2,1.65263343613E-15},{.4,2.4084179752E-15},{.6,3.86468316783E-15}}},
 {"AY",1,{-2.90232882239E-5,1.267340888568E-5,2.234962537256E-6,3.854176455089E-8},
  {{-8.6342929619E-16,2.14129593767E-14,4.52220931358E-12},{Residual->3.25745451941E-15}},
  {{-.1,4.13236141299E-14},{-.07,2.02714395839E-14},{-.04,5.51346366926E-15},{-.01,1.76244245047E-15},{.02,2.8799163382E-15},
   {.05,4.33326016397E-15},{.08,3.34981726563E-14}}},
 {"EY",1,{-2.90260390351E-5,1.266309072565E-5,2.239491504456E-6,3.770245248078E-8},
  {{1.28524363039E-15,7.17014672585E-16,4.51859755597E-13},{Residual->1.63956217944E-16}},
  {{-.1,5.72933004484E-15},{-.07,3.45072395141E-15},{-.04,1.8927982138E-15},{-.01,1.45463826781E-15},{.02,1.63319368934E-15},
   {.05,2.10690267248E-15},{.08,4.38209521593E-15}}},
 {"R32",1,{-2.90168039463E-5,1.263967990368E-5,2.257674141599E-6,3.96472214004E-8},
  {{1.65357133253E-15,5.94280223234E-15,1.88740526096E-13},{Residual->3.66401344215E-16}},
  {{-.1,2.53507038688E-15},{-.07,2.92791576702E-15},{-.04,1.55503376103E-15},{-.01,1.42145694856E-15},{.02,1.91873639592E-15},
   {.05,2.1490555172E-15},{.08,3.54011402071E-15}}},
 {"Y24",1,{-2.90787133269E-5,1.263418104373E-5,2.256239541561E-6,3.852624076219E-8},
  {{1.57646778147E-15,7.1594709268E-16,1.43096066085E-15},{Residual->7.35103723963E-18}},
  {{-.3,1.49714171414E-15},{-.2,1.48427122727E-15},{-.1,1.51388116E-15},{5.55111512313E-17,1.57190216477E-15},
   {.1,1.67025966655E-15},{.2,1.78722161799E-15},{.3,1.91126590463E-15}}},
 {"Y46",1,{-2.90787133269E-5,1.263418104373E-5,2.256239541561E-6,3.852624076219E-8},
  {{1.43522401084E-15,-6.2351573843E-16,1.43595204028E-14},{Residual->1.99343607184E-16}},
  {{-.45,4.84184578323E-15},{-.3,2.70362475351E-15},{-.15,1.5927105511E-15},{-5.5511151231E-17,1.48427122727E-15},
   {.15,1.90898041075E-15},{.3,2.68714871586E-15},{.45,3.87448448797E-15}}},
 {"Y22",1,{-2.90787133269E-5,1.263418104376E-5,2.256239541561E-6,3.852624076212E-8},
  {{1.80082691548E-15,1.42014079066E-15,9.93230817448E-15},{Residual->1.65854443769E-16}},
  {{-.6,4.421461268E-15},{-.4,3.00193681029E-15},{-.2,2.02618336708E-15},{1.11022302463E-16,1.48427122726E-15},
   {.2,2.50297347541E-15},{.4,4.13518650315E-15},{.6,6.15796091255E-15}}},
 {"Y26",1,{-2.90787133269E-5,1.263418104373E-5,2.256239541561E-6,3.852624076212E-8},
  {{1.55883027724E-15,5.41858588206E-16,3.12307823492E-14},{Residual->6.89245515151E-17}},
  {{-.3,4.13958903418E-15},{-.2,2.78198991183E-15},{-.1,1.89945229509E-15},{5.55111512313E-17,1.48427122726E-15},
   {.1,1.84281137834E-15},{.2,2.96835956543E-15},{.3,4.53995758636E-15}}},
 {"Y66",1,{-2.90814568313E-5,1.263487553212E-5,2.253230076722E-6,3.832716627796E-8},
  {{2.20200408579E-15,-2.6428765949E-15,5.38857453116E-13},{Residual->3.861869575E-16}},
  {{-.2,2.39941866751E-14},{-.15,1.50327363116E-14},{-.1,8.34661044409E-15},{-.05,3.52897959923E-15},{0,1.48427122726E-15},
   {.05,3.30530541631E-15},{.1,7.7439155535E-15},{.15,1.42672082354E-14},{.2,2.2943441277E-14}}},
 {"Y44",1,{-2.90840580424E-5,1.264212815449E-5,2.241873453831E-6,3.739465128735E-8},
  {{1.46464183404E-15,-1.3772194439E-15,7.51437645354E-15},{Residual->7.93909472248E-18}},
  {{-.6,4.99973175909E-15},{-.4,3.21997017284E-15},{-.2,2.0255993964E-15},{1.11022302463E-16,1.4689716749E-15},
   {.2,1.49200747031E-15},{.4,2.12664331508E-15},{.6,3.33567067764E-15}}},
 {"AY",1,{-2.90899860396E-5,1.264019305012E-5,2.241399100668E-6,3.73339506079E-8},
  {{1.87796448859E-15,5.25301672165E-14,3.73461546796E-12},{Residual->3.86201639507E-15}},
  {{-.1,3.08382761283E-14},{-.07,2.28290536753E-14},{-.04,2.57271193957E-15},{-.01,1.80086154155E-15},{.02,6.98132992455E-15},
   {.05,8.37072302691E-15},{.08,3.28022240989E-14}}},
 {"EY",1,{-2.90857209556E-5,1.263862879374E-5,2.229273949454E-6,3.789581416987E-8},
  {{1.31927754241E-15,2.2017245269E-15,3.76217130849E-13},{Residual->4.11766961921E-16}},
  {{-.1,5.33041990441E-15},{-.07,2.22948078887E-15},{-.04,1.94872647767E-15},{-.01,1.32322380523E-15},{.02,1.60959764347E-15},
   {.05,2.83184051842E-15},{.08,3.55155663089E-15}}},
 {"R32",1,{-2.90818433497E-5,1.265858549056E-5,2.226459887794E-6,3.53337734134E-8},
  {{1.60515368952E-15,-9.3550384509E-15,2.01213754123E-13},{Residual->1.73061323612E-16}},
  {{-.1,4.54450501968E-15},{-.07,3.11952567656E-15},{-.04,2.61960625505E-15},{-.01,1.6236153105E-15},{.02,1.26294655327E-15},
   {.05,1.80589505888E-15},{.08,2.12627087606E-15}}},
 {"Y24",1,{-2.90818433497E-5,1.265858549056E-5,2.226459887794E-6,3.53337734134E-8},
  {{1.25260817531E-15,9.02703437909E-17,1.96789292428E-15},{Residual->2.25127548122E-18}},
  {{-.3,1.40144162573E-15},{-.2,1.31398993047E-15},{-.1,1.26691932319E-15},{5.55111512313E-17,1.24847554363E-15},
   {.1,1.28249259073E-15},{.2,1.34835626339E-15},{.3,1.45759196881E-15}}},
 {"Y46",1,{-2.90789509341E-5,1.265816845588E-5,2.226437390678E-6,3.525679480911E-8},
  {{1.23164472191E-15,1.60911333941E-16,1.24033959515E-14},{Residual->1.40412509235E-16}},
  {{-.45,3.82929551462E-15},{-.3,2.13364236758E-15},{-.15,1.33164070014E-15},{-5.5511151231E-17,1.24847554363E-15},
   {.15,1.69877545528E-15},{.3,2.51760463839E-15},{.45,3.67621828321E-15}}},
 {"Y22",1,{-2.90789509341E-5,1.265816845587E-5,2.226437390678E-6,3.525679480916E-8},
  {{1.60215984338E-15,1.65537810951E-15,1.00659258336E-14},{Residual->2.05693526152E-16}},
  {{-.6,4.062743548E-15},{-.4,2.78697977783E-15},{-.2,1.8956532596E-15},{1.11022302463E-16,1.24304158022E-15},
   {.2,2.26624575716E-15},{.4,4.04116062807E-15},{.6,6.1931312864E-15}}},
 {"Y26",1,{-2.90739386134E-5,1.265609490338E-5,2.23638503105E-6,3.490848454856E-8},
  {{1.29943250974E-15,-2.6514589368E-15,3.21405204856E-14},{Residual->3.9527681532E-17}},
  {{-.3,5.0072765016E-15},{-.2,3.09244439422E-15},{-.1,1.89896409131E-15},{5.55111512313E-17,1.24304158015E-15},
   {.1,1.37959692814E-15},{.2,2.12014899298E-15},{.3,3.35390081577E-15}}},
 {"Y66",1,{-2.90739386134E-5,1.265609490338E-5,2.23638503105E-6,3.490848454856E-8},
  {{2.01204239916E-15,8.47325705622E-16,5.31070779697E-13},{Residual->4.30930701446E-16}},
  {{-.2,2.26476469864E-14},{-.15,1.42217072664E-14},{-.1,7.88566057498E-15},{-.05,3.24161619694E-15},{0,1.21860229348E-15},
   {.05,3.17426376221E-15},{.1,7.75053952562E-15},{.15,1.43805663691E-14},{.2,2.32483955719E-14}}},
 {"Y44",1,{-2.90745606015E-5,1.26577015112E-5,2.233712614198E-6,3.477679391221E-8},
  {{1.21183818944E-15,-3.3733166436E-16,7.81497786172E-15},{Residual->1.33568568165E-17}},
  {{-.6,4.24080228891E-15},{-.4,2.56780435002E-15},{-.2,1.60463059068E-15},{1.11022302463E-16,1.21860229348E-15},
   {.2,1.45635050626E-15},{.4,2.32511917472E-15},{.6,3.82233332712E-15}}},
 {"AY",1,{-2.90360030974E-5,1.265595931739E-5,2.23388027813E-6,3.593490966274E-8},
  {{2.41475297223E-15,4.45476791177E-14,3.0452887795E-12},{Residual->4.28615275206E-15}},
  {{-.1,2.38139823803E-14},{-.07,2.23702806428E-14},{-.04,2.7568383012E-15},{-.01,4.51958696258E-15},{.02,1.74114891285E-15},
   {.05,8.91082959251E-15},{.08,2.85452458643E-14}}},
 {"EY",1,{-2.90433436864E-5,1.264237581084E-5,2.29218224845E-6,3.673108946117E-8},
  {{1.2929930046E-15,-5.5100608696E-15,3.48165293543E-13},{Residual->1.02859145118E-16}},
  {{-.1,5.41503074935E-15},{-.07,3.32240187029E-15},{-.04,1.88366605882E-15},{-.01,1.50094753723E-15},{.02,1.37108132221E-15},
   {.05,1.95817391048E-15},{.08,3.00283494742E-15}}},
 {"R32",1,{-2.90526129673E-5,1.264954321065E-5,2.326135672581E-6,3.802870236696E-8},
  {{1.53649230413E-15,-3.4434755121E-15,1.69993861859E-13},{Residual->1.48107335352E-16}},
  {{-.1,3.48160895614E-15},{-.07,2.84949994412E-15},{-.04,1.87628039747E-15},{-.01,1.44721757622E-15},{.02,1.47499203946E-15},
   {.05,2.01249576521E-15},{.08,2.25723575829E-15}}},
 {"Y24",1,{-2.91115159193E-5,1.264279335977E-5,2.325712006005E-6,3.687658735068E-8},
  {{1.44573094862E-15,7.14738390418E-16,1.56783984638E-15},{Residual->4.36986049143E-18}},
  {{-.3,1.3773949058E-15},{-.2,1.35988269463E-15},{-.1,1.3854894331E-15},{5.55111512313E-17,1.44618220371E-15},
   {.1,1.5396492461E-15},{.2,1.65248215509E-15},{.3,1.79803115888E-15}}},
 {"Y46",1,{-2.91043882319E-5,1.264214212913E-5,2.325972084811E-6,3.653792013827E-8},
  {{1.30005683528E-15,4.30921915576E-16,1.35852851453E-14},{Residual->1.48408985633E-16}},
  {{-.45,4.03279205076E-15},{-.3,2.19608850362E-15},{-.15,1.37377928073E-15},{-5.5511151231E-17,1.35988269463E-15},
   {.15,1.83396222521E-15},{.3,2.7476259401E-15},{.45,4.11499679342E-15}}},
 {"Y22",1,{-2.91108218318E-5,1.264211592872E-5,2.322734758511E-6,3.590965743285E-8},
  {{1.63481766456E-15,6.36942990294E-16,9.85837741533E-15},{Residual->1.63423922424E-16}},
  {{-.6,4.69616432661E-15},{-.4,3.17664197636E-15},{-.2,1.94018282845E-15},{1.11022302463E-16,1.33501960805E-15},
   {.2,2.21536352154E-15},{.4,3.63172530316E-15},{.6,5.49000879293E-15}}},
 {"Y26",1,{-2.91094318843E-5,1.26419895168E-5,2.325260437532E-6,3.578619166702E-8},
  {{1.39234440023E-15,-6.3303442051E-16,3.28151345733E-14},{Residual->5.32562335338E-17}},
  {{-.3,4.51648050195E-15},{-.2,2.85640466464E-15},{-.1,1.84131305696E-15},{5.55111512313E-17,1.28950349694E-15},
   {.1,1.65919686691E-15},{.2,2.64337903651E-15},{.3,4.12837085825E-15}}},
 {"Y66",1,{-2.9110991733E-5,1.26419547125E-5,2.323844703386E-6,3.574704884555E-8},
  {{2.09883336431E-15,-1.1565565014E-15,5.43090964067E-13},{Residual->4.46305196037E-16}},
  {{-.2,2.40260803749E-14},{-.15,1.46361277692E-14},{-.1,7.91383054997E-15},{-.05,3.29385201842E-15},{0,1.28065151403E-15},
   {.05,3.43021924774E-15},{.1,8.15373781522E-15},{.15,1.45477288543E-14},{.2,2.3070916745E-14}}},
 {"Y44",1,{-2.9110991733E-5,1.26419547125E-5,2.323844703386E-6,3.574704884556E-8},
  {{1.35148721418E-15,-1.2986292869E-15,7.91139558952E-15},{Residual->1.06123836852E-16}},
  {{-.6,5.04486220072E-15},{-.4,3.12678698218E-15},{-.2,1.78774824689E-15},{1.11022302463E-16,1.27785150117E-15},
   {.2,1.5769755876E-15},{.4,2.19423790392E-15},{.6,3.31271113706E-15}}}}
