{{"FD",1,{-5.00012952248E-6,1.476464551353E-5,-6.66923334476E-6,3.937549244803E-7}},
 {"EX2",1,{-7.21599978803E-6,1.466623443489E-5,-6.60714880425E-6,4.240450206466E-7}},
 {"FD",1,{-7.31072549635E-6,1.465520940812E-5,-6.54085502842E-6,3.961212947944E-7}},
 {"AY",1,{-7.98991679616E-6,1.504027508785E-5,-5.9466165895E-6,4.048179587819E-7},
  {{1.60899269968E-13,-9.6755864901E-15,2.99419745254E-12},{Residual->3.76267957153E-15}},
  {{-.5,9.10320011487E-13},{-.35,5.37551213219E-13},{-.2,2.81257621618E-13},{-.05,1.70164399927E-13},{.1,1.88787319833E-13},
   {.25,3.40698519098E-13},{.4,6.39645110387E-13}}},
 {"EY",1,{-8.12167104717E-6,1.506771228077E-5,-5.52798516774E-6,2.787283175632E-7},
  {{1.65618426317E-13,-4.1356491798E-13,4.88580788817E-13},{Residual->2.61860326161E-15}},
  {{-.5,4.94251721751E-13},{-.35,3.69016654938E-13},{-.2,2.72777901028E-13},{-.05,1.82878896328E-13},{.1,1.30067673078E-13},
   {.25,9.29976411985E-14},{.4,7.84422779478E-14}}},
 {"R32",1,{-1.0314179955E-5,1.50744992152E-5,-5.79132073608E-6,4.89375165712E-8},
  {{7.89993577326E-14,-1.9944953216E-13,1.27775142145E-13},{Residual->1.61327091818E-15}},
  {{-.5,2.09425617037E-13},{-.35,1.65707705289E-13},{-.2,1.26386339311E-13},{-.05,8.64061153309E-14},{.1,6.08200305706E-14},
   {.25,3.64693364961E-14},{.4,2.0322100888E-14}}},
 {"AY",1,{-1.03006594173E-5,1.506430691937E-5,-5.77685408373E-6,4.783013652294E-8},
  {{5.63892186075E-15,-1.2669167693E-13,2.84232792951E-12},{Residual->8.57329336287E-15}},
  {{-.5,7.79002560705E-13},{-.35,3.8982735281E-13},{-.2,1.63463772196E-13},{-.05,1.45001690539E-14},{.1,1.42211196367E-14},
   {.25,1.49598432913E-13},{.4,4.13608466991E-13}}},
 {"EY",1,{-1.02436663283E-5,1.505709957068E-5,-5.71983218186E-6,3.475349319077E-8},
  {{3.20170537619E-15,-5.4166009661E-14,4.69985713225E-13},{Residual->4.55910316398E-16}},
  {{-.5,1.48307239078E-13},{-.35,7.90241049448E-14},{-.2,3.27013798813E-14},{-.05,6.89748056663E-15},{.1,3.04319437333E-15},
   {.25,1.9400301957E-14},{.4,5.63120895278E-14}}},
 {"R32",1,{-1.01768924282E-5,1.505099356939E-5,-5.70990431662E-6,3.790638263582E-8},
  {{1.83997025878E-15,5.22330197537E-15,1.39295970248E-13},{Residual->2.16219585993E-16}},
  {{-.5,3.39010148901E-14},{-.35,1.71278413441E-14},{-.2,6.67697242866E-15},{-.05,2.02279628212E-15},{.1,3.35581396738E-15},
   {.25,1.17705672161E-14},{.4,2.63907707268E-14}}},
 {"AY",1,{-1.01547926585E-5,1.504471620358E-5,-5.68148374796E-6,3.829340775183E-8},
  {{3.02338881196E-15,-5.5993555016E-14,2.69272854739E-12},{Residual->1.08161076524E-14}},
  {{-.3,2.64202780816E-13},{-.2,1.26510212164E-13},{-.1,2.42752174909E-14},{5.55111512313E-17,1.35017589257E-15},
   {.1,2.06937832724E-14},{.2,1.21858389E-13},{.3,2.16237156317E-13}}},
 {"EY",1,{-1.0114117274E-5,1.504449199587E-5,-5.68264444261E-6,3.934265115781E-8},
  {{2.03476965035E-15,-2.6476085976E-15,4.7190394371E-13},{Residual->6.25826282814E-16}},
  {{-.5,1.20704595985E-13},{-.35,6.17288949974E-14},{-.2,2.19285310012E-14},{-.05,2.27734801541E-15},{.1,6.62640874315E-15},
   {.25,3.08321383754E-14},{.4,7.66299369964E-14}}},
 {"R32",1,{-1.01620130735E-5,1.504819337274E-5,-5.69345714932E-6,3.636938788884E-8},
  {{1.9968808047E-15,-7.8249512338E-15,1.47077950769E-13},{Residual->7.95509822101E-16}},
  {{-.5,4.32009851156E-14},{-.35,2.13661864604E-14},{-.2,1.06755924537E-14},{-.05,2.43694816292E-15},{.1,2.29081762968E-15},
   {.25,9.85545701004E-15},{.4,2.21238848555E-14}}},
 {"AY",1,{-1.01680006238E-5,1.505511445792E-5,-5.71432466984E-6,3.392428046024E-8},
  {{-1.6626085378E-15,5.23431059892E-14,2.89984735755E-12},{Residual->6.67033324605E-15}},
  {{-.3,2.40806601508E-13},{-.2,1.02286243507E-13},{-.1,3.0950779508E-14},{5.55111512313E-17,1.29756811988E-15},
   {.1,2.85703108869E-14},{.2,1.13289033526E-13},{.3,2.83118463293E-13}}},
 {"EY",1,{-1.01521316783E-5,1.505406700359E-5,-5.70777336797E-6,3.435696834671E-8},
  {{1.25665584233E-15,-5.0838496859E-15,4.88147673731E-13},{Residual->5.09495269628E-16}},
  {{-.3,4.6186386156E-14},{-.2,2.24867717359E-14},{-.1,6.86544227845E-15},{5.55111512313E-17,1.19014051355E-15},
   {.1,5.57208356315E-15},{.2,1.89400643473E-14},{.3,4.42370509466E-14}}},
 {"R32",1,{-1.01860812141E-5,1.50548417208E-5,-5.71015741596E-6,3.420346891993E-8},
  {{1.69414895204E-15,8.27891376714E-16,1.45643959549E-13},{Residual->8.71203036307E-16}},
  {{-.3,1.34502110475E-14},{-.2,9.0516632268E-15},{-.1,3.37763446734E-15},{5.55111512313E-17,1.22034431029E-15},
   {.1,2.37534234756E-15},{.2,7.71812024455E-15},{.3,1.54460356939E-14}}},
 {"Y24",1,{-1.01860812141E-5,1.50548417208E-5,-5.71015741596E-6,3.420346891993E-8},
  {{1.19515773696E-15,-6.419313588E-17,8.03557020238E-16},{Residual->2.39650195688E-17}},
  {{-1.5,3.06751987791E-15},{-1.2,2.4703075638E-15},{-.9,1.92766307259E-15},{-.6,1.52452989382E-15},{-.3,1.24956691131E-15},
   {0,1.16987728616E-15},{.3,1.24984393677E-15},{.6,1.45896629271E-15},{.9,1.80986169681E-15},{1.2,2.28435491005E-15},
   {1.5,2.88945816492E-15}}},
 {"Y46",1,{-1.01860812141E-5,1.50548417208E-5,-5.71015741596E-6,3.420346891993E-8},
  {{1.17844578248E-15,-5.5916351497E-16,5.94273744773E-15},{Residual->1.91606383718E-16}},
  {{-1,7.93500512945E-15},{-.8,5.42379447647E-15},{-.6,3.46852086309E-15},{-.4,2.0931992014E-15},{-.2,1.34037182144E-15},
   {0,1.16987728616E-15},{.2,1.51683793099E-15},{.4,2.17161331335E-15},{.6,3.17097116098E-15},{.8,4.47582497314E-15},
   {1,6.34493222085E-15}}},
 {"Y22",1,{-1.01860812141E-5,1.505484172086E-5,-5.71015741596E-6,3.42034689207E-8},
  {{1.17520527078E-15,4.87510936805E-16,2.62753018689E-14},{Residual->2.11962914569E-16}},
  {{-.6,1.06061808979E-14},{-.4,4.77859608026E-15},{-.2,2.10842479288E-15},{1.11022302463E-16,1.16987728621E-15},
   {.2,2.5523740811E-15},{.4,5.6561187389E-15},{.6,1.07832031114E-14}}},
 {"Y26",1,{-1.01860812141E-5,1.505484172077E-5,-5.71015741596E-6,3.42034689207E-8},
  {{2.23444090218E-15,3.3332098273E-14,3.3198526966E-13},{Residual->2.79713721099E-15}},
  {{-.6,9.8672479365E-14},{-.4,4.5198967455E-14},{-.2,1.24637227725E-14},{1.11022302463E-16,1.16987728621E-15},
   {.2,1.80399853567E-14},{.4,6.82598075459E-14},{.6,1.43659748553E-13}}},
 {"Y66",1,{-1.01860812141E-5,1.505484172077E-5,-5.71015741596E-6,3.42034689207E-8},
  {{1.19787385802E-15,-6.090918393E-14,2.99166651309E-12},{Residual->2.31756755118E-15}},
  {{-.2,1.35539659721E-13},{-.15,7.71672391103E-14},{-.1,3.46268816145E-14},{-.05,8.54614461682E-15},{0,1.16987728621E-15},
   {.05,8.34485712128E-15},{.1,2.77515622401E-14},{.15,6.06537492348E-14},{.2,1.05730870741E-13}}},
 {"Y44",1,{-1.01860812141E-5,1.50548417208E-5,-5.71015741596E-6,3.420346892025E-8},
  {{9.35244791627E-16,-1.3078287331E-15,2.17815555697E-14},{Residual->4.52425910521E-16}},
  {{-.6,1.01167036114E-14},{-.4,4.26630824042E-15},{-.2,1.61297742222E-15},{1.11022302463E-16,1.16987728618E-15},
   {.2,2.01176155077E-15},{.4,4.13318072428E-15},{.6,7.63124694418E-15}}},
 {"AY",1,{-1.01499753754E-5,1.505086560282E-5,-5.7003037487E-6,3.436598926623E-8},
  {{4.60304639193E-16,-1.7268104437E-14,2.99498049628E-12},{Residual->2.32539448298E-15}},
  {{-.1,3.00086886784E-14},{-.07,2.03539900195E-14},{-.04,4.0783421245E-15},{-.01,1.86674407351E-15},{.02,1.52642077485E-15},
   {.05,4.03503954404E-15},{.08,2.01316694238E-14}}},
 {"EY",1,{-1.01055685791E-5,1.504866327588E-5,-5.70151701341E-6,3.535910175894E-8},
  {{1.21887772173E-15,1.32587351702E-15,5.21606737097E-13},{Residual->1.67000401647E-16}},
  {{-.1,6.41596017118E-15},{-.07,3.60861024603E-15},{-.04,1.85180328423E-15},{-.01,1.22092830472E-15},{.02,1.4855105707E-15},
   {.05,2.91627016943E-15},{.08,4.44986465045E-15}}},
 {"R32",1,{-1.02079106974E-5,1.505435348384E-5,-5.70908273805E-6,3.446887005016E-8},
  {{1.37546737273E-15,-6.1674008758E-15,1.66959799771E-13},{Residual->1.10460364302E-16}},
  {{-.1,3.52814276514E-15},{-.07,2.79825363162E-15},{-.04,1.99688392312E-15},{-.01,1.37289747209E-15},{.02,1.191502535E-15},
   {.05,1.48892889754E-15},{.08,2.00763925995E-15}}},
 {"Y24",1,{-1.01884636548E-5,1.505449316533E-5,-5.70918021815E-6,3.415531103037E-8},
  {{1.18884413334E-15,-3.3021241799E-16,1.23310779987E-15},{Residual->1.54155840777E-18}},
  {{-.3,1.39984279029E-15},{-.2,1.30187161309E-15},{-.1,1.23623832589E-15},{5.55111512313E-17,1.18810300253E-15},
   {.1,1.16719084028E-15},{.2,1.17407332343E-15},{.3,1.19985922181E-15}}},
 {"Y46",1,{-1.01884636548E-5,1.505449316533E-5,-5.70918021815E-6,3.415531103037E-8},
  {{1.17918282393E-15,-2.4080430268E-16,6.017649804E-15},{Residual->5.58551905197E-17}},
  {{-.45,2.55946714183E-15},{-.3,1.74923918384E-15},{-.15,1.28584402312E-15},{-5.5511151231E-17,1.16658527158E-15},
   {.15,1.34290104383E-15},{.3,1.71564273832E-15},{.45,2.22571974151E-15}}},
 {"Y22",1,{-1.01884636548E-5,1.50544931653E-5,-5.70918021815E-6,3.415531103037E-8},
  {{1.20717617454E-15,-2.7199468905E-15,2.71150360109E-14},{Residual->3.55382595965E-16}},
  {{-.6,1.30085240431E-14},{-.4,6.16616103014E-15},{-.2,2.53231936879E-15},{1.11022302463E-16,1.16658527158E-15},
   {.2,2.24474176098E-15},{.4,4.68845702806E-15},{.6,9.01228505142E-15}}},
 {"Y26",1,{-1.01884636548E-5,1.50544931653E-5,-5.70918021815E-6,3.415531103037E-8},
  {{9.74934063644E-16,3.33958473813E-14,3.59790195722E-13},{Residual->1.36593886073E-15}},
  {{-.3,2.2016720258E-14},{-.2,9.75686292554E-15},{-.1,3.02403837873E-15},{5.55111512313E-17,1.16658527158E-15},
   {.1,5.70649755993E-15},{.2,2.12954664501E-14},{.3,4.45996224037E-14}}},
 {"Y66",1,{-1.01884636548E-5,1.50544931653E-5,-5.70918021815E-6,3.415531103037E-8},
  {{1.49575680486E-15,-1.0298910828E-13,2.98835366146E-12},{Residual->2.27280401415E-15}},
  {{-.2,1.43871043276E-13},{-.15,8.39524415387E-14},{-.1,3.93919932756E-14},{-.05,1.0809744028E-14},{0,1.16658527158E-15},
   {.05,6.58738666214E-15},{.1,2.41109991851E-14},{.15,5.41401504761E-14},{.2,9.76845167502E-14}}},
 {"Y44",1,{-1.01884636548E-5,1.50544931653E-5,-5.70918021815E-6,3.415531103037E-8},
  {{9.48644634357E-16,-4.0954281252E-15,2.29563493467E-14},{Residual->5.42645212696E-16}},
  {{-.6,1.23008957985E-14},{-.4,5.57557658602E-15},{-.2,2.03296374305E-15},{1.11022302463E-16,1.16658527158E-15},
   {.2,1.69403808875E-15},{.4,3.28632394209E-15},{.6,6.29524027881E-15}}},
 {"AY",1,{-1.01643482882E-5,1.505494357555E-5,-5.71535256618E-6,3.359095578531E-8},
  {{9.39830795908E-16,-1.31526464E-14,2.76047665106E-12},{Residual->1.08040402842E-15}},
  {{-.1,2.87047808051E-14},{-.07,1.76484142886E-14},{-.04,5.02342837134E-15},{-.01,1.308338083E-15},{.02,1.76438516298E-15},
   {.05,6.39351462483E-15},{.08,1.81529847459E-14}}},
 {"EY",1,{-1.01871902671E-5,1.505641887692E-5,-5.70700390562E-6,3.552447353153E-8},
  {{1.03862320356E-15,-2.356094458E-15,5.42040699514E-13},{Residual->8.25159417985E-17}},
  {{-.1,6.75550228276E-15},{-.07,3.79529805946E-15},{-.04,1.88220537817E-15},{-.01,1.23924829272E-15},{.02,1.27686997184E-15},
   {.05,2.19802223139E-15},{.08,4.32699693807E-15}}},
 {"R32",1,{-1.01376259826E-5,1.505110940813E-5,-5.69536176465E-6,3.626794451344E-8},
  {{1.4456888627E-15,5.86291128506E-15,1.57237213386E-13},{Residual->1.55214611745E-16}},
  {{-.1,2.45892787523E-15},{-.07,1.88529334788E-15},{-.04,1.31228300073E-15},{-.01,1.28936468784E-15},{.02,1.66608263273E-15},
   {.05,2.43290060974E-15},{.08,2.73700992151E-15}}},
 {"Y24",1,{-1.01376259826E-5,1.505110940813E-5,-5.69536176465E-6,3.626794451344E-8},
  {{1.3137128666E-15,4.1954454736E-19,1.06546125577E-15},{Residual->3.96497021277E-18}},
  {{-.3,1.40515694099E-15},{-.2,1.36148447921E-15},{-.1,1.32668884137E-15},{5.55111512313E-17,1.31536379923E-15},
   {.1,1.31772965195E-15},{.2,1.35511281973E-15},{.3,1.41278268535E-15}}},
 {"Y46",1,{-1.01376259826E-5,1.505110940813E-5,-5.69536176465E-6,3.626794451344E-8},
  {{1.31757345574E-15,-4.8900911584E-16,6.62616386476E-15},{Residual->6.45602687687E-17}},
  {{-.45,2.94735596952E-15},{-.3,1.99587626795E-15},{-.15,1.46731827394E-15},{-5.5511151231E-17,1.31536379923E-15},
   {.15,1.46470442978E-15},{.3,1.83804005159E-15},{.45,2.36883863297E-15}}},
 {"Y22",1,{-1.01376259826E-5,1.505110940813E-5,-5.69536176465E-6,3.626794451344E-8},
  {{1.31454520472E-15,-6.1819297E-16,2.69859156069E-14},{Residual->3.39752026713E-16}},
  {{-.6,1.18161363925E-14},{-.4,5.33752530481E-15},{-.2,2.31039617759E-15},{1.11022302463E-16,1.31536379923E-15},
   {.2,2.69548196441E-15},{.4,5.57692145433E-15},{.6,1.03742168199E-14}}},
 {"Y26",1,{-1.01376259826E-5,1.505110940813E-5,-5.69536176465E-6,3.626794451344E-8},
  {{1.11325372765E-15,2.15159532741E-14,3.65761077725E-13},{Residual->1.28976256806E-15}},
  {{-.3,2.62610297452E-14},{-.2,1.26571519793E-14},{-.1,4.13267694183E-15},{5.55111512313E-17,1.31536379923E-15},
   {.1,4.80824998943E-15},{.2,1.94277268909E-14},{.3,4.16036785107E-14}}},
 {"Y66",1,{-1.01376259826E-5,1.505110940813E-5,-5.69536176465E-6,3.626794451344E-8},
  {{1.43259777132E-15,-6.9409858264E-14,3.03103603731E-12},{Residual->2.03999036667E-15}},
  {{-.2,1.38606475421E-13},{-.15,7.97619625639E-14},{-.1,3.65924456054E-14},{-.05,9.42601631308E-15},{0,1.31536379923E-15},
   {.05,8.32582240378E-15},{.1,2.75420283135E-14},{.15,5.92314413975E-14},{.2,1.06747229721E-13}}},
 {"Y44",1,{-1.01376259826E-5,1.505110940813E-5,-5.69536176465E-6,3.626794451799E-8},
  {{1.11521988462E-15,-2.3119233353E-15,2.30363533467E-14},{Residual->5.23073868625E-16}},
  {{-.6,1.14090954042E-14},{-.4,5.04803431554E-15},{-.2,1.89420124269E-15},{1.11022302463E-16,1.31536379956E-15},
   {.2,2.1762019474E-15},{.4,4.19849123279E-15},{.6,7.56586699851E-15}}},
 {"AY",1,{-1.01748780421E-5,1.504697171661E-5,-5.67510665352E-6,3.765403461632E-8},
  {{5.35691440524E-16,-3.1110729876E-14,2.6445659012E-12},{Residual->6.73290023478E-16}},
  {{-.1,2.99551932527E-14},{-.07,1.65997912511E-14},{-.04,4.6146563947E-15},{-.01,1.34837575994E-15},{.02,1.41925478749E-15},
   {.05,5.75488607946E-15},{.08,1.47296904907E-14}}},
 {"EY",1,{-1.01620769583E-5,1.504769578026E-5,-5.6901451971E-6,3.688685289222E-8},
  {{1.42124014558E-15,1.03276178974E-14,4.69960626091E-13},{Residual->1.97528814603E-16}},
  {{-.1,4.94207689013E-15},{-.07,3.18167254501E-15},{-.04,1.81311500609E-15},{-.01,1.35669758802E-15},{.02,1.90683868502E-15},
   {.05,2.71626920633E-15},{.08,5.48105806145E-15}}},
 {"R32",1,{-1.01785161118E-5,1.505025016817E-5,-5.69015809531E-6,3.630590684999E-8},
  {{1.48868456078E-15,-5.8806501087E-15,1.87886058033E-13},{Residual->1.12178676085E-16}},
  {{-.1,3.90987611886E-15},{-.07,2.7925939676E-15},{-.04,2.25681210924E-15},{-.01,1.42696520287E-15},{.02,1.44025461702E-15},
   {.05,1.58141104387E-15},{.08,2.29077327665E-15}}},
 {"Y24",1,{-1.01814081933E-5,1.505022708603E-5,-5.69011302842E-6,3.626177632052E-8},
  {{1.31884971069E-15,5.55368208943E-17,1.37384378312E-15},{Residual->1.03323212924E-18}},
  {{-.3,1.42582227534E-15},{-.2,1.3621020942E-15},{-.1,1.32823461953E-15},{5.55111512313E-17,1.3181188722E-15},
   {.1,1.33925840727E-15},{.2,1.38311357148E-15},{.3,1.45997439407E-15}}},
 {"Y46",1,{-1.01814081933E-5,1.505022708603E-5,-5.69011302842E-6,3.626177632052E-8},
  {{1.31857094715E-15,-8.9013581771E-16,6.65336015701E-15},{Residual->7.77592971641E-17}},
  {{-.45,3.14504648782E-15},{-.3,2.11561246721E-15},{-.15,1.507035072E-15},{-5.5511151231E-17,1.31491642192E-15},
   {.15,1.42313739212E-15},{.3,1.73590542039E-15},{.45,2.17996026753E-15}}},
 {"Y22",1,{-1.01814081933E-5,1.505022708603E-5,-5.69011302842E-6,3.626177632052E-8},
  {{1.43211160164E-15,-5.6889017635E-15,2.86517900447E-14},{Residual->4.8836628325E-16}},
  {{-.6,1.56590950299E-14},{-.4,7.83132271472E-15},{-.2,3.17732705188E-15},{1.11022302463E-16,1.31491642192E-15},
   {.2,2.14519809871E-15},{.4,4.14657063639E-15},{.6,7.84035610799E-15}}},
 {"Y26",1,{-1.01814081933E-5,1.505022708603E-5,-5.69011302842E-6,3.626177632052E-8},
  {{1.49869649703E-15,4.61703497402E-14,3.68818828683E-13},{Residual->1.47469375954E-15}},
  {{-.3,1.93046697306E-14},{-.2,8.43117620453E-15},{-.1,2.53018745001E-15},{5.55111512313E-17,1.31491642192E-15},
   {.1,7.50451544774E-15},{.2,2.49450338914E-14},{.3,4.97296483644E-14}}},
 {"Y66",1,{-1.01814081933E-5,1.505022708603E-5,-5.69011302842E-6,3.626177632052E-8},
  {{2.10227947652E-15,-1.4144919983E-13,2.9987166561E-12},{Residual->2.43525492201E-15}},
  {{-.2,1.52507657024E-13},{-.15,9.08595945701E-14},{-.1,4.39201017379E-14},{-.05,1.31334133105E-14},{0,1.31491642192E-15},
   {.05,5.65231577709E-15},{.1,2.126931773E-14},{.15,4.92383106716E-14},{.2,9.08323864612E-14}}},
 {"Y44",1,{-1.01814081933E-5,1.505022708603E-5,-5.69011302842E-6,3.626177632052E-8},
  {{1.18487240649E-15,-6.952726163E-15,2.45824601299E-14},{Residual->6.34708122597E-16}},
  {{-.6,1.48740140045E-14},{-.4,7.30178042646E-15},{-.2,2.68312373407E-15},{1.11022302463E-16,1.31491642192E-15},
   {.2,1.59750425278E-15},{.4,2.78941421875E-15},{.6,5.26570913242E-15}}}}
