FD	 1.051807E-5	 2.111082E-7	
EX2	 1.079060E-5	 3.669781E-7	
FD	 1.078836E-5	 3.656064E-7	
AY	 1.078831E-5	 3.650173E-7	
EY	 1.077878E-5	 1.181817E-7	
R32	 1.076679E-5	 1.007658E-7	
AY	 1.076692E-5	 1.007037E-7	
EY	 1.076636E-5	 6.981069E-8	
R32	 1.076651E-5	 7.200234E-8	
AY	 1.076656E-5	 7.196146E-8	
EY	 1.076720E-5	 5.791315E-8	
R32	 1.076599E-5	 5.951292E-8	
AY	 1.076602E-5	 5.950878E-8	
EY	 1.076706E-5	 5.442401E-8	
R32	 1.076565E-5	 5.532580E-8	
Y24	 1.074740E-5	 3.941719E-8	
Y46	 1.075044E-5	 3.879712E-8	
AY	 1.075035E-5	 3.768299E-8	
EY	 1.075035E-5	 3.777690E-8	
R32	 1.075009E-5	 3.689130E-8	
Y24	 1.074582E-5	 3.502242E-8	
Y46	 1.074774E-5	 3.472174E-8	
AY	 1.074774E-5	 3.475365E-8	
EY	 1.074765E-5	 3.452999E-8	
R32	 1.074753E-5	 3.357190E-8	
Y24	 1.074665E-5	 3.311477E-8	
Y46	 1.074665E-5	 3.311477E-8	
AY	 1.074665E-5	 3.315862E-8	
EY	 1.074667E-5	 3.263314E-8	
R32	 1.074652E-5	 3.198242E-8	
Y24	 1.074524E-5	 3.168501E-8	
Y46	 1.074524E-5	 3.168501E-8	
