FD	 7.091994E-6	 2.473823E-7	
EX2	 6.929609E-6	 3.954897E-7	
FD	 6.929147E-6	 3.740168E-7	
AY	 6.928879E-6	 3.738355E-7	
EY	 6.942720E-6	 3.121820E-7	
R32	 6.918767E-6	 1.450753E-7	
AY	 6.919867E-6	 1.448997E-7	
EY	 6.923159E-6	 7.118079E-8	
R32	 6.919728E-6	 4.435807E-8	
AY	 6.919962E-6	 4.430148E-8	
EY	 6.921196E-6	 3.884134E-8	
R32	 6.919948E-6	 3.779434E-8	
AY	 6.920064E-6	 3.779383E-8	
EY	 6.920132E-6	 3.762367E-8	
R32	 6.920060E-6	 3.756417E-8	
Y24	 6.919990E-6	 3.755861E-8	
Y46	 6.915377E-6	 3.745225E-8	
Y22	 6.915377E-6	 3.745225E-8	
Y26	 6.916629E-6	 3.744167E-8	
Y66	 6.916629E-6	 3.744167E-8	
Y44	 6.915862E-6	 3.727473E-8	
AY	 6.915990E-6	 3.726092E-8	
EY	 6.916014E-6	 3.723986E-8	
R32	 6.916044E-6	 3.724940E-8	
Y24	 6.916013E-6	 3.724051E-8	
Y46	 6.915732E-6	 3.723616E-8	
Y22	 6.915732E-6	 3.723616E-8	
Y26	 6.915732E-6	 3.723616E-8	
Y66	 6.915732E-6	 3.723616E-8	
Y44	 6.914827E-6	 3.716636E-8	
AY	 6.914979E-6	 3.715184E-8	
EY	 6.914979E-6	 3.715169E-8	
R32	 6.915017E-6	 3.717290E-8	
Y24	 6.915035E-6	 3.717185E-8	
Y46	 6.915035E-6	 3.717185E-8	
Y22	 6.915035E-6	 3.717185E-8	
Y26	 6.915035E-6	 3.717185E-8	
Y66	 6.915035E-6	 3.717185E-8	
Y44	 6.914389E-6	 3.711588E-8	
AY	 6.914468E-6	 3.710408E-8	
EY	 6.914463E-6	 3.711037E-8	
R32	 6.914508E-6	 3.713772E-8	
Y24	 6.914523E-6	 3.713744E-8	
Y46	 6.914523E-6	 3.713744E-8	
Y22	 6.914523E-6	 3.713744E-8	
Y26	 6.914523E-6	 3.713744E-8	
Y66	 6.914523E-6	 3.713744E-8	
Y44	 6.913998E-6	 3.710447E-8	
