FD	 1.268326E-5	 2.554138E-7	
EX2	 1.130507E-5	 1.184073E-6	
FD	 1.112393E-5	 2.609524E-7	
AY	 1.059459E-5	 3.981572E-7	
EY	 1.076602E-5	 3.375635E-7	
R32	 1.034633E-5	 1.405972E-7	
AY	 1.033482E-5	 1.606681E-7	
EY	 1.038848E-5	 1.313314E-7	
R32	 1.028586E-5	 7.648330E-8	
AY	 1.028836E-5	 3.941448E-8	
EY	 1.029623E-5	 3.753362E-8	
R32	 1.028360E-5	 4.118152E-8	
AY	 1.029927E-5	 4.037135E-8	
EY	 1.029442E-5	 4.782006E-8	
R32	 1.030998E-5	 4.466924E-8	
Y24	 1.030998E-5	 4.466924E-8	
Y46	 1.030998E-5	 4.466924E-8	
Y22	 1.030998E-5	 4.466924E-8	
Y26	 1.030998E-5	 4.466924E-8	
Y66	 1.030998E-5	 4.466924E-8	
Y44	 1.030211E-5	 4.075408E-8	
AY	 1.030738E-5	 5.504907E-8	
EY	 1.028898E-5	 5.810835E-8	
R32	 1.029540E-5	 5.558743E-8	
Y24	 1.028968E-5	 4.218320E-8	
Y46	 1.029966E-5	 3.744536E-8	
Y22	 1.030959E-5	 3.559264E-8	
Y26	 1.031137E-5	 3.182043E-8	
Y66	 1.031137E-5	 3.182043E-8	
Y44	 1.030927E-5	 3.172516E-8	
AY	 1.032127E-5	 4.340321E-8	
EY	 1.031774E-5	 4.604039E-8	
R32	 1.032101E-5	 4.856437E-8	
Y24	 1.031776E-5	 3.344735E-8	
Y46	 1.031852E-5	 3.335951E-8	
Y22	 1.031773E-5	 3.293413E-8	
Y26	 1.031773E-5	 3.293413E-8	
Y66	 1.031773E-5	 3.293413E-8	
Y44	 1.031478E-5	 3.200830E-8	
AY	 1.031732E-5	 3.107875E-8	
EY	 1.033061E-5	 2.834313E-8	
R32	 1.030442E-5	 4.026264E-8	
Y24	 1.030442E-5	 4.026264E-8	
Y46	 1.030493E-5	 3.866866E-8	
Y22	 1.031764E-5	 3.570261E-8	
Y26	 1.031764E-5	 3.570261E-8	
Y66	 1.031764E-5	 3.570261E-8	
Y44	 1.031764E-5	 3.570261E-8	
