{{"FD",1,{3.962297411361E-7,1.507238609866E-5,-3.25370612522E-8,4.922834322172E-7}},
 {"EX2",1,{1.024216322209E-6,1.455629461372E-5,-8.06009898024E-7,5.58638170437E-7}},
 {"FD",1,{1.072398812965E-6,1.455470439225E-5,-7.66187061303E-7,4.943754537051E-7}},
 {"AY",1,{-7.84780957765E-7,1.606013678246E-5,-9.58850626202E-7,8.432702446731E-7},
  {{7.09610293934E-13,-7.5752419597E-14,2.45617114658E-12},{Residual->2.25532015931E-15}},
  {{-.5,1.36431320706E-12},{-.35,1.0335601689E-12},{-.2,8.20863095811E-13},{-.05,7.20689488265E-13},{.1,7.2869611764E-13},
   {.25,8.45627539094E-13},{.4,1.07040660503E-12}}},
 {"EY",1,{3.294784592442E-7,1.650236004796E-5,-1.2646241854E-6,6.882077142408E-7},
  {{7.10781403264E-13,6.3375686932E-13,4.04077734116E-13},{Residual->1.14023179453E-15}},
  {{-.5,4.95979614301E-13},{-.35,5.37418703557E-13},{-.2,5.9934311517E-13},{-.05,6.79780863636E-13},{.1,7.78881676833E-13},
   {.25,8.96369942625E-13},{.4,1.02752133531E-12}}},
 {"R32",1,{-3.03545403513E-6,1.587763186732E-5,-1.26782199645E-6,3.019450939485E-7},
  {{4.72934669123E-13,6.18631675857E-13,2.53371088675E-13},{Residual->8.19526857968E-16}},
  {{-.5,2.27571596677E-13},{-.35,2.86912862613E-13},{-.2,3.58198244856E-13},{-.05,4.43806893063E-13},{.1,5.36926886937E-13},
   {.25,6.44339624714E-13},{.4,7.60323268368E-13}}},
 {"AY",1,{-3.04824741529E-6,1.587804540451E-5,-1.26356376937E-6,3.01911266993E-7},
  {{8.6091233315E-14,2.08875105979E-14,2.49932791766E-12},{Residual->2.83376063509E-15}},
  {{-.5,7.026843656E-13},{-.35,3.81878774675E-13},{-.2,1.78895669919E-13},{-.05,9.60176522786E-14},{.1,1.14574283252E-13},
   {.25,2.44634404455E-13},{.4,4.94957681E-13}}},
 {"EY",1,{-2.32540428215E-6,1.593276381192E-5,-1.42307633294E-6,1.512747347437E-7},
  {{9.01824380574E-14,3.13988789594E-13,3.75278834442E-13},{Residual->1.25023922468E-15}},
  {{-.5,2.86172230476E-14},{-.35,2.3783505634E-14},{-.2,4.19598917668E-14},{-.05,7.61832168814E-14},{.1,1.26266757397E-13},
   {.25,1.92442701243E-13},{.4,2.75120739375E-13}}},
 {"R32",1,{-2.93273842419E-6,1.588747706421E-5,-1.42298957731E-6,7.893921157021E-8},
  {{2.41363816189E-14,1.41648550942E-13,2.46447127472E-13},{Residual->1.34939889458E-15}},
  {{-.5,1.32600871705E-14},{-.35,6.93418512093E-15},{-.2,6.97212022857E-15},{-.05,1.64860655955E-14},{.1,3.95791251936E-14},
   {.25,7.47040834882E-14},{.4,1.21016526744E-13}}},
 {"AY",1,{-2.94137677269E-6,1.588776150094E-5,-1.4216268332E-6,7.889875326829E-8},
  {{1.56078508072E-15,1.40948119014E-14,2.50060299044E-12},{Residual->2.22086839366E-15}},
  {{-.3,2.23315638897E-13},{-.2,9.70670230602E-14},{-.1,2.35754107758E-14},{5.55111512313E-17,6.23139912333E-15},
   {.1,2.65097610356E-14},{.2,1.02573214114E-13},{.3,2.31821885882E-13}}},
 {"EY",1,{-2.82787342415E-6,1.589063531544E-5,-1.44485987429E-6,5.366798923284E-8},
  {{6.52454167005E-15,5.67823467515E-14,3.98209553491E-13},{Residual->7.4729292469E-16}},
  {{-.5,7.76467786538E-14},{-.35,3.596094019E-14},{-.2,1.08049100857E-14},{-.05,3.38328228751E-15},{.1,1.71163103021E-14},
   {.25,4.63906440651E-14},{.4,9.23357906283E-14}}},
 {"R32",1,{-2.93984228154E-6,1.588741997945E-5,-1.44594382464E-6,5.310874951984E-8},
  {{1.86849895488E-15,2.63426241569E-14,2.29102003236E-13},{Residual->9.03535763596E-16}},
  {{-.5,4.62637876571E-14},{-.35,1.97740047633E-14},{-.2,5.91143691413E-15},{-.05,2.76935740481E-15},{.1,6.00299324412E-15},
   {.25,2.17806277563E-14},{.4,4.9700913585E-14}}},
 {"AY",1,{-2.9423170702E-6,1.588749739771E-5,-1.44545647594E-6,5.283114945552E-8},
  {{-1.8740608913E-15,4.06384564167E-15,2.51628871683E-12},{Residual->2.2090101634E-15}},
  {{-.3,2.24183814905E-13},{-.2,9.67743995931E-14},{-.1,2.07083750443E-14},{5.55111512313E-17,2.82053927556E-15},
   {.1,2.23933263418E-14},{.2,9.78918175385E-14},{.3,2.26670141774E-13}}},
 {"EY",1,{-2.91270853147E-6,1.588891786872E-5,-1.45157148243E-6,5.026784312317E-8},
  {{3.45312119076E-15,1.56816567819E-14,4.06228586312E-13},{Residual->4.09083230101E-16}},
  {{-.3,3.52972103384E-14},{-.2,1.68616173021E-14},{-.1,5.74153296078E-15},{5.55111512313E-17,2.79113035278E-15},
   {.1,9.52675436929E-15},{.2,2.3354538337E-14},{.3,4.43430688422E-14}}},
 {"R32",1,{-2.93783345864E-6,1.588779374089E-5,-1.45198634899E-6,5.02850266268E-8},
  {{1.71036833227E-15,5.67567043743E-15,2.09734190501E-13},{Residual->5.40831291235E-16}},
  {{-.3,1.90432601484E-14},{-.2,8.34167810687E-15},{-.1,3.53072565181E-15},{5.55111512313E-17,2.52685605226E-15},
   {.1,4.01881991646E-15},{.2,1.04935157518E-14},{.3,2.27432960385E-14}}},
 {"Y24",1,{-2.95276607823E-6,1.58588677647E-5,-1.45963682582E-6,4.670397851584E-8},
  {{2.46994288966E-15,7.54049757325E-16,8.57935349139E-16},{Residual->1.2521204599E-16}},
  {{-1.5,3.50347117109E-15},{-1.2,2.70998859006E-15},{-.9,2.28181872391E-15},{-.6,2.18126160921E-15},{-.3,2.30738854717E-15},
   {0,2.52858390286E-15},{.3,2.8925499034E-15},{.6,3.34184423916E-15},{.9,3.90176162974E-15},{1.2,4.59652025667E-15},
   {1.5,5.41774316942E-15}}},
 {"Y46",1,{-2.95276607823E-6,1.58588677647E-5,-1.45963682582E-6,4.670397851584E-8},
  {{2.21484171261E-15,-2.1859416811E-16,2.85682765489E-15},{Residual->3.98574107189E-17}},
  {{-1,5.3009769699E-15},{-.8,4.24250143194E-15},{-.6,3.38555799834E-15},{-.4,2.72028885595E-15},{-.2,2.30372946518E-15},
   {0,2.18126160921E-15},{.2,2.33507279232E-15},{.4,2.65331770473E-15},{.6,3.12883994113E-15},{.8,3.8701967315E-15},
   {1,4.81155701998E-15}}},
 {"Y22",1,{-2.95276607825E-6,1.585886776471E-5,-1.45963682582E-6,4.670397851584E-8},
  {{2.44914835499E-15,9.74924595597E-15,2.83474802556E-14},{Residual->4.45332944085E-16}},
  {{-.6,6.37605649482E-15},{-.4,3.40953700067E-15},{-.2,2.39201573022E-15},{1.11022302463E-16,2.18126160921E-15},
   {.2,4.96830866359E-15},{.4,1.07313827121E-14},{.6,1.88346541606E-14}}},
 {"Y26",1,{-2.90262863465E-6,1.583608159986E-5,-1.43425884191E-6,4.286617776784E-8},
  {{3.73475985571E-15,-1.3811906214E-14,1.01000124231E-13},{Residual->1.15694064563E-15}},
  {{-.6,4.7188310758E-14},{-.4,2.70505326347E-14},{-.2,1.17353340374E-14},{1.11022302463E-16,2.18126160921E-15},
   {.2,4.07840958233E-15},{.4,1.51125813226E-14},{.6,3.19170281844E-14}}},
 {"Y66",1,{-2.90262863465E-6,1.583608159986E-5,-1.43425884191E-6,4.286617776784E-8},
  {{3.07665101836E-15,1.16145465952E-14,1.1255527212E-12},{Residual->9.83080054986E-16}},
  {{-.2,4.55041334298E-14},{-.15,2.76197872344E-14},{-.1,1.33422896317E-14},{-.05,4.43239481784E-15},{0,1.83750919642E-15},
   {.05,6.29155760641E-15},{.1,1.71082650205E-14},{.15,3.1218899989E-14},{.2,4.91679304187E-14}}},
 {"Y44",1,{-2.90262863464E-6,1.583608159986E-5,-1.43425884191E-6,4.286617776766E-8},
  {{1.56785904879E-15,1.39226451496E-15,1.27967626417E-14},{Residual->2.7441462037E-16}},
  {{-.6,5.17774884668E-15},{-.4,3.10190858688E-15},{-.2,2.05819261675E-15},{1.11022302463E-16,1.83750919641E-15},
   {.2,1.9967936712E-15},{.4,3.81055980388E-15},{.6,7.32467477846E-15}}},
 {"AY",1,{-2.89015311464E-6,1.583565230041E-5,-1.43646853015E-6,4.318896343368E-8},
  {{9.13424354371E-16,-1.8911214795E-14,2.29569806255E-12},{Residual->6.97231547697E-16}},
  {{-.1,2.64851706578E-14},{-.07,1.27141939417E-14},{-.04,4.3641351887E-15},{-.01,1.94081383162E-15},{.02,2.36518123076E-15},
   {.05,5.49081552074E-15},{.08,1.38160249649E-14}}},
 {"EY",1,{-2.86751531209E-6,1.583521238348E-5,-1.44090256717E-6,4.214017509976E-8},
  {{1.9129365716E-15,1.24326193695E-14,4.46998068237E-13},{Residual->3.23063799529E-17}},
  {{-.1,5.11950784626E-15},{-.07,3.27190011673E-15},{-.04,2.14351113876E-15},{-.01,1.78125624588E-15},{.02,2.33310380142E-15},
   {.05,3.69816655733E-15},{.08,5.7500769063E-15}}},
 {"R32",1,{-2.87170460788E-6,1.583520504844E-5,-1.44099003222E-6,4.215884746588E-8},
  {{1.75225237009E-15,5.04749145818E-16,1.24260079954E-13},{Residual->2.34324172238E-17}},
  {{-.1,2.94973174921E-15},{-.07,2.30012934912E-15},{-.04,1.94697401544E-15},{-.01,1.78978252649E-15},{.02,1.80137087868E-15},
   {.05,2.05086808491E-15},{.08,2.60991361736E-15}}},
 {"Y24",1,{-2.87973949316E-6,1.582329422461E-5,-1.44406917628E-6,3.968878018053E-8},
  {{1.77518377911E-15,8.47042969644E-16,5.90235728327E-16},{Residual->1.89284851757E-18}},
  {{-.3,1.57519927222E-15},{-.2,1.62951897355E-15},{-.1,1.6924642438E-15},{5.55111512313E-17,1.77736841965E-15},
   {.1,1.86629096618E-15},{.2,1.96960239041E-15},{.3,2.08110819185E-15}}},
 {"Y46",1,{-2.87204118461E-6,1.581911609427E-5,-1.44453165697E-6,3.961698357427E-8},
  {{1.57527806407E-15,2.17948048467E-16,2.64136683104E-15},{Residual->1.41350889487E-17}},
  {{-.45,2.02903107064E-15},{-.3,1.72619806196E-15},{-.15,1.59300950683E-15},{-5.5511151231E-17,1.57519927222E-15},
   {.15,1.6815733699E-15},{.3,1.89168153522E-15},{.45,2.1943147353E-15}}},
 {"Y22",1,{-2.87204118443E-6,1.581911609419E-5,-1.44453165697E-6,3.961698357362E-8},
  {{1.79428867967E-15,7.91875071702E-15,3.10453391386E-14},{Residual->2.32887675698E-16}},
  {{-.6,8.02923321324E-15},{-.4,3.70029504219E-15},{-.2,1.90333449827E-15},{1.11022302463E-16,1.56950538747E-15},
   {.2,4.37769090692E-15},{.4,9.89328730384E-15},{.6,1.7857454241E-14}}},
 {"Y26",1,{-2.8340310065E-6,1.580012062045E-5,-1.42767610483E-6,3.74922610203E-8},
  {{1.68938074133E-15,-1.1225341373E-14,1.25914750403E-13},{Residual->2.36088677589E-16}},
  {{-.3,1.6312353451E-14},{-.2,9.30993641324E-15},{-.1,3.75413159835E-15},{5.55111512313E-17,1.56950538747E-15},
   {.1,1.8525896406E-15},{.2,4.82231714145E-15},{.3,9.46096167009E-15}}},
 {"Y66",1,{-2.8340310065E-6,1.580012062045E-5,-1.42767610483E-6,3.74922610203E-8},
  {{2.95438572543E-15,4.00937170357E-15,1.08072225947E-12},{Residual->1.05548094915E-15}},
  {{-.2,4.51574133029E-14},{-.15,2.73641750289E-14},{-.1,1.38169327548E-14},{-.05,4.79527210513E-15},{0,1.40566963641E-15},
   {.05,5.60228978982E-15},{.1,1.56563835523E-14},{.15,2.93343229867E-14},{.2,4.55653512923E-14}}},
 {"Y44",1,{-2.8340310065E-6,1.580012062045E-5,-1.42767610483E-6,3.74922610203E-8},
  {{1.25108099346E-15,8.23098662819E-16,1.25995415359E-14},{Residual->2.69555568753E-16}},
  {{-.6,5.05710398978E-15},{-.4,3.12107459482E-15},{-.2,1.85556467194E-15},{1.11022302463E-16,1.40566963641E-15},
   {.2,1.57141313685E-15},{.4,3.26771712784E-15},{.6,6.59051031672E-15}}},
 {"AY",1,{-2.82326603268E-6,1.579975268781E-5,-1.42952498072E-6,3.781798600571E-8},
  {{8.14358133958E-16,-1.7139933716E-14,2.42810928758E-12},{Residual->4.10489114106E-16}},
  {{-.1,2.72256354012E-14},{-.07,1.34971931084E-14},{-.04,4.77188898836E-15},{-.01,1.57449086461E-15},{.02,1.98737755541E-15},
   {.05,5.92921728317E-15},{.08,1.48025296449E-14}}},
 {"EY",1,{-2.81577924613E-6,1.57996458303E-5,-1.43091492527E-6,3.770774426815E-8},
  {{1.46667945263E-15,3.78297036434E-15,4.25785497669E-13},{Residual->2.69477530238E-17}},
  {{-.1,5.31805053784E-15},{-.07,3.31711227975E-15},{-.04,2.03790313752E-15},{-.01,1.44245493977E-15},{.02,1.685743602E-15},
   {.05,2.72054995319E-15},{.08,4.50797818245E-15}}},
 {"R32",1,{-2.82347862901E-6,1.579976637628E-5,-1.43096422917E-6,3.779856445503E-8},
  {{1.41324388464E-15,1.07135591254E-15,1.41927206807E-13},{Residual->1.56000997857E-17}},
  {{-.1,2.73208110306E-15},{-.07,2.01286080749E-15},{-.04,1.60507365132E-15},{-.01,1.44032538448E-15},{.02,1.48283567955E-15},
   {.05,1.80158613908E-15},{.08,2.41886416997E-15}}},
 {"Y24",1,{-2.83206956105E-6,1.578089385059E-5,-1.43535219699E-6,3.586654254356E-8},
  {{1.42994929048E-15,6.69063227657E-16,7.4665724741E-16},{Residual->1.49454908146E-18}},
  {{-.3,1.29459107128E-15},{-.2,1.32833161838E-15},{-.1,1.37204963573E-15},{5.55111512313E-17,1.42873147486E-15},
   {.1,1.50302427149E-15},{.2,1.59310412039E-15},{.3,1.6988768705E-15}}},
 {"Y46",1,{-2.85302622686E-6,1.579294977307E-5,-1.43418131288E-6,3.544599326503E-8},
  {{1.2841817513E-15,-7.9810341335E-16,3.63114768283E-15},{Residual->1.29391879315E-17}},
  {{-.45,2.38889216313E-15},{-.3,1.84605210707E-15},{-.15,1.46281582788E-15},{-5.5511151231E-17,1.28640887403E-15},
   {.15,1.26597178991E-15},{.3,1.3766732064E-15},{.45,1.65008133088E-15}}},
 {"Y22",1,{-3.01262129135E-6,1.585392134706E-5,-1.43211592343E-6,3.485931744732E-8},
  {{1.60835021835E-15,7.18921121676E-15,3.27535226279E-14},{Residual->2.328229965E-16}},
  {{-.6,8.84581908686E-15},{-.4,4.28863790645E-15},{-.2,1.75237238819E-15},{1.11022302463E-16,1.25641843852E-15},
   {.2,4.23179032653E-15},{.4,9.80717822643E-15},{.6,1.77601804987E-14}}},
 {"Y26",1,{-3.01262129135E-6,1.585392134706E-5,-1.43211592343E-6,3.485931744732E-8},
  {{1.97572344664E-15,-8.9937938059E-15,1.24800880188E-13},{Residual->5.30990805814E-16}},
  {{-.3,1.58747183267E-14},{-.2,9.2401906163E-15},{-.1,3.6933564562E-15},{5.55111512313E-17,1.21517201289E-15},
   {.1,2.91614337632E-15},{.2,5.80506273601E-15},{.3,1.00296670547E-14}}},
 {"Y66",1,{-3.01262129135E-6,1.585392134706E-5,-1.43211592343E-6,3.485931744732E-8},
  {{2.85180565935E-15,1.73428345183E-14,1.07503693183E-12},{Residual->9.44386916235E-16}},
  {{-.2,4.22039768232E-14},{-.15,2.50972804469E-14},{-.1,1.22636594481E-14},{-.05,3.95564387277E-15},{0,1.21517201289E-15},
   {.05,6.64252411945E-15},{.1,1.69086609431E-14},{.15,3.03801232182E-14},{.2,4.82547498243E-14}}},
 {"Y44",1,{-3.01262129135E-6,1.585392134706E-5,-1.43211592343E-6,3.485931744733E-8},
  {{1.37875642617E-15,3.07061892662E-15,1.35415619382E-14},{Residual->2.66506128109E-16}},
  {{-.6,4.11714659496E-15},{-.4,2.64015624833E-15},{-.2,1.64800707062E-15},{1.11022302463E-16,1.21517201289E-15},
   {.2,2.15806098299E-15},{.4,4.80073997415E-15},{.6,8.23856146997E-15}}},
 {"AY",1,{-3.00292362225E-6,1.585360078319E-5,-1.43472498998E-6,3.488190336263E-8},
  {{7.66474521924E-16,-1.6560310782E-14,2.55476948867E-12},{Residual->2.08849119676E-16}},
  {{-.1,2.81471930514E-14},{-.07,1.42546744599E-14},{-.04,5.22838928964E-15},{-.01,1.42550448828E-15},{.02,1.7111340884E-15},
   {.05,6.14113855238E-15},{.08,1.57850392347E-14}}},
 {"EY",1,{-3.00208694565E-6,1.58536864725E-5,-1.43489341352E-6,3.489046463806E-8},
  {{1.2748599297E-15,4.5058273375E-16,4.21703657175E-13},{Residual->5.07146706732E-17}},
  {{-.1,5.39432387229E-15},{-.07,3.3562473351E-15},{-.04,2.00848847783E-15},{-.01,1.28939006564E-15},{.02,1.38231278942E-15},
   {.05,2.33601266005E-15},{.08,4.04782823706E-15}}},
 {"R32",1,{-2.95056885593E-6,1.585914819805E-5,-1.43446980197E-6,3.350566349061E-8},
  {{1.18213881704E-15,-1.1111270466E-14,2.13239958404E-13},{Residual->6.8095319333E-17}},
  {{-.1,4.49885973048E-15},{-.07,2.93482616156E-15},{-.04,1.88517160948E-15},{-.01,1.3200012068E-15},{.02,1.12640368256E-15},
   {.05,1.22213860245E-15},{.08,1.58827458126E-15}}},
 {"Y24",1,{-2.95965279079E-6,1.584530074491E-5,-1.43887761563E-6,3.143099786541E-8},
  {{1.12492304882E-15,7.04659305639E-16,8.11711489227E-16},{Residual->2.88489207348E-18}},
  {{-.3,9.87907626815E-16},{-.2,1.01702559755E-15},{-.1,1.05884277654E-15},{5.55111512313E-17,1.12262948595E-15},
   {.1,1.2071909848E-15},{.2,1.30196033814E-15},{.3,1.40618374894E-15}}},
 {"Y46",1,{-2.97434453885E-6,1.585503883392E-5,-1.43704699353E-6,3.119408802972E-8},
  {{1.01480478518E-15,-7.1796311145E-16,4.19342138097E-15},{Residual->2.21427264975E-17}},
  {{-.45,2.17778356878E-15},{-.3,1.63865134689E-15},{-.15,1.20054195938E-15},{-5.5511151231E-17,9.87907626815E-16},
   {.15,1.00859906931E-15},{.3,1.2088649632E-15},{.45,1.5231404319E-15}}},
 {"Y22",1,{-2.97434453886E-6,1.585503883398E-5,-1.43704699353E-6,3.119408802972E-8},
  {{1.20366304628E-15,4.27702854603E-15,3.19355946106E-14},{Residual->3.21667674663E-16}},
  {{-.6,9.80390996421E-15},{-.4,4.90145683444E-15},{-.2,2.13655960143E-15},{1.11022302463E-16,9.73071128006E-16},
   {.2,2.9291469403E-15},{.4,7.97467237787E-15},{.6,1.54746904416E-14}}},
 {"Y26",1,{-2.97434453885E-6,1.585503883392E-5,-1.43704699353E-6,3.119408802972E-8},
  {{1.62501730003E-15,-1.3799956154E-14,1.1425140886E-13},{Residual->4.05383184223E-16}},
  {{-.3,1.59493675079E-14},{-.2,9.394629126E-15},{-.1,3.91947551155E-15},{5.55111512313E-17,9.73071128006E-16},
   {.1,1.78999237209E-15},{.2,3.88997312229E-15},{.3,7.44900681322E-15}}},
 {"Y66",1,{-2.97434453885E-6,1.585503883392E-5,-1.43704699353E-6,3.119408802972E-8},
  {{2.6014347682E-15,2.93292977885E-14,1.03748165208E-12},{Residual->9.3413027957E-16}},
  {{-.2,3.82932203857E-14},{-.15,2.18832242045E-14},{-.1,1.03278382833E-14},{-.05,3.17803788956E-15},{0,9.73071128006E-16},
   {.05,6.96377714311E-15},{.1,1.72820522805E-14},{.15,3.14194773722E-14},{.2,4.87144620394E-14}}},
 {"Y44",1,{-2.97434453885E-6,1.585503883392E-5,-1.43704699353E-6,3.119408802972E-8},
  {{1.15056009251E-15,4.00883818183E-15,1.30940783771E-14},{Residual->1.84317831507E-16}},
  {{-.6,3.27447539469E-15},{-.4,1.86698361329E-15},{-.2,1.08787455365E-15},{1.11022302463E-16,9.73071128006E-16},
   {.2,2.23733151768E-15},{.4,4.98122640261E-15},{.6,8.29832581989E-15}}},
 {"OCT1",1,{-2.97434453885E-6,1.585503883392E-5,-1.43704699353E-6,3.119408802972E-8},
  {{1.02583014627E-15,4.86527052246E-19,3.50042152723E-21},{Residual->3.22574014773E-17}},
  {{-370,1.29868744116E-15},{-296,1.20347158699E-15},{-222,1.12680656876E-15},{-148,1.04973676441E-15},{-74,1.00208500049E-15},
   {0,9.73071128006E-16},{74,1.04061134489E-15},{148,1.19052776184E-15},{222,1.35360740292E-15},{296,1.50316864777E-15},
   {370,1.6508936653E-15}}},
 {"OCT2",1,{-2.99036102246E-6,1.585454003435E-5,-1.43693934323E-6,3.068845394942E-8},
  {{9.73325136861E-16,-1.1887917371E-19,9.06580708333E-23},{Residual->3.92698507326E-19}},
  {{-370,1.02948380255E-15},{-296,1.01635071963E-15},{-222,1.00470798781E-15},{-148,9.93097473782E-16},{-74,9.82801218758E-16},
   {0,9.73071128006E-16},{74,9.64198216531E-16},{148,9.57806656198E-16},{222,9.52082286507E-16},{296,9.45825282457E-16},
   {370,9.41781205806E-16}}},
 {"OCT1",1,{-2.99036102246E-6,1.585454003435E-5,-1.43693934323E-6,3.068845394942E-8},
  {{1.09374197061E-15,4.42517507474E-19,1.85441412287E-21},{Residual->7.86552818621E-17}},
  {{-740,1.74107049223E-15},{-592,1.53404063437E-15},{-444,1.3235480969E-15},{-296,1.14634655029E-15},{-148,1.01177067844E-15},
   {0,9.41781205806E-16},{148,1.16823119613E-15},{296,1.47284999157E-15},{444,1.77175350907E-15},{592,2.04895763338E-15},
   {740,2.33915717024E-15}}},
 {"OCT2",1,{-3.00078292021E-6,1.585416295871E-5,-1.43684400104E-6,3.06302913531E-8},
  {{9.73379546066E-16,-1.1127794799E-19,9.12989733668E-23},{Residual->1.78804879414E-18}},
  {{-740,1.10306711562E-15},{-592,1.07162915864E-15},{-444,1.04318773926E-15},{-296,1.01635071963E-15},{-148,9.93097473782E-16},
   {0,9.73071128006E-16},{148,9.57806656198E-16},{296,9.45825282457E-16},{444,9.40813660348E-16},{592,9.38910482367E-16},
   {740,9.43613843948E-16}}}}
