{{"FD",1,{-6.45417014931E-6,7.093973344469E-6,-1.63147475277E-6,5.568682333664E-7}},
 {"EX2",1,{-6.38954095677E-6,7.095090463151E-6,-1.6320244101E-6,5.56964475169E-7}},
 {"FD",1,{-6.39265077825E-6,7.094839504717E-6,-1.6300867332E-6,5.570157251107E-7}},
 {"AY",1,{-6.16586004246E-6,6.677863485509E-6,-4.13436053288E-7,2.200384392042E-7},
  {{4.89180011047E-14,-2.2962957745E-14,1.16607502456E-12},{Residual->1.32368645157E-15}},
  {{-.5,3.52926922559E-13},{-.35,1.98643411147E-13},{-.2,1.00076469979E-13},{-.05,5.12466934804E-14},{.1,6.0376986903E-14},
   {.25,1.17107271641E-13},{.4,2.2511886564E-13}}},
 {"EY",1,{-6.13808092972E-6,6.693408635775E-6,-5.56558071333E-7,2.051993671824E-7},
  {{4.84527613077E-14,9.71664376538E-14,3.56185714051E-13},{Residual->9.42714081268E-16}},
  {{-.5,8.82422754067E-14},{-.35,5.91583019605E-14},{-.2,4.35200853752E-14},{-.05,4.42627390311E-14},{.1,6.01736532318E-14},
   {.25,9.6411911924E-14},{.4,1.44022358894E-13}}},
 {"R32",1,{-6.05928653323E-6,6.646704683852E-6,-4.86259352266E-7,4.415035107827E-8},
  {{4.06720313935E-14,4.40879668521E-13,1.17044525516E-12},{Residual->4.92403430609E-15}},
  {{-.5,1.09607903423E-13},{-.35,3.22746073159E-14},{-.2,2.3607397155E-15},{-.05,2.33094743527E-14},{.1,9.6142471151E-14},
   {.25,2.139945335E-13},{.4,4.10569909029E-13}}},
 {"AY",1,{-6.05301882073E-6,6.647999938037E-6,-4.87194336651E-7,4.25638609612E-8},
  {{2.47284277517E-15,4.1350438328E-14,1.15257801151E-12},{Residual->4.43215135345E-16}},
  {{-.5,2.69850127684E-13},{-.35,1.28891625823E-13},{-.2,4.12926166746E-14},{-.05,2.88538112455E-15},{.1,1.77910559175E-14},
   {.25,8.48378321179E-14},{.4,2.03582869121E-13}}},
 {"EY",1,{-6.03067687861E-6,6.649946044015E-6,-5.32454723221E-7,3.762403749743E-8},
  {{2.10480237763E-15,2.25961721205E-14,2.91172730066E-13},{Residual->2.41666364564E-16}},
  {{-.5,6.35406959028E-14},{-.35,2.99363435679E-14},{-.2,9.40739417027E-15},{-.05,1.50810111969E-15},{.1,6.98374220863E-15},
   {.25,2.64192633644E-14},{.4,5.75637587852E-14}}},
 {"R32",1,{-6.02419823919E-6,6.650792355361E-6,-5.34093708231E-7,3.751202615566E-8},
  {{-9.6328662104E-16,-1.2486243216E-14,1.161456815E-12},{Residual->3.11973032404E-15}},
  {{-.5,2.96776902578E-13},{-.35,1.42771934325E-13},{-.2,4.86743385777E-14},{-.05,4.17549021029E-15},{.1,1.26188481439E-14},
   {.25,6.22828749635E-14},{.4,1.82370077694E-13}}},
 {"AY",1,{-6.02165085333E-6,6.649830235359E-6,-5.3321165635E-7,3.722172545202E-8},
  {{1.14355201727E-16,-1.4384370331E-14,1.17890386724E-12},{Residual->9.46681500444E-16}},
  {{-.3,1.10589833985E-13},{-.2,4.96780824353E-14},{-.1,1.33315182566E-14},{5.55111512313E-17,1.39860625663E-15},
   {.1,1.0484800308E-14},{.2,4.25360361422E-14},{.3,1.02874691855E-13}}},
 {"EY",1,{-6.03680972787E-6,6.650403530265E-6,-5.24177441179E-7,3.73794411506E-8},
  {{1.61402852139E-15,-4.1268873925E-15,2.95101371875E-13},{Residual->3.66281036265E-16}},
  {{-.5,7.77057813098E-14},{-.35,3.86023945489E-14},{-.2,1.47027676884E-14},{-.05,2.48224014442E-15},{.1,3.8893054446E-15},
   {.25,1.94546861359E-14},{.4,4.69835732544E-14}}},
 {"R32",1,{-6.03547314473E-6,6.648401104092E-6,-5.18195857415E-7,3.702255915888E-8},
  {{-2.408788755E-16,1.96748100849E-14,1.14709056279E-12},{Residual->1.95259221548E-15}},
  {{-.5,2.79144193168E-13},{-.35,1.2939226501E-13},{-.2,4.1333893646E-14},{-.05,3.2759364814E-15},{.1,1.37874666733E-14},
   {.25,7.70854438262E-14},{.4,1.90149604943E-13}}},
 {"AY",1,{-6.03837937288E-6,6.648866227681E-6,-5.19260539468E-7,3.702542817497E-8},
  {{8.44341304995E-16,3.35166564482E-15,1.17868811764E-12},{Residual->1.06256484318E-15}},
  {{-.3,1.07046046048E-13},{-.2,4.49695495668E-14},{-.1,1.30917535245E-14},{5.55111512313E-17,1.37009334635E-15},
   {.1,1.32556726804E-14},{.2,4.83318587921E-14},{.3,1.07878088115E-13}}},
 {"EY",1,{-6.04390522161E-6,6.649788976762E-6,-5.22075243706E-7,3.677022269749E-8},
  {{1.59112597012E-15,2.04034068887E-15,2.95711094026E-13},{Residual->2.10263881117E-16}},
  {{-.3,2.73420045532E-14},{-.2,1.33351554557E-14},{-.1,4.57156329942E-15},{5.55111512313E-17,1.35614724955E-15},
   {.1,4.62177085839E-15},{.2,1.37719691643E-14},{.3,2.89383775374E-14}}},
 {"R32",1,{-6.04875921284E-6,6.651009780543E-6,-5.24029892655E-7,3.730099982568E-8},
  {{1.58511188995E-15,5.55916701706E-15,1.13835349507E-12},{Residual->1.34822864478E-15}},
  {{-.3,1.03113794882E-13},{-.2,4.48703992858E-14},{-.1,1.27386106579E-14},{5.55111512313E-17,1.36446032235E-15},
   {.1,1.24321470658E-14},{.2,5.09917344539E-14},{.3,1.04323615183E-13}}},
 {"Y24",1,{-6.0522239971E-6,6.648847938885E-6,-5.23945002779E-7,3.729614018241E-8},
  {{1.47989407575E-15,-5.5521971447E-17,1.22774857769E-15},{Residual->6.81885476296E-17}},
  {{-1.5,4.24687021263E-15},{-1.2,3.35730016323E-15},{-.9,2.63041417356E-15},{-.6,2.00210835738E-15},{-.3,1.55725842787E-15},
   {0,1.391364588E-15},{.3,1.50048573609E-15},{.6,1.90317460362E-15},{.9,2.49877329534E-15},{1.2,3.24809148097E-15},
   {1.5,4.09770471368E-15}}},
 {"Y46",1,{-6.0522239971E-6,6.648847938885E-6,-5.23945002779E-7,3.729614018241E-8},
  {{1.49363611428E-15,-8.206564448E-16,2.99157494419E-15},{Residual->9.03916839472E-17}},
  {{-1,5.31885088415E-15},{-.8,4.11715270028E-15},{-.6,3.09562815682E-15},{-.4,2.2523427042E-15},{-.2,1.64030908357E-15},
   {0,1.39100207251E-15},{.2,1.48052677915E-15},{.4,1.77498478842E-15},{.6,2.20897505576E-15},{.8,2.78289305795E-15},
   {1,3.53026172873E-15}}},
 {"Y22",1,{-6.0522239971E-6,6.648847938885E-6,-5.23945002779E-7,3.729614018241E-8},
  {{3.20494680019E-15,2.56571373997E-15,6.17630570354E-14},{Residual->9.07350723626E-16}},
  {{-.6,2.32582118455E-14},{-.4,1.30592393653E-14},{-.2,5.9670861829E-15},{1.11022302463E-16,1.39100207251E-15},
   {.2,6.44710621423E-15},{.4,1.4678726222E-14},{.6,2.68078795785E-14}}},
 {"Y26",1,{-6.0522239971E-6,6.648847938885E-6,-5.23945002779E-7,3.729614018241E-8},
  {{2.506734607E-15,2.45849591236E-15,8.45188771869E-14},{Residual->6.86590844652E-16}},
  {{-.6,3.07965127445E-14},{-.4,1.59578941775E-14},{-.2,6.1385009651E-15},{1.11022302463E-16,1.39100207251E-15},
   {.2,6.08354944298E-15},{.4,1.73946206678E-14},{.6,3.4446204628E-14}}},
 {"Y66",1,{-6.0522239971E-6,6.648847938885E-6,-5.23945002779E-7,3.729614018241E-8},
  {{6.20523653523E-15,-1.2988781024E-14,1.69304283555E-12},{Residual->2.44106746879E-15}},
  {{-.2,7.48212738745E-14},{-.15,4.91814171107E-14},{-.1,2.57638745056E-14},{-.05,1.01630034042E-14},{0,1.39100207251E-15},
   {.05,1.04186981204E-14},{.1,2.42078449279E-14},{.15,4.47063923354E-14},{.2,6.91500477979E-14}}},
 {"Y44",1,{-6.0536303933E-6,6.648853166533E-6,-5.22062180712E-7,3.696099985205E-8},
  {{2.28341757138E-15,2.47398253263E-16,2.3604402437E-14},{Residual->4.44332936522E-16}},
  {{-.6,1.04485733366E-14},{-.4,6.36938412107E-15},{-.2,3.35641590441E-15},{1.11022302463E-16,1.39100207251E-15},
   {.2,3.56214629077E-15},{.4,6.61580792755E-15},{.6,1.06775240762E-14}}},
 {"AY",1,{-6.05515263532E-6,6.648628941729E-6,-5.21376094558E-7,3.731038603818E-8},
  {{8.79403748909E-16,-8.8857944602E-16,1.14723393171E-12},{Residual->3.27261320931E-16}},
  {{-.1,1.2809647376E-14},{-.07,5.98226259936E-15},{-.04,2.5672747024E-15},{-.01,1.37699715231E-15},{.02,1.57023645514E-15},
   {.05,3.50433326178E-15},{.08,8.12063408773E-15}}},
 {"EY",1,{-6.06011185613E-6,6.649138922144E-6,-5.21876936927E-7,3.784941035156E-8},
  {{1.39598111432E-15,1.10292143648E-15,3.14907260681E-13},{Residual->2.91187602191E-17}},
  {{-.1,4.46871661466E-15},{-.07,2.80395628857E-15},{-.04,1.86768198032E-15},{-.01,1.40876663795E-15},{.02,1.564567241E-15},
   {.05,2.25802857885E-15},{.08,3.47904400999E-15}}},
 {"R32",1,{-6.05989466843E-6,6.646189490566E-6,-5.15222443392E-7,3.70940224864E-8},
  {{1.41704187459E-15,2.40623564909E-14,1.20539344208E-12},{Residual->7.1154834506E-16}},
  {{-.1,1.18615832265E-14},{-.07,4.6536720166E-15},{-.04,1.94257669567E-15},{-.01,1.35338023144E-15},{.02,2.75647020375E-15},
   {.05,6.62083800117E-15},{.08,1.02660979426E-14}}},
 {"Y24",1,{-6.04450967935E-6,6.655632868334E-6,-5.1551915004E-7,3.686216735696E-8},
  {{1.3759760204E-15,3.46115080099E-16,1.73303293293E-15},{Residual->1.95809267912E-18}},
  {{-.3,1.4300413452E-15},{-.2,1.37314070887E-15},{-.1,1.35881938225E-15},{5.55111512313E-17,1.37596650422E-15},
   {.1,1.4276320183E-15},{.2,1.51772917394E-15},{.3,1.63375223124E-15}}},
 {"Y46",1,{-6.04450967935E-6,6.655632868334E-6,-5.1551915004E-7,3.686216735696E-8},
  {{1.37244464484E-15,-4.6631068271E-16,3.61768651138E-15},{Residual->1.95619075255E-17}},
  {{-.45,2.32365894445E-15},{-.3,1.84242589838E-15},{-.15,1.49743700148E-15},{-5.5511151231E-17,1.35881938225E-15},
   {.15,1.40602769588E-15},{.3,1.58492521256E-15},{.45,1.87296088107E-15}}},
 {"Y22",1,{-6.04450967935E-6,6.655632868333E-6,-5.1551915004E-7,3.686216735696E-8},
  {{3.2434481508E-15,1.09095556447E-15,6.16856171657E-14},{Residual->9.21523514857E-16}},
  {{-.6,2.4260013134E-14},{-.4,1.35972362721E-14},{-.2,6.17132327267E-15},{1.11022302463E-16,1.35881938225E-15},
   {.2,6.34164282743E-15},{.4,1.42754366255E-14},{.6,2.57875567672E-14}}},
 {"Y26",1,{-6.04450967936E-6,6.655632868388E-6,-5.1551915004E-7,3.686216735696E-8},
  {{1.94822067658E-15,1.67241700673E-15,1.00700056412E-13},{Residual->3.39376502082E-16}},
  {{-.3,1.0201209589E-14},{-.2,6.07735641858E-15},{-.1,3.14226139296E-15},{5.55111512313E-17,1.35881938225E-15},
   {.1,3.03317277855E-15},{.2,6.51202507321E-15},{.3,1.1508715897E-14}}},
 {"Y66",1,{-6.04450967936E-6,6.655632868388E-6,-5.1551915004E-7,3.686216735696E-8},
  {{6.10979647506E-15,-2.0298916802E-14,1.72056413738E-12},{Residual->2.34928903361E-15}},
  {{-.2,7.77332496281E-14},{-.15,5.02975522849E-14},{-.1,2.64503213605E-14},{-.05,1.05312218576E-14},{0,1.35881938225E-15},
   {.05,1.02418491289E-14},{.1,2.38434253116E-14},{.15,4.40333299255E-14},{.2,6.85830200027E-14}}},
 {"Y44",1,{-6.04450967936E-6,6.655632868333E-6,-5.1551915004E-7,3.686216735696E-8},
  {{2.3033435352E-15,-3.7476545074E-16,2.3751645701E-14},{Residual->4.71886410689E-16}},
  {{-.6,1.09313807726E-14},{-.4,6.62463767986E-15},{-.2,3.49406463836E-15},{1.11022302463E-16,1.35881938225E-15},
   {.2,3.51778638057E-15},{.4,6.47466782227E-15},{.6,1.03238912556E-14}}},
 {"AY",1,{-6.04227851957E-6,6.655856208418E-6,-5.15561714683E-7,3.663345456091E-8},
  {{1.44543744696E-15,1.3667083356E-14,9.81029214545E-13},{Residual->2.18735223805E-16}},
  {{-.1,9.72321611589E-15},{-.07,5.58946710349E-15},{-.04,2.42851647633E-15},{-.01,1.46190816438E-15},{.02,1.73563490155E-15},
   {.05,4.85331722264E-15},{.08,8.77796296627E-15}}},
 {"EY",1,{-6.05136739486E-6,6.657093249973E-6,-5.1936386683E-7,3.654310457E-8},
  {{1.46173530872E-15,2.97163256273E-15,2.80477182801E-13},{Residual->6.61017838668E-17}},
  {{-.1,3.97327274979E-15},{-.07,2.64932723009E-15},{-.04,1.78905403962E-15},{-.01,1.3365433127E-15},{.02,1.74779266328E-15},
   {.05,2.33361699469E-15},{.08,3.45888492605E-15}}},
 {"R32",1,{-6.04088676512E-6,6.655647370821E-6,-5.17690907143E-7,3.697071291669E-8},
  {{1.89322794016E-15,7.53592349812E-15,1.05002707185E-12},{Residual->5.6468130502E-16}},
  {{-.1,1.11076510591E-14},{-.07,7.40018668647E-15},{-.04,3.43024729911E-15},{-.01,1.54000142815E-15},{.02,1.75251064423E-15},
   {.05,5.57977080434E-15},{.08,9.11041417588E-15}}},
 {"Y24",1,{-6.04387140414E-6,6.653785934457E-6,-5.17650848921E-7,3.695738191897E-8},
  {{1.36415715735E-15,-7.4036710986E-17,1.94056376642E-15},{Residual->3.24569950448E-18}},
  {{-.3,1.56471170972E-15},{-.2,1.45250703855E-15},{-.1,1.386598257E-15},{5.55111512313E-17,1.36683361357E-15},
   {.1,1.37974712506E-15},{.2,1.42748308903E-15},{.3,1.51457712313E-15}}},
 {"Y46",1,{-6.04165107446E-6,6.6550128447E-6,-5.17670555088E-7,3.694462004215E-8},
  {{1.37223589597E-15,2.72720130809E-17,3.41302172478E-15},{Residual->2.48211805682E-17}},
  {{-.45,2.07210544335E-15},{-.3,1.65885078423E-15},{-.15,1.41099831556E-15},{-5.5511151231E-17,1.3658480783E-15},
   {.15,1.48460056364E-15},{.3,1.71539721452E-15},{.45,2.04805455878E-15}}},
 {"Y22",1,{-6.04165107446E-6,6.655012844699E-6,-5.17670555088E-7,3.694462004207E-8},
  {{3.12931735163E-15,2.81506231159E-15,6.20424933002E-14},{Residual->8.67400567369E-16}},
  {{-.6,2.32911342698E-14},{-.4,1.2665906625E-14},{-.2,5.87628329969E-15},{1.11022302463E-16,1.36490495005E-15},
   {.2,6.4060912256E-15},{.4,1.49257236844E-14},{.6,2.68627699032E-14}}},
 {"Y26",1,{-6.04165107446E-6,6.655012844699E-6,-5.17670555088E-7,3.694462004225E-8},
  {{1.92335266062E-15,3.43537070601E-17,9.89493508732E-14},{Residual->3.37679449828E-16}},
  {{-.3,1.04828429638E-14},{-.2,6.34018007785E-15},{-.1,3.26830515295E-15},{5.55111512313E-17,1.36490495007E-15},
   {.1,2.81569475786E-15},{.2,6.01438707684E-15},{.3,1.08829718894E-14}}},
 {"Y66",1,{-6.04165107446E-6,6.655012844699E-6,-5.17670555088E-7,3.694462004225E-8},
  {{5.87158063903E-15,-1.3877367471E-14,1.72416793854E-12},{Residual->2.33179525022E-15}},
  {{-.2,7.75513469053E-14},{-.15,4.78219031673E-14},{-.1,2.51223038525E-14},{-.05,9.95166902193E-15},{0,1.36490495007E-15},
   {.05,1.04118312303E-14},{.1,2.50910511626E-14},{.15,4.49762870889E-14},{.2,6.91781191536E-14}}},
 {"Y44",1,{-6.04372847299E-6,6.654842410095E-6,-5.14915184873E-7,3.644441528348E-8},
  {{2.25760925837E-15,3.65560039389E-16,2.3803566019E-14},{Residual->4.42232802131E-16}},
  {{-.6,1.04490197731E-14},{-.4,6.27555218906E-15},{-.2,3.3402940554E-15},{1.11022302463E-16,1.36490495006E-15},
   {.2,3.56114644004E-15},{.4,6.69257649321E-15},{.6,1.0779764849E-14}}},
 {"AY",1,{-6.04695072953E-6,6.654777174437E-6,-5.14550539664E-7,3.664209654962E-8},
  {{1.30402345911E-15,1.35796137657E-15,1.10085317087E-12},{Residual->1.092397682E-16}},
  {{-.1,1.21118869676E-14},{-.07,6.760796506E-15},{-.04,2.85674822344E-15},{-.01,1.50082877718E-15},{.02,1.79313911343E-15},
   {.05,3.99819605551E-15},{.08,8.52360839985E-15}}},
 {"EY",1,{-6.04381295874E-6,6.654472496772E-6,-5.1953539902E-7,3.843986450391E-8},
  {{1.41214299152E-15,1.92667374878E-15,2.9185120458E-13},{Residual->6.43463853611E-17}},
  {{-.1,4.11871049051E-15},{-.07,2.69628537465E-15},{-.04,1.84024160218E-15},{-.01,1.48782949034E-15},{.02,1.54066194886E-15},
   {.05,2.11246562465E-15},{.08,3.51288544563E-15}}},
 {"R32",1,{-6.04481562784E-6,6.656620151415E-6,-5.24860690086E-7,3.643632527974E-8},
  {{2.06465595116E-15,-2.397261672E-14,8.88159256194E-13},{Residual->4.67178737755E-16}},
  {{-.1,1.28313745002E-14},{-.07,8.59954290372E-15},{-.04,5.12505658411E-15},{-.01,2.09563608061E-15},{.02,1.38430729091E-15},
   {.05,2.91836156146E-15},{.08,6.17972064299E-15}}},
 {"Y24",1,{-6.04905593161E-6,6.653945886679E-6,-5.24767391943E-7,3.640527854739E-8},
  {{1.32493869235E-15,-1.0291853237E-16,1.90766466814E-15},{Residual->1.39331524205E-18}},
  {{-.3,1.52741985906E-15},{-.2,1.4216582343E-15},{-.1,1.3536470768E-15},{5.55111512313E-17,1.32760579989E-15},
   {.1,1.33265356534E-15},{.2,1.37879958773E-15},{.3,1.46693283038E-15}}},
 {"Y46",1,{-6.08954261669E-6,6.63307970417E-6,-5.24593700229E-7,3.635878216556E-8},
  {{1.34034254381E-15,-5.4641477855E-16,3.72176034461E-15},{Residual->1.76734969576E-17}},
  {{-.45,2.34753032343E-15},{-.3,1.84226230723E-15},{-.15,1.48652086669E-15},{-5.5511151231E-17,1.32534430611E-15},
   {.15,1.35921677722E-15},{.3,1.53921912503E-15},{.45,1.82701311808E-15}}},
 {"Y22",1,{-6.08954261672E-6,6.633079704156E-6,-5.24593700229E-7,3.635878216556E-8},
  {{3.18569843284E-15,1.97574729787E-15,6.21943746094E-14},{Residual->9.19046818075E-16}},
  {{-.6,2.38447862699E-14},{-.4,1.32130927321E-14},{-.2,6.08370719379E-15},{1.11022302463E-16,1.32196104056E-15},
   {.2,6.34318248234E-15},{.4,1.4687322768E-14},{.6,2.64635361058E-14}}},
 {"Y26",1,{-6.08954261666E-6,6.633079704156E-6,-5.24593700229E-7,3.635878216556E-8},
  {{1.93570317237E-15,1.64936951905E-15,9.90212097863E-14},{Residual->3.45138546073E-16}},
  {{-.3,1.00503441042E-14},{-.2,6.00346090558E-15},{-.1,3.10741349964E-15},{5.55111512313E-17,1.32196104056E-15},
   {.1,3.02249147209E-15},{.2,6.44945896927E-15},{.3,1.13207309554E-14}}},
 {"Y66",1,{-6.08954261666E-6,6.633079704156E-6,-5.24593700229E-7,3.635878216556E-8},
  {{5.59425371945E-15,-2.0868134379E-14,1.76751929705E-12},{Residual->2.08887369312E-15}},
  {{-.2,8.06691628093E-14},{-.15,4.90563080632E-14},{-.1,2.58607153485E-14},{-.05,1.04432032761E-14},{0,1.32196104056E-15},
   {.05,1.02973869615E-14},{.1,2.39689505478E-14},{.15,4.42634417382E-14},{.2,6.95950482478E-14}}},
 {"Y44",1,{-6.08954261669E-6,6.63307970417E-6,-5.24593700229E-7,3.635878216556E-8},
  {{2.30395406611E-15,-1.762179164E-16,2.34007795748E-14},{Residual->4.91214427584E-16}},
  {{-.6,1.06361068673E-14},{-.4,6.55090521552E-15},{-.2,3.49364002592E-15},{1.11022302463E-16,1.32196104056E-15},
   {.2,3.4847400066E-15},{.4,6.51538457173E-15},{.6,1.03338138589E-14}}}}
