{{"FD",1,{4.665629226619E-6,1.681238986673E-5,-1.04564936859E-6,1.905580533472E-7}},
 {"EX2",1,{3.659089306232E-6,1.68111835038E-5,-1.16576896343E-6,2.622213850633E-7}},
 {"FD",1,{3.664031271586E-6,1.681025462749E-5,-1.16418991279E-6,1.901011092481E-7}},
 {"AY",1,{2.087079681759E-6,1.75594206939E-5,-1.09750897394E-6,2.229199642447E-7},
  {{4.09224472055E-14,-6.7988910126E-14,5.00555456793E-12},{Residual->9.77076846025E-15}},
  {{-.5,1.32349389254E-12},{-.35,6.90849868546E-13},{-.2,2.37302498268E-13},{-.05,5.87357776882E-14},{.1,9.578468166E-14},
   {.25,3.29736448769E-13},{.4,8.15446664243E-13}}},
 {"EY",1,{1.993413970568E-6,1.760622804158E-5,-1.02083522076E-6,2.006853333965E-7},
  {{4.94456756896E-14,-1.3905375592E-13,4.82220553759E-13},{Residual->1.34951058907E-15}},
  {{-.5,2.40763090748E-13},{-.35,1.56350710145E-13},{-.2,9.4552492645E-14},{-.05,5.75382308907E-14},{.1,4.23430954264E-14},
   {.25,4.57945169726E-14},{.4,6.96842161281E-14}}},
 {"R32",1,{1.676908697346E-6,1.712592102142E-5,-1.21369014762E-6,6.554822159208E-8},
  {{4.01833663574E-14,-1.1702901591E-13,9.69116889212E-14},{Residual->6.489944239E-16}},
  {{-.5,1.2374300437E-13},{-.35,9.18404913716E-14},{-.2,6.70703679603E-14},{-.05,4.68052263183E-14},{.1,2.97258136502E-14},
   {.25,1.73976309116E-14},{.4,8.41150406275E-15}}},
 {"AY",1,{1.734383430841E-6,1.714136074432E-5,-1.22452853999E-6,4.768974122637E-8},
  {{2.39937973112E-16,3.45341420884E-13,5.002925579E-12},{Residual->3.83183340308E-15}},
  {{-.5,1.08078228509E-12},{-.35,4.90122883402E-13},{-.2,1.24975329505E-13},{-.05,2.3120586936E-15},{.1,8.60222518981E-14},
   {.25,3.97217792746E-13},{.4,9.38771779571E-13}}},
 {"EY",1,{1.741649331177E-6,1.714821033233E-5,-1.20883221926E-6,4.458279728107E-8},
  {{3.40878133723E-15,-2.348742658E-14,4.93379132646E-13},{Residual->7.66463280859E-16}},
  {{-.5,1.37695851196E-13},{-.35,7.35447034366E-14},{-.2,2.79251731822E-14},{-.05,4.73556454087E-15},{.1,5.99209894782E-15},
   {.25,2.87113898934E-14},{.4,7.29402758546E-14}}},
 {"R32",1,{1.730729130929E-6,1.713429377402E-5,-1.21875141387E-6,4.347552343819E-8},
  {{2.53890035533E-15,-6.9153211917E-15,1.12920737794E-13},{Residual->3.82715773042E-16}},
  {{-.5,3.39135621851E-14},{-.35,1.93658651212E-14},{-.2,8.54516431845E-15},{-.05,2.69336732118E-15},{.1,2.71878567891E-15},
   {.25,8.38855744481E-15},{.4,1.76835405564E-14}}},
 {"AY",1,{1.719470867541E-6,1.71311232616E-5,-1.21784566628E-6,4.034889970171E-8},
  {{-4.6112174303E-15,-9.8507312603E-14,4.90449152016E-12},{Residual->4.36371851844E-15}},
  {{-.3,4.65842709098E-13},{-.2,2.08677255186E-13},{-.1,5.77584245077E-14},{5.55111512313E-17,1.79828253093E-15},
   {.1,2.79745618705E-14},{.2,1.67937586299E-13},{.3,4.1099028414E-13}}},
 {"EY",1,{1.724227259765E-6,1.713458617734E-5,-1.2157807033E-6,4.010714167458E-8},
  {{2.84105011085E-15,-3.3279569891E-15,4.87157870414E-13},{Residual->7.27121071171E-16}},
  {{-.5,1.25528868212E-13},{-.35,6.46830635427E-14},{-.2,2.37363530226E-14},{-.05,3.53336772893E-15},{.1,6.47590400971E-15},
   {.25,3.29584450922E-14},{.4,7.95708552072E-14}}},
 {"R32",1,{1.727723767866E-6,1.71369886526E-5,-1.21649970373E-6,3.987717886064E-8},
  {{2.08946671106E-15,1.07254941761E-15,1.141760355E-13},{Residual->2.74408841832E-16}},
  {{-.5,3.00466518161E-14},{-.35,1.55295297931E-14},{-.2,7.0379797994E-15},{-.05,1.96954009027E-15},{.1,3.2871360374E-15},
   {.25,9.42642895412E-15},{.4,2.08825911773E-14}}},
 {"AY",1,{1.728884665125E-6,1.713915451317E-5,-1.21706832714E-6,4.076399841826E-8},
  {{-9.0087053542E-15,-2.0848487269E-14,4.96741300458E-12},{Residual->9.2017903631E-15}},
  {{-.3,4.49497281716E-13},{-.2,1.79718893886E-13},{-.1,4.80412320595E-14},{5.55111512313E-17,1.59025436779E-15},
   {.1,3.86600717527E-14},{.2,1.71985881186E-13},{.3,4.38321088834E-13}}},
 {"EY",1,{1.731938371053E-6,1.714022224433E-5,-1.21435070245E-6,4.083471740644E-8},
  {{2.32947293932E-15,-3.3454448518E-15,5.02053860523E-13},{Residual->3.57874489201E-16}},
  {{-.3,4.85337931749E-14},{-.2,2.31405274299E-14},{-.1,7.84015015364E-15},{5.55111512313E-17,1.66032674344E-15},
   {.1,7.25363991644E-15},{.2,2.22571632736E-14},{.3,4.61957908298E-14}}},
 {"R32",1,{1.731545667562E-6,1.713773355755E-5,-1.21710199889E-6,4.070434781695E-8},
  {{1.89909989061E-15,-1.8212426683E-15,1.2048579527E-13},{Residual->1.43403036556E-16}},
  {{-.3,1.31734111915E-14},{-.2,7.27979680981E-15},{-.1,3.3757372068E-15},{5.55111512313E-17,1.64558130084E-15},
   {.1,2.91103912762E-15},{.2,6.48742301811E-15},{.3,1.21567332552E-14}}},
 {"Y24",1,{1.755145526716E-6,1.714073143369E-5,-1.21749678098E-6,4.028801529575E-8},
  {{1.60064201767E-15,-4.9747925479E-16,1.06744459349E-15},{Residual->6.4881417326E-17}},
  {{-1.5,4.85764711759E-15},{-1.2,3.69706496267E-15},{-.9,2.8113879469E-15},{-.6,2.20298813195E-15},{-.3,1.82844666965E-15},
   {0,1.6568439312E-15},{.3,1.63989290658E-15},{.6,1.73306423974E-15},{.9,2.00739839339E-15},{1.2,2.50009661286E-15},
   {1.5,3.23993275741E-15}}},
 {"Y46",1,{1.770199952787E-6,1.712250361731E-5,-1.21421822033E-6,3.638047376209E-8},
  {{1.59383047856E-15,1.41339029768E-15,2.73370008342E-15},{Residual->1.06190708471E-16}},
  {{-1,3.07837490223E-15},{-.8,2.20165950192E-15},{-.6,1.56443982665E-15},{-.4,1.32353887115E-15},{-.2,1.36707432619E-15},
   {0,1.62312417647E-15},{.2,2.10331427269E-15},{.4,2.7228607205E-15},{.6,3.47981986433E-15},{.8,4.46897053585E-15},
   {1,5.62723863323E-15}}},
 {"Y22",1,{1.770199952787E-6,1.712250361731E-5,-1.21421822033E-6,3.638047376281E-8},
  {{1.60485304092E-15,1.92922354049E-15,1.23591208118E-14},{Residual->1.53642847043E-16}},
  {{-.6,4.9159981498E-15},{-.4,2.8223998972E-15},{-.2,1.7661817689E-15},{1.11022302463E-16,1.32353887121E-15},
   {.2,2.60344792953E-15},{.4,4.57468002728E-15},{.6,7.06993995178E-15}}},
 {"Y26",1,{1.762025056196E-6,1.712827413567E-5,-1.20373540687E-6,3.509941729441E-8},
  {{2.16642751736E-15,-2.2468493169E-15,3.24836313681E-14},{Residual->4.05112625801E-16}},
  {{-.6,1.50247032406E-14},{-.4,8.64464699496E-15},{-.2,4.0896429876E-15},{1.11022302463E-16,1.32353887121E-15},
   {.2,3.43619680497E-15},{.4,6.64929884319E-15},{.6,1.23786320112E-14}}},
 {"Y66",1,{1.762025056196E-6,1.712827413567E-5,-1.20373540687E-6,3.509941729441E-8},
  {{2.26387139931E-15,4.23079696316E-15,5.92996987489E-13},{Residual->4.7905074867E-16}},
  {{-.2,2.50050989643E-14},{-.15,1.50170632487E-14},{-.1,8.19782054742E-15},{-.05,3.7850926006E-15},{0,1.23196909441E-15},
   {.05,3.75461422934E-15},{.1,9.26646140129E-15},{.15,1.66079093679E-14},{.2,2.64583612632E-14}}},
 {"Y44",1,{1.7637551835E-6,1.713929588234E-5,-1.19454300174E-6,3.50779180137E-8},
  {{1.25143894753E-15,1.0508645709E-15,6.59357293066E-15},{Residual->5.54763042851E-17}},
  {{-.6,2.94533576258E-15},{-.4,1.93323141285E-15},{-.2,1.37599411722E-15},{1.11022302463E-16,1.23196909441E-15},
   {.2,1.62524755229E-15},{.4,2.76123085164E-15},{.6,4.27186552405E-15}}},
 {"AY",1,{1.772334778817E-6,1.714677821015E-5,-1.20024054658E-6,3.373785572145E-8},
  {{3.40686117707E-16,1.16098371805E-13,4.36589511292E-12},{Residual->1.72308107496E-15}},
  {{-.1,3.12152586731E-14},{-.07,1.44241028064E-14},{-.04,3.7515358296E-15},{-.01,1.08049462646E-15},{.02,3.04424331465E-15},
   {.05,1.40800263501E-14},{.08,3.97389386219E-14}}},
 {"EY",1,{1.772100462884E-6,1.714803511942E-5,-1.20121980459E-6,3.334994114812E-8},
  {{1.23584590363E-15,7.62676212878E-15,5.06688790378E-13},{Residual->1.34736182792E-16}},
  {{-.1,5.36765725749E-15},{-.07,3.44532149885E-15},{-.04,1.79460056712E-15},{-.01,1.12011732657E-15},{.02,1.52297400419E-15},
   {.05,2.80950113586E-15},{.08,5.18011585707E-15}}},
 {"R32",1,{1.774682852976E-6,1.715111226745E-5,-1.19642440707E-6,3.336456047543E-8},
  {{1.12482113676E-15,-1.263295925E-16,1.28372332152E-13},{Residual->3.73983350452E-17}},
  {{-.1,2.40489016364E-15},{-.07,1.81741513256E-15},{-.04,1.30042725094E-15},{-.01,1.108097127E-15},{.02,1.17221774077E-15},
   {.05,1.49822282148E-15},{.08,1.90616419513E-15}}},
 {"Y24",1,{1.796258731125E-6,1.715188813839E-5,-1.19688561269E-6,3.242898499528E-8},
  {{1.10412690882E-15,-4.8079838155E-16,1.14419210996E-15},{Residual->4.53408243419E-18}},
  {{-.3,1.35445552792E-15},{-.2,1.24051900062E-15},{-.1,1.16120013274E-15},{5.55111512313E-17,1.11319389572E-15},
   {.1,1.06365471094E-15},{.2,1.05300211523E-15},{.3,1.06323676933E-15}}},
 {"Y46",1,{1.797195682402E-6,1.71509379546E-5,-1.19649548606E-6,3.230481997668E-8},
  {{1.05908555134E-15,2.52226270582E-16,3.54142501556E-15},{Residual->1.93494881359E-17}},
  {{-.45,1.67556576055E-15},{-.3,1.29920813065E-15},{-.15,1.07412981304E-15},{-5.5511151231E-17,1.05163906782E-15},
   {.15,1.19649009795E-15},{.3,1.48088765297E-15},{.45,1.86677609619E-15}}},
 {"Y22",1,{1.83561202897E-6,1.712771600051E-5,-1.20129407009E-6,3.034092761114E-8},
  {{1.22570587952E-15,2.41250211377E-15,1.09447820688E-14},{Residual->1.15852524569E-16}},
  {{-.6,3.74109582302E-15},{-.4,2.04462042636E-15},{-.2,1.14077220356E-15},{1.11022302463E-16,1.04360139323E-15},
   {.2,2.26461064107E-15},{.4,4.11148803786E-15},{.6,6.49190854855E-15}}},
 {"Y26",1,{1.828171132279E-6,1.713005066337E-5,-1.18881938291E-6,2.853492619861E-8},
  {{1.24505382168E-15,-3.0219228535E-15,4.22081175502E-14},{Residual->1.8180225896E-16}},
  {{-.3,5.81586749453E-15},{-.2,3.76518693654E-15},{-.1,2.09205158083E-15},{5.55111512313E-17,9.20571888305E-16},
   {.1,1.34521074127E-15},{.2,2.52084986653E-15},{.3,4.07391115781E-15}}},
 {"Y66",1,{1.827940607021E-6,1.713022061567E-5,-1.18866859001E-6,2.851047231801E-8},
  {{1.78621320075E-15,1.26580299622E-16,5.8730732949E-13},{Residual->5.66265575327E-16}},
  {{-.2,2.483055706E-14},{-.15,1.57386209791E-14},{-.1,7.88821011266E-15},{-.05,3.02249331147E-15},{0,8.1424201316E-16},
   {.05,3.14798269338E-15},{.1,8.4122756513E-15},{.15,1.55263340195E-14},{.2,2.47913023896E-14}}},
 {"Y44",1,{1.827940606547E-6,1.713022061595E-5,-1.18866859001E-6,2.851047231797E-8},
  {{8.83577920303E-16,5.29267030891E-16,6.52850391059E-15},{Residual->4.94411834884E-17}},
  {{-.6,2.86382880208E-15},{-.4,1.78562932901E-15},{-.2,1.09519755775E-15},{1.11022302463E-16,8.12847031794E-16},
   {.2,1.2195454841E-15},{.4,2.15747234087E-15},{.6,3.56244927638E-15}}},
 {"AY",1,{1.848187937727E-6,1.713048761199E-5,-1.19059744958E-6,2.714420032799E-8},
  {{-9.796277286E-16,7.02103454363E-14,4.94761734501E-12},{Residual->1.77960209998E-15}},
  {{-.1,4.18610083846E-14},{-.07,1.68746122939E-14},{-.04,4.56951498679E-15},{-.01,7.39442727227E-16},{.02,2.93732668043E-15},
   {.05,1.1346640828E-14},{.08,3.8042625054E-14}}},
 {"EY",1,{1.852851132437E-6,1.713395624358E-5,-1.18601376791E-6,2.766691622774E-8},
  {{6.95888770009E-16,-1.2338507922E-16,4.92366169956E-13},{Residual->1.24863187172E-16}},
  {{-.1,5.77327091788E-15},{-.07,2.84310228198E-15},{-.04,1.55286853565E-15},{-.01,8.26984780251E-16},{.02,8.82387623579E-16},
   {.05,1.95948091653E-15},{.08,3.7940470916E-15}}},
 {"R32",1,{1.840717387576E-6,1.712596153298E-5,-1.1908538169E-6,2.692674806257E-8},
  {{7.46472332428E-16,-2.6058061471E-15,1.23286186966E-13},{Residual->3.89184962035E-17}},
  {{-.1,2.24613616044E-15},{-.07,1.50884573319E-15},{-.04,1.04144274342E-15},{-.01,8.52110246158E-16},{.02,7.29068689796E-16},
   {.05,8.61275383365E-16},{.08,1.36194604335E-15}}},
 {"Y24",1,{1.843881149436E-6,1.71268727865E-5,-1.19090885728E-6,2.689004998557E-8},
  {{7.25266105256E-16,-1.0765841426E-16,1.48537261393E-15},{Residual->1.07641590068E-18}},
  {{-.3,8.89953476258E-16},{-.2,8.0775747689E-16},{-.1,7.51839555721E-16},{5.55111512313E-17,7.25049761225E-16},
   {.1,7.28237210349E-16},{.2,7.62254596748E-16},{.3,8.27674991504E-16}}},
 {"Y46",1,{1.843881149436E-6,1.71268727865E-5,-1.19090885728E-6,2.689004998557E-8},
  {{7.62806364124E-16,-8.3343160385E-17,4.04563869904E-15},{Residual->2.7681166909E-17}},
  {{-.45,1.61974190058E-15},{-.3,1.17270438887E-15},{-.15,8.46433360114E-16},{-5.5511151231E-17,7.23074788227E-16},
   {.15,8.69219478298E-16},{.3,1.13986195189E-15},{.45,1.51736106129E-15}}},
 {"Y22",1,{1.843609991692E-6,1.712697612693E-5,-1.19087204731E-6,2.687158996873E-8},
  {{9.05336604679E-16,-1.705418385E-17,1.0958669867E-14},{Residual->1.03457618013E-16}},
  {{-.6,4.80365263287E-15},{-.4,2.78553885396E-15},{-.2,1.3787983992E-15},{1.11022302463E-16,7.23074788227E-16},
   {.2,1.35246357725E-15},{.4,2.78974769811E-15},{.6,4.77779053423E-15}}},
 {"Y26",1,{1.839017276269E-6,1.712955975954E-5,-1.18337474074E-6,2.666319639463E-8},
  {{1.04015745487E-15,-1.8218592318E-15,4.32185366737E-14},{Residual->1.70254800338E-16}},
  {{-.3,5.37265420051E-15},{-.2,3.32951908946E-15},{-.1,1.74121420719E-15},{5.55111512313E-17,7.22082347447E-16},
   {.1,1.31772610142E-15},{.2,2.59800648294E-15},{.3,4.30109002379E-15}}},
 {"Y66",1,{1.842680088127E-6,1.712728198337E-5,-1.1856606685E-6,2.66504040008E-8},
  {{1.51289713287E-15,-2.0485996432E-15,6.06466300531E-13},{Residual->4.33082672337E-16}},
  {{-.2,2.59043328306E-14},{-.15,1.59117034081E-14},{-.1,8.11884462213E-15},{-.05,2.89101158288E-15},{0,7.10926041978E-16},
   {.05,2.93552076703E-15},{.1,7.90400732182E-15},{.15,1.52468827702E-14},{.2,2.49627899307E-14}}},
 {"Y44",1,{1.84268008796E-6,1.712728198357E-5,-1.1856606685E-6,2.665040400096E-8},
  {{7.73725975113E-16,6.78869181787E-16,6.5134725999E-15},{Residual->4.61414325806E-17}},
  {{-.6,2.66312121067E-15},{-.4,1.61592744118E-15},{-.2,9.36442228853E-16},{1.11022302463E-16,7.10244033414E-16},
   {.2,1.13884306584E-15},{.4,2.1192943777E-15},{.6,3.52729878E-15}}},
 {"AY",1,{1.861384500867E-6,1.712249556318E-5,-1.18386453996E-6,2.712595448935E-8},
  {{2.12452396637E-16,3.37580845823E-14,5.07731765369E-12},{Residual->1.91814286368E-15}},
  {{-.1,4.95386885745E-14},{-.07,1.85624480168E-14},{-.04,8.80128706276E-15},{-.01,1.14088263663E-15},{.02,2.47593250191E-15},
   {.05,1.51979970963E-14},{.08,3.49093921975E-14}}},
 {"EY",1,{1.861831096004E-6,1.712516570818E-5,-1.18158755661E-6,2.699108734365E-8},
  {{8.23870852321E-16,-3.6505844785E-16,4.4334308912E-13},{Residual->1.39977083472E-16}},
  {{-.1,5.12643564484E-15},{-.07,3.22690243511E-15},{-.04,1.67638251054E-15},{-.01,7.95400135197E-16},{.02,9.11527088764E-16},
   {.05,1.77261052095E-15},{.08,3.76597773039E-15}}},
 {"R32",1,{1.866201028514E-6,1.713099687074E-5,-1.17845371186E-6,2.724368288729E-8},
  {{7.49145454243E-16,1.07543296108E-15,1.04938663259E-13},{Residual->2.20562821225E-17}},
  {{-.1,1.70047446636E-15},{-.07,1.15310519692E-15},{-.04,9.15061690174E-16},{-.01,7.4140797891E-16},{.02,7.96179321601E-16},
   {.05,1.07435148456E-15},{.08,1.50606911231E-15}}},
 {"Y24",1,{1.857536765737E-6,1.712882974617E-5,-1.17829394343E-6,2.6986236367E-8},
  {{7.42916439391E-16,3.04965512819E-16,1.55868389133E-15},{Residual->1.18032764887E-18}},
  {{-.3,7.90204752079E-16},{-.2,7.46677500002E-16},{-.1,7.28256953256E-16},{5.55111512313E-17,7.42218257263E-16},
   {.1,7.88078698627E-16},{.2,8.66180265475E-16},{.3,9.75230138604E-16}}},
 {"Y46",1,{1.856646802183E-6,1.712978971322E-5,-1.17861218079E-6,2.696524018731E-8},
  {{7.54333978423E-16,-1.578979739E-16,3.93931373362E-15},{Residual->1.72065809246E-17}},
  {{-.45,1.61974988872E-15},{-.3,1.17079854608E-15},{-.15,8.62839753488E-16},{-5.5511151231E-17,7.28256953256E-16},
   {.15,8.2506453764E-16},{.3,1.09073698209E-15},{.45,1.46465883987E-15}}},
 {"Y22",1,{1.847770298308E-6,1.713436772868E-5,-1.17774144287E-6,2.666121528683E-8},
  {{9.09524206779E-16,-5.485264349E-16,1.0918010567E-14},{Residual->1.07042162062E-16}},
  {{-.6,5.09680380007E-15},{-.4,3.01667387333E-15},{-.2,1.49378821613E-15},{1.11022302463E-16,7.27124178359E-16},
   {.2,1.23293668756E-15},{.4,2.56968094119E-15},{.6,4.45783358587E-15}}},
 {"Y26",1,{1.846300456732E-6,1.713537118725E-5,-1.17566592186E-6,2.657769324657E-8},
  {{1.04529193117E-15,-4.9456964832E-16,4.29493435625E-14},{Residual->1.83234121013E-16}},
  {{-.3,4.91987647954E-15},{-.2,3.10212415778E-15},{-.1,1.63900936562E-15},{5.55111512313E-17,7.10820400571E-16},
   {.1,1.42910424675E-15},{.2,2.83678733859E-15},{.3,4.70513772685E-15}}},
 {"Y66",1,{1.846300456732E-6,1.713537118725E-5,-1.17566592186E-6,2.657769324657E-8},
  {{1.62730177644E-15,-2.0951887315E-15,5.93206587443E-13},{Residual->5.18255051103E-16}},
  {{-.2,2.55985209399E-14},{-.15,1.57089692208E-14},{-.1,8.01394527689E-15},{-.05,2.92908964785E-15},{0,7.06373778309E-16},
   {.05,3.02680407493E-15},{.1,8.1009190074E-15},{.15,1.52045652941E-14},{.2,2.43375168643E-14}}},
 {"Y44",1,{1.846300456732E-6,1.713537118725E-5,-1.17566592186E-6,2.657769324712E-8},
  {{7.6430542394E-16,1.63020809957E-16,6.46866313977E-15},{Residual->3.91079526058E-17}},
  {{-.6,2.95351086336E-15},{-.4,1.79818822212E-15},{-.2,1.01952610111E-15},{1.11022302463E-16,7.06373778338E-16},
   {.2,1.03944304273E-15},{.4,1.88408740093E-15},{.6,3.19391127554E-15}}}}
