{{"FD",1,{-6.40472568181E-6,1.377132063077E-5,-5.53492065296E-6,8.549918211056E-7}},
 {"EX2",1,{-4.07372065885E-5,1.366926580977E-5,-5.46716244329E-6,1.023202430704E-6}},
 {"FD",1,{-4.09342046589E-5,1.364843253149E-5,-5.64325509712E-6,8.633117148793E-7}},
 {"AY",1,{-4.15413640911E-5,1.421396369238E-5,-6.54840894664E-6,1.323868914127E-6},
  {{1.76322894587E-12,-3.2378343419E-13,3.36535024927E-12},{Residual->4.1299563081E-15}},
  {{-.5,2.76531596526E-12},{-.35,2.28613000578E-12},{-.2,1.9701536816E-12},{-.05,1.78864647062E-12},{.1,1.76065431535E-12},
   {.25,1.8879022672E-12},{.4,2.17618840364E-12}}},
 {"EY",1,{-4.22059962074E-5,1.482878040428E-5,-8.39677615966E-6,5.693489884888E-7},
  {{1.75350307825E-12,1.72179378133E-12,4.81319811414E-13},{Residual->4.93771142342E-15}},
  {{-.5,1.01627373769E-12},{-.35,1.2028199705E-12},{-.2,1.42890551862E-12},{-.05,1.67293261989E-12},{.1,1.934603089E-12},
   {.25,2.205896955E-12},{.4,2.5221164115E-12}}},
 {"R32",1,{-4.5555171383E-5,1.387127825594E-5,-6.98359169498E-6,1.170727381702E-7},
  {{3.23814303642E-13,4.59140622367E-13,1.83312000935E-13},{Residual->1.66286514117E-15}},
  {{-.5,1.38908121268E-13},{-.35,1.86634105512E-13},{-.2,2.40406112838E-13},{-.05,3.01283853709E-13},{.1,3.71956936051E-13},
   {.25,4.46677571504E-13},{.4,5.38828727386E-13}}},
 {"AY",1,{-4.56298608845E-5,1.39049939127E-5,-6.9167729446E-6,6.75561732053E-8},
  {{1.13191398061E-14,3.97078532125E-13,3.3332739041E-12},{Residual->6.7607540632E-15}},
  {{-.5,6.51252082154E-13},{-.35,2.72693577617E-13},{-.2,6.1668241393E-14},{-.05,4.60571541937E-15},{.1,9.37699747709E-14},
   {.25,3.08888798319E-13},{.4,7.05672955628E-13}}},
 {"EY",1,{-4.56343896964E-5,1.390442448619E-5,-6.91760082313E-6,6.671961944903E-8},
  {{3.82978273066E-15,1.08405220398E-15,4.80311984442E-13},{Residual->6.81990135613E-16}},
  {{-.5,1.22823225352E-13},{-.35,6.28506754279E-14},{-.2,2.30253063594E-14},{-.05,5.608414913E-15},{.1,8.16299721477E-15},
   {.25,3.30260326605E-14},{.4,8.19344188421E-14}}},
 {"R32",1,{-4.60065040166E-5,1.386464366629E-5,-6.76354444508E-6,3.491133146681E-8},
  {{4.26852894052E-15,4.42405491505E-14,1.72103196063E-13},{Residual->1.63936661771E-16}},
  {{-.5,2.51428551825E-14},{-.35,9.91119650176E-15},{-.2,2.17688151663E-15},{-.05,2.81351605266E-15},{.1,1.02251292129E-14},
   {.25,2.59585791563E-14},{.4,4.96041722093E-14}}},
 {"AY",1,{-4.60232084023E-5,1.386842651039E-5,-6.76639438292E-6,3.538187055679E-8},
  {{2.76506554443E-15,3.45585302249E-14,3.2795514134E-12},{Residual->4.1595378202E-15}},
  {{-.3,2.82240743998E-13},{-.2,1.34933391548E-13},{-.1,3.34305081368E-14},{5.55111512313E-17,1.3397421131E-15},
   {.1,3.61038042649E-14},{.2,1.38065389917E-13},{.3,3.11516274586E-13}}},
 {"EY",1,{-4.60026257198E-5,1.38698162051E-5,-6.76792385875E-6,3.580764247676E-8},
  {{7.72607733589E-16,6.92120759328E-16,4.89746168549E-13},{Residual->4.54509379092E-16}},
  {{-.5,1.22903707062E-13},{-.35,6.09494486495E-14},{-.2,1.93072153622E-14},{-.05,2.11885291471E-15},{.1,5.9096749674E-15},
   {.25,3.20421958699E-14},{.4,7.90455611792E-14}}},
 {"R32",1,{-4.60019148166E-5,1.387119167772E-5,-6.7644793801E-6,3.562949709796E-8},
  {{1.92596673259E-15,-2.6505594161E-15,1.65492333177E-13},{Residual->4.47394230504E-16}},
  {{-.5,4.50523330295E-14},{-.35,2.24333589252E-14},{-.2,9.28601459465E-15},{-.05,2.15359351326E-15},{.1,3.52136903208E-15},
   {.25,1.2208005663E-14},{.4,2.69110738979E-14}}},
 {"AY",1,{-4.60902538246E-5,1.387023864765E-5,-6.76371456442E-6,3.514569781109E-8},
  {{-7.0009392419E-16,1.05702973229E-14,3.22038160736E-12},{Residual->4.59681812299E-15}},
  {{-.3,2.89995939325E-13},{-.2,1.23616152441E-13},{-.1,2.23125872719E-14},{5.55111512313E-17,1.23569315417E-15},
   {.1,3.89159394078E-14},{.2,1.31976039749E-13},{.3,2.88753841242E-13}}},
 {"EY",1,{-4.60532050125E-5,1.387253534891E-5,-6.77729422882E-6,3.528608135213E-8},
  {{6.59517633677E-16,4.26999896199E-15,4.86470291848E-13},{Residual->2.66571305704E-16}},
  {{-.3,4.33536220801E-14},{-.2,1.89605111742E-14},{-.1,4.876905518E-15},{5.55111512313E-17,1.19900545125E-15},
   {.1,5.80116320303E-15},{.2,2.08976651826E-14},{.3,4.5739432544E-14}}},
 {"R32",1,{-4.60911538001E-5,1.386824456035E-5,-6.76408082897E-6,3.504025460519E-8},
  {{1.65124449766E-15,4.62179064728E-15,1.63688656001E-13},{Residual->2.97794316664E-16}},
  {{-.3,1.47233559439E-14},{-.2,7.71971964463E-15},{-.1,3.00728333018E-15},{5.55111512313E-17,1.23377049344E-15},
   {.1,3.56182974195E-15},{.2,9.4407535075E-15},{.3,1.77048225022E-14}}},
 {"Y24",1,{-4.61031878991E-5,1.386721072648E-5,-6.7641688741E-6,3.496030911029E-8},
  {{1.23431534369E-15,7.69681023902E-17,1.24415540221E-15},{Residual->4.21046381674E-17}},
  {{-1.5,3.96259752713E-15},{-1.2,2.95030295161E-15},{-.9,2.12734248408E-15},{-.6,1.58051180745E-15},{-.3,1.2777499723E-15},
   {0,1.2278194428E-15},{.3,1.43167938508E-15},{.6,1.79328519153E-15},{.9,2.32767742473E-15},{1.2,3.10453956085E-15},
   {1.5,4.11110151494E-15}}},
 {"Y46",1,{-4.60828834064E-5,1.386931759732E-5,-6.76596326313E-6,3.443110961399E-8},
  {{1.41043375559E-15,1.29475945889E-15,3.81309229529E-15},{Residual->1.14614116681E-16}},
  {{-1,3.77561420883E-15},{-.8,2.89682508918E-15},{-.6,2.19050181185E-15},{-.4,1.61154891484E-15},{-.2,1.21619561218E-15},
   {0,1.22222321309E-15},{.2,1.74320177185E-15},{.4,2.56616659766E-15},{.6,3.64934123054E-15},{.8,4.96647508895E-15},
   {1,6.45428387183E-15}}},
 {"Y22",1,{-4.5992391488E-5,1.390089264711E-5,-6.77051530687E-6,3.262184013919E-8},
  {{1.14877747361E-15,8.71918552111E-15,1.28460356301E-13},{Residual->5.60492543518E-17}},
  {{-.6,4.22341009077E-14},{-.4,1.81167923677E-14},{-.2,4.50156673259E-15},{1.11022302463E-16,1.18550130952E-15},
   {.2,8.0846665388E-15},{.4,2.52030139793E-14},{.6,5.25913995373E-14}}},
 {"Y26",1,{-4.5992391488E-5,1.390089264711E-5,-6.77051530687E-6,3.26218401392E-8},
  {{1.49544403201E-15,3.1044358313E-14,5.23854592183E-13},{Residual->1.86173238282E-15}},
  {{-.6,1.69567138757E-13},{-.4,7.44829965831E-14},{-.2,1.89781290844E-14},{1.11022302463E-16,1.06418445407E-15},
   {.2,2.59825807803E-14},{.4,9.68193011382E-14},{.6,2.10290920672E-13}}},
 {"Y66",1,{-4.5992391488E-5,1.390089264711E-5,-6.77051530687E-6,3.26218401392E-8},
  {{5.27223292152E-16,-3.273652966E-14,7.15732915491E-12},{Residual->6.65103207595E-16}},
  {{-.2,2.93307969106E-13},{-.15,1.67240779645E-13},{-.1,7.47505208312E-14},{-.05,1.89620905389E-14},{0,1.06418445407E-15},
   {.05,1.78793842356E-14},{.1,6.82713746923E-14},{.15,1.56686692494E-13},{.2,2.8018138687E-13}}},
 {"Y44",1,{-4.60337444013E-5,1.389854858529E-5,-6.76284626809E-6,3.213663131132E-8},
  {{8.8024471415E-16,1.68015831167E-15,4.94285921396E-14},{Residual->1.73859549548E-16}},
  {{-.6,1.78398814572E-14},{-.4,7.9633912931E-15},{-.2,2.22809246955E-15},{1.11022302463E-16,1.06418445407E-15},
   {.2,3.33325643914E-15},{.4,9.52864071327E-15},{.6,1.9564289369E-14}}},
 {"AY",1,{-4.59982519647E-5,1.389705355941E-5,-6.76736648401E-6,3.274794639037E-8},
  {{1.75433095852E-16,-1.6921993308E-14,2.68176402453E-12},{Residual->4.0010673085E-16}},
  {{-.1,2.90925865953E-14},{-.07,1.38768127299E-14},{-.04,4.87851486534E-15},{-.01,1.05249472557E-15},{.02,1.30675269613E-15},
   {.05,5.65425605267E-15},{.08,1.60088417729E-14}}},
 {"EY",1,{-4.59492455424E-5,1.389702148248E-5,-6.77735826527E-6,3.27415341276E-8},
  {{9.70260984946E-16,-6.3476330376E-16,4.95068840136E-13},{Residual->7.36129846084E-17}},
  {{-.1,6.01300250962E-15},{-.07,3.39282923703E-15},{-.04,1.7604404879E-15},{-.01,1.06205433207E-15},{.02,1.26007686965E-15},
   {.05,2.03574761571E-15},{.08,4.13439223343E-15}}},
 {"R32",1,{-4.5963787099E-5,1.389692329494E-5,-6.78240102217E-6,3.254388395296E-8},
  {{1.11876338376E-15,4.86077962067E-16,1.77595305451E-13},{Residual->1.24304251741E-16}},
  {{-.1,2.98280158173E-15},{-.07,1.75549180493E-15},{-.04,1.3753395656E-15},{-.01,1.11566897697E-15},{.02,1.24053875563E-15},
   {.05,1.76269434428E-15},{.08,2.164501611E-15}}},
 {"Y24",1,{-4.5963787099E-5,1.389692329494E-5,-6.78240102217E-6,3.254388395296E-8},
  {{1.05989872505E-15,5.24998917494E-17,1.12159159124E-15},{Residual->1.59633105197E-18}},
  {{-.3,1.14433543019E-15},{-.2,1.09401132587E-15},{-.1,1.06858992887E-15},{5.55111512313E-17,1.05910438274E-15},
   {.1,1.0762553975E-15},{.2,1.11275759655E-15},{.3,1.17828265915E-15}}},
 {"Y46",1,{-4.59530524387E-5,1.389748052009E-5,-6.78310012166E-6,3.246115977566E-8},
  {{1.08228798472E-15,1.07894253613E-15,4.92306051694E-15},{Residual->3.89746614819E-17}},
  {{-.45,1.55142521933E-15},{-.3,1.24955207153E-15},{-.15,1.07834783011E-15},{-5.5511151231E-17,1.05910438274E-15},
   {.15,1.29681651854E-15},{.3,1.860424225E-15},{.45,2.58187377146E-15}}},
 {"Y22",1,{-4.59530524387E-5,1.389748051992E-5,-6.78310012166E-6,3.246115977581E-8},
  {{8.69107363731E-16,6.84036659768E-15,1.28202536388E-13},{Residual->1.12981825075E-16}},
  {{-.6,4.30153808304E-14},{-.4,1.84595903609E-14},{-.2,4.60328674216E-15},{1.11022302463E-16,1.05372689399E-15},
   {.2,7.36057306595E-15},{.4,2.40200133848E-14},{.6,5.11580210222E-14}}},
 {"Y26",1,{-4.59530524387E-5,1.389748051992E-5,-6.78310012166E-6,3.246115977578E-8},
  {{8.38793141368E-16,9.52386415099E-15,5.4378442162E-13},{Residual->8.456054167E-16}},
  {{-.3,4.61096489901E-14},{-.2,2.13521179209E-14},{-.1,6.36455037181E-15},{5.55111512313E-17,1.05372689399E-15},
   {.1,5.86396126537E-15},{.2,2.39609622614E-14},{.3,5.34262223395E-14}}},
 {"Y66",1,{-4.59536993848E-5,1.389734203316E-5,-6.78291615314E-6,3.244032256208E-8},
  {{5.87477111447E-16,5.30022290208E-16,7.16933888284E-12},{Residual->6.34983982292E-16}},
  {{-.2,2.87392689016E-13},{-.15,1.61865463545E-13},{-.1,7.18557624732E-14},{-.05,1.80339749629E-14},{0,1.05372689399E-15},
   {.05,1.92953567757E-14},{.1,7.24981038768E-14},{.15,1.60561046594E-13},{.2,2.88132002292E-13}}},
 {"Y44",1,{-4.60344483544E-5,1.388626405025E-5,-6.76774861904E-6,3.181768588999E-8},
  {{9.4443963902E-16,3.30325254246E-15,4.9141820135E-14},{Residual->1.27983202259E-16}},
  {{-.6,1.67893019639E-14},{-.4,7.33126909271E-15},{-.2,2.11166218554E-15},{1.11022302463E-16,1.05237452792E-15},
   {.2,3.58298527146E-15},{.4,1.02896337195E-14},{.6,2.04926892634E-14}}},
 {"AY",1,{-4.60360018161E-5,1.389387424034E-5,-6.7556872471E-6,3.152148203627E-8},
  {{1.03262843937E-15,5.4497720693E-14,2.77862835101E-12},{Residual->1.88041307818E-15}},
  {{-.1,2.11831627926E-14},{-.07,1.37569325336E-14},{-.04,3.9987608427E-15},{-.01,1.01941671598E-15},{.02,1.82191111716E-15},
   {.05,8.4622144928E-15},{.08,2.51376344234E-14}}},
 {"EY",1,{-4.60193950335E-5,1.389422550842E-5,-6.75231135235E-6,3.076330008157E-8},
  {{9.92697961692E-16,-7.1385171992E-15,4.22059976382E-13},{Residual->1.3205909248E-16}},
  {{-.1,5.7960024923E-15},{-.07,3.8421011374E-15},{-.04,1.82694230585E-15},{-.01,1.06340578159E-15},{.02,1.05802891552E-15},
   {.05,1.62620298273E-15},{.08,3.16725170869E-15}}},
 {"R32",1,{-4.60424691671E-5,1.389387939307E-5,-6.74766963374E-6,3.096380573582E-8},
  {{1.05785843006E-15,-1.5741221541E-15,1.42093430339E-13},{Residual->5.93436312349E-17}},
  {{-.1,2.64372371585E-15},{-.07,1.85215481908E-15},{-.04,1.3681854462E-15},{-.01,1.07638489699E-15},{.02,1.00612800291E-15},
   {.05,1.45841558803E-15},{.08,1.79042493793E-15}}},
 {"Y24",1,{-4.59521818338E-5,1.389735840078E-5,-6.74732487062E-6,2.961415846302E-8},
  {{9.60894056502E-16,-7.2457255892E-16,1.62488404156E-15},{Residual->1.11490395025E-18}},
  {{-.3,1.32447212835E-15},{-.2,1.17084620008E-15},{-.1,1.05061018732E-15},{5.55111512313E-17,9.58757265645E-16},
   {.1,9.05111998607E-16},{.2,8.82480632431E-16},{.3,8.88947514703E-16}}},
 {"Y46",1,{-4.59395108027E-5,1.390034291248E-5,-6.7485794E-6,2.938376551395E-8},
  {{9.38604531191E-16,1.25679354195E-15,5.32346328418E-15},{Residual->3.58339565405E-17}},
  {{-.45,1.42329053853E-15},{-.3,1.08985799084E-15},{-.15,8.88811552938E-16},{-5.5511151231E-17,8.76998381473E-16},
   {.15,1.24260610155E-15},{.3,1.83302114127E-15},{.45,2.56942788076E-15}}},
 {"Y22",1,{-4.59103505772E-5,1.39083729789E-5,-6.74993064412E-6,2.902920105882E-8},
  {{7.77338323526E-16,2.82056938257E-15,1.29921325675E-13},{Residual->9.83849820159E-17}},
  {{-.6,4.59278972633E-14},{-.4,2.03935830889E-14},{-.2,5.23724072169E-15},{1.11022302463E-16,8.63405675779E-16},
   {.2,6.67816968531E-15},{.4,2.26337522106E-14},{.6,4.92192043751E-14}}},
 {"Y26",1,{-4.59103505772E-5,1.390837297893E-5,-6.74993064412E-6,2.902920105892E-8},
  {{1.05538633704E-15,2.37359967024E-14,5.39106574603E-13},{Residual->6.76660692021E-16}},
  {{-.3,4.18014077079E-14},{-.2,1.83873844971E-14},{-.1,5.1276347331E-15},{5.55111512313E-17,8.42694514119E-16},
   {.1,7.7716581273E-15},{.2,2.72245375157E-14},{.3,5.7182228153E-14}}},
 {"Y66",1,{-4.59103505772E-5,1.390837297893E-5,-6.74993064412E-6,2.902920105892E-8},
  {{5.64854972687E-16,-4.0567579112E-14,7.19804332186E-12},{Residual->4.04833016611E-16}},
  {{-.2,2.96634429972E-13},{-.15,1.69041139986E-13},{-.1,7.59638238265E-14},{-.05,2.01798286224E-14},{0,8.42694514119E-16},
   {.05,1.72556273892E-14},{.1,6.82080561107E-14},{.15,1.56264231276E-13},{.2,2.80400361337E-13}}},
 {"Y44",1,{-4.59103505772E-5,1.39083729789E-5,-6.74993064412E-6,2.902920105891E-8},
  {{7.66518039749E-16,-9.4224546391E-16,4.99725878044E-14},{Residual->1.44926875278E-16}},
  {{-.6,1.94491325905E-14},{-.4,9.0663157942E-15},{-.2,2.69178460343E-15},{1.11022302463E-16,8.42694514119E-16},
   {.2,2.74106913999E-15},{.4,8.47761370555E-15},{.6,1.80663142714E-14}}},
 {"AY",1,{-4.58930156616E-5,1.390739276056E-5,-6.74829643784E-6,2.898450349108E-8},
  {{6.18377259081E-16,2.52697395809E-15,3.08357025015E-12},{Residual->9.1429978322E-16}},
  {{-.1,3.19062002031E-14},{-.07,1.47233734125E-14},{-.04,5.13769195759E-15},{-.01,8.44683369501E-16},{.02,1.65643220105E-15},
   {.05,1.02782378017E-14},{.08,1.94696031699E-14}}},
 {"EY",1,{-4.59457778512E-5,1.390551305645E-5,-6.73307147664E-6,2.956272256579E-8},
  {{8.03376381021E-16,-5.377997726E-15,4.78246129729E-13},{Residual->8.2878087053E-17}},
  {{-.1,6.17766716814E-15},{-.07,3.51869908188E-15},{-.04,1.64675694791E-15},{-.01,8.9351355015E-16},{.02,9.78102037976E-16},
   {.05,1.82878993687E-15},{.08,3.34314054502E-15}}},
 {"R32",1,{-4.59416099069E-5,1.390675310153E-5,-6.7475387202E-6,2.944797198329E-8},
  {{8.45418289855E-16,-3.1769320108E-15,1.7668648733E-13},{Residual->1.02362014069E-16}},
  {{-.1,3.01367860272E-15},{-.07,1.73837832219E-15},{-.04,1.31542814297E-15},{-.01,1.00657583021E-15},{.02,8.52346758387E-16},
   {.05,1.02633894443E-15},{.08,1.76374669069E-15}}},
 {"Y24",1,{-4.58696947431E-5,1.390944731525E-5,-6.74741259766E-6,2.858416997844E-8},
  {{8.63946315715E-16,-5.0046651141E-16,1.40033992719E-15},{Residual->4.05117538687E-18}},
  {{-.3,1.1450793318E-15},{-.2,1.01145433636E-15},{-.1,9.27958515892E-16},{5.55111512313E-17,8.67183053928E-16},
   {.1,8.29971699709E-16},{.2,8.19390103456E-16},{.3,8.38682348475E-16}}},
 {"Y46",1,{-4.58696947431E-5,1.390944731525E-5,-6.74741259766E-6,2.858416997844E-8},
  {{8.55370475137E-16,5.84325656002E-16,5.31241749046E-15},{Residual->3.77532662622E-17}},
  {{-.45,1.62785613053E-15},{-.3,1.20754036868E-15},{-.15,9.32384695226E-16},{-5.5511151231E-17,8.17054773357E-16},
   {.15,1.01817872909E-15},{.3,1.52718209393E-15},{.45,2.20421955414E-15}}},
 {"Y22",1,{-4.58696947431E-5,1.390944731525E-5,-6.74741259766E-6,2.858416997843E-8},
  {{8.25515022294E-16,-1.7723777859E-16,1.29673154006E-13},{Residual->7.59139083334E-17}},
  {{-.6,4.764055099E-14},{-.4,2.16781918979E-14},{-.2,5.90756245595E-15},{1.11022302463E-16,8.17054773356E-16},
   {.2,6.10819296137E-15},{.4,2.14980789932E-14},{.6,4.73629055713E-14}}},
 {"Y26",1,{-4.58696947431E-5,1.390944731525E-5,-6.74741259766E-6,2.858416997844E-8},
  {{1.05806549486E-15,2.25478074332E-14,5.33078070171E-13},{Residual->8.56339508921E-16}},
  {{-.3,4.13250253243E-14},{-.2,1.88119933275E-14},{-.1,5.24693159388E-15},{5.55111512313E-17,8.17054773356E-16},
   {.1,7.47166097771E-15},{.2,2.64787622891E-14},{.3,5.65168898262E-14}}},
 {"Y66",1,{-4.58696947431E-5,1.390944731525E-5,-6.74741259766E-6,2.858416997844E-8},
  {{4.0014078391E-16,-4.2793715917E-14,7.19665920209E-12},{Residual->9.74262568798E-16}},
  {{-.2,2.96197223983E-13},{-.15,1.69821669595E-13},{-.1,7.63079524762E-14},{-.05,2.00641519295E-14},{0,8.17054773356E-16},
   {.05,1.69584119158E-14},{.1,6.81668148601E-14},{.15,1.5380669913E-13},{.2,2.80960168706E-13}}},
 {"Y44",1,{-4.58696947431E-5,1.390944731525E-5,-6.74741259766E-6,2.858416997844E-8},
  {{7.39345532627E-16,-9.3045491752E-16,4.94449725312E-14},{Residual->2.02009660257E-16}},
  {{-.6,1.9280526016E-14},{-.4,8.90971458126E-15},{-.2,2.55555427862E-15},{1.11022302463E-16,8.17054773356E-16},
   {.2,2.77333647032E-15},{.4,8.42012805074E-15},{.6,1.7797473793E-14}}}}
