FD	 9.059861E-6	 1.998078E-7	
EX2	 6.775361E-6	 6.021887E-7	
FD	 6.772031E-6	 1.962189E-7	
AY	 6.735024E-6	 4.254239E-8	
EY	 6.735443E-6	 4.174996E-8	
R32	 6.734311E-6	 3.900331E-8	
AY	 6.734096E-6	 3.898172E-8	
EY	 6.734004E-6	 3.868252E-8	
R32	 6.734116E-6	 3.870038E-8	
AY	 6.734102E-6	 3.870009E-8	
EY	 6.734037E-6	 3.860851E-8	
R32	 6.734024E-6	 3.862935E-8	
AY	 6.734808E-6	 3.863319E-8	
EY	 6.734810E-6	 3.865092E-8	
R32	 6.734819E-6	 3.863788E-8	
Y24	 6.734819E-6	 3.863788E-8	
Y46	 6.723861E-6	 3.790996E-8	
Y22	 6.723861E-6	 3.790996E-8	
Y26	 6.723861E-6	 3.790996E-8	
Y66	 6.723861E-6	 3.790996E-8	
Y44	 6.723861E-6	 3.790996E-8	
AY	 6.727755E-6	 3.766112E-8	
EY	 6.727825E-6	 3.765333E-8	
R32	 6.727722E-6	 3.764509E-8	
Y24	 6.729681E-6	 3.762649E-8	
Y46	 6.722754E-6	 3.737870E-8	
Y22	 6.722754E-6	 3.737870E-8	
Y26	 6.722754E-6	 3.737870E-8	
Y66	 6.722754E-6	 3.737870E-8	
Y44	 6.722754E-6	 3.737870E-8	
AY	 6.723523E-6	 3.728596E-8	
EY	 6.723694E-6	 3.731562E-8	
R32	 6.723998E-6	 3.729705E-8	
Y24	 6.727080E-6	 3.724060E-8	
Y46	 6.720426E-6	 3.713898E-8	
Y22	 6.720426E-6	 3.713898E-8	
Y26	 6.720426E-6	 3.713898E-8	
Y66	 6.720426E-6	 3.713898E-8	
Y44	 6.720426E-6	 3.713898E-8	
AY	 6.721614E-6	 3.708878E-8	
EY	 6.721737E-6	 3.707615E-8	
R32	 6.721812E-6	 3.707934E-8	
Y24	 6.724370E-6	 3.703570E-8	
Y46	 6.720627E-6	 3.695786E-8	
Y22	 6.720627E-6	 3.695786E-8	
Y26	 6.720627E-6	 3.695786E-8	
Y66	 6.720627E-6	 3.695786E-8	
Y44	 6.720627E-6	 3.695786E-8	
OCT1	 6.720627E-6	 3.695786E-8	
OCT2	 6.721104E-6	 3.693913E-8	
