{{"FD",1,{-3.83802990186E-6,1.440430798916E-5,3.158657737727E-6,2.660660744084E-7}},
 {"EX2",1,{-7.44198379699E-6,1.431265675257E-5,3.163007714519E-6,3.260971817399E-7}},
 {"FD",1,{-7.51738807448E-6,1.430594576762E-5,3.218598490055E-6,2.66318588351E-7}},
 {"AY",1,{-8.19412667751E-6,1.477726473293E-5,2.959229333347E-6,1.29481655206E-7},
  {{4.37742028241E-15,-5.7556756819E-14,2.70738443046E-12},{Residual->1.39039702332E-14}},
  {{-.5,7.06695095014E-13},{-.35,3.74993874802E-13},{-.2,9.55452393678E-14},{-.05,2.46594832072E-14},{.1,2.70539542255E-14},
   {.25,1.64887256548E-13},{.4,4.09983322421E-13}}},
 {"EY",1,{-8.31122298364E-6,1.479493035361E-5,2.934544161609E-6,1.144139827538E-7},
  {{1.75006881156E-14,1.00944414024E-13,5.0927527949E-13},{Residual->3.45257607603E-15}},
  {{-.5,9.71127362439E-14},{-.35,4.07802352951E-14},{-.2,1.78038173045E-14},{-.05,1.23614299969E-14},{.1,3.23373217653E-14},
   {.25,8.11673279225E-14},{.4,1.35367146843E-13}}},
 {"R32",1,{-8.32632130447E-6,1.474579195147E-5,2.922313953153E-6,4.975074949887E-8},
  {{1.45601105221E-14,7.91125044979E-14,1.46852316986E-13},{Residual->1.09067171048E-15}},
  {{-.5,1.20910495265E-14},{-.35,4.83164993003E-15},{-.2,4.36128499074E-15},{-.05,9.16135067128E-15},{.1,2.55464326455E-14},
   {.25,4.46336671518E-14},{.4,6.86928374128E-14}}},
 {"AY",1,{-8.34015236635E-6,1.474899357591E-5,2.920208048074E-6,4.428775581763E-8},
  {{8.10933621891E-15,1.30114209097E-13,2.80285009659E-12},{Residual->4.12744038939E-15}},
  {{-.5,6.4778706169E-13},{-.35,2.97351182247E-13},{-.2,9.88771193267E-14},{-.05,7.19766279177E-15},{.1,5.06673844706E-14},
   {.25,2.17015300031E-13},{.4,5.07175107332E-13}}},
 {"EY",1,{-8.36368847402E-6,1.475327131346E-5,2.897690196072E-6,3.954902753697E-8},
  {{2.57429272158E-15,3.59664051937E-14,5.0850664015E-13},{Residual->5.61437300712E-16}},
  {{-.5,1.11819219688E-13},{-.35,5.19947578135E-14},{-.2,1.63130082702E-14},{-.05,1.41436787619E-15},{.1,1.09157495108E-14},
   {.25,4.43677143134E-14},{.4,9.78650392582E-14}}},
 {"R32",1,{-8.32749086155E-6,1.474586057077E-5,2.883130263502E-6,3.824166288065E-8},
  {{1.66525499598E-15,1.09758849191E-14,1.7236632175E-13},{Residual->8.7059383826E-16}},
  {{-.5,3.84445956211E-14},{-.35,2.00779583455E-14},{-.2,6.26520330174E-15},{-.05,2.42203917517E-15},{.1,3.43025805017E-15},
   {.25,1.4317581938E-14},{.4,3.44647821517E-14}}},
 {"AY",1,{-8.38026812263E-6,1.475320029099E-5,2.88240898481E-6,3.476709706813E-8},
  {{-9.0016993044E-15,6.13056421284E-14,2.86399510967E-12},{Residual->1.13016076683E-14}},
  {{-.3,2.31304385752E-13},{-.2,8.50320142828E-14},{-.1,1.91507330916E-14},{5.55111512313E-17,2.16667235915E-15},
   {.1,2.69817842985E-14},{.2,9.50115047983E-14},{.3,2.79259640993E-13}}},
 {"EY",1,{-8.37428700046E-6,1.475607362473E-5,2.891254964413E-6,3.417700316837E-8},
  {{8.02202101841E-16,4.49114858184E-16,5.07521203904E-13},{Residual->1.17202571931E-15}},
  {{-.5,1.28705550143E-13},{-.35,6.10445453212E-14},{-.2,2.10063388884E-14},{-.05,1.46039513639E-15},{.1,6.73219187989E-15},
   {.25,3.41802831688E-14},{.4,8.09488995026E-14}}},
 {"R32",1,{-8.3860883705E-6,1.475243483264E-5,2.874256702492E-6,3.732796768729E-8},
  {{1.18571608988E-15,2.31887777074E-15,1.45135516902E-13},{Residual->3.56465054864E-16}},
  {{-.5,3.67300414014E-14},{-.35,1.74002436306E-14},{-.2,6.54317337038E-15},{-.05,1.75995057843E-15},{.1,3.02345335966E-15},
   {.25,1.07276697747E-14},{.4,2.52791204884E-14}}},
 {"AY",1,{-8.43517635783E-6,1.475754724058E-5,2.873357462561E-6,5.397378940976E-8},
  {{4.33734901514E-15,9.73249800941E-15,2.25001834072E-12},{Residual->7.21432929657E-15}},
  {{-.3,1.98058615493E-13},{-.2,1.05852960339E-13},{-.1,2.04152040718E-14},{5.55111512313E-17,1.35974016158E-15},
   {.1,2.27338288632E-14},{.2,1.0502455194E-13},{.3,2.06921677637E-13}}},
 {"EY",1,{-8.4079052496E-6,1.475402259069E-5,2.884372400549E-6,6.082664655215E-8},
  {{3.70788303666E-15,-1.7928002952E-14,5.15305578242E-13},{Residual->6.1117939403E-16}},
  {{-.3,5.51391024326E-14},{-.2,2.88604863187E-14},{-.1,1.00205389768E-14},{5.55111512313E-17,3.12273756755E-15},
   {.1,7.94523310708E-15},{.2,2.04427567453E-14},{.3,4.47098880164E-14}}},
 {"R32",1,{-8.39243509471E-6,1.476009854587E-5,2.888291455733E-6,6.346514126156E-8},
  {{4.22333644798E-15,-1.4415527834E-14,1.43154807854E-13},{Residual->1.163258575E-16}},
  {{-.3,2.13927939111E-14},{-.2,1.28222845465E-14},{-.1,7.30421030063E-15},{5.55111512313E-17,4.01749303482E-15},
   {.1,4.27472577387E-15},{.2,7.0166238871E-15},{.3,1.28185698809E-14}}},
 {"Y24",1,{-8.44990123836E-6,1.4738401334E-5,2.885437368465E-6,4.859466657679E-8},
  {{4.01602509262E-15,2.02515277691E-15,5.46316656412E-16},{Residual->1.3360292685E-16}},
  {{-1.5,2.39712969233E-15},{-1.2,2.36144161971E-15},{-.9,2.48747370374E-15},{-.6,2.81609516111E-15},{-.3,3.34780420065E-15},
   {0,4.02782415535E-15},{.3,4.79656527381E-15},{.6,5.5941860107E-15},{.9,6.40301170108E-15},{1.2,7.25649717973E-15},
   {1.5,8.09678221906E-15}}},
 {"Y46",1,{-8.40383684209E-6,1.471771193936E-5,2.885582987283E-6,4.677954063433E-8},
  {{2.40102312024E-15,1.33901967527E-15,1.77160805936E-15},{Residual->3.13741148622E-17}},
  {{-1,2.78684326836E-15},{-.8,2.47501054439E-15},{-.6,2.28203407517E-15},{-.4,2.20117059236E-15},{-.2,2.20026778921E-15},
   {0,2.36144161971E-15},{.2,2.7011830049E-15},{.4,3.20711274034E-15},{.6,3.85606070046E-15},{.8,4.61821525694E-15},
   {1,5.51699019199E-15}}},
 {"Y22",1,{-8.41713494255E-6,1.47215164707E-5,2.887717857836E-6,4.653207577656E-8},
  {{2.22291892039E-15,-1.3046960484E-15,1.20308709739E-14},{Residual->7.51524570332E-17}},
  {{-.6,7.40047094926E-15},{-.4,4.62162386068E-15},{-.2,2.89162025052E-15},{1.11022302463E-16,2.18832542196E-15},
   {.2,2.51464696629E-15},{.4,3.73962547195E-15},{.6,5.67869501286E-15}}},
 {"Y26",1,{-8.41713494255E-6,1.47215164707E-5,2.887717857836E-6,4.653207577529E-8},
  {{2.81099956842E-15,2.8437965185E-15,3.29266192738E-14},{Residual->3.9272813945E-16}},
  {{-.6,1.28484755585E-14},{-.4,7.27952169546E-15},{-.2,3.57789767824E-15},{1.11022302463E-16,2.16523407596E-15},
   {.2,4.79218331991E-15},{.4,9.85904978439E-15},{.6,1.60324484532E-14}}},
 {"Y66",1,{-8.41411790285E-6,1.472200336559E-5,2.884644858964E-6,4.64525221969E-8},
  {{2.75375718243E-15,-3.2816177721E-15,5.6202842705E-13},{Residual->4.47415066113E-16}},
  {{-.2,2.54723794562E-14},{-.15,1.64518923717E-14},{-.1,9.19273257902E-15},{-.05,3.9576882575E-15},{0,2.16523407596E-15},
   {.05,3.81863025316E-15},{.1,8.36180116212E-15},{.15,1.54696197135E-14},{.2,2.41981008302E-14}}},
 {"Y44",1,{-8.41411790285E-6,1.472200336559E-5,2.884644858964E-6,4.645252219688E-8},
  {{2.11254684053E-15,6.46596532801E-18,4.33353701532E-15},{Residual->7.69740920649E-17}},
  {{-.6,3.76370653401E-15},{-.4,2.68230270633E-15},{-.2,2.21162607591E-15},{1.11022302463E-16,2.15783681845E-15},
   {.2,2.37487339109E-15},{.4,2.82444433981E-15},{.6,3.62659947524E-15}}},
 {"AY",1,{-8.34044140781E-6,1.472443126163E-5,2.885415054569E-6,6.566798124341E-8},
  {{4.01775732503E-17,-8.5292953147E-15,2.49767188617E-12},{Residual->3.4374650035E-15}},
  {{-.1,2.9435174316E-14},{-.07,5.57703586869E-15},{-.04,6.30285335651E-15},{-.01,2.43073126649E-15},{.02,2.65842699605E-15},
   {.05,3.51279590526E-15},{.08,1.56509778277E-14}}},
 {"EY",1,{-8.3307996166E-6,1.473188659701E-5,2.871367212628E-6,6.066920887526E-8},
  {{4.62946156051E-15,3.48763304797E-14,6.65154553114E-13},{Residual->2.73738435688E-16}},
  {{-.1,8.08367609804E-15},{-.07,4.93548685654E-15},{-.04,4.47392423777E-15},{-.01,4.17356693058E-15},{.02,5.82673665484E-15},
   {.05,8.2062891128E-15},{.08,1.14927108251E-14}}},
 {"R32",1,{-8.34002311659E-6,1.473790948986E-5,2.882240809178E-6,6.150811572612E-8},
  {{3.68367422276E-15,-4.9263129506E-15,5.79080638904E-14},{Residual->8.78457728903E-17}},
  {{-.1,4.8088135922E-15},{-.07,4.26179174617E-15},{-.04,3.96618055575E-15},{-.01,3.63276036783E-15},{.02,3.67273651521E-15},
   {.05,3.7317826728E-15},{.08,3.55631487067E-15}}},
 {"Y24",1,{-8.37253146606E-6,1.473442395739E-5,2.878913148849E-6,5.766477130544E-8},
  {{3.79830325306E-15,1.51939189742E-15,1.08537153253E-15},{Residual->1.21385434531E-17}},
  {{-.3,3.43150748484E-15},{-.2,3.549915401E-15},{-.1,3.66408047755E-15},{5.55111512313E-17,3.78324830018E-15},
   {.1,3.9742527159E-15},{.2,4.12858893223E-15},{.3,4.36043348884E-15}}},
 {"Y46",1,{-8.35036394264E-6,1.473015778698E-5,2.877713767433E-6,5.707758543344E-8},
  {{3.32681774253E-15,9.32495848419E-16,2.31481474734E-15},{Residual->3.02529353329E-17}},
  {{-.45,3.34433613353E-15},{-.3,3.2843491561E-15},{-.15,3.27624208277E-15},{-5.5511151231E-17,3.32522584971E-15},
   {.15,3.48491736061E-15},{.3,3.78344671904E-15},{.45,4.24754018675E-15}}},
 {"Y22",1,{-8.35036394273E-6,1.473015778684E-5,2.877713767433E-6,5.707758543344E-8},
  {{3.3215631574E-15,-2.8758488376E-15,1.43539509444E-14},{Residual->2.28378650294E-16}},
  {{-.6,1.0404471597E-14},{-.4,6.66241696864E-15},{-.2,4.15463544388E-15},{1.11022302463E-16,3.25785075891E-15},
   {.2,3.62074852912E-15},{.4,4.71434943339E-15},{.6,6.5128944286E-15}}},
 {"Y26",1,{-8.33910903435E-6,1.473625650982E-5,2.85100292026E-6,5.253914474254E-8},
  {{3.28960868853E-15,1.47643959278E-14,7.67100102373E-14},{Residual->2.11504119167E-16}},
  {{-.3,5.56347099521E-15},{-.2,3.63696805424E-15},{-.1,2.77736486483E-15},{5.55111512313E-17,3.25785075891E-15},
   {.1,5.13826430005E-15},{.2,9.45267588223E-15},{.3,1.46794688307E-14}}},
 {"Y66",1,{-8.33910903435E-6,1.473625650982E-5,2.85100292026E-6,5.253914474254E-8},
  {{3.47167489718E-15,3.57568650344E-15,6.70158352783E-13},{Residual->5.57948348438E-16}},
  {{-.2,2.9418862202E-14},{-.15,1.86969183427E-14},{-.1,9.6768772151E-15},{-.05,4.44138474623E-15},{0,2.76036173028E-15},
   {.05,5.45883176897E-15},{.1,1.14395445653E-14},{.15,1.9553704063E-14},{.2,3.03223423586E-14}}},
 {"Y44",1,{-8.33910903486E-6,1.473625650978E-5,2.85100292026E-6,5.253914474253E-8},
  {{2.77192410247E-15,5.81592051563E-16,6.10242063368E-15},{Residual->3.57308474376E-17}},
  {{-.6,4.59516927581E-15},{-.4,3.53017764915E-15},{-.2,2.95397599332E-15},{1.11022302463E-16,2.76036173028E-15},
   {.2,3.06642029839E-15},{.4,4.00589033081E-15},{.6,5.32618454927E-15}}},
 {"AY",1,{-8.31997617455E-6,1.473620384122E-5,2.849131809802E-6,5.445944202965E-8},
  {{2.48064072002E-15,-4.9574496158E-14,1.85017178436E-12},{Residual->5.41102548385E-16}},
  {{-.1,2.64034753602E-14},{-.07,1.40216521042E-14},{-.04,7.90018665431E-15},{-.01,3.00315751678E-15},{.02,2.84165133458E-15},
   {.05,4.16527519002E-15},{.08,1.04187508262E-14}}},
 {"EY",1,{-8.3299114311E-6,1.474415741265E-5,2.852883097913E-6,5.549450294738E-8},
  {{2.96214060371E-15,2.19799261649E-14,8.56818556268E-13},{Residual->5.69806492296E-16}},
  {{-.1,8.85085627426E-15},{-.07,6.09007388888E-15},{-.04,3.85611872241E-15},{-.01,2.91280818456E-15},{.02,3.61750596187E-15},
   {.05,5.14196531507E-15},{.08,1.09186616547E-14}}},
 {"R32",1,{-8.34334781254E-6,1.473802453697E-5,2.862514166556E-6,5.418225725393E-8},
  {{2.84208802102E-15,1.33286352978E-14,2.24299057891E-13},{Residual->3.62844931655E-16}},
  {{-.1,3.42413075213E-15},{-.07,3.38251401709E-15},{-.04,2.79030375073E-15},{-.01,2.95842999656E-15},{.02,2.95950312582E-15},
   {.05,3.472176507E-15},{.08,5.78389912635E-15}}},
 {"Y24",1,{-8.29352713543E-6,1.474125601716E-5,2.86680803285E-6,5.10284593199E-8},
  {{2.92662296124E-15,-7.7878636476E-16,3.91313620905E-16},{Residual->8.61191384661E-18}},
  {{-.3,3.19991503049E-15},{-.2,3.0854703223E-15},{-.1,3.01352872755E-15},{5.55111512313E-17,2.93571700113E-15},
   {.1,2.85374693776E-15},{.2,2.77278586541E-15},{.3,2.73476465791E-15}}},
 {"Y46",1,{-8.26539536967E-6,1.473727784838E-5,2.865780369411E-6,4.928808669742E-8},
  {{2.61949545754E-15,1.46857151071E-15,2.92706136277E-15},{Residual->1.50377689422E-17}},
  {{-.45,2.54439023885E-15},{-.3,2.45955726475E-15},{-.15,2.46308587844E-15},{-5.5511151231E-17,2.60390366056E-15},
   {.15,2.89700394935E-15},{.3,3.35136008798E-15},{.45,3.8612157814E-15}}},
 {"Y22",1,{-8.26539536967E-6,1.473727784838E-5,2.865780369411E-6,4.928808669743E-8},
  {{2.61188468765E-15,-3.4968546875E-15,1.66398456764E-14},{Residual->3.49925884195E-16}},
  {{-.6,1.09602873903E-14},{-.4,6.55833165695E-15},{-.2,3.53359205154E-15},{1.11022302463E-16,2.42931549029E-15},
   {.2,3.03288001294E-15},{.4,4.30038883393E-15},{.6,6.10502453517E-15}}},
 {"Y26",1,{-8.26539536967E-6,1.473727784838E-5,2.865780369411E-6,4.928808669743E-8},
  {{2.68238766552E-15,1.50308637276E-14,9.26564145877E-14},{Residual->4.6135672396E-16}},
  {{-.3,5.97980243235E-15},{-.2,4.01059293267E-15},{-.1,2.62378472024E-15},{5.55111512313E-17,2.42931549029E-15},
   {.1,4.46857614562E-15},{.2,9.42309389191E-15},{.3,1.57853441301E-14}}},
 {"Y66",1,{-8.26539536967E-6,1.473727784838E-5,2.865780369411E-6,4.928808669743E-8},
  {{4.30837072135E-15,-2.5210729088E-14,6.71983552844E-13},{Residual->1.22365367064E-15}},
  {{-.2,3.49141502351E-14},{-.15,2.46925103266E-14},{-.1,1.52863620385E-14},{-.05,6.35152884347E-15},{0,2.42931549029E-15},
   {.05,4.39290251967E-15},{.1,9.40219488968E-15},{.15,1.65867150241E-14},{.2,2.55171900514E-14}}},
 {"Y44",1,{-8.25960654151E-6,1.473534542577E-5,2.85124641581E-6,4.752141386183E-8},
  {{2.44020066456E-15,-2.5524636888E-15,9.36158874156E-15},{Residual->8.52045642882E-17}},
  {{-.6,7.4367813513E-15},{-.4,4.80958403077E-15},{-.2,3.33836494986E-15},{1.11022302463E-16,2.4293154903E-15},
   {.2,2.32818419361E-15},{.4,3.0265658653E-15},{.6,4.19758816135E-15}}},
 {"AY",1,{-8.20194166288E-6,1.473798792858E-5,2.851046256315E-6,4.874418879591E-8},
  {{1.16548976217E-15,-1.0124171523E-13,2.47981780035E-12},{Residual->4.08770698104E-15}},
  {{-.1,4.12250930373E-14},{-.07,1.16921346673E-14},{-.04,9.68073677969E-15},{-.01,3.9698997386E-15},{.02,2.56834746736E-15},
   {.05,3.54129529681E-15},{.08,6.79512244315E-15}}},
 {"EY",1,{-8.20330421009E-6,1.474080667199E-5,2.851266305656E-6,4.976334764469E-8},
  {{2.83133081153E-15,9.78699325732E-15,5.43136643026E-13},{Residual->4.08352601332E-16}},
  {{-.1,7.20343859768E-15},{-.07,5.11075387836E-15},{-.04,3.3249816373E-15},{-.01,2.08890754957E-15},{.02,3.42121408733E-15},
   {.05,5.32453853756E-15},{.08,6.72763091931E-15}}},
 {"R32",1,{-8.20362461036E-6,1.473020118835E-5,2.852071629583E-6,4.559997790142E-8},
  {{2.8922756816E-15,1.86087198675E-14,1.04312898756E-13},{Residual->2.4693574814E-16}},
  {{-.1,2.22663375984E-15},{-.07,2.05264057832E-15},{-.04,1.88722267879E-15},{-.01,2.83084824495E-15},{.02,3.72918190189E-15},
   {.05,3.93339768076E-15},{.08,4.98509861372E-15}}},
 {"Y24",1,{-8.17624862346E-6,1.474792062871E-5,2.851917183796E-6,4.418187645528E-8},
  {{2.07526172363E-15,-4.3744533619E-16,3.06946111265E-16},{Residual->4.06103917869E-18}},
  {{-.3,2.23699700242E-15},{-.2,2.17198932524E-15},{-.1,2.11843659415E-15},{5.55111512313E-17,2.07935798461E-15},
   {.1,2.03137779567E-15},{.2,2.00667330865E-15},{.3,1.96794496586E-15}}},
 {"Y46",1,{-8.16880187544E-6,1.474604858024E-5,2.852293193165E-6,4.392457095067E-8},
  {{1.96371426913E-15,2.42678014826E-16,1.68341869479E-15},{Residual->1.88857391686E-17}},
  {{-.45,2.20416091541E-15},{-.3,2.04018619012E-15},{-.15,1.94591763833E-15},{-5.5511151231E-17,1.95203820711E-15},
   {.15,2.07958373521E-15},{.3,2.17556423438E-15},{.45,2.40910274104E-15}}},
 {"Y22",1,{-8.17402927678E-6,1.473543326957E-5,2.854186896346E-6,4.345078456697E-8},
  {{2.10099991279E-15,-1.2215747061E-15,1.39748764205E-14},{Residual->1.2410705474E-16}},
  {{-.6,7.93423073028E-15},{-.4,4.7504538887E-15},{-.2,2.926553534E-15},{1.11022302463E-16,1.9293679332E-15},
   {.2,2.50871833023E-15},{.4,4.04799287472E-15},{.6,6.26154368939E-15}}},
 {"Y26",1,{-8.17402927811E-6,1.473543327064E-5,2.854186896346E-6,4.345078456664E-8},
  {{1.88747511841E-15,5.25252262773E-15,6.38118393263E-14},{Residual->3.72199262804E-16}},
  {{-.3,5.66651779938E-15},{-.2,3.76980321432E-15},{-.1,2.39164486132E-15},{5.55111512313E-17,1.88797067946E-15},
   {.1,2.7219379838E-15},{.2,5.00936884384E-15},{.3,9.63239745808E-15}}},
 {"Y66",1,{-8.17402927811E-6,1.473543327064E-5,2.854186896346E-6,4.345078456664E-8},
  {{3.07677602771E-15,-3.5398791652E-15,6.15667761768E-13},{Residual->8.48457712993E-16}},
  {{-.2,2.77962889318E-14},{-.15,1.86328534638E-14},{-.1,1.00946862084E-14},{-.05,3.8859367534E-15},{0,1.88797067946E-15},
   {.05,4.51286354202E-15},{.1,9.85278412612E-15},{.15,1.71901032398E-14},{.2,2.61876615699E-14}}},
 {"Y44",1,{-8.17402927689E-6,1.473543326949E-5,2.854186896346E-6,4.345078456687E-8},
  {{1.97136195949E-15,2.05894530039E-16,6.1536967832E-15},{Residual->6.0626389978E-17}},
  {{-.6,4.01993491613E-15},{-.4,2.92935099485E-15},{-.2,2.2424329904E-15},{1.11022302463E-16,1.88797067948E-15},
   {.2,2.20301407193E-15},{.4,3.11597635765E-15},{.6,4.29299410316E-15}}}}
