{{"FD",1,{6.999750381915E-6,1.651286056407E-5,-3.09906440784E-6,4.229328809896E-7}},
 {"EX2",1,{6.997983359575E-6,1.653265234636E-5,-2.83292618883E-6,4.390306544602E-7}},
 {"FD",1,{6.85884517497E-6,1.652383552849E-5,-2.85847184067E-6,4.228467549737E-7}},
 {"AY",1,{5.223687559477E-6,1.766155174581E-5,-2.68532889657E-6,6.000935903174E-7},
  {{3.59757288828E-13,9.43261826884E-15,7.04220202929E-14},{Residual->4.38161814651E-16}},
  {{-.5,3.72914267631E-13},{-.35,3.65095991053E-13},{-.2,3.5981278319E-13},{-.05,3.59729322752E-13},{.1,3.61700163988E-13},
   {.25,3.6694885238E-13},{.4,3.74396482549E-13}}},
 {"EY",1,{6.183876875956E-6,1.782815568931E-5,-2.31303154517E-6,4.330614388348E-7},
  {{3.59384157424E-13,-3.7964469095E-13,1.84978011695E-13},{Residual->3.52069572174E-16}},
  {{-.5,5.957872264E-13},{-.35,5.14436140916E-13},{-.2,4.42439842509E-13},{-.05,3.79156669242E-13},{.1,3.23711552207E-13},
   {.25,2.75655940855E-13},{.4,2.37150634244E-13}}},
 {"R32",1,{2.485595612748E-6,1.759504591888E-5,-2.62039829135E-6,1.123111576532E-7},
  {{1.87119530089E-13,2.18734537125E-13,6.55666587134E-14},{Residual->1.77795347936E-16}},
  {{-.5,9.41263231721E-14},{-.35,1.18555786001E-13},{-.2,1.46001641064E-13},{-.05,1.76663202076E-13},{.1,2.09310854846E-13},
   {.25,2.45900293958E-13},{.4,2.85175933029E-13}}},
 {"AY",1,{2.487897422695E-6,1.759634712721E-5,-2.64220513057E-6,1.07672692539E-7},
  {{1.24468022596E-14,-1.4300725037E-14,5.04665460472E-14},{Residual->1.89620007144E-16}},
  {{-.5,3.24551917459E-14},{-.35,2.32997103914E-14},{-.2,1.71871603926E-14},{-.05,1.34172100224E-14},{.1,1.16885904544E-14},
   {.25,1.2081713953E-14},{.4,1.46803811861E-14}}},
 {"EY",1,{2.654664126823E-6,1.75894378897E-5,-2.55823198488E-6,4.991575902672E-8},
  {{1.14439148988E-14,-7.5787940046E-14,1.89012914098E-13},{Residual->5.90595155807E-16}},
  {{-.5,9.61718873564E-14},{-.35,6.13639814192E-14},{-.2,3.47065487541E-14},{-.05,1.60782982733E-14},{.1,5.25704815441E-15},
   {.25,3.32549029257E-15},{.4,1.21157909363E-14}}},
 {"R32",1,{2.467602988681E-6,1.759586317028E-5,-2.57907249255E-6,4.547561902405E-8},
  {{2.33146625793E-15,1.22735087717E-14,5.49286621955E-14},{Residual->2.91618427465E-16}},
  {{-.5,9.9634799112E-15},{-.35,4.44705545841E-15},{-.2,2.39045544523E-15},{-.05,2.16481924931E-15},{.1,3.90511784078E-15},
   {.25,8.41116283233E-15},{.4,1.63087537697E-14}}},
 {"AY",1,{2.467177706981E-6,1.759562800809E-5,-2.57595834153E-6,4.533480339135E-8},
  {{1.98963579874E-15,1.57286245911E-15,3.2193191093E-14},{Residual->6.95733054041E-17}},
  {{-.3,4.43314674999E-15},{-.2,2.89276978418E-15},{-.1,2.18592903523E-15},{5.55111512313E-17,2.06803192562E-15},
   {.1,2.47425445161E-15},{.2,3.46156716437E-15},{.3,5.42584498624E-15}}},
 {"EY",1,{2.4731480073E-6,1.759542368274E-5,-2.57262742626E-6,4.478666931842E-8},
  {{2.93479557015E-15,-3.1806993083E-15,1.97789227767E-13},{Residual->3.85293071832E-16}},
  {{-.5,5.35904156275E-14},{-.35,2.87009069382E-14},{-.2,1.20193503513E-14},{-.05,3.15946549604E-15},{.1,4.1537433846E-15},
   {.25,1.46961158238E-14},{.4,3.34053411069E-14}}},
 {"R32",1,{2.465944199938E-6,1.759559925997E-5,-2.5734956379E-6,4.476713434681E-8},
  {{1.5876203529E-15,4.99150428322E-16,5.55004034415E-14},{Residual->3.00119182444E-16}},
  {{-.5,1.55363914671E-14},{-.35,7.77990089121E-15},{-.2,3.38543713865E-15},{-.05,2.08541577309E-15},{.1,2.4442295418E-15},
   {.25,5.03488257638E-15},{.4,1.06088936605E-14}}},
 {"AY",1,{2.465981661098E-6,1.759562009489E-5,-2.57377845835E-6,4.479144444272E-8},
  {{1.92600761166E-15,-1.4093805467E-16,3.24252998364E-14},{Residual->7.70541758404E-17}},
  {{-.3,4.95957360363E-15},{-.2,3.11378628629E-15},{-.1,2.26268567257E-15},{5.55111512313E-17,2.00409631763E-15},
   {.1,2.29100858732E-15},{.2,3.10661638945E-15},{.3,4.82337037892E-15}}},
 {"EY",1,{2.467858837243E-6,1.759553656039E-5,-2.57279344161E-6,4.473862420852E-8},
  {{2.48885173007E-15,-1.0535755622E-15,2.08594601464E-13},{Residual->2.59372852848E-16}},
  {{-.3,2.13684657927E-14},{-.2,1.13812626677E-14},{-.1,4.88141831789E-15},{5.55111512313E-17,2.0062734948E-15},
   {.1,4.48007019355E-15},{.2,1.08136208979E-14},{.3,2.0897339156E-14}}},
 {"R32",1,{2.45646086891E-6,1.759582372631E-5,-2.57414841364E-6,4.487012892704E-8},
  {{1.87166493767E-15,6.72885890579E-16,4.76894201093E-14},{Residual->1.0890775023E-16}},
  {{-.3,6.06232389909E-15},{-.2,3.43343676325E-15},{-.1,2.31520058887E-15},{5.55111512313E-17,2.00154449607E-15},
   {.1,2.42775304293E-15},{.2,3.81792694886E-15},{.3,6.39650645521E-15}}},
 {"Y24",1,{2.430497090614E-6,1.757324478866E-5,-2.57655668941E-6,4.123025107783E-8},
  {{2.01709834329E-15,-8.0955096038E-16,6.66627511131E-16},{Residual->5.31513749576E-17}},
  {{-1.5,4.64817857964E-15},{-1.2,3.96183425629E-15},{-.9,3.35614374346E-15},{-.6,2.81142967955E-15},{-.3,2.35196970519E-15},
   {0,2.01332846993E-15},{.3,1.77770331421E-15},{.6,1.69993360394E-15},{.9,1.78724949546E-15},{1.2,2.02262692673E-15},
   {1.5,2.35729636203E-15}}},
 {"Y46",1,{2.415766204744E-6,1.757454472732E-5,-2.57968126431E-6,4.011209065292E-8},
  {{1.74239755057E-15,-7.1778563879E-16,4.02063796286E-15},{Residual->8.53779154565E-17}},
  {{-1,6.3408841674E-15},{-.8,4.93450268551E-15},{-.6,3.7299891653E-15},{-.4,2.78387612945E-15},{-.2,2.09954730247E-15},
   {0,1.69993360394E-15},{.2,1.62303453217E-15},{.4,2.01414893889E-15},{.6,2.75644793053E-15},{.8,3.78633980436E-15},
   {1,5.0884758328E-15}}},
 {"Y22",1,{2.415577988701E-6,1.757387102563E-5,-2.57873008412E-6,4.003880702775E-8},
  {{1.60297062483E-15,-3.0236962279E-17,1.62341716107E-16},{Residual->4.61432155459E-18}},
  {{-.6,1.68193560591E-15},{-.4,1.64134372457E-15},{-.2,1.60568593529E-15},{1.11022302463E-16,1.60897981705E-15},
   {.2,1.60561063689E-15},{.4,1.61794155186E-15},{.6,1.64111982426E-15}}},
 {"Y26",1,{2.440479072947E-6,1.758816571134E-5,-2.56764760122E-6,3.866522778918E-8},
  {{1.59752630061E-15,5.61230978092E-16,8.92293802279E-16},{Residual->1.5044086074E-17}},
  {{-.6,1.60002314624E-15},{-.4,1.49499983999E-15},{-.2,1.50517045586E-15},{1.11022302463E-16,1.60310606891E-15},
   {.2,1.76139917318E-15},{.4,1.97532955718E-15},{.6,2.24202492144E-15}}},
 {"Y66",1,{2.470515857187E-6,1.758140013875E-5,-2.56892314041E-6,3.846283844548E-8},
  {{1.49531205625E-15,-5.4996014361E-16,4.34510637145E-15},{Residual->4.61981408293E-18}},
  {{-.2,1.78153745486E-15},{-.15,1.67526759031E-15},{-.1,1.59096901177E-15},{-.05,1.5318239789E-15},{0,1.49499983999E-15},
   {.05,1.47938994128E-15},{.1,1.4821971438E-15},{.15,1.52150807104E-15},{.2,1.55188143E-15}}},
 {"Y44",1,{2.47305540732E-6,1.758216660682E-5,-2.56565002046E-6,3.837208899525E-8},
  {{1.47832887528E-15,-8.6801603473E-17,2.05496829234E-16},{Residual->7.63222077176E-18}},
  {{-.6,1.60046192575E-15},{-.4,1.55868388773E-15},{-.2,1.49086726872E-15},{1.11022302463E-16,1.47938994128E-15},
   {.2,1.47560880036E-15},{.4,1.47241721386E-15},{.6,1.50102953797E-15}}},
 {"AY",1,{2.473672722268E-6,1.758239795659E-5,-2.57013159811E-6,3.803415057305E-8},
  {{1.47426531191E-15,-2.6067453516E-15,4.12697734514E-14},{Residual->9.99715613848E-18}},
  {{-.1,2.15801376195E-15},{-.07,1.84978730455E-15},{-.04,1.62932378866E-15},{-.01,1.50914330551E-15},{.02,1.45212348847E-15},
   {.05,1.45065661793E-15},{.08,1.52216822332E-15}}},
 {"EY",1,{2.460169488008E-6,1.758287590186E-5,-2.57717940395E-6,3.69268321712E-8},
  {{1.47058259039E-15,8.56676231923E-15,2.3219347786E-13},{Residual->2.60480096265E-17}},
  {{-.1,2.93200590301E-15},{-.07,2.02969599205E-15},{-.04,1.49139678614E-15},{-.01,1.37000838411E-15},{.02,1.74446356279E-15},
   {.05,2.52436281995E-15},{.08,3.61628239889E-15}}},
 {"R32",1,{2.495821737407E-6,1.758155301953E-5,-2.57271671393E-6,3.66600599495E-8},
  {{1.35390550961E-15,-2.1599846711E-15,4.7917132906E-14},{Residual->1.61340198554E-17}},
  {{-.1,2.0675657667E-15},{-.07,1.7170867043E-15},{-.04,1.5079052787E-15},{-.01,1.3758409782E-15},{.02,1.34840304751E-15},
   {.05,1.38139039997E-15},{.08,1.47139906113E-15}}},
 {"Y24",1,{2.483597709504E-6,1.756922087731E-5,-2.57384937636E-6,3.492461831899E-8},
  {{1.34122409675E-15,-6.2322625227E-16,7.08186798646E-16},{Residual->1.99501675065E-18}},
  {{-.3,1.59073343686E-15},{-.2,1.49634554934E-15},{-.1,1.40882501088E-15},{5.55111512313E-17,1.3439599955E-15},
   {.1,1.28504002748E-15},{.2,1.24222799607E-15},{.3,1.21972896473E-15}}},
 {"Y46",1,{2.466711764681E-6,1.757013143755E-5,-2.57797110323E-6,3.400023208238E-8},
  {{1.23457048969E-15,-9.6147997108E-16,4.7332319205E-15},{Residual->1.57729515007E-17}},
  {{-.45,2.61118852527E-15},{-.3,1.97032943069E-15},{-.15,1.49674919815E-15},{-5.5511151231E-17,1.21972896473E-15},
   {.15,1.17728728072E-15},{.3,1.39046793838E-15},{.45,1.75817819978E-15}}},
 {"Y22",1,{2.466696212516E-6,1.757015829938E-5,-2.57822362867E-6,3.39642720157E-8},
  {{1.15643625691E-15,8.44704497289E-18,1.68215536089E-16},{Residual->1.59899320162E-18}},
  {{-.6,1.21147493053E-15},{-.4,1.18158135509E-15},{-.2,1.16036013681E-15},{1.11022302463E-16,1.15601578166E-15},
   {.2,1.1634737904E-15},{.4,1.18987031295E-15},{.6,1.22067889137E-15}}},
 {"Y26",1,{2.474686713771E-6,1.757362854767E-5,-2.57466213434E-6,3.362956741895E-8},
  {{1.15996081571E-15,3.02974017075E-16,1.16014102085E-15},{Residual->8.5587724028E-18}},
  {{-.3,1.18170307266E-15},{-.2,1.13716067403E-15},{-.1,1.13620267111E-15},{5.55111512313E-17,1.15357177356E-15},
   {.1,1.21418291069E-15},{.2,1.275454707E-15},{.3,1.34628938676E-15}}},
 {"Y66",1,{2.504719747162E-6,1.756750178146E-5,-2.57578208957E-6,3.327714056802E-8},
  {{1.13456792886E-15,-6.8988519615E-16,5.32473727109E-15},{Residual->4.18828384531E-18}},
  {{-.2,1.48059444288E-15},{-.15,1.36319840205E-15},{-.1,1.26182142754E-15},{-.05,1.18096602952E-15},{0,1.13094780479E-15},
   {.05,1.10736808438E-15},{.1,1.12357297859E-15},{.15,1.15299889023E-15},{.2,1.20835389039E-15}}},
 {"Y44",1,{2.507024327212E-6,1.756806314535E-5,-2.57233560502E-6,3.267749370588E-8},
  {{1.11230638886E-15,-2.2539528925E-16,2.81577694224E-16},{Residual->2.9190406048E-18}},
  {{-.6,1.34935071314E-15},{-.4,1.24830905824E-15},{-.2,1.16777488264E-15},{1.11022302463E-16,1.10736808438E-15},
   {.2,1.08403844484E-15},{.4,1.0678185949E-15},{.6,1.07685196137E-15}}},
 {"AY",1,{2.507226494728E-6,1.756811651078E-5,-2.57373596255E-6,3.262850032361E-8},
  {{1.06114932321E-15,-9.071867907E-16,4.6443177136E-14},{Residual->4.94409271425E-18}},
  {{-.1,1.62110400977E-15},{-.07,1.3469558639E-15},{-.04,1.16568280236E-15},{-.01,1.0778889347E-15},{.02,1.06950852016E-15},
   {.05,1.1287437249E-15},{.08,1.28454276981E-15}}},
 {"EY",1,{2.500128965632E-6,1.756825616609E-5,-2.57736118996E-6,3.236480520049E-8},
  {{1.08813854475E-15,3.90026517112E-15,2.11260890797E-13},{Residual->1.52950218551E-17}},
  {{-.1,2.79738205972E-15},{-.07,1.87454250276E-15},{-.04,1.27484071478E-15},{-.01,1.04924662983E-15},{.02,1.24316373946E-15},
   {.05,1.82935009086E-15},{.08,2.74708258554E-15}}},
 {"R32",1,{2.527410005587E-6,1.756776274889E-5,-2.57392667417E-6,3.222791617494E-8},
  {{1.0394039907E-15,-1.9527087106E-15,5.85574775717E-14},{Residual->1.41739017745E-17}},
  {{-.1,1.83514403415E-15},{-.07,1.44837243971E-15},{-.04,1.19692379869E-15},{-.01,1.06196127054E-15},{.02,1.04104455798E-15},
   {.05,1.1031150555E-15},{.08,1.24259505717E-15}}},
 {"Y24",1,{2.517307078453E-6,1.755852613263E-5,-2.57485034802E-6,3.105122318788E-8},
  {{1.03808788038E-15,-5.3650178195E-16,1.10325367282E-15},{Residual->4.87032083883E-18}},
  {{-.3,1.29376663968E-15},{-.2,1.19339063404E-15},{-.1,1.10809581285E-15},{5.55111512313E-17,1.03863858098E-15},
   {.1,9.91613415959E-16},{.2,9.67704728139E-16},{.3,9.8231637942E-16}}},
 {"Y46",1,{2.504254070746E-6,1.755898215057E-5,-2.57836976982E-6,3.082204957428E-8},
  {{9.9105909304E-16,-7.5966562066E-16,4.68167626581E-15},{Residual->2.43450713276E-17}},
  {{-.45,2.28485703964E-15},{-.3,1.64964176228E-15},{-.15,1.19715630565E-15},{-5.5511151231E-17,9.64178461463E-16},
   {.15,9.90275146238E-16},{.3,1.23214275433E-15},{.45,1.56861822914E-15}}},
 {"Y22",1,{2.504416814297E-6,1.755910233079E-5,-2.57615255719E-6,3.080084341624E-8},
  {{9.50683333496E-16,-2.8581016928E-17,1.5994345196E-16},{Residual->2.01718802105E-18}},
  {{-.6,1.02321487544E-15},{-.4,9.91379891821E-16},{-.2,9.62954835794E-16},{1.11022302463E-16,9.49998739976E-16},
   {.2,9.48691955152E-16},{.4,9.66425511662E-16},{.6,9.91254190826E-16}}},
 {"Y26",1,{2.504745783791E-6,1.755937305444E-5,-2.57594929747E-6,3.075368714357E-8},
  {{9.51241143953E-16,1.94588276069E-17,1.39301784713E-15},{Residual->2.33232584012E-18}},
  {{-.3,1.07287267662E-15},{-.2,1.00038784615E-15},{-.1,9.63181096514E-16},{5.55111512313E-17,9.48691954903E-16},
   {.1,9.70389672293E-16},{.2,1.01295941148E-15},{.3,1.08025034691E-15}}},
 {"Y66",1,{2.537007667302E-6,1.755431261927E-5,-2.57708686342E-6,3.060279404137E-8},
  {{9.51016616881E-16,-5.6683491613E-16,5.40805492194E-15},{Residual->3.62520769641E-18}},
  {{-.2,1.27648864033E-15},{-.15,1.16019535693E-15},{-.1,1.06644963664E-15},{-.05,9.95546917961E-16},{0,9.45789272924E-16},
   {.05,9.36542219545E-16},{.1,9.481800229E-16},{.15,9.83083082351E-16},{.2,1.05808264064E-15}}},
 {"Y44",1,{2.539268768501E-6,1.75550071189E-5,-2.57347634007E-6,2.956210599764E-8},
  {{9.36338735946E-16,-2.6686419407E-16,2.80075646935E-16},{Residual->3.29158310952E-18}},
  {{-.6,1.19358785413E-15},{-.4,1.0922190002E-15},{-.2,1.00376685671E-15},{1.11022302463E-16,9.3653100314E-16},
   {.2,8.88703221155E-16},{.4,8.73918111016E-16},{.6,8.79329829841E-16}}},
 {"AY",1,{2.539304577352E-6,1.755501625143E-5,-2.573812356E-6,2.959086638722E-8},
  {{8.68559328561E-16,-2.2748073566E-16,5.30429153376E-14},{Residual->4.51477326284E-18}},
  {{-.1,1.42251335219E-15},{-.07,1.14116768173E-15},{-.04,9.62584065052E-16},{-.01,8.83301782577E-16},{.02,8.83999644004E-16},
   {.05,9.81996753906E-16},{.08,1.19408717921E-15}}},
 {"EY",1,{2.534590227948E-6,1.75547006646E-5,-2.57611306754E-6,2.937697779489E-8},
  {{8.78587201057E-16,2.2519017752E-15,1.92619713468E-13},{Residual->8.63556799874E-18}},
  {{-.1,2.58441390141E-15},{-.07,1.66266803909E-15},{-.04,1.09152889569E-15},{-.01,8.65886798703E-16},{.02,1.00897603416E-15},
   {.05,1.48684562979E-15},{.08,2.28100856309E-15}}},
 {"R32",1,{2.552892950869E-6,1.755529904744E-5,-2.57382075593E-6,2.939129344789E-8},
  {{8.60264306077E-16,-1.3208289802E-15,6.05628741577E-14},{Residual->1.28873862131E-17}},
  {{-.1,1.6102322169E-15},{-.07,1.24037589632E-15},{-.04,9.91796691988E-16},{-.01,8.78900382567E-16},{.02,8.7636775894E-16},
   {.05,9.55716248145E-16},{.08,1.12949741697E-15}}},
 {"Y24",1,{2.546860176758E-6,1.754974898776E-5,-2.57426223441E-6,2.88150650269E-8},
  {{8.62885659912E-16,-3.5994174505E-16,1.27494966632E-15},{Residual->6.54350525153E-18}},
  {{-.3,1.07847616547E-15},{-.2,9.93363698111E-16},{-.1,9.17788152841E-16},{5.55111512313E-17,8.6384813054E-16},
   {.1,8.3194593312E-16},{.2,8.35129111391E-16},{.3,8.76634334481E-16}}},
 {"Y46",1,{2.533023096575E-6,1.755002513374E-5,-2.57775602277E-6,2.863596017055E-8},
  {{8.61313750499E-16,-7.4779981847E-16,4.47192591809E-15},{Residual->2.72807524677E-17}},
  {{-.45,2.10791717084E-15},{-.3,1.50040934528E-15},{-.15,1.05536600856E-15},{-5.5511151231E-17,8.30307972504E-16},
   {.15,8.64445011714E-16},{.3,1.08946025662E-15},{.45,1.39860381637E-15}}},
 {"Y22",1,{2.533023096575E-6,1.755002513374E-5,-2.57775602277E-6,2.863596017055E-8},
  {{8.20715092157E-16,-2.0462310213E-17,1.58044391602E-16},{Residual->6.84843538529E-19}},
  {{-.6,8.90212033743E-16},{-.4,8.5407203444E-16},{-.2,8.30608958504E-16},{1.11022302463E-16,8.20018214889E-16},
   {.2,8.24454493116E-16},{.4,8.37603188708E-16},{.6,8.65046440296E-16}}},
 {"Y26",1,{2.533023096575E-6,1.755002513374E-5,-2.57775602277E-6,2.863596017053E-8},
  {{8.22874632747E-16,7.3972975832E-17,1.38909662718E-15},{Residual->3.94085729483E-18}},
  {{-.3,9.22710436734E-16},{-.2,8.64678609214E-16},{-.1,8.37174891265E-16},{5.55111512313E-17,8.20018214888E-16},
   {.1,8.40410541391E-16},{.2,8.9085316321E-16},{.3,9.73223628137E-16}}},
 {"Y66",1,{2.541215279761E-6,1.754875606988E-5,-2.57803619215E-6,2.863200735214E-8},
  {{8.23094439213E-16,-1.5277572727E-16,5.57396701637E-15},{Residual->4.0605563862E-18}},
  {{-.2,1.07032807229E-15},{-.15,9.75759740448E-16},{-.1,9.01504886793E-16},{-.05,8.45299156678E-16},{0,8.20018214888E-16},
   {.05,8.25308421213E-16},{.1,8.61869159169E-16},{.15,9.25902896134E-16},{.2,1.01795445776E-15}}},
 {"Y44",1,{2.544397906379E-6,1.75493060578E-5,-2.57383320006E-6,2.762506337765E-8},
  {{8.21543439699E-16,-2.5985976393E-16,2.92272681603E-16},{Residual->4.48197363907E-18}},
  {{-.6,1.07769180436E-15},{-.4,9.78691427771E-16},{-.2,8.88994205362E-16},{1.11022302463E-16,8.19791845013E-16},
   {.2,7.74170096323E-16},{.4,7.66362607762E-16},{.6,7.72447494699E-16}}},
 {"OCT1",1,{2.544397906379E-6,1.75493060578E-5,-2.57383320006E-6,2.762506337765E-8},
  {{7.79485393099E-16,-4.6996278989E-20,1.26633441806E-21},{Residual->8.97801283692E-18}},
  {{-370,9.62024470415E-16},{-296,9.10211874547E-16},{-222,8.60849447728E-16},{-148,8.22347039529E-16},{-74,7.85610490366E-16},
   {0,7.63144126619E-16},{74,7.73748075657E-16},{148,8.06483989082E-16},{222,8.44252347081E-16},{296,8.8056615433E-16},
   {370,9.27907067946E-16}}},
 {"OCT2",1,{2.539042233414E-6,1.754919665713E-5,-2.57349113244E-6,2.754297782032E-8},
  {{7.62330386638E-16,-1.8964839877E-20,4.34404661586E-23},{Residual->1.45774021806E-18}},
  {{-370,7.75620615628E-16},{-296,7.73000726803E-16},{-222,7.65783910307E-16},{-148,7.64906369584E-16},{-74,7.66318832555E-16},
   {0,7.63144126619E-16},{74,7.62068154706E-16},{148,7.60269962051E-16},{222,7.58674776866E-16},{296,7.59565776817E-16},
   {370,7.62463994988E-16}}},
 {"OCT1",1,{2.539042233414E-6,1.754919665713E-5,-2.57349113244E-6,2.754297782032E-8},
  {{8.10524535186E-16,-3.0493098649E-20,8.08176962869E-22},{Residual->2.7188163906E-17}},
  {{-740,1.25013907238E-15},{-592,1.12768945059E-15},{-444,1.01756208799E-15},{-296,9.11088568878E-16},{-148,8.14896838893E-16},
   {0,7.58615627211E-16},{148,8.0542068922E-16},{296,8.88926258766E-16},{444,9.90427101991E-16},{592,1.09197040935E-15},
   {740,1.20646992193E-15}}},
 {"OCT2",1,{2.53714252213E-6,1.754919671618E-5,-2.57335944466E-6,2.75602209138E-8},
  {{7.62148919396E-16,-1.1418080323E-20,3.90223986626E-23},{Residual->1.77359770841E-18}},
  {{-740,7.90774500377E-16},{-592,7.82164794667E-16},{-444,7.7454852029E-16},{-296,7.73000726803E-16},{-148,7.64906369584E-16},
   {0,7.63144126619E-16},{148,7.60269962051E-16},{296,7.59565776817E-16},{444,7.62804356616E-16},{592,7.6987821626E-16},
   {740,7.76774253446E-16}}}}
