FD	 6.998562E-6	 5.049649E-7	
EX2	 6.999407E-6	 5.061160E-7	
FD	 6.999634E-6	 5.048752E-7	
AY	 6.808404E-6	 6.708279E-7	
EY	 6.822259E-6	 6.825402E-7	
R32	 6.795011E-6	 1.686678E-7	
AY	 6.793273E-6	 1.711916E-7	
EY	 6.793463E-6	 1.516880E-7	
R32	 6.792541E-6	 5.885227E-8	
AY	 6.794014E-6	 5.432098E-8	
EY	 6.793532E-6	 4.703594E-8	
R32	 6.793602E-6	 5.306284E-8	
AY	 6.794248E-6	 4.923288E-8	
EY	 6.794328E-6	 5.591585E-8	
R32	 6.793015E-6	 3.913670E-8	
Y24	 6.797651E-6	 3.910243E-8	
Y46	 6.778367E-6	 3.903444E-8	
Y22	 6.778367E-6	 3.903444E-8	
Y26	 6.778367E-6	 3.903444E-8	
Y66	 6.778367E-6	 3.903444E-8	
Y44	 6.778282E-6	 3.894818E-8	
AY	 6.779275E-6	 3.888899E-8	
EY	 6.779266E-6	 4.136313E-8	
R32	 6.778737E-6	 4.746926E-8	
Y24	 6.803188E-6	 4.688504E-8	
Y46	 6.750655E-6	 4.648209E-8	
Y22	 6.750655E-6	 4.648209E-8	
Y26	 6.750670E-6	 4.639630E-8	
Y66	 6.750682E-6	 4.633257E-8	
Y44	 6.750488E-6	 4.621737E-8	
AY	 6.749917E-6	 5.680886E-8	
EY	 6.749876E-6	 7.397572E-8	
R32	 6.756790E-6	 1.453398E-7	
Y24	 6.723454E-6	 1.443875E-7	
Y46	 6.884381E-6	 1.356731E-7	
Y22	 6.905271E-6	 1.300556E-7	
Y26	 6.888228E-6	 1.179773E-7	
Y66	 6.888228E-6	 1.179773E-7	
Y44	 6.890223E-6	 1.161252E-7	
AY	 6.891688E-6	 1.116799E-7	
EY	 6.879455E-6	 4.600997E-7	
R32	 6.957473E-6	 7.162892E-7	
Y24	 6.920374E-6	 7.048796E-7	
Y46	 9.739836E-6	 6.295352E-7	
Y22	 9.729822E-6	 6.141853E-7	
Y26	 9.738294E-6	 6.125647E-7	
Y66	 9.738294E-6	 6.125647E-7	
Y44	 9.716401E-6	 6.122224E-7	
