FD	 1.044720E-5	 1.693985E-7	
EX2	 1.050293E-5	 2.725789E-7	
FD	 1.050591E-5	 2.716133E-7	
AY	 1.050539E-5	 2.707122E-7	
EY	 1.053497E-5	 2.385577E-7	
R32	 1.048226E-5	 1.875190E-7	
AY	 1.048225E-5	 1.875066E-7	
EY	 1.050204E-5	 1.321648E-7	
R32	 1.048231E-5	 1.172069E-7	
AY	 1.048230E-5	 1.172415E-7	
EY	 1.048243E-5	 8.169334E-8	
R32	 1.048571E-5	 8.091171E-8	
AY	 1.048570E-5	 8.094371E-8	
EY	 1.048224E-5	 6.223106E-8	
R32	 1.048860E-5	 6.283362E-8	
Y24	 1.046711E-5	 4.028861E-8	
Y46	 1.046365E-5	 3.923089E-8	
AY	 1.046356E-5	 3.960360E-8	
EY	 1.046437E-5	 3.897585E-8	
R32	 1.046162E-5	 3.591578E-8	
Y24	 1.046198E-5	 3.566512E-8	
Y46	 1.046340E-5	 3.543669E-8	
AY	 1.046332E-5	 3.563867E-8	
EY	 1.046450E-5	 3.297504E-8	
R32	 1.046325E-5	 3.137526E-8	
Y24	 1.046305E-5	 3.127543E-8	
Y46	 1.046305E-5	 3.127543E-8	
AY	 1.046305E-5	 3.127555E-8	
EY	 1.046322E-5	 3.041722E-8	
R32	 1.046299E-5	 2.974412E-8	
Y24	 1.046212E-5	 2.957654E-8	
Y46	 1.046212E-5	 2.957654E-8	
