{{"FD",1,{4.602006490103E-6,9.079070291484E-6,-2.08234928108E-6,4.474507031095E-7}},
 {"EX2",1,{-3.67180995277E-5,6.790154601218E-6,-2.19021427804E-6,7.427826669194E-7}},
 {"FD",1,{-3.670299752E-5,6.786384813132E-6,-2.58466091382E-6,4.555617624144E-7}},
 {"AY",1,{7.186435954914E-8,6.521025877165E-6,1.574817651198E-8,3.66811675094E-7,
   {{-3.7362955697E-5,6.52101490305E-6,-1.50803378961E-6,3.666790378091E-7},
    {-3.71929818075E-5,6.521040112532E-6,-1.53009309467E-6,3.669255457767E-7},
    {-3.72697271885E-5,6.521031207667E-6,-1.52154394044E-6,3.669045255019E-7},
    {-3.71954650583E-5,6.521008972459E-6,-1.52947049304E-6,3.666383981467E-7},
    {-3.73932980747E-5,6.521020536507E-6,-1.55710975964E-6,3.66785788533E-7},
    {-3.72936529895E-5,6.521012281728E-6,-1.53906262732E-6,3.667182028282E-7},
    {-3.7366116476E-5,6.521016115838E-6,-1.51635481417E-6,3.667031489124E-7},
    {-3.72782131684E-5,6.521020021803E-6,-1.56091107975E-6,3.667487718031E-7},
    {-3.7300521514E-5,6.521036235917E-6,-1.52126118003E-6,3.66897242574E-7},
    {-3.73404643237E-5,6.521028074584E-6,-1.54839734077E-6,3.668744515684E-7},
    {-3.72173147573E-5,6.521031618864E-6,-1.50737176324E-6,3.667574414232E-7},
    {-3.72625127488E-5,6.521022178807E-6,-1.51895030148E-6,3.667036850311E-7},
    {-3.72586017716E-5,6.521024705875E-6,-1.54265792613E-6,3.667883910761E-7},
    {-3.72091656529E-5,6.521034679162E-6,-1.54276446093E-6,3.66941604085E-7},
    {-3.7348569924E-5,6.521022937486E-6,-1.53637720942E-6,3.668613302878E-7},
    {-3.732723761E-5,6.521017662768E-6,-1.51302572311E-6,3.667800077904E-7},
    {-3.71243918019E-5,6.521041027021E-6,-1.52895301087E-6,3.668609893858E-7},
    {-3.71540561299E-5,6.521042353837E-6,-1.53673425135E-6,3.669707286523E-7},
    {-3.72713618049E-5,6.521021021837E-6,-1.54383619473E-6,3.668159979116E-7},
    {-3.72320694266E-5,6.521030895554E-6,-1.50733967612E-6,3.668782127828E-7}}},
  {{1.34833036023E-13,-1.8810957438E-14,1.17225215089E-12},{Residual->4.73159546841E-16}},
  {{-.05,1.38915817654E-13},{.1,1.44039651641E-13},{.25,2.0403086624E-13},{.4,3.14657393807E-13}}},
 {"EY",1,
  {4.731984062538E-8,6.52290218353E-6,1.315568765452E-8,3.580598292035E-7,{{-3.71060057258E-5,6.522913710339E-6,-2.50460509883E-6,
     3.578957249802E-7},
    {-3.70567531848E-5,6.522908814129E-6,-2.47934383825E-6,3.580601815061E-7},
    {-3.7106373694E-5,6.522898072755E-6,-2.50828006825E-6,3.581921333667E-7},
    {-3.71098790754E-5,6.522896474557E-6,-2.48793646969E-6,3.582493453762E-7},
    {-3.71543581292E-5,6.522898106407E-6,-2.48727606829E-6,3.58055095925E-7},
    {-3.71340836652E-5,6.522898591669E-6,-2.49191703854E-6,3.579600387981E-7},
    {-3.71450519753E-5,6.522905923179E-6,-2.52702476967E-6,3.579421843346E-7},
    {-3.70804989564E-5,6.522903813349E-6,-2.51686392298E-6,3.580917325926E-7},
    {-3.71658717551E-5,6.522896482705E-6,-2.51963989232E-6,3.581069980568E-7},
    {-3.71454075329E-5,6.522894334837E-6,-2.50260013378E-6,3.582273559512E-7},
    {-3.7137688149E-5,6.522901358081E-6,-2.49703036284E-6,3.580294852065E-7},
    {-3.70342690458E-5,6.522916508293E-6,-2.50206293113E-6,3.579466932021E-7},
    {-3.70817542279E-5,6.522907718896E-6,-2.48702977946E-6,3.579655594323E-7},
    {-3.70909521433E-5,6.522903593504E-6,-2.48521023597E-6,3.58178333014E-7},
    {-3.7087893517E-5,6.522905963648E-6,-2.49811102429E-6,3.579718026188E-7},
    {-3.714582977E-5,6.522896588351E-6,-2.48415777412E-6,3.581694834878E-7},
    {-3.72528825291E-5,6.522890079254E-6,-2.51086209224E-6,3.580889546078E-7},
    {-3.71191131904E-5,6.522907474853E-6,-2.48133080034E-6,3.579222871124E-7},
    {-3.71753616931E-5,6.522898587975E-6,-2.50569422263E-6,3.580396850028E-7},
    {-3.7080036027E-5,6.522901473812E-6,-2.50522738463E-6,3.581035094987E-7}}},
  {{1.38186233304E-13,1.82211637447E-13,6.6517089746E-13},{Residual->3.13455076868E-15}},
  {{-.5,2.09820183774E-13},{-.35,1.59619588436E-13},{-.2,1.32109755603E-13},{-.05,1.29982054103E-13},{.1,1.58828990971E-13},
   {.25,2.23703836545E-13},{.4,3.20163306693E-13}}},
 {"R32",1,
  {7.308395398121E-8,6.533383780522E-6,1.929096439476E-8,1.923658436848E-7,{{-3.59971716697E-5,6.533391524145E-6,-1.73533669504E-6,
     1.923827994611E-7},
    {-3.58707766506E-5,6.533395829804E-6,-1.68794501882E-6,1.923391115342E-7},
    {-3.58667710021E-5,6.533364383573E-6,-1.69802577074E-6,1.922845720539E-7},
    {-3.59208644094E-5,6.533403458242E-6,-1.74625577668E-6,1.924535804295E-7},
    {-3.59494404825E-5,6.533385903038E-6,-1.70878288729E-6,1.92389498539E-7},
    {-3.60251208361E-5,6.533357298976E-6,-1.72780306019E-6,1.922953406164E-7},
    {-3.59254675386E-5,6.533389839229E-6,-1.7374990984E-6,1.924347800294E-7},
    {-3.57779531729E-5,6.533376586225E-6,-1.70138803395E-6,1.922470739346E-7},
    {-3.59335531988E-5,6.533389990446E-6,-1.70879246023E-6,1.924657577011E-7},
    {-3.58270014511E-5,6.533396468291E-6,-1.71551455044E-6,1.923669362449E-7},
    {-3.58830590744E-5,6.533387377863E-6,-1.7271512442E-6,1.923855731019E-7},
    {-3.5784275693E-5,6.533386538853E-6,-1.72822568502E-6,1.924349361541E-7},
    {-3.58585478719E-5,6.533374332621E-6,-1.70051664727E-6,1.923165967163E-7},
    {-3.58153314293E-5,6.533378776107E-6,-1.72067828264E-6,1.923118419109E-7},
    {-3.58883772536E-5,6.533360532532E-6,-1.74226302877E-6,1.923365556221E-7},
    {-3.58539411622E-5,6.533384658752E-6,-1.73681443787E-6,1.923720616087E-7},
    {-3.58967138568E-5,6.533388260431E-6,-1.70170670812E-6,1.924206150232E-7},
    {-3.58065891125E-5,6.533390706871E-6,-1.72377261299E-6,1.923903352033E-7},
    {-3.59247507467E-5,6.533367236776E-6,-1.67118139987E-6,1.922665237747E-7},
    {-3.57213901899E-5,6.533405907657E-6,-1.70213052733E-6,1.924223840369E-7}}},
  {{1.30018380678E-13,5.44858903015E-13,7.6816849154E-13},{Residual->1.69914685408E-15}},
  {{-.5,4.75025651457E-14},{-.35,3.69594520207E-14},{-.2,5.18618266822E-14},{-.05,1.03521310959E-13},{.1,1.91695503426E-13},
   {.25,3.13459917243E-13},{.4,4.71816571488E-13}}},
 {"AY",1,
  {5.330359448423E-8,6.531519662329E-6,1.643841446424E-8,1.884051079418E-7,{{-3.70910225343E-5,6.531512499711E-6,-1.01485305316E-6,
     1.884141673433E-7},
    {-3.71800122504E-5,6.53151852045E-6,-1.04301489961E-6,1.884239907488E-7},
    {-3.71003582835E-5,6.531511777271E-6,-1.01046058665E-6,1.884211712661E-7},
    {-3.71511533057E-5,6.531504614973E-6,-1.02478423852E-6,1.884267223002E-7},
    {-3.70513831052E-5,6.53152566183E-6,-1.00430307879E-6,1.883814495741E-7},
    {-3.70891475849E-5,6.531529455939E-6,-9.86683665535E-7,1.883874664361E-7},
    {-3.70467372942E-5,6.531511377384E-6,-9.93099325242E-7,1.88382020456E-7},
    {-3.70819490478E-5,6.53151940045E-6,-1.03297505507E-6,1.882750481007E-7},
    {-3.70963760779E-5,6.531528730512E-6,-1.04593558066E-6,1.884451209473E-7},
    {-3.70737392723E-5,6.531533401486E-6,-1.03055912249E-6,1.884450486279E-7},
    {-3.70131143845E-5,6.531530213786E-6,-1.02091871322E-6,1.884375004559E-7},
    {-3.70952232461E-5,6.531508174729E-6,-1.0187604026E-6,1.883270562014E-7},
    {-3.70681321621E-5,6.531532307907E-6,-1.01449100237E-6,1.883582076545E-7},
    {-3.70440252071E-5,6.531520615717E-6,-1.04624619493E-6,1.883524539692E-7},
    {-3.69830491449E-5,6.531520366011E-6,-1.03225690337E-6,1.883848322965E-7},
    {-3.71778953787E-5,6.531507611508E-6,-1.0385056851E-6,1.883846088025E-7},
    {-3.70838941774E-5,6.531490137855E-6,-1.02019777188E-6,1.883689427771E-7},
    {-3.70433752297E-5,6.531538198625E-6,-1.00342544764E-6,1.885368887137E-7},
    {-3.71882654498E-5,6.531519397892E-6,-1.03460292544E-6,1.884698067153E-7},
    {-3.71298267124E-5,6.531530782551E-6,-1.01343511718E-6,1.884796554487E-7}}},
  {{3.55752773601E-14,-1.6115741362E-14,1.15008036797E-12},{Residual->2.25846343214E-16}},
  {{-.05,3.93572669033E-14},{.1,4.51615022381E-14},{.25,1.03729369683E-13},{.4,2.13040838135E-13}}},
 {"EY",1,
  {6.073885010398E-8,6.521825382617E-6,1.873777137174E-8,1.074253764853E-7,{{-3.94505972631E-5,6.521810043493E-6,-1.76896094663E-6,
     1.072595738537E-7},
    {-3.94098916833E-5,6.521814742216E-6,-1.75449538868E-6,1.072400872086E-7},
    {-3.95590552833E-5,6.521831389087E-6,-1.76217317408E-6,1.075154834486E-7},
    {-3.94343548593E-5,6.521834442352E-6,-1.73431212085E-6,1.07579192051E-7},
    {-3.93465586335E-5,6.521832379497E-6,-1.75820447293E-6,1.075280968065E-7},
    {-3.94317519741E-5,6.521825716597E-6,-1.74289741487E-6,1.074705911359E-7},
    {-3.94875260998E-5,6.521822766007E-6,-1.76889526148E-6,1.073279809019E-7},
    {-3.94492387919E-5,6.521821694545E-6,-1.74269509328E-6,1.07444056983E-7},
    {-3.95166198034E-5,6.521830482682E-6,-1.72268456306E-6,1.074331128564E-7},
    {-3.93728924051E-5,6.521838892789E-6,-1.6993046859E-6,1.076165051212E-7},
    {-3.94886217821E-5,6.521827857936E-6,-1.77137849745E-6,1.073680069494E-7},
    {-3.94478383488E-5,6.521821354257E-6,-1.78270435341E-6,1.074495618067E-7},
    {-3.9459326847E-5,6.521816768163E-6,-1.75977614405E-6,1.073270577891E-7},
    {-3.93483142355E-5,6.521826212348E-6,-1.73055467391E-6,1.074210659763E-7},
    {-3.93816280889E-5,6.521821166471E-6,-1.73195641057E-6,1.073514421806E-7},
    {-3.94635181944E-5,6.521834842333E-6,-1.74747650348E-6,1.075374433551E-7},
    {-3.9488058584E-5,6.521818551411E-6,-1.74444333771E-6,1.073635970895E-7},
    {-3.94170034859E-5,6.521825217758E-6,-1.74687362872E-6,1.074623515097E-7},
    {-3.95380136337E-5,6.521830653673E-6,-1.7567558928E-6,1.074366142111E-7},
    {-3.95511699381E-5,6.521822478715E-6,-1.75262875261E-6,1.07375708471E-7}}},
  {{3.65901459553E-14,2.47652084486E-13,6.00175072442E-13},{Residual->6.24929841253E-16}},
  {{-.5,6.21568471073E-14},{-.35,2.45770881141E-14},{-.2,1.12627634204E-14},{-.05,2.47622085492E-14},{.1,6.7346346115E-14},
   {.25,1.36276335381E-13},{.4,2.31684562836E-13}}},
 {"R32",1,
  {8.037410562236E-8,6.532847769429E-6,1.932375683109E-8,5.944920100406E-8,{{-4.08387732934E-5,6.532875373962E-6,-2.35962583559E-6,
     5.954477948356E-8},
    {-4.07967729342E-5,6.532791473616E-6,-2.36153447656E-6,5.940185667663E-8},
    {-4.07231512831E-5,6.532817624353E-6,-2.34146873798E-6,5.935110399806E-8},
    {-4.09215844658E-5,6.532815679625E-6,-2.36723035705E-6,5.942529527141E-8},
    {-4.08683301983E-5,6.532828155199E-6,-2.35340542377E-6,5.944475953594E-8},
    {-4.06783243263E-5,6.532853555625E-6,-2.34797732436E-6,5.947666455983E-8},
    {-4.0672436105E-5,6.532877817791E-6,-2.3582012945E-6,5.948983441321E-8},
    {-4.07554694716E-5,6.53281498643E-6,-2.33673046654E-6,5.932337488764E-8},
    {-4.07504743331E-5,6.532873318426E-6,-2.39564499198E-6,5.954043055459E-8},
    {-4.07184540927E-5,6.532834779467E-6,-2.33646180651E-6,5.936407777981E-8},
    {-4.07706753363E-5,6.53281768224E-6,-2.39199281937E-6,5.942249760541E-8},
    {-4.07636182273E-5,6.532858491633E-6,-2.344350547E-6,5.944319698741E-8},
    {-4.06619471758E-5,6.532846915987E-6,-2.32576685723E-6,5.939362502472E-8},
    {-4.08347357446E-5,6.53287591934E-6,-2.32799245106E-6,5.949513263159E-8},
    {-4.06963980595E-5,6.532801643906E-6,-2.35381065205E-6,5.941369370124E-8},
    {-4.07737049707E-5,6.532851290254E-6,-2.36849797256E-6,5.943851670101E-8},
    {-4.07776582884E-5,6.532909344957E-6,-2.38428477077E-6,5.959842255031E-8},
    {-4.06421859729E-5,6.532863143607E-6,-2.37043598772E-6,5.941392023806E-8},
    {-4.07233175241E-5,6.532902755018E-6,-2.37512623265E-6,5.951143582405E-8},
    {-4.093812869E-5,6.532845437149E-6,-2.34809552377E-6,5.949140165668E-8}}},
  {{1.09626844827E-14,1.50498038704E-13,7.60696690637E-13},{Residual->2.79544799702E-16}},
  {{-.5,1.25917535337E-13},{-.35,5.17160247896E-14},{-.2,1.06725932208E-14},{-.05,5.54262592809E-15},{.1,3.38517014746E-14},
   {.25,9.61406129864E-14},{.4,1.92774491284E-13}}},
 {"AY",1,
  {6.965244979345E-8,6.536696797794E-6,1.141736644099E-8,5.88570808603E-8,{{-3.9840896953E-5,6.536676588509E-6,-1.76970725046E-6,
     5.885610745982E-8},
    {-3.97064188574E-5,6.536691694439E-6,-1.73139181204E-6,5.879448359631E-8},
    {-3.97301721502E-5,6.536695560811E-6,-1.77977906755E-6,5.891783229387E-8},
    {-3.97366061658E-5,6.536702392647E-6,-1.76861689933E-6,5.885050412653E-8},
    {-3.96590642389E-5,6.536697350432E-6,-1.77256314486E-6,5.886008392246E-8},
    {-3.96493010649E-5,6.536708015354E-6,-1.77943021748E-6,5.889373677472E-8},
    {-3.96999267897E-5,6.536699691862E-6,-1.75852050551E-6,5.884219256033E-8},
    {-3.9690214147E-5,6.536712385961E-6,-1.76416671792E-6,5.892636273116E-8},
    {-3.97513089964E-5,6.536696444774E-6,-1.76696755204E-6,5.878364323045E-8},
    {-3.97272023564E-5,6.536700729055E-6,-1.76162988812E-6,5.885342960502E-8},
    {-3.98467837928E-5,6.536680339473E-6,-1.77098737817E-6,5.888057730744E-8},
    {-3.96672321279E-5,6.536718022067E-6,-1.76150096408E-6,5.89301191914E-8},
    {-3.97175549504E-5,6.536711064817E-6,-1.7552488038E-6,5.887185386187E-8},
    {-3.97780081531E-5,6.536695414573E-6,-1.76515952873E-6,5.881719026225E-8},
    {-3.9912245186E-5,6.53669981271E-6,-1.77625215792E-6,5.888241952041E-8},
    {-3.97817705048E-5,6.536684004052E-6,-1.75081117018E-6,5.873764821551E-8},
    {-3.97746620049E-5,6.536700894471E-6,-1.75825158516E-6,5.883574639776E-8},
    {-3.98542947213E-5,6.536696850259E-6,-1.78143639033E-6,5.890168837251E-8},
    {-3.98075312864E-5,6.536686763556E-6,-1.76209299506E-6,5.886583331611E-8},
    {-3.97932923204E-5,6.536681936058E-6,-1.75444411979E-6,5.884016446009E-8}}},
  {{3.45324347487E-15,-9.6908053977E-15,1.1968369998E-12},{Residual->3.26298316841E-17}},
  {{5.55111512313E-17,3.46783597921E-15},{.1,1.440875542E-14},{.2,4.94323399003E-14},{.3,1.08246739333E-13}}},
 {"EY",1,
  {5.785784268352E-8,6.534649673117E-6,1.660727867488E-8,4.420695244076E-8,{{-4.08308359805E-5,6.534644040327E-6,-2.15142629272E-6,
     4.424916659951E-8},
    {-4.07323046536E-5,6.53467060413E-6,-2.12954949298E-6,4.418297898359E-8},
    {-4.08772163146E-5,6.534626727337E-6,-2.15028533513E-6,4.432017121145E-8},
    {-4.08782248932E-5,6.534639189382E-6,-2.15307947083E-6,4.423362382224E-8},
    {-4.08768772526E-5,6.534619745489E-6,-2.15976900701E-6,4.431972543728E-8},
    {-4.0843723421E-5,6.534654812496E-6,-2.16331080282E-6,4.415906855063E-8},
    {-4.07968022821E-5,6.534647580194E-6,-2.12756449854E-6,4.420959031624E-8},
    {-4.07756521403E-5,6.534659315227E-6,-2.14686696993E-6,4.416788558833E-8},
    {-4.08619807936E-5,6.534648935434E-6,-2.13350394238E-6,4.418249238671E-8},
    {-4.08709009098E-5,6.534642693835E-6,-2.18270943368E-6,4.41992948393E-8},
    {-4.07671889422E-5,6.534676551827E-6,-2.14825775261E-6,4.410841648697E-8},
    {-4.09905607391E-5,6.534635749333E-6,-2.14499103445E-6,4.421927019739E-8},
    {-4.08365051616E-5,6.534649183818E-6,-2.17710380456E-6,4.424081871116E-8},
    {-4.0922585084E-5,6.534668214153E-6,-2.14398309788E-6,4.407914802183E-8},
    {-4.09006229192E-5,6.534640449311E-6,-2.16030827863E-6,4.419831149937E-8},
    {-4.08129994849E-5,6.534654575719E-6,-2.17207852957E-6,4.420585046912E-8},
    {-4.07767345338E-5,6.534652575305E-6,-2.1521885702E-6,4.424334029222E-8},
    {-4.08388326816E-5,6.534653241712E-6,-2.12617974229E-6,4.417786329489E-8},
    {-4.08372233133E-5,6.534631758287E-6,-2.13016419355E-6,4.433990545693E-8},
    {-4.08178742008E-5,6.534677519031E-6,-2.12502956395E-6,4.410212665009E-8}}},
  {{3.38400000769E-15,6.27709982341E-14,5.87295607326E-13},{Residual->1.24047883979E-16}},
  {{-.5,1.18819867317E-13},{-.35,5.33768769623E-14},{-.2,1.41913141118E-14},{-.05,1.97079284093E-15},{.1,1.53924946615E-14},
   {.25,5.57359187328E-14},{.4,1.22504791789E-13}}},
 {"R32",1,
  {4.989695069447E-8,6.533143784609E-6,1.812012849425E-8,4.036340335556E-8,{{-4.08766866484E-5,6.533153973423E-6,-2.24791457845E-6,
     4.036151880119E-8},
    {-4.08974372809E-5,6.53314636662E-6,-2.29158552041E-6,4.036285637229E-8},
    {-4.08866228752E-5,6.533144582356E-6,-2.27976525604E-6,4.03682599693E-8},
    {-4.09203401295E-5,6.533148088524E-6,-2.29020500101E-6,4.036675233515E-8},
    {-4.08443564889E-5,6.533140950334E-6,-2.24753839879E-6,4.035250890755E-8},
    {-4.09648755472E-5,6.533148538298E-6,-2.26712898576E-6,4.035600675724E-8},
    {-4.08730636785E-5,6.533142062388E-6,-2.25599916155E-6,4.035559955527E-8},
    {-4.09838182954E-5,6.533138654082E-6,-2.28409337136E-6,4.036702658198E-8},
    {-4.08932843432E-5,6.533124117839E-6,-2.2717544335E-6,4.037087776456E-8},
    {-4.08689092028E-5,6.533155954092E-6,-2.26158732339E-6,4.036413208042E-8},
    {-4.09626213278E-5,6.533153899528E-6,-2.26537828134E-6,4.036227732816E-8},
    {-4.09291943746E-5,6.53311975496E-6,-2.31186394225E-6,4.038616406809E-8},
    {-4.09248853829E-5,6.533135842675E-6,-2.25667392984E-6,4.035591657621E-8},
    {-4.08791684878E-5,6.533150648065E-6,-2.2335286963E-6,4.036113010323E-8},
    {-4.07810299491E-5,6.533147796103E-6,-2.25812107821E-6,4.036374557359E-8},
    {-4.08538316972E-5,6.53315518906E-6,-2.25807639866E-6,4.036851853888E-8},
    {-4.08478630007E-5,6.533157241573E-6,-2.28771627093E-6,4.036740971584E-8},
    {-4.08337095443E-5,6.533147425608E-6,-2.26626064964E-6,4.035343596134E-8},
    {-4.08727650126E-5,6.533119840165E-6,-2.28182570631E-6,4.037054025053E-8},
    {-4.08178036655E-5,6.533144766478E-6,-2.25883269332E-6,4.035338987039E-8}}},
  {{1.85948651576E-15,3.09689052274E-14,7.63828283412E-13},{Residual->1.9415633681E-16}},
  {{-.5,1.77344235278E-13},{-.35,8.47115463212E-14},{-.2,2.60273864011E-14},{-.05,2.15553872521E-15},{.1,1.25345050061E-14},
   {.25,5.77384688822E-14},{.4,1.36244421676E-13}}},
 {"AY",1,
  {8.405087042806E-8,6.533090818108E-6,2.163408493253E-8,4.112706278743E-8,{{-4.05829462192E-5,6.533033754154E-6,-2.68615417819E-6,
     4.106384814848E-8},
    {-4.06269813555E-5,6.533085646304E-6,-2.7147103468E-6,4.112305020479E-8},
    {-4.0591076068E-5,6.533079562882E-6,-2.73059987291E-6,4.110883771085E-8},
    {-4.07367799235E-5,6.533069655677E-6,-2.69816329946E-6,4.112177940483E-8},
    {-4.04693715075E-5,6.533099746105E-6,-2.72020136519E-6,4.113799623695E-8},
    {-4.05590095946E-5,6.533095037664E-6,-2.70617907687E-6,4.112316526581E-8},
    {-4.06459668082E-5,6.533124687809E-6,-2.67355583198E-6,4.112562891603E-8},
    {-4.05400121161E-5,6.533080384821E-6,-2.68892123417E-6,4.111788971712E-8},
    {-4.06227243212E-5,6.53311076156E-6,-2.73688986944E-6,4.115091445506E-8},
    {-4.06749423518E-5,6.533142356377E-6,-2.70606063476E-6,4.115625126759E-8},
    {-4.07453541974E-5,6.533090032134E-6,-2.72653590537E-6,4.114156114204E-8},
    {-4.05697924869E-5,6.533121915646E-6,-2.67769607486E-6,4.114574240684E-8},
    {-4.05362420696E-5,6.533081422669E-6,-2.67964126795E-6,4.111724373183E-8},
    {-4.05344050166E-5,6.533095420748E-6,-2.69624876926E-6,4.112172373154E-8},
    {-4.05284943899E-5,6.533092122645E-6,-2.6720643701E-6,4.112751950214E-8},
    {-4.05730024868E-5,6.533059528518E-6,-2.7093061548E-6,4.112367151767E-8},
    {-4.06798279528E-5,6.533069108466E-6,-2.72605370802E-6,4.112413505445E-8},
    {-4.05199696312E-5,6.53308524493E-6,-2.67108858176E-6,4.112707206456E-8},
    {-4.03857729653E-5,6.533134067921E-6,-2.72819945776E-6,4.116227802636E-8},
    {-4.05804998897E-5,6.533065905126E-6,-2.72894877562E-6,4.112094724359E-8}}},
  {{1.6556338868E-15,-4.7498264538E-15,1.18209977225E-12},{Residual->7.19869644795E-17}},
  {{5.55111512313E-17,1.68782743601E-15},{.1,1.29050683162E-14},{.2,4.80862401336E-14},{.3,1.06587471904E-13}}},
 {"EY",1,
  {6.833818120149E-8,6.531809554943E-6,2.535719505673E-8,4.003884785853E-8,{{-4.20231511653E-5,6.5318005717E-6,-3.28556022457E-6,
     4.005224053447E-8},
    {-4.22896385992E-5,6.531801994089E-6,-3.25884584127E-6,4.003356242421E-8},
    {-4.20584327893E-5,6.53180784102E-6,-3.27306400341E-6,4.004104101792E-8},
    {-4.22019120461E-5,6.531800750205E-6,-3.30400486601E-6,4.004485779428E-8},
    {-4.2135722875E-5,6.531808697548E-6,-3.24870829997E-6,4.002936246544E-8},
    {-4.21387139884E-5,6.531815090819E-6,-3.27163144494E-6,4.003529219457E-8},
    {-4.20898519827E-5,6.531808760024E-6,-3.29197439732E-6,4.003138645131E-8},
    {-4.20502145003E-5,6.531815396002E-6,-3.32559634271E-6,4.00465327742E-8},
    {-4.20924305606E-5,6.531806994269E-6,-3.25685653537E-6,4.003783404273E-8},
    {-4.21067977816E-5,6.531830459813E-6,-3.25964471703E-6,4.00246382053E-8},
    {-4.20131504095E-5,6.531793121819E-6,-3.25333603557E-6,4.004843404816E-8},
    {-4.20835458274E-5,6.531794139534E-6,-3.30964484574E-6,4.004411938804E-8},
    {-4.19724009642E-5,6.531813420896E-6,-3.31680779496E-6,4.003276538477E-8},
    {-4.20822589625E-5,6.531836579682E-6,-3.33780332696E-6,4.002563887911E-8},
    {-4.21494279372E-5,6.531786450706E-6,-3.29965541888E-6,4.00589433168E-8},
    {-4.20690914517E-5,6.531791287703E-6,-3.29047087243E-6,4.004534480098E-8},
    {-4.21362582812E-5,6.531814269454E-6,-3.31490934175E-6,4.004215411744E-8},
    {-4.21094239512E-5,6.531833101002E-6,-3.2798164409E-6,4.00319464462E-8},
    {-4.20897399433E-5,6.531811651196E-6,-3.26772352993E-6,4.004048809576E-8},
    {-4.21695191213E-5,6.531820521387E-6,-3.2713990254E-6,4.003037478886E-8}}},
  {{1.60121322654E-15,2.090992163E-14,5.86197093705E-13},{Residual->1.06260041444E-16}},
  {{-.3,4.80425806148E-14},{-.2,2.08554648442E-14},{-.1,5.46282730205E-15},{5.55111512313E-17,1.73748955397E-15},
   {.1,9.36893192273E-15},{.2,2.91488062797E-14},{.3,6.07275783056E-14}}},
 {"R32",1,
  {8.295479063888E-8,6.535083633837E-6,2.492065863823E-8,4.074099240327E-8,{{-4.16325006296E-5,6.535064873235E-6,-3.7605814642E-6,
     4.074242003054E-8},
    {-4.16062329921E-5,6.535072514266E-6,-3.71152407291E-6,4.075874523047E-8},
    {-4.16666249463E-5,6.535074944563E-6,-3.68530107999E-6,4.074894546548E-8},
    {-4.17604388971E-5,6.535048332026E-6,-3.73524016298E-6,4.072729045608E-8},
    {-4.18018994806E-5,6.535107046319E-6,-3.71410840775E-6,4.074332635845E-8},
    {-4.16747662818E-5,6.535095593188E-6,-3.71861028493E-6,4.075048051752E-8},
    {-4.16174481052E-5,6.535069821999E-6,-3.67850502259E-6,4.074982260092E-8},
    {-4.16744937638E-5,6.535116246086E-6,-3.71047310861E-6,4.072580834364E-8},
    {-4.17232741252E-5,6.535085103963E-6,-3.7241587979E-6,4.073766897414E-8},
    {-4.16007710262E-5,6.535091480303E-6,-3.71506108925E-6,4.074883962487E-8},
    {-4.17924196392E-5,6.535060235819E-6,-3.68370608522E-6,4.072307407759E-8},
    {-4.16119432393E-5,6.535115051607E-6,-3.69836644291E-6,4.073419955482E-8},
    {-4.1644594581E-5,6.53508404957E-6,-3.74077892364E-6,4.074223742866E-8},
    {-4.15211356786E-5,6.535096471602E-6,-3.69392004427E-6,4.074527422688E-8},
    {-4.16635384288E-5,6.53505497954E-6,-3.73323471339E-6,4.073522136642E-8},
    {-4.17338216707E-5,6.535114846167E-6,-3.73304237508E-6,4.072312309625E-8},
    {-4.15447147883E-5,6.535097687691E-6,-3.74504041174E-6,4.074524350503E-8},
    {-4.14679458584E-5,6.535073438863E-6,-3.72194324599E-6,4.075589848087E-8},
    {-4.16503565341E-5,6.535078131104E-6,-3.75767922001E-6,4.072946484406E-8},
    {-4.16606750564E-5,6.535071828831E-6,-3.76603483601E-6,4.075276388273E-8}}},
  {{1.69394312177E-15,1.7118082858E-15,7.6345641301E-13},{Residual->1.0405874445E-16}},
  {{-.3,6.99394046318E-14},{-.2,3.18976492109E-14},{-.1,9.03634388508E-15},{5.55111512313E-17,1.66075274767E-15},
   {.1,9.52813979845E-15},{.2,3.27745420591E-14},{.3,7.0788565162E-14}}},
 {"Y24",1,
  {5.010268891117E-8,6.530025600236E-6,1.693253856962E-8,4.11608961672E-8,{{-4.22457599608E-5,6.53001490547E-6,-3.5296833362E-6,
     4.119483628524E-8},
    {-4.22381619558E-5,6.530066877936E-6,-3.5551437274E-6,4.112931032686E-8},
    {-4.21921813765E-5,6.530013668926E-6,-3.53476394957E-6,4.116396914289E-8},
    {-4.22123118515E-5,6.530014145273E-6,-3.53007628517E-6,4.116698612816E-8},
    {-4.22767685387E-5,6.530037158976E-6,-3.54695944984E-6,4.114110231836E-8},
    {-4.22720469878E-5,6.530061502597E-6,-3.57457755389E-6,4.110804182742E-8},
    {-4.22516285867E-5,6.530023017546E-6,-3.52058462202E-6,4.114939074699E-8},
    {-4.23145749205E-5,6.530013631607E-6,-3.5111314425E-6,4.118991291036E-8},
    {-4.22956282733E-5,6.530001385003E-6,-3.55389333468E-6,4.117148453058E-8},
    {-4.22665178375E-5,6.529983801796E-6,-3.56450625356E-6,4.119834405643E-8},
    {-4.2135929284E-5,6.530028127067E-6,-3.55036721224E-6,4.117871791171E-8},
    {-4.23341000171E-5,6.530028639259E-6,-3.53685698693E-6,4.115187165943E-8},
    {-4.22141294981E-5,6.530033776818E-6,-3.54704792479E-6,4.115678114981E-8},
    {-4.23064283979E-5,6.530013343863E-6,-3.51542716861E-6,4.117345699677E-8},
    {-4.21560977648E-5,6.530033469985E-6,-3.53104039074E-6,4.114974318602E-8},
    {-4.22384671309E-5,6.530059160294E-6,-3.52751255715E-6,4.113473226116E-8},
    {-4.22934443663E-5,6.530023842792E-6,-3.56827069008E-6,4.118155584487E-8},
    {-4.22094374247E-5,6.530037518856E-6,-3.5256574388E-6,4.113920113659E-8},
    {-4.2245876269E-5,6.530008205394E-6,-3.54033304323E-6,4.11703158952E-8},
    {-4.22215447166E-5,6.530015825269E-6,-3.53646886553E-6,4.116816902911E-8}}},
  {{1.79858010912E-15,-4.1209744211E-16,1.17243996232E-15},{Residual->5.90576589212E-17}},
  {{-1.5,4.95835537172E-15},{-1.2,4.00774451081E-15},{-.9,3.20679311958E-15},{-.6,2.54364284235E-15},{-.3,2.0566540989E-15},
   {0,1.75391261383E-15},{.3,1.70693771329E-15},{.6,1.90587312414E-15},{.9,2.37774507811E-15},{1.2,3.03345251369E-15},
   {1.5,3.8404258408E-15}}},
 {"Y46",1,
  {8.856196847103E-8,6.530021018386E-6,1.565969857712E-8,4.116657384131E-8,{{-4.22619393007E-5,6.530012722719E-6,-3.55035293659E-6,
     4.119004317777E-8},
    {-4.22208622667E-5,6.530005345029E-6,-3.56191643705E-6,4.117847502011E-8},
    {-4.21160460902E-5,6.530044824339E-6,-3.52078798854E-6,4.115965396013E-8},
    {-4.21046802421E-5,6.530006899927E-6,-3.54498437062E-6,4.117137670548E-8},
    {-4.21181176653E-5,6.530053620915E-6,-3.54343740585E-6,4.113868307118E-8},
    {-4.23675180495E-5,6.530013433391E-6,-3.530845185E-6,4.116978846814E-8},
    {-4.23373425681E-5,6.530021338916E-6,-3.53654668645E-6,4.116631614738E-8},
    {-4.22699335712E-5,6.530023717273E-6,-3.55288245615E-6,4.115718117606E-8},
    {-4.20777742959E-5,6.530003049414E-6,-3.53554529177E-6,4.118907616271E-8},
    {-4.22800034181E-5,6.529996323772E-6,-3.56429286309E-6,4.121157803985E-8},
    {-4.23287843818E-5,6.52999739092E-6,-3.55320207723E-6,4.117722447322E-8},
    {-4.21661236495E-5,6.530020018246E-6,-3.50765100818E-6,4.115091724873E-8},
    {-4.21718254832E-5,6.530027290842E-6,-3.5213028192E-6,4.115678631821E-8},
    {-4.2358759791E-5,6.530031289816E-6,-3.55209843735E-6,4.11511450615E-8},
    {-4.23099862087E-5,6.530048505794E-6,-3.52034784503E-6,4.114634736543E-8},
    {-4.2261648811E-5,6.530030638027E-6,-3.51391791928E-6,4.116655433398E-8},
    {-4.22239986342E-5,6.530029042254E-6,-3.54655254889E-6,4.116708752322E-8},
    {-4.22502899383E-5,6.530004479533E-6,-3.5398601213E-6,4.116990583251E-8},
    {-4.22123642807E-5,6.530034711859E-6,-3.55466330457E-6,4.115192680387E-8},
    {-4.2359797563E-5,6.53001572473E-6,-3.54115694889E-6,4.116140993681E-8}}},
  {{1.76634929981E-15,-1.5512314687E-15,6.12003536423E-15},{Residual->1.18915519907E-16}},
  {{-1,9.53780682415E-15},{-.8,6.94657460579E-15},{-.6,4.87231991248E-15},{-.4,3.24247365441E-15},{-.2,2.16031928782E-15},
   {0,1.69442321065E-15},{.2,1.78326770147E-15},{.4,2.3062732922E-15},{.6,3.19934606527E-15},{.8,4.4593526471E-15},
   {1,6.15584069921E-15}}},
 {"Y22",1,
  {7.004498916939E-8,6.530009854303E-6,2.100823558713E-8,4.116994470956E-8,{{-4.22514522174E-5,6.530023391965E-6,-3.53121704821E-6,
     4.114756011475E-8},
    {-4.22144584977E-5,6.529988715122E-6,-3.504759268E-6,4.118940536886E-8},
    {-4.2116528129E-5,6.530013272296E-6,-3.50241496244E-6,4.116956062571E-8},
    {-4.2363389217E-5,6.530001369533E-6,-3.55967094086E-6,4.115504484597E-8},
    {-4.20872156088E-5,6.530008000363E-6,-3.52521261632E-6,4.118728449269E-8},
    {-4.22060816485E-5,6.530022413669E-6,-3.52880218493E-6,4.116849094342E-8},
    {-4.22144886258E-5,6.530031259544E-6,-3.59531120466E-6,4.115611946748E-8},
    {-4.21362136167E-5,6.530019445892E-6,-3.53771011065E-6,4.115861970227E-8},
    {-4.23234683214E-5,6.530011714772E-6,-3.5369285726E-6,4.116173917157E-8},
    {-4.22335085286E-5,6.530001922917E-6,-3.54289209055E-6,4.117037646384E-8},
    {-4.22267122498E-5,6.530008972986E-6,-3.54000839154E-6,4.116256281758E-8},
    {-4.22211187596E-5,6.530015842442E-6,-3.52641852085E-6,4.114777516965E-8},
    {-4.21831167592E-5,6.530005651484E-6,-3.55169774705E-6,4.117027132991E-8},
    {-4.22108768803E-5,6.530016493323E-6,-3.54396217767E-6,4.117905134969E-8},
    {-4.2185864746E-5,6.530016643593E-6,-3.55348574353E-6,4.118122707022E-8},
    {-4.21339423996E-5,6.530015898977E-6,-3.54409386735E-6,4.116755547272E-8},
    {-4.22483564748E-5,6.530008535243E-6,-3.53464587216E-6,4.115553774304E-8},
    {-4.21898148243E-5,6.530028146641E-6,-3.56438434046E-6,4.115976391827E-8},
    {-4.23326789791E-5,6.529985914292E-6,-3.56917228886E-6,4.119577763266E-8},
    {-4.21343312423E-5,6.529973481006E-6,-3.56032219586E-6,4.12151704909E-8}}},
  {{2.70646150328E-15,1.7883519248E-15,2.01911370446E-14},{Residual->5.28449124761E-16}},
  {{-.6,8.48544929289E-15},{-.4,5.85702755929E-15},{-.2,3.63735539446E-15},{1.11022302463E-16,1.69509030389E-15},
   {.2,3.91928508714E-15},{.4,6.99204504206E-15},{.6,1.09730513331E-14}}},
 {"Y26",1,
  {3.460394294694E-8,6.53001382679E-6,2.114777641238E-8,4.116314088663E-8,{{-4.22892727067E-5,6.530017795224E-6,-3.56129604865E-6,
     4.114758495235E-8},
    {-4.22068314084E-5,6.530002789259E-6,-3.52800065409E-6,4.116772073248E-8},
    {-4.21858993589E-5,6.530005527928E-6,-3.58905911016E-6,4.114819212493E-8},
    {-4.22069117981E-5,6.529986794411E-6,-3.5548597269E-6,4.118477884964E-8},
    {-4.2206894359E-5,6.530026848234E-6,-3.54149503569E-6,4.116651054619E-8},
    {-4.23075919004E-5,6.530060774535E-6,-3.55261737727E-6,4.113772644695E-8},
    {-4.22729709486E-5,6.530005180016E-6,-3.53250863169E-6,4.118356725338E-8},
    {-4.23022287107E-5,6.530001788489E-6,-3.51569881405E-6,4.117397919154E-8},
    {-4.22332808671E-5,6.530023033614E-6,-3.51646531973E-6,4.116698513954E-8},
    {-4.2238299005E-5,6.530016408335E-6,-3.53203217805E-6,4.11725982539E-8},
    {-4.22370802486E-5,6.530012415E-6,-3.5083870446E-6,4.117168253144E-8},
    {-4.22507935162E-5,6.530018177576E-6,-3.56493290516E-6,4.116332822908E-8},
    {-4.22076491922E-5,6.530021359294E-6,-3.5086454764E-6,4.116604470213E-8},
    {-4.22662662571E-5,6.530001344182E-6,-3.52072602787E-6,4.117741163492E-8},
    {-4.22479546054E-5,6.530005821803E-6,-3.50992641851E-6,4.114587767515E-8},
    {-4.22194158039E-5,6.530005788692E-6,-3.51576668737E-6,4.115912000152E-8},
    {-4.21879116589E-5,6.530017187667E-6,-3.53969465494E-6,4.114812568225E-8},
    {-4.22448796154E-5,6.530026104661E-6,-3.54419393495E-6,4.117123593235E-8},
    {-4.22150542665E-5,6.530006043442E-6,-3.53336088202E-6,4.116686093033E-8},
    {-4.22471985956E-5,6.530015353439E-6,-3.54955088878E-6,4.114348692256E-8}}},
  {{2.23639169639E-15,-2.5471177111E-15,2.15152607967E-14},{Residual->2.72940529267E-16}},
  {{-.6,1.13603579557E-14},{-.4,6.99113829818E-15},{-.2,3.7416060361E-15},{1.11022302463E-16,1.69463889714E-15},
   {.2,2.7141507035E-15},{.4,4.92287961524E-15},{.6,8.32706246112E-15}}},
 {"Y66",1,
  {5.46363241175E-8,6.530018447359E-6,1.892438704131E-8,4.117004445814E-8,{{-4.22606660541E-5,6.530051956066E-6,-3.56691935052E-6,
     4.113502234145E-8},
    {-4.22166526092E-5,6.530015927536E-6,-3.53242237972E-6,4.118819663749E-8},
    {-4.2205470079E-5,6.530020129822E-6,-3.54124247091E-6,4.116017300468E-8},
    {-4.23482369137E-5,6.530004040057E-6,-3.54377873592E-6,4.119468907319E-8},
    {-4.22078706974E-5,6.530039428787E-6,-3.52340515169E-6,4.115773762587E-8},
    {-4.22363480626E-5,6.530000298283E-6,-3.52793740142E-6,4.118065604053E-8},
    {-4.22606751387E-5,6.530016668739E-6,-3.52672691146E-6,4.116538762384E-8},
    {-4.22050232745E-5,6.529988216794E-6,-3.53737782677E-6,4.120562486906E-8},
    {-4.21453405273E-5,6.530015564652E-6,-3.50009214576E-6,4.115179458069E-8},
    {-4.21857780042E-5,6.530017947366E-6,-3.56189188442E-6,4.115850815195E-8},
    {-4.22519257761E-5,6.530029249209E-6,-3.52668447755E-6,4.114439569778E-8},
    {-4.21934282956E-5,6.530038333091E-6,-3.56701574634E-6,4.114516409839E-8},
    {-4.21185044355E-5,6.530032446138E-6,-3.54613513844E-6,4.11642907741E-8},
    {-4.23253925404E-5,6.530029220255E-6,-3.54576459796E-6,4.116842500623E-8},
    {-4.22957153333E-5,6.529985361197E-6,-3.54296701572E-6,4.120090813502E-8},
    {-4.223464744E-5,6.530021245536E-6,-3.57376471075E-6,4.117371848695E-8},
    {-4.22039873874E-5,6.530020080624E-6,-3.57436868884E-6,4.118121231382E-8},
    {-4.21692986347E-5,6.530019108987E-6,-3.52148636941E-6,4.115637291735E-8},
    {-4.21945726303E-5,6.530026754223E-6,-3.53971591106E-6,4.117417927605E-8},
    {-4.22354814486E-5,6.529996969828E-6,-3.55337185093E-6,4.119443250835E-8}}},
  {{3.93402888809E-15,1.1846806925E-14,5.76828670672E-13},{Residual->1.03626549588E-15}},
  {{-.2,2.36330597102E-14},{-.15,1.6285612465E-14},{-.1,9.5117337583E-15},{-.05,4.97999281291E-15},{0,1.69512608993E-15},
   {.05,5.8798797207E-15},{.1,1.16962671812E-14},{.15,1.93350121645E-14},{.2,2.89138766909E-14}}},
 {"Y44",1,
  {6.008842924547E-8,6.530014832662E-6,1.884109614799E-8,4.117292710408E-8,{{-4.22764850626E-5,6.530035770364E-6,-3.56623139933E-6,
     4.115089751427E-8},
    {-4.21699968011E-5,6.530038466279E-6,-3.56245315474E-6,4.11456049958E-8},
    {-4.22082717071E-5,6.530008648938E-6,-3.53715128412E-6,4.118862736796E-8},
    {-4.21094316093E-5,6.530002423032E-6,-3.55395818497E-6,4.119606845945E-8},
    {-4.23476581948E-5,6.529983785989E-6,-3.51970872521E-6,4.118854383429E-8},
    {-4.21893013011E-5,6.530019522558E-6,-3.53892330388E-6,4.116266372287E-8},
    {-4.21548983553E-5,6.529994405244E-6,-3.50758032031E-6,4.118104025294E-8},
    {-4.22151394346E-5,6.530002894372E-6,-3.52436924795E-6,4.119289882124E-8},
    {-4.22762689469E-5,6.530030563753E-6,-3.56033036142E-6,4.115312771974E-8},
    {-4.22328547957E-5,6.530021844001E-6,-3.52754274181E-6,4.118098960333E-8},
    {-4.21930082869E-5,6.530013943868E-6,-3.5418426218E-6,4.11906837935E-8},
    {-4.21596368819E-5,6.530028126229E-6,-3.54896672383E-6,4.114981520069E-8},
    {-4.21446559122E-5,6.530019162372E-6,-3.53817643348E-6,4.118650823114E-8},
    {-4.22603603723E-5,6.529990872239E-6,-3.52102920722E-6,4.117757201552E-8},
    {-4.22365396021E-5,6.53001141218E-6,-3.53219387378E-6,4.115250366519E-8},
    {-4.22524579152E-5,6.529978929277E-6,-3.54820543348E-6,4.121842888608E-8},
    {-4.22549605766E-5,6.530027479393E-6,-3.51201458071E-6,4.115150177923E-8},
    {-4.21599052548E-5,6.529997289489E-6,-3.57763708946E-6,4.119505434639E-8},
    {-4.21137383545E-5,6.530062605036E-6,-3.56425764784E-6,4.113058918402E-8},
    {-4.21534435568E-5,6.530028508625E-6,-3.53139147554E-6,4.116542268786E-8}}},
  {{2.1400446518E-15,1.54121356384E-15,1.21710454046E-14},{Residual->2.47632541017E-16}},
  {{-.6,5.39419418212E-15},{-.4,3.78861687614E-15},{-.2,2.52402269811E-15},{1.11022302463E-16,1.69481267536E-15},
   {.2,2.90212775664E-15},{.4,4.91182048449E-15},{.6,7.39628874288E-15}}},
 {"AY",1,
  {5.65511825547E-8,6.530621422315E-6,1.660168159216E-8,3.964449625941E-8,{{-4.23471179797E-5,6.530597700122E-6,-3.54733802002E-6,
     3.965760559883E-8},
    {-4.2292174591E-5,6.530614952368E-6,-3.54112913523E-6,3.965212573802E-8},
    {-4.24502228101E-5,6.530600369175E-6,-3.51879027033E-6,3.96508727791E-8},
    {-4.23831920677E-5,6.530639725992E-6,-3.51418276488E-6,3.964212534287E-8},
    {-4.23352714962E-5,6.530610996821E-6,-3.53472906115E-6,3.964248900165E-8},
    {-4.23000601953E-5,6.53066660771E-6,-3.53584774E-6,3.962913147435E-8},
    {-4.23644309751E-5,6.530627822016E-6,-3.51875469365E-6,3.964723898702E-8},
    {-4.23660991142E-5,6.530637877912E-6,-3.55312719496E-6,3.96428774755E-8},
    {-4.22748305106E-5,6.530558931979E-6,-3.53349783068E-6,3.966714089872E-8},
    {-4.2351358355E-5,6.530659398536E-6,-3.51400586997E-6,3.96284137574E-8},
    {-4.23399276814E-5,6.530629687858E-6,-3.52566554688E-6,3.965037427145E-8},
    {-4.23275378104E-5,6.530608634381E-6,-3.54615133422E-6,3.964435169496E-8},
    {-4.22590776138E-5,6.530595091787E-6,-3.54703323152E-6,3.964544664736E-8},
    {-4.2346564497E-5,6.530629438792E-6,-3.53396973644E-6,3.964372869135E-8},
    {-4.23074092735E-5,6.530618199473E-6,-3.52104038932E-6,3.964739602868E-8},
    {-4.24181316386E-5,6.530629552989E-6,-3.53175296996E-6,3.965019476005E-8},
    {-4.22255314322E-5,6.530646934719E-6,-3.53960165E-6,3.963871977498E-8},
    {-4.23174257448E-5,6.530636203594E-6,-3.48414163792E-6,3.962907354335E-8},
    {-4.23584055193E-5,6.530629356991E-6,-3.5209570863E-6,3.963844535231E-8},
    {-4.221823864E-5,6.530590963095E-6,-3.50083947543E-6,3.964217337023E-8}}},
  {{1.59305085384E-15,2.81770638968E-14,1.03535120863E-12},{Residual->1.26236128512E-16}},
  {{-.07,4.60714080438E-15},{-.04,2.20216630806E-15},{-.01,1.57621644134E-15},{.02,2.47607783053E-15},{.05,5.41052651262E-15},
   {.08,1.05935733603E-14}}},
 {"EY",1,
  {9.491325009642E-8,6.533211583429E-6,1.995973199755E-8,3.973300443935E-8,{{-4.11584673788E-5,6.533222268592E-6,-3.54017675845E-6,
     3.971192120408E-8},
    {-4.0971254887E-5,6.533219472389E-6,-3.55508447681E-6,3.97236074134E-8},
    {-4.11399107443E-5,6.533231134018E-6,-3.54135395853E-6,3.971551739132E-8},
    {-4.10357686231E-5,6.533198388857E-6,-3.52877077943E-6,3.974957275996E-8},
    {-4.09321739734E-5,6.533208075063E-6,-3.51646331474E-6,3.972690883969E-8},
    {-4.10545324145E-5,6.533218695996E-6,-3.49397091954E-6,3.971626549574E-8},
    {-4.12572891629E-5,6.533202233213E-6,-3.51912716723E-6,3.975492088242E-8},
    {-4.11444407875E-5,6.533206542139E-6,-3.5602616472E-6,3.974341975428E-8},
    {-4.09736340529E-5,6.533217774517E-6,-3.53507560378E-6,3.972346184163E-8},
    {-4.11973536887E-5,6.533207998245E-6,-3.50998885796E-6,3.973682973187E-8},
    {-4.10441796212E-5,6.533204592435E-6,-3.55835418695E-6,3.97433510228E-8},
    {-4.11901074909E-5,6.533216320649E-6,-3.52411525948E-6,3.97487242844E-8},
    {-4.11136101849E-5,6.533191105257E-6,-3.56900077236E-6,3.975311749873E-8},
    {-4.11442790895E-5,6.533216453093E-6,-3.55913030223E-6,3.972582320293E-8},
    {-4.11916324918E-5,6.533241935457E-6,-3.51869851878E-6,3.967243509689E-8},
    {-4.10463709195E-5,6.533200785251E-6,-3.50185725721E-6,3.974817469795E-8},
    {-4.09715595807E-5,6.533196490755E-6,-3.53480543387E-6,3.974813704921E-8},
    {-4.11270131129E-5,6.533223364908E-6,-3.53428169293E-6,3.972424507326E-8},
    {-4.1084935951E-5,6.533206185535E-6,-3.51904798792E-6,3.975215475529E-8},
    {-4.09137409889E-5,6.533201852207E-6,-3.53082206468E-6,3.974150079112E-8}}},
  {{1.52131972971E-15,-6.2133038459E-16,5.69224806059E-13},{Residual->2.82167321221E-17}},
  {{-.1,7.29568138018E-15},{-.07,4.33363807289E-15},{-.04,2.41962782704E-15},{-.01,1.61493925694E-15},{.02,1.77301572581E-15},
   {.05,2.88021622428E-15},{.08,5.11853522471E-15}}},
 {"R32",1,
  {5.577798689116E-8,6.532069254897E-6,1.813086311889E-8,3.953445251068E-8,{{-4.16998747459E-5,6.532073067463E-6,-4.11519447851E-6,
     3.952693885205E-8},
    {-4.17160073989E-5,6.532069349515E-6,-4.13355998915E-6,3.953610253757E-8},
    {-4.16691368201E-5,6.532048521264E-6,-4.07415062966E-6,3.954265927228E-8},
    {-4.1656941339E-5,6.53208357191E-6,-4.08076305661E-6,3.952598290861E-8},
    {-4.17531133321E-5,6.532094489099E-6,-4.10455347355E-6,3.952576082815E-8},
    {-4.16630912254E-5,6.532060092908E-6,-4.08751583248E-6,3.953370441556E-8},
    {-4.16068469869E-5,6.53209301676E-6,-4.11525674092E-6,3.953050754779E-8},
    {-4.17005143937E-5,6.532097603417E-6,-4.10459959722E-6,3.952690745411E-8},
    {-4.16508300115E-5,6.532030711022E-6,-4.10687660696E-6,3.954946653729E-8},
    {-4.16403028584E-5,6.532067059753E-6,-4.10395520557E-6,3.953344817008E-8},
    {-4.1690894784E-5,6.532080001264E-6,-4.10979612701E-6,3.952834567223E-8},
    {-4.17051601216E-5,6.532061253123E-6,-4.09675833034E-6,3.9540664903E-8},
    {-4.1600428516E-5,6.532071258055E-6,-4.08766326691E-6,3.952908590397E-8},
    {-4.17241452077E-5,6.532043552362E-6,-4.107154527E-6,3.954837836776E-8},
    {-4.17578754226E-5,6.532068806809E-6,-4.10340273339E-6,3.9539193759E-8},
    {-4.16251148242E-5,6.53208434542E-6,-4.14702106618E-6,3.952708157325E-8},
    {-4.17347601889E-5,6.532029572466E-6,-4.11304770847E-6,3.955126390632E-8},
    {-4.16729629064E-5,6.532056618136E-6,-4.09760508105E-6,3.953660970016E-8},
    {-4.16144879123E-5,6.532075695525E-6,-4.12555196182E-6,3.952956037082E-8},
    {-4.18255559948E-5,6.53209651167E-6,-4.07335899144E-6,3.952738753371E-8}}},
  {{1.54885644071E-15,7.62821536466E-15,7.61712159048E-13},{Residual->2.20500196165E-17}},
  {{-.1,8.41764889415E-15},{-.07,4.70839959322E-15},{-.04,2.47997030042E-15},{-.01,1.57184507677E-15},{.02,2.00311629296E-15},
   {.05,3.80861780317E-15},{.08,7.04676696811E-15}}},
 {"Y24",1,
  {5.235851140171E-8,6.533787879852E-6,2.004738532651E-8,3.993144762108E-8,{{-4.18850376803E-5,6.533789698707E-6,-4.56918890423E-6,
     3.99207716813E-8},
    {-4.20050790572E-5,6.533759362529E-6,-4.61632615612E-6,3.995968062588E-8},
    {-4.19272959068E-5,6.533777127794E-6,-4.55513684428E-6,3.991061822245E-8},
    {-4.18980091006E-5,6.533792628846E-6,-4.60355135121E-6,3.99276942779E-8},
    {-4.18861270868E-5,6.533751890989E-6,-4.55074720371E-6,3.993521156685E-8},
    {-4.20667176081E-5,6.533754072344E-6,-4.57603066455E-6,3.99431185517E-8},
    {-4.19609454855E-5,6.53380989406E-6,-4.57951878179E-6,3.995229122695E-8},
    {-4.19585393079E-5,6.533830104813E-6,-4.54203512419E-6,3.993753590884E-8},
    {-4.18968396112E-5,6.533794498717E-6,-4.58052298155E-6,3.992491909988E-8},
    {-4.2041718333E-5,6.533786346148E-6,-4.57600692034E-6,3.992542569968E-8},
    {-4.19279394909E-5,6.533772370599E-6,-4.58517055808E-6,3.991909338204E-8},
    {-4.19709224836E-5,6.533802784576E-6,-4.57415352625E-6,3.99567691313E-8},
    {-4.19791382744E-5,6.533832633595E-6,-4.53812789172E-6,3.991012775239E-8},
    {-4.19596535931E-5,6.5337725976E-6,-4.54498333644E-6,3.993300350629E-8},
    {-4.20332031275E-5,6.533765354209E-6,-4.54113644882E-6,3.991307862744E-8},
    {-4.20016817557E-5,6.53379432763E-6,-4.57955458625E-6,3.99337737041E-8},
    {-4.19448074688E-5,6.53378141922E-6,-4.5626126531E-6,3.990741118284E-8},
    {-4.19779173149E-5,6.533775575906E-6,-4.56783041372E-6,3.993021459517E-8},
    {-4.19309012366E-5,6.533809313418E-6,-4.58077657587E-6,3.995608924447E-8},
    {-4.20313548582E-5,6.53380559534E-6,-4.5578882902E-6,3.993212443415E-8}}},
  {{1.6005679415E-15,2.19084411679E-16,1.73729459665E-15},{Residual->1.1126736355E-18}},
  {{-.3,1.69171050162E-15},{-.2,1.62609348033E-15},{-.1,1.59452016986E-15},{5.55111512313E-17,1.6008334378E-15},
   {.1,1.6419495766E-15},{.2,1.71260732264E-15},{.3,1.82270358874E-15}}},
 {"Y46",1,
  {7.654243306732E-8,6.537243785279E-6,1.695650562296E-8,3.973937355021E-8,{{-4.19276314239E-5,6.537269833696E-6,-4.54258016336E-6,
     3.973443657654E-8},
    {-4.18532740662E-5,6.537244676208E-6,-4.5768511301E-6,3.974021435416E-8},
    {-4.19128343896E-5,6.537248486242E-6,-4.56179149345E-6,3.974814130644E-8},
    {-4.18788363527E-5,6.537252838026E-6,-4.55504917839E-6,3.970795577205E-8},
    {-4.19384389218E-5,6.537237889079E-6,-4.60071035173E-6,3.973191259469E-8},
    {-4.19032985716E-5,6.537234986836E-6,-4.57945938612E-6,3.975052868381E-8},
    {-4.17570311222E-5,6.53718859522E-6,-4.59604294783E-6,3.974494241131E-8},
    {-4.19443169665E-5,6.537269672784E-6,-4.55528640239E-6,3.972788592176E-8},
    {-4.20794543804E-5,6.537228195153E-6,-4.58336195604E-6,3.974838785551E-8},
    {-4.19733599814E-5,6.53725535289E-6,-4.55069931244E-6,3.970869146996E-8},
    {-4.19393300519E-5,6.53723758821E-6,-4.57506796665E-6,3.972140881972E-8},
    {-4.18468200772E-5,6.537257551247E-6,-4.59238728188E-6,3.972746651371E-8},
    {-4.17888048595E-5,6.537203572802E-6,-4.57724818576E-6,3.974586771981E-8},
    {-4.19177461664E-5,6.537227942993E-6,-4.5862164069E-6,3.973222984228E-8},
    {-4.1947435125E-5,6.537242775179E-6,-4.57315534922E-6,3.975553973941E-8},
    {-4.19366153971E-5,6.537219815411E-6,-4.60077558081E-6,3.976365401153E-8},
    {-4.19900341818E-5,6.53727109728E-6,-4.57992063527E-6,3.973623778947E-8},
    {-4.19973150033E-5,6.537272157804E-6,-4.56288364438E-6,3.974308650286E-8},
    {-4.20430847424E-5,6.537280494064E-6,-4.58932732194E-6,3.975721023038E-8},
    {-4.20000846277E-5,6.537232184467E-6,-4.59828670942E-6,3.976167288885E-8}}},
  {{1.60326556513E-15,4.89925686465E-16,6.3193899697E-15},{Residual->2.30014833028E-17}},
  {{-.45,2.68544281306E-15},{-.3,2.00300198445E-15},{-.15,1.65097794823E-15},{-5.5511151231E-17,1.59502607755E-15},
   {.15,1.84536903514E-15},{.3,2.34714113085E-15},{.45,3.07711564755E-15}}},
 {"Y22",1,
  {6.221282418755E-8,6.53724214382E-6,1.194839671174E-8,3.97365476742E-8,{{-4.19863247429E-5,6.537223389534E-6,-4.60008174837E-6,
     3.975776315913E-8},
    {-4.19247672716E-5,6.537283750354E-6,-4.56567574071E-6,3.974104744581E-8},
    {-4.20033192209E-5,6.537255111303E-6,-4.56529537911E-6,3.972562392347E-8},
    {-4.19469308112E-5,6.537258830951E-6,-4.57480014796E-6,3.972415370743E-8},
    {-4.1911301757E-5,6.537193666908E-6,-4.55535818903E-6,3.97179976001E-8},
    {-4.19635757902E-5,6.537252544083E-6,-4.56639521142E-6,3.973057749737E-8},
    {-4.19798890812E-5,6.537247470731E-6,-4.56447929062E-6,3.975291548194E-8},
    {-4.1992512644E-5,6.537265466299E-6,-4.56459292289E-6,3.973049961361E-8},
    {-4.19598909403E-5,6.537241087772E-6,-4.57223548407E-6,3.974480406726E-8},
    {-4.20292024154E-5,6.53724217074E-6,-4.56754662396E-6,3.974860198399E-8},
    {-4.18335871688E-5,6.537258019347E-6,-4.56874400868E-6,3.973268651055E-8},
    {-4.18751476649E-5,6.537231714757E-6,-4.55581320493E-6,3.971854418223E-8},
    {-4.18166365071E-5,6.537226946264E-6,-4.56724113236E-6,3.972754135027E-8},
    {-4.18394710849E-5,6.537222540579E-6,-4.55929252318E-6,3.972099769961E-8},
    {-4.19768324605E-5,6.537218502631E-6,-4.57852297414E-6,3.975530214399E-8},
    {-4.19915928077E-5,6.537262082328E-6,-4.58767519895E-6,3.97456344793E-8},
    {-4.19137217859E-5,6.537248640222E-6,-4.57988792111E-6,3.976274418596E-8},
    {-4.19049964088E-5,6.537259601366E-6,-4.58153178301E-6,3.973854987683E-8},
    {-4.18802546965E-5,6.537232225416E-6,-4.58024188325E-6,3.970973116667E-8},
    {-4.18447503791E-5,6.537219114814E-6,-4.59597307784E-6,3.974523740841E-8}}},
  {{2.5121713999E-15,1.23423871194E-15,2.000146176E-14},{Residual->4.75274797107E-16}},
  {{-.6,8.61934484568E-15},{-.4,5.77070718225E-15},{-.2,3.4771373137E-15},{1.11022302463E-16,1.57952142673E-15},
   {.2,3.6586659722E-15},{.4,6.51472365997E-15},{.6,1.036673657E-14}}},
 {"Y26",1,
  {4.912534428029E-8,6.537254863815E-6,1.153880717954E-8,3.974116651453E-8,{{-4.19677633935E-5,6.537257517726E-6,-4.58814863174E-6,
     3.974450884435E-8},
    {-4.19346488864E-5,6.537234315196E-6,-4.57721023074E-6,3.973167792219E-8},
    {-4.1959324079E-5,6.537241121918E-6,-4.56658136095E-6,3.974385346978E-8},
    {-4.19872004789E-5,6.537269623619E-6,-4.58337679029E-6,3.975293478394E-8},
    {-4.18828672471E-5,6.53724176158E-6,-4.56481568932E-6,3.973959048995E-8},
    {-4.19798124498E-5,6.537281797027E-6,-4.59691928249E-6,3.97386197372E-8},
    {-4.19118707131E-5,6.537261348135E-6,-4.56482000469E-6,3.973489928338E-8},
    {-4.19812558145E-5,6.537221252162E-6,-4.58595989031E-6,3.974985251955E-8},
    {-4.20051139765E-5,6.53727444173E-6,-4.5487665999E-6,3.973642304561E-8},
    {-4.18446917012E-5,6.537226025462E-6,-4.58846958234E-6,3.975238251913E-8},
    {-4.18240400459E-5,6.537220023609E-6,-4.57249483143E-6,3.97376603753E-8},
    {-4.19251738762E-5,6.537272371197E-6,-4.56887888952E-6,3.974289545045E-8},
    {-4.19511706582E-5,6.537343791851E-6,-4.58600495892E-6,3.972459642105E-8},
    {-4.19894326844E-5,6.537293226096E-6,-4.56491590579E-6,3.973622777747E-8},
    {-4.1968066011E-5,6.537216961748E-6,-4.58423687455E-6,3.975390426883E-8},
    {-4.19107971023E-5,6.537288452747E-6,-4.57179134332E-6,3.974116563117E-8},
    {-4.1960692069E-5,6.537272946469E-6,-4.58842582467E-6,3.97551643041E-8},
    {-4.19384174902E-5,6.537184547942E-6,-4.58676852091E-6,3.974573891381E-8},
    {-4.19837447271E-5,6.537229530906E-6,-4.57250253407E-6,3.972502256541E-8},
    {-4.20080508257E-5,6.537266219178E-6,-4.58400132758E-6,3.973621196789E-8}}},
  {{1.8230584879E-15,-2.147912966E-15,2.87403250976E-14},{Residual->1.31348037835E-16}},
  {{-.3,4.96314968712E-15},{-.2,3.5699071312E-15},{-.1,2.39159920051E-15},{5.55111512313E-17,1.57900648695E-15},
   {.1,1.91689823307E-15},{.2,2.67461112476E-15},{.3,3.71352857898E-15}}},
 {"Y66",1,
  {6.109845714962E-8,6.537256798606E-6,1.625969273565E-8,3.973198200484E-8,{{-4.19466908431E-5,6.5372542299E-6,-4.56975331106E-6,
     3.973408131293E-8},
    {-4.20105898108E-5,6.537203800493E-6,-4.58403958678E-6,3.973975063662E-8},
    {-4.20450281691E-5,6.537204545524E-6,-4.55132554444E-6,3.970339472927E-8},
    {-4.19536992789E-5,6.537262856879E-6,-4.54731370823E-6,3.971938381491E-8},
    {-4.19794453695E-5,6.537272780614E-6,-4.58846837673E-6,3.972563689069E-8},
    {-4.19630907039E-5,6.537251874983E-6,-4.57788933989E-6,3.972073063911E-8},
    {-4.18633745636E-5,6.537264917073E-6,-4.60097073028E-6,3.974637400794E-8},
    {-4.19728480606E-5,6.537307925742E-6,-4.55891003845E-6,3.971970035566E-8},
    {-4.19657090765E-5,6.537257069873E-6,-4.55055945268E-6,3.9713580693E-8},
    {-4.20950001775E-5,6.537263315824E-6,-4.55366688956E-6,3.973859080038E-8},
    {-4.19559738699E-5,6.53725924953E-6,-4.57979067074E-6,3.974610354259E-8},
    {-4.19348229192E-5,6.537262499114E-6,-4.56587207523E-6,3.974999984842E-8},
    {-4.19710538044E-5,6.53726962675E-6,-4.59079064292E-6,3.975242099499E-8},
    {-4.18933662653E-5,6.537275131759E-6,-4.55357571905E-6,3.972603961649E-8},
    {-4.19308796949E-5,6.537193764623E-6,-4.57354471607E-6,3.974538965149E-8},
    {-4.20561993336E-5,6.537270552711E-6,-4.54648795784E-6,3.973964695907E-8},
    {-4.19664967534E-5,6.537257423553E-6,-4.56405081187E-6,3.972991543094E-8},
    {-4.20856691179E-5,6.537268374137E-6,-4.59171245409E-6,3.972939993343E-8},
    {-4.19172556489E-5,6.537262325603E-6,-4.56124708843E-6,3.972177404102E-8},
    {-4.18864725523E-5,6.537273707441E-6,-4.58168488965E-6,3.973772619779E-8}}},
  {{3.78260882144E-15,1.07045493095E-14,5.75861882248E-13},{Residual->1.03574608275E-15}},
  {{-.2,2.37096357624E-14},{-.15,1.61889268989E-14},{-.1,9.60732200186E-15},{-.05,4.73215630146E-15},{0,1.57960591228E-15},
   {.05,5.62483740211E-15},{.1,1.16340261181E-14},{.15,1.88121229907E-14},{.2,2.85341283423E-14}}},
 {"Y44",1,
  {5.1506808122E-8,6.537252076814E-6,1.387234701338E-8,3.974000024849E-8,{{-4.19061837474E-5,6.537234794112E-6,-4.56874144546E-6,
     3.974369282509E-8},
    {-4.18435270462E-5,6.537231525383E-6,-4.55887276627E-6,3.973320129592E-8},
    {-4.20146472593E-5,6.537244709942E-6,-4.58017266023E-6,3.974034892792E-8},
    {-4.19900319206E-5,6.537267924126E-6,-4.60725312265E-6,3.975101906855E-8},
    {-4.20331067084E-5,6.537297311687E-6,-4.56405159815E-6,3.972211268111E-8},
    {-4.19626802775E-5,6.537230391323E-6,-4.58391794652E-6,3.97414993028E-8},
    {-4.19701381262E-5,6.537283712441E-6,-4.58283406223E-6,3.975043805642E-8},
    {-4.19545365461E-5,6.537243288841E-6,-4.58290731118E-6,3.974308830778E-8},
    {-4.20756092255E-5,6.537287265776E-6,-4.61180968435E-6,3.971751454079E-8},
    {-4.19387262762E-5,6.537240714381E-6,-4.57655083467E-6,3.971855458639E-8},
    {-4.19769078135E-5,6.537239679251E-6,-4.57844630878E-6,3.974838573965E-8},
    {-4.18644543822E-5,6.537274893714E-6,-4.56434227022E-6,3.973213541476E-8},
    {-4.1902304813E-5,6.537271413013E-6,-4.57917552025E-6,3.973445821048E-8},
    {-4.19418608366E-5,6.537221767398E-6,-4.58744180461E-6,3.974242039634E-8},
    {-4.19451751464E-5,6.537216625808E-6,-4.590717396E-6,3.975390929141E-8},
    {-4.19406384949E-5,6.537214371629E-6,-4.56835248086E-6,3.9747007109E-8},
    {-4.19555770796E-5,6.537252383269E-6,-4.59394459789E-6,3.976230026817E-8},
    {-4.19394577294E-5,6.537217039334E-6,-4.57796676594E-6,3.973876646288E-8},
    {-4.19531805314E-5,6.537283748382E-6,-4.56031222531E-6,3.974698615679E-8},
    {-4.1965972764E-5,6.537287976461E-6,-4.58922713736E-6,3.97321663275E-8}}},
  {{1.98046554064E-15,1.08885920231E-15,1.21591153056E-14},{Residual->2.15159679468E-16}},
  {{-.6,5.54535787004E-15},{-.4,3.74781595408E-15},{-.2,2.41871041899E-15},{1.11022302463E-16,1.57920660426E-15},
   {.2,2.68221459691E-15},{.4,4.55867457423E-15},{.6,6.94948790828E-15}}},
 {"AY",1,
  {7.105301108609E-8,6.53708930636E-6,1.82113658194E-8,3.955383921675E-8,{{-4.20931981474E-5,6.537097485737E-6,-4.55563804746E-6,
     3.954727259333E-8},
    {-4.18476843482E-5,6.537097496233E-6,-4.58645969133E-6,3.95568407948E-8},
    {-4.18908718016E-5,6.537091621533E-6,-4.54370663683E-6,3.953120576278E-8},
    {-4.18560383122E-5,6.537052519429E-6,-4.55453900501E-6,3.953482646199E-8},
    {-4.19911875913E-5,6.537110557606E-6,-4.59005076727E-6,3.956369443091E-8},
    {-4.19463394564E-5,6.53709045942E-6,-4.56822532449E-6,3.956785843014E-8},
    {-4.19868835453E-5,6.537104486538E-6,-4.58679948852E-6,3.95422813586E-8},
    {-4.20181508136E-5,6.537075571153E-6,-4.58147405805E-6,3.952162751023E-8},
    {-4.19292628608E-5,6.537087730125E-6,-4.55919726447E-6,3.956655116522E-8},
    {-4.18704974321E-5,6.537110502373E-6,-4.57204149634E-6,3.956787435203E-8},
    {-4.19136939726E-5,6.537083485351E-6,-4.58506426481E-6,3.9544727068E-8},
    {-4.1827671927E-5,6.537092193533E-6,-4.54897035529E-6,3.957048168046E-8},
    {-4.19596329282E-5,6.537074220956E-6,-4.56606260632E-6,3.953627947444E-8},
    {-4.19876260997E-5,6.537095363944E-6,-4.5740494833E-6,3.956229331774E-8},
    {-4.19719868992E-5,6.537082309415E-6,-4.5766558286E-6,3.9554130614E-8},
    {-4.19449659137E-5,6.537089079035E-6,-4.62489631588E-6,3.960092334439E-8},
    {-4.18427604826E-5,6.537098878151E-6,-4.57995944942E-6,3.957202243916E-8},
    {-4.20176204776E-5,6.537085816492E-6,-4.58554646808E-6,3.955546272349E-8},
    {-4.18397583245E-5,6.537103801258E-6,-4.5508351867E-6,3.954658788899E-8},
    {-4.18890359033E-5,6.537062548913E-6,-4.57009213596E-6,3.95338429244E-8}}},
  {{1.41883177736E-15,1.04514248832E-14,1.07232656597E-12},{Residual->1.20930233281E-16}},
  {{-.04,2.63204310334E-15},{-.01,1.58842998354E-15},{.02,2.06287661164E-15},{.05,4.44722535774E-15},{.08,9.20431854456E-15}}},
 {"EY",1,
  {6.104954899096E-8,6.536862028013E-6,1.799812018006E-8,3.941414336131E-8,{{-4.25546379626E-5,6.536843035543E-6,-4.78951624501E-6,
     3.941358673748E-8},
    {-4.26556257058E-5,6.536874102783E-6,-4.76743468311E-6,3.942054477884E-8},
    {-4.25416840492E-5,6.536863051876E-6,-4.77959629036E-6,3.941680112833E-8},
    {-4.26509964423E-5,6.536881984046E-6,-4.77731932103E-6,3.942590258413E-8},
    {-4.25984022191E-5,6.536875679182E-6,-4.79530356091E-6,3.942272614549E-8},
    {-4.26617990537E-5,6.536896107053E-6,-4.78596254705E-6,3.942442910589E-8},
    {-4.25886646366E-5,6.536859908236E-6,-4.77433858315E-6,3.941556998937E-8},
    {-4.25110746643E-5,6.536797131086E-6,-4.78179055273E-6,3.939181859456E-8},
    {-4.24515567293E-5,6.536824220576E-6,-4.7941905779E-6,3.941115173137E-8},
    {-4.25668514546E-5,6.536911792852E-6,-4.77908517263E-6,3.941396667834E-8},
    {-4.25591612655E-5,6.536899512348E-6,-4.78960451939E-6,3.941229886219E-8},
    {-4.25981421436E-5,6.5368155532E-6,-4.7729514251E-6,3.940452703119E-8},
    {-4.25790381104E-5,6.536885524816E-6,-4.80474716988E-6,3.941196770999E-8},
    {-4.27249970811E-5,6.536880045517E-6,-4.81083672964E-6,3.942017429602E-8},
    {-4.25185137633E-5,6.536836997006E-6,-4.74890065559E-6,3.939734660286E-8},
    {-4.25484894703E-5,6.536856478303E-6,-4.79869545497E-6,3.942338528446E-8},
    {-4.26180137467E-5,6.536862080534E-6,-4.7994323221E-6,3.94210765409E-8},
    {-4.26152391603E-5,6.536866070858E-6,-4.75756047856E-6,3.941367713411E-8},
    {-4.25170151216E-5,6.53687390321E-6,-4.75613853039E-6,3.941359615981E-8},
    {-4.25856128759E-5,6.536837381238E-6,-4.74469487456E-6,3.940832013096E-8}}},
  {{1.57288848144E-15,1.12411049594E-14,5.60517588169E-13},{Residual->3.10176171572E-17}},
  {{-.1,6.08674030132E-15},{-.07,3.4952466992E-15},{-.04,1.97667675685E-15},{-.01,1.55447318875E-15},{.02,2.04966928441E-15},
   {.05,3.53026951841E-15},{.08,6.04767180755E-15}}},
 {"R32",1,
  {7.643997600952E-8,6.535745174292E-6,1.424929390071E-8,3.93349594283E-8,{{-4.20194233372E-5,6.535742285877E-6,-4.81804616882E-6,
     3.933712907253E-8},
    {-4.19520326054E-5,6.535728298701E-6,-4.80359971167E-6,3.933672679978E-8},
    {-4.19578264337E-5,6.535725797755E-6,-4.83179767916E-6,3.934247134966E-8},
    {-4.19466125529E-5,6.535739147892E-6,-4.8162232488E-6,3.933492271224E-8},
    {-4.18474291427E-5,6.53574507494E-6,-4.80588426035E-6,3.93335965472E-8},
    {-4.18694034058E-5,6.535734170953E-6,-4.7981737677E-6,3.933389112477E-8},
    {-4.20178973952E-5,6.535734869288E-6,-4.80044945664E-6,3.933787957589E-8},
    {-4.1908240095E-5,6.535746519834E-6,-4.81179870665E-6,3.933382834313E-8},
    {-4.20691828798E-5,6.535774160943E-6,-4.79144976625E-6,3.932857072564E-8},
    {-4.1800977762E-5,6.535722277686E-6,-4.80270756181E-6,3.933834423971E-8},
    {-4.18734899675E-5,6.535796014726E-6,-4.83048000851E-6,3.932239310893E-8},
    {-4.20256918001E-5,6.535731160156E-6,-4.80701161475E-6,3.933752464079E-8},
    {-4.21187493825E-5,6.535717746926E-6,-4.82545869358E-6,3.934323099717E-8},
    {-4.19431991404E-5,6.535761777261E-6,-4.81371078655E-6,3.933257439185E-8},
    {-4.19900365384E-5,6.535767098891E-6,-4.79849111322E-6,3.933055307173E-8},
    {-4.19946845661E-5,6.53577574049E-6,-4.84709081396E-6,3.932651943985E-8},
    {-4.20572635061E-5,6.535746289693E-6,-4.83184412194E-6,3.933776025252E-8},
    {-4.19452118311E-5,6.535762468532E-6,-4.79821430947E-6,3.933111225572E-8},
    {-4.19654912545E-5,6.535719778204E-6,-4.82074204774E-6,3.934282810929E-8},
    {-4.19720919172E-5,6.535732807103E-6,-4.80403196868E-6,3.93373318075E-8}}},
  {{1.51006220879E-15,1.16814527357E-16,7.43645068776E-13},{Residual->3.63927542787E-17}},
  {{-.1,8.9680640886E-15},{-.07,5.09321734391E-15},{-.04,2.67900817524E-15},{-.01,1.60818540905E-15},{.02,1.85915456363E-15},
   {.05,3.32974082363E-15},{.08,6.28529532184E-15}}},
 {"Y24",1,
  {5.927973058395E-8,6.534131973473E-6,1.51023702043E-8,4.03017117189E-8,{{-3.98349488355E-5,6.534119363544E-6,-5.0766083145E-6,
     4.029655907315E-8},
    {-3.99254343861E-5,6.534163906133E-6,-5.06322398188E-6,4.031654479177E-8},
    {-3.97855287375E-5,6.534122822166E-6,-5.0873661428E-6,4.029509164506E-8},
    {-3.98631751652E-5,6.534134605163E-6,-5.04931922509E-6,4.028905459127E-8},
    {-3.97977665099E-5,6.534147107832E-6,-5.08630965814E-6,4.030953829858E-8},
    {-3.9828550069E-5,6.534096686995E-6,-5.04949832659E-6,4.029110720994E-8},
    {-3.99349626562E-5,6.534153393356E-6,-5.09235790265E-6,4.031320676955E-8},
    {-3.98925115252E-5,6.534123589802E-6,-5.06963123683E-6,4.029516137612E-8},
    {-3.98572766173E-5,6.534122769362E-6,-5.08469617313E-6,4.029668413145E-8},
    {-3.98590703154E-5,6.534145242438E-6,-5.09931165081E-6,4.030981390022E-8},
    {-3.99327303554E-5,6.534105477712E-6,-5.07795332218E-6,4.029516041097E-8},
    {-3.98992028849E-5,6.534148153146E-6,-5.06933034954E-6,4.030872298093E-8},
    {-3.98411451262E-5,6.534121471662E-6,-5.08697252804E-6,4.030403142138E-8},
    {-3.98269558001E-5,6.534124774874E-6,-5.06297837684E-6,4.02960530511E-8},
    {-3.97913063977E-5,6.534173913286E-6,-5.08066477091E-6,4.031548268122E-8},
    {-3.98060076878E-5,6.534120766208E-6,-5.07176928067E-6,4.02947652538E-8},
    {-3.9722941022E-5,6.534128881294E-6,-5.11233149105E-6,4.030236953026E-8},
    {-3.98147059351E-5,6.534109183801E-6,-5.06925744247E-6,4.029263847073E-8},
    {-3.99513263073E-5,6.53414779138E-6,-5.08476225102E-6,4.031336134296E-8},
    {-3.97798380246E-5,6.534129569299E-6,-5.08481372418E-6,4.029888744747E-8}}},
  {{1.6532589247E-15,-4.1327906627E-16,1.81240218352E-15},{Residual->4.39993079329E-18}},
  {{-.3,1.9354686245E-15},{-.2,1.81396767661E-15},{-.1,1.71615298503E-15},{5.55111512313E-17,1.653603089E-15},
   {.1,1.62615449164E-15},{.2,1.63765631796E-15},{.3,1.69728189954E-15}}},
 {"Y46",1,
  {5.370874789284E-8,6.54411716117E-6,2.151755653729E-8,3.810703645736E-8,{{-3.97706709471E-5,6.544146617823E-6,-5.11122034337E-6,
     3.81087168028E-8},
    {-3.98419127949E-5,6.544141372798E-6,-5.11254337511E-6,3.811268580914E-8},
    {-3.97424491526E-5,6.544083903538E-6,-5.10062620499E-6,3.81011299007E-8},
    {-3.96650080578E-5,6.544106060608E-6,-5.10043176582E-6,3.811042352863E-8},
    {-3.97620195852E-5,6.544104052475E-6,-5.09092552194E-6,3.810612919776E-8},
    {-3.98210809458E-5,6.544073101516E-6,-5.07524489573E-6,3.809327323914E-8},
    {-3.98050613216E-5,6.544120753523E-6,-5.08168455133E-6,3.810470777215E-8},
    {-3.96887746752E-5,6.544113209523E-6,-5.11381317995E-6,3.810416618757E-8},
    {-3.97164296283E-5,6.544122302064E-6,-5.07106681097E-6,3.811533412935E-8},
    {-3.98200466166E-5,6.544136700079E-6,-5.06796863228E-6,3.81104523618E-8},
    {-3.96861479399E-5,6.544163143602E-6,-5.08238895485E-6,3.810364137314E-8},
    {-3.97493959828E-5,6.544147622662E-6,-5.08905302531E-6,3.810592616904E-8},
    {-3.96438654905E-5,6.544135594422E-6,-5.04092808197E-6,3.811308868958E-8},
    {-3.97294738433E-5,6.544100311636E-6,-5.07539646565E-6,3.810924657657E-8},
    {-3.97628554075E-5,6.544115824464E-6,-5.11444098836E-6,3.810318370537E-8},
    {-3.97885442483E-5,6.544075401513E-6,-5.13037763026E-6,3.810307907875E-8},
    {-3.97050505318E-5,6.544139761884E-6,-5.08493012457E-6,3.810858009945E-8},
    {-3.98028413734E-5,6.544073133353E-6,-5.07594204866E-6,3.810607434778E-8},
    {-3.9731246076E-5,6.544110625293E-6,-5.08138329575E-6,3.811009734104E-8},
    {-3.97809332656E-5,6.544133730624E-6,-5.05423925804E-6,3.811079283736E-8}}},
  {{1.62803914485E-15,2.03216574899E-15,6.20669634238E-15},{Residual->8.79889484331E-18}},
  {{-.45,1.97793613887E-15},{-.3,1.57200563855E-15},{-.15,1.45238018026E-15},{-5.5511151231E-17,1.62413521427E-15},
   {.15,2.08426603429E-15},{.3,2.80627852468E-15},{.45,3.7894909787E-15}}},
 {"Y22",1,
  {5.957059211861E-8,6.544121402817E-6,1.740980987073E-8,3.8108516462E-8,{{-3.9812461759E-5,6.544074087998E-6,-5.06466580015E-6,
     3.811106726567E-8},
    {-3.97026647804E-5,6.544121392151E-6,-5.11832477066E-6,3.810750652889E-8},
    {-3.97288169443E-5,6.544120667064E-6,-5.10742656285E-6,3.810805714957E-8},
    {-3.96920593633E-5,6.544083535797E-6,-5.07299962534E-6,3.81041068227E-8},
    {-3.97862676161E-5,6.544173252969E-6,-5.08328991606E-6,3.810299989441E-8},
    {-3.96955162489E-5,6.544164975667E-6,-5.08097130265E-6,3.811071645028E-8},
    {-3.97250962982E-5,6.54414550158E-6,-5.08967342756E-6,3.81088596849E-8},
    {-3.97682029443E-5,6.544128016332E-6,-5.08721921692E-6,3.811889573201E-8},
    {-3.97539836899E-5,6.544124979335E-6,-5.10412659135E-6,3.810433435529E-8},
    {-3.97731273334E-5,6.544107561449E-6,-5.10223379361E-6,3.810594536929E-8},
    {-3.97882722713E-5,6.544099821491E-6,-5.10015957274E-6,3.810028324539E-8},
    {-3.98200714992E-5,6.54413750702E-6,-5.10363052852E-6,3.810840033205E-8},
    {-3.97791516507E-5,6.544128135939E-6,-5.07662143512E-6,3.811375497003E-8},
    {-3.97030610987E-5,6.54411003826E-6,-5.10220876044E-6,3.811254821317E-8},
    {-3.97591541908E-5,6.54410232283E-6,-5.11928860034E-6,3.81150108234E-8},
    {-3.98237554317E-5,6.544117968142E-6,-5.13019226419E-6,3.810311090811E-8},
    {-3.97209064979E-5,6.544123686206E-6,-5.12236354517E-6,3.810312559303E-8},
    {-3.98384761002E-5,6.544093689376E-6,-5.09039770232E-6,3.811328331208E-8},
    {-3.97301689528E-5,6.544109106495E-6,-5.1181431591E-6,3.811088445153E-8},
    {-3.95732161944E-5,6.544161810234E-6,-5.1038808596E-6,3.810743813816E-8}}},
  {{2.35329243771E-15,1.2847266081E-15,1.91617112328E-14},{Residual->4.74829638194E-16}},
  {{-.6,8.10245342919E-15},{-.4,5.49586823807E-15},{-.2,3.26811014566E-15},{1.11022302463E-16,1.45208515337E-15},
   {.2,3.41592042901E-15},{.4,6.2534232627E-15},{.6,9.94630298677E-15}}},
 {"Y26",1,
  {4.452479089823E-8,6.545194506221E-6,1.250239556742E-8,3.768863321125E-8,{{-3.97562964465E-5,6.545212911281E-6,-5.0891102433E-6,
     3.767982603985E-8},
    {-3.98259399648E-5,6.54516803981E-6,-5.08740908744E-6,3.769805410825E-8},
    {-3.97200764807E-5,6.545225565911E-6,-5.07405058343E-6,3.767771118858E-8},
    {-3.98381126917E-5,6.545214922961E-6,-5.1110272929E-6,3.768830191492E-8},
    {-3.97541198331E-5,6.545210263828E-6,-5.0638395978E-6,3.768800883145E-8},
    {-3.97488446182E-5,6.545190607866E-6,-5.07729138367E-6,3.769059065277E-8},
    {-3.98355933599E-5,6.545209472679E-6,-5.07472177323E-6,3.768018642324E-8},
    {-3.96698003632E-5,6.545153322798E-6,-5.08391791838E-6,3.769920953972E-8},
    {-3.9770709246E-5,6.545191480283E-6,-5.05327770669E-6,3.768502315968E-8},
    {-3.97865218018E-5,6.54518336165E-6,-5.0734684383E-6,3.769337056377E-8},
    {-3.97707357052E-5,6.545205921248E-6,-5.06197752636E-6,3.768366170554E-8},
    {-3.97694930562E-5,6.545211705678E-6,-5.08166551821E-6,3.76791916587E-8},
    {-3.97973577422E-5,6.545154919817E-6,-5.07735391582E-6,3.770290950636E-8},
    {-3.97932573873E-5,6.545159193874E-6,-5.09665691874E-6,3.769699011586E-8},
    {-3.9747889418E-5,6.5452022664E-6,-5.08219100398E-6,3.768824617726E-8},
    {-3.97325887067E-5,6.545183319911E-6,-5.0796250165E-6,3.768938140176E-8},
    {-3.97265240575E-5,6.5452042258E-6,-5.08684763698E-6,3.768909444313E-8},
    {-3.97569290824E-5,6.545185125288E-6,-5.08171696964E-6,3.769589971267E-8},
    {-3.97535684499E-5,6.54523655909E-6,-5.08243144508E-6,3.767453937866E-8},
    {-3.96704528399E-5,6.545186938258E-6,-5.09611973373E-6,3.76924677028E-8}}},
  {{1.66955486548E-15,-2.281600087E-15,2.93817395815E-14},{Residual->1.28354094306E-16}},
  {{-.3,4.88111829366E-15},{-.2,3.48402501976E-15},{-.1,2.29392989167E-15},{5.55111512313E-17,1.45217809617E-15},
   {.1,1.7032486978E-15},{.2,2.48420755546E-15},{.3,3.61506358665E-15}}},
 {"Y66",1,
  {7.300052819769E-8,6.545189959035E-6,1.776346109192E-8,3.768927585539E-8,{{-3.97814315373E-5,6.545185624765E-6,-5.08894572536E-6,
     3.769100900602E-8},
    {-3.98144827428E-5,6.545172692543E-6,-5.10092686526E-6,3.769598325109E-8},
    {-3.96679206354E-5,6.545224154182E-6,-5.09001716834E-6,3.767565138972E-8},
    {-3.98216711821E-5,6.545139304119E-6,-5.06120422349E-6,3.769561842543E-8},
    {-3.95875863257E-5,6.545196347381E-6,-5.09373382323E-6,3.768656979411E-8},
    {-3.96883760345E-5,6.54518185353E-6,-5.08110998618E-6,3.769524653057E-8},
    {-3.97051291295E-5,6.545179881382E-6,-5.06325002867E-6,3.769270467755E-8},
    {-3.98401429036E-5,6.545196329201E-6,-5.1180169478E-6,3.768682022532E-8},
    {-3.97295689375E-5,6.545178405212E-6,-5.07385276036E-6,3.769634550519E-8},
    {-3.97652856934E-5,6.54517097387E-6,-5.05843419139E-6,3.769642620008E-8},
    {-3.9891950745E-5,6.545176418978E-6,-5.10918403712E-6,3.769638386441E-8},
    {-3.96363096022E-5,6.545238089342E-6,-5.10246005449E-6,3.767588094117E-8},
    {-3.98272471121E-5,6.545192954733E-6,-5.08421411464E-6,3.768146915811E-8},
    {-3.97748267271E-5,6.545190229513E-6,-5.10733904635E-6,3.769097518269E-8},
    {-3.97594494312E-5,6.54519933821E-6,-5.07374020097E-6,3.768495430432E-8},
    {-3.97731450078E-5,6.545172007679E-6,-5.0771180423E-6,3.76978793729E-8},
    {-3.97126542668E-5,6.545177183172E-6,-5.08194883058E-6,3.769869887817E-8},
    {-3.96755305751E-5,6.545207146627E-6,-5.08289188295E-6,3.768590503924E-8},
    {-3.97112009516E-5,6.545193746539E-6,-5.05818417743E-6,3.768337718896E-8},
    {-3.97290470639E-5,6.545226499714E-6,-5.11087806696E-6,3.767761817265E-8}}},
  {{3.24605670257E-15,9.76863532647E-16,5.91432096365E-13},{Residual->8.24136337793E-16}},
  {{-.2,2.65348940972E-14},{-.15,1.65747252935E-14},{-.1,9.7505496524E-15},{-.05,4.74614189914E-15},{0,1.42064066774E-15},
   {.05,4.84894589257E-15},{.1,1.0281376589E-14},{.15,1.74583177449E-14},{.2,2.63137329414E-14}}},
 {"Y44",1,
  {6.249974915928E-8,6.545230704342E-6,1.507850744048E-8,3.764397984942E-8,{{-3.98457378747E-5,6.545190222723E-6,-5.08222745838E-6,
     3.764549816729E-8},
    {-3.96641181177E-5,6.545255359089E-6,-5.08101138643E-6,3.765182738115E-8},
    {-3.96215366806E-5,6.545211397214E-6,-5.08025321512E-6,3.764256548627E-8},
    {-3.97782790189E-5,6.545251488444E-6,-5.07144116426E-6,3.764774142468E-8},
    {-3.98307798217E-5,6.545218414523E-6,-5.09625343765E-6,3.764351836258E-8},
    {-3.97105819832E-5,6.545261626447E-6,-5.07765791974E-6,3.764301270649E-8},
    {-3.97664113403E-5,6.545245375748E-6,-5.08905238956E-6,3.764059652313E-8},
    {-3.9654882813E-5,6.545238433975E-6,-5.08038752927E-6,3.763990199838E-8},
    {-3.97350829894E-5,6.545228812312E-6,-5.07706378883E-6,3.764515477191E-8},
    {-3.96398098898E-5,6.545207838213E-6,-5.11514725995E-6,3.764320371274E-8},
    {-3.97738013873E-5,6.545209165481E-6,-5.07617892369E-6,3.764575461196E-8},
    {-3.97884261988E-5,6.545229362061E-6,-5.10177098687E-6,3.764764513648E-8},
    {-3.98000282474E-5,6.545214789136E-6,-5.06542639189E-6,3.764338976322E-8},
    {-3.96902826873E-5,6.545215359187E-6,-5.05407846979E-6,3.764328517607E-8},
    {-3.97076102649E-5,6.545245320089E-6,-5.06832500898E-6,3.764178819007E-8},
    {-3.97428091702E-5,6.545231149031E-6,-5.10117574698E-6,3.764359244641E-8},
    {-3.98136080755E-5,6.545190564995E-6,-5.07720114639E-6,3.764520409587E-8},
    {-3.97404322192E-5,6.545247676828E-6,-5.08594002541E-6,3.764737960872E-8},
    {-3.9756072282E-5,6.545224160463E-6,-5.05127342386E-6,3.764133698264E-8},
    {-3.96910321846E-5,6.545297570878E-6,-5.08814188218E-6,3.763720044227E-8}}},
  {{1.76904691443E-15,-3.9014386722E-17,1.20231298348E-14},{Residual->1.91902262514E-16}},
  {{-.6,5.98230224865E-15},{-.4,3.91566608322E-15},{-.2,2.4391592951E-15},{1.11022302463E-16,1.42056802181E-15},
   {.2,2.20337421808E-15},{.4,3.86894842339E-15},{.6,6.01921552566E-15}}},
 {"AY",1,
  {6.895823598567E-8,6.545218856808E-6,1.618428034538E-8,3.767657850944E-8,{{-3.99161765703E-5,6.545228026255E-6,-5.06983067797E-6,
     3.767689410121E-8},
    {-3.98699760171E-5,6.54525788385E-6,-5.09932117287E-6,3.767725369594E-8},
    {-3.98278465555E-5,6.545205956838E-6,-5.0815838976E-6,3.768049474146E-8},
    {-3.97320609606E-5,6.545184195231E-6,-5.12220278395E-6,3.767615483992E-8},
    {-3.98000128086E-5,6.545204236125E-6,-5.10154038225E-6,3.76815308518E-8},
    {-3.97278774569E-5,6.545199847767E-6,-5.08634147656E-6,3.768314772892E-8},
    {-3.98382991722E-5,6.545228021895E-6,-5.09122184493E-6,3.767954079683E-8},
    {-3.96906037444E-5,6.545189156733E-6,-5.07700543991E-6,3.766754359201E-8},
    {-3.96719047683E-5,6.545204929489E-6,-5.09152976479E-6,3.767228704967E-8},
    {-3.98131909344E-5,6.545224152406E-6,-5.07522450058E-6,3.767465757394E-8},
    {-3.97617701672E-5,6.545189101931E-6,-5.05991735227E-6,3.767528997977E-8},
    {-3.96689982965E-5,6.545259183225E-6,-5.09162175818E-6,3.768041143374E-8},
    {-3.9779058481E-5,6.545181820041E-6,-5.07354068022E-6,3.767877105606E-8},
    {-3.9721209098E-5,6.545213612054E-6,-5.10966671335E-6,3.767384109477E-8},
    {-3.96509607401E-5,6.545233167904E-6,-5.06974941275E-6,3.767922221004E-8},
    {-3.97923033584E-5,6.545216110957E-6,-5.07552982649E-6,3.766996266079E-8},
    {-3.97654510591E-5,6.545249833505E-6,-5.0530290613E-6,3.767347678531E-8},
    {-3.97714344797E-5,6.545257439261E-6,-5.07599599057E-6,3.768004214335E-8},
    {-3.97190790765E-5,6.545207482102E-6,-5.09137719863E-6,3.767372846487E-8},
    {-3.96955433772E-5,6.545242978591E-6,-5.07828700326E-6,3.767731938831E-8}}},
  {{1.34273581898E-15,1.93289138636E-15,1.06852279726E-12},{Residual->5.44199583152E-17}},
  {{-.04,2.93536237024E-15},{-.01,1.51242687521E-15},{.02,1.80046530788E-15},{.05,4.03963630137E-15},{.08,8.37282814864E-15}}},
 {"EY",1,
  {6.662036584118E-8,6.54548221497E-6,1.674997141059E-8,3.779690647766E-8,{{-4.32674005284E-5,6.545484946133E-6,-4.4302286902E-6,
     3.779549342025E-8},
    {-4.32781852193E-5,6.545499200909E-6,-4.40219280357E-6,3.780710807161E-8},
    {-4.32507754879E-5,6.545489332549E-6,-4.41378086138E-6,3.77979592423E-8},
    {-4.32737960466E-5,6.54544145782E-6,-4.43275142866E-6,3.77896949785E-8},
    {-4.33377420407E-5,6.54547658352E-6,-4.43692590508E-6,3.779566312619E-8},
    {-4.31883016027E-5,6.54548782786E-6,-4.42798240285E-6,3.77951129749E-8},
    {-4.31891228111E-5,6.545498999007E-6,-4.39674372838E-6,3.780142505765E-8},
    {-4.3170787924E-5,6.545410222017E-6,-4.40320734325E-6,3.779130480657E-8},
    {-4.31296427741E-5,6.545497608982E-6,-4.43298014609E-6,3.779552547432E-8},
    {-4.32037305055E-5,6.545509612658E-6,-4.39937678836E-6,3.780847171459E-8},
    {-4.31227079283E-5,6.545495797096E-6,-4.41162283799E-6,3.779448379249E-8},
    {-4.31513839284E-5,6.545496833567E-6,-4.42509744193E-6,3.779741052319E-8},
    {-4.31795755713E-5,6.545437984603E-6,-4.43379074072E-6,3.779011947891E-8},
    {-4.31558145571E-5,6.545495667493E-6,-4.44439236443E-6,3.779450247025E-8},
    {-4.31193835947E-5,6.545516794668E-6,-4.44085724847E-6,3.780849146051E-8},
    {-4.31054491605E-5,6.54550997692E-6,-4.45032292397E-6,3.780293979188E-8},
    {-4.31374775883E-5,6.545458850111E-6,-4.42118561055E-6,3.778891902107E-8},
    {-4.32047975127E-5,6.545491318411E-6,-4.40745908176E-6,3.779817041816E-8},
    {-4.31201511782E-5,6.545493699226E-6,-4.41920683271E-6,3.779339501037E-8},
    {-4.32963132673E-5,6.545451585847E-6,-4.39087542396E-6,3.779193871948E-8}}},
  {{1.41253727062E-15,2.87121241723E-15,5.68439784302E-13},{Residual->2.02705781099E-17}},
  {{-.1,6.8221972703E-15},{-.07,3.99412716103E-15},{-.04,2.17683052347E-15},{-.01,1.44796183937E-15},{.02,1.69968158024E-15},
   {.05,3.01167906207E-15},{.08,5.25688900208E-15}}},
 {"R32",1,
  {5.620095963979E-8,6.546059373309E-6,1.91111804227E-8,3.782399709599E-8,{{-4.15340683612E-5,6.546062063489E-6,-4.37495181081E-6,
     3.78219321593E-8},
    {-4.15512181135E-5,6.546046852387E-6,-4.30789727211E-6,3.782514052811E-8},
    {-4.14053809628E-5,6.546081912414E-6,-4.30957498329E-6,3.781697926254E-8},
    {-4.14999749654E-5,6.546054454567E-6,-4.33826406592E-6,3.782254241581E-8},
    {-4.14575982205E-5,6.546068879236E-6,-4.31205032116E-6,3.782560116911E-8},
    {-4.14908318823E-5,6.546047853765E-6,-4.29205016934E-6,3.782380324111E-8},
    {-4.15736849551E-5,6.546049069475E-6,-4.31172679605E-6,3.782219466312E-8},
    {-4.14743466734E-5,6.546104236562E-6,-4.34238611858E-6,3.782715157672E-8},
    {-4.15353034702E-5,6.546076932198E-6,-4.295432137E-6,3.783020896013E-8},
    {-4.15859314065E-5,6.546060628628E-6,-4.32153495522E-6,3.782559421014E-8},
    {-4.1431744518E-5,6.546067217648E-6,-4.34419848475E-6,3.782281702324E-8},
    {-4.14791433815E-5,6.546027044267E-6,-4.32928217452E-6,3.782351533336E-8},
    {-4.16109890948E-5,6.546055977862E-6,-4.31607365575E-6,3.78255940399E-8},
    {-4.1476420133E-5,6.546072579969E-6,-4.31599968794E-6,3.782835155227E-8},
    {-4.14870436385E-5,6.546056336227E-6,-4.31228328829E-6,3.782764902972E-8},
    {-4.14750926572E-5,6.546028644779E-6,-4.33278613768E-6,3.781875165038E-8},
    {-4.13947175225E-5,6.546083021468E-6,-4.29747734619E-6,3.782189140024E-8},
    {-4.15579947145E-5,6.546039352288E-6,-4.33052302829E-6,3.782183149649E-8},
    {-4.1492502321E-5,6.546050830661E-6,-4.33014798331E-6,3.782243440164E-8},
    {-4.14759459608E-5,6.54605357829E-6,-4.31196139078E-6,3.782595780648E-8}}},
  {{1.38545054738E-15,-4.1862109359E-15,7.32802849928E-13},{Residual->3.56838914851E-17}},
  {{-.1,9.14727533863E-15},{-.07,5.28409571795E-15},{-.04,2.65194597414E-15},{-.01,1.5089576387E-15},{.02,1.63398642114E-15},
   {.05,3.03309201932E-15},{.08,5.71142930041E-15}}},
 {"Y24",1,
  {5.784766460913E-8,6.544747883784E-6,1.393911870326E-8,3.782564404391E-8,{{-4.08373406215E-5,6.544782150578E-6,-4.7480508897E-6,
     3.78208273009E-8},
    {-4.08621940677E-5,6.544745214266E-6,-4.74543280188E-6,3.782411451675E-8},
    {-4.07645271326E-5,6.544783752291E-6,-4.75520721927E-6,3.782184370869E-8},
    {-4.07810406766E-5,6.544725995561E-6,-4.75094344638E-6,3.783040347931E-8},
    {-4.06768423038E-5,6.544724189864E-6,-4.74117159981E-6,3.78209653002E-8},
    {-4.0751108062E-5,6.544780939708E-6,-4.77586708136E-6,3.782054215085E-8},
    {-4.0779118012E-5,6.544773147834E-6,-4.75837392857E-6,3.782215956346E-8},
    {-4.0897314326E-5,6.544730815559E-6,-4.7801634605E-6,3.78255021575E-8},
    {-4.0902915915E-5,6.544761096097E-6,-4.75606773142E-6,3.782286566139E-8},
    {-4.07279267703E-5,6.544702056815E-6,-4.76024807018E-6,3.782999435717E-8},
    {-4.07838576127E-5,6.54470824909E-6,-4.75627784235E-6,3.782814378497E-8},
    {-4.07489804862E-5,6.544699324282E-6,-4.78586205622E-6,3.783033767588E-8},
    {-4.08157357316E-5,6.544702685743E-6,-4.75938284815E-6,3.783235810666E-8},
    {-4.07984635673E-5,6.54479617969E-6,-4.7407112767E-6,3.782189548695E-8},
    {-4.08712926431E-5,6.544732062306E-6,-4.74179568495E-6,3.78273713554E-8},
    {-4.0816875349E-5,6.544761299099E-6,-4.77824160784E-6,3.782186002629E-8},
    {-4.08330383808E-5,6.544862304744E-6,-4.74104581657E-6,3.782403928959E-8},
    {-4.08592500911E-5,6.544704488306E-6,-4.76806535021E-6,3.783269118345E-8},
    {-4.08210150444E-5,6.544773675286E-6,-4.75317060015E-6,3.782372818293E-8},
    {-4.08728363481E-5,6.544708048564E-6,-4.77564401303E-6,3.783123758978E-8}}},
  {{1.43140303602E-15,-2.4297403741E-17,1.92691489095E-15},{Residual->2.5476700601E-18}},
  {{-.3,1.60988575418E-15},{-.2,1.51476134418E-15},{-.1,1.45677297844E-15},{5.55111512313E-17,1.43121312086E-15},
   {.1,1.44599620063E-15},{.2,1.50026007167E-15},{.3,1.60046795163E-15}}},
 {"Y46",1,
  {4.749262823413E-8,6.550285035322E-6,2.167525279695E-8,3.737717655691E-8,{{-4.08409770172E-5,6.5502064617E-6,-4.75766847153E-6,
     3.738144108031E-8},
    {-4.07870514065E-5,6.550284026265E-6,-4.79993067962E-6,3.737672092389E-8},
    {-4.07472473707E-5,6.550335861151E-6,-4.76768106901E-6,3.737074829527E-8},
    {-4.06740859993E-5,6.550292349634E-6,-4.77872412179E-6,3.737673515584E-8},
    {-4.07614921619E-5,6.550259618077E-6,-4.74862012594E-6,3.738327367161E-8},
    {-4.07904009172E-5,6.550225972415E-6,-4.73875144883E-6,3.73835870102E-8},
    {-4.0707828941E-5,6.550346146109E-6,-4.75768934302E-6,3.736859833069E-8},
    {-4.07901308107E-5,6.5502811327E-6,-4.77803901783E-6,3.737651849506E-8},
    {-4.07723709597E-5,6.550230107525E-6,-4.80888977223E-6,3.738041186217E-8},
    {-4.07523861609E-5,6.550353668197E-6,-4.76165868702E-6,3.736348624015E-8},
    {-4.07874374706E-5,6.550266626409E-6,-4.76288063745E-6,3.738029561957E-8},
    {-4.07247223163E-5,6.550364690236E-6,-4.77874896748E-6,3.736136390446E-8},
    {-4.08507968249E-5,6.550281356398E-6,-4.77461828796E-6,3.738235751438E-8},
    {-4.07361742166E-5,6.550296312395E-6,-4.76249460718E-6,3.737981730756E-8},
    {-4.07196535357E-5,6.550339781332E-6,-4.73114812756E-6,3.737010490715E-8},
    {-4.07867995664E-5,6.550285711195E-6,-4.73838485378E-6,3.738451689561E-8},
    {-4.08104223974E-5,6.550343676406E-6,-4.74827794264E-6,3.736876845224E-8},
    {-4.08514339524E-5,6.550219714606E-6,-4.76716679246E-6,3.738154714467E-8},
    {-4.08335842125E-5,6.550224106191E-6,-4.78608050507E-6,3.738576932809E-8},
    {-4.07568337545E-5,6.550263387503E-6,-4.72044847562E-6,3.738746899922E-8}}},
  {{1.44197468859E-15,8.74457009403E-16,6.77484748948E-15},{Residual->1.42779433405E-17}},
  {{-.45,2.42700134029E-15},{-.3,1.79164535743E-15},{-.15,1.44591486309E-15},{-5.5511151231E-17,1.43073116729E-15},
   {.15,1.74115961231E-15},{.3,2.33480376828E-15},{.45,3.19072062981E-15}}},
 {"Y22",1,
  {6.815219861283E-8,6.550283384296E-6,1.476077832296E-8,3.737925323288E-8,{{-4.07632484902E-5,6.550314785655E-6,-4.76193222341E-6,
     3.737635610568E-8},
    {-4.07164673812E-5,6.550299899423E-6,-4.75185345926E-6,3.738138335396E-8},
    {-4.079796079E-5,6.550262605362E-6,-4.77973181619E-6,3.737925840125E-8},
    {-4.06951084303E-5,6.550249399244E-6,-4.78731130483E-6,3.737922291972E-8},
    {-4.07506800169E-5,6.550311491161E-6,-4.77385663672E-6,3.737644571167E-8},
    {-4.07615729456E-5,6.550259187005E-6,-4.76193489015E-6,3.738221490912E-8},
    {-4.07314569207E-5,6.550309270197E-6,-4.75742176874E-6,3.737460601617E-8},
    {-4.07556847729E-5,6.550219680479E-6,-4.77240297742E-6,3.73797785636E-8},
    {-4.07473139827E-5,6.550340195616E-6,-4.74658558825E-6,3.737335588718E-8},
    {-4.07168809228E-5,6.550312067014E-6,-4.75501526138E-6,3.738114460959E-8},
    {-4.07521422507E-5,6.550221391994E-6,-4.76579670723E-6,3.738359171062E-8},
    {-4.07283629115E-5,6.550265214743E-6,-4.75425198997E-6,3.738228877312E-8},
    {-4.06392778E-5,6.550309091268E-6,-4.77261455893E-6,3.737490401581E-8},
    {-4.0639857863E-5,6.550266730828E-6,-4.74901602631E-6,3.738223220099E-8},
    {-4.09115781921E-5,6.55027725063E-6,-4.78899976948E-6,3.737912807494E-8},
    {-4.08433267718E-5,6.550282551451E-6,-4.76823074783E-6,3.73808380221E-8},
    {-4.08131609013E-5,6.550328058636E-6,-4.78582786966E-6,3.73734337202E-8},
    {-4.07809668393E-5,6.550287948846E-6,-4.76354998E-6,3.738216795155E-8},
    {-4.08983182193E-5,6.550288500668E-6,-4.7832527212E-6,3.737616011826E-8},
    {-4.07629023627E-5,6.550262365701E-6,-4.73268728851E-6,3.738655359207E-8}}},
  {{2.27395547253E-15,1.47931609865E-15,1.87773360046E-14},{Residual->4.42344228079E-16}},
  {{-.6,7.87483897113E-15},{-.4,5.19177904324E-15},{-.2,2.97302137944E-15},{1.11022302463E-16,1.39699211178E-15},
   {.2,3.50754265968E-15},{.4,6.25466753073E-15},{.6,9.74946293687E-15}}},
 {"Y26",1,
  {6.540864541576E-8,6.550306286591E-6,1.413587379936E-8,3.73762042163E-8,{{-4.06089474511E-5,6.550322286317E-6,-4.75781207718E-6,
     3.737782849017E-8},
    {-4.07060576178E-5,6.550332284391E-6,-4.76407079391E-6,3.737304123745E-8},
    {-4.07404089875E-5,6.550319625718E-6,-4.74947088899E-6,3.737583435208E-8},
    {-4.07158249175E-5,6.550346273794E-6,-4.75391432155E-6,3.736928081091E-8},
    {-4.07016417423E-5,6.550219316859E-6,-4.7737922509E-6,3.738019125536E-8},
    {-4.0690959276E-5,6.550231436544E-6,-4.74138862542E-6,3.738332955418E-8},
    {-4.0851973959E-5,6.550284262121E-6,-4.78219803635E-6,3.738167653527E-8},
    {-4.08708433007E-5,6.55030627807E-6,-4.75454804281E-6,3.73779804168E-8},
    {-4.07596677865E-5,6.55033714613E-6,-4.7484202791E-6,3.737288789674E-8},
    {-4.08114284272E-5,6.550317506923E-6,-4.73828275318E-6,3.737856430494E-8},
    {-4.07809753437E-5,6.550351867452E-6,-4.73297984985E-6,3.737074335302E-8},
    {-4.08433769312E-5,6.550321048643E-6,-4.74118225759E-6,3.73756288591E-8},
    {-4.07336748897E-5,6.550316285973E-6,-4.76966161596E-6,3.737498177476E-8},
    {-4.07528742752E-5,6.550263739485E-6,-4.76033149589E-6,3.738063305169E-8},
    {-4.0845079347E-5,6.550315341131E-6,-4.7528236207E-6,3.737783004211E-8},
    {-4.083374377E-5,6.550351504776E-6,-4.73737919571E-6,3.736933418699E-8},
    {-4.07858255406E-5,6.550226158147E-6,-4.76281867044E-6,3.738348096427E-8},
    {-4.07941845044E-5,6.550309768439E-6,-4.78484344462E-6,3.737646480524E-8},
    {-4.07200717342E-5,6.550346672733E-6,-4.75201667244E-6,3.736924298702E-8},
    {-4.0716369614E-5,6.550306928165E-6,-4.76525682831E-6,3.737512944794E-8}}},
  {{1.60085903085E-15,-4.1703152412E-16,3.00141572182E-14},{Residual->1.11669450515E-16}},
  {{-.3,4.39323909582E-15},{-.2,2.99102935312E-15},{-.1,1.93980164202E-15},{5.55111512313E-17,1.39704469025E-15},
   {.1,1.93622899432E-15},{.2,2.86024001067E-15},{.3,4.09239345084E-15}}},
 {"Y66",1,
  {6.218301894904E-8,6.550286874702E-6,1.360709816244E-8,3.73786402878E-8,{{-4.07849081803E-5,6.550284765874E-6,-4.75582735456E-6,
     3.738380947664E-8},
    {-4.07937170334E-5,6.550271631562E-6,-4.73118487851E-6,3.738588542976E-8},
    {-4.07554969064E-5,6.550262520872E-6,-4.78781773678E-6,3.738001157988E-8},
    {-4.08439250978E-5,6.550242020835E-6,-4.7619457608E-6,3.73808336195E-8},
    {-4.07510585776E-5,6.55030749784E-6,-4.77322984746E-6,3.737611196816E-8},
    {-4.07893056613E-5,6.55027983887E-6,-4.75403844389E-6,3.738222199861E-8},
    {-4.0793029691E-5,6.55025661913E-6,-4.77161265914E-6,3.738093947164E-8},
    {-4.07862656057E-5,6.55022623049E-6,-4.78771766878E-6,3.737862534828E-8},
    {-4.06342230971E-5,6.550320368545E-6,-4.78352455071E-6,3.737295076308E-8},
    {-4.0680873415E-5,6.550315160917E-6,-4.77388302443E-6,3.737531629284E-8},
    {-4.07662993613E-5,6.550315520814E-6,-4.77835298208E-6,3.737443186472E-8},
    {-4.0749067056E-5,6.550259848177E-6,-4.75883146765E-6,3.738329057266E-8},
    {-4.06610731182E-5,6.550336983353E-6,-4.76004806713E-6,3.737210855262E-8},
    {-4.07628108554E-5,6.550247554461E-6,-4.75667193858E-6,3.738030103568E-8},
    {-4.07458363348E-5,6.550330613263E-6,-4.77217263493E-6,3.73756302384E-8},
    {-4.07204830845E-5,6.550282901148E-6,-4.76736075225E-6,3.738421686547E-8},
    {-4.06880258019E-5,6.55030808665E-6,-4.7736913316E-6,3.737662877713E-8},
    {-4.06822961861E-5,6.550317301495E-6,-4.76011136282E-6,3.737445254717E-8},
    {-4.06992766955E-5,6.550243313165E-6,-4.77864614983E-6,3.738154241276E-8},
    {-4.08991331533E-5,6.550328716581E-6,-4.78436788201E-6,3.737349694103E-8}}},
  {{3.36163545063E-15,2.21554815937E-15,5.72952904598E-13},{Residual->9.17630657917E-16}},
  {{-.2,2.53445345885E-14},{-.15,1.6510563927E-14},{-.1,9.67985396427E-15},{-.05,4.70991329841E-15},{0,1.39702217799E-15},
   {.05,4.81088778414E-15},{.1,1.03545070717E-14},{.15,1.74552938205E-14},{.2,2.59350781129E-14}}},
 {"Y44",1,
  {5.949376276159E-8,6.550294738263E-6,1.63156162213E-8,3.737958047974E-8,{{-4.08230206494E-5,6.550310821256E-6,-4.75867319793E-6,
     3.738304126638E-8},
    {-4.07631633074E-5,6.550305143442E-6,-4.75681427736E-6,3.738080012715E-8},
    {-4.06820748539E-5,6.55033945452E-6,-4.78357952453E-6,3.737286726907E-8},
    {-4.0740893813E-5,6.550371309819E-6,-4.75072791952E-6,3.736800311941E-8},
    {-4.07668121223E-5,6.550285978891E-6,-4.77154673382E-6,3.738204740525E-8},
    {-4.06902476862E-5,6.550311871756E-6,-4.7427404975E-6,3.738417006953E-8},
    {-4.06805659863E-5,6.550232898038E-6,-4.78202937123E-6,3.737901631206E-8},
    {-4.07968044959E-5,6.550271576541E-6,-4.78446234929E-6,3.738152853722E-8},
    {-4.07252465899E-5,6.550360155631E-6,-4.75956450008E-6,3.736946639106E-8},
    {-4.07598973306E-5,6.550263976684E-6,-4.74191385301E-6,3.738276939199E-8},
    {-4.08378836375E-5,6.550340287122E-6,-4.79074007791E-6,3.73696710129E-8},
    {-4.07688583895E-5,6.550330630328E-6,-4.7706244089E-6,3.737520480452E-8},
    {-4.07904190942E-5,6.550271734457E-6,-4.75404931956E-6,3.738353864928E-8},
    {-4.07483603907E-5,6.550236601551E-6,-4.78149529091E-6,3.737879234816E-8},
    {-4.08090586565E-5,6.55026942543E-6,-4.76298646755E-6,3.738266502678E-8},
    {-4.08118003546E-5,6.550299104048E-6,-4.75350487371E-6,3.73840885614E-8},
    {-4.08191576429E-5,6.550252393965E-6,-4.73744516061E-6,3.738449074899E-8},
    {-4.06726919967E-5,6.550298426822E-6,-4.75328007809E-6,3.738245154299E-8},
    {-4.07324615442E-5,6.550280628175E-6,-4.74148542062E-6,3.738473585513E-8},
    {-4.09125865765E-5,6.550262346791E-6,-4.78248885451E-6,3.738226115553E-8}}},
  {{1.76247640373E-15,9.91724080778E-17,1.20749104544E-14},{Residual->1.96755129873E-16}},
  {{-.6,5.92793449965E-15},{-.4,3.85154604046E-15},{-.2,2.38785064536E-15},{1.11022302463E-16,1.39731965929E-15},
   {.2,2.25006777604E-15},{.4,3.95950380827E-15},{.6,6.08701210596E-15}}},
 {"OCT1",1,
  {5.801646742993E-8,6.579811753852E-6,1.710703400447E-8,3.713949712358E-8,{{-4.07285997434E-5,6.579811967695E-6,-4.72932198465E-6,
     3.713992905146E-8},
    {-4.07748214604E-5,6.57978822112E-6,-4.77352090867E-6,3.714667336427E-8},
    {-4.07652779764E-5,6.579804912717E-6,-4.75383891018E-6,3.714510335687E-8},
    {-4.06908746185E-5,6.579807034553E-6,-4.76663662886E-6,3.714155808533E-8},
    {-4.06666769064E-5,6.579819365774E-6,-4.75187066111E-6,3.714689569621E-8},
    {-4.07545205917E-5,6.579796231064E-6,-4.76325508565E-6,3.714485710297E-8},
    {-4.08743607966E-5,6.579791537517E-6,-4.7545693894E-6,3.714337438309E-8},
    {-4.07616833135E-5,6.57983769154E-6,-4.76924328082E-6,3.713146407953E-8},
    {-4.07895153189E-5,6.579824477336E-6,-4.75414012431E-6,3.713212843214E-8},
    {-4.07070718721E-5,6.579801213327E-6,-4.79022130858E-6,3.714965905269E-8},
    {-4.06975393425E-5,6.579812627369E-6,-4.75088630123E-6,3.713749505679E-8},
    {-4.0587515044E-5,6.579837796704E-6,-4.76035453346E-6,3.713022210747E-8},
    {-4.07163407877E-5,6.579816236063E-6,-4.74967257079E-6,3.713873887254E-8},
    {-4.0637740584E-5,6.579803534926E-6,-4.74481904014E-6,3.714567761754E-8},
    {-4.06945714075E-5,6.579824682172E-6,-4.79602614885E-6,3.713149073391E-8},
    {-4.07059604694E-5,6.579800256225E-6,-4.77697235026E-6,3.713981608127E-8},
    {-4.07339194702E-5,6.579813492853E-6,-4.76563966399E-6,3.712877332011E-8},
    {-4.07495983867E-5,6.579808766729E-6,-4.75143985433E-6,3.714356591619E-8},
    {-4.07312674448E-5,6.579816933036E-6,-4.72288942397E-6,3.713491973274E-8},
    {-4.07077595749E-5,6.579818098317E-6,-4.75355208749E-6,3.713760042847E-8}}},
  {{1.41617610454E-15,-3.0223870062E-19,2.44828348155E-21},{Residual->1.73763786284E-17}},
  {{-370,1.83515674879E-15},{-296,1.7288438173E-15},{-222,1.63027382284E-15},{-148,1.53696537149E-15},{-74,1.45901894027E-15},
   {0,1.39710528064E-15},{74,1.38239950973E-15},{148,1.41546109421E-15},{222,1.4718791596E-15},{296,1.55230967354E-15},
   {370,1.64330185423E-15}}},
 {"OCT2",1,
  {6.041212958322E-8,6.58281931244E-6,1.601600880217E-8,3.710494810398E-8,{{-4.06628050718E-5,6.582843749664E-6,-4.7675530611E-6,
     3.70989061811E-8},
    {-4.07343475816E-5,6.582843272068E-6,-4.78444648669E-6,3.709250207215E-8},
    {-4.07741213663E-5,6.582786519967E-6,-4.80734692913E-6,3.711709688867E-8},
    {-4.08198165725E-5,6.582823337705E-6,-4.79103563698E-6,3.70990236054E-8},
    {-4.08003206049E-5,6.5827887897E-6,-4.77666272321E-6,3.711888125005E-8},
    {-4.0776548337E-5,6.582797427811E-6,-4.7954806592E-6,3.711958436096E-8},
    {-4.06122389381E-5,6.582830686687E-6,-4.77429595129E-6,3.710250000269E-8},
    {-4.07633096862E-5,6.582805561078E-6,-4.74836850641E-6,3.711526822558E-8},
    {-4.07226842014E-5,6.582847291307E-6,-4.78069064799E-6,3.709143496222E-8},
    {-4.06437107754E-5,6.582864085792E-6,-4.79206237434E-6,3.709054881243E-8},
    {-4.07823958532E-5,6.582822842944E-6,-4.74324670444E-6,3.710105201005E-8},
    {-4.08021370241E-5,6.582844300647E-6,-4.75567637387E-6,3.70912427074E-8},
    {-4.07690621062E-5,6.582793686557E-6,-4.7887763431E-6,3.711966357553E-8},
    {-4.07349636413E-5,6.582822292865E-6,-4.76536579787E-6,3.710578340146E-8},
    {-4.07703199362E-5,6.582820431579E-6,-4.76105476662E-6,3.70991912041E-8},
    {-4.08749858419E-5,6.582817539045E-6,-4.77378285216E-6,3.709781646723E-8},
    {-4.07038301571E-5,6.582804057716E-6,-4.75954728684E-6,3.711547711958E-8},
    {-4.07680525013E-5,6.582822526985E-6,-4.76366231745E-6,3.710156423476E-8},
    {-4.07591698485E-5,6.582812896987E-6,-4.77838188352E-6,3.710887505216E-8},
    {-4.07015512846E-5,6.582794951694E-6,-4.77205813883E-6,3.711254994602E-8}}},
  {{1.37981347322E-15,-5.3285544502E-20,2.41755270314E-22},{Residual->1.13169922222E-18}},
  {{-370,1.43186182784E-15},{-296,1.41685837537E-15},{-222,1.40385218727E-15},{-148,1.39438112902E-15},{-74,1.38487051785E-15},
   {0,1.37949152502E-15},{74,1.37734985583E-15},{148,1.37711033164E-15},{222,1.37996272812E-15},{296,1.38258477901E-15},
   {370,1.3952779654E-15}}}}
