{{"FD",1,{6.216297030729E-7,1.268216546339E-5,-5.27545766487E-6,6.83728663171E-7}},
 {"EX2",1,{-3.7513215678E-5,1.116074943502E-5,-5.54810178079E-6,1.077053585165E-6}},
 {"FD",1,{-3.74793717223E-5,1.114256699632E-5,-5.40430432203E-6,6.796028703652E-7}},
 {"AY",1,{5.195689377617E-8,1.076829331808E-5,2.177658374312E-8,8.272068463026E-7,
   {{-3.8514347246E-5,1.076835516101E-5,-4.11470418232E-6,8.272689632974E-7},
    {-3.84349146375E-5,1.076817552235E-5,-4.09355063088E-6,8.271672365157E-7},
    {-3.84912575014E-5,1.076837581271E-5,-4.12259566146E-6,8.272993495792E-7},
    {-3.84199357982E-5,1.076826919361E-5,-4.0995505019E-6,8.2720747537E-7},
    {-3.84643719696E-5,1.076831244467E-5,-4.11052122157E-6,8.272310640264E-7},
    {-3.84436114073E-5,1.076810384267E-5,-4.12701058934E-6,8.270612139383E-7},
    {-3.85023273704E-5,1.076833074137E-5,-4.10584419785E-6,8.272530778351E-7},
    {-3.85347936491E-5,1.076839094896E-5,-4.07776923279E-6,8.271947549716E-7},
    {-3.86094072125E-5,1.07682405261E-5,-4.07819050599E-6,8.271176506722E-7},
    {-3.84939553094E-5,1.076820623207E-5,-4.08026648407E-6,8.27167420553E-7},
    {-3.8541985467E-5,1.07682697619E-5,-4.11707298687E-6,8.272283691283E-7},
    {-3.83977261242E-5,1.076829531102E-5,-4.08572971563E-6,8.272298629897E-7},
    {-3.84636478401E-5,1.076814439246E-5,-4.14730072276E-6,8.270919679552E-7},
    {-3.84109396513E-5,1.076830684786E-5,-4.11937986109E-6,8.272741032167E-7},
    {-3.84650499396E-5,1.076839665311E-5,-4.12054018151E-6,8.272621120754E-7},
    {-3.84999587694E-5,1.076851598162E-5,-4.16394718664E-6,8.271287627764E-7},
    {-3.84374620265E-5,1.076817106147E-5,-4.12204483221E-6,8.270933835466E-7},
    {-3.83919935473E-5,1.076835052566E-5,-4.09905677054E-6,8.272490083917E-7},
    {-3.84787639254E-5,1.076830875232E-5,-4.09352159882E-6,8.27305010374E-7},
    {-3.8476870665E-5,1.076834664861E-5,-4.11308010607E-6,8.273061388394E-7}}},
  {{6.83514970131E-13,-1.1167565259E-13,4.74713577706E-12},{Residual->2.35868480927E-15}},
  {{-.5,1.92671579285E-12},{-.35,1.30124734227E-12},{-.2,8.9811751254E-13},{-.05,7.03084247542E-13},{.1,7.19270518977E-13},
   {.25,9.48424522968E-13},{.4,1.40060174783E-12}}},
 {"EY",1,
  {5.665226973705E-8,1.050946047513E-5,1.635856686981E-8,1.42312767614E-7,{{-3.60055893279E-5,1.050948692189E-5,-2.45807592856E-6,
     1.4227939384E-7},
    {-3.58940845576E-5,1.050948255991E-5,-2.45778840401E-6,1.422843302779E-7},
    {-3.60718106698E-5,1.050947976579E-5,-2.45601607247E-6,1.422918854981E-7},
    {-3.59336891044E-5,1.050955349228E-5,-2.45559210391E-6,1.422030027032E-7},
    {-3.58451394602E-5,1.050937640231E-5,-2.4550965552E-6,1.42395726311E-7},
    {-3.59272944807E-5,1.050941767637E-5,-2.45119678713E-6,1.423664649728E-7},
    {-3.58833692535E-5,1.050949415188E-5,-2.45224664634E-6,1.422872085496E-7},
    {-3.59629819357E-5,1.050942662849E-5,-2.46625742773E-6,1.423190037154E-7},
    {-3.58854335129E-5,1.050937977898E-5,-2.40849191726E-6,1.424013305601E-7},
    {-3.58555728029E-5,1.050955394562E-5,-2.44331535105E-6,1.4222943961E-7},
    {-3.5879141804E-5,1.050951080149E-5,-2.44887356791E-6,1.422624454464E-7},
    {-3.58933768222E-5,1.050939967967E-5,-2.44581714188E-6,1.423891298156E-7},
    {-3.59322241358E-5,1.050933748284E-5,-2.44692917944E-6,1.424319405171E-7},
    {-3.59087668743E-5,1.050947753847E-5,-2.44969831011E-6,1.423026536561E-7},
    {-3.59409147713E-5,1.050940420124E-5,-2.45048101662E-6,1.42367214971E-7},
    {-3.6030809064E-5,1.05094538024E-5,-2.4546779856E-6,1.423150306589E-7},
    {-3.59688312198E-5,1.050949036963E-5,-2.47999805416E-6,1.422629274587E-7},
    {-3.59138190174E-5,1.050947506573E-5,-2.42125945094E-6,1.423181932713E-7},
    {-3.59689144657E-5,1.050944504427E-5,-2.41325789519E-6,1.423338005626E-7},
    {-3.59667577923E-5,1.050956419325E-5,-2.45399041289E-6,1.422142298836E-7}}},
  {{6.82478949896E-13,-1.128628537E-12,4.80596763508E-13},{Residual->4.19894422548E-16}},
  {{-.5,1.36718927272E-12},{-.35,1.13603737438E-12},{-.2,9.27084709307E-13},{-.05,7.40846648283E-13},{.1,5.73924354939E-13},
   {.25,4.30717620918E-13},{.4,3.0775906106E-13}}},
 {"R32",1,
  {5.624696166691E-8,1.060657991979E-5,1.91140151934E-8,4.393777249203E-8,{{-3.5500713143E-5,1.060656908017E-5,-3.03321574635E-6,
     4.394122986165E-8},
    {-3.54947167492E-5,1.060651819655E-5,-3.04527647312E-6,4.394486008257E-8},
    {-3.54887288624E-5,1.060672222482E-5,-3.03043274897E-6,4.398574048267E-8},
    {-3.56395618242E-5,1.060686870041E-5,-3.09354257985E-6,4.39441128936E-8},
    {-3.55162296853E-5,1.060654488984E-5,-3.07290109983E-6,4.395172670564E-8},
    {-3.55711374899E-5,1.060647022311E-5,-3.07377977836E-6,4.392364103813E-8},
    {-3.55654263099E-5,1.060667426154E-5,-3.0557079815E-6,4.395906079234E-8},
    {-3.5469042106E-5,1.060669249699E-5,-3.06039949942E-6,4.395972763045E-8},
    {-3.55511809331E-5,1.060661675187E-5,-3.04975199973E-6,4.389531395954E-8},
    {-3.55928341571E-5,1.060660461477E-5,-3.044607187E-6,4.39175285769E-8},
    {-3.56134050101E-5,1.060682443715E-5,-3.09035058818E-6,4.395473539327E-8},
    {-3.54656216226E-5,1.0606569633E-5,-3.06218814322E-6,4.39608600129E-8},
    {-3.54592936347E-5,1.060637602758E-5,-3.03122190628E-6,4.390466121763E-8},
    {-3.55571270246E-5,1.060633936909E-5,-3.01940772881E-6,4.392266492179E-8},
    {-3.54786394873E-5,1.06066132539E-5,-3.06104006673E-6,4.394265042377E-8},
    {-3.55156443542E-5,1.060637609975E-5,-3.03958552365E-6,4.391414554346E-8},
    {-3.55880081063E-5,1.06063708555E-5,-3.05341615894E-6,4.388934441388E-8},
    {-3.54898219717E-5,1.060653943482E-5,-3.03631094779E-6,4.395548714813E-8},
    {-3.545616903E-5,1.060652345887E-5,-3.04573854425E-6,4.396628028962E-8},
    {-3.54457504449E-5,1.060678438598E-5,-3.06158555355E-6,4.392167845266E-8}}},
  {{2.01020412448E-14,-1.4267686915E-13,2.9330840511E-13},{Residual->4.06670302468E-16}},
  {{-.5,1.64744780702E-13},{-.35,1.05847411882E-13},{-.2,6.05086578463E-14},{-.05,2.80915429974E-14},{.1,9.12691500328E-15},
   {.25,1.86870225753E-15},{.4,1.03803745372E-14}}},
 {"AY",1,
  {4.078138260422E-8,1.060225205977E-5,1.372069501059E-8,4.498635570797E-8,{{-3.7351760351E-5,1.06022338523E-5,-3.26449015858E-6,
     4.5027468117E-8},
    {-3.74240317698E-5,1.060216132464E-5,-3.23746161942E-6,4.495239093774E-8},
    {-3.7414991556E-5,1.060227143822E-5,-3.23479162382E-6,4.49711054048E-8},
    {-3.73767591508E-5,1.060218608521E-5,-3.24514042164E-6,4.500733314349E-8},
    {-3.74815823218E-5,1.060213096363E-5,-3.26749511886E-6,4.492908587963E-8},
    {-3.74011934986E-5,1.060214205012E-5,-3.23605010045E-6,4.500199444559E-8},
    {-3.73439489555E-5,1.060224661483E-5,-3.24758396694E-6,4.497424212968E-8},
    {-3.74385231855E-5,1.060220549629E-5,-3.24487666441E-6,4.499019942105E-8},
    {-3.73523255659E-5,1.060243236065E-5,-3.25387522661E-6,4.501475849281E-8},
    {-3.74015748443E-5,1.060254717363E-5,-3.2584020907E-6,4.49681248354E-8},
    {-3.74290823978E-5,1.060229446495E-5,-3.24459908424E-6,4.501515563729E-8},
    {-3.75071346507E-5,1.060210032748E-5,-3.22176594195E-6,4.494633950835E-8},
    {-3.73700663919E-5,1.060226121636E-5,-3.24963066977E-6,4.497971154592E-8},
    {-3.7441378122E-5,1.060205392606E-5,-3.21659988655E-6,4.501489020906E-8},
    {-3.74371189439E-5,1.060247376239E-5,-3.24432602702E-6,4.495075540968E-8},
    {-3.74328650173E-5,1.060231400873E-5,-3.26054988182E-6,4.497333581144E-8},
    {-3.74484307082E-5,1.060222132918E-5,-3.26967709987E-6,4.493606068573E-8},
    {-3.74072596652E-5,1.060215724585E-5,-3.25654612542E-6,4.500699780701E-8},
    {-3.74151751736E-5,1.060228601763E-5,-3.25844471355E-6,4.501133972623E-8},
    {-3.74128151585E-5,1.06023215373E-5,-3.24437679068E-6,4.505582501153E-8}}},
  {{-6.5992978918E-15,-6.5501699293E-14,4.81369581671E-12},{Residual->9.94192145168E-16}},
  {{-.5,1.23069241864E-12},{-.35,6.04859468456E-13},{-.2,1.97651830012E-13},{-.05,9.38563651465E-15},{.1,3.60348972344E-14},
   {.25,2.78369154337E-13},{.4,7.36605145632E-13}}},
 {"EY",1,
  {8.008408052305E-8,1.059209314135E-5,1.61250218568E-8,4.346320603356E-8,{{-3.81968630942E-5,1.059212009507E-5,-3.81588538043E-6,
     4.344535919686E-8},
    {-3.81531840236E-5,1.059201380121E-5,-3.78247290555E-6,4.344647455944E-8},
    {-3.8162289931E-5,1.059206206325E-5,-3.81477047665E-6,4.349345687389E-8},
    {-3.80156565465E-5,1.05922273845E-5,-3.82347312008E-6,4.350105236299E-8},
    {-3.80396778122E-5,1.059200298153E-5,-3.78657528718E-6,4.347552726615E-8},
    {-3.82743203518E-5,1.059186538649E-5,-3.80207139316E-6,4.346490129279E-8},
    {-3.81682276138E-5,1.059230862064E-5,-3.7900681076E-6,4.342497284698E-8},
    {-3.80099084063E-5,1.059194589404E-5,-3.80541717503E-6,4.348342977272E-8},
    {-3.79330789547E-5,1.059225739984E-5,-3.78073897828E-6,4.355833200919E-8},
    {-3.8151516925E-5,1.059214471391E-5,-3.83090948799E-6,4.3442188824E-8},
    {-3.81518622717E-5,1.059212520493E-5,-3.81095629314E-6,4.347435274311E-8},
    {-3.81365211474E-5,1.05921630846E-5,-3.81603832847E-6,4.343646395947E-8},
    {-3.81549949239E-5,1.059213163476E-5,-3.77454916558E-6,4.344082651025E-8},
    {-3.8215339294E-5,1.059208968841E-5,-3.80196161122E-6,4.344818009951E-8},
    {-3.81615361688E-5,1.059218416765E-5,-3.82811123569E-6,4.344684266321E-8},
    {-3.80958886421E-5,1.059196206352E-5,-3.79491480559E-6,4.346536885209E-8},
    {-3.81872906105E-5,1.059212852148E-5,-3.77988310674E-6,4.345053543854E-8},
    {-3.82067897146E-5,1.059199140217E-5,-3.79988602088E-6,4.347162275084E-8},
    {-3.81030755858E-5,1.059208720473E-5,-3.80290108577E-6,4.342968533884E-8},
    {-3.80624544417E-5,1.059205151426E-5,-3.81050309722E-6,4.346454731029E-8}}},
  {{2.25904695732E-15,-1.4586323778E-14,4.8051110317E-13},{Residual->1.47691828232E-16}},
  {{-.5,1.29564561956E-13},{-.35,6.62981873005E-14},{-.2,2.46799208434E-14},{-.05,4.00501346697E-15},{.1,5.47858931946E-15},
   {.25,2.86554565264E-14},{.4,7.33677519134E-14}}},
 {"R32",1,
  {4.841060771501E-8,1.05996175541E-5,2.042323303748E-8,4.208207445609E-8,{{-3.7575475374E-5,1.059967872836E-5,-3.91702092515E-6,
     4.208686377678E-8},
    {-3.76982922627E-5,1.059974601819E-5,-3.90162771395E-6,4.208329546568E-8},
    {-3.76064079384E-5,1.059960176061E-5,-3.93458860492E-6,4.207203161957E-8},
    {-3.76549805288E-5,1.059952640049E-5,-3.90794139472E-6,4.207244631677E-8},
    {-3.76065516836E-5,1.059976105353E-5,-3.92391470928E-6,4.207975344197E-8},
    {-3.76291410793E-5,1.059961808109E-5,-3.8832053975E-6,4.207981201807E-8},
    {-3.75953216703E-5,1.059978269044E-5,-3.90163825561E-6,4.208074447623E-8},
    {-3.75614035778E-5,1.059947668911E-5,-3.92735860832E-6,4.208031716619E-8},
    {-3.76444285487E-5,1.059958682545E-5,-3.88174093752E-6,4.210213480822E-8},
    {-3.76555529947E-5,1.059947439666E-5,-3.90190517485E-6,4.207655729138E-8},
    {-3.76598070828E-5,1.059951277689E-5,-3.93239490302E-6,4.208603380196E-8},
    {-3.76502312397E-5,1.059950139046E-5,-3.88149656751E-6,4.207546337586E-8},
    {-3.75223688934E-5,1.059960047589E-5,-3.91978342857E-6,4.208971685533E-8},
    {-3.76430734169E-5,1.059958011898E-5,-3.93350747595E-6,4.208351205963E-8},
    {-3.76874683461E-5,1.059974109737E-5,-3.93421624926E-6,4.206701594485E-8},
    {-3.76180053515E-5,1.059973139056E-5,-3.88142957029E-6,4.209388784851E-8},
    {-3.76981735788E-5,1.059956196084E-5,-3.88477989282E-6,4.208466533743E-8},
    {-3.75739189062E-5,1.059964895666E-5,-3.92855871835E-6,4.205502807051E-8},
    {-3.75457971823E-5,1.059947213632E-5,-3.88010224842E-6,4.210503962157E-8},
    {-3.76439010945E-5,1.059974813413E-5,-3.89097586461E-6,4.208716982522E-8}}},
  {{2.57633341776E-15,-2.409002644E-15,3.02284980073E-13},{Residual->3.44382435726E-16}},
  {{-.5,7.90107143394E-14},{-.35,4.08005348846E-14},{-.2,1.55846679341E-14},{-.05,3.31373822632E-15},{.1,4.77282402066E-15},
   {.25,2.10060361597E-14},{.4,5.0118493882E-14}}},
 {"AY",1,
  {6.180569498369E-8,1.060198985847E-5,2.031139104592E-8,4.155604600378E-8,{{-3.60342426462E-5,1.060217890478E-5,-3.83600754793E-6,
     4.152335263356E-8},
    {-3.60491545621E-5,1.060183366471E-5,-3.86135789358E-6,4.159844842889E-8},
    {-3.59012476511E-5,1.060197614536E-5,-3.83602508966E-6,4.15499148659E-8},
    {-3.59188361945E-5,1.060205890117E-5,-3.80624052383E-6,4.156601076337E-8},
    {-3.61015604761E-5,1.060193830837E-5,-3.8725422649E-6,4.155609046436E-8},
    {-3.60895446034E-5,1.060217837715E-5,-3.80341743241E-6,4.152073515492E-8},
    {-3.60244002543E-5,1.060199607055E-5,-3.82143405016E-6,4.15619437469E-8},
    {-3.60358404778E-5,1.06018344649E-5,-3.85179852532E-6,4.159067368469E-8},
    {-3.595529411E-5,1.060207760364E-5,-3.79641766176E-6,4.154779568076E-8},
    {-3.60296987345E-5,1.060201978119E-5,-3.83212275363E-6,4.154107136667E-8},
    {-3.60458274909E-5,1.060188491785E-5,-3.84138643275E-6,4.15697601594E-8},
    {-3.6103759305E-5,1.060176490307E-5,-3.8415493967E-6,4.155638003542E-8},
    {-3.5948302243E-5,1.060192553501E-5,-3.82102597495E-6,4.153184520063E-8},
    {-3.59626704317E-5,1.060188426697E-5,-3.83470599075E-6,4.158971850705E-8},
    {-3.60820796407E-5,1.060207421505E-5,-3.84358826392E-6,4.154621046512E-8},
    {-3.59125865332E-5,1.060213701127E-5,-3.80935605442E-6,4.151435741684E-8},
    {-3.60486393387E-5,1.060201430194E-5,-3.86621932604E-6,4.158595835258E-8},
    {-3.60240412208E-5,1.060209176348E-5,-3.82359558541E-6,4.155493104506E-8},
    {-3.59584232147E-5,1.06020667687E-5,-3.84872773647E-6,4.154219058715E-8},
    {-3.60214240441E-5,1.060186126421E-5,-3.84264389379E-6,4.157353151634E-8}}},
  {{-4.7910717604E-15,3.28765091883E-14,4.76601963147E-12},{Residual->3.0862684604E-15}},
  {{-.3,4.14861921214E-13},{-.2,1.78170117645E-13},{-.1,3.71498828795E-14},{5.55111512313E-17,1.76369117234E-15},
   {.1,4.351228788E-14},{.2,1.89852461431E-13},{.3,4.35637632266E-13}}},
 {"EY",1,
  {6.557966295791E-8,1.06043796321E-5,2.037378706516E-8,4.146539610068E-8,{{-3.68082679893E-5,1.060428499976E-5,-3.40462374586E-6,
     4.147712119338E-8},
    {-3.66420758719E-5,1.060414538515E-5,-3.40369839712E-6,4.141055937342E-8},
    {-3.66918663294E-5,1.060428607712E-5,-3.39393874237E-6,4.146499647313E-8},
    {-3.66790054857E-5,1.060450959215E-5,-3.43366556268E-6,4.149466001352E-8},
    {-3.66844909519E-5,1.060448521874E-5,-3.42968849292E-6,4.148359486793E-8},
    {-3.67215544793E-5,1.060422249073E-5,-3.38604337954E-6,4.14085482073E-8},
    {-3.66925547718E-5,1.060430213882E-5,-3.39531075079E-6,4.147035354948E-8},
    {-3.66919727505E-5,1.06042965517E-5,-3.45998665066E-6,4.149164080283E-8},
    {-3.66662471126E-5,1.060461787947E-5,-3.41029958966E-6,4.151132069626E-8},
    {-3.67074058106E-5,1.06043551097E-5,-3.38685996496E-6,4.145261420923E-8},
    {-3.66880642577E-5,1.060428603686E-5,-3.4193422242E-6,4.14556216605E-8},
    {-3.68617938676E-5,1.060434267982E-5,-3.41943923869E-6,4.145912407468E-8},
    {-3.66772217171E-5,1.060425562882E-5,-3.42652543711E-6,4.146401219784E-8},
    {-3.67674024618E-5,1.060437187198E-5,-3.40543982627E-6,4.146136158762E-8},
    {-3.66904433853E-5,1.060428622251E-5,-3.43915483967E-6,4.146654071422E-8},
    {-3.65955144566E-5,1.060466854905E-5,-3.38235334099E-6,4.147741716311E-8},
    {-3.66412420262E-5,1.06045711966E-5,-3.38871586025E-6,4.141108998172E-8},
    {-3.66236355398E-5,1.060445637431E-5,-3.41793300393E-6,4.150935453169E-8},
    {-3.65629852149E-5,1.060420536699E-5,-3.41890328974E-6,4.146079525963E-8},
    {-3.66745489593E-5,1.060464327179E-5,-3.38702558763E-6,4.147719545606E-8}}},
  {{2.06008728188E-15,-1.9703962565E-15,4.80205541453E-13},{Residual->2.25731122952E-16}},
  {{-.5,1.22869770998E-13},{-.35,6.1767238384E-14},{-.2,2.20415300046E-14},{-.05,3.16389377735E-15},{.1,6.45609448771E-15},
   {.25,3.14671967134E-14},{.4,7.82776133883E-14}}},
 {"R32",1,
  {5.5378180513E-8,1.05992177861E-5,1.795734818845E-8,4.140822311369E-8,{{-3.68103274586E-5,1.059919187015E-5,-3.5916410382E-6,
     4.146468819321E-8},
    {-3.67873090144E-5,1.059888481364E-5,-3.57912283771E-6,4.144452946119E-8},
    {-3.68828601573E-5,1.059910550124E-5,-3.62357170288E-6,4.139273214937E-8},
    {-3.69030584856E-5,1.05992373735E-5,-3.57515770876E-6,4.145453491903E-8},
    {-3.68473018257E-5,1.059921750207E-5,-3.63689060105E-6,4.143756784095E-8},
    {-3.68173561219E-5,1.059904603278E-5,-3.64330773205E-6,4.139331664294E-8},
    {-3.68496794086E-5,1.059915900365E-5,-3.61155535887E-6,4.145314222485E-8},
    {-3.67961477512E-5,1.059928509391E-5,-3.60256838189E-6,4.137548441694E-8},
    {-3.67665894802E-5,1.059927393351E-5,-3.59977365594E-6,4.139157386938E-8},
    {-3.68258544423E-5,1.059919796995E-5,-3.60251201782E-6,4.140190514856E-8},
    {-3.68976312914E-5,1.059918632061E-5,-3.61802213105E-6,4.1384112708E-8},
    {-3.69458549442E-5,1.059931832256E-5,-3.61036714564E-6,4.142929852401E-8},
    {-3.67325969745E-5,1.05991493537E-5,-3.59719005345E-6,4.141217416295E-8},
    {-3.67837937529E-5,1.059929384575E-5,-3.62490429271E-6,4.140191992004E-8},
    {-3.68495066836E-5,1.059953430307E-5,-3.62573511806E-6,4.133269236078E-8},
    {-3.68251198302E-5,1.059928350998E-5,-3.61994220864E-6,4.140116070858E-8},
    {-3.67720035878E-5,1.059934260512E-5,-3.5833253278E-6,4.14076647639E-8},
    {-3.67386506955E-5,1.059900867168E-5,-3.61818841788E-6,4.141892991536E-8},
    {-3.68776736259E-5,1.059934717404E-5,-3.62160463687E-6,4.135471357575E-8},
    {-3.68616402719E-5,1.059929252116E-5,-3.60896324452E-6,4.1412320768E-8}}},
  {{2.60014403931E-15,-1.3333352673E-15,3.02519126963E-13},{Residual->3.4888728435E-16}},
  {{-.5,7.8583568156E-14},{-.35,4.03712475081E-14},{-.2,1.55323956604E-14},{-.05,3.22161795713E-15},{.1,4.94450497975E-15},
   {.25,2.12633794801E-14},{.4,5.06320965858E-14}}},
 {"AY",1,
  {5.338905983994E-8,1.059975536125E-5,1.842055793578E-8,4.142100461914E-8,{{-3.62460918727E-5,1.059962607836E-5,-2.73776939722E-6,
     4.143575241885E-8},
    {-3.626814102E-5,1.059975964666E-5,-2.7204744448E-6,4.14231019759E-8},
    {-3.63113949111E-5,1.059974892806E-5,-2.71377431935E-6,4.140914867673E-8},
    {-3.62434146315E-5,1.059973924388E-5,-2.69842488856E-6,4.144265542916E-8},
    {-3.61894570664E-5,1.059968028652E-5,-2.73164100329E-6,4.143647367806E-8},
    {-3.62735095978E-5,1.059969890496E-5,-2.76251298725E-6,4.142165632509E-8},
    {-3.62299917241E-5,1.059979285186E-5,-2.71625161626E-6,4.142050458959E-8},
    {-3.61875427898E-5,1.059981483513E-5,-2.73848896561E-6,4.140557397506E-8},
    {-3.61596027665E-5,1.059989657753E-5,-2.74402036565E-6,4.139224540538E-8},
    {-3.62721105225E-5,1.059982575463E-5,-2.70024223967E-6,4.142482332277E-8},
    {-3.62438493363E-5,1.059973580524E-5,-2.74052461699E-6,4.140276826426E-8},
    {-3.61973601493E-5,1.05997075351E-5,-2.74905591071E-6,4.141979862659E-8},
    {-3.61646497921E-5,1.059965433252E-5,-2.75921235076E-6,4.142159252611E-8},
    {-3.62860876635E-5,1.059974812208E-5,-2.71918078842E-6,4.14292719559E-8},
    {-3.61225337031E-5,1.059977539929E-5,-2.74374459429E-6,4.141451901595E-8},
    {-3.62400539115E-5,1.059980773195E-5,-2.7188400259E-6,4.140555354754E-8},
    {-3.61770367381E-5,1.059976991443E-5,-2.7304988977E-6,4.142944223312E-8},
    {-3.63432399519E-5,1.059968970828E-5,-2.73690158755E-6,4.142513351428E-8},
    {-3.62528979984E-5,1.05998406723E-5,-2.71302394675E-6,4.141865246412E-8},
    {-3.62370817479E-5,1.059979489619E-5,-2.69981816438E-6,4.144142443831E-8}}},
  {{-4.4114458711E-15,-2.2946934662E-14,4.76507367714E-12},{Residual->3.08589098788E-15}},
  {{-.3,4.33576492872E-13},{-.2,1.87720682784E-13},{-.1,4.23018816754E-14},{5.55111512313E-17,1.69009142045E-15},
   {.1,3.89262443089E-14},{.2,1.82080281826E-13},{.3,4.17044833615E-13}}},
 {"EY",1,
  {6.315372186218E-8,1.060172660926E-5,1.605510392196E-8,4.08710365809E-8,{{-3.66142589219E-5,1.060158437436E-5,-2.56047148096E-6,
     4.083673413052E-8},
    {-3.67559186126E-5,1.060173360262E-5,-2.57021186028E-6,4.085112848603E-8},
    {-3.66203255363E-5,1.060178354757E-5,-2.53686622659E-6,4.091410784488E-8},
    {-3.65578571959E-5,1.060163181328E-5,-2.55604440399E-6,4.081944844589E-8},
    {-3.65862096378E-5,1.060152612455E-5,-2.5239477187E-6,4.087884019966E-8},
    {-3.66127975052E-5,1.060188162318E-5,-2.55361946927E-6,4.090305790841E-8},
    {-3.66137612359E-5,1.060182321196E-5,-2.55399143175E-6,4.088840887429E-8},
    {-3.66014238558E-5,1.060178205435E-5,-2.56392065549E-6,4.086525602802E-8},
    {-3.66521765068E-5,1.060170024181E-5,-2.5362590973E-6,4.089052481752E-8},
    {-3.67901676709E-5,1.060174252132E-5,-2.53981630098E-6,4.087170653577E-8},
    {-3.66397658766E-5,1.060191482949E-5,-2.5364609736E-6,4.08876409467E-8},
    {-3.66080643806E-5,1.060174402137E-5,-2.55397849861E-6,4.084986159351E-8},
    {-3.66600596167E-5,1.060167977157E-5,-2.50947896084E-6,4.091491357203E-8},
    {-3.66038734801E-5,1.060169597894E-5,-2.54196138754E-6,4.085813648492E-8},
    {-3.65349792362E-5,1.060165392271E-5,-2.5577562431E-6,4.088733239866E-8},
    {-3.65641622936E-5,1.060169988638E-5,-2.55035102187E-6,4.087182117202E-8},
    {-3.66912130918E-5,1.06018723821E-5,-2.56325986786E-6,4.086975771014E-8},
    {-3.65418795E-5,1.060167699165E-5,-2.57911233217E-6,4.08283781538E-8},
    {-3.6585517107E-5,1.060157557821E-5,-2.55168361954E-6,4.085860335484E-8},
    {-3.66532547466E-5,1.060182970775E-5,-2.53327274503E-6,4.087507296047E-8}}},
  {{1.88430514263E-15,2.27957167478E-15,4.84334157635E-13},{Residual->1.31724913712E-16}},
  {{-.3,4.47304811246E-14},{-.2,2.09899002198E-14},{-.1,6.41408698885E-15},{5.55111512313E-17,1.67902104442E-15},
   {.1,7.10404103035E-15},{.2,2.17944187231E-14},{.3,4.60917510051E-14}}},
 {"R32",1,
  {5.093413869392E-8,1.060298929322E-5,1.975261281717E-8,4.120632662723E-8,{{-3.76665415024E-5,1.060296106071E-5,-2.16204386879E-6,
     4.12448085129E-8},
    {-3.75535579561E-5,1.060289057377E-5,-2.16818330544E-6,4.122732290569E-8},
    {-3.75912101539E-5,1.060320299411E-5,-2.15665426025E-6,4.116501142325E-8},
    {-3.75695848068E-5,1.060278485796E-5,-2.17370708711E-6,4.122737337435E-8},
    {-3.75406900175E-5,1.060294425734E-5,-2.21814946346E-6,4.122442212852E-8},
    {-3.75544614223E-5,1.06030959298E-5,-2.12611595167E-6,4.119162008605E-8},
    {-3.76471380688E-5,1.060296354921E-5,-2.12975152566E-6,4.12332402465E-8},
    {-3.75565643427E-5,1.060308975007E-5,-2.15857307981E-6,4.120477386696E-8},
    {-3.76124688631E-5,1.060318921651E-5,-2.14372460002E-6,4.116735196347E-8},
    {-3.75349548515E-5,1.060301207542E-5,-2.14367027288E-6,4.120421455535E-8},
    {-3.75375407885E-5,1.060291354591E-5,-2.15294770815E-6,4.119976448094E-8},
    {-3.75531784573E-5,1.060296654033E-5,-2.15807545804E-6,4.120234746337E-8},
    {-3.75538263594E-5,1.060294736261E-5,-2.16197305107E-6,4.119673893479E-8},
    {-3.74624831406E-5,1.060289743185E-5,-2.17707745622E-6,4.121344499959E-8},
    {-3.75753141442E-5,1.060310943796E-5,-2.16081446877E-6,4.122322030266E-8},
    {-3.75926447897E-5,1.060309398957E-5,-2.1289630038E-6,4.119245006787E-8},
    {-3.7540288412E-5,1.060275366352E-5,-2.17071647823E-6,4.12095163873E-8},
    {-3.75743038148E-5,1.060303780887E-5,-2.15198365838E-6,4.123322464799E-8},
    {-3.76060112822E-5,1.060282520618E-5,-2.16987023102E-6,4.120698431686E-8},
    {-3.74411152294E-5,1.060310661277E-5,-2.16062434815E-6,4.115870188012E-8}}},
  {{2.24610225728E-15,7.55500485807E-16,3.08776213961E-13},{Residual->3.53465586213E-16}},
  {{-.3,2.949067872E-14},{-.2,1.48583248838E-14},{-.1,5.68142393316E-15},{5.55111512313E-17,1.69280898805E-15},
   {.1,5.18738481237E-15},{.2,1.50101767094E-14},{.3,3.02592576632E-14}}},
 {"Y24",1,
  {4.978650882838E-8,1.061386227186E-5,2.014158140047E-8,4.155084919172E-8,{{-3.60649532692E-5,1.061380051583E-5,-2.12370535467E-6,
     4.156403203145E-8},
    {-3.60025075814E-5,1.061395160663E-5,-2.08610687519E-6,4.153661597565E-8},
    {-3.60806159524E-5,1.061403005193E-5,-2.12888378544E-6,4.156921457485E-8},
    {-3.60494633622E-5,1.061402729957E-5,-2.14507936415E-6,4.15839829699E-8},
    {-3.59981311791E-5,1.061393968749E-5,-2.10603540811E-6,4.154605964889E-8},
    {-3.59997151358E-5,1.061389270238E-5,-2.15286191256E-6,4.157187016895E-8},
    {-3.60533793743E-5,1.061391158882E-5,-2.14178926769E-6,4.15598494079E-8},
    {-3.60757636112E-5,1.061380154334E-5,-2.1248455221E-6,4.156164657082E-8},
    {-3.60646007029E-5,1.061390966066E-5,-2.13762037085E-6,4.156083960734E-8},
    {-3.60077160874E-5,1.061401298611E-5,-2.13341722717E-6,4.15770418431E-8},
    {-3.61762686165E-5,1.061379567352E-5,-2.12533850006E-6,4.157082123304E-8},
    {-3.59819083895E-5,1.061382726326E-5,-2.11433203205E-6,4.152782346824E-8},
    {-3.60265587467E-5,1.061370072831E-5,-2.11722433716E-6,4.152955787499E-8},
    {-3.61350887467E-5,1.061391552002E-5,-2.14437822416E-6,4.157048123166E-8},
    {-3.608735049E-5,1.061404342693E-5,-2.18365917738E-6,4.159351863749E-8},
    {-3.60988635818E-5,1.06137208635E-5,-2.12900345577E-6,4.152914806259E-8},
    {-3.60225850527E-5,1.061360963333E-5,-2.10627384563E-6,4.15189732987E-8},
    {-3.60192762883E-5,1.061376238991E-5,-2.11198850604E-6,4.148111182533E-8},
    {-3.59851753075E-5,1.061362860028E-5,-2.11312193098E-6,4.148505564692E-8},
    {-3.60332869363E-5,1.061396369529E-5,-2.12823259828E-6,4.157933975657E-8}}},
  {{1.68899502411E-15,3.21717951942E-16,2.06395658184E-15},{Residual->1.25229497082E-16}},
  {{-1.5,6.02424195026E-15},{-1.2,4.23926016831E-15},{-.9,2.91484703586E-15},{-.6,2.04517242104E-15},{-.3,1.72683901982E-15},
   {0,1.82588561404E-15},{.3,2.14595221133E-15},{.6,2.71800446244E-15},{.9,3.6362193844E-15},{1.2,4.91241727137E-15},
   {1.5,6.82327588665E-15}}},
 {"Y46",1,
  {5.935150587698E-8,1.061365743735E-5,2.167861983446E-8,4.155195567282E-8,{{-3.61849755841E-5,1.061360024424E-5,-2.05987480614E-6,
     4.155802344903E-8},
    {-3.61289265345E-5,1.06136582517E-5,-2.09789848902E-6,4.152867952019E-8},
    {-3.60815310588E-5,1.061379347225E-5,-2.12307402352E-6,4.156654417927E-8},
    {-3.60206532954E-5,1.061362886616E-5,-2.14539891177E-6,4.152408106514E-8},
    {-3.60578340907E-5,1.061390220173E-5,-2.13142994837E-6,4.158610036954E-8},
    {-3.60440485949E-5,1.061372593057E-5,-2.11899175919E-6,4.153140747519E-8},
    {-3.60215985256E-5,1.061363925164E-5,-2.1639160776E-6,4.153074095773E-8},
    {-3.61146532003E-5,1.061352307958E-5,-2.15302647578E-6,4.156173406525E-8},
    {-3.60761971452E-5,1.061347395481E-5,-2.12959615449E-6,4.157773312952E-8},
    {-3.61093849839E-5,1.06136624253E-5,-2.12773782391E-6,4.154651804837E-8},
    {-3.61315520926E-5,1.061351062348E-5,-2.12170976875E-6,4.156438544026E-8},
    {-3.61017819763E-5,1.061369826824E-5,-2.10732649654E-6,4.153504582135E-8},
    {-3.60797069408E-5,1.061358416684E-5,-2.1258980068E-6,4.154808886031E-8},
    {-3.60859378699E-5,1.061384351076E-5,-2.11407968219E-6,4.156392300244E-8},
    {-3.61043303564E-5,1.061370102829E-5,-2.10859535549E-6,4.152916271214E-8},
    {-3.59690652267E-5,1.061356712224E-5,-2.12954398375E-6,4.157539515899E-8},
    {-3.60752257702E-5,1.061381411528E-5,-2.13918046306E-6,4.154908000535E-8},
    {-3.59387727311E-5,1.061368753342E-5,-2.11651765362E-6,4.153673704994E-8},
    {-3.61180519142E-5,1.061346537621E-5,-2.11249787795E-6,4.158306400887E-8},
    {-3.59783497757E-5,1.061366932422E-5,-2.1467189785E-6,4.154266913753E-8}}},
  {{1.65984445262E-15,-7.1919260531E-17,1.15490874427E-14},{Residual->3.27912778827E-16}},
  {{-1,1.37568692267E-14},{-.8,9.07498135613E-15},{-.6,5.48083833072E-15},{-.4,3.06686567843E-15},{-.2,1.86485317777E-15},
   {0,1.72709520899E-15},{.2,2.47545616719E-15},{.4,3.88105955709E-15},{.6,6.0506912512E-15},{.8,8.92432054462E-15},
   {1,1.27712432279E-14}}},
 {"Y22",1,
  {6.036820351636E-8,1.06135761181E-5,1.949011243939E-8,4.156021650109E-8,{{-3.60194692318E-5,1.061379125363E-5,-2.12758616006E-6,
     4.154817127576E-8},
    {-3.6059628866E-5,1.061362865315E-5,-2.16644660069E-6,4.152191005304E-8},
    {-3.61397974232E-5,1.06134669564E-5,-2.16811783338E-6,4.157957024057E-8},
    {-3.60493464694E-5,1.061374328886E-5,-2.11652541195E-6,4.15624826228E-8},
    {-3.60803909118E-5,1.061355946986E-5,-2.11611985324E-6,4.154612178042E-8},
    {-3.61294727445E-5,1.061350635619E-5,-2.12629044906E-6,4.156180587476E-8},
    {-3.60261115002E-5,1.061369931038E-5,-2.14349252404E-6,4.152583349219E-8},
    {-3.61764345524E-5,1.061351316961E-5,-2.14489898933E-6,4.156805954102E-8},
    {-3.60999346565E-5,1.061365307481E-5,-2.12698815751E-6,4.152379328452E-8},
    {-3.60373095134E-5,1.061331860261E-5,-2.13968804261E-6,4.161958407073E-8},
    {-3.6098069603E-5,1.061344867337E-5,-2.13770602931E-6,4.158439352697E-8},
    {-3.60805838166E-5,1.06134851954E-5,-2.09697400349E-6,4.157520515533E-8},
    {-3.59514815217E-5,1.061363471926E-5,-2.10826700637E-6,4.154517839984E-8},
    {-3.60708522315E-5,1.061346414826E-5,-2.10775944799E-6,4.158228581686E-8},
    {-3.60768566057E-5,1.061363244136E-5,-2.15285515912E-6,4.152782096513E-8},
    {-3.60413335429E-5,1.061358040156E-5,-2.10781578868E-6,4.154420607237E-8},
    {-3.6159824289E-5,1.061345232094E-5,-2.14613445902E-6,4.158324866136E-8},
    {-3.61167601334E-5,1.061341562214E-5,-2.13674903194E-6,4.159470857239E-8},
    {-3.59391484615E-5,1.061373509968E-5,-2.12196560449E-6,4.154383254783E-8},
    {-3.6126424932E-5,1.061379360445E-5,-2.10966717404E-6,4.156611806782E-8}}},
  {{2.15109096608E-15,1.73356603801E-15,3.57085914397E-14},{Residual->2.49033435925E-16}},
  {{-.6,1.4055800282E-14},{-.4,7.01525711124E-15},{-.2,3.45552518212E-15},{1.11022302463E-16,1.72773210702E-15},
   {.2,4.07088220561E-15},{.4,8.88765900329E-15},{.6,1.58384032838E-14}}},
 {"Y26",1,
  {6.215862762979E-8,1.061358877169E-5,1.462481870029E-8,4.155294120199E-8,{{-3.60567494035E-5,1.06134402266E-5,-2.0921669317E-6,
     4.157994844141E-8},
    {-3.598095461E-5,1.061354687217E-5,-2.12823289772E-6,4.155928770433E-8},
    {-3.60320246312E-5,1.061359884345E-5,-2.12706554998E-6,4.153154011313E-8},
    {-3.60788705441E-5,1.061335962153E-5,-2.11849171709E-6,4.161469897697E-8},
    {-3.60188535183E-5,1.061346534671E-5,-2.12358272437E-6,4.158083227889E-8},
    {-3.61224184176E-5,1.061384550351E-5,-2.11993175487E-6,4.155892559027E-8},
    {-3.60869626927E-5,1.061358266629E-5,-2.13219590368E-6,4.15319512534E-8},
    {-3.59358083799E-5,1.061373313948E-5,-2.14489429788E-6,4.153870634206E-8},
    {-3.59822112056E-5,1.061361727761E-5,-2.13704378117E-6,4.153729354066E-8},
    {-3.60259480758E-5,1.061352318916E-5,-2.15434522581E-6,4.156113835615E-8},
    {-3.60037349646E-5,1.061380017598E-5,-2.12570127578E-6,4.155388429416E-8},
    {-3.59240117144E-5,1.061358465028E-5,-2.13858089688E-6,4.153898362973E-8},
    {-3.61047882892E-5,1.061362296057E-5,-2.11627537696E-6,4.153289465955E-8},
    {-3.61400185741E-5,1.06136780782E-5,-2.10708169664E-6,4.153788220247E-8},
    {-3.60806572444E-5,1.061360183295E-5,-2.11389810319E-6,4.152905025797E-8},
    {-3.6137177522E-5,1.06135229328E-5,-2.13358669611E-6,4.156506021765E-8},
    {-3.60370661383E-5,1.061357023468E-5,-2.13316658921E-6,4.155330262347E-8},
    {-3.61143129233E-5,1.06134582009E-5,-2.11080171805E-6,4.158655032835E-8},
    {-3.61058794638E-5,1.061367514718E-5,-2.14353775275E-6,4.152428689177E-8},
    {-3.6029359158E-5,1.061354853376E-5,-2.10844096237E-6,4.154260633747E-8}}},
  {{5.4519731272E-15,4.08463480095E-14,4.18401113098E-13},{Residual->3.78245788037E-15}},
  {{-.6,1.27741152473E-13},{-.4,6.10479726861E-14},{-.2,1.79187881708E-14},{1.11022302463E-16,1.72668701053E-15},
   {.2,2.56404866557E-14},{.4,9.17566615307E-14},{.6,1.80941310033E-13}}},
 {"Y66",1,
  {7.833319656093E-8,1.061365158113E-5,1.781036089916E-8,4.156156509095E-8,{{-3.59994589826E-5,1.061360119295E-5,-2.14443212458E-6,
     4.152957594146E-8},
    {-3.61918803736E-5,1.061367827927E-5,-2.11906602833E-6,4.155023622063E-8},
    {-3.61013047964E-5,1.061363835352E-5,-2.12573150832E-6,4.154561836737E-8},
    {-3.61534474074E-5,1.061362355757E-5,-2.14549947747E-6,4.153896691416E-8},
    {-3.60822827327E-5,1.061360232322E-5,-2.12653258694E-6,4.155775298687E-8},
    {-3.61488637561E-5,1.06134325128E-5,-2.11478252898E-6,4.159224167968E-8},
    {-3.61288961344E-5,1.061375182453E-5,-2.15845688098E-6,4.153573858707E-8},
    {-3.59837818489E-5,1.061352028439E-5,-2.16016113303E-6,4.156700611467E-8},
    {-3.61401988558E-5,1.06137780319E-5,-2.16000742315E-6,4.155293834583E-8},
    {-3.60642327555E-5,1.061351153243E-5,-2.12684877657E-6,4.157414105017E-8},
    {-3.60059574273E-5,1.061351487952E-5,-2.13383976094E-6,4.157002960216E-8},
    {-3.60969768357E-5,1.061352978948E-5,-2.15316887912E-6,4.155959499305E-8},
    {-3.60167302283E-5,1.061393780167E-5,-2.12412536526E-6,4.161702467146E-8},
    {-3.59849930394E-5,1.061350909987E-5,-2.12091222903E-6,4.157579130174E-8},
    {-3.60241381041E-5,1.061366068877E-5,-2.15662024087E-6,4.152719666128E-8},
    {-3.60755111904E-5,1.061362758544E-5,-2.12218833369E-6,4.15408006094E-8},
    {-3.59977550691E-5,1.061366978469E-5,-2.10525780351E-6,4.153354554461E-8},
    {-3.6036605906E-5,1.061397910688E-5,-2.12680764916E-6,4.160979785667E-8},
    {-3.61407964169E-5,1.061389526374E-5,-2.10801293755E-6,4.158770936068E-8},
    {-3.58560182905E-5,1.061356972998E-5,-2.1093219065E-6,4.156559501001E-8}}},
  {{2.83755195828E-15,-9.1266767042E-14,5.18378469727E-12},{Residual->3.47996353798E-15}},
  {{-.2,2.30663086398E-13},{-.15,1.34134307754E-13},{-.1,6.17569222176E-14},{-.05,1.41504413761E-14},{0,1.72728572714E-15},
   {.05,1.52348920753E-14},{.1,5.03975834987E-14},{.15,1.07275418215E-13},{.2,1.87765734955E-13}}},
 {"Y44",1,
  {7.398300803622E-8,1.061358460649E-5,1.879203682703E-8,4.155912924029E-8,{{-3.61406613469E-5,1.061361778565E-5,-2.16195192418E-6,
     4.152352275007E-8},
    {-3.59303477221E-5,1.061362683802E-5,-2.12631850727E-6,4.152864750582E-8},
    {-3.60314203303E-5,1.061361739254E-5,-2.17394646115E-6,4.154004358068E-8},
    {-3.6016014188E-5,1.061355121593E-5,-2.17424188217E-6,4.156319711818E-8},
    {-3.6041971017E-5,1.061353202196E-5,-2.13723863954E-6,4.155854154639E-8},
    {-3.60500407697E-5,1.061367879995E-5,-2.16402498564E-6,4.155601252765E-8},
    {-3.59443112125E-5,1.061378593232E-5,-2.13537862406E-6,4.154027436727E-8},
    {-3.59983462573E-5,1.061379941612E-5,-2.11433369961E-6,4.156127122135E-8},
    {-3.60078037894E-5,1.061332620569E-5,-2.15694405594E-6,4.16262530047E-8},
    {-3.60673581391E-5,1.061359917455E-5,-2.12658454514E-6,4.152776410944E-8},
    {-3.61154601791E-5,1.061350108248E-5,-2.14386662323E-6,4.156778623213E-8},
    {-3.59669744868E-5,1.061364711013E-5,-2.11485557804E-6,4.153119865289E-8},
    {-3.62016711656E-5,1.061345373092E-5,-2.12584911481E-6,4.158580475748E-8},
    {-3.61349649996E-5,1.061364148145E-5,-2.11681094523E-6,4.154942027148E-8},
    {-3.61210405655E-5,1.061376963895E-5,-2.13271577708E-6,4.154142146785E-8},
    {-3.60831622142E-5,1.061364467797E-5,-2.15693745436E-6,4.151877066257E-8},
    {-3.61502623585E-5,1.061343059732E-5,-2.14763171471E-6,4.160093184953E-8},
    {-3.59430156505E-5,1.061329051512E-5,-2.1221769306E-6,4.163704735731E-8},
    {-3.60471580909E-5,1.061356228328E-5,-2.12494840497E-6,4.15623162659E-8},
    {-3.60295602342E-5,1.061361622947E-5,-2.14304862988E-6,4.156235955701E-8}}},
  {{1.19404213167E-15,-3.2747273113E-15,4.04809663302E-14},{Residual->1.17542751894E-15}},
  {{-.6,1.91625034203E-14},{-.4,7.27308062856E-15},{-.2,2.26960996031E-15},{1.11022302463E-16,1.7266668477E-15},
   {.2,3.37307395428E-15},{.4,7.08439261984E-15},{.6,1.28076497805E-14}}},
 {"AY",1,
  {5.693280306977E-8,1.061445087528E-5,2.340459339785E-8,4.24407073986E-8,{{-3.60443013718E-5,1.06142820563E-5,-2.08118593022E-6,
     4.24271155157E-8},
    {-3.6023634863E-5,1.06147255451E-5,-2.1475046232E-6,4.247341508724E-8},
    {-3.59958130148E-5,1.06145139079E-5,-2.10821465832E-6,4.246371405639E-8},
    {-3.60267988823E-5,1.061462387638E-5,-2.10991824833E-6,4.247695512066E-8},
    {-3.61202334336E-5,1.061424092764E-5,-2.1108751696E-6,4.240538051328E-8},
    {-3.60384021284E-5,1.061433052218E-5,-2.10812045232E-6,4.243819155675E-8},
    {-3.60872631659E-5,1.061450946059E-5,-2.10694590034E-6,4.246119414823E-8},
    {-3.61265518802E-5,1.061451515886E-5,-2.10708586931E-6,4.246009436991E-8},
    {-3.5942529827E-5,1.061437315928E-5,-2.17392240304E-6,4.240657381819E-8},
    {-3.60362342053E-5,1.0614526364E-5,-2.14559914878E-6,4.245675365864E-8},
    {-3.59985019041E-5,1.061457586178E-5,-2.15129672438E-6,4.245930885054E-8},
    {-3.61171403861E-5,1.061432916216E-5,-2.1313051074E-6,4.240778032428E-8},
    {-3.60707301273E-5,1.06141463114E-5,-2.13081943032E-6,4.233734231093E-8},
    {-3.61747555717E-5,1.061445777173E-5,-2.127615527E-6,4.246325662355E-8},
    {-3.60515086652E-5,1.06145256026E-5,-2.1245129116E-6,4.246952278425E-8},
    {-3.61367892968E-5,1.061435097243E-5,-2.13887502968E-6,4.241911981946E-8},
    {-3.60385374475E-5,1.061452585785E-5,-2.17938652463E-6,4.245400273656E-8},
    {-3.6068470995E-5,1.06142785721E-5,-2.13789840526E-6,4.242684522297E-8},
    {-3.61000542029E-5,1.061473953151E-5,-2.11825617557E-6,4.244873135259E-8},
    {-3.59826273064E-5,1.061444688383E-5,-2.11563235353E-6,4.245885010178E-8}}},
  {{-9.7425043064E-17,-6.4051518496E-14,3.94666764739E-12},{Residual->1.46358373729E-15}},
  {{-.1,4.7357320015E-14},{-.07,2.20414057916E-14},{-.04,6.75520074216E-15},{-.01,2.0369972973E-15},{.02,2.13782792086E-15},
   {.05,6.40986144458E-15},{.08,1.92817098492E-14}}},
 {"EY",1,
  {5.222806643092E-8,1.061662265626E-5,1.778971372234E-8,4.238686190186E-8,{{-3.53514761969E-5,1.06166417715E-5,-2.19361174772E-6,
     4.240821395479E-8},
    {-3.54552724828E-5,1.061655553078E-5,-2.17155405045E-6,4.233926803676E-8},
    {-3.54379514177E-5,1.061677988553E-5,-2.1889759978E-6,4.232807865319E-8},
    {-3.5418235494E-5,1.061664520326E-5,-2.19295250088E-6,4.233910771733E-8},
    {-3.5435646023E-5,1.061672558669E-5,-2.19862415735E-6,4.239185345898E-8},
    {-3.53080711266E-5,1.061685870341E-5,-2.16187342561E-6,4.235717175128E-8},
    {-3.53030292032E-5,1.061675370252E-5,-2.21932057369E-6,4.234193821983E-8},
    {-3.534572444E-5,1.061652338233E-5,-2.15760860056E-6,4.242624380948E-8},
    {-3.52786223334E-5,1.061648245719E-5,-2.19482282364E-6,4.244628829177E-8},
    {-3.54251150689E-5,1.061653104118E-5,-2.18735672896E-6,4.241295497977E-8},
    {-3.54163924505E-5,1.061661901105E-5,-2.1902320914E-6,4.238953326182E-8},
    {-3.54501845166E-5,1.06166498495E-5,-2.20472910602E-6,4.235179608992E-8},
    {-3.5414406371E-5,1.06164871477E-5,-2.16737754814E-6,4.242488099319E-8},
    {-3.5353017909E-5,1.061647208752E-5,-2.2124911052E-6,4.242606361335E-8},
    {-3.53950906824E-5,1.061649908071E-5,-2.15996938914E-6,4.237253257343E-8},
    {-3.5394810188E-5,1.061670514089E-5,-2.18402089459E-6,4.236543550369E-8},
    {-3.54141254451E-5,1.061667723819E-5,-2.16111535214E-6,4.239620811281E-8},
    {-3.53283158376E-5,1.061659337059E-5,-2.18772605968E-6,4.240309010433E-8},
    {-3.53698470477E-5,1.061666720411E-5,-2.20090835729E-6,4.239818187535E-8},
    {-3.53248146518E-5,1.061658573064E-5,-2.16757046387E-6,4.241839703607E-8}}},
  {{1.78852810355E-15,-1.5309590823E-15,5.2154902352E-13},{Residual->3.76585577734E-17}},
  {{-.1,7.19500019053E-15},{-.07,4.41935122598E-15},{-.04,2.63450093039E-15},{-.01,1.85849274654E-15},{.02,2.00854505881E-15},
   {.05,3.05565058168E-15},{.08,4.96344283584E-15}}},
 {"R32",1,
  {5.303155629064E-8,1.060606295022E-5,2.008879849849E-8,4.256274974016E-8,{{-3.73555880848E-5,1.060617040853E-5,-1.97794177004E-6,
     4.255449680485E-8},
    {-3.73201040348E-5,1.060603476847E-5,-1.98227034349E-6,4.257973341402E-8},
    {-3.73702113379E-5,1.060596276761E-5,-2.0302336821E-6,4.257025419388E-8},
    {-3.73152833486E-5,1.06059675315E-5,-1.97994777692E-6,4.25907659696E-8},
    {-3.73419656289E-5,1.060599730018E-5,-2.03488278379E-6,4.257734251492E-8},
    {-3.73910859705E-5,1.060609926806E-5,-1.99155053655E-6,4.254708244463E-8},
    {-3.71584402303E-5,1.060618877379E-5,-1.99714395356E-6,4.255563406014E-8},
    {-3.73068555121E-5,1.060617974765E-5,-2.01135217156E-6,4.251823202306E-8},
    {-3.72574515871E-5,1.06059404433E-5,-1.99398284467E-6,4.260675034714E-8},
    {-3.72715999315E-5,1.06060346701E-5,-1.97975302035E-6,4.258039238065E-8},
    {-3.73475403219E-5,1.060612091339E-5,-1.98948504457E-6,4.253837616895E-8},
    {-3.73095703313E-5,1.060609245888E-5,-2.00500954555E-6,4.253837551436E-8},
    {-3.72940284991E-5,1.060602759691E-5,-2.02341580774E-6,4.25681931717E-8},
    {-3.73479318023E-5,1.060599822616E-5,-1.94974640187E-6,4.25880646416E-8},
    {-3.73222896712E-5,1.060612068195E-5,-1.96850241376E-6,4.254672956356E-8},
    {-3.72599496248E-5,1.060596908288E-5,-1.98348084492E-6,4.258215224045E-8},
    {-3.73618802255E-5,1.060604776645E-5,-1.9913392927E-6,4.256750570141E-8},
    {-3.73735633876E-5,1.060606446676E-5,-1.99538431438E-6,4.255632781189E-8},
    {-3.72674701968E-5,1.060607962252E-5,-2.00958137119E-6,4.256161487135E-8},
    {-3.73561746969E-5,1.060616250928E-5,-1.99375847351E-6,4.25269709651E-8}}},
  {{1.89774587449E-15,8.48603842133E-15,3.70065383705E-13},{Residual->9.52031778884E-17}},
  {{-.1,4.64707439478E-15},{-.07,3.23178719167E-15},{-.04,2.26379052296E-15},{-.01,1.80386249267E-15},{.02,2.0666778302E-15},
   {.05,3.27201422474E-15},{.08,4.98968521288E-15}}},
 {"Y24",1,
  {6.706324884881E-8,1.060243767514E-5,1.815414590158E-8,4.222491230091E-8,{{-3.90038402115E-5,1.060241036784E-5,-2.84795791261E-6,
     4.229033730367E-8},
    {-3.89503810807E-5,1.060248576928E-5,-2.83291697037E-6,4.216073492515E-8},
    {-3.90129572081E-5,1.060239349053E-5,-2.8476571263E-6,4.225327878858E-8},
    {-3.90988054964E-5,1.060245316914E-5,-2.83315423512E-6,4.226468181117E-8},
    {-3.89230448036E-5,1.060244811246E-5,-2.84328690355E-6,4.21892705294E-8},
    {-3.90207226907E-5,1.060257689071E-5,-2.84289659362E-6,4.211346625357E-8},
    {-3.89381075474E-5,1.060241338231E-5,-2.83399862787E-6,4.224882062976E-8},
    {-3.89001794729E-5,1.060239398422E-5,-2.87557896545E-6,4.223052022173E-8},
    {-3.90853477402E-5,1.060250023841E-5,-2.8431711622E-6,4.216209616083E-8},
    {-3.89416532325E-5,1.060246957319E-5,-2.84743156052E-6,4.215893727583E-8},
    {-3.90771506307E-5,1.060241240265E-5,-2.8612186963E-6,4.230786397524E-8},
    {-3.91406327476E-5,1.060239324641E-5,-2.8781192227E-6,4.2216507619E-8},
    {-3.9034776567E-5,1.060242683948E-5,-2.85063090162E-6,4.223501886628E-8},
    {-3.90235533041E-5,1.060239067733E-5,-2.81014416088E-6,4.225722475482E-8},
    {-3.91169487443E-5,1.060241383194E-5,-2.81790335163E-6,4.226238708681E-8},
    {-3.90426224278E-5,1.060246890944E-5,-2.85874025374E-6,4.220599223738E-8},
    {-3.89575711452E-5,1.060233942563E-5,-2.85171992527E-6,4.22530654951E-8},
    {-3.89373703831E-5,1.060238987176E-5,-2.83054617666E-6,4.232360393455E-8},
    {-3.90189730162E-5,1.060245429951E-5,-2.88031786702E-6,4.223629738266E-8},
    {-3.90293876276E-5,1.060251902064E-5,-2.86262619933E-6,4.212814076674E-8}}},
  {{1.79590372905E-15,-4.1848712136E-16,2.09598049998E-15},{Residual->1.56018244171E-17}},
  {{-.3,2.12273382984E-15},{-.2,1.95350629288E-15},{-.1,1.84454945898E-15},{5.55111512313E-17,1.79138595891E-15},
   {.1,1.78319986919E-15},{.2,1.82367597536E-15},{.3,1.83914925819E-15}}},
 {"Y46",1,
  {5.430347026345E-8,1.06140783564E-5,2.093137216307E-8,4.079629673237E-8,{{-3.8943320722E-5,1.061433810069E-5,-2.82646097576E-6,
     4.075350395396E-8},
    {-3.90304183213E-5,1.061405351915E-5,-2.82729467718E-6,4.081404080519E-8},
    {-3.90651179962E-5,1.061421249666E-5,-2.81758456593E-6,4.075872613402E-8},
    {-3.89129185111E-5,1.061398512181E-5,-2.83144367903E-6,4.080692400213E-8},
    {-3.90056616855E-5,1.061398780143E-5,-2.85034949683E-6,4.080563410402E-8},
    {-3.8863216204E-5,1.061395517846E-5,-2.8394175101E-6,4.081734323152E-8},
    {-3.89234837137E-5,1.06139936352E-5,-2.81281384473E-6,4.081143952654E-8},
    {-3.89570080869E-5,1.061403864785E-5,-2.83120426088E-6,4.081465911233E-8},
    {-3.89853272835E-5,1.061412235016E-5,-2.83976531847E-6,4.078188029883E-8},
    {-3.89168593888E-5,1.061413710557E-5,-2.816417468E-6,4.078749900897E-8},
    {-3.8953017795E-5,1.061392074918E-5,-2.8338394236E-6,4.082688872193E-8},
    {-3.90121256285E-5,1.061403842355E-5,-2.89096641148E-6,4.081337318834E-8},
    {-3.88932785411E-5,1.061413304601E-5,-2.86380153997E-6,4.080089353106E-8},
    {-3.89501579796E-5,1.061402210687E-5,-2.83157628543E-6,4.081625004097E-8},
    {-3.90089204242E-5,1.061400005123E-5,-2.86998947333E-6,4.07965390254E-8},
    {-3.9013792383E-5,1.061399144618E-5,-2.82632348591E-6,4.078925122783E-8},
    {-3.89688334662E-5,1.061434266362E-5,-2.85566718816E-6,4.077293832423E-8},
    {-3.90610666408E-5,1.061416587248E-5,-2.79825292086E-6,4.077069485823E-8},
    {-3.89658104138E-5,1.061405143586E-5,-2.82719171045E-6,4.081611842109E-8},
    {-3.89038754805E-5,1.061407737606E-5,-2.84687088513E-6,4.077133713077E-8}}},
  {{1.75074957366E-15,1.22142197155E-15,1.04013012619E-14},{Residual->1.03067856324E-16}},
  {{-.45,3.42093917479E-15},{-.3,2.20911311088E-15},{-.15,1.66432938653E-15},{-5.5511151231E-17,1.7837761314E-15},
   {.15,2.30210960038E-15},{.3,3.11016240715E-15},{.45,4.31763699949E-15}}},
 {"Y22",1,
  {6.492652315864E-8,1.06140796038E-5,1.291501805383E-8,4.079699832646E-8,{{-3.89841047755E-5,1.061437703379E-5,-2.83619007417E-6,
     4.073343338595E-8},
    {-3.89722293048E-5,1.06141468551E-5,-2.85878895549E-6,4.077098008274E-8},
    {-3.89243993002E-5,1.061414409799E-5,-2.83189288813E-6,4.079975254472E-8},
    {-3.89751669957E-5,1.061402507976E-5,-2.86304842599E-6,4.082994588965E-8},
    {-3.89782251748E-5,1.061413446275E-5,-2.83550770435E-6,4.080342992686E-8},
    {-3.88609361146E-5,1.061402338469E-5,-2.83398396974E-6,4.08131263718E-8},
    {-3.89001647543E-5,1.061379609753E-5,-2.86658905547E-6,4.082318801629E-8},
    {-3.89374997195E-5,1.06141959341E-5,-2.8600261124E-6,4.080777154938E-8},
    {-3.90192174716E-5,1.061406839783E-5,-2.8427431584E-6,4.078189044464E-8},
    {-3.88648956709E-5,1.061396093077E-5,-2.86248788366E-6,4.082130787827E-8},
    {-3.90922792399E-5,1.061398110973E-5,-2.8626219525E-6,4.080238778963E-8},
    {-3.90438897352E-5,1.061412805487E-5,-2.82934916664E-6,4.077893926694E-8},
    {-3.90411704931E-5,1.061416934349E-5,-2.84239487503E-6,4.077926773227E-8},
    {-3.89651960194E-5,1.061397331256E-5,-2.84180301391E-6,4.082019410138E-8},
    {-3.90302723758E-5,1.061415665683E-5,-2.82359180548E-6,4.072208986312E-8},
    {-3.88811665728E-5,1.061414031446E-5,-2.86012827521E-6,4.07652492203E-8},
    {-3.89622780613E-5,1.061412224929E-5,-2.85177334032E-6,4.080317507465E-8},
    {-3.88590073262E-5,1.061413510631E-5,-2.85645062226E-6,4.08099383602E-8},
    {-3.89126663195E-5,1.061403078468E-5,-2.85310624307E-6,4.084008959202E-8},
    {-3.8932734037E-5,1.061388286937E-5,-2.85344640408E-6,4.083380943834E-8}}},
  {{1.97028665015E-15,-3.764357424E-15,4.1303904231E-14},{Residual->4.29318023849E-16}},
  {{-.6,1.94909791687E-14},{-.4,9.71884637312E-15},{-.2,4.0594659095E-15},{1.11022302463E-16,1.66407249078E-15},
   {.2,3.45129530233E-15},{.4,7.5647608511E-15},{.6,1.41029591943E-14}}},
 {"Y26",1,
  {6.282606158233E-8,1.06140974748E-5,1.829391927551E-8,4.078832714472E-8,{{-3.89383159344E-5,1.061409366163E-5,-2.82449263832E-6,
     4.080133709451E-8},
    {-3.8977204077E-5,1.061390005753E-5,-2.89209996519E-6,4.083772859116E-8},
    {-3.9036320618E-5,1.061410139443E-5,-2.84549965681E-6,4.079202923421E-8},
    {-3.89263467234E-5,1.061403999857E-5,-2.83833860414E-6,4.081719306283E-8},
    {-3.89468977711E-5,1.061408525764E-5,-2.82712311147E-6,4.080026783817E-8},
    {-3.89229843313E-5,1.061408758639E-5,-2.85562753262E-6,4.078232596605E-8},
    {-3.89044965805E-5,1.061391742289E-5,-2.82098582378E-6,4.080380024676E-8},
    {-3.89895716668E-5,1.061416417441E-5,-2.86563397665E-6,4.079033465974E-8},
    {-3.89520711568E-5,1.061401062333E-5,-2.84049580449E-6,4.078232858979E-8},
    {-3.91366974153E-5,1.061433037417E-5,-2.87563826068E-6,4.077693603355E-8},
    {-3.90488247951E-5,1.061391952836E-5,-2.84682780656E-6,4.081993131734E-8},
    {-3.90884664916E-5,1.061413403992E-5,-2.83129998683E-6,4.073132774303E-8},
    {-3.89142012917E-5,1.061403079207E-5,-2.87238540231E-6,4.083862294795E-8},
    {-3.90202792215E-5,1.06144090434E-5,-2.8390201995E-6,4.070473719718E-8},
    {-3.89725785377E-5,1.061410390829E-5,-2.82683736982E-6,4.072372057055E-8},
    {-3.89602043878E-5,1.061427779462E-5,-2.83730514981E-6,4.077147267843E-8},
    {-3.89971946646E-5,1.061398694951E-5,-2.8488001494E-6,4.082463414235E-8},
    {-3.88956201341E-5,1.061410321116E-5,-2.84203320733E-6,4.079812820825E-8},
    {-3.90358115265E-5,1.061418314961E-5,-2.86237805924E-6,4.075137551085E-8},
    {-3.8932644798E-5,1.0614070528E-5,-2.84685178009E-6,4.081831126175E-8}}},
  {{2.07470128954E-15,5.78004679215E-14,5.45083113096E-13},{Residual->2.63083716115E-15}},
  {{-.3,3.10130058884E-14},{-.2,1.50581160923E-14},{-.1,5.04976089231E-15},{5.55111512313E-17,1.66348224051E-15},
   {.1,8.99727419347E-15},{.2,3.50445774311E-14},{.3,7.03199639555E-14}}},
 {"Y66",1,
  {5.035643173452E-8,1.061407547059E-5,1.612632502447E-8,4.079738308189E-8,{{-3.89953610246E-5,1.061390228161E-5,-2.84924386756E-6,
     4.083113676133E-8},
    {-3.89861996063E-5,1.061396131009E-5,-2.83432000713E-6,4.08150990341E-8},
    {-3.89270511799E-5,1.061417475603E-5,-2.88408201173E-6,4.081309846082E-8},
    {-3.9003182533E-5,1.06138729234E-5,-2.86213557719E-6,4.082718064887E-8},
    {-3.89794177945E-5,1.061420982087E-5,-2.81139792224E-6,4.076378131569E-8},
    {-3.89753177903E-5,1.061398381244E-5,-2.8607896798E-6,4.082122444543E-8},
    {-3.90124740041E-5,1.061416153086E-5,-2.84650569574E-6,4.081168852977E-8},
    {-3.90169049721E-5,1.06139819158E-5,-2.83558657114E-6,4.078685644938E-8},
    {-3.88873870852E-5,1.061406409532E-5,-2.83934548256E-6,4.081319711313E-8},
    {-3.89653192619E-5,1.061401641181E-5,-2.81949954895E-6,4.078986260017E-8},
    {-3.8981572237E-5,1.061418281384E-5,-2.82913878375E-6,4.075737999002E-8},
    {-3.88347667521E-5,1.061394137186E-5,-2.84701325161E-6,4.082228872864E-8},
    {-3.89237988205E-5,1.061418199988E-5,-2.82600998704E-6,4.079236822482E-8},
    {-3.89654144875E-5,1.061427336546E-5,-2.84377191521E-6,4.078229268396E-8},
    {-3.89891073484E-5,1.061410324621E-5,-2.84041794268E-6,4.074473817442E-8},
    {-3.88765581545E-5,1.061411262074E-5,-2.82778883589E-6,4.081238865496E-8},
    {-3.88918218218E-5,1.061415959518E-5,-2.84103060384E-6,4.080129283762E-8},
    {-3.89540732962E-5,1.06141432157E-5,-2.83930286035E-6,4.079394886671E-8},
    {-3.89129554662E-5,1.061418323925E-5,-2.86163901449E-6,4.073988031548E-8},
    {-3.88943983472E-5,1.061389908556E-5,-2.84327211495E-6,4.082795780243E-8}}},
  {{3.67905104027E-15,-1.9559379183E-13,5.46879568122E-12},{Residual->4.17746152533E-15}},
  {{-.2,2.63699437513E-13},{-.15,1.5797797055E-13},{-.1,7.53992318011E-14},{-.05,1.98803070963E-14},{0,1.6638472517E-15},
   {.05,1.28874463023E-14},{.1,4.501679032E-14},{.15,9.79150928918E-14},{.2,1.7899068782E-13}}},
 {"Y44",1,
  {5.650593101666E-8,1.061410930856E-5,1.947945384124E-8,4.078529237328E-8,{{-3.89026792235E-5,1.061405691124E-5,-2.84211339432E-6,
     4.081980117308E-8},
    {-3.90640216745E-5,1.061407060928E-5,-2.8757225806E-6,4.079823682714E-8},
    {-3.90027605165E-5,1.061413132217E-5,-2.85331369798E-6,4.078587382221E-8},
    {-3.89099665515E-5,1.061417223533E-5,-2.83593108527E-6,4.071485369732E-8},
    {-3.9001826033E-5,1.061388952834E-5,-2.87154081019E-6,4.082789292531E-8},
    {-3.90439594589E-5,1.061416944017E-5,-2.83011329915E-6,4.075422177852E-8},
    {-3.89343261613E-5,1.061405963946E-5,-2.84126910555E-6,4.08089474936E-8},
    {-3.90303525991E-5,1.061422947921E-5,-2.8740434835E-6,4.077446293859E-8},
    {-3.89926445663E-5,1.061381537029E-5,-2.83006954104E-6,4.082599563595E-8},
    {-3.89382063191E-5,1.06141226696E-5,-2.81538829505E-6,4.079423604135E-8},
    {-3.88773916683E-5,1.061413205696E-5,-2.85868745104E-6,4.082521322777E-8},
    {-3.89265989368E-5,1.061413823524E-5,-2.81490993619E-6,4.072500557605E-8},
    {-3.88847269248E-5,1.06141721093E-5,-2.87981426097E-6,4.080434526166E-8},
    {-3.89043232751E-5,1.061417413485E-5,-2.84373694733E-6,4.074220853835E-8},
    {-3.90357145551E-5,1.06140190452E-5,-2.84264753333E-6,4.080804754128E-8},
    {-3.89855351368E-5,1.061435477595E-5,-2.8589137075E-6,4.076416665267E-8},
    {-3.89117276668E-5,1.061426116839E-5,-2.82003736981E-6,4.075338488294E-8},
    {-3.89784629012E-5,1.061418856092E-5,-2.82550755371E-6,4.076607911524E-8},
    {-3.90029020983E-5,1.061408200415E-5,-2.83931262246E-6,4.081285035167E-8},
    {-3.89156573787E-5,1.06139468752E-5,-2.83685815462E-6,4.080002398488E-8}}},
  {{1.1881779924E-15,-1.0623061287E-14,4.76220738181E-14},{Residual->1.52385770647E-15}},
  {{-.6,2.63246696829E-14},{-.4,1.15925910687E-14},{-.2,3.0720604718E-15},{1.11022302463E-16,1.66413135628E-15},
   {.2,2.77707231622E-15},{.4,5.70529504645E-15},{.6,1.05181486808E-14}}},
 {"AY",1,
  {7.145106428969E-8,1.061406771372E-5,2.085451431272E-8,4.030191085784E-8,{{-3.89552579205E-5,1.061410056285E-5,-2.81138138622E-6,
     4.027465278154E-8},
    {-3.89627507932E-5,1.061401325466E-5,-2.82791299137E-6,4.035946399513E-8},
    {-3.89501447792E-5,1.06141058155E-5,-2.8750541082E-6,4.032118832066E-8},
    {-3.89745677796E-5,1.061410508855E-5,-2.84608031427E-6,4.034908880163E-8},
    {-3.89935668789E-5,1.061423093846E-5,-2.81428504833E-6,4.030537397854E-8},
    {-3.88659904223E-5,1.061403659394E-5,-2.85570804485E-6,4.029810507435E-8},
    {-3.88939176551E-5,1.061390036729E-5,-2.87303830693E-6,4.031599252063E-8},
    {-3.9009348384E-5,1.061383303467E-5,-2.84868367435E-6,4.025813461714E-8},
    {-3.89380582672E-5,1.061417231474E-5,-2.84168369069E-6,4.031299612961E-8},
    {-3.88146951813E-5,1.061406462494E-5,-2.84962312981E-6,4.035081218632E-8},
    {-3.89880534777E-5,1.061428139135E-5,-2.89442065975E-6,4.032777662108E-8},
    {-3.90799434573E-5,1.061397081707E-5,-2.85329344033E-6,4.024575578573E-8},
    {-3.91243365627E-5,1.06141522682E-5,-2.85533055436E-6,4.027327085324E-8},
    {-3.90110463147E-5,1.06142169433E-5,-2.87087996659E-6,4.034889288922E-8},
    {-3.90708422557E-5,1.06139969173E-5,-2.86006949939E-6,4.028687115246E-8},
    {-3.89755390253E-5,1.061410420434E-5,-2.87692912239E-6,4.031741503884E-8},
    {-3.8910609368E-5,1.061405137916E-5,-2.86331263997E-6,4.030516052462E-8},
    {-3.90157470078E-5,1.061398364863E-5,-2.85169556782E-6,4.027019827127E-8},
    {-3.89135142342E-5,1.061411649165E-5,-2.82553496498E-6,4.022969048177E-8},
    {-3.89972692117E-5,1.061391761787E-5,-2.83719774235E-6,4.028737713292E-8}}},
  {{-2.2692088746E-16,1.16791235719E-14,3.77193209531E-12},{Residual->1.2798446925E-15}},
  {{-.1,3.76744612665E-14},{-.07,1.5369588209E-14},{-.04,4.44973978251E-15},{-.01,1.61854474935E-15},{.02,2.54242970596E-15},
   {.05,8.78500318581E-15},{.08,2.48472895072E-14}}},
 {"EY",1,
  {6.135709753756E-8,1.061480867716E-5,1.877943994033E-8,3.961515942776E-8,{{-3.76052020116E-5,1.061481347048E-5,-2.61992934468E-6,
     3.961389489501E-8},
    {-3.77718744213E-5,1.061489253959E-5,-2.64692977503E-6,3.961379747717E-8},
    {-3.77473548728E-5,1.061489812861E-5,-2.64643787605E-6,3.96039931512E-8},
    {-3.76593503357E-5,1.061478869925E-5,-2.66449542236E-6,3.964306355228E-8},
    {-3.76566083136E-5,1.061480022326E-5,-2.67232341782E-6,3.962437618457E-8},
    {-3.78405329006E-5,1.061481430986E-5,-2.65640020123E-6,3.963375358923E-8},
    {-3.77674489721E-5,1.061464701477E-5,-2.6580934858E-6,3.960541766208E-8},
    {-3.76124976759E-5,1.061493158343E-5,-2.66414984855E-6,3.960477909297E-8},
    {-3.77184555808E-5,1.061494540173E-5,-2.65014708879E-6,3.959790914834E-8},
    {-3.76957162187E-5,1.061491185935E-5,-2.63618660311E-6,3.963087344446E-8},
    {-3.76204006362E-5,1.061481615721E-5,-2.66654501634E-6,3.961288337735E-8},
    {-3.76514821847E-5,1.061484300853E-5,-2.65483355097E-6,3.962507025198E-8},
    {-3.76587657637E-5,1.061479585651E-5,-2.62846260738E-6,3.959437232134E-8},
    {-3.77425645437E-5,1.061472857016E-5,-2.6299619006E-6,3.962392473213E-8},
    {-3.76592996899E-5,1.061456406094E-5,-2.64963905874E-6,3.962245412005E-8},
    {-3.76299911577E-5,1.061476229274E-5,-2.68778629211E-6,3.962175758069E-8},
    {-3.76939500255E-5,1.061470993848E-5,-2.60875726535E-6,3.95872095802E-8},
    {-3.76622855322E-5,1.061475254375E-5,-2.66857579044E-6,3.965715316212E-8},
    {-3.7671676883E-5,1.061480159014E-5,-2.64910542002E-6,3.958983772474E-8},
    {-3.7759645259E-5,1.061495629444E-5,-2.66786687472E-6,3.959666750734E-8}}},
  {{1.65634308511E-15,1.25411744448E-14,5.40947386655E-13},{Residual->3.35744439604E-17}},
  {{-.1,5.82615016286E-15},{-.07,3.43288139783E-15},{-.04,1.98702669253E-15},{-.01,1.55920973193E-15},{.02,2.14556284378E-15},
   {.05,3.69633003935E-15},{.08,6.07989583069E-15}}},
 {"R32",1,
  {7.559057947196E-8,1.061206171838E-5,1.869321216747E-8,4.038109354234E-8,{{-3.84073123215E-5,1.061193152871E-5,-2.58957393175E-6,
     4.036689521173E-8},
    {-3.85971550757E-5,1.061206276234E-5,-2.60555697366E-6,4.035576943841E-8},
    {-3.84960999147E-5,1.061203716467E-5,-2.61305229477E-6,4.037577012139E-8},
    {-3.84887004833E-5,1.061208081568E-5,-2.62220229184E-6,4.037895733894E-8},
    {-3.85064231447E-5,1.061236938963E-5,-2.58817944905E-6,4.039332751624E-8},
    {-3.8406908046E-5,1.061216562966E-5,-2.60112428433E-6,4.037961450323E-8},
    {-3.85213603613E-5,1.061212273815E-5,-2.62529342694E-6,4.039587732814E-8},
    {-3.84429568785E-5,1.061208009036E-5,-2.59663766609E-6,4.038030475779E-8},
    {-3.84825483729E-5,1.06120796854E-5,-2.61688714838E-6,4.040567531759E-8},
    {-3.85357332325E-5,1.061211448916E-5,-2.58988257086E-6,4.038533777364E-8},
    {-3.84034902894E-5,1.061211474998E-5,-2.61464221241E-6,4.038489165227E-8},
    {-3.85885968682E-5,1.061209131513E-5,-2.63297776938E-6,4.039725267028E-8},
    {-3.84394946888E-5,1.061192762954E-5,-2.62205990164E-6,4.036993970134E-8},
    {-3.84691219331E-5,1.061210332087E-5,-2.61807252301E-6,4.041069682193E-8},
    {-3.85123114678E-5,1.061205258822E-5,-2.64169933841E-6,4.040739596797E-8},
    {-3.85205256909E-5,1.061204882208E-5,-2.65544310897E-6,4.041912472804E-8},
    {-3.85072181293E-5,1.061194779979E-5,-2.5925069548E-6,4.033406911527E-8},
    {-3.86223837736E-5,1.061188875335E-5,-2.61463126412E-6,4.034926938836E-8},
    {-3.86510415609E-5,1.061199613824E-5,-2.61746294892E-6,4.038959626703E-8},
    {-3.86588959416E-5,1.061201895658E-5,-2.58107370953E-6,4.034210522719E-8}}},
  {{1.67413217265E-15,3.45798605151E-15,3.54274426313E-13},{Residual->9.20979254415E-17}},
  {{-.1,4.7688454703E-15},{-.07,3.27336911667E-15},{-.04,2.20790393393E-15},{-.01,1.66889993987E-15},{.02,1.75170099974E-15},
   {.05,2.68318759832E-15},{.08,4.29866676766E-15}}},
 {"Y24",1,
  {3.923660043534E-8,1.061142446726E-5,1.531705546788E-8,3.893427025691E-8,{{-3.97372392214E-5,1.061154459329E-5,-3.33843138528E-6,
     3.897321135448E-8},
    {-3.96854916976E-5,1.061143927035E-5,-3.34627452168E-6,3.888055527171E-8},
    {-3.97398323406E-5,1.061156523836E-5,-3.37375283909E-6,3.899093569586E-8},
    {-3.96803457355E-5,1.061145939591E-5,-3.33673451038E-6,3.892884295255E-8},
    {-3.971755658E-5,1.061173716226E-5,-3.34834399662E-6,3.90462853269E-8},
    {-3.97591399769E-5,1.061135212417E-5,-3.33318048146E-6,3.895512689597E-8},
    {-3.97187592223E-5,1.061136394808E-5,-3.34476014318E-6,3.892305057037E-8},
    {-3.97251806959E-5,1.061144433516E-5,-3.37213600728E-6,3.891704694335E-8},
    {-3.9782610148E-5,1.061145015785E-5,-3.33912758075E-6,3.894125534203E-8},
    {-3.97147451012E-5,1.061134129469E-5,-3.36454264564E-6,3.89267166824E-8},
    {-3.97128903836E-5,1.061136763405E-5,-3.33332361176E-6,3.892509072781E-8},
    {-3.9654044409E-5,1.06113019204E-5,-3.36524568006E-6,3.894056025081E-8},
    {-3.97333982834E-5,1.061134495173E-5,-3.35335818664E-6,3.892899409019E-8},
    {-3.97536665081E-5,1.061155182752E-5,-3.37301366226E-6,3.896235453675E-8},
    {-3.96751870889E-5,1.061142600006E-5,-3.33097645994E-6,3.890012376457E-8},
    {-3.9654760577E-5,1.061133428105E-5,-3.36642469654E-6,3.890099786192E-8},
    {-3.96117410125E-5,1.061147496226E-5,-3.36119491245E-6,3.888863771212E-8},
    {-3.97153003841E-5,1.061137825148E-5,-3.33358614301E-6,3.890763073505E-8},
    {-3.97022871367E-5,1.061128589485E-5,-3.37577524414E-6,3.891505199622E-8},
    {-3.9713554047E-5,1.061132610175E-5,-3.34822985333E-6,3.893293642707E-8}}},
  {{1.64134237127E-15,-1.2340830848E-15,2.8927205488E-15},{Residual->6.08421212969E-18}},
  {{-.3,2.27587521843E-15},{-.2,2.00247473419E-15},{-.1,1.78697169192E-15},{5.55111512313E-17,1.63605593665E-15},
   {.1,1.55744240662E-15},{.2,1.51494332252E-15},{.3,1.52559504221E-15}}},
 {"Y46",1,
  {5.617482033952E-8,1.062086618625E-5,1.976396227037E-8,3.879154848722E-8,{{-3.96700610592E-5,1.06207995152E-5,-3.35358101406E-6,
     3.87746016484E-8},
    {-3.96400666843E-5,1.062090383216E-5,-3.31490577897E-6,3.879720052493E-8},
    {-3.9598474405E-5,1.062077944464E-5,-3.32103862612E-6,3.87766253196E-8},
    {-3.97407118508E-5,1.062094220595E-5,-3.35564309342E-6,3.88151916886E-8},
    {-3.96483917827E-5,1.062087063028E-5,-3.32430066405E-6,3.878311625885E-8},
    {-3.971641129E-5,1.062086574085E-5,-3.3123135774E-6,3.878665453677E-8},
    {-3.9778593794E-5,1.062092823953E-5,-3.34679257879E-6,3.878622331925E-8},
    {-3.97019906179E-5,1.062080559474E-5,-3.32425335108E-6,3.877292928421E-8},
    {-3.95889479041E-5,1.062077019745E-5,-3.37141290022E-6,3.877901967273E-8},
    {-3.9779626253E-5,1.062094520524E-5,-3.32625465016E-6,3.879658281376E-8},
    {-3.9681276228E-5,1.062086441996E-5,-3.34356029253E-6,3.878675063085E-8},
    {-3.97512031607E-5,1.062066719755E-5,-3.37247259714E-6,3.878484916149E-8},
    {-3.9768938954E-5,1.062081620273E-5,-3.34290859757E-6,3.877426251431E-8},
    {-3.97333215589E-5,1.062089314196E-5,-3.35592087246E-6,3.87995850503E-8},
    {-3.96287287183E-5,1.062078656389E-5,-3.30962084988E-6,3.877671338253E-8},
    {-3.97034041932E-5,1.062087225877E-5,-3.32436701692E-6,3.878423785503E-8},
    {-3.97420587794E-5,1.062097372695E-5,-3.33413302822E-6,3.88197204866E-8},
    {-3.96704051173E-5,1.062088708646E-5,-3.3460515924E-6,3.87931096478E-8},
    {-3.97056073983E-5,1.062098351847E-5,-3.35860081298E-6,3.883747031947E-8},
    {-3.97476502901E-5,1.062096900224E-5,-3.30603625303E-6,3.880612562898E-8}}},
  {{1.47624569958E-15,3.42693401873E-16,1.03223505182E-14},{Residual->1.1630355497E-16}},
  {{-.45,3.54150588521E-15},{-.3,2.17462618632E-15},{-.15,1.50443077258E-15},{-5.5511151231E-17,1.51664250271E-15},
   {.15,1.89498185249E-15},{.3,2.59130933631E-15},{.45,3.61330418788E-15}}},
 {"Y22",1,
  {7.278439816565E-8,1.062087357814E-5,1.807034206794E-8,3.879173560652E-8,{{-3.98353356605E-5,1.06208976499E-5,-3.32869993353E-6,
     3.879041532007E-8},
    {-3.96656631046E-5,1.06208096776E-5,-3.29812779925E-6,3.87929562102E-8},
    {-3.97260347526E-5,1.062088856844E-5,-3.32796681034E-6,3.878842433146E-8},
    {-3.97368754874E-5,1.062093601422E-5,-3.34274360158E-6,3.879479448468E-8},
    {-3.96277125502E-5,1.062075417612E-5,-3.36282801294E-6,3.877984792855E-8},
    {-3.96708033911E-5,1.062083069707E-5,-3.34497188214E-6,3.877977468005E-8},
    {-3.96941994529E-5,1.062103930324E-5,-3.36028903636E-6,3.883483522487E-8},
    {-3.96304521234E-5,1.062095217368E-5,-3.36534960626E-6,3.883202697482E-8},
    {-3.97057800636E-5,1.062085116898E-5,-3.32365767023E-6,3.877795360392E-8},
    {-3.97304971905E-5,1.062091310327E-5,-3.35450052963E-6,3.879900167939E-8},
    {-3.97182432679E-5,1.062100607813E-5,-3.32086330601E-6,3.879350092171E-8},
    {-3.96123413884E-5,1.062087051046E-5,-3.34792445289E-6,3.878336855128E-8},
    {-3.96059780952E-5,1.062092139828E-5,-3.30864542942E-6,3.879988820833E-8},
    {-3.96047676196E-5,1.062074390076E-5,-3.34352827347E-6,3.878921963396E-8},
    {-3.955860544E-5,1.062085067545E-5,-3.35548940425E-6,3.877441065534E-8},
    {-3.97717002856E-5,1.062081116992E-5,-3.3323406933E-6,3.876790638638E-8},
    {-3.97538285117E-5,1.0620789714E-5,-3.32978706128E-6,3.878064397446E-8},
    {-3.96602674704E-5,1.062102011832E-5,-3.34430068159E-6,3.880707462612E-8},
    {-3.95380609255E-5,1.062067577118E-5,-3.31358386371E-6,3.877004169809E-8},
    {-3.97164350186E-5,1.062090969369E-5,-3.33133062534E-6,3.879862703662E-8}}},
  {{1.76105038395E-15,-5.8960060949E-15,4.35141304666E-14},{Residual->5.67429788937E-16}},
  {{-.6,2.1504072592E-14},{-.4,1.06153740852E-14},{-.2,4.10157143246E-15},{1.11022302463E-16,1.5044712738E-15},
   {.2,3.12604641625E-15},{.4,6.93407220075E-15},{.6,1.32775708098E-14}}},
 {"Y26",1,
  {5.106606095978E-8,1.062086077176E-5,1.380985441534E-8,3.878963742029E-8,{{-3.97142839294E-5,1.062073748896E-5,-3.35027976806E-6,
     3.877928332498E-8},
    {-3.97561914534E-5,1.062090914521E-5,-3.33499645436E-6,3.877621702814E-8},
    {-3.97983155266E-5,1.062083019253E-5,-3.33746785836E-6,3.878184969953E-8},
    {-3.96036104893E-5,1.062070932446E-5,-3.32810595123E-6,3.877723443669E-8},
    {-3.96392003494E-5,1.062081697836E-5,-3.34627336502E-6,3.878302174124E-8},
    {-3.96422970517E-5,1.062100213935E-5,-3.35046236561E-6,3.882792730886E-8},
    {-3.97220053777E-5,1.062082757441E-5,-3.34033677764E-6,3.879252998959E-8},
    {-3.96883906955E-5,1.062075781937E-5,-3.3249149571E-6,3.878076935325E-8},
    {-3.97449365063E-5,1.062086194536E-5,-3.33256886114E-6,3.878074551069E-8},
    {-3.96422084749E-5,1.062096254784E-5,-3.34451374945E-6,3.881609154512E-8},
    {-3.96991783997E-5,1.062084199711E-5,-3.36014935038E-6,3.878480644658E-8},
    {-3.96579488087E-5,1.062091263948E-5,-3.34574557973E-6,3.880250499597E-8},
    {-3.96686375949E-5,1.062082737868E-5,-3.32694621181E-6,3.879042402764E-8},
    {-3.96509685937E-5,1.062092151923E-5,-3.32684180411E-6,3.878854178608E-8},
    {-3.97375603668E-5,1.062081107098E-5,-3.35229159376E-6,3.877552824156E-8},
    {-3.97253120717E-5,1.062090670689E-5,-3.33885035439E-6,3.879592396953E-8},
    {-3.96260153523E-5,1.062083179299E-5,-3.33973557512E-6,3.877885213297E-8},
    {-3.97534562786E-5,1.062096722532E-5,-3.37779144237E-6,3.882745834888E-8},
    {-3.97151705625E-5,1.062087969769E-5,-3.31330478898E-6,3.878061183234E-8},
    {-3.97369062002E-5,1.062090025101E-5,-3.33666596286E-6,3.877242668614E-8}}},
  {{2.22335613875E-15,7.41623636416E-14,5.67184643411E-13},{Residual->2.88236715691E-15}},
  {{-.3,2.78910855093E-14},{-.2,1.32616138705E-14},{-.1,4.10604651924E-15},{5.55111512313E-17,1.50443115654E-15},
   {.1,1.08249764446E-14},{.2,3.92289463389E-14},{.3,7.75580932874E-14}}},
 {"Y66",1,
  {5.796909216699E-8,1.062085631386E-5,1.439489731913E-8,3.879049342311E-8,{{-3.96675167213E-5,1.062080801523E-5,-3.34354646957E-6,
     3.877569054496E-8},
    {-3.97415613982E-5,1.062072350354E-5,-3.34930964959E-6,3.878389342272E-8},
    {-3.96812421087E-5,1.062094092154E-5,-3.338045133E-6,3.880566686566E-8},
    {-3.96847153413E-5,1.062086903934E-5,-3.30547923532E-6,3.877832672531E-8},
    {-3.97013370477E-5,1.062104589634E-5,-3.33614467775E-6,3.883097571747E-8},
    {-3.97215061351E-5,1.062069072986E-5,-3.33699423962E-6,3.877390067709E-8},
    {-3.9700680172E-5,1.062062305799E-5,-3.34150112653E-6,3.876731454013E-8},
    {-3.97259987723E-5,1.062084440701E-5,-3.31689356489E-6,3.876560687576E-8},
    {-3.95844573404E-5,1.062085517283E-5,-3.3548730936E-6,3.878296968251E-8},
    {-3.97141253915E-5,1.06207846029E-5,-3.33218351725E-6,3.878248594308E-8},
    {-3.97989560563E-5,1.062096383655E-5,-3.35148941697E-6,3.881717951632E-8},
    {-3.96543686595E-5,1.062090477884E-5,-3.33127277056E-6,3.87890239828E-8},
    {-3.96309709666E-5,1.062094227412E-5,-3.3528055057E-6,3.878940459894E-8},
    {-3.96673955875E-5,1.062078377134E-5,-3.35047700208E-6,3.877906587913E-8},
    {-3.96538838141E-5,1.062098837416E-5,-3.33596046816E-6,3.882580348312E-8},
    {-3.96525163125E-5,1.062079341908E-5,-3.35555944092E-6,3.877606554112E-8},
    {-3.98412619676E-5,1.062079100116E-5,-3.33031844703E-6,3.877297608816E-8},
    {-3.97037154825E-5,1.0620863157E-5,-3.30924463404E-6,3.87753618453E-8},
    {-3.96187016401E-5,1.062096263318E-5,-3.35360371086E-6,3.882276423383E-8},
    {-3.97348033096E-5,1.062094768527E-5,-3.32772998476E-6,3.881539229881E-8}}},
  {{4.21318382015E-15,-2.4346044141E-13,5.64517691633E-12},{Residual->4.69574904107E-15}},
  {{-.2,2.80744473571E-13},{-.15,1.7035036944E-13},{-.1,8.24855472424E-14},{-.05,2.25868349741E-14},{0,1.5048423978E-15},
   {.05,1.11823550548E-14},{.1,4.29521752259E-14},{.15,9.74354733835E-14},{.2,1.75453120542E-13}}},
 {"Y44",1,
  {6.508259320454E-8,1.062085259094E-5,1.696004617465E-8,3.878611182609E-8,{{-3.96623760386E-5,1.062083460125E-5,-3.36017716971E-6,
     3.8779067333E-8},
    {-3.97965096037E-5,1.06208226254E-5,-3.37024125005E-6,3.880087115546E-8},
    {-3.98009246379E-5,1.062086946307E-5,-3.33132502151E-6,3.877899093618E-8},
    {-3.96070695861E-5,1.062093365067E-5,-3.3223724203E-6,3.878328283867E-8},
    {-3.96758178073E-5,1.062066343024E-5,-3.32932332865E-6,3.877374042531E-8},
    {-3.97693619185E-5,1.062063863622E-5,-3.33821155084E-6,3.877088156892E-8},
    {-3.96650404955E-5,1.062090105943E-5,-3.29877442826E-6,3.879322158723E-8},
    {-3.97511803219E-5,1.062095440809E-5,-3.33152900751E-6,3.88211284632E-8},
    {-3.96506652437E-5,1.062099207552E-5,-3.32114448691E-6,3.881000121336E-8},
    {-3.96890711569E-5,1.062087003839E-5,-3.30821990954E-6,3.87815629724E-8},
    {-3.95497047267E-5,1.062094103936E-5,-3.32859841678E-6,3.879900704479E-8},
    {-3.96081697611E-5,1.062092201285E-5,-3.32936011548E-6,3.878118514143E-8},
    {-3.9671282139E-5,1.062062141285E-5,-3.33640166708E-6,3.876609685256E-8},
    {-3.96526229881E-5,1.062085459647E-5,-3.35520468973E-6,3.878122543189E-8},
    {-3.97225537295E-5,1.062078345729E-5,-3.3366681251E-6,3.876271848707E-8},
    {-3.97583180665E-5,1.06208712952E-5,-3.35240348335E-6,3.880951906194E-8},
    {-3.96951826112E-5,1.062093915421E-5,-3.31138203463E-6,3.877654474005E-8},
    {-3.96847899811E-5,1.062089154356E-5,-3.34262276373E-6,3.878415892006E-8},
    {-3.96880154075E-5,1.0620861168E-5,-3.3412881105E-6,3.878725024149E-8},
    {-3.96029062077E-5,1.062088615076E-5,-3.33612996696E-6,3.878178210689E-8}}},
  {{1.09938116585E-15,-1.2275582348E-14,5.16194063934E-14},{Residual->1.54857382164E-15}},
  {{-.6,2.85836612114E-14},{-.4,1.30673834525E-14},{-.2,3.2580597394E-15},{1.11022302463E-16,1.50384052255E-15},
   {.2,2.63713951637E-15},{.4,5.61454702291E-15},{.6,1.08447718565E-14}}},
 {"AY",1,
  {6.158674959413E-8,1.06204656504E-5,1.755668817909E-8,3.789559784196E-8,{{-3.97320317126E-5,1.062038195662E-5,-3.34073762196E-6,
     3.789556004966E-8},
    {-3.97179630728E-5,1.062043801124E-5,-3.37705556298E-6,3.78751131863E-8},
    {-3.97733536801E-5,1.062057484017E-5,-3.35797971338E-6,3.782714681811E-8},
    {-3.98390948347E-5,1.06204761672E-5,-3.33036793301E-6,3.784976870012E-8},
    {-3.96678094741E-5,1.0620368542E-5,-3.33364569282E-6,3.791963312309E-8},
    {-3.96585193808E-5,1.062056432608E-5,-3.31676454269E-6,3.779961057852E-8},
    {-3.96939078224E-5,1.062053632861E-5,-3.34291584438E-6,3.79133211469E-8},
    {-3.97273160576E-5,1.062047130817E-5,-3.35215177647E-6,3.789557059397E-8},
    {-3.95817079964E-5,1.06204340921E-5,-3.36021488023E-6,3.791879245583E-8},
    {-3.96438962033E-5,1.062052537873E-5,-3.32965292096E-6,3.796090853748E-8},
    {-3.96664246987E-5,1.062040640847E-5,-3.32353602857E-6,3.788461320128E-8},
    {-3.96899175524E-5,1.062043819062E-5,-3.33612717064E-6,3.788949850742E-8},
    {-3.96570330376E-5,1.062034830854E-5,-3.31131975973E-6,3.794502296935E-8},
    {-3.97776819813E-5,1.06205077108E-5,-3.30779675302E-6,3.788090193221E-8},
    {-3.97061429409E-5,1.062048698653E-5,-3.31532277727E-6,3.790538489768E-8},
    {-3.95985922948E-5,1.062046488665E-5,-3.34335048468E-6,3.793109755711E-8},
    {-3.97209827502E-5,1.062044171931E-5,-3.32019359714E-6,3.79222762091E-8},
    {-3.97017432868E-5,1.062040527582E-5,-3.34981427876E-6,3.790434557281E-8},
    {-3.96814003321E-5,1.062043195397E-5,-3.33289340088E-6,3.789126783764E-8},
    {-3.97944763882E-5,1.062061061634E-5,-3.34800202274E-6,3.790212296471E-8}}},
  {{-5.2409963556E-16,2.53469881023E-14,3.7068186071E-12},{Residual->1.50524195324E-15}},
  {{-.1,3.57222890381E-14},{-.07,1.33228865956E-14},{-.04,3.26455625519E-15},{-.01,1.35899258094E-15},{.02,2.66600956805E-15},
   {.05,9.25853940994E-15},{.08,2.49703418599E-14}}},
 {"EY",1,
  {5.629674590115E-8,1.061761836343E-5,2.062518065329E-8,3.805099909687E-8,{{-4.11189665514E-5,1.061771333459E-5,-3.50438481888E-6,
     3.813269659516E-8},
    {-4.11162530631E-5,1.061755938084E-5,-3.51785869811E-6,3.80078656886E-8},
    {-4.11090240142E-5,1.061765130437E-5,-3.49938245099E-6,3.805398718127E-8},
    {-4.1190277251E-5,1.061758101462E-5,-3.4591444586E-6,3.801870657205E-8},
    {-4.1088776787E-5,1.061760700462E-5,-3.48643884485E-6,3.806555088026E-8},
    {-4.12278094083E-5,1.061775167572E-5,-3.46658136954E-6,3.80480605183E-8},
    {-4.10845877852E-5,1.061760260688E-5,-3.46750497719E-6,3.806756229665E-8},
    {-4.11134238612E-5,1.061757780355E-5,-3.46071039453E-6,3.806085616245E-8},
    {-4.11590989853E-5,1.061757162575E-5,-3.47550244523E-6,3.803589071487E-8},
    {-4.12318871885E-5,1.061762879591E-5,-3.44810142789E-6,3.807674865749E-8},
    {-4.11065515309E-5,1.061757725615E-5,-3.45592105518E-6,3.802130648075E-8},
    {-4.12342583449E-5,1.061767623575E-5,-3.46229957691E-6,3.809573068063E-8},
    {-4.12089946694E-5,1.061764927789E-5,-3.47254262483E-6,3.805669811456E-8},
    {-4.12305945672E-5,1.061766190921E-5,-3.46429989313E-6,3.803732438676E-8},
    {-4.11338936117E-5,1.061768722608E-5,-3.45638948783E-6,3.810508581435E-8},
    {-4.12134684758E-5,1.061760292739E-5,-3.43520408977E-6,3.803433201191E-8},
    {-4.12755966526E-5,1.061758733687E-5,-3.47888125763E-6,3.80556436765E-8},
    {-4.12079276031E-5,1.061755791711E-5,-3.50397949426E-6,3.80125144107E-8},
    {-4.11857421827E-5,1.061753183465E-5,-3.47807880162E-6,3.800435162046E-8},
    {-4.11679946696E-5,1.061759080071E-5,-3.45309653606E-6,3.802906947377E-8}}},
  {{1.52165863117E-15,1.44255151923E-16,5.55862687787E-13},{Residual->6.17150508778E-17}},
  {{-.1,6.99990961421E-15},{-.07,4.34818733746E-15},{-.04,2.41900267339E-15},{-.01,1.52077400038E-15},{.02,1.68983189316E-15},
   {.05,2.97399648724E-15},{.08,5.08665416536E-15}}},
 {"R32",1,
  {6.496220595777E-8,1.061229944776E-5,2.163959899465E-8,3.80816462525E-8,{{-4.07175126341E-5,1.061226173371E-5,-2.76024129984E-6,
     3.807642244028E-8},
    {-4.08735913658E-5,1.06123783615E-5,-2.74277208253E-6,3.808152251594E-8},
    {-4.08686413218E-5,1.061238219324E-5,-2.71428018651E-6,3.808642093902E-8},
    {-4.09380098716E-5,1.061235186939E-5,-2.75657922731E-6,3.806576285876E-8},
    {-4.08381707637E-5,1.061222773125E-5,-2.76273047562E-6,3.808028338356E-8},
    {-4.10147739241E-5,1.061228526958E-5,-2.7099640544E-6,3.807801633463E-8},
    {-4.08946660391E-5,1.061224133481E-5,-2.76232433552E-6,3.807235413282E-8},
    {-4.08615503043E-5,1.061230411876E-5,-2.79029178381E-6,3.809422339915E-8},
    {-4.09635567504E-5,1.061234234179E-5,-2.72439038107E-6,3.809177689089E-8},
    {-4.08376027412E-5,1.061231104367E-5,-2.77862422974E-6,3.806170032978E-8},
    {-4.08132865056E-5,1.061232492431E-5,-2.77267475148E-6,3.809148651028E-8},
    {-4.09304281868E-5,1.061233423145E-5,-2.77671155083E-6,3.810831123974E-8},
    {-4.08725624987E-5,1.061222779909E-5,-2.74770565975E-6,3.808307511036E-8},
    {-4.08647809284E-5,1.061228883621E-5,-2.75175813799E-6,3.809846009401E-8},
    {-4.08201197909E-5,1.061226530221E-5,-2.73356914687E-6,3.808706849686E-8},
    {-4.08858515314E-5,1.061228065334E-5,-2.73367318779E-6,3.80574479717E-8},
    {-4.09559837255E-5,1.061235521606E-5,-2.7492720497E-6,3.807498414214E-8},
    {-4.0836098397E-5,1.061226368669E-5,-2.74128455881E-6,3.809050638664E-8},
    {-4.09376305488E-5,1.061225530348E-5,-2.75797598267E-6,3.807492779188E-8},
    {-4.09391424245E-5,1.061230700468E-5,-2.71883423604E-6,3.807817408147E-8}}},
  {{1.52180743513E-15,6.61491663564E-15,3.59833289198E-13},{Residual->9.36562678239E-17}},
  {{-.1,4.34913330295E-15},{-.07,2.94512360174E-15},{-.04,1.94307403744E-15},{-.01,1.44898931908E-15},{.02,1.67617415796E-15},
   {.05,2.72450925028E-15},{.08,4.42228640222E-15}}},
 {"Y24",1,
  {4.633269025241E-8,1.061240998798E-5,1.439052004027E-8,3.797670775324E-8,{{-4.34840030692E-5,1.061246646675E-5,-2.98109884307E-6,
     3.799886003539E-8},
    {-4.35616382922E-5,1.061238776264E-5,-2.97712653953E-6,3.798228857059E-8},
    {-4.34976024439E-5,1.061239474982E-5,-3.01154269369E-6,3.794598529301E-8},
    {-4.34713829541E-5,1.061240183614E-5,-3.01280137267E-6,3.798132146496E-8},
    {-4.34766083263E-5,1.061237351855E-5,-2.98903716772E-6,3.795999102152E-8},
    {-4.35235176551E-5,1.061240056174E-5,-2.97680649873E-6,3.800108338222E-8},
    {-4.35426141166E-5,1.061234128482E-5,-2.97616433003E-6,3.799423915903E-8},
    {-4.3477144778E-5,1.06125302549E-5,-2.98417652304E-6,3.797647357547E-8},
    {-4.35799137341E-5,1.061240900824E-5,-3.01158481014E-6,3.793379846313E-8},
    {-4.35139967391E-5,1.061229871956E-5,-2.99777484092E-6,3.795878970752E-8},
    {-4.3533689831E-5,1.061237594011E-5,-2.98995037546E-6,3.798369840143E-8},
    {-4.34751322353E-5,1.061241106668E-5,-2.98901786797E-6,3.800199616935E-8},
    {-4.34529193894E-5,1.061243840905E-5,-3.03063390939E-6,3.794021023619E-8},
    {-4.35848932677E-5,1.06124050124E-5,-3.00603716273E-6,3.797215556614E-8},
    {-4.35547367816E-5,1.061250502274E-5,-3.00756400737E-6,3.79873759136E-8},
    {-4.35665974073E-5,1.061255116976E-5,-2.99630659448E-6,3.795998132888E-8},
    {-4.34231208716E-5,1.06124258606E-5,-2.99984670046E-6,3.800989513687E-8},
    {-4.34800406385E-5,1.061231890066E-5,-2.9827662797E-6,3.798765600535E-8},
    {-4.35488030032E-5,1.061234328477E-5,-2.99370839339E-6,3.798083387735E-8},
    {-4.34483334034E-5,1.061242092965E-5,-3.00735586083E-6,3.797752175677E-8}}},
  {{1.48725681296E-15,-9.7217911921E-16,3.52565924914E-15},{Residual->2.26577112698E-17}},
  {{-.3,2.1140953885E-15},{-.2,1.81278779952E-15},{-.1,1.59179076925E-15},{5.55111512313E-17,1.47930328069E-15},
   {.1,1.44797884136E-15},{.2,1.46650644492E-15},{.3,1.48551975627E-15}}},
 {"Y46",1,
  {5.631965655739E-8,1.061242224991E-5,2.143665049958E-8,3.798231759564E-8,{{-4.34586564294E-5,1.06125164926E-5,-2.95801964429E-6,
     3.799946148269E-8},
    {-4.3483506378E-5,1.06124391596E-5,-2.96229633908E-6,3.801986501636E-8},
    {-4.34395649066E-5,1.061237678236E-5,-3.00148423278E-6,3.798577138024E-8},
    {-4.34482316216E-5,1.061251783457E-5,-2.97736539578E-6,3.798374372099E-8},
    {-4.35771673642E-5,1.061233015715E-5,-2.99546765282E-6,3.796470611187E-8},
    {-4.34413646482E-5,1.061245595325E-5,-2.97332900377E-6,3.800959213026E-8},
    {-4.36339963674E-5,1.061236958668E-5,-3.00037796132E-6,3.792652386366E-8},
    {-4.34582509377E-5,1.061236322181E-5,-3.03700603072E-6,3.794627792634E-8},
    {-4.35226679217E-5,1.061242370029E-5,-2.96722379948E-6,3.802782350193E-8},
    {-4.34932377786E-5,1.061250429396E-5,-3.00701311477E-6,3.798527692021E-8},
    {-4.35016849514E-5,1.06125572588E-5,-2.99126554464E-6,3.797595753161E-8},
    {-4.35875991351E-5,1.061250611305E-5,-2.98502398354E-6,3.798429648861E-8},
    {-4.34915562652E-5,1.061221709811E-5,-2.96618646197E-6,3.797969638907E-8},
    {-4.34679918542E-5,1.061236455534E-5,-2.9824171273E-6,3.797205744793E-8},
    {-4.34177166448E-5,1.061246965938E-5,-3.00648427144E-6,3.797053718781E-8},
    {-4.35271480266E-5,1.061246701077E-5,-2.99820717608E-6,3.798229620394E-8},
    {-4.3535377463E-5,1.06124568584E-5,-2.95555962293E-6,3.803120655737E-8},
    {-4.34346355203E-5,1.061242715093E-5,-3.02011814258E-6,3.795573229408E-8},
    {-4.3454085176E-5,1.061241392373E-5,-3.00951952773E-6,3.795362064198E-8},
    {-4.34432173494E-5,1.061226818741E-5,-2.97381717373E-6,3.799190911587E-8}}},
  {{1.404265693E-15,-7.7495522006E-16,1.14074100105E-14},{Residual->1.70791161278E-16}},
  {{-.45,4.25544979964E-15},{-.3,2.46562074961E-15},{-.15,1.5720344252E-15},{-5.5511151231E-17,1.44282554811E-15},
   {.15,1.75103537228E-15},{.3,2.32490876147E-15},{.45,3.20465350129E-15}}},
 {"Y22",1,
  {6.293108057745E-8,1.060699470473E-5,1.615589531946E-8,3.710341804267E-8,{{-4.34045641519E-5,1.060694802882E-5,-2.96773569507E-6,
     3.709064582319E-8},
    {-4.34707735512E-5,1.060704916481E-5,-3.0033035973E-6,3.710038872296E-8},
    {-4.35595964932E-5,1.060690945011E-5,-2.96282368222E-6,3.70907982201E-8},
    {-4.35498929976E-5,1.060691550257E-5,-3.00675589902E-6,3.712036354124E-8},
    {-4.34860455609E-5,1.060713685521E-5,-3.01194906786E-6,3.708611990122E-8},
    {-4.34789622531E-5,1.060694953468E-5,-3.00346546625E-6,3.709918721484E-8},
    {-4.34458454332E-5,1.060688887564E-5,-2.98864349483E-6,3.71165571322E-8},
    {-4.34755833283E-5,1.060707583908E-5,-3.00766323268E-6,3.707316761383E-8},
    {-4.35139603769E-5,1.060680086975E-5,-2.98418215475E-6,3.717236876042E-8},
    {-4.36333493581E-5,1.060725632594E-5,-2.98214932659E-6,3.707386902522E-8},
    {-4.35285908221E-5,1.060713427386E-5,-2.97841816554E-6,3.708913801459E-8},
    {-4.34682369339E-5,1.060680150613E-5,-2.97149130373E-6,3.713356356154E-8},
    {-4.34928220922E-5,1.060690696133E-5,-2.98413217907E-6,3.71129374053E-8},
    {-4.35479528766E-5,1.060710862906E-5,-2.98363021236E-6,3.707815366604E-8},
    {-4.33414547992E-5,1.060714284957E-5,-2.98794025847E-6,3.710714829535E-8},
    {-4.34604096183E-5,1.060699395123E-5,-3.03211649821E-6,3.710877488509E-8},
    {-4.35478865988E-5,1.060685125232E-5,-2.99793070882E-6,3.70995915044E-8},
    {-4.34545420076E-5,1.060719893279E-5,-2.98329319716E-6,3.708829196986E-8},
    {-4.34585709638E-5,1.060687131264E-5,-2.99326184945E-6,3.714420869272E-8},
    {-4.35687889387E-5,1.060695397908E-5,-2.98542800343E-6,3.708308690333E-8}}},
  {{1.50353322229E-15,-1.9968424432E-15,4.65381171951E-14},{Residual->4.76219290488E-16}},
  {{-.6,2.00038307772E-14},{-.4,9.11413150437E-15},{-.2,3.37693226098E-15},{1.11022302463E-16,1.44281279805E-15},
   {.2,3.5881415042E-15},{.4,8.51849649433E-15},{.6,1.66030784755E-14}}},
 {"Y26",1,
  {6.209179512499E-8,1.060703891302E-5,2.143620103017E-8,3.710253530045E-8,{{-4.34017116529E-5,1.060704460117E-5,-3.00944631272E-6,
     3.710455721369E-8},
    {-4.35057646236E-5,1.060712302379E-5,-2.99998159142E-6,3.709154962939E-8},
    {-4.35057225028E-5,1.060706262051E-5,-2.98063643489E-6,3.709040388564E-8},
    {-4.34670918687E-5,1.060702152041E-5,-2.99873052292E-6,3.710995458798E-8},
    {-4.34078594858E-5,1.060708400164E-5,-2.96167794367E-6,3.707698489838E-8},
    {-4.35921152676E-5,1.060730546353E-5,-2.97700775268E-6,3.70767003571E-8},
    {-4.35464731717E-5,1.06070643514E-5,-2.99943879182E-6,3.70889659882E-8},
    {-4.3618080374E-5,1.060682482443E-5,-2.97527930916E-6,3.711293479413E-8},
    {-4.35006835191E-5,1.060713200772E-5,-2.97145321138E-6,3.707805623095E-8},
    {-4.35560716034E-5,1.060677712236E-5,-2.95605065564E-6,3.716619945545E-8},
    {-4.35041276849E-5,1.060697257978E-5,-2.97258073551E-6,3.709677872102E-8},
    {-4.34278902648E-5,1.060693139988E-5,-3.01511539123E-6,3.710238235098E-8},
    {-4.34357449817E-5,1.060716378657E-5,-3.00594917515E-6,3.709594123986E-8},
    {-4.34060406865E-5,1.060698564362E-5,-3.00665047199E-6,3.711966030004E-8},
    {-4.35261658556E-5,1.060702812149E-5,-2.98475968379E-6,3.709481531874E-8},
    {-4.34395076836E-5,1.060692068578E-5,-3.02204522749E-6,3.711957650367E-8},
    {-4.34610232295E-5,1.060708328006E-5,-2.97650529968E-6,3.708524917022E-8},
    {-4.3488926363E-5,1.060712565368E-5,-3.04617436536E-6,3.711268699158E-8},
    {-4.34796500596E-5,1.060689846335E-5,-2.99247621024E-6,3.712335412041E-8},
    {-4.35812345785E-5,1.060722910926E-5,-2.99424340275E-6,3.71039542515E-8}}},
  {{1.27379477114E-15,6.33461642354E-14,6.41442062936E-13},{Residual->2.87187029242E-15}},
  {{-.3,3.71717780392E-14},{-.2,1.67002866594E-14},{-.1,5.12245599572E-15},{5.55111512313E-17,1.37676541849E-15},
   {.1,9.13965247414E-15},{.2,3.87602364823E-14},{.3,8.02491659508E-14}}},
 {"Y66",1,
  {6.039082118707E-8,1.060697394024E-5,1.711323421123E-8,3.710743140497E-8,{{-4.35497138835E-5,1.06071041111E-5,-2.9772233563E-6,
     3.70796576681E-8},
    {-4.33566510633E-5,1.060699686987E-5,-2.98005607533E-6,3.71150882773E-8},
    {-4.35621933319E-5,1.060711494016E-5,-2.95347718686E-6,3.705097656177E-8},
    {-4.35083045108E-5,1.060684969706E-5,-3.00075266892E-6,3.71512319367E-8},
    {-4.34335164443E-5,1.060712304477E-5,-2.99719340091E-6,3.709884489791E-8},
    {-4.33666966377E-5,1.060681365693E-5,-2.96274759004E-6,3.71318666723E-8},
    {-4.34986374089E-5,1.060688893457E-5,-2.97684333121E-6,3.712208702053E-8},
    {-4.3453755084E-5,1.060706698296E-5,-2.98421706523E-6,3.708088959017E-8},
    {-4.34253976989E-5,1.06071312311E-5,-2.96401360757E-6,3.708483795821E-8},
    {-4.34150441278E-5,1.060699079217E-5,-3.02013329788E-6,3.71581636589E-8},
    {-4.35044079603E-5,1.060694821321E-5,-2.98868596503E-6,3.708921364268E-8},
    {-4.34824006633E-5,1.060685388229E-5,-2.99657109638E-6,3.711975904337E-8},
    {-4.33815281698E-5,1.060710501675E-5,-2.98547424237E-6,3.707866532981E-8},
    {-4.3399345998E-5,1.060691855921E-5,-2.98882070224E-6,3.710002692794E-8},
    {-4.34638294789E-5,1.060721082628E-5,-3.00665244803E-6,3.710053618339E-8},
    {-4.35066263764E-5,1.060683813062E-5,-2.96314780258E-6,3.711878518482E-8},
    {-4.35271592704E-5,1.060689914302E-5,-2.98268747165E-6,3.710147428809E-8},
    {-4.34975990668E-5,1.060680781741E-5,-2.99608193106E-6,3.713379929888E-8},
    {-4.34340547631E-5,1.060685651574E-5,-3.00302453174E-6,3.713061099883E-8},
    {-4.33805042675E-5,1.060696043954E-5,-2.96071763259E-6,3.710211295961E-8}}},
  {{1.51938691091E-15,-2.0790970113E-13,6.60854382331E-12},{Residual->4.25478888128E-15}},
  {{-.2,3.1090785635E-13},{-.15,1.82096217727E-13},{-.1,8.4323378818E-14},{-.05,2.11762959056E-14},{0,1.37720935999E-15},
   {.05,1.36182049862E-14},{.1,5.17590244624E-14},{.15,1.19913697516E-13},{.2,2.1978417057E-13}}},
 {"Y44",1,
  {7.533071526215E-8,1.060699507394E-5,1.893575939163E-8,3.710807718768E-8,{{-4.35120456666E-5,1.060691279738E-5,-2.96869965453E-6,
     3.709576447845E-8},
    {-4.33917488397E-5,1.060700286416E-5,-3.02408544228E-6,3.713220865875E-8},
    {-4.34985001844E-5,1.060732738814E-5,-2.95195268124E-6,3.70748185955E-8},
    {-4.35186437725E-5,1.060691577257E-5,-2.99892447516E-6,3.712052291418E-8},
    {-4.34353063262E-5,1.060696894959E-5,-2.94198940359E-6,3.709717654729E-8},
    {-4.34166263241E-5,1.060708888778E-5,-2.98315734103E-6,3.707998352054E-8},
    {-4.35469680676E-5,1.060691933256E-5,-2.97812718707E-6,3.711469166472E-8},
    {-4.33589644645E-5,1.06071016095E-5,-3.00114761544E-6,3.708548561582E-8},
    {-4.33393932259E-5,1.06070740063E-5,-2.96691156489E-6,3.709615810735E-8},
    {-4.34132102791E-5,1.060677228934E-5,-2.98236786577E-6,3.713793973951E-8},
    {-4.36248486E-5,1.060695051995E-5,-2.99253635671E-6,3.709668714602E-8},
    {-4.35501951401E-5,1.060682647783E-5,-2.98378368772E-6,3.716984165983E-8},
    {-4.34295801406E-5,1.06070118373E-5,-2.9880787753E-6,3.709548032818E-8},
    {-4.34786258967E-5,1.060685037456E-5,-2.98834219169E-6,3.713780583293E-8},
    {-4.34998841833E-5,1.060719955258E-5,-2.99830897631E-6,3.708572574808E-8},
    {-4.35635828826E-5,1.060715223812E-5,-2.96024172607E-6,3.707394515222E-8},
    {-4.35832474101E-5,1.060711839533E-5,-3.00815079786E-6,3.712487352085E-8},
    {-4.34372378189E-5,1.060689394688E-5,-2.98818552399E-6,3.711884960243E-8},
    {-4.35362202502E-5,1.060691382542E-5,-2.97121610946E-6,3.709147613024E-8},
    {-4.34349827362E-5,1.060690041342E-5,-2.99157513457E-6,3.713210879069E-8}}},
  {{7.5804100842E-16,-9.1024649467E-15,5.50233668923E-14},{Residual->1.43191576787E-15}},
  {{-.6,2.75842404719E-14},{-.4,1.17322290365E-14},{-.2,2.76049053087E-15},{1.11022302463E-16,1.37648044737E-15},
   {.2,2.75777355268E-15},{.4,6.91763905119E-15},{.6,1.38036048877E-14}}},
 {"OCT1",1,
  {6.403456591579E-8,1.060695844665E-5,1.677281710059E-8,3.711336776454E-8,{{-4.35653705376E-5,1.06070559954E-5,-2.99091976172E-6,
     3.70670422417E-8},
    {-4.35258492532E-5,1.060688150399E-5,-2.95301405159E-6,3.71155079637E-8},
    {-4.35099213074E-5,1.06067459521E-5,-2.9866065722E-6,3.714686512716E-8},
    {-4.34754788747E-5,1.060704828879E-5,-3.00000523956E-6,3.708788438094E-8},
    {-4.35213788462E-5,1.06068253193E-5,-3.0072310799E-6,3.712130868338E-8},
    {-4.34792569962E-5,1.060687957684E-5,-2.98991094805E-6,3.711458786626E-8},
    {-4.34264443483E-5,1.060710528823E-5,-3.01253175614E-6,3.710188857313E-8},
    {-4.3540804774E-5,1.06069561946E-5,-3.00652958313E-6,3.710831856805E-8},
    {-4.36155723748E-5,1.060678579459E-5,-2.99095361264E-6,3.713137314248E-8},
    {-4.33557307803E-5,1.060682748622E-5,-3.02311070602E-6,3.712805617148E-8},
    {-4.35347292744E-5,1.060683033111E-5,-2.98120905774E-6,3.718263575985E-8},
    {-4.34329324954E-5,1.060680410231E-5,-2.99407041739E-6,3.713053015122E-8},
    {-4.34528887913E-5,1.060719209349E-5,-2.96132367523E-6,3.708303428748E-8},
    {-4.351974129E-5,1.060709543109E-5,-2.98948333414E-6,3.709010003497E-8},
    {-4.34204854502E-5,1.060693695844E-5,-2.96923470609E-6,3.711461999276E-8},
    {-4.33511057634E-5,1.060717992891E-5,-2.98028321597E-6,3.709003102757E-8},
    {-4.35128185925E-5,1.060713532404E-5,-3.00669037607E-6,3.711592221013E-8},
    {-4.34789886256E-5,1.06069461312E-5,-2.99702072846E-6,3.708938900941E-8},
    {-4.34670731065E-5,1.060694070394E-5,-3.00553822941E-6,3.713089064498E-8},
    {-4.34525720262E-5,1.060699652845E-5,-2.99717526677E-6,3.711736945407E-8}}},
  {{1.45455140344E-15,5.7630307217E-19,5.33628691297E-21},{Residual->5.75087438936E-17}},
  {{-370,1.88655285397E-15},{-296,1.76887450441E-15},{-222,1.68923896193E-15},{-148,1.56145135684E-15},{-74,1.44559159868E-15},
   {0,1.37728112814E-15},{74,1.46368369979E-15},{148,1.62877110931E-15},{222,1.85446657416E-15},{296,2.14179682514E-15},
   {370,2.39675351041E-15}}},
 {"OCT2",1,
  {6.457933163911E-8,1.060856240062E-5,1.452052355492E-8,3.688516784904E-8,{{-4.34739917329E-5,1.060860182083E-5,-2.98665766308E-6,
     3.686026165256E-8},
    {-4.36128194278E-5,1.060855426131E-5,-2.98697191489E-6,3.687190829157E-8},
    {-4.34421652594E-5,1.060851470099E-5,-3.01472717144E-6,3.694454363402E-8},
    {-4.34437927952E-5,1.060876640309E-5,-2.98666026969E-6,3.683625795124E-8},
    {-4.34294143672E-5,1.060835781943E-5,-2.98285359245E-6,3.695694455668E-8},
    {-4.34233057665E-5,1.060856052479E-5,-3.00447248572E-6,3.686077358749E-8},
    {-4.35501003236E-5,1.06086540425E-5,-2.97293560349E-6,3.685017160696E-8},
    {-4.34512063254E-5,1.060870249913E-5,-3.00613323904E-6,3.683332375843E-8},
    {-4.35534175049E-5,1.060849743053E-5,-2.99565998397E-6,3.688711897528E-8},
    {-4.35032068161E-5,1.060840340299E-5,-3.03185492429E-6,3.692532216506E-8},
    {-4.34415505463E-5,1.060855478529E-5,-2.99615768749E-6,3.691291251472E-8},
    {-4.35937031829E-5,1.060869270222E-5,-2.99182366072E-6,3.683031204522E-8},
    {-4.33930390572E-5,1.060858338985E-5,-3.00329373678E-6,3.689582707701E-8},
    {-4.34350759907E-5,1.060847763022E-5,-2.97795466551E-6,3.693043882723E-8},
    {-4.35241980064E-5,1.060854809555E-5,-2.98811695577E-6,3.690789057304E-8},
    {-4.34984275462E-5,1.060866416839E-5,-2.99136466479E-6,3.684346006968E-8},
    {-4.34034637085E-5,1.060856610268E-5,-2.9934062751E-6,3.686259736665E-8},
    {-4.35360005729E-5,1.06084401722E-5,-2.98787808007E-6,3.691620845553E-8},
    {-4.34910807683E-5,1.060849009571E-5,-2.97739260192E-6,3.689253991092E-8},
    {-4.33791521326E-5,1.060861796469E-5,-2.96701173305E-6,3.68845439616E-8}}},
  {{1.3850631015E-15,1.10557583159E-19,1.69089223325E-22},{Residual->3.61939454708E-18}},
  {{-370,1.36653296266E-15},{-296,1.365397173E-15},{-222,1.37286518178E-15},{-148,1.37758922306E-15},{-74,1.37240925465E-15},
   {0,1.37815475226E-15},{74,1.39717755677E-15},{148,1.40756725673E-15},{222,1.41992365777E-15},{296,1.4315030957E-15},
   {370,1.44845601048E-15}}}}
