FD	 6.935905E-6	 3.483479E-7	
EX2	 6.933290E-6	 3.490785E-7	
FD	 6.933099E-6	 3.483589E-7	
AY	 6.838239E-6	 4.297177E-7	
EY	 6.899782E-6	 5.507847E-7	
R32	 6.845957E-6	 3.723876E-7	
AY	 6.850913E-6	 3.729332E-7	
EY	 6.842060E-6	 1.191422E-7	
R32	 6.842243E-6	 8.046979E-8	
AY	 6.835149E-6	 7.566878E-8	
EY	 6.837172E-6	 4.731800E-8	
R32	 6.835493E-6	 4.737827E-8	
AY	 6.837472E-6	 4.797914E-8	
EY	 6.836401E-6	 5.852684E-8	
R32	 6.838215E-6	 4.304417E-8	
Y24	 6.824809E-6	 4.205491E-8	
Y46	 6.793170E-6	 4.191221E-8	
Y22	 6.793170E-6	 4.191221E-8	
Y26	 6.793170E-6	 4.191221E-8	
Y66	 6.793170E-6	 4.191221E-8	
Y44	 6.793224E-6	 4.157052E-8	
AY	 6.792147E-6	 4.113035E-8	
EY	 6.791290E-6	 5.405819E-8	
R32	 6.792417E-6	 3.934410E-8	
Y24	 6.806543E-6	 3.860295E-8	
Y46	 6.824690E-6	 3.851049E-8	
Y22	 6.824690E-6	 3.851049E-8	
Y26	 6.826368E-6	 3.788171E-8	
Y66	 6.826368E-6	 3.788171E-8	
Y44	 6.826020E-6	 3.762984E-8	
AY	 6.827363E-6	 4.758957E-8	
EY	 6.825974E-6	 7.702340E-8	
R32	 6.827418E-6	 5.466713E-8	
Y24	 6.807953E-6	 5.376333E-8	
Y46	 6.726592E-6	 5.204522E-8	
Y22	 6.726592E-6	 5.204522E-8	
Y26	 6.725897E-6	 5.200660E-8	
Y66	 6.725897E-6	 5.200660E-8	
Y44	 6.725897E-6	 5.200660E-8	
AY	 6.723603E-6	 5.032127E-8	
EY	 6.725177E-6	 6.972918E-8	
R32	 6.724939E-6	 6.733484E-8	
Y24	 6.749792E-6	 5.850903E-8	
Y46	 6.885646E-6	 5.271423E-8	
Y22	 6.885646E-6	 5.271423E-8	
Y26	 6.885646E-6	 5.271423E-8	
Y66	 6.885646E-6	 5.271423E-8	
Y44	 6.885646E-6	 5.271423E-8	
