FD	 7.082084E-6	 2.447562E-7	
EX2	 7.072015E-6	 2.461784E-7	
FD	 7.071694E-6	 2.450080E-7	
AY	 6.754666E-6	 3.042773E-7	
EY	 6.787287E-6	 2.811578E-7	
R32	 6.676800E-6	 4.606636E-8	
AY	 6.675673E-6	 4.598945E-8	
EY	 6.684519E-6	 3.832630E-8	
R32	 6.683150E-6	 3.889677E-8	
AY	 6.682880E-6	 3.892806E-8	
EY	 6.682678E-6	 3.936299E-8	
R32	 6.682809E-6	 3.938517E-8	
AY	 6.684441E-6	 3.903306E-8	
EY	 6.685459E-6	 3.813273E-8	
R32	 6.686615E-6	 3.804958E-8	
Y24	 6.693816E-6	 3.793584E-8	
Y46	 6.693816E-6	 3.793584E-8	
Y22	 6.693816E-6	 3.793584E-8	
Y26	 6.693816E-6	 3.793584E-8	
Y66	 6.693816E-6	 3.793584E-8	
Y44	 6.693816E-6	 3.793584E-8	
AY	 6.693602E-6	 3.791256E-8	
EY	 6.695183E-6	 3.834969E-8	
R32	 6.693030E-6	 3.824461E-8	
Y24	 6.693905E-6	 3.824316E-8	
Y46	 6.693905E-6	 3.824316E-8	
Y22	 6.693905E-6	 3.824316E-8	
Y26	 6.693905E-6	 3.824316E-8	
Y66	 6.693905E-6	 3.824316E-8	
Y44	 6.693905E-6	 3.824316E-8	
AY	 6.693932E-6	 3.844409E-8	
EY	 6.695107E-6	 3.826501E-8	
R32	 6.692296E-6	 3.884459E-8	
Y24	 6.684910E-6	 3.847391E-8	
Y46	 6.680067E-6	 3.844034E-8	
Y22	 6.680067E-6	 3.844034E-8	
Y26	 6.679856E-6	 3.822194E-8	
Y66	 6.679856E-6	 3.822194E-8	
Y44	 6.679856E-6	 3.822194E-8	
AY	 6.680460E-6	 3.863698E-8	
EY	 6.683806E-6	 3.948008E-8	
R32	 6.681103E-6	 3.866809E-8	
Y24	 6.686427E-6	 3.844105E-8	
Y46	 6.688388E-6	 3.843491E-8	
Y22	 6.688388E-6	 3.843491E-8	
Y26	 6.688388E-6	 3.843491E-8	
Y66	 6.688388E-6	 3.843491E-8	
Y44	 6.688388E-6	 3.843491E-8	
