{{"FD",1,{-1.80096346941E-5,1.310654696859E-5,5.926651197763E-7,3.247144886108E-7}},
 {"EX2",1,{-2.66909853384E-5,1.269036339362E-5,2.018238526562E-7,5.044414126086E-7}},
 {"FD",1,{-2.66502103896E-5,1.268604059433E-5,1.331227755395E-7,3.251876309042E-7}},
 {"AY",1,{6.82388741048E-8,1.34419059656E-5,1.779487440771E-8,3.439754254759E-7,
   {{-2.70423327027E-5,1.344181840714E-5,1.425066518938E-6,3.439362654627E-7},
    {-2.69439855416E-5,1.344191933505E-5,1.37832813969E-6,3.439745521012E-7},
    {-2.69481357159E-5,1.344194748792E-5,1.394159543242E-6,3.440105741365E-7},
    {-2.70286244297E-5,1.344196844492E-5,1.407110930052E-6,3.439918277531E-7},
    {-2.71251347203E-5,1.344192751064E-5,1.433528651107E-6,3.439809519185E-7},
    {-2.70192766471E-5,1.344185691823E-5,1.439279273221E-6,3.439522966209E-7},
    {-2.69168112295E-5,1.34419219567E-5,1.383812894894E-6,3.439410139127E-7},
    {-2.68883558331E-5,1.344186586146E-5,1.411736494278E-6,3.439322594311E-7},
    {-2.69813459923E-5,1.344186878018E-5,1.434976279348E-6,3.43945927785E-7},
    {-2.69334914453E-5,1.344194006506E-5,1.422261623079E-6,3.440377108417E-7},
    {-2.6962469496E-5,1.344188264814E-5,1.430327821537E-6,3.439546045905E-7},
    {-2.70291593365E-5,1.344200246108E-5,1.402623666784E-6,3.440509603723E-7},
    {-2.69818838077E-5,1.344198983894E-5,1.42402593198E-6,3.440789470459E-7},
    {-2.71089464508E-5,1.344188721739E-5,1.433475374751E-6,3.439831351217E-7},
    {-2.69544557324E-5,1.344180191173E-5,1.421102705334E-6,3.438911632955E-7},
    {-2.70204997423E-5,1.344196449406E-5,1.400063282533E-6,3.440130650713E-7},
    {-2.68962027635E-5,1.344188730281E-5,1.433171860487E-6,3.439887839119E-7},
    {-2.69243857059E-5,1.344185744955E-5,1.408244519755E-6,3.439182141971E-7},
    {-2.6859080231E-5,1.344188609469E-5,1.412417263526E-6,3.439388545322E-7},
    {-2.69417880938E-5,1.344192512636E-5,1.39096576845E-6,3.439874014164E-7}}},
  {{1.19461882195E-13,-9.0214018793E-14,2.52215899908E-12},{Residual->6.91093219107E-16}},
  {{-.5,7.9450645497E-13},{-.35,4.60513582767E-13},{-.2,2.39170015424E-13},{-.05,1.30482509149E-13},{.1,1.34284297517E-13},
   {.25,2.54620932253E-13},{.4,4.87328241766E-13}}},
 {"EY",1,
  {8.672088531457E-8,1.347546430349E-5,1.994669292245E-8,3.016517730596E-7,{{-2.71158771909E-5,1.347549607951E-5,1.737734243733E-6,
     3.01703315043E-7},
    {-2.72496680938E-5,1.347546489683E-5,1.723347030386E-6,3.016429874768E-7},
    {-2.70026965684E-5,1.347542649455E-5,1.715565071954E-6,3.016167355854E-7},
    {-2.70897426177E-5,1.34754737241E-5,1.69851817113E-6,3.016540807153E-7},
    {-2.72324396672E-5,1.34754735143E-5,1.701149053568E-6,3.016558704655E-7},
    {-2.70149434072E-5,1.347556517433E-5,1.716303102734E-6,3.017851029706E-7},
    {-2.7033696727E-5,1.347542259031E-5,1.690662332089E-6,3.015837333106E-7},
    {-2.71330820129E-5,1.347550020029E-5,1.730305743044E-6,3.016867378765E-7},
    {-2.70428763953E-5,1.347541159828E-5,1.693798041072E-6,3.015829915457E-7},
    {-2.71256640944E-5,1.347550598894E-5,1.721882739877E-6,3.017032828478E-7},
    {-2.68958736133E-5,1.347541154543E-5,1.746049530685E-6,3.015983187106E-7},
    {-2.70499179253E-5,1.347550204628E-5,1.768118923567E-6,3.017047305203E-7},
    {-2.70494598235E-5,1.347547991915E-5,1.704221093263E-6,3.0167690942E-7},
    {-2.70023625561E-5,1.347545556E-5,1.749060352727E-6,3.016526297814E-7},
    {-2.70233194736E-5,1.347548654482E-5,1.711896054133E-6,3.016719885002E-7},
    {-2.7098843368E-5,1.34754427873E-5,1.721418303933E-6,3.016124915948E-7},
    {-2.69256151731E-5,1.347548512377E-5,1.718738442128E-6,3.016832828542E-7},
    {-2.70714261572E-5,1.347541184599E-5,1.705156234529E-6,3.015853804993E-7},
    {-2.69466047685E-5,1.347537531987E-5,1.712561224939E-6,3.015348650127E-7},
    {-2.70795153547E-5,1.347549511565E-5,1.746466956917E-6,3.017000264607E-7}}},
  {{1.18028574161E-13,-2.3415032072E-13,4.86268922378E-13},{Residual->7.57121666551E-16}},
  {{-.5,3.57220525409E-13},{-.35,2.59087209652E-13},{-.2,1.83901344734E-13},{-.05,1.30415814321E-13},{.1,9.99081718359E-14},
   {.25,9.12712040195E-14},{.4,1.01207488649E-13}}},
 {"R32",1,
  {5.890463355354E-8,1.332038283169E-5,1.91743196024E-8,7.39855586527E-8,{{-2.7035053146E-5,1.332038503022E-5,1.860664584388E-6,
     7.401624665077E-8},
    {-2.70014015775E-5,1.332039606443E-5,1.819174057449E-6,7.3936339958E-8},
    {-2.698977404E-5,1.332038182578E-5,1.848701234314E-6,7.397619456215E-8},
    {-2.70975688977E-5,1.332038945573E-5,1.86169651987E-6,7.398593845705E-8},
    {-2.69697450173E-5,1.332038585942E-5,1.856259200827E-6,7.401208520626E-8},
    {-2.70774621592E-5,1.332038882501E-5,1.809783521392E-6,7.39423567827E-8},
    {-2.70311236655E-5,1.332035397161E-5,1.844740011849E-6,7.402954056488E-8},
    {-2.69710580618E-5,1.332037320416E-5,1.802265091073E-6,7.39319272524E-8},
    {-2.70747073488E-5,1.332037511243E-5,1.827863313345E-6,7.395160733309E-8},
    {-2.69940080265E-5,1.33203697736E-5,1.832753205861E-6,7.397677613589E-8},
    {-2.71540246377E-5,1.332038712251E-5,1.880390141097E-6,7.403031268013E-8},
    {-2.69712159991E-5,1.332037904247E-5,1.86063822838E-6,7.402042886855E-8},
    {-2.69228826942E-5,1.332036371701E-5,1.842132067255E-6,7.403225988982E-8},
    {-2.69113469512E-5,1.332039892354E-5,1.813530208996E-6,7.394572269923E-8},
    {-2.70716257472E-5,1.332036076892E-5,1.839399916997E-6,7.401782871654E-8},
    {-2.7004330039E-5,1.332038727652E-5,1.824652866495E-6,7.394990428258E-8},
    {-2.7041219283E-5,1.332038144773E-5,1.848735555097E-6,7.402280685313E-8},
    {-2.70805476998E-5,1.33204145751E-5,1.838954096456E-6,7.392954050524E-8},
    {-2.70585781313E-5,1.332039843691E-5,1.846585738246E-6,7.400592702141E-8},
    {-2.70138507993E-5,1.332038620073E-5,1.838111440164E-6,7.399742863426E-8}}},
  {{9.22975436415E-14,-2.5327651836E-13,1.86528344213E-13},{Residual->1.43070136915E-16}},
  {{-.5,2.65687081859E-13},{-.35,2.0371616361E-13},{-.2,1.50221184151E-13},{-.05,1.05452673787E-13},{.1,6.89079481957E-14},
   {.25,4.08613875009E-14},{.4,2.06602506911E-14}}},
 {"AY",1,
  {5.970191782986E-8,1.33279074963E-5,1.68609217897E-8,6.473795752297E-8,{{-2.7480661111E-5,1.332789048496E-5,2.471046472178E-6,
     6.474175070417E-8},
    {-2.741680898E-5,1.332791801039E-5,2.501605681495E-6,6.470482266594E-8},
    {-2.75372030271E-5,1.332789980921E-5,2.474276391029E-6,6.475141661703E-8},
    {-2.74783803036E-5,1.332791362092E-5,2.436094978768E-6,6.467108505056E-8},
    {-2.75016654436E-5,1.332789039107E-5,2.476767357514E-6,6.474447540562E-8},
    {-2.74239064693E-5,1.332792186497E-5,2.468966997841E-6,6.47581645478E-8},
    {-2.74850366027E-5,1.332791717018E-5,2.494857854454E-6,6.47246059003E-8},
    {-2.75829735596E-5,1.332788029899E-5,2.466065847585E-6,6.475910220024E-8},
    {-2.74876116478E-5,1.332787625569E-5,2.47766433986E-6,6.480268867535E-8},
    {-2.7413607974E-5,1.332790932034E-5,2.475582432437E-6,6.475021737045E-8},
    {-2.74769181403E-5,1.332786364874E-5,2.505540462546E-6,6.481729853862E-8},
    {-2.73956860279E-5,1.332792453624E-5,2.476773954939E-6,6.47404822505E-8},
    {-2.76180959603E-5,1.332794380068E-5,2.499763548391E-6,6.470549517679E-8},
    {-2.755014109E-5,1.33279336561E-5,2.469446943062E-6,6.467817568157E-8},
    {-2.75516238612E-5,1.332792338874E-5,2.488431387371E-6,6.472220124933E-8},
    {-2.75889883946E-5,1.332788246806E-5,2.472382424218E-6,6.477988240569E-8},
    {-2.75004355783E-5,1.33279313993E-5,2.498478623796E-6,6.476105354779E-8},
    {-2.74985660566E-5,1.332790904786E-5,2.486214218604E-6,6.472893295629E-8},
    {-2.74629290057E-5,1.332792726401E-5,2.510100058961E-6,6.471304814877E-8},
    {-2.74525793617E-5,1.332789348961E-5,2.472754313875E-6,6.47042513666E-8}}},
  {{2.54370230259E-15,1.10073169996E-13,2.51097845723E-12},{Residual->1.21017104704E-15}},
  {{-.5,5.76594826893E-13},{-.35,2.69192863383E-13},{-.2,8.08486071728E-14},{-.05,4.83650612999E-15},{.1,3.8875826937E-14},
   {.25,1.8653133185E-13},{.4,4.48258895309E-13}}},
 {"EY",1,
  {7.222075284472E-8,1.333639009947E-5,1.438686069389E-8,3.797883578507E-8,{{-2.75030656448E-5,1.333639259782E-5,2.700927471403E-6,
     3.805625693432E-8},
    {-2.75365258799E-5,1.333638477588E-5,2.666650897832E-6,3.794673933878E-8},
    {-2.75037245716E-5,1.333638810863E-5,2.655215107351E-6,3.798205471759E-8},
    {-2.74847907085E-5,1.333639095289E-5,2.683956453424E-6,3.796689086367E-8},
    {-2.75445348817E-5,1.333639133233E-5,2.686888386193E-6,3.791918850171E-8},
    {-2.75190789842E-5,1.333638424056E-5,2.702284139203E-6,3.792155472971E-8},
    {-2.7380679194E-5,1.333637908197E-5,2.695744066204E-6,3.799153325275E-8},
    {-2.76122025231E-5,1.333638911556E-5,2.663123777607E-6,3.798423988295E-8},
    {-2.77387763181E-5,1.333639526833E-5,2.688458649159E-6,3.796474300785E-8},
    {-2.74673237759E-5,1.333637960836E-5,2.677843812443E-6,3.798795162053E-8},
    {-2.75397229783E-5,1.333638971173E-5,2.664181415616E-6,3.800448436171E-8},
    {-2.75192471539E-5,1.333639911549E-5,2.679326990994E-6,3.805324804467E-8},
    {-2.74915319709E-5,1.333639193427E-5,2.661826353952E-6,3.797903368383E-8},
    {-2.75554731824E-5,1.33363913983E-5,2.659752656843E-6,3.800588805878E-8},
    {-2.74843207558E-5,1.333639883309E-5,2.664958947082E-6,3.801868065822E-8},
    {-2.76518517473E-5,1.333639107566E-5,2.66714275917E-6,3.79390091597E-8},
    {-2.74884725478E-5,1.333639543515E-5,2.676164243931E-6,3.796497270928E-8},
    {-2.75632068062E-5,1.333638997895E-5,2.657462699151E-6,3.793528176157E-8},
    {-2.75042784042E-5,1.333638608642E-5,2.669322692773E-6,3.798790727821E-8},
    {-2.75660926177E-5,1.333639333802E-5,2.659075526059E-6,3.79670571355E-8}}},
  {{4.41351567098E-15,-7.620221511E-14,4.65540709625E-13},{Residual->1.2437887447E-16}},
  {{-.5,1.58896013896E-13},{-.35,8.82323147108E-14},{-.2,3.81263862564E-14},{-.05,9.24142911076E-15},{.1,1.64598627482E-15},
   {.25,1.45259230693E-14},{.4,4.83349411494E-14}}},
 {"R32",1,
  {5.465188093113E-8,1.334238056868E-5,2.01158909808E-8,3.308161319581E-8,{{-2.89647990063E-5,1.334237600832E-5,3.20380415694E-6,
     3.308564774471E-8},
    {-2.88362166256E-5,1.334236837696E-5,3.204792372951E-6,3.307389710675E-8},
    {-2.88849268269E-5,1.3342364888E-5,3.194525271408E-6,3.308691437137E-8},
    {-2.88481781791E-5,1.33423832426E-5,3.196846867469E-6,3.308633893873E-8},
    {-2.8833315845E-5,1.334238368788E-5,3.186207493792E-6,3.307995570484E-8},
    {-2.88857173598E-5,1.334242572358E-5,3.15109827239E-6,3.310072508703E-8},
    {-2.88205743393E-5,1.334240420843E-5,3.191338378573E-6,3.308771534887E-8},
    {-2.88015421636E-5,1.334236271704E-5,3.16234498006E-6,3.307184472775E-8},
    {-2.8798816221E-5,1.334236922457E-5,3.189193661686E-6,3.30768624078E-8},
    {-2.89072328366E-5,1.334239967877E-5,3.197356132779E-6,3.308401116685E-8},
    {-2.89714874781E-5,1.334239759822E-5,3.143693420264E-6,3.308075472823E-8},
    {-2.89299666897E-5,1.334239985353E-5,3.215970354404E-6,3.309173397023E-8},
    {-2.88200451398E-5,1.334239054109E-5,3.205313689964E-6,3.308394813712E-8},
    {-2.88638966887E-5,1.334234628443E-5,3.16060465583E-6,3.306248650989E-8},
    {-2.88604486285E-5,1.334237620171E-5,3.193087352304E-6,3.308205436215E-8},
    {-2.88098811345E-5,1.334235093084E-5,3.203720360807E-6,3.30855483705E-8},
    {-2.88275160152E-5,1.334236719029E-5,3.188764054315E-6,3.306464026477E-8},
    {-2.896193866E-5,1.33423917007E-5,3.19273541728E-6,3.308307707423E-8},
    {-2.89280818578E-5,1.334236448518E-5,3.212351714629E-6,3.309019479049E-8},
    {-2.88720757239E-5,1.334238883136E-5,3.16284017007E-6,3.307391310393E-8}}},
  {{1.68881671631E-15,-1.3432578818E-14,1.86676327389E-13},{Residual->1.54018093923E-16}},
  {{-.5,5.49836776286E-14},{-.35,2.93123016967E-14},{-.2,1.20334718459E-14},{-.05,2.82005531551E-15},{.1,1.90238023687E-15},
   {.25,1.01466252347E-14},{.4,2.61975296264E-14}}},
 {"AY",1,
  {7.142561605486E-8,1.333723971465E-5,1.514658697883E-8,3.343202371369E-8,{{-3.16767551598E-5,1.333725441419E-5,2.525548149893E-6,
     3.343442859173E-8},
    {-3.14854803343E-5,1.333720371098E-5,2.530453252577E-6,3.341667578645E-8},
    {-3.16042569956E-5,1.333723943475E-5,2.507772340662E-6,3.343930407805E-8},
    {-3.14761534707E-5,1.333720239708E-5,2.533666686836E-6,3.341484118749E-8},
    {-3.15279922418E-5,1.33372381738E-5,2.497476592556E-6,3.343121278565E-8},
    {-3.14828329577E-5,1.33372686879E-5,2.528502066493E-6,3.342967913162E-8},
    {-3.16382720393E-5,1.333725858285E-5,2.515252721661E-6,3.34352352529E-8},
    {-3.15333976261E-5,1.333725666373E-5,2.541422116993E-6,3.343202372261E-8},
    {-3.15212085624E-5,1.333722538788E-5,2.519486780068E-6,3.34328096176E-8},
    {-3.16558946175E-5,1.333728703034E-5,2.542140145913E-6,3.3437353379E-8},
    {-3.14978588415E-5,1.333723128857E-5,2.521880278398E-6,3.343910322158E-8},
    {-3.15605512521E-5,1.333724905501E-5,2.542133212359E-6,3.343043475972E-8},
    {-3.1379853829E-5,1.333719926732E-5,2.546927596076E-6,3.343373061689E-8},
    {-3.15992914526E-5,1.333728305773E-5,2.500293279294E-6,3.343192573919E-8},
    {-3.15001240495E-5,1.333722104421E-5,2.515189683022E-6,3.343586653748E-8},
    {-3.14944141577E-5,1.333721412843E-5,2.496588854628E-6,3.342778316584E-8},
    {-3.15122979425E-5,1.333722273173E-5,2.530829660386E-6,3.343138071885E-8},
    {-3.15558092991E-5,1.33372528049E-5,2.52936946899E-6,3.34365328903E-8},
    {-3.15443755437E-5,1.333722409409E-5,2.506996500436E-6,3.344623520433E-8},
    {-3.14409047071E-5,1.333726233753E-5,2.510157558551E-6,3.342391788659E-8}}},
  {{-8.4500736463E-16,1.40151223395E-14,2.49439783592E-12},{Residual->9.01532463989E-16}},
  {{-.3,2.19732696491E-13},{-.2,9.57895878461E-14},{-.1,2.17003453802E-14},{5.55111512313E-17,1.09444093772E-15},
   {.1,2.47512263099E-14},{.2,1.01375409833E-13},{.3,2.28072635707E-13}}},
 {"EY",1,
  {8.093228023402E-8,1.334362050587E-5,1.846525771106E-8,3.324191627686E-8,{{-3.28701193225E-5,1.334360005492E-5,2.386856888111E-6,
     3.324133241401E-8},
    {-3.29320322057E-5,1.334362458034E-5,2.400195646455E-6,3.323829442512E-8},
    {-3.30045474669E-5,1.334361996848E-5,2.402420713492E-6,3.324134456017E-8},
    {-3.30855952286E-5,1.334360750376E-5,2.410255736135E-6,3.324036446017E-8},
    {-3.28892049856E-5,1.334362305604E-5,2.42643967205E-6,3.324034145195E-8},
    {-3.31350063037E-5,1.334362789845E-5,2.375077872596E-6,3.32435597569E-8},
    {-3.29979103183E-5,1.334366002897E-5,2.401249746597E-6,3.324449261701E-8},
    {-3.29425443115E-5,1.334362324875E-5,2.400757807053E-6,3.324202227409E-8},
    {-3.29145169918E-5,1.334363270455E-5,2.380299275976E-6,3.324210146074E-8},
    {-3.28826239788E-5,1.33435637828E-5,2.385615719291E-6,3.323569929839E-8},
    {-3.28254259949E-5,1.334359958698E-5,2.417925426698E-6,3.324537718678E-8},
    {-3.2924984311E-5,1.334365157071E-5,2.372987761092E-6,3.324420082E-8},
    {-3.27749986976E-5,1.334361588961E-5,2.420309343752E-6,3.323786453822E-8},
    {-3.30172613043E-5,1.334362968511E-5,2.414833276318E-6,3.324566332225E-8},
    {-3.29282619171E-5,1.334362721112E-5,2.37492783539E-6,3.323789604932E-8},
    {-3.2884019087E-5,1.334361058143E-5,2.413115955035E-6,3.324172556365E-8},
    {-3.29632937052E-5,1.334363032864E-5,2.379357739665E-6,3.324183760846E-8},
    {-3.28903751016E-5,1.334364940132E-5,2.387725852492E-6,3.324252086604E-8},
    {-3.29455032388E-5,1.334361029703E-5,2.413749491831E-6,3.324250353473E-8},
    {-3.29456727136E-5,1.334360273828E-5,2.436990520598E-6,3.324918332909E-8}}},
  {{1.07786977455E-15,4.08510321195E-15,4.65695966466E-13},{Residual->5.70032656143E-17}},
  {{-.5,1.15473498137E-13},{-.35,5.66656978659E-14},{-.2,1.88828648441E-14},{-.05,2.05229329898E-15},{.1,6.22355262699E-15},
   {.25,3.10902715024E-14},{.4,7.72652623094E-14}}},
 {"R32",1,
  {7.945175322829E-8,1.334841458615E-5,2.238588327372E-8,3.308611740718E-8,{{-3.22289998223E-5,1.334839707836E-5,2.271484396427E-6,
     3.309446966726E-8},
    {-3.23405481384E-5,1.334840397183E-5,2.284011060315E-6,3.310142325642E-8},
    {-3.22676527348E-5,1.334840208099E-5,2.290690873735E-6,3.308056613751E-8},
    {-3.2377474431E-5,1.334843519193E-5,2.287036559034E-6,3.309871634327E-8},
    {-3.24709796908E-5,1.334844276445E-5,2.258696702107E-6,3.308366675378E-8},
    {-3.24057410346E-5,1.334839659682E-5,2.262073525917E-6,3.306261465922E-8},
    {-3.22669297127E-5,1.334843684846E-5,2.266234145275E-6,3.310209523307E-8},
    {-3.24087787851E-5,1.334838902449E-5,2.32200249068E-6,3.307967980387E-8},
    {-3.23738989894E-5,1.334844684114E-5,2.275835462986E-6,3.309783275619E-8},
    {-3.24566900534E-5,1.334842806288E-5,2.317483909821E-6,3.3092639651E-8},
    {-3.24306477812E-5,1.33484059569E-5,2.314260660763E-6,3.308226839459E-8},
    {-3.24049551609E-5,1.334840183395E-5,2.251936826978E-6,3.308818740632E-8},
    {-3.23785795566E-5,1.334839595413E-5,2.280651498662E-6,3.30878114914E-8},
    {-3.24286997438E-5,1.334843053677E-5,2.307971898962E-6,3.310386051486E-8},
    {-3.25395530337E-5,1.334846984484E-5,2.26438457154E-6,3.310760887452E-8},
    {-3.24273205616E-5,1.334840131125E-5,2.290392462282E-6,3.306560368824E-8},
    {-3.24224801542E-5,1.334840151914E-5,2.27017331233E-6,3.306732704677E-8},
    {-3.24575454185E-5,1.334838824622E-5,2.325155976139E-6,3.308093028576E-8},
    {-3.24810504835E-5,1.334842895143E-5,2.262807790764E-6,3.308811620801E-8},
    {-3.25277155286E-5,1.334838910711E-5,2.262457758379E-6,3.30569299716E-8}}},
  {{1.43015884792E-15,5.5102498711E-16,1.87195167475E-13},{Residual->1.3669722499E-16}},
  {{-.5,4.78644742E-14},{-.35,2.42610745064E-14},{-.2,8.97845200324E-15},{-.05,1.72489806675E-15},{.1,3.18095311189E-15},
   {.25,1.34464116136E-14},{.4,3.15708606278E-14}}},
 {"AY",1,
  {6.167494625402E-8,1.334979075906E-5,1.984990338869E-8,3.340581927514E-8,{{-3.22682702655E-5,1.334978658405E-5,2.293333977815E-6,
     3.340057157366E-8},
    {-3.21863236157E-5,1.334977574824E-5,2.355393509411E-6,3.340215917712E-8},
    {-3.21810477485E-5,1.334975710684E-5,2.338335300242E-6,3.339941842537E-8},
    {-3.21882800181E-5,1.334978437746E-5,2.354239849169E-6,3.339990791754E-8},
    {-3.2174511664E-5,1.334977593355E-5,2.356079037142E-6,3.340566095768E-8},
    {-3.22256303552E-5,1.33497897395E-5,2.358661106445E-6,3.339793396524E-8},
    {-3.22465853551E-5,1.334977124807E-5,2.338986318358E-6,3.340224329428E-8},
    {-3.22666504487E-5,1.334978206169E-5,2.300140250993E-6,3.34018036498E-8},
    {-3.22784503497E-5,1.334980306986E-5,2.337611751468E-6,3.340873644133E-8},
    {-3.22250291914E-5,1.334980759416E-5,2.356502533535E-6,3.340375361679E-8},
    {-3.21773699268E-5,1.334982529987E-5,2.308727841759E-6,3.342169943802E-8},
    {-3.2217182932E-5,1.334975486686E-5,2.336318569608E-6,3.339636828444E-8},
    {-3.20838979441E-5,1.334978411213E-5,2.338538226349E-6,3.34005458468E-8},
    {-3.2290602706E-5,1.334982511918E-5,2.334173655677E-6,3.341918032883E-8},
    {-3.22395432767E-5,1.334977342237E-5,2.313708689184E-6,3.340249924658E-8},
    {-3.22268412338E-5,1.334982123704E-5,2.338885057028E-6,3.341968655003E-8},
    {-3.20964600252E-5,1.334982271951E-5,2.323033671446E-6,3.342192166116E-8},
    {-3.23296761897E-5,1.33498300879E-5,2.31031692422E-6,3.341994427244E-8},
    {-3.22538742433E-5,1.33497396163E-5,2.328541452885E-6,3.339073015556E-8},
    {-3.23075509652E-5,1.334980523656E-5,2.361263002859E-6,3.340162070018E-8}}},
  {{-8.2695114646E-16,1.51597039416E-14,2.49405002845E-12},{Residual->9.13113914562E-16}},
  {{-.3,2.19457127654E-13},{-.2,9.54400420468E-14},{-.1,2.16403854078E-14},{5.55111512313E-17,1.10108861508E-15},
   {.1,2.47069204923E-14},{.2,1.01967254167E-13},{.3,2.28232531558E-13}}},
 {"EY",1,
  {8.480402642995E-8,1.335655219609E-5,1.534491593213E-8,3.328583555244E-8,{{-3.60412934179E-5,1.335657586739E-5,2.494340298967E-6,
     3.329153502931E-8},
    {-3.60519773325E-5,1.335653310267E-5,2.498051710708E-6,3.328188731358E-8},
    {-3.5876877058E-5,1.335653595372E-5,2.500457155128E-6,3.330096511779E-8},
    {-3.591881575E-5,1.335652621405E-5,2.510261879929E-6,3.327556528673E-8},
    {-3.5977500559E-5,1.335657488578E-5,2.497539705734E-6,3.328910840235E-8},
    {-3.58902878188E-5,1.335657807535E-5,2.50528437652E-6,3.329299624657E-8},
    {-3.60083336546E-5,1.335654830831E-5,2.47353815078E-6,3.328132046983E-8},
    {-3.59107022335E-5,1.335650765853E-5,2.507938651033E-6,3.325772417086E-8},
    {-3.59297059104E-5,1.335655573417E-5,2.495668902566E-6,3.329794822548E-8},
    {-3.58710428069E-5,1.335653622746E-5,2.476308563154E-6,3.328454167374E-8},
    {-3.58244945813E-5,1.335648674118E-5,2.498790818027E-6,3.328802203452E-8},
    {-3.60200138856E-5,1.335653638842E-5,2.4990642896E-6,3.327168101903E-8},
    {-3.58913527063E-5,1.335657273364E-5,2.466015577324E-6,3.32942275717E-8},
    {-3.59535512367E-5,1.335654204441E-5,2.507463662548E-6,3.328295366291E-8},
    {-3.58892761859E-5,1.335657581808E-5,2.500547682791E-6,3.328966735465E-8},
    {-3.61611878475E-5,1.335657666434E-5,2.471525509665E-6,3.32998385709E-8},
    {-3.58457402374E-5,1.335654739589E-5,2.464166593446E-6,3.328955400308E-8},
    {-3.59439034156E-5,1.335659682775E-5,2.523036805167E-6,3.328330993498E-8},
    {-3.59322034709E-5,1.335659000395E-5,2.489324332936E-6,3.327692686506E-8},
    {-3.60888725857E-5,1.335654727665E-5,2.495796930427E-6,3.328693809569E-8}}},
  {{1.14320014695E-15,-2.0945500604E-15,4.63947882344E-13},{Residual->2.79093160672E-17}},
  {{-.3,4.35129260838E-14},{-.2,2.01636869493E-14},{-.1,5.96775720251E-15},{5.55111512313E-17,1.10531230846E-15},
   {.1,5.6057605418E-15},{.2,1.92936863558E-14},{.3,4.22586786433E-14}}},
 {"R32",1,
  {6.88448204045E-8,1.335662905485E-5,1.903548474588E-8,3.35173446263E-8,{{-3.46599600927E-5,1.335665857923E-5,2.959468835243E-6,
     3.353301987927E-8},
    {-3.45909944867E-5,1.335661438161E-5,2.91197018295E-6,3.3505647156E-8},
    {-3.45982949156E-5,1.335662716269E-5,2.910644273189E-6,3.351097464782E-8},
    {-3.453197506E-5,1.335659463284E-5,2.932952335319E-6,3.351247865457E-8},
    {-3.45881085959E-5,1.335668356044E-5,2.929610816803E-6,3.353560379559E-8},
    {-3.46158820733E-5,1.335665260223E-5,2.920025758346E-6,3.35264196396E-8},
    {-3.46727506341E-5,1.335662908106E-5,2.932194017445E-6,3.350853120633E-8},
    {-3.46618759037E-5,1.335664654424E-5,2.956135628163E-6,3.352310300882E-8},
    {-3.44636020007E-5,1.33565833074E-5,2.935018148542E-6,3.350809304863E-8},
    {-3.45465498822E-5,1.335664388344E-5,2.937310385968E-6,3.35243213661E-8},
    {-3.46589730015E-5,1.335663072137E-5,2.914037345739E-6,3.351708788052E-8},
    {-3.47708985944E-5,1.335663499234E-5,2.922724915972E-6,3.35134650443E-8},
    {-3.45986792069E-5,1.335658459616E-5,2.943397410798E-6,3.351038219541E-8},
    {-3.46874295556E-5,1.335666536636E-5,2.945391305403E-6,3.352902529818E-8},
    {-3.46405414426E-5,1.335660585241E-5,2.97552091816E-6,3.351539900082E-8},
    {-3.45825425589E-5,1.335660736511E-5,2.969935821965E-6,3.351661018314E-8},
    {-3.4649579337E-5,1.335664120034E-5,2.915688645424E-6,3.352472430117E-8},
    {-3.46147305792E-5,1.335664182189E-5,2.916660472022E-6,3.351744232862E-8},
    {-3.44975065588E-5,1.33566157046E-5,2.91464287853E-6,3.350877335347E-8},
    {-3.45573161652E-5,1.335661974133E-5,2.924840303288E-6,3.350579053774E-8}}},
  {{1.30507909841E-15,-9.3658516604E-16,1.89219130875E-13},{Residual->1.16170277674E-16}},
  {{-.3,1.85286306218E-14},{-.2,9.15127815624E-15},{-.1,3.46250897339E-15},{5.55111512313E-17,1.12683679075E-15},
   {.1,3.01487769726E-15},{.2,8.78469329423E-15},{.3,1.80480848002E-14}}},
 {"Y24",1,
  {7.192947597958E-8,1.333423355709E-5,1.801445421819E-8,3.351864649583E-8,{{-3.57683381619E-5,1.333426596835E-5,2.33856969904E-6,
     3.353021132801E-8},
    {-3.58364429334E-5,1.333423011335E-5,2.355621939718E-6,3.351577817953E-8},
    {-3.57818867588E-5,1.333423331525E-5,2.34303098586E-6,3.351953774597E-8},
    {-3.57528203422E-5,1.333422839896E-5,2.359170063441E-6,3.352236297434E-8},
    {-3.57267338743E-5,1.333426831765E-5,2.298114141893E-6,3.351313655741E-8},
    {-3.58072785603E-5,1.333422272284E-5,2.366517105228E-6,3.351371597655E-8},
    {-3.56430543838E-5,1.333419754965E-5,2.327924001458E-6,3.35153300672E-8},
    {-3.56313169003E-5,1.333423503663E-5,2.355090770019E-6,3.351718396371E-8},
    {-3.58943867889E-5,1.333422304166E-5,2.312350234392E-6,3.351078779658E-8},
    {-3.58205980838E-5,1.333426645772E-5,2.335340472759E-6,3.352427238438E-8},
    {-3.57983034772E-5,1.333423464205E-5,2.357095541212E-6,3.351542920439E-8},
    {-3.57073984877E-5,1.333421288566E-5,2.310010969348E-6,3.351168870471E-8},
    {-3.57611140508E-5,1.333426669995E-5,2.350625274371E-6,3.350836712447E-8},
    {-3.58225165125E-5,1.333423670722E-5,2.363531982917E-6,3.35173050183E-8},
    {-3.5673351092E-5,1.333423673499E-5,2.336280219821E-6,3.352521194005E-8},
    {-3.58362361806E-5,1.333424156542E-5,2.358003272779E-6,3.352435037695E-8},
    {-3.56512011038E-5,1.333421746595E-5,2.343822318238E-6,3.35190251203E-8},
    {-3.58201837482E-5,1.333422467728E-5,2.346395710426E-6,3.352281853433E-8},
    {-3.57537138442E-5,1.333422430881E-5,2.340018810065E-6,3.35257590046E-8},
    {-3.56908163403E-5,1.333420453234E-5,2.333230999661E-6,3.352065791478E-8}}},
  {{1.16874866781E-15,2.25519472901E-16,1.00590797406E-15},{Residual->4.68498316691E-17}},
  {{-1.5,3.12520814565E-15},{-1.2,2.37126369718E-15},{-.9,1.76940871481E-15},{-.6,1.33165251094E-15},{-.3,1.12329079033E-15},
   {0,1.1685618186E-15},{.3,1.35242331264E-15},{.6,1.72003681341E-15},{.9,2.25169273522E-15},{1.2,2.90544381745E-15},
   {1.5,3.69574193288E-15}}},
 {"Y46",1,
  {7.145268459001E-8,1.333237917278E-5,1.897764578964E-8,3.352301938032E-8,{{-3.57104888303E-5,1.333236375905E-5,2.301987011135E-6,
     3.352756671905E-8},
    {-3.57437750213E-5,1.333236462923E-5,2.321786383789E-6,3.352876779638E-8},
    {-3.55738007535E-5,1.333237939584E-5,2.335706402051E-6,3.350603041015E-8},
    {-3.56697689555E-5,1.333236229987E-5,2.341567335003E-6,3.351516072351E-8},
    {-3.57450737761E-5,1.333236702954E-5,2.337169644363E-6,3.349836838323E-8},
    {-3.56544802542E-5,1.333238557967E-5,2.334928644762E-6,3.354344030858E-8},
    {-3.57603102388E-5,1.333237694627E-5,2.356568378329E-6,3.354833285467E-8},
    {-3.58015921095E-5,1.333237008652E-5,2.342982160137E-6,3.353055277346E-8},
    {-3.57370488039E-5,1.333237622043E-5,2.326617168117E-6,3.352785341601E-8},
    {-3.5614503205E-5,1.333240889822E-5,2.34449489693E-6,3.353833991624E-8},
    {-3.56381210265E-5,1.333240500251E-5,2.346908361972E-6,3.354055216875E-8},
    {-3.58300895603E-5,1.333237096205E-5,2.355801492464E-6,3.351714243095E-8},
    {-3.57497292773E-5,1.333242199217E-5,2.31722072132E-6,3.351098671859E-8},
    {-3.57723619285E-5,1.333236627168E-5,2.336096282419E-6,3.352453375106E-8},
    {-3.56952855014E-5,1.333237504062E-5,2.324796678129E-6,3.354817424099E-8},
    {-3.58314390373E-5,1.333236085743E-5,2.336010321729E-6,3.345040496028E-8},
    {-3.57040848508E-5,1.333238364732E-5,2.326155819218E-6,3.350454556939E-8},
    {-3.57946199669E-5,1.333237043912E-5,2.294856175504E-6,3.350994753865E-8},
    {-3.57436299779E-5,1.333238423605E-5,2.383766167654E-6,3.354958561249E-8},
    {-3.58347818153E-5,1.333239016201E-5,2.346989929276E-6,3.354010131392E-8}}},
  {{1.13890638277E-15,1.5373857972E-16,3.99392939464E-15},{Residual->8.51422659224E-17}},
  {{-1,5.11172102437E-15},{-.8,3.54833018186E-15},{-.6,2.36360187458E-15},{-.4,1.6276229197E-15},{-.2,1.24053183459E-15},
   {0,1.12339307329E-15},{.2,1.3804932058E-15},{.4,1.93823217503E-15},{.6,2.76677176557E-15},{.8,3.83932241213E-15},
   {1,5.16123907996E-15}}},
 {"Y22",1,
  {6.853455763566E-8,1.333236551305E-5,1.861707803472E-8,3.351962913801E-8,{{-3.578595573E-5,1.333238793478E-5,2.351987174434E-6,
     3.35227169249E-8},
    {-3.5672260957E-5,1.333238282001E-5,2.319444374423E-6,3.350768922766E-8},
    {-3.57166136217E-5,1.333239146115E-5,2.344341068864E-6,3.354804567526E-8},
    {-3.5818163768E-5,1.333237234998E-5,2.351484428338E-6,3.354811643699E-8},
    {-3.56367830308E-5,1.333233723488E-5,2.327715795247E-6,3.350964083485E-8},
    {-3.57159822046E-5,1.333239033513E-5,2.298754738367E-6,3.351767531232E-8},
    {-3.57494391585E-5,1.333232978463E-5,2.356794813524E-6,3.348682302751E-8},
    {-3.58604779554E-5,1.333234812445E-5,2.336312065808E-6,3.352862706955E-8},
    {-3.57613721531E-5,1.333234129608E-5,2.313933836794E-6,3.348037398314E-8},
    {-3.58118796932E-5,1.333238845601E-5,2.30116274666E-6,3.350633630935E-8},
    {-3.58064976053E-5,1.333236725315E-5,2.342387261839E-6,3.352347472907E-8},
    {-3.57805840708E-5,1.333234665288E-5,2.351175999636E-6,3.350229252115E-8},
    {-3.5762351673E-5,1.333238631141E-5,2.322202245844E-6,3.351650677022E-8},
    {-3.56372736264E-5,1.333238113181E-5,2.346987633968E-6,3.352089388063E-8},
    {-3.56715689928E-5,1.333237206525E-5,2.35590628046E-6,3.354804961695E-8},
    {-3.56738481527E-5,1.333235543678E-5,2.350906694907E-6,3.354998801856E-8},
    {-3.5789019963E-5,1.333234656818E-5,2.325483324313E-6,3.351496553332E-8},
    {-3.57522343978E-5,1.333234811291E-5,2.315115629125E-6,3.352836358465E-8},
    {-3.57607113027E-5,1.333236923001E-5,2.357377198508E-6,3.353187478753E-8},
    {-3.58923964417E-5,1.333236770149E-5,2.317151881692E-6,3.350012851651E-8}}},
  {{1.58583716383E-15,8.50811079539E-16,8.48203662518E-15},{Residual->2.44834486425E-16}},
  {{-.6,3.93041977021E-15},{-.4,2.89130030391E-15},{-.2,2.00104013259E-15},{1.11022302463E-16,1.12289866026E-15},
   {.2,2.09793588313E-15},{.4,3.42993303733E-15},{.6,5.12721337956E-15}}},
 {"Y26",1,
  {5.943165749947E-8,1.333644055118E-5,1.940036226189E-8,3.264381142705E-8,{{-3.57555876473E-5,1.333645218398E-5,2.319704638407E-6,
     3.26597571831E-8},
    {-3.57563537258E-5,1.333643284499E-5,2.306896927532E-6,3.267732643599E-8},
    {-3.57975774575E-5,1.333645014788E-5,2.335082696143E-6,3.26440641816E-8},
    {-3.58610457736E-5,1.333644932703E-5,2.338533908399E-6,3.266287097084E-8},
    {-3.57217860653E-5,1.333645939434E-5,2.363949758661E-6,3.262939094034E-8},
    {-3.56720566565E-5,1.333644209488E-5,2.315845151042E-6,3.265371426522E-8},
    {-3.5848854064E-5,1.333642479063E-5,2.315586700807E-6,3.260988548913E-8},
    {-3.57840679851E-5,1.333644736241E-5,2.300037810653E-6,3.266690329526E-8},
    {-3.57788714366E-5,1.333644585063E-5,2.345749255694E-6,3.264190032717E-8},
    {-3.57095895481E-5,1.333648007458E-5,2.337750047769E-6,3.264352377423E-8},
    {-3.58681185782E-5,1.333643272823E-5,2.377756315898E-6,3.262396223352E-8},
    {-3.57549497645E-5,1.333645436559E-5,2.348907283412E-6,3.263215702683E-8},
    {-3.57328444811E-5,1.333642101856E-5,2.336487210528E-6,3.267709350887E-8},
    {-3.5698114352E-5,1.333641063086E-5,2.345625614149E-6,3.263021605959E-8},
    {-3.57509546056E-5,1.333641933339E-5,2.367029965432E-6,3.263409272208E-8},
    {-3.57447048829E-5,1.33364404724E-5,2.334399840801E-6,3.263199914624E-8},
    {-3.57752345892E-5,1.333643427283E-5,2.35183168637E-6,3.263570976867E-8},
    {-3.58980991313E-5,1.333645007362E-5,2.344033469234E-6,3.263329917663E-8},
    {-3.5778004331E-5,1.333643267748E-5,2.323835252278E-6,3.263247914426E-8},
    {-3.56975840383E-5,1.333643137936E-5,2.341093948382E-6,3.265588289134E-8}}},
  {{1.37280075373E-15,-2.4523542721E-15,2.1123469031E-14},{Residual->1.51030599722E-16}},
  {{-.6,1.03119414745E-14},{-.4,5.89196035402E-15},{-.2,2.9216350531E-15},{1.11022302463E-16,1.12383025661E-15},
   {.2,1.65981398889E-15},{.4,3.82774611889E-15},{.6,7.53096334481E-15}}},
 {"Y66",1,
  {8.266545718924E-8,1.33364507744E-5,1.975764457443E-8,3.263856916147E-8,{{-3.57566216278E-5,1.33364433532E-5,2.350801103433E-6,
     3.263282671018E-8},
    {-3.56719730173E-5,1.333646129896E-5,2.364368049336E-6,3.263134460958E-8},
    {-3.58504211508E-5,1.333646439138E-5,2.368025234364E-6,3.263251309205E-8},
    {-3.57203829458E-5,1.333644539284E-5,2.3288039701E-6,3.263566532103E-8},
    {-3.57655876141E-5,1.333646349758E-5,2.351509690655E-6,3.263908449946E-8},
    {-3.56926501902E-5,1.333644867601E-5,2.337776867391E-6,3.263350343159E-8},
    {-3.59577307715E-5,1.333647018315E-5,2.334610911941E-6,3.26407709919E-8},
    {-3.58484516994E-5,1.333643986644E-5,2.37637897854E-6,3.261767308141E-8},
    {-3.57615002819E-5,1.333643276431E-5,2.360715227495E-6,3.262223879013E-8},
    {-3.56243698067E-5,1.333643851343E-5,2.343089083263E-6,3.262862162869E-8},
    {-3.569901226E-5,1.333648121801E-5,2.36824967876E-6,3.262848845173E-8},
    {-3.56995260467E-5,1.33364384859E-5,2.347102548376E-6,3.262440321594E-8},
    {-3.56594915102E-5,1.333645054273E-5,2.367846919965E-6,3.265122944221E-8},
    {-3.57196957058E-5,1.333645536388E-5,2.327859530555E-6,3.265524053559E-8},
    {-3.57866527155E-5,1.333644869732E-5,2.327392235856E-6,3.263809828331E-8},
    {-3.56704549066E-5,1.333644315182E-5,2.311756141736E-6,3.264086898616E-8},
    {-3.5746663654E-5,1.333644854942E-5,2.344992726968E-6,3.264623166084E-8},
    {-3.58696261587E-5,1.333644452893E-5,2.375001117954E-6,3.262595779163E-8},
    {-3.57680058659E-5,1.33364482981E-5,2.324305706917E-6,3.26562579446E-8},
    {-3.56447114236E-5,1.333644871455E-5,2.311991914525E-6,3.269036476145E-8}}},
  {{1.76862319917E-15,3.04415931124E-15,4.05816693565E-13},{Residual->2.97245825285E-16}},
  {{-.2,1.7325091761E-14},{-.15,1.05122169452E-14},{-.1,5.74838286579E-15},{-.05,2.6809700669E-15},{0,1.06534789004E-15},
   {.05,3.04443083942E-15},{.1,6.56352530429E-15},{.15,1.14248384548E-14},{.2,1.84253086998E-14}}},
 {"Y44",1,
  {4.753680336357E-8,1.333645106497E-5,2.406192586086E-8,3.26372771475E-8,{{-3.57072850277E-5,1.333644956398E-5,2.352194946741E-6,
     3.263532995416E-8},
    {-3.57409467922E-5,1.33364365472E-5,2.354469716097E-6,3.263866564141E-8},
    {-3.56863596085E-5,1.333645459049E-5,2.351313117518E-6,3.262941793664E-8},
    {-3.56681443684E-5,1.333646425926E-5,2.307967328578E-6,3.264741668091E-8},
    {-3.57017508174E-5,1.333645651262E-5,2.367215019079E-6,3.26452444453E-8},
    {-3.57219106534E-5,1.333645875272E-5,2.356520361279E-6,3.265447555644E-8},
    {-3.5730653578E-5,1.333646434076E-5,2.341189335645E-6,3.262516981415E-8},
    {-3.58097171985E-5,1.3336462478E-5,2.332981340237E-6,3.263858022929E-8},
    {-3.56622492376E-5,1.333644408498E-5,2.344635524445E-6,3.262650532726E-8},
    {-3.57186604915E-5,1.333645586955E-5,2.341154197184E-6,3.263875328246E-8},
    {-3.57194517336E-5,1.333644069429E-5,2.378685894104E-6,3.262528305762E-8},
    {-3.57167767398E-5,1.333645074682E-5,2.337261122489E-6,3.264559319473E-8},
    {-3.5722666175E-5,1.333645756356E-5,2.393772806468E-6,3.262707769726E-8},
    {-3.57327318863E-5,1.333645778785E-5,2.34344308313E-6,3.264705883476E-8},
    {-3.58227673882E-5,1.33364813003E-5,2.309405176369E-6,3.264072136665E-8},
    {-3.58020423177E-5,1.333643978131E-5,2.377895272849E-6,3.264197922533E-8},
    {-3.57393352794E-5,1.333641795444E-5,2.382873767972E-6,3.262225290919E-8},
    {-3.57090627387E-5,1.333645120023E-5,2.310678129858E-6,3.265151773061E-8},
    {-3.56410819391E-5,1.333643665086E-5,2.318051134222E-6,3.262133459919E-8},
    {-3.56511151382E-5,1.33364406201E-5,2.356515091702E-6,3.264316546656E-8}}},
  {{1.14792471381E-15,7.79073430276E-17,4.1355691549E-15},{Residual->7.15658155967E-17}},
  {{-.6,2.52273406863E-15},{-.4,1.85595768868E-15},{-.2,1.39176383702E-15},{1.11022302463E-16,1.06535149156E-15},
   {.2,1.24638021566E-15},{.4,1.89358712031E-15},{.6,2.69153602832E-15}}},
 {"AY",1,
  {5.544691489821E-8,1.333844434315E-5,2.100485863199E-8,3.240960401837E-8,{{-3.58171488029E-5,1.333843109345E-5,2.376103437987E-6,
     3.239079695229E-8},
    {-3.56858875598E-5,1.333843301478E-5,2.324920438683E-6,3.239210684629E-8},
    {-3.57427834912E-5,1.333845483417E-5,2.319812821764E-6,3.243252150294E-8},
    {-3.58443338718E-5,1.333844782548E-5,2.329239419835E-6,3.240453633457E-8},
    {-3.5877221112E-5,1.333845849062E-5,2.328906252547E-6,3.242362394529E-8},
    {-3.57693349865E-5,1.333844176227E-5,2.38402014816E-6,3.239886753131E-8},
    {-3.57545210554E-5,1.333843957291E-5,2.335819757939E-6,3.240795889925E-8},
    {-3.58414092516E-5,1.3338432964E-5,2.374923305003E-6,3.239972616704E-8},
    {-3.57221588361E-5,1.333844265629E-5,2.340034240144E-6,3.240661072875E-8},
    {-3.57952186291E-5,1.33384394978E-5,2.320057367885E-6,3.241132043101E-8},
    {-3.57293200844E-5,1.333844949091E-5,2.356642923782E-6,3.239954561381E-8},
    {-3.57189819432E-5,1.333842249474E-5,2.335319579613E-6,3.239842582797E-8},
    {-3.57583689791E-5,1.333844165263E-5,2.367853308632E-6,3.240797595019E-8},
    {-3.58609101333E-5,1.33384482396E-5,2.31982794627E-6,3.242236495857E-8},
    {-3.5779259516E-5,1.333847396062E-5,2.35773541021E-6,3.242464515343E-8},
    {-3.57988880319E-5,1.333843908421E-5,2.357522274341E-6,3.241252351552E-8},
    {-3.58139458741E-5,1.333844293535E-5,2.338106716576E-6,3.242645123781E-8},
    {-3.57055608018E-5,1.333845065206E-5,2.344829431399E-6,3.239655860961E-8},
    {-3.5849586151E-5,1.333844966415E-5,2.319985422032E-6,3.242968334094E-8},
    {-3.57255157956E-5,1.333844697692E-5,2.314502476566E-6,3.240583682081E-8}}},
  {{5.96274442939E-16,2.41753351008E-14,2.39008655166E-12},{Residual->2.99234353023E-16}},
  {{-.1,2.21879728479E-14},{-.07,1.03168818839E-14},{-.04,3.44076636779E-15},{-.01,1.10338182466E-15},{.02,1.94199453116E-15},
   {.05,7.33139406388E-15},{.08,1.80624978123E-14}}},
 {"EY",1,
  {5.547780892056E-8,1.33420465983E-5,1.825863889186E-8,3.221673806961E-8,{{-3.4731518949E-5,1.33420483439E-5,2.13455850234E-6,
     3.221971202626E-8},
    {-3.48037159059E-5,1.334203940576E-5,2.129110032585E-6,3.221561698451E-8},
    {-3.47988930648E-5,1.334204941353E-5,2.129748557898E-6,3.221713931971E-8},
    {-3.48604670555E-5,1.334205371424E-5,2.142338906585E-6,3.222181661813E-8},
    {-3.48699254692E-5,1.334205287557E-5,2.14161189008E-6,3.222042437967E-8},
    {-3.49316473129E-5,1.334205388052E-5,2.144147119702E-6,3.221875613425E-8},
    {-3.47588516438E-5,1.334205010948E-5,2.123287890275E-6,3.221385739175E-8},
    {-3.49297556894E-5,1.334205665095E-5,2.144539790759E-6,3.222124532266E-8},
    {-3.48229225331E-5,1.334206744689E-5,2.148941219297E-6,3.22303712089E-8},
    {-3.478584776E-5,1.334203247203E-5,2.164556760311E-6,3.220543466121E-8},
    {-3.48468338503E-5,1.334203995424E-5,2.09227461954E-6,3.220833323309E-8},
    {-3.48029563813E-5,1.33420392264E-5,2.12374531107E-6,3.22106835654E-8},
    {-3.47585688385E-5,1.334202785296E-5,2.10349976385E-6,3.220561625004E-8},
    {-3.48799941035E-5,1.334205662015E-5,2.136620524179E-6,3.222980494049E-8},
    {-3.4897539314E-5,1.334205085654E-5,2.137674620692E-6,3.221640341081E-8},
    {-3.48100603567E-5,1.334202091325E-5,2.141742648876E-6,3.22051984818E-8},
    {-3.48561635616E-5,1.334205719308E-5,2.173962012854E-6,3.222768546828E-8},
    {-3.4828184937E-5,1.334205496605E-5,2.137498953393E-6,3.221725339324E-8},
    {-3.48000246978E-5,1.334205869988E-5,2.119571018814E-6,3.222021846593E-8},
    {-3.49039759102E-5,1.334202137063E-5,2.154881885872E-6,3.220919013602E-8}}},
  {{1.09965799906E-15,1.24653584943E-14,4.26505161721E-13},{Residual->3.27619893069E-17}},
  {{-.1,4.12662398357E-15},{-.07,2.27998195812E-15},{-.04,1.30811718765E-15},{-.01,1.04955697024E-15},{.02,1.51887863312E-15},
   {.05,2.73037872441E-15},{.08,4.85797713031E-15}}},
 {"R32",1,
  {5.769774444155E-8,1.33444788547E-5,1.379001041739E-8,3.200402023712E-8,{{-3.59402108839E-5,1.334445912054E-5,2.24234529377E-6,
     3.201584555287E-8},
    {-3.61164135932E-5,1.334450097229E-5,2.248634920835E-6,3.198443934352E-8},
    {-3.60962252582E-5,1.334449035145E-5,2.228128791624E-6,3.20088214245E-8},
    {-3.6001372685E-5,1.334448206622E-5,2.227099529154E-6,3.199718813459E-8},
    {-3.60810965953E-5,1.334450112079E-5,2.247739993977E-6,3.198665025447E-8},
    {-3.59909693265E-5,1.334442606916E-5,2.254305774291E-6,3.20169890092E-8},
    {-3.61488037714E-5,1.334448375149E-5,2.27188192709E-6,3.200064283467E-8},
    {-3.60804371565E-5,1.334446779604E-5,2.24484922812E-6,3.201107411183E-8},
    {-3.59427250395E-5,1.334447985265E-5,2.27328844981E-6,3.199892624024E-8},
    {-3.60565480412E-5,1.334447518892E-5,2.224918317384E-6,3.200432461304E-8},
    {-3.60919495314E-5,1.334451091507E-5,2.253500080797E-6,3.19900740334E-8},
    {-3.60810085473E-5,1.334448046025E-5,2.233779969561E-6,3.200950804241E-8},
    {-3.60981628407E-5,1.334446994078E-5,2.254481935707E-6,3.201132644171E-8},
    {-3.6017424381E-5,1.334448398583E-5,2.260549834729E-6,3.199411056962E-8},
    {-3.60933741993E-5,1.334446132265E-5,2.26015982544E-6,3.201156156164E-8},
    {-3.61164234041E-5,1.334445715696E-5,2.265381207752E-6,3.201706423567E-8},
    {-3.608025034E-5,1.334449054645E-5,2.250648571502E-6,3.200743258964E-8},
    {-3.61330541029E-5,1.334451884385E-5,2.259453820959E-6,3.199228225428E-8},
    {-3.60847475401E-5,1.334445613987E-5,2.24032715566E-6,3.201330721576E-8},
    {-3.6114869385E-5,1.334448149277E-5,2.260483865168E-6,3.200883627929E-8}}},
  {{1.0078623742E-15,-1.3301620125E-15,1.97025360226E-13},{Residual->2.51041517107E-17}},
  {{-.1,3.13819737885E-15},{-.07,2.03909904832E-15},{-.04,1.35039490751E-15},{-.01,1.03702487352E-15},{.02,1.09409269127E-15},
   {.05,1.45515736478E-15},{.08,2.13713852586E-15}}},
 {"Y24",1,
  {3.667795825543E-8,1.334793844144E-5,2.411703190827E-8,3.143341724314E-8,{{-3.55218143891E-5,1.334793393114E-5,1.98037933063E-6,
     3.143586959147E-8},
    {-3.5593279323E-5,1.33479389773E-5,2.012290488106E-6,3.142863486642E-8},
    {-3.55109844508E-5,1.334793529368E-5,2.043045840386E-6,3.143027937307E-8},
    {-3.54945608278E-5,1.334794578337E-5,1.988091151377E-6,3.142397727536E-8},
    {-3.55874532511E-5,1.334789246126E-5,2.019028038615E-6,3.145592651318E-8},
    {-3.55577286376E-5,1.334792045763E-5,2.024812309532E-6,3.144105697462E-8},
    {-3.55399960552E-5,1.334796426627E-5,2.045843799096E-6,3.142741895305E-8},
    {-3.55238871319E-5,1.334793330104E-5,2.009363154354E-6,3.142837899975E-8},
    {-3.54900137752E-5,1.334793696259E-5,2.035872282851E-6,3.142889102911E-8},
    {-3.55350181969E-5,1.33479494792E-5,1.989008666666E-6,3.142694610455E-8},
    {-3.55909770339E-5,1.334793354856E-5,2.041022850161E-6,3.143782708887E-8},
    {-3.55399062898E-5,1.334796285112E-5,2.037194877897E-6,3.142579171202E-8},
    {-3.56226379652E-5,1.334795788969E-5,1.992262979254E-6,3.142302563378E-8},
    {-3.55895713519E-5,1.334792588397E-5,2.029288631024E-6,3.143568621695E-8},
    {-3.55193655775E-5,1.334798093773E-5,2.021648197111E-6,3.141574923801E-8},
    {-3.55700764455E-5,1.334796835298E-5,1.989439938612E-6,3.141902738897E-8},
    {-3.55565037854E-5,1.334792100003E-5,2.044585870472E-6,3.144294706719E-8},
    {-3.55893865098E-5,1.334789617652E-5,2.015901901177E-6,3.145272977369E-8},
    {-3.55092955598E-5,1.334790369945E-5,1.993811610249E-6,3.14531019725E-8},
    {-3.55300603578E-5,1.334796757531E-5,2.071111543805E-6,3.143507909032E-8}}},
  {{1.03719209308E-15,-4.767688599E-16,1.3796600226E-15},{Residual->6.2680494006E-18}},
  {{-.3,1.29822731697E-15},{-.2,1.19320459857E-15},{-.1,1.10571759098E-15},{5.55111512313E-17,1.03748992127E-15},
   {.1,9.9785546828E-16},{.2,9.88463222426E-16},{.3,1.0256913394E-15}}},
 {"Y46",1,
  {5.043326418911E-8,1.333817127515E-5,1.59890676225E-8,3.069623710327E-8,{{-3.5515580672E-5,1.333819282464E-5,2.016009990172E-6,
     3.06875934768E-8},
    {-3.54371322532E-5,1.333817226022E-5,2.021399763544E-6,3.068863252749E-8},
    {-3.55422427128E-5,1.333816201906E-5,2.040123964171E-6,3.069904239956E-8},
    {-3.54925939311E-5,1.333820311688E-5,2.025413661478E-6,3.069086234201E-8},
    {-3.55407141605E-5,1.333817195822E-5,2.040607067286E-6,3.070153291458E-8},
    {-3.54329651695E-5,1.333818782018E-5,2.01261283919E-6,3.070087992281E-8},
    {-3.54684355381E-5,1.33381659759E-5,2.014828560705E-6,3.069737139857E-8},
    {-3.55365350338E-5,1.333815986726E-5,2.024827690835E-6,3.069955816558E-8},
    {-3.55955165756E-5,1.333815966535E-5,2.009220522921E-6,3.069527335689E-8},
    {-3.55372585171E-5,1.33381809663E-5,2.000671604818E-6,3.068650079853E-8},
    {-3.54194921791E-5,1.333819549646E-5,2.029463473366E-6,3.070245385015E-8},
    {-3.55412415505E-5,1.333816642069E-5,2.020276093429E-6,3.069264374566E-8},
    {-3.55263201222E-5,1.333820578226E-5,2.009880582956E-6,3.068635433171E-8},
    {-3.55607916255E-5,1.333813049831E-5,2.021344290152E-6,3.071129875407E-8},
    {-3.54769677085E-5,1.333813660463E-5,2.0225988198E-6,3.07068633193E-8},
    {-3.55463053461E-5,1.333817141529E-5,2.012465046988E-6,3.06926303907E-8},
    {-3.55930293781E-5,1.33381446426E-5,2.02512951129E-6,3.070379239399E-8},
    {-3.55184036701E-5,1.333816850503E-5,1.966902153314E-6,3.069259975107E-8},
    {-3.55096007781E-5,1.333815950312E-5,2.040296901019E-6,3.069877812098E-8},
    {-3.55946078165E-5,1.333819016057E-5,2.031699586327E-6,3.069008010487E-8}}},
  {{1.01319693934E-15,9.3377489392E-16,4.72359096873E-15},{Residual->2.12537139919E-17}},
  {{-.45,1.55412551229E-15},{-.3,1.16794863093E-15},{-.15,9.60909371987E-16},{-5.5511151231E-17,9.87952115388E-16},
   {.15,1.27967993593E-15},{.3,1.75151816819E-15},{.45,2.36610715095E-15}}},
 {"Y22",1,
  {6.069707580848E-8,1.333817508309E-5,2.142580390514E-8,3.068903265639E-8,{{-3.55514401969E-5,1.333813525261E-5,1.982033219004E-6,
     3.070049063445E-8},
    {-3.55205239272E-5,1.333816642131E-5,2.028441407355E-6,3.069543481701E-8},
    {-3.54884695332E-5,1.333817143113E-5,2.019439699444E-6,3.069473829405E-8},
    {-3.54959790235E-5,1.33381618862E-5,1.975623467984E-6,3.068996944242E-8},
    {-3.55623209701E-5,1.333819458318E-5,2.000306662425E-6,3.067470989291E-8},
    {-3.55591183586E-5,1.333816338671E-5,2.039075112883E-6,3.069025865897E-8},
    {-3.54249914435E-5,1.333815058741E-5,2.011732615654E-6,3.070083038114E-8},
    {-3.55234153279E-5,1.333815837286E-5,2.011394002204E-6,3.069628977057E-8},
    {-3.54685446856E-5,1.333819983432E-5,2.005991579065E-6,3.06861382891E-8},
    {-3.55094613119E-5,1.333820204525E-5,2.029865554153E-6,3.068033753077E-8},
    {-3.56648712651E-5,1.333819105652E-5,2.008745412421E-6,3.068503285991E-8},
    {-3.55351863493E-5,1.333816783033E-5,1.993552397111E-6,3.068908620347E-8},
    {-3.54750232461E-5,1.333821586418E-5,2.048898515525E-6,3.06842108565E-8},
    {-3.56341154441E-5,1.333817959552E-5,1.986511276852E-6,3.068155736707E-8},
    {-3.54905639053E-5,1.333814674993E-5,1.961889332561E-6,3.069287336335E-8},
    {-3.54813801079E-5,1.333817499088E-5,2.020457715705E-6,3.068608662149E-8},
    {-3.56312899298E-5,1.333815953648E-5,1.989318467851E-6,3.068862721738E-8},
    {-3.55179148929E-5,1.333821043275E-5,2.008252462493E-6,3.06746828279E-8},
    {-3.54457034537E-5,1.333821087479E-5,2.027332021977E-6,3.068547610471E-8},
    {-3.55235741412E-5,1.333814092949E-5,2.013475732006E-6,3.070382199453E-8}}},
  {{1.30154587335E-15,1.03369501854E-15,7.60218114331E-15},{Residual->1.83769151889E-16}},
  {{-.6,3.28628330691E-15},{-.4,2.3236306399E-15},{-.2,1.53534816237E-15},{1.11022302463E-16,9.42087588985E-16},
   {.2,1.85734628693E-15},{.4,3.06889884667E-15},{.6,4.61166916216E-15}}},
 {"Y26",1,
  {6.615934810265E-8,1.333817476819E-5,1.912770987162E-8,3.069298709031E-8,{{-3.55712473521E-5,1.333816965625E-5,1.997894895268E-6,
     3.069152428763E-8},
    {-3.5529027567E-5,1.333819709567E-5,2.006621124228E-6,3.068554865009E-8},
    {-3.55005659925E-5,1.3338165722E-5,1.998776077527E-6,3.070555777308E-8},
    {-3.54355234871E-5,1.333818570978E-5,2.035508944389E-6,3.068869893244E-8},
    {-3.54428229197E-5,1.33381963946E-5,2.009228993014E-6,3.068942217031E-8},
    {-3.55569121652E-5,1.333817019506E-5,2.032733127021E-6,3.069762713116E-8},
    {-3.54570101238E-5,1.333818187786E-5,2.017955102979E-6,3.068698675212E-8},
    {-3.56290728064E-5,1.333814012929E-5,2.036606656191E-6,3.070479709008E-8},
    {-3.55896337562E-5,1.333815559278E-5,1.997819463656E-6,3.069246315081E-8},
    {-3.54563263009E-5,1.333816650727E-5,2.017888662522E-6,3.069953335538E-8},
    {-3.54624515991E-5,1.333816032582E-5,2.000288919643E-6,3.069403622409E-8},
    {-3.54134832777E-5,1.333817128918E-5,2.025092970392E-6,3.06923369758E-8},
    {-3.55516502865E-5,1.333819413672E-5,2.026963836076E-6,3.069373542423E-8},
    {-3.54967643176E-5,1.333815892143E-5,1.983177798046E-6,3.069522936755E-8},
    {-3.55696010212E-5,1.333821685727E-5,2.006190385105E-6,3.067906912548E-8},
    {-3.55094165406E-5,1.333820097309E-5,2.072192627556E-6,3.068318608925E-8},
    {-3.55965720489E-5,1.333816129245E-5,2.020891840714E-6,3.069538677828E-8},
    {-3.56197362605E-5,1.33381763839E-5,2.031105224257E-6,3.069530200971E-8},
    {-3.54247062694E-5,1.333812998612E-5,2.030086619784E-6,3.071144690078E-8},
    {-3.54728062784E-5,1.333819631719E-5,2.016815948191E-6,3.067785361795E-8}}},
  {{1.03637438632E-15,-1.7444438533E-15,2.5808062161E-14},{Residual->6.23838066813E-17}},
  {{-.3,3.84803622331E-15},{-.2,2.5091502312E-15},{-.1,1.44543051911E-15},{5.55111512313E-17,9.42182388136E-16},
   {.1,1.14370768625E-15},{.2,1.79742400784E-15},{.3,2.79494705345E-15}}},
 {"Y66",1,
  {6.31741426555E-8,1.333817609589E-5,1.621527270646E-8,3.068928935818E-8,{{-3.55228656896E-5,1.333817449246E-5,2.009761484287E-6,
     3.069565182707E-8},
    {-3.55043286574E-5,1.333818785513E-5,2.004879254499E-6,3.068206631308E-8},
    {-3.54926353738E-5,1.333816274115E-5,1.98326999338E-6,3.068947255359E-8},
    {-3.5412067131E-5,1.333817393709E-5,2.031008879311E-6,3.069377663696E-8},
    {-3.56391465864E-5,1.333820939622E-5,2.010881340978E-6,3.067906919288E-8},
    {-3.55810945429E-5,1.333817631484E-5,2.019369172959E-6,3.068983735937E-8},
    {-3.55810036893E-5,1.333814859608E-5,1.999441820764E-6,3.069806867924E-8},
    {-3.56238145499E-5,1.333816828873E-5,2.002453643005E-6,3.068875653529E-8},
    {-3.5426000696E-5,1.333818572756E-5,2.030971167938E-6,3.069557280319E-8},
    {-3.55874418812E-5,1.33381684029E-5,2.007968441769E-6,3.06891129282E-8},
    {-3.55633937346E-5,1.333819557631E-5,2.031549522685E-6,3.067932352844E-8},
    {-3.5541053026E-5,1.33381685079E-5,2.012338637089E-6,3.068915388202E-8},
    {-3.55621636906E-5,1.333819245286E-5,2.02139435093E-6,3.068148524217E-8},
    {-3.54629197846E-5,1.333822816695E-5,2.026313162227E-6,3.068178052246E-8},
    {-3.55330288724E-5,1.333815391176E-5,2.025156099871E-6,3.069316725798E-8},
    {-3.54869975038E-5,1.333819060174E-5,1.990037784987E-6,3.068231431389E-8},
    {-3.54257449205E-5,1.333815217783E-5,1.980485625329E-6,3.069913160496E-8},
    {-3.55768961724E-5,1.333817289573E-5,2.017150042936E-6,3.069176350795E-8},
    {-3.5483901992E-5,1.333817945658E-5,1.98589321178E-6,3.068107139834E-8},
    {-3.55393289225E-5,1.333813241802E-5,2.029972406646E-6,3.070521107648E-8}}},
  {{1.57924009951E-15,1.03144092855E-14,4.1919313527E-13},{Residual->3.05072138802E-16}},
  {{-.2,1.5982629509E-14},{-.15,9.59376046268E-15},{-.1,5.25409150232E-15},{-.05,2.30362298855E-15},{0,9.41955718523E-16},
   {.05,3.07268438794E-15},{.1,6.9146314549E-15},{.15,1.25501346728E-14},{.2,2.04786204894E-14}}},
 {"Y44",1,
  {8.329818892436E-8,1.333817179459E-5,2.166004626297E-8,3.069225414842E-8,{{-3.56427225628E-5,1.33381722894E-5,1.971938853055E-6,
     3.068231437216E-8},
    {-3.55537014416E-5,1.333817875147E-5,1.989615956569E-6,3.068101324398E-8},
    {-3.55018133835E-5,1.333817279855E-5,2.008909027343E-6,3.068879842362E-8},
    {-3.56611317419E-5,1.333820894145E-5,2.003949431139E-6,3.067559358516E-8},
    {-3.55970113963E-5,1.333817119766E-5,1.978524705781E-6,3.068928155405E-8},
    {-3.54670805325E-5,1.333818238159E-5,2.027386504155E-6,3.069294188085E-8},
    {-3.55955616109E-5,1.333813135043E-5,2.004893560844E-6,3.070786667889E-8},
    {-3.5469969511E-5,1.333816329496E-5,2.034969599487E-6,3.069485035018E-8},
    {-3.55063937435E-5,1.333822073755E-5,2.020752906148E-6,3.068157183035E-8},
    {-3.56759713989E-5,1.333820012956E-5,1.984936791809E-6,3.068203061656E-8},
    {-3.54788389641E-5,1.333814199876E-5,2.00041962815E-6,3.070402299957E-8},
    {-3.55937088374E-5,1.33381571099E-5,2.002560039032E-6,3.069609535199E-8},
    {-3.54123056459E-5,1.333815703804E-5,2.062287642149E-6,3.070749409356E-8},
    {-3.55278070082E-5,1.333813507463E-5,2.032439536881E-6,3.070707200618E-8},
    {-3.54173313389E-5,1.3338142462E-5,2.027612800395E-6,3.070523077033E-8},
    {-3.55516776964E-5,1.333817054932E-5,1.993808597773E-6,3.069142886897E-8},
    {-3.54480809097E-5,1.333818676227E-5,2.004761244776E-6,3.068528429327E-8},
    {-3.55500602825E-5,1.333816562717E-5,2.03187019838E-6,3.069106817501E-8},
    {-3.54481433199E-5,1.33381597516E-5,2.02549470008E-6,3.0697323679E-8},
    {-3.53799487178E-5,1.333821764555E-5,2.000267374436E-6,3.068380019475E-8}}},
  {{1.02933592099E-15,5.07081752333E-16,4.23041342731E-15},{Residual->6.20082150517E-17}},
  {{-.6,2.1907360088E-15},{-.4,1.58152662847E-15},{-.2,1.16218240095E-15},{1.11022302463E-16,9.42068990952E-16},
   {.2,1.24941465757E-15},{.4,1.96477055654E-15},{.6,2.85271524223E-15}}},
 {"AY",1,
  {6.284167204943E-8,1.333994431951E-5,1.453002813141E-8,3.032277010595E-8,{{-3.5426927501E-5,1.333995405953E-5,2.024610377226E-6,
     3.032552483028E-8},
    {-3.55041835247E-5,1.333996410082E-5,2.016887122505E-6,3.031528197762E-8},
    {-3.5652918498E-5,1.33399500615E-5,2.012406771149E-6,3.031899376998E-8},
    {-3.54656887541E-5,1.333990744015E-5,2.009906489861E-6,3.032705461307E-8},
    {-3.55781093412E-5,1.333995465379E-5,2.051446964626E-6,3.033088529415E-8},
    {-3.55675141352E-5,1.333995888259E-5,2.021072592379E-6,3.032155933705E-8},
    {-3.56666715886E-5,1.333993080083E-5,2.020269664002E-6,3.031846829928E-8},
    {-3.56066848275E-5,1.333995205072E-5,2.007958145456E-6,3.032134081725E-8},
    {-3.56416996812E-5,1.33399536943E-5,2.016717617801E-6,3.032229094514E-8},
    {-3.55135998092E-5,1.33399409147E-5,1.999476463885E-6,3.032217313403E-8},
    {-3.54817641203E-5,1.333997032762E-5,2.00641141356E-6,3.032443002243E-8},
    {-3.55522525782E-5,1.333995678701E-5,2.026881746938E-6,3.031944785537E-8},
    {-3.55533591894E-5,1.333990966778E-5,2.05580181738E-6,3.032687965355E-8},
    {-3.5585081096E-5,1.333993663918E-5,2.011546553382E-6,3.032626425875E-8},
    {-3.55253063095E-5,1.333992769509E-5,2.001742972454E-6,3.032624727742E-8},
    {-3.55711016437E-5,1.333994137161E-5,2.01809026736E-6,3.032095034524E-8},
    {-3.55449331505E-5,1.333995989328E-5,2.017460359086E-6,3.032389216557E-8},
    {-3.560758033E-5,1.333993123145E-5,2.009535743709E-6,3.031758329405E-8},
    {-3.54810057885E-5,1.333995023645E-5,2.021864626443E-6,3.03244235244E-8},
    {-3.55126454701E-5,1.333993588182E-5,2.040675010638E-6,3.032171070446E-8}}},
  {{4.9637387651E-16,1.86707276498E-14,2.39390981486E-12},{Residual->2.55915698416E-16}},
  {{-.1,2.27728688138E-14},{-.07,1.05766617584E-14},{-.04,3.41141474483E-15},{-.01,9.90122799086E-16},{.02,1.8766205299E-15},
   {.05,7.15427476802E-15},{.08,1.73879669911E-14}}},
 {"EY",1,
  {5.283170304891E-8,1.333427517735E-5,2.046636229866E-8,3.014926690254E-8,{{-3.95240774744E-5,1.33342721766E-5,2.43872280089E-6,
     3.014743726216E-8},
    {-3.94961586453E-5,1.333426464664E-5,2.455784449172E-6,3.01421906339E-8},
    {-3.95285328922E-5,1.33343072915E-5,2.433770440894E-6,3.014248631734E-8},
    {-3.95902331373E-5,1.333426198462E-5,2.430607175835E-6,3.014763049413E-8},
    {-3.95059225625E-5,1.333427037939E-5,2.490034095624E-6,3.01548624274E-8},
    {-3.95826726672E-5,1.333425727379E-5,2.458428121432E-6,3.015197000384E-8},
    {-3.94437318143E-5,1.333424509824E-5,2.454810544449E-6,3.015383460265E-8},
    {-3.96015180593E-5,1.333432190432E-5,2.483737821013E-6,3.014163252083E-8},
    {-3.95747213674E-5,1.333427077281E-5,2.431801276203E-6,3.014098108058E-8},
    {-3.94302818581E-5,1.3334270758E-5,2.438528834209E-6,3.015732679031E-8},
    {-3.95905604113E-5,1.333424856621E-5,2.454052025748E-6,3.015382886504E-8},
    {-3.95347750424E-5,1.333428684162E-5,2.434486962074E-6,3.014747657235E-8},
    {-3.94982130136E-5,1.333426313479E-5,2.46371231779E-6,3.01534284817E-8},
    {-3.95093290898E-5,1.333429459074E-5,2.422843323002E-6,3.014346295692E-8},
    {-3.96073570262E-5,1.333430265876E-5,2.487362555894E-6,3.014890375237E-8},
    {-3.94219782364E-5,1.333428124218E-5,2.4344768872E-6,3.01519413228E-8},
    {-3.95282196967E-5,1.333426542661E-5,2.450907013355E-6,3.015175352591E-8},
    {-3.95300150907E-5,1.333426198459E-5,2.447821246948E-6,3.015054177606E-8},
    {-3.95237248671E-5,1.333426742722E-5,2.449015232967E-6,3.015156918656E-8},
    {-3.95055628223E-5,1.333428938836E-5,2.48977109598E-6,3.015207947786E-8}}},
  {{8.98567751033E-16,-4.1418364047E-15,4.45196576453E-13},{Residual->1.16508870793E-17}},
  {{-.1,5.77374006665E-15},{-.07,3.35193576336E-15},{-.04,1.77877360612E-15},{-.01,9.90698334277E-16},{.02,1.00681865618E-15},
   {.05,1.78698151497E-15},{.08,3.42154619412E-15}}},
 {"R32",1,
  {6.77573958728E-8,1.331997139188E-5,1.610832253706E-8,3.021927926618E-8,{{-3.99758248724E-5,1.331997672534E-5,2.225732088041E-6,
     3.021506336019E-8},
    {-3.98194152712E-5,1.331993536305E-5,2.193049001977E-6,3.023413478262E-8},
    {-3.98814600988E-5,1.331994474836E-5,2.235136390579E-6,3.022080542373E-8},
    {-3.9880381062E-5,1.331993746998E-5,2.238483117243E-6,3.022468476362E-8},
    {-3.99445482957E-5,1.3320001859E-5,2.227074365833E-6,3.022045586409E-8},
    {-3.98920379549E-5,1.332000330857E-5,2.236225303324E-6,3.021367986624E-8},
    {-3.9816419581E-5,1.331993884637E-5,2.260835502427E-6,3.021530074993E-8},
    {-3.9765274384E-5,1.331997615396E-5,2.215217977909E-6,3.021799459131E-8},
    {-4.00163809879E-5,1.332001330657E-5,2.206480583712E-6,3.022034695694E-8},
    {-3.99170706363E-5,1.331997060446E-5,2.226722929342E-6,3.021588811053E-8},
    {-3.99736522417E-5,1.332000261322E-5,2.202287949794E-6,3.022190893101E-8},
    {-3.98174905053E-5,1.331993208651E-5,2.243736345858E-6,3.021812130335E-8},
    {-4.00013536068E-5,1.332000067855E-5,2.20553609001E-6,3.021652779837E-8},
    {-3.98510675464E-5,1.331994001451E-5,2.229763881276E-6,3.022023546908E-8},
    {-3.98749590909E-5,1.331995139661E-5,2.241398945641E-6,3.022017722724E-8},
    {-3.9976927974E-5,1.331997524725E-5,2.232277579613E-6,3.021982692506E-8},
    {-3.98819936803E-5,1.33199614549E-5,2.205305678663E-6,3.022064556449E-8},
    {-3.99148053632E-5,1.331999829058E-5,2.218814758903E-6,3.021839188048E-8},
    {-3.98796471889E-5,1.331999440981E-5,2.228375345404E-6,3.02181003594E-8},
    {-3.99747012741E-5,1.331997325992E-5,2.224963613505E-6,3.021329539597E-8}}},
  {{9.04215935927E-16,-1.4613581367E-15,1.92824446595E-13},{Residual->1.7725942612E-17}},
  {{-.1,2.98600884467E-15},{-.07,1.95717571804E-15},{-.04,1.24478678337E-15},{-.01,9.27613029167E-16},{.02,9.72592226365E-16},
   {.05,1.33576856922E-15},{.08,2.00201461702E-15}}},
 {"Y24",1,
  {7.027983939913E-8,1.331265688634E-5,1.444372027837E-8,3.086115209175E-8,{{-3.90410982359E-5,1.331266060174E-5,2.184411840942E-6,
     3.086437784405E-8},
    {-3.89506999352E-5,1.331263881425E-5,2.207824120429E-6,3.085658412093E-8},
    {-3.88316399129E-5,1.331267929362E-5,2.177599140834E-6,3.086818528846E-8},
    {-3.88418593065E-5,1.331267877691E-5,2.170467329898E-6,3.086425684266E-8},
    {-3.90614225774E-5,1.331268017734E-5,2.171211028823E-6,3.087224401138E-8},
    {-3.88780983846E-5,1.331268609132E-5,2.197308485455E-6,3.086240620935E-8},
    {-3.90396278105E-5,1.331263224008E-5,2.218242053521E-6,3.086006851671E-8},
    {-3.89620362027E-5,1.331265700987E-5,2.187585744709E-6,3.086187525495E-8},
    {-3.89108021104E-5,1.331263342859E-5,2.182268873942E-6,3.085566592863E-8},
    {-3.89044806659E-5,1.331265786147E-5,2.168835970114E-6,3.085889648407E-8},
    {-3.89451498602E-5,1.331264931295E-5,2.175629097627E-6,3.085425540185E-8},
    {-3.8992156481E-5,1.33126862496E-5,2.187247190444E-6,3.087921857739E-8},
    {-3.88474457189E-5,1.331265236175E-5,2.208356049367E-6,3.085306942834E-8},
    {-3.89743040031E-5,1.331270162882E-5,2.177207257654E-6,3.087969817969E-8},
    {-3.89274428902E-5,1.331261870899E-5,2.194806583849E-6,3.085338096571E-8},
    {-3.88970215967E-5,1.331263988892E-5,2.21137290048E-6,3.08524674965E-8},
    {-3.89559326995E-5,1.331262644374E-5,2.172596394554E-6,3.085521836271E-8},
    {-3.90483872924E-5,1.331266264694E-5,2.190225548385E-6,3.08577831412E-8},
    {-3.88427104757E-5,1.331264242266E-5,2.179635660553E-6,3.085426440428E-8},
    {-3.89353554399E-5,1.331265376734E-5,2.196850992939E-6,3.085912537614E-8}}},
  {{9.64338939809E-16,3.03152467188E-16,1.73117551851E-15},{Residual->1.46805529747E-18}},
  {{-.3,1.02771563977E-15},{-.2,9.74386427258E-16},{-.1,9.52804895083E-16},{5.55111512313E-17,9.64866284873E-16},
   {.1,1.0095079724E-15},{.2,1.09341790873E-15},{.3,1.21240259572E-15}}},
 {"Y46",1,
  {5.756204675269E-8,1.33011388951E-5,1.453147435603E-8,3.022941811475E-8,{{-3.89040438311E-5,1.330113909702E-5,2.167558437691E-6,
     3.022190210779E-8},
    {-3.89876511561E-5,1.330114802619E-5,2.17782827945E-6,3.022747517394E-8},
    {-3.88985866306E-5,1.330115658132E-5,2.166219345507E-6,3.023186184376E-8},
    {-3.89033632768E-5,1.330112689438E-5,2.179712530143E-6,3.022198339097E-8},
    {-3.89193463974E-5,1.330112317913E-5,2.181254781707E-6,3.023365817419E-8},
    {-3.8952812301E-5,1.330113935491E-5,2.167368770454E-6,3.022285666939E-8},
    {-3.89157103717E-5,1.330110706183E-5,2.163205072936E-6,3.023742398487E-8},
    {-3.89656781387E-5,1.330116046397E-5,2.185289989456E-6,3.022387158554E-8},
    {-3.89716592781E-5,1.330111563483E-5,2.203679421924E-6,3.023462899412E-8},
    {-3.90005703807E-5,1.33012061533E-5,2.20116150981E-6,3.022987375558E-8},
    {-3.90451252058E-5,1.330110579249E-5,2.190689011418E-6,3.023619435312E-8},
    {-3.89308686803E-5,1.330111075891E-5,2.185969992588E-6,3.024223983348E-8},
    {-3.89430866174E-5,1.330114109946E-5,2.196142306949E-6,3.022229306559E-8},
    {-3.89020607904E-5,1.330116277898E-5,2.166792956123E-6,3.0229486767E-8},
    {-3.88605044391E-5,1.330111371271E-5,2.221769800766E-6,3.02460155432E-8},
    {-3.8874403864E-5,1.330112958392E-5,2.190169243152E-6,3.023239025787E-8},
    {-3.88861835148E-5,1.330113618213E-5,2.173982926891E-6,3.022651622519E-8},
    {-3.88249153817E-5,1.330113106345E-5,2.178930133607E-6,3.022891583454E-8},
    {-3.89982173913E-5,1.330118560011E-5,2.1764650369E-6,3.021476889556E-8},
    {-3.90432418079E-5,1.33011388829E-5,2.174532280466E-6,3.02240058393E-8}}},
  {{9.6953367009E-16,9.70670858112E-16,4.56456722787E-15},{Residual->1.44806609734E-17}},
  {{-.45,1.44111613684E-15},{-.3,1.11378303631E-15},{-.15,9.35929160229E-16},{-5.5511151231E-17,9.52302121145E-16},
   {.15,1.20648350061E-15},{.3,1.68121952034E-15},{.45,2.33157956872E-15}}},
 {"Y22",1,
  {7.106021109488E-8,1.330113798568E-5,1.915758445277E-8,3.022878140323E-8,{{-3.89045106558E-5,1.330118377643E-5,2.205098929077E-6,
     3.022612634892E-8},
    {-3.87594935064E-5,1.330117678499E-5,2.189005633075E-6,3.023329730196E-8},
    {-3.89327438388E-5,1.330110991616E-5,2.174171905982E-6,3.023195245518E-8},
    {-3.87733870014E-5,1.330108863112E-5,2.189234559859E-6,3.024099449344E-8},
    {-3.87629634785E-5,1.330113252949E-5,2.167393561918E-6,3.02196930665E-8},
    {-3.89323511428E-5,1.330114101582E-5,2.180263463694E-6,3.02284201002E-8},
    {-3.88795007904E-5,1.330113819376E-5,2.206992731184E-6,3.023950099758E-8},
    {-3.90149368512E-5,1.330115930594E-5,2.188104435596E-6,3.02298044933E-8},
    {-3.89145980308E-5,1.330117094154E-5,2.134397843545E-6,3.020963881137E-8},
    {-3.89570006737E-5,1.330107941884E-5,2.178313339466E-6,3.024392689105E-8},
    {-3.88273619151E-5,1.330117209734E-5,2.203712325627E-6,3.023086858507E-8},
    {-3.89093391328E-5,1.330117313789E-5,2.14013464332E-6,3.021207380211E-8},
    {-3.89696010415E-5,1.330114645021E-5,2.189135041136E-6,3.022884870232E-8},
    {-3.89316675732E-5,1.330114825706E-5,2.169849306451E-6,3.022086517061E-8},
    {-3.89869644628E-5,1.330109321217E-5,2.195452139658E-6,3.023518734627E-8},
    {-3.88538221135E-5,1.330109011204E-5,2.161631345242E-6,3.023600657123E-8},
    {-3.89116262282E-5,1.330114041301E-5,2.155930266606E-6,3.022440974506E-8},
    {-3.88435794301E-5,1.33011156711E-5,2.182080181814E-6,3.022865049795E-8},
    {-3.89554948638E-5,1.330115024455E-5,2.181197752688E-6,3.021950273318E-8},
    {-3.89114701627E-5,1.330114960414E-5,2.182629165505E-6,3.02358599514E-8}}},
  {{1.23969300839E-15,1.12208765723E-15,7.67172839996E-15},{Residual->1.66900711583E-16}},
  {{-.6,3.20517190354E-15},{-.4,2.20630658519E-15},{-.2,1.4755544757E-15},{1.11022302463E-16,9.13985797767E-16},
   {.2,1.79428219147E-15},{.4,3.03156569327E-15},{.6,4.64332021974E-15}}},
 {"Y26",1,
  {5.709651455621E-8,1.330391601489E-5,1.807430684706E-8,3.018268322359E-8,{{-3.89932327583E-5,1.330389612207E-5,2.214619205084E-6,
     3.019352683162E-8},
    {-3.89444503097E-5,1.330396909606E-5,2.200068682054E-6,3.017543558195E-8},
    {-3.89263643901E-5,1.330389969263E-5,2.188284435402E-6,3.019230905824E-8},
    {-3.89769370649E-5,1.330389282558E-5,2.137758053182E-6,3.019769989315E-8},
    {-3.89786329067E-5,1.330390844199E-5,2.190269690361E-6,3.017780648663E-8},
    {-3.8896112239E-5,1.33039266057E-5,2.201465160127E-6,3.018564333234E-8},
    {-3.89714143084E-5,1.330394971063E-5,2.21156677953E-6,3.01787421496E-8},
    {-3.90640887374E-5,1.330393911876E-5,2.199739967069E-6,3.017730933297E-8},
    {-3.88878341712E-5,1.330385636476E-5,2.216074817286E-6,3.019698679948E-8},
    {-3.88519061725E-5,1.330392364824E-5,2.180017272047E-6,3.017548410059E-8},
    {-3.90054941965E-5,1.330387516864E-5,2.183037863792E-6,3.01826407522E-8},
    {-3.89603315517E-5,1.330392849046E-5,2.183545074568E-6,3.017404984838E-8},
    {-3.89690386165E-5,1.330391974686E-5,2.184461340996E-6,3.018508375098E-8},
    {-3.89314861924E-5,1.330390159792E-5,2.183230745849E-6,3.018091111307E-8},
    {-3.89680087921E-5,1.330392281169E-5,2.183029621624E-6,3.017775842148E-8},
    {-3.88875934293E-5,1.330391716251E-5,2.178309706303E-6,3.018509322383E-8},
    {-3.88857775968E-5,1.33039047098E-5,2.220938372771E-6,3.018821359565E-8},
    {-3.88309914027E-5,1.330396163265E-5,2.176706572658E-6,3.016933048545E-8},
    {-3.89097695281E-5,1.330391787282E-5,2.198776473225E-6,3.017877940558E-8},
    {-3.8861820703E-5,1.330390947794E-5,2.18167530316E-6,3.018086030853E-8}}},
  {{9.88191102476E-16,-1.7575539819E-15,2.58532133904E-14},{Residual->5.97470556164E-17}},
  {{-.3,3.8178728006E-15},{-.2,2.4588240996E-15},{-.1,1.37403762318E-15},{5.55111512313E-17,9.13710544063E-16},
   {.1,1.10072445406E-15},{.2,1.74977521455E-15},{.3,2.74129273059E-15}}},
 {"Y66",1,
  {6.067178196254E-8,1.330391321229E-5,1.734875856538E-8,3.018320142689E-8,{{-3.89288233523E-5,1.330397405928E-5,2.18809443541E-6,
     3.017431984994E-8},
    {-3.89375601604E-5,1.330389844928E-5,2.164742565222E-6,3.018358260836E-8},
    {-3.8804952691E-5,1.330389546216E-5,2.183528640395E-6,3.017949763814E-8},
    {-3.88839539506E-5,1.330388467817E-5,2.23111290773E-6,3.019623935479E-8},
    {-3.88375920538E-5,1.330391752365E-5,2.206754503092E-6,3.018216970018E-8},
    {-3.8875465988E-5,1.330389549221E-5,2.19117837035E-6,3.018731310225E-8},
    {-3.88742873501E-5,1.33039135634E-5,2.204982117604E-6,3.018386645451E-8},
    {-3.89947217908E-5,1.330390929379E-5,2.217343667309E-6,3.018183224687E-8},
    {-3.88192712672E-5,1.330393613322E-5,2.211530085459E-6,3.017740165759E-8},
    {-3.89807464857E-5,1.33039042584E-5,2.194394261698E-6,3.018166590876E-8},
    {-3.89272565119E-5,1.330392243804E-5,2.202652268285E-6,3.017852021209E-8},
    {-3.89733704156E-5,1.330386909357E-5,2.186835985896E-6,3.019672693836E-8},
    {-3.89688690421E-5,1.330392623458E-5,2.190391039016E-6,3.017721059523E-8},
    {-3.8905483235E-5,1.330387452195E-5,2.193606135918E-6,3.01838778153E-8},
    {-3.88860946355E-5,1.330388193273E-5,2.215765973589E-6,3.019575642428E-8},
    {-3.89394198519E-5,1.330395896014E-5,2.230607740524E-6,3.017558546474E-8},
    {-3.89141358694E-5,1.330392250608E-5,2.194849972765E-6,3.018336174136E-8},
    {-3.88694348136E-5,1.330391157553E-5,2.196069767743E-6,3.018710083275E-8},
    {-3.87862573074E-5,1.330392298487E-5,2.182361438357E-6,3.018159477816E-8},
    {-3.89933474533E-5,1.330394508482E-5,2.167863768792E-6,3.017640521423E-8}}},
  {{1.56906294221E-15,2.13360223255E-15,3.96305570341E-13},{Residual->3.06341922346E-16}},
  {{-.2,1.66862763698E-14},{-.15,1.04698677597E-14},{-.1,5.65393552387E-15},{-.05,2.57435557136E-15},{0,9.10795140133E-16},
   {.05,2.58368565566E-15},{.1,5.9525290736E-15},{.15,1.09948294751E-14},{.2,1.77411274618E-14}}},
 {"Y44",1,
  {6.013087709927E-8,1.330353034338E-5,1.552443940404E-8,3.00474205891E-8,{{-3.90186932306E-5,1.330352660449E-5,2.176803980537E-6,
     3.004355410544E-8},
    {-3.88314615959E-5,1.330350318178E-5,2.170672330296E-6,3.005412013398E-8},
    {-3.88983653178E-5,1.330350385667E-5,2.190769391047E-6,3.00554144325E-8},
    {-3.88938947458E-5,1.330352274453E-5,2.164759552086E-6,3.004697783805E-8},
    {-3.9030054168E-5,1.330353108966E-5,2.188818633526E-6,3.004961562543E-8},
    {-3.8998566288E-5,1.330352463941E-5,2.169857756067E-6,3.004247730751E-8},
    {-3.89124285287E-5,1.330353287415E-5,2.182826004656E-6,3.004025214284E-8},
    {-3.89722753216E-5,1.330356094615E-5,2.190867936878E-6,3.003963340342E-8},
    {-3.89482128029E-5,1.330353261884E-5,2.171649557799E-6,3.005281526565E-8},
    {-3.89077367545E-5,1.330349636892E-5,2.226829056652E-6,3.006718520975E-8},
    {-3.88616792729E-5,1.330357035078E-5,2.17716584237E-6,3.003527483119E-8},
    {-3.89816690779E-5,1.33035088159E-5,2.190520023073E-6,3.005571270042E-8},
    {-3.89270065718E-5,1.330352848116E-5,2.220287728514E-6,3.005544208469E-8},
    {-3.89660456203E-5,1.330351820498E-5,2.191557570208E-6,3.005322308987E-8},
    {-3.89616658117E-5,1.330356669378E-5,2.185964546778E-6,3.003997898027E-8},
    {-3.89399832305E-5,1.330356296519E-5,2.193355344242E-6,3.002781901448E-8},
    {-3.8945077445E-5,1.330355487168E-5,2.177538983665E-6,3.004585612533E-8},
    {-3.87928505483E-5,1.330354117568E-5,2.179768637142E-6,3.003591741059E-8},
    {-3.88757986877E-5,1.330349160531E-5,2.176176098928E-6,3.005694691791E-8},
    {-3.88727404047E-5,1.330352877856E-5,2.168156472923E-6,3.005019516262E-8}}},
  {{9.38673497772E-16,-8.7778834641E-17,4.26468965577E-15},{Residual->6.8255909356E-17}},
  {{-.6,2.45959642511E-15},{-.4,1.72396222962E-15},{-.2,1.21457686678E-15},{1.11022302463E-16,9.1097866952E-16},
   {.2,9.7545091897E-16},{.4,1.61352715823E-15},{.6,2.44907463064E-15}}},
 {"AY",1,
  {5.606875786345E-8,1.330423834156E-5,2.112076840166E-8,3.004436311265E-8,{{-3.89039983812E-5,1.330426770943E-5,2.147518340346E-6,
     3.004086166421E-8},
    {-3.89806765194E-5,1.330421695034E-5,2.187233769433E-6,3.005312390118E-8},
    {-3.88315957532E-5,1.330423816533E-5,2.169812845965E-6,3.003744645338E-8},
    {-3.90289057803E-5,1.330420328349E-5,2.186070927542E-6,3.00553212069E-8},
    {-3.89917313526E-5,1.330426314832E-5,2.203445107618E-6,3.003973387509E-8},
    {-3.88900995884E-5,1.330423721866E-5,2.1817371731E-6,3.004983083132E-8},
    {-3.8972413242E-5,1.33041944344E-5,2.212333836997E-6,3.005963212634E-8},
    {-3.89345021862E-5,1.330425887208E-5,2.196353960372E-6,3.003558627317E-8},
    {-3.89627823599E-5,1.330420230688E-5,2.209286136901E-6,3.005568907391E-8},
    {-3.89517128905E-5,1.330425646045E-5,2.186731598881E-6,3.004482762423E-8},
    {-3.88704439827E-5,1.33042309872E-5,2.167620268475E-6,3.004668041102E-8},
    {-3.88737235291E-5,1.330425485343E-5,2.159604369392E-6,3.002865982129E-8},
    {-3.89000508627E-5,1.33042538093E-5,2.2031093694E-6,3.003291871486E-8},
    {-3.88727410221E-5,1.330422230829E-5,2.215820040224E-6,3.005455669399E-8},
    {-3.90189482675E-5,1.330426509665E-5,2.180032154E-6,3.002958529683E-8},
    {-3.8866794308E-5,1.330425292855E-5,2.187916837587E-6,3.004827798315E-8},
    {-3.89789653533E-5,1.330422727445E-5,2.178635624401E-6,3.003873246541E-8},
    {-3.89463460334E-5,1.33042593104E-5,2.145799724973E-6,3.003275062477E-8},
    {-3.89122579439E-5,1.330422996115E-5,2.196021844775E-6,3.005040709029E-8},
    {-3.90080251978E-5,1.330423175231E-5,2.224789231799E-6,3.005264012162E-8}}},
  {{5.57875237818E-16,3.25491233332E-15,2.39380006071E-12},{Residual->1.83176803645E-16}},
  {{-.1,2.43087955294E-14},{-.07,1.18771827861E-14},{-.04,4.05272009464E-15},{-.01,1.0483697824E-15},{.02,1.7082600967E-15},
   {.05,6.50063075527E-15},{.08,1.61807453292E-14}}},
 {"EY",1,
  {7.919762947123E-8,1.331282064714E-5,1.720227361766E-8,3.067784290645E-8,{{-4.05409268907E-5,1.331283090358E-5,1.495999185737E-6,
     3.066963043752E-8},
    {-4.07794360764E-5,1.331284882142E-5,1.498994041118E-6,3.069242431086E-8},
    {-4.07144472968E-5,1.33128297513E-5,1.531290997949E-6,3.068780883487E-8},
    {-4.06283440278E-5,1.331281209408E-5,1.519288061058E-6,3.067823864115E-8},
    {-4.04973988487E-5,1.331285413323E-5,1.506851115059E-6,3.066996240008E-8},
    {-4.06467344919E-5,1.33128687063E-5,1.503313912706E-6,3.067397573784E-8},
    {-4.06079271422E-5,1.331280350712E-5,1.520174958807E-6,3.06751718254E-8},
    {-4.06499336619E-5,1.331281280563E-5,1.52012765548E-6,3.068293685616E-8},
    {-4.06401561669E-5,1.331279290982E-5,1.514188311475E-6,3.067965133749E-8},
    {-4.0730215508E-5,1.331284426494E-5,1.507828691614E-6,3.067429392325E-8},
    {-4.06439145316E-5,1.331279105299E-5,1.518167564892E-6,3.068159603388E-8},
    {-4.05133637245E-5,1.331279781888E-5,1.483007695188E-6,3.067786583729E-8},
    {-4.0710871634E-5,1.331280299249E-5,1.516482470635E-6,3.068425599871E-8},
    {-4.05435129658E-5,1.331281883478E-5,1.515347804013E-6,3.066961475097E-8},
    {-4.0623819366E-5,1.331279971557E-5,1.535628345271E-6,3.067950206486E-8},
    {-4.06692731363E-5,1.331281757504E-5,1.522105098808E-6,3.068467590578E-8},
    {-4.06388554199E-5,1.331281170376E-5,1.475438845976E-6,3.067563412341E-8},
    {-4.06951612876E-5,1.331279855995E-5,1.474314683625E-6,3.068178853926E-8},
    {-4.06313379053E-5,1.331283006715E-5,1.492468998317E-6,3.06782469124E-8},
    {-4.04704505141E-5,1.331284672469E-5,1.52882708609E-6,3.065958365785E-8}}},
  {{9.30373829232E-16,-1.7394266628E-15,4.41200340648E-13},{Residual->1.0885466909E-17}},
  {{-.1,5.52980878766E-15},{-.07,3.19610814489E-15},{-.04,1.69633055721E-15},{-.01,9.99224661309E-16},{.02,1.08404005365E-15},
   {.05,1.9472108306E-15},{.08,3.60874245849E-15}}},
 {"R32",1,
  {6.767224738693E-8,1.331533011869E-5,1.596457758888E-8,3.059645654465E-8,{{-3.93190854275E-5,1.331533704162E-5,1.748985968262E-6,
     3.059379755733E-8},
    {-3.94047274473E-5,1.331531046976E-5,1.757046839699E-6,3.059681713198E-8},
    {-3.92765984948E-5,1.331533192584E-5,1.751197133439E-6,3.059118093767E-8},
    {-3.93593444262E-5,1.331535367798E-5,1.775748038586E-6,3.060009713198E-8},
    {-3.93721116747E-5,1.331535104503E-5,1.749023270108E-6,3.059982958876E-8},
    {-3.94431724385E-5,1.331532793218E-5,1.746523693881E-6,3.059801723188E-8},
    {-3.92592804773E-5,1.33153125832E-5,1.761705614013E-6,3.058880343923E-8},
    {-3.9482334656E-5,1.331535439254E-5,1.734398062896E-6,3.060584307918E-8},
    {-3.93144612584E-5,1.331533292841E-5,1.775300001572E-6,3.059100305362E-8},
    {-3.94810984E-5,1.33152875418E-5,1.746642809106E-6,3.05987853483E-8},
    {-3.930376538E-5,1.33153048218E-5,1.745162614675E-6,3.059091784554E-8},
    {-3.94217038002E-5,1.331532112082E-5,1.766232929222E-6,3.059688676004E-8},
    {-3.92681276932E-5,1.331535923469E-5,1.761868625239E-6,3.059782941919E-8},
    {-3.9315627895E-5,1.331534625488E-5,1.740457655058E-6,3.059497387043E-8},
    {-3.94142106076E-5,1.331530514236E-5,1.783646711203E-6,3.059505707962E-8},
    {-3.93235185883E-5,1.331535236656E-5,1.783356920495E-6,3.059751507653E-8},
    {-3.93788159988E-5,1.331531622111E-5,1.752783542274E-6,3.059694862968E-8},
    {-3.93914866395E-5,1.331535073237E-5,1.728859360265E-6,3.060152664308E-8},
    {-3.93324698498E-5,1.331533482422E-5,1.75451080728E-6,3.059712754663E-8},
    {-3.94547380596E-5,1.331531211657E-5,1.784555571236E-6,3.059617352237E-8}}},
  {{9.09855446707E-16,5.77687580914E-16,1.61472360032E-13},{Residual->2.30215375016E-17}},
  {{-.1,2.49251483934E-15},{-.07,1.63280058055E-15},{-.04,1.11320418756E-15},{-.01,9.39466226843E-16},{.02,1.01241881474E-15},
   {.05,1.34438544488E-15},{.08,1.97589402721E-15}}},
 {"Y24",1,
  {6.918107238869E-8,1.331482495728E-5,2.376629925659E-8,3.074324062999E-8,{{-3.78468717466E-5,1.331482196174E-5,1.427789514276E-6,
     3.074873550618E-8},
    {-3.78357473807E-5,1.331478658228E-5,1.418342118022E-6,3.074155621835E-8},
    {-3.79354328975E-5,1.331479379138E-5,1.436407534421E-6,3.074576675556E-8},
    {-3.7875537521E-5,1.331480000164E-5,1.455345174269E-6,3.073998632503E-8},
    {-3.77833379059E-5,1.331486569333E-5,1.420726209788E-6,3.074826496504E-8},
    {-3.79272744991E-5,1.3314855585E-5,1.429248377783E-6,3.074926270222E-8},
    {-3.77551518825E-5,1.331481092175E-5,1.481057958481E-6,3.072944298961E-8},
    {-3.78178291004E-5,1.3314826528E-5,1.473222355815E-6,3.074685543336E-8},
    {-3.77662929262E-5,1.331483210784E-5,1.456174810231E-6,3.074278924502E-8},
    {-3.78033509357E-5,1.331487667641E-5,1.416563897599E-6,3.075556733891E-8},
    {-3.78177252864E-5,1.331482272213E-5,1.465909073596E-6,3.074610696973E-8},
    {-3.78878932993E-5,1.331481890285E-5,1.493466444397E-6,3.074438876875E-8},
    {-3.78707866242E-5,1.331481795237E-5,1.438031185595E-6,3.073963050188E-8},
    {-3.79056464194E-5,1.331486805036E-5,1.456244963552E-6,3.074285954391E-8},
    {-3.78438601887E-5,1.331481951192E-5,1.470021733609E-6,3.073608390051E-8},
    {-3.7925164559E-5,1.331481844706E-5,1.467338769904E-6,3.074244146697E-8},
    {-3.77499006328E-5,1.33148215228E-5,1.448939369944E-6,3.074004003754E-8},
    {-3.78242227762E-5,1.331480011866E-5,1.441456029101E-6,3.074181034734E-8},
    {-3.76755900841E-5,1.331481519388E-5,1.438243392911E-6,3.07399860098E-8},
    {-3.79363895073E-5,1.331482687409E-5,1.499598723056E-6,3.074323757404E-8}}},
  {{9.46741175692E-16,1.68336992963E-16,1.71292250051E-15},{Residual->4.0968363849E-18}},
  {{-.3,1.04566459661E-15},{-.2,9.86709847575E-16},{-.1,9.51861928636E-16},{5.55111512313E-17,9.45045262331E-16},
   {.1,9.76726365739E-16},{.2,1.04550295913E-15},{.3,1.15529556997E-15}}},
 {"Y46",1,
  {5.823105835176E-8,1.330281133576E-5,1.325154539732E-8,2.989060826817E-8,{{-3.76587238559E-5,1.330278339591E-5,1.435142546398E-6,
     2.989338334609E-8},
    {-3.78060043046E-5,1.330280237014E-5,1.437343477961E-6,2.989100219302E-8},
    {-3.78523435073E-5,1.330282649475E-5,1.444823605621E-6,2.988975541276E-8},
    {-3.7845357618E-5,1.330282119088E-5,1.450612490152E-6,2.988955865302E-8},
    {-3.77843735633E-5,1.330282231257E-5,1.446898301642E-6,2.988776748549E-8},
    {-3.77474679197E-5,1.330287003485E-5,1.452758840771E-6,2.987861453752E-8},
    {-3.77451172112E-5,1.330282197382E-5,1.488924172337E-6,2.989213251742E-8},
    {-3.77559432798E-5,1.330276702089E-5,1.44516197573E-6,2.990063034815E-8},
    {-3.77735827028E-5,1.330277770261E-5,1.439852554532E-6,2.989245843403E-8},
    {-3.77562288564E-5,1.330282836529E-5,1.450410916923E-6,2.988793906649E-8},
    {-3.77986860496E-5,1.330281670736E-5,1.467430101308E-6,2.988893791985E-8},
    {-3.77946561764E-5,1.330281705446E-5,1.440782172087E-6,2.988869566096E-8},
    {-3.78030949182E-5,1.330287338224E-5,1.443623804798E-6,2.988439670381E-8},
    {-3.78031053487E-5,1.3302833143E-5,1.446795709396E-6,2.988725560195E-8},
    {-3.78115351431E-5,1.330278024024E-5,1.460416279332E-6,2.989670868161E-8},
    {-3.78445000948E-5,1.330281149388E-5,1.445311340947E-6,2.98903854897E-8},
    {-3.76110834702E-5,1.330278347562E-5,1.438719440264E-6,2.989642312166E-8},
    {-3.78277040331E-5,1.330279627215E-5,1.42555133659E-6,2.989292997582E-8},
    {-3.78099385274E-5,1.330279267923E-5,1.45701289943E-6,2.989294862317E-8},
    {-3.78123277853E-5,1.330280140532E-5,1.461111555983E-6,2.989024159098E-8}}},
  {{9.61164149966E-16,1.13135791481E-15,4.77902319283E-15},{Residual->1.15707736501E-17}},
  {{-.45,1.40750150534E-15},{-.3,1.07216704011E-15},{-.15,9.0483496172E-16},{-5.5511151231E-17,9.44940271592E-16},
   {.15,1.23356355174E-15},{.3,1.73796574385E-15},{.45,2.4379605869E-15}}},
 {"Y22",1,
  {6.31803559804E-8,1.329648367948E-5,1.930724343561E-8,2.959176948101E-8,{{-3.77865871251E-5,1.329646848377E-5,1.433942343904E-6,
     2.958357297063E-8},
    {-3.78297713119E-5,1.329646760677E-5,1.389797177342E-6,2.95786473671E-8},
    {-3.76687336182E-5,1.32965514983E-5,1.447087044891E-6,2.959785297662E-8},
    {-3.76953669132E-5,1.329645985709E-5,1.438997540241E-6,2.958551484713E-8},
    {-3.7677532465E-5,1.329641934394E-5,1.475683933633E-6,2.960659245844E-8},
    {-3.77632130044E-5,1.329647382754E-5,1.423211004964E-6,2.958363301287E-8},
    {-3.78089230655E-5,1.329649089025E-5,1.442729027727E-6,2.959353575292E-8},
    {-3.77838235971E-5,1.329646100262E-5,1.435575284388E-6,2.958426056017E-8},
    {-3.77302690005E-5,1.329643518323E-5,1.449066718826E-6,2.959116774182E-8},
    {-3.77957656656E-5,1.329648460179E-5,1.424338452166E-6,2.95970285869E-8},
    {-3.77472636561E-5,1.32964580959E-5,1.4414304811E-6,2.958947479364E-8},
    {-3.76022594312E-5,1.329649717146E-5,1.482688639356E-6,2.962186649208E-8},
    {-3.77667131892E-5,1.329649943347E-5,1.424486877374E-6,2.958053872472E-8},
    {-3.77017628474E-5,1.32965223998E-5,1.44844949102E-6,2.959081700383E-8},
    {-3.7856278597E-5,1.329652888854E-5,1.436033175247E-6,2.959090999227E-8},
    {-3.77425776505E-5,1.329653023951E-5,1.447696635122E-6,2.959832907092E-8},
    {-3.77121854395E-5,1.329651547097E-5,1.436775661889E-6,2.959719017238E-8},
    {-3.77634863248E-5,1.329646035387E-5,1.437309851815E-6,2.95930018896E-8},
    {-3.78111579224E-5,1.329647061456E-5,1.43333927016E-6,2.959329770048E-8},
    {-3.78463324314E-5,1.329647862613E-5,1.412829018437E-6,2.957815750575E-8}}},
  {{1.1623583524E-15,9.40830644846E-16,7.68810070501E-15},{Residual->1.36476169955E-16}},
  {{-.6,3.27664244649E-15},{-.4,2.17493390625E-15},{-.2,1.36604580453E-15},{1.11022302463E-16,8.93331454855E-16},
   {.2,1.70504148708E-15},{.4,2.88410739107E-15},{.6,4.44707876614E-15}}},
 {"Y26",1,
  {7.755717683854E-8,1.329836096209E-5,1.548416701095E-8,2.944614753727E-8,{{-3.76538263829E-5,1.329839460037E-5,1.425499404382E-6,
     2.944348756235E-8},
    {-3.78385939452E-5,1.329834901659E-5,1.447642421612E-6,2.944019962313E-8},
    {-3.79106539007E-5,1.329833630695E-5,1.43224643635E-6,2.94316675303E-8},
    {-3.77567005839E-5,1.329834533524E-5,1.422169267999E-6,2.94382736129E-8},
    {-3.77557651258E-5,1.329830085989E-5,1.449425184262E-6,2.94474676884E-8},
    {-3.78415093635E-5,1.329834463404E-5,1.439254897753E-6,2.944021900744E-8},
    {-3.7619846393E-5,1.329842271119E-5,1.469316901529E-6,2.947776465292E-8},
    {-3.78277001242E-5,1.329837660781E-5,1.441875478082E-6,2.944679842674E-8},
    {-3.78382017013E-5,1.329842705052E-5,1.432416206929E-6,2.945267218612E-8},
    {-3.78304207188E-5,1.329834173908E-5,1.454088344549E-6,2.944287967048E-8},
    {-3.77438470329E-5,1.329836960743E-5,1.439995927951E-6,2.944657584804E-8},
    {-3.79255986026E-5,1.32983287236E-5,1.453492889792E-6,2.943710237183E-8},
    {-3.76825329276E-5,1.329831782474E-5,1.438575922954E-6,2.943623601387E-8},
    {-3.7833490351E-5,1.329833630703E-5,1.468854986059E-6,2.944687122827E-8},
    {-3.7710296711E-5,1.329836232533E-5,1.436779931508E-6,2.944333824213E-8},
    {-3.77591393782E-5,1.329840917906E-5,1.466165919751E-6,2.946156797865E-8},
    {-3.77145384073E-5,1.32983454326E-5,1.439123150055E-6,2.944364223008E-8},
    {-3.77868544049E-5,1.32984164937E-5,1.436334853617E-6,2.945389659533E-8},
    {-3.77862287011E-5,1.329834452583E-5,1.481943735142E-6,2.945341322366E-8},
    {-3.78044908499E-5,1.329834996079E-5,1.458769570401E-6,2.943887705275E-8}}},
  {{9.4419525973E-16,-1.4703340002E-15,2.62346940925E-14},{Residual->4.93429936237E-17}},
  {{-.3,3.70724536411E-15},{-.2,2.36094076392E-15},{-.1,1.3674455057E-15},{5.55111512313E-17,8.75904951198E-16},
   {.1,1.03583935172E-15},{.2,1.76482710852E-15},{.3,2.84287811884E-15}}},
 {"Y66",1,
  {6.867173354233E-8,1.329834962887E-5,2.257151676817E-8,2.944420089504E-8,{{-3.78054215177E-5,1.32983649017E-5,1.440657119814E-6,
     2.94419054314E-8},
    {-3.76893314751E-5,1.32983108667E-5,1.485108252563E-6,2.944851274475E-8},
    {-3.77232826651E-5,1.329834219703E-5,1.460119310076E-6,2.944915848446E-8},
    {-3.77250211133E-5,1.32983585252E-5,1.416386871899E-6,2.943908073768E-8},
    {-3.76671591399E-5,1.329831978264E-5,1.4402786522E-6,2.944281454492E-8},
    {-3.77597173216E-5,1.32984007956E-5,1.409325211214E-6,2.944279162769E-8},
    {-3.7724699093E-5,1.329836446154E-5,1.440354370725E-6,2.944364509711E-8},
    {-3.77663829692E-5,1.329832013684E-5,1.428604928375E-6,2.943389011074E-8},
    {-3.78713006084E-5,1.329834608568E-5,1.481124588712E-6,2.944919893218E-8},
    {-3.78961960909E-5,1.329837882808E-5,1.461229027545E-6,2.944885253259E-8},
    {-3.76652791615E-5,1.329829670093E-5,1.447921127064E-6,2.943999859774E-8},
    {-3.76689596806E-5,1.329836100543E-5,1.436235633332E-6,2.944934909286E-8},
    {-3.7776850299E-5,1.329834272564E-5,1.404733390632E-6,2.943898241458E-8},
    {-3.77723488087E-5,1.329834152696E-5,1.421813972365E-6,2.943774823933E-8},
    {-3.78235031602E-5,1.329839346712E-5,1.427062007974E-6,2.944941649443E-8},
    {-3.76316574616E-5,1.329834450168E-5,1.477022569273E-6,2.944894654637E-8},
    {-3.78309404007E-5,1.329835642044E-5,1.4199683298E-6,2.944023594393E-8},
    {-3.77436453603E-5,1.329833453507E-5,1.42548300228E-6,2.943758086094E-8},
    {-3.771634257E-5,1.329837316772E-5,1.453476581973E-6,2.944939483207E-8},
    {-3.77641525915E-5,1.329834194537E-5,1.444290509008E-6,2.945251463499E-8}}},
  {{1.47794677585E-15,-3.7897263064E-15,4.11329198804E-13},{Residual->2.96997361133E-16}},
  {{-.2,1.87150548464E-14},{-.15,1.13003537196E-14},{-.1,6.17199998325E-15},{-.05,2.61314318733E-15},{0,8.66863623318E-16},
   {.05,2.43585539307E-15},{.1,5.61313189991E-15},{.15,1.04508670148E-14},{.2,1.68336311355E-14}}},
 {"Y44",1,
  {5.729352979456E-8,1.329834462628E-5,2.348626355172E-8,2.944018325813E-8,{{-3.76183087664E-5,1.3298295805E-5,1.476711990499E-6,
     2.944077286921E-8},
    {-3.77493526562E-5,1.329836227737E-5,1.439271133209E-6,2.943501827937E-8},
    {-3.77266575469E-5,1.329835407576E-5,1.44641960394E-6,2.943890376724E-8},
    {-3.77367856107E-5,1.329827624562E-5,1.395885220672E-6,2.941999701201E-8},
    {-3.7764948073E-5,1.329834907399E-5,1.416525778896E-6,2.943354828945E-8},
    {-3.77640774677E-5,1.329836973648E-5,1.465122724993E-6,2.945568831647E-8},
    {-3.77828183709E-5,1.329834481548E-5,1.428482438618E-6,2.944370613862E-8},
    {-3.7801297536E-5,1.329837071043E-5,1.453786651626E-6,2.944045122255E-8},
    {-3.77045597628E-5,1.329836489898E-5,1.456972988172E-6,2.944596794509E-8},
    {-3.77932495249E-5,1.329835559162E-5,1.425423835238E-6,2.943602490352E-8},
    {-3.77240563964E-5,1.329834231779E-5,1.458526889817E-6,2.944991315406E-8},
    {-3.77997240523E-5,1.329835064401E-5,1.433906761858E-6,2.943335045268E-8},
    {-3.78707154923E-5,1.329836543401E-5,1.473700239011E-6,2.944590409367E-8},
    {-3.78248288634E-5,1.329830591815E-5,1.474819211667E-6,2.944060543557E-8},
    {-3.77893772628E-5,1.329833509817E-5,1.45083370908E-6,2.944080837008E-8},
    {-3.78279735017E-5,1.329836108677E-5,1.428156945825E-6,2.94398256429E-8},
    {-3.77106892954E-5,1.329833081954E-5,1.417265101708E-6,2.94358976228E-8},
    {-3.77601629435E-5,1.329835243601E-5,1.486329771768E-6,2.94581089971E-8},
    {-3.78258855051E-5,1.329834099148E-5,1.455978478542E-6,2.943614257137E-8},
    {-3.78513820078E-5,1.329836454901E-5,1.42146205204E-6,2.943303007889E-8}}},
  {{9.15369292795E-16,-3.3285462166E-17,4.35339277085E-15},{Residual->3.57768492188E-17}},
  {{-.6,2.49850915943E-15},{-.4,1.65569678045E-15},{-.2,1.07693544157E-15},{1.11022302463E-16,8.67053499771E-16},
   {.2,1.09924274534E-15},{.4,1.65962683181E-15},{.6,2.42632049455E-15}}},
 {"OCT1",1,
  {6.240539383767E-8,1.336152683624E-5,1.959477945075E-8,2.814105609693E-8,{{-3.7830209314E-5,1.336151481641E-5,1.417846805247E-6,
     2.813303958257E-8},
    {-3.7832203336E-5,1.336150007088E-5,1.433026109877E-6,2.813703027624E-8},
    {-3.79240682252E-5,1.336152597081E-5,1.458679036584E-6,2.814512071919E-8},
    {-3.78464818394E-5,1.336153642077E-5,1.470037770091E-6,2.814269867849E-8},
    {-3.78606100464E-5,1.336152080718E-5,1.438487756272E-6,2.814102124175E-8},
    {-3.78640321823E-5,1.336154045882E-5,1.462175389471E-6,2.814756172295E-8},
    {-3.78978801138E-5,1.336153524713E-5,1.425474809699E-6,2.814162283798E-8},
    {-3.77783397507E-5,1.336152031333E-5,1.41565618674E-6,2.813808924271E-8},
    {-3.78889872076E-5,1.336152545508E-5,1.435135914282E-6,2.813519200228E-8},
    {-3.77610403284E-5,1.33615308515E-5,1.414727476455E-6,2.814138606057E-8},
    {-3.77535959378E-5,1.336152410395E-5,1.466568152804E-6,2.814134261239E-8},
    {-3.79162817529E-5,1.336152771615E-5,1.423235510034E-6,2.814269644395E-8},
    {-3.78326802396E-5,1.33615409404E-5,1.424596910055E-6,2.814404667831E-8},
    {-3.79644244629E-5,1.336152535436E-5,1.444541728765E-6,2.813912389958E-8},
    {-3.77695660137E-5,1.336153230775E-5,1.448591065691E-6,2.814507789844E-8},
    {-3.78297396264E-5,1.336152287758E-5,1.435441703883E-6,2.813682226136E-8},
    {-3.78409523838E-5,1.336153229945E-5,1.451499218466E-6,2.814381291693E-8},
    {-3.78277743171E-5,1.336153442205E-5,1.41547586187E-6,2.814326094326E-8},
    {-3.78050943344E-5,1.336152857232E-5,1.458286752805E-6,2.813802020796E-8},
    {-3.79840207679E-5,1.33615177188E-5,1.47922481643E-6,2.814415571174E-8}}},
  {{8.60772892296E-16,3.72868841062E-19,1.01147220469E-21},{Residual->2.1613940684E-17}},
  {{-370,8.90880316853E-16},{-296,8.38945037277E-16},{-222,8.05977808798E-16},{-148,7.91950519767E-16},{-74,8.22617578097E-16},
   {0,8.66741150685E-16},{74,9.1432368558E-16},{148,9.6322573347E-16},{222,1.01262803824E-15},{296,1.06137627182E-15},
   {370,1.10912435787E-15}}},
 {"OCT2",1,
  {4.923569568125E-8,1.336087125159E-5,1.959056250724E-8,2.786318042182E-8,{{-3.79214735529E-5,1.336087355427E-5,1.39434017987E-6,
     2.786036123645E-8},
    {-3.77688753648E-5,1.336086735077E-5,1.429068997064E-6,2.785438936179E-8},
    {-3.78476369703E-5,1.336087357347E-5,1.444774489357E-6,2.787375183313E-8},
    {-3.79317152993E-5,1.33608685E-5,1.440787962939E-6,2.787804028113E-8},
    {-3.78934437296E-5,1.336087122832E-5,1.415308915387E-6,2.78636011771E-8},
    {-3.79116927391E-5,1.336086557567E-5,1.435965451274E-6,2.786891916065E-8},
    {-3.78530601358E-5,1.336086773679E-5,1.45803749559E-6,2.787394961306E-8},
    {-3.78068201534E-5,1.336086383504E-5,1.440956387295E-6,2.787177520342E-8},
    {-3.78657593679E-5,1.336086700173E-5,1.459637050729E-6,2.786540390375E-8},
    {-3.78691800275E-5,1.336086793997E-5,1.415917406862E-6,2.7857566809E-8},
    {-3.78546493821E-5,1.336086869262E-5,1.42924670788E-6,2.785591010698E-8},
    {-3.78668737708E-5,1.336088015657E-5,1.43475533773E-6,2.78433073673E-8},
    {-3.7881211878E-5,1.336087542679E-5,1.472489604477E-6,2.787331160616E-8},
    {-3.78465622397E-5,1.336088238871E-5,1.456251828085E-6,2.785606553246E-8},
    {-3.78403398971E-5,1.336086731509E-5,1.445729945049E-6,2.786634667685E-8},
    {-3.79307452592E-5,1.336086491398E-5,1.439150285937E-6,2.786957710243E-8},
    {-3.776290074E-5,1.33608682274E-5,1.411051955413E-6,2.786085938299E-8},
    {-3.77706781164E-5,1.336087993358E-5,1.461136468322E-6,2.785384395398E-8},
    {-3.78677204521E-5,1.336087920673E-5,1.442246909243E-6,2.785100842075E-8},
    {-3.78878859948E-5,1.336087247432E-5,1.467309829499E-6,2.786561970707E-8}}},
  {{7.92057391448E-16,-4.7208845219E-20,1.09842330518E-23},{Residual->2.2855788365E-19}},
  {{-370,8.10681957149E-16},{-296,8.07054061081E-16},{-222,8.03405406442E-16},{-148,7.99521109999E-16},{-74,7.95844960709E-16},
   {0,7.91939219545E-16},{74,7.88252739718E-16},{148,7.8519911092E-16},{222,7.81989409211E-16},{296,7.79052858912E-16},
   {370,7.76323761081E-16}}}}
