{{"FD",1,{-5.22384796834E-6,9.206178771763E-6,-3.43279180825E-9,1.003280136086E-7}},
 {"EX2",0,{-4.78273264884E-5,6.816800224944E-6,-5.10200232007E-7,5.930844476601E-7}},
 {"FD",1,{-4.82116664249E-5,6.770182472683E-6,-6.75615621984E-7,9.653956602984E-8}},
 {"AY",1,{5.788303300623E-7,6.654088734245E-6,3.092446959105E-8,8.257671804354E-8,
   {{-5.02681502922E-5,6.641285706541E-6,-4.49157675138E-8,8.148948963033E-8},
    {-5.00712502763E-5,6.650925793922E-6,-4.6151846605E-8,8.282592086742E-8},
    {-5.04861584576E-5,6.670046831951E-6,-3.86120497697E-9,8.178512098832E-8},
    {-4.94259689358E-5,6.700652962648E-6,-5.50829266717E-8,8.430686711379E-8},
    {-4.95481308678E-5,6.661096446599E-6,-2.39699572689E-8,8.319993346843E-8},
    {-4.99255020287E-5,6.657465451555E-6,-2.31148526234E-9,8.498607436791E-8},
    {-4.9428685662E-5,6.683439800465E-6,-7.24696154078E-8,8.270488961007E-8},
    {-5.0305355539E-5,6.678980901858E-6,-7.63128896537E-8,8.255402004005E-8},
    {-5.11449963955E-5,6.659368179623E-6,-5.68357001354E-8,8.139103788103E-8},
    {-5.03942250808E-5,6.633108889707E-6,-2.0146869938E-8,8.21702764261E-8},
    {-5.02871718073E-5,6.635511291585E-6,1.59228691427E-8,8.281590789098E-8},
    {-4.95256155485E-5,6.663709051329E-6,-3.27864766874E-8,8.251848111825E-8},
    {-5.09453687045E-5,6.648278537089E-6,-5.43645843347E-8,8.264509290542E-8},
    {-5.152642612E-5,6.63770703367E-6,-3.3775016853E-9,8.179738808492E-8},
    {-4.97444742442E-5,6.611460625454E-6,-5.7886072094E-8,8.052891409205E-8},
    {-5.06641814625E-5,6.64609003329E-6,-2.30124202847E-8,8.152168050472E-8},
    {-5.06902512942E-5,6.638852524468E-6,-3.11916971543E-8,8.212910732736E-8},
    {-4.95083479489E-5,6.625960490669E-6,-9.39764862418E-8,8.082870620612E-8},
    {-5.00008864135E-5,6.699357453542E-6,2.379915828856E-8,8.614081791304E-8},
    {-5.0145595754E-5,6.638476678929E-6,-3.16007273497E-9,8.319463443458E-8}}},
  {{6.44522289013E-15,6.19078614059E-15,1.172494445E-12},{Residual->4.72173777138E-16}},
  {{-.5,2.96372897418E-13},{-.35,1.47631078672E-13},{-.2,5.26729303813E-14},{-.05,9.56752040685E-15},{.1,1.81784628747E-14},
   {.25,8.07221933945E-14},{.4,1.9699485507E-13}}},
 {"EY",1,
  {5.149354740103E-7,6.62940606074E-6,2.148603395159E-8,7.080335005818E-8,{{-4.87363532164E-5,6.633770127633E-6,-5.04555068856E-7,
     7.092398203594E-8},
    {-4.94512437318E-5,6.614642437505E-6,-4.82883719635E-7,7.030222598533E-8},
    {-4.90663657779E-5,6.614465098262E-6,-5.00937848952E-7,7.042251878062E-8},
    {-4.90969114947E-5,6.661204044495E-6,-5.19845264626E-7,7.207357923582E-8},
    {-4.92732046426E-5,6.606170304075E-6,-5.24089958999E-7,6.999345564173E-8},
    {-5.04097712229E-5,6.615473004591E-6,-5.51417130198E-7,7.019606764844E-8},
    {-4.87304538171E-5,6.649749208508E-6,-5.02400781526E-7,7.133700558903E-8},
    {-4.96972228989E-5,6.634060322394E-6,-5.06405323619E-7,7.12621727502E-8},
    {-4.91979891507E-5,6.639271263608E-6,-5.39787070261E-7,7.140771373802E-8},
    {-4.93044908634E-5,6.60872826791E-6,-5.52191062716E-7,7.037138686288E-8},
    {-4.96658149122E-5,6.656041596876E-6,-5.08840750677E-7,7.142549715384E-8},
    {-5.00557070366E-5,6.636874131295E-6,-4.88687445387E-7,7.085400570384E-8},
    {-4.86378622282E-5,6.63260385369E-6,-5.11231995652E-7,7.109341134962E-8},
    {-4.94460177547E-5,6.65623940007E-6,-4.92443023363E-7,7.150141201648E-8},
    {-5.02228089994E-5,6.627891989463E-6,-5.07699148096E-7,7.058840378331E-8},
    {-4.90692401001E-5,6.63384731546E-6,-4.72604789173E-7,7.091269857831E-8},
    {-4.98692473215E-5,6.605150694088E-6,-5.07372603401E-7,6.969964505359E-8},
    {-4.9023290535E-5,6.623486233133E-6,-4.82018611945E-7,7.051919852625E-8},
    {-4.84722240336E-5,6.620095587909E-6,-5.3600885678E-7,7.074625287899E-8},
    {-4.94609509101E-5,6.618356333844E-6,-5.08688719121E-7,7.043636785138E-8}}},
  {{7.33206228281E-15,6.01562356777E-14,4.43868107907E-13},{Residual->2.17555179076E-16}},
  {{-.5,8.80913819034E-14},{-.35,4.08793743399E-14},{-.2,1.31985490131E-14},{-.05,5.03968767584E-15},{.1,1.77733384125E-14},
   {.25,5.0386376536E-14},{.4,1.02305645481E-13}}},
 {"R32",1,
  {5.967820590552E-7,6.639940541407E-6,2.165839744635E-8,4.055140118835E-8,{{-4.75221966646E-5,6.689720660547E-6,-5.98933344828E-7,
     4.015188306616E-8},
    {-4.72682941591E-5,6.665545659863E-6,-6.09987362042E-7,3.974664994423E-8},
    {-4.69527008415E-5,6.632364388657E-6,-5.8480207619E-7,4.172647122158E-8},
    {-4.72836165616E-5,6.625353591438E-6,-6.11251513411E-7,4.039320236537E-8},
    {-4.72790045496E-5,6.628126828191E-6,-5.59559066982E-7,3.986569967226E-8},
    {-4.8288173995E-5,6.64847447754E-6,-6.2682488153E-7,3.967097291433E-8},
    {-4.68210985307E-5,6.637452020955E-6,-5.89992191499E-7,4.037616425917E-8},
    {-4.7791133245E-5,6.64472168758E-6,-6.08496791496E-7,3.993566190777E-8},
    {-4.79101741303E-5,6.621729822028E-6,-6.14671002401E-7,4.02944588763E-8},
    {-4.84686062162E-5,6.633328100245E-6,-6.15456509897E-7,3.977429175946E-8},
    {-4.92052594298E-5,6.608302667633E-6,-5.91188243968E-7,4.151582303924E-8},
    {-4.79615620066E-5,6.621238523886E-6,-5.872456089E-7,4.177607378073E-8},
    {-4.76197116253E-5,6.659028042621E-6,-6.12991751964E-7,4.10343828979E-8},
    {-4.80394377371E-5,6.638749684319E-6,-6.36691880907E-7,4.008062412398E-8},
    {-4.6995663445E-5,6.603459096939E-6,-5.89286861496E-7,4.10798839389E-8},
    {-4.68630496936E-5,6.625606506196E-6,-6.06369926986E-7,4.004905753996E-8},
    {-4.78045337201E-5,6.665194120229E-6,-5.65918734343E-7,4.162670307226E-8},
    {-4.71534120898E-5,6.726502425123E-6,-6.19598611725E-7,3.98938423663E-8},
    {-4.76709245849E-5,6.606805525788E-6,-6.48980743535E-7,4.094805213746E-8},
    {-4.82542300562E-5,6.617106998353E-6,-5.83382576433E-7,4.108812488362E-8}}},
  {{4.90138473994E-15,9.82681576162E-14,7.57123265586E-13},{Residual->1.16666656963E-16}},
  {{-.5,1.45122775811E-13},{-.35,6.30357232896E-14},{-.2,1.57134538849E-14},{-.05,1.90649297556E-15},{.1,2.22119499869E-14},
   {.25,7.6812501249E-14},{.4,1.65350255284E-13}}},
 {"AY",1,
  {6.762696651865E-7,6.645755275918E-6,2.077514769794E-8,4.103798074757E-8,{{-4.90054273633E-5,6.657214726813E-6,-1.23702673432E-6,
     4.054350256872E-8},
    {-4.91195296756E-5,6.616659961854E-6,-1.24587944492E-6,4.19582003611E-8},
    {-4.98434960447E-5,6.636978334556E-6,-1.2551419689E-6,4.058970264617E-8},
    {-4.92620222912E-5,6.641841315329E-6,-1.21490503406E-6,4.128124552309E-8},
    {-4.81987993507E-5,6.622508231807E-6,-1.28621366962E-6,4.133306795231E-8},
    {-4.96171266881E-5,6.61394068091E-6,-1.22710318983E-6,4.150683554371E-8},
    {-4.98480346057E-5,6.634151440363E-6,-1.26746308195E-6,4.054943081169E-8},
    {-4.83445392024E-5,6.665776740076E-6,-1.27361705686E-6,4.163080214686E-8},
    {-4.9746418646E-5,6.655457113375E-6,-1.25691658652E-6,4.073848764084E-8},
    {-4.92970774002E-5,6.651845650941E-6,-1.23528573436E-6,4.10443907677E-8},
    {-4.87633707474E-5,6.7175485316E-6,-1.26135960727E-6,3.997873405712E-8},
    {-4.97162259916E-5,6.665734160187E-6,-1.25567290074E-6,4.009161750968E-8},
    {-5.00029921685E-5,6.627979377048E-6,-1.27884923459E-6,4.060186368289E-8},
    {-4.9149223815E-5,6.627867552079E-6,-1.23018084371E-6,4.153194603591E-8},
    {-4.8125781898E-5,6.673521918285E-6,-1.26231162448E-6,4.137561652972E-8},
    {-4.92513052352E-5,6.641152869471E-6,-1.20161990193E-6,4.137961128687E-8},
    {-4.98584101135E-5,6.652351717374E-6,-1.25038697011E-6,4.02951520475E-8},
    {-5.08484514194E-5,6.641785330692E-6,-1.23367730995E-6,4.15601408934E-8},
    {-4.83770182182E-5,6.625314077878E-6,-1.237517845E-6,4.157519233817E-8},
    {-4.89756132123E-5,6.645475787714E-6,-1.25015894233E-6,4.119407460793E-8}}},
  {{1.53437779133E-15,2.86426744433E-15,1.17072479941E-12},{Residual->4.14279737732E-16}},
  {{-.5,2.92698170462E-13},{-.35,1.44105409578E-13},{-.2,4.7854159036E-14},{-.05,4.30231377787E-15},{.1,1.28749111495E-14},
   {.25,7.62323976997E-14},{.4,1.89715096848E-13}}},
 {"EY",1,
  {6.294957459476E-7,6.631080909775E-6,2.759056603163E-8,3.982894611403E-8,{{-4.78122519404E-5,6.603575160676E-6,-1.53514156658E-6,
     3.973322468008E-8},
    {-4.82308148414E-5,6.639824365724E-6,-1.56091017476E-6,3.952132472601E-8},
    {-4.71927436359E-5,6.629510358291E-6,-1.51842219592E-6,3.962401169573E-8},
    {-4.74218197076E-5,6.669547782771E-6,-1.5199216823E-6,3.991090062451E-8},
    {-4.76317742203E-5,6.63405647437E-6,-1.51956147163E-6,3.951642500008E-8},
    {-4.69030278538E-5,6.65543522187E-6,-1.51456748953E-6,3.983733183381E-8},
    {-4.94843748459E-5,6.626563183009E-6,-1.51334149234E-6,3.958183927725E-8},
    {-4.82167662618E-5,6.619629461529E-6,-1.55830863948E-6,4.04179760425E-8},
    {-4.83063165474E-5,6.635263206602E-6,-1.51831272248E-6,3.935377251531E-8},
    {-4.81688410954E-5,6.610948254624E-6,-1.5545567657E-6,3.999000420511E-8},
    {-4.73839266253E-5,6.607551814772E-6,-1.51837113454E-6,3.973548429663E-8},
    {-4.85589869365E-5,6.633970810773E-6,-1.52975806687E-6,3.97021750549E-8},
    {-4.70707929089E-5,6.611000856544E-6,-1.56655376393E-6,4.174979335129E-8},
    {-4.83663921267E-5,6.651971462631E-6,-1.50083667219E-6,3.921757465796E-8},
    {-4.79333795228E-5,6.644027201047E-6,-1.60337401264E-6,4.042321938332E-8},
    {-4.89949915122E-5,6.659294054243E-6,-1.53589098869E-6,3.926185698948E-8},
    {-4.82737836493E-5,6.617599762705E-6,-1.57072205419E-6,4.05009786906E-8},
    {-4.82648874735E-5,6.634045872642E-6,-1.50886063266E-6,3.933925688893E-8},
    {-4.85344994312E-5,6.638145876925E-6,-1.48683021295E-6,3.937577827416E-8},
    {-4.78013422649E-5,6.599657013746E-6,-1.51419610926E-6,3.978599409285E-8}}},
  {{1.42669277626E-15,1.79281674567E-14,4.47147995744E-13},{Residual->2.60029684339E-16}},
  {{-.5,1.04491430548E-13},{-.35,4.95726669981E-14},{-.2,1.55929458678E-14},{-.05,1.95302688347E-15},{.1,7.50119949371E-15},
   {.25,3.41796277104E-14},{.4,7.99494205666E-14}}},
 {"R32",1,
  {5.953489307175E-7,6.632433491161E-6,2.490097144008E-8,3.903892154298E-8,{{-5.04856965916E-5,6.697753550327E-6,-1.03635770309E-6,
     3.813927157456E-8},
    {-5.02955920029E-5,6.609254636595E-6,-1.05055326811E-6,3.891127367057E-8},
    {-5.02968293785E-5,6.635660985007E-6,-1.05261059436E-6,3.881305373103E-8},
    {-5.07300062622E-5,6.633067546743E-6,-1.0348949724E-6,3.850628553226E-8},
    {-5.18617198483E-5,6.653318665657E-6,-1.05099077041E-6,3.831567899279E-8},
    {-4.96009333601E-5,6.634800059597E-6,-1.0929886346E-6,3.940218349003E-8},
    {-5.00781663172E-5,6.616341198594E-6,-1.1030776453E-6,4.005704475197E-8},
    {-5.04460711023E-5,6.624100976625E-6,-1.02450822138E-6,3.869018979736E-8},
    {-5.18293560275E-5,6.625108152765E-6,-1.06191293907E-6,3.897809098817E-8},
    {-5.04203332921E-5,6.627458414621E-6,-1.07964739845E-6,3.905291379834E-8},
    {-5.05523119697E-5,6.648214765135E-6,-1.08186986995E-6,3.955958559145E-8},
    {-5.03486441458E-5,6.617889045254E-6,-1.06380119337E-6,3.878220528104E-8},
    {-5.13326072408E-5,6.61915634315E-6,-1.04111240358E-6,3.877827052641E-8},
    {-5.17992782449E-5,6.633015798733E-6,-1.04294890479E-6,3.900182143927E-8},
    {-5.09811968401E-5,6.65202502701E-6,-1.08912151048E-6,3.971486648778E-8},
    {-5.05998735393E-5,6.656451560724E-6,-1.05647347843E-6,3.907324284006E-8},
    {-5.12629393115E-5,6.618721641074E-6,-1.07021358769E-6,3.866588509811E-8},
    {-5.11413217753E-5,6.61753071056E-6,-1.11456742234E-6,3.980855966597E-8},
    {-5.0553175751E-5,6.626241412062E-6,-1.05025678114E-6,3.971246078456E-8},
    {-5.10377955807E-5,6.602559332981E-6,-1.02476112046E-6,3.88155468178E-8}}},
  {{1.47591224988E-15,1.42478852218E-14,7.56095168894E-13},{Residual->2.57813509566E-16}},
  {{-.5,1.83497163679E-13},{-.35,8.87945505927E-14},{-.2,2.89794059044E-14},{-.05,2.81244026819E-15},{.1,1.06715886637E-14},
   {.25,5.1813739554E-14},{.4,1.28347359118E-13}}},
 {"AY",1,
  {5.390800592306E-7,6.617791231384E-6,2.817524804482E-8,3.860207263639E-8,{{-5.52278793441E-5,6.622754765412E-6,-1.16200987097E-6,
     3.877492814988E-8},
    {-5.59519432823E-5,6.596468115547E-6,-1.1162477234E-6,3.865713603955E-8},
    {-5.60660986163E-5,6.625921325489E-6,-1.14907298476E-6,3.845930957604E-8},
    {-5.60556519318E-5,6.621004712723E-6,-1.13925166833E-6,3.835499773625E-8},
    {-5.57811240074E-5,6.594818053691E-6,-1.09472056247E-6,3.863305817545E-8},
    {-5.63860833027E-5,6.656937516587E-6,-1.14117465465E-6,3.818380991432E-8},
    {-5.50371292913E-5,6.603198719399E-6,-1.15512608532E-6,3.897478662926E-8},
    {-5.65763462422E-5,6.635967655702E-6,-1.14011887897E-6,3.838526900713E-8},
    {-5.48751696433E-5,6.591585086311E-6,-1.09960436764E-6,3.875796973081E-8},
    {-5.57882644788E-5,6.595830449266E-6,-1.12507238665E-6,3.861578128002E-8},
    {-5.62439825031E-5,6.649813166755E-6,-1.0730146619E-6,3.856318147143E-8},
    {-5.50268666672E-5,6.62966379696E-6,-1.15971729117E-6,3.936516265035E-8},
    {-5.49933911649E-5,6.595930491846E-6,-1.0923224966E-6,3.864684095677E-8},
    {-5.47276576278E-5,6.622352663604E-6,-1.07712133022E-6,3.843142938174E-8},
    {-5.58716928637E-5,6.623037782156E-6,-1.11863530827E-6,3.860848020916E-8},
    {-5.55712454231E-5,6.609929279098E-6,-1.14433040957E-6,3.852806066616E-8},
    {-5.51459206632E-5,6.607563517524E-6,-1.09561950592E-6,3.853523265848E-8},
    {-5.54392937814E-5,6.616424572503E-6,-1.1218108383E-6,3.856185881253E-8},
    {-5.4981059482E-5,6.665552964213E-6,-1.11776517864E-6,3.823459185029E-8},
    {-5.58962833997E-5,6.591069992898E-6,-1.07386177643E-6,3.876956783217E-8}}},
  {{6.64593653058E-16,-3.4651336603E-15,1.17809669051E-12},{Residual->4.66661754261E-16}},
  {{-.3,1.07851562762E-13},{-.2,4.80101178237E-14},{-.1,1.29739775938E-14},{5.55111512313E-17,1.49428513629E-15},
   {.1,1.14513495676E-14},{.2,4.68186303809E-14},{.3,1.05919305649E-13}}},
 {"EY",1,
  {5.691075461573E-7,6.622240698869E-6,2.697124820808E-8,3.861020927787E-8,{{-5.83580073721E-5,6.623583676103E-6,-1.0617695383E-6,
     3.88296735744E-8},
    {-5.72982682018E-5,6.658167670806E-6,-1.06529976166E-6,3.836275987186E-8},
    {-5.84544758945E-5,6.634603381452E-6,-1.03965548955E-6,3.826472138622E-8},
    {-5.83137043313E-5,6.603066860847E-6,-1.11363873133E-6,3.915749241368E-8},
    {-5.8239989303E-5,6.588690964485E-6,-1.05713247413E-6,3.886667107851E-8},
    {-5.79329879171E-5,6.622417033427E-6,-1.00592075539E-6,3.904495414372E-8},
    {-5.80259561985E-5,6.608262751361E-6,-1.06406650779E-6,3.856515487033E-8},
    {-5.79622084143E-5,6.585942688883E-6,-1.06353664497E-6,3.898401126508E-8},
    {-5.75639716609E-5,6.635254447727E-6,-1.10050810409E-6,3.869854896315E-8},
    {-5.73251864079E-5,6.615709677079E-6,-1.09133977948E-6,3.866019723076E-8},
    {-5.88292944105E-5,6.629582124342E-6,-1.09266299728E-6,3.836459935742E-8},
    {-5.89021582194E-5,6.608222245849E-6,-1.05036664068E-6,3.842924220559E-8},
    {-5.84448694859E-5,6.643412966924E-6,-1.00702143916E-6,3.82679098767E-8},
    {-5.7913184624E-5,6.632876776652E-6,-1.05875194392E-6,3.834304225394E-8},
    {-5.89630995106E-5,6.674798695288E-6,-1.05975846685E-6,3.82073971182E-8},
    {-5.82673690072E-5,6.611220493609E-6,-1.04324426428E-6,3.851958293669E-8},
    {-5.86131251397E-5,6.639153271259E-6,-1.06852792306E-6,3.880283517071E-8},
    {-5.82715550927E-5,6.596770577975E-6,-1.0522888346E-6,3.877538839804E-8},
    {-5.69340185783E-5,6.635942139171E-6,-1.03943759733E-6,3.849947720135E-8},
    {-5.91161694047E-5,6.59713553414E-6,-1.0300080668E-6,3.856052624094E-8}}},
  {{1.61725268473E-15,-1.9001737617E-15,4.33814587629E-13},{Residual->1.889804234E-16}},
  {{-.5,1.10875728021E-13},{-.35,5.55885002566E-14},{-.2,1.95940424284E-14},{-.05,2.5567403708E-15},{.1,5.56040374963E-15},
   {.25,2.84611141667E-14},{.4,7.02442461061E-14}}},
 {"R32",1,
  {6.864954544623E-7,6.608761304089E-6,2.417332342816E-8,3.872991431969E-8,{{-5.84533547744E-5,6.591911029768E-6,-1.42849733609E-6,
     3.870538546031E-8},
    {-5.9150496852E-5,6.608872891437E-6,-1.45022798379E-6,3.857318863117E-8},
    {-5.93593259121E-5,6.590665219526E-6,-1.44598768326E-6,3.890824686702E-8},
    {-5.88162004231E-5,6.628859055567E-6,-1.43012524779E-6,3.834926014452E-8},
    {-5.88343717899E-5,6.599604065692E-6,-1.44749231614E-6,3.877006259452E-8},
    {-5.82281062881E-5,6.60138098767E-6,-1.4401526482E-6,3.949947398498E-8},
    {-5.86186769256E-5,6.640289871941E-6,-1.38022178074E-6,3.839002930998E-8},
    {-5.93535801963E-5,6.609524746768E-6,-1.43503141238E-6,3.84663510521E-8},
    {-5.93917920073E-5,6.610621095028E-6,-1.42541461812E-6,3.853720614529E-8},
    {-5.83017254377E-5,6.573160433753E-6,-1.41895496019E-6,3.923873870567E-8},
    {-5.71828210658E-5,6.596616024465E-6,-1.41354069343E-6,3.915743848494E-8},
    {-5.92552819019E-5,6.650748063027E-6,-1.42768980019E-6,3.819563141521E-8},
    {-5.94981782693E-5,6.611593637209E-6,-1.39252548594E-6,3.838939119128E-8},
    {-5.73131130115E-5,6.6040760223E-6,-1.42182511319E-6,3.934225536525E-8},
    {-5.90222276376E-5,6.613214088593E-6,-1.46840921863E-6,3.865984839749E-8},
    {-5.86655269872E-5,6.605814756814E-6,-1.46009545794E-6,3.881636011415E-8},
    {-5.99539439182E-5,6.594705891079E-6,-1.45778216447E-6,3.884130944788E-8},
    {-5.87925954844E-5,6.623318923823E-6,-1.37607283685E-6,3.843778249913E-8},
    {-5.8921698655E-5,6.608400220801E-6,-1.440537597E-6,3.857570990007E-8},
    {-5.79562644679E-5,6.611849056514E-6,-1.42225714766E-6,3.874461668274E-8}}},
  {{1.49036691838E-15,9.8022062412E-15,7.56528507073E-13},{Residual->1.99129311132E-16}},
  {{-.5,1.85971954352E-13},{-.35,9.03281226764E-14},{-.2,2.97943496813E-14},{-.05,2.95199820288E-15},{.1,1.0138594211E-14},
   {.25,5.13517992312E-14},{.4,1.26317186219E-13}}},
 {"AY",1,
  {6.031517999239E-7,6.621267929147E-6,2.256753921641E-8,3.869183171594E-8,{{-6.06319910143E-5,6.640647453513E-6,-1.90819727243E-6,
     3.887365797816E-8},
    {-6.10471216934E-5,6.599807232006E-6,-1.89308626733E-6,3.854867286505E-8},
    {-5.96895374016E-5,6.667083756046E-6,-1.84781029384E-6,3.828340571373E-8},
    {-5.96650179586E-5,6.654909206388E-6,-1.87912924009E-6,3.857187662667E-8},
    {-6.01118183851E-5,6.598898497927E-6,-1.89598373281E-6,3.933508911293E-8},
    {-6.01427997859E-5,6.606855803064E-6,-1.90800011E-6,3.916568000947E-8},
    {-6.04768985455E-5,6.618382363533E-6,-1.85197224199E-6,3.845503475242E-8},
    {-6.15674077533E-5,6.592555826352E-6,-1.89325015874E-6,3.916539206372E-8},
    {-6.07034777922E-5,6.606004166345E-6,-1.90589763501E-6,3.864940413041E-8},
    {-6.0949788984E-5,6.631111006653E-6,-1.8372356887E-6,3.845802131767E-8},
    {-6.07092176699E-5,6.627258881464E-6,-1.91798083581E-6,3.881874886804E-8},
    {-5.93142807114E-5,6.612005087678E-6,-1.86587215194E-6,3.859313776978E-8},
    {-6.09558043779E-5,6.59372596766E-6,-1.89136128244E-6,3.87300723161E-8},
    {-6.05500705515E-5,6.642283642648E-6,-1.90474642241E-6,3.837531058678E-8},
    {-6.04483871916E-5,6.597775346249E-6,-1.89623753421E-6,3.860511420585E-8},
    {-6.03302154046E-5,6.621369678893E-6,-1.88032500905E-6,3.904530783831E-8},
    {-5.89962460515E-5,6.615983070788E-6,-1.87557234901E-6,3.871268853427E-8},
    {-6.00258901126E-5,6.638492591952E-6,-1.88960463545E-6,3.856071395499E-8},
    {-6.07689403535E-5,6.640851188684E-6,-1.853785183E-6,3.84489630981E-8},
    {-6.03554441971E-5,6.619357815099E-6,-1.9078544926E-6,3.844034257637E-8}}},
  {{1.03167990772E-15,-2.3192792741E-15,1.16645295968E-12},{Residual->2.34175180649E-16}},
  {{-.3,1.06729452302E-13},{-.2,4.80412127528E-14},{-.1,1.28702558118E-14},{5.55111512313E-17,1.50171559952E-15},
   {.1,1.22075445925E-14},{.2,4.69957093597E-14},{.3,1.05482697648E-13}}},
 {"EY",1,
  {6.184362129617E-7,6.62648155617E-6,2.986165093804E-8,3.887317661704E-8,{{-6.11798434252E-5,6.646289892356E-6,-2.34725593862E-6,
     3.869679999991E-8},
    {-6.04234998143E-5,6.627103067657E-6,-2.324200619E-6,3.864681823768E-8},
    {-6.13560882245E-5,6.587653017907E-6,-2.35099615987E-6,3.899766241443E-8},
    {-6.14775892641E-5,6.641091376199E-6,-2.27286079175E-6,3.863886667638E-8},
    {-6.12959283452E-5,6.646635667075E-6,-2.34228129797E-6,3.865679452813E-8},
    {-6.07847113768E-5,6.611233645281E-6,-2.34280929586E-6,3.869999526918E-8},
    {-6.26422401139E-5,6.595797455495E-6,-2.39457949432E-6,3.985808696441E-8},
    {-6.14176858497E-5,6.654625395573E-6,-2.31605006117E-6,3.88362678803E-8},
    {-6.05831187915E-5,6.640966959552E-6,-2.34325761115E-6,3.898004345959E-8},
    {-6.16934925761E-5,6.61125219755E-6,-2.31568451527E-6,3.882991789612E-8},
    {-6.14287149041E-5,6.629158689426E-6,-2.25963155519E-6,3.88824174887E-8},
    {-6.15647749562E-5,6.606354784601E-6,-2.34630242351E-6,3.877254870645E-8},
    {-6.04447558836E-5,6.617483233655E-6,-2.34326074093E-6,3.863264263793E-8},
    {-6.15946749456E-5,6.626976094303E-6,-2.31869822465E-6,3.875556114916E-8},
    {-5.96973508202E-5,6.692387625986E-6,-2.32925092872E-6,3.865721643446E-8},
    {-6.11162710047E-5,6.602651263745E-6,-2.28314902857E-6,3.915996955082E-8},
    {-6.18236961366E-5,6.618901368716E-6,-2.34694810211E-6,3.868881469682E-8},
    {-6.16938642192E-5,6.624756598873E-6,-2.34633472359E-6,3.905197882409E-8},
    {-6.14839245712E-5,6.620719615251E-6,-2.3200815456E-6,3.93074464704E-8},
    {-6.08318271469E-5,6.62759317419E-6,-2.30798952895E-6,3.871368305596E-8}}},
  {{1.31485864629E-15,-3.5783672651E-15,4.39817674897E-13},{Residual->1.54726651437E-16}},
  {{-.3,4.21239633472E-14},{-.2,1.93174544703E-14},{-.1,6.10071079888E-15},{5.55111512313E-17,1.52401251926E-15},
   {.1,5.32649452583E-15},{.2,1.8119384588E-14},{.3,3.98409392457E-14}}},
 {"R32",1,
  {6.079119170709E-7,6.632185324252E-6,2.449863293319E-8,3.846723412461E-8,{{-6.24288789618E-5,6.644742746247E-6,-1.68926327211E-6,
     3.82820684951E-8},
    {-6.23369396387E-5,6.648492853424E-6,-1.69598826158E-6,3.829239528666E-8},
    {-6.06550337653E-5,6.614555536302E-6,-1.68157918119E-6,3.846460386878E-8},
    {-6.06692690591E-5,6.607745447894E-6,-1.73398405801E-6,3.872421698136E-8},
    {-6.13650976404E-5,6.651213574285E-6,-1.67717573233E-6,3.823962817866E-8},
    {-6.09823279204E-5,6.640411386028E-6,-1.66682926216E-6,3.840484745613E-8},
    {-6.2145573752E-5,6.626412517151E-6,-1.72123574292E-6,3.832857355959E-8},
    {-6.17371018243E-5,6.620055660262E-6,-1.68487323229E-6,3.833943694118E-8},
    {-6.12633288385E-5,6.613374826118E-6,-1.72135920258E-6,3.840434101022E-8},
    {-6.15509750697E-5,6.625773086515E-6,-1.69782292422E-6,3.833107074862E-8},
    {-6.09240813895E-5,6.650518272203E-6,-1.69362459082E-6,3.82152083689E-8},
    {-6.22995535649E-5,6.628911694257E-6,-1.6905602245E-6,3.833193319384E-8},
    {-6.14313594781E-5,6.628973389597E-6,-1.70885762016E-6,3.830875618294E-8},
    {-6.15958771329E-5,6.594999127045E-6,-1.6226007159E-6,3.900793408869E-8},
    {-6.02739048326E-5,6.62283836765E-6,-1.6822275759E-6,3.837470166082E-8},
    {-6.1901597872E-5,6.6171259833E-6,-1.68757781669E-6,3.871358727378E-8},
    {-6.1914372609E-5,6.613465131017E-6,-1.67741518001E-6,3.841616177192E-8},
    {-6.18315815027E-5,6.686805787827E-6,-1.67962652224E-6,3.85352183062E-8},
    {-6.07942145222E-5,6.64774172576E-6,-1.64424171567E-6,3.908793418748E-8},
    {-6.19204418262E-5,6.659549372163E-6,-1.68209671537E-6,3.85420649313E-8}}},
  {{1.74552383263E-15,4.42435206327E-15,7.5301320281E-13},{Residual->1.94755637595E-16}},
  {{-.3,6.81927148582E-14},{-.2,3.11335422967E-14},{-.1,8.66802886503E-15},{5.55111512313E-17,1.49135464543E-15},
   {.1,9.89851584724E-15},{.2,3.3031693345E-14},{.3,7.06465137576E-14}}},
 {"Y24",1,
  {7.908451766932E-7,6.656406259433E-6,2.356145879598E-8,3.862040220482E-8,{{-6.41840626637E-5,6.727987368259E-6,-1.06723753766E-6,
     3.817123315652E-8},
    {-6.53034080346E-5,6.666491177751E-6,-1.07392268352E-6,3.898816369669E-8},
    {-6.42182457345E-5,6.663108818147E-6,-1.09143144085E-6,3.863777494525E-8},
    {-6.54304533135E-5,6.670463825013E-6,-1.12362630733E-6,3.839569523858E-8},
    {-6.38407497482E-5,6.624119106979E-6,-1.05062805719E-6,3.861628586258E-8},
    {-6.31579791701E-5,6.657476675283E-6,-1.0770805155E-6,3.841820876644E-8},
    {-6.4441833955E-5,6.651702592232E-6,-1.04009568453E-6,3.84652068828E-8},
    {-6.32674434654E-5,6.636784217278E-6,-1.04044592754E-6,3.858243569023E-8},
    {-6.3893569968E-5,6.692551359254E-6,-1.03662085902E-6,3.902933642475E-8},
    {-6.27884371735E-5,6.66177737515E-6,-1.08794516573E-6,3.838630609488E-8},
    {-6.35492559071E-5,6.646429761959E-6,-1.08096984086E-6,3.840249819806E-8},
    {-6.46669104844E-5,6.66252758802E-6,-1.05147782528E-6,3.884955164138E-8},
    {-6.40658600321E-5,6.654497758716E-6,-1.04258706167E-6,3.924917014936E-8},
    {-6.46493135828E-5,6.632238731882E-6,-1.07356079667E-6,3.853427050199E-8},
    {-6.24850987966E-5,6.67183545946E-6,-1.02806581265E-6,3.900280468138E-8},
    {-6.35387740354E-5,6.652296753731E-6,-1.0810303652E-6,3.839996489576E-8},
    {-6.30500615942E-5,6.64239351784E-6,-1.03500636061E-6,3.867165353568E-8},
    {-6.45498747574E-5,6.620332551883E-6,-1.04177885224E-6,3.879878224578E-8},
    {-6.30417255662E-5,6.64017087356E-6,-1.06613330517E-6,3.843855127838E-8},
    {-6.43797588128E-5,6.652939676268E-6,-1.06562378596E-6,3.837015021E-8}}},
  {{1.63638684888E-15,-2.1295103784E-16,9.69806204257E-16},{Residual->8.02226609417E-17}},
  {{-1.5,4.03671534258E-15},{-1.2,3.35547791347E-15},{-.9,2.71430465507E-15},{-.6,2.1868116972E-15},{-.3,1.75091949112E-15},
   {0,1.49948820018E-15},{.3,1.58070728171E-15},{.6,1.88658252909E-15},{.9,2.31186113374E-15},{1.2,2.83623735091E-15},
   {1.5,3.44223116478E-15}}},
 {"Y46",1,
  {6.209621258482E-7,6.649557553491E-6,2.399785834333E-8,3.867211297154E-8,{{-6.41573335071E-5,6.621539314907E-6,-1.06800574582E-6,
     3.929166883035E-8},
    {-6.41338934638E-5,6.610483453762E-6,-1.06545774744E-6,3.859388553872E-8},
    {-6.44245271588E-5,6.655361994965E-6,-1.06497949461E-6,3.867845472079E-8},
    {-6.46947156988E-5,6.6612522905E-6,-1.04129268279E-6,3.833915110029E-8},
    {-6.32442925476E-5,6.659794498131E-6,-1.11136388816E-6,3.861963833236E-8},
    {-6.46096817223E-5,6.650433587875E-6,-1.0871320425E-6,3.851539497011E-8},
    {-6.4418102711E-5,6.631681479266E-6,-1.04686579757E-6,3.864908818921E-8},
    {-6.24571116834E-5,6.668965913381E-6,-1.00696021327E-6,3.924769501589E-8},
    {-6.34748992555E-5,6.644195875502E-6,-1.05692625098E-6,3.839745258778E-8},
    {-6.37886363904E-5,6.642516722769E-6,-1.0285309223E-6,3.879334896908E-8},
    {-6.42272553226E-5,6.656229168155E-6,-1.06213703046E-6,3.918194342944E-8},
    {-6.49236462282E-5,6.612046016311E-6,-1.03044177637E-6,3.92755094509E-8},
    {-6.36449999841E-5,6.645934839007E-6,-1.02171147268E-6,3.885714058614E-8},
    {-6.33589757307E-5,6.671703496636E-6,-1.06019168697E-6,3.842810159593E-8},
    {-6.33093550243E-5,6.654577460236E-6,-1.08070272077E-6,3.839166030832E-8},
    {-6.31777748009E-5,6.696440100196E-6,-1.06932797567E-6,3.843479770643E-8},
    {-6.36778828114E-5,6.65996904098E-6,-1.03623879192E-6,3.852988332758E-8},
    {-6.42905835943E-5,6.662746046308E-6,-1.07594677175E-6,3.831538990692E-8},
    {-6.41251487948E-5,6.628104659906E-6,-1.06469789429E-6,3.85170112443E-8},
    {-6.31264102316E-5,6.657175111038E-6,-1.07073827096E-6,3.838504362025E-8}}},
  {{1.549479226E-15,-5.8457445709E-16,6.58335208929E-15},{Residual->1.83952970401E-16}},
  {{-1,8.81333825243E-15},{-.8,6.38623368306E-15},{-.6,4.18032414573E-15},{-.4,2.61243434897E-15},{-.2,1.66705099079E-15},
   {0,1.48755615238E-15},{.2,1.83325443659E-15},{.4,2.63220225564E-15},{.6,3.81621215664E-15},{.8,5.27448663661E-15},
   {1,7.30792762001E-15}}},
 {"Y22",1,
  {4.948270454748E-7,6.649580679429E-6,1.359890508529E-8,3.846853371428E-8,{{-6.31105237587E-5,6.64399475828E-6,-1.07075835769E-6,
     3.840188020301E-8},
    {-6.30697294421E-5,6.668148689066E-6,-1.06046916331E-6,3.832045031124E-8},
    {-6.39133187528E-5,6.646608486997E-6,-1.05463491718E-6,3.838028655545E-8},
    {-6.40507516938E-5,6.619590111513E-6,-1.05066204504E-6,3.873121701116E-8},
    {-6.46027693374E-5,6.645831734043E-6,-1.08412880313E-6,3.834102956719E-8},
    {-6.38699143685E-5,6.651971556291E-6,-1.03331176753E-6,3.855108202293E-8},
    {-6.37536193517E-5,6.622922132451E-6,-1.07219086138E-6,3.847738904098E-8},
    {-6.38467456075E-5,6.665155154625E-6,-1.04163724394E-6,3.835382087562E-8},
    {-6.29110059509E-5,6.674317744065E-6,-1.04599320903E-6,3.843301948216E-8},
    {-6.38209000232E-5,6.64402275316E-6,-1.06332530143E-6,3.846837403107E-8},
    {-6.35971859867E-5,6.661406496711E-6,-1.0338734447E-6,3.842865862965E-8},
    {-6.35218194373E-5,6.654812079162E-6,-1.04344941032E-6,3.835757471124E-8},
    {-6.37331943944E-5,6.642801991762E-6,-1.07410165265E-6,3.838505509683E-8},
    {-6.29591520642E-5,6.664419046035E-6,-1.05424596388E-6,3.895686576005E-8},
    {-6.37122920621E-5,6.639893577681E-6,-1.04835201075E-6,3.844781252044E-8},
    {-6.43906560569E-5,6.636386391071E-6,-1.05637205991E-6,3.842309706488E-8},
    {-6.46201548342E-5,6.649758738746E-6,-1.05577305633E-6,3.866912588222E-8},
    {-6.34083009958E-5,6.628890954016E-6,-1.0730410541E-6,3.85018879769E-8},
    {-6.33077314643E-5,6.667238569454E-6,-1.07021056946E-6,3.833511077733E-8},
    {-6.42786023255E-5,6.663442623456E-6,-1.05751151593E-6,3.840693676521E-8}}},
  {{2.86277976129E-15,2.79987818565E-15,2.99512433703E-14},{Residual->7.72771935988E-16}},
  {{-.6,1.13215904798E-14},{-.4,7.624235646E-15},{-.2,3.98561358871E-15},{1.11022302463E-16,1.49347204821E-15},
   {.2,4.58373744786E-15},{.4,9.43416836762E-15},{.6,1.51420333255E-14}}},
 {"Y26",1,
  {6.338171572194E-7,6.641925804135E-6,2.746346129509E-8,3.88152087409E-8,{{-6.36636926031E-5,6.665767589235E-6,-1.07553809156E-6,
     3.83251821269E-8},
    {-6.47319348033E-5,6.645567405467E-6,-1.06418732637E-6,3.869716638437E-8},
    {-6.45047934666E-5,6.624569427969E-6,-1.06832116638E-6,3.94339388981E-8},
    {-6.43406356753E-5,6.654441666023E-6,-1.11244049316E-6,3.84620370236E-8},
    {-6.45065585286E-5,6.634783290813E-6,-1.10403904858E-6,3.850335951694E-8},
    {-6.49765056203E-5,6.611751815458E-6,-1.04911279644E-6,3.922929957676E-8},
    {-6.45936030212E-5,6.628427588995E-6,-1.06976289039E-6,3.843817600824E-8},
    {-6.40481401012E-5,6.643310618074E-6,-1.04695280356E-6,3.848454890033E-8},
    {-6.24741365454E-5,6.656092387577E-6,-1.02685418591E-6,3.974355749608E-8},
    {-6.2944904825E-5,6.638780899589E-6,-1.06558419366E-6,3.852177799981E-8},
    {-6.39410861927E-5,6.64293318847E-6,-1.01093556673E-6,3.88786470912E-8},
    {-6.34120731111E-5,6.665286257339E-6,-9.99881824264E-7,3.874888960507E-8},
    {-6.4806979582E-5,6.652241713861E-6,-1.06081702967E-6,3.83597818762E-8},
    {-6.40723196451E-5,6.616989731245E-6,-1.09237021444E-6,3.88626434492E-8},
    {-6.38759594266E-5,6.635735971858E-6,-1.04669404443E-6,3.930397758821E-8},
    {-6.34572272143E-5,6.607983287892E-6,-1.06007043888E-6,3.859913270999E-8},
    {-6.44284602942E-5,6.661417852613E-6,-1.05903912413E-6,3.869828126886E-8},
    {-6.36667729434E-5,6.650644870075E-6,-1.06663193036E-6,3.842049017343E-8},
    {-6.45809624755E-5,6.634475450192E-6,-1.03385898309E-6,3.900179040398E-8},
    {-6.37042169624E-5,6.667315069957E-6,-1.03311837326E-6,3.959149672076E-8}}},
  {{2.20631045365E-15,-2.1297668141E-15,3.89609016463E-14},{Residual->3.69078146804E-16}},
  {{-.6,1.74151962605E-14},{-.4,9.5661438381E-15},{-.2,4.28698216014E-15},{1.11022302463E-16,1.49562849059E-15},
   {.2,3.57480453906E-15},{.4,8.0615232732E-15},{.6,1.46801044578E-14}}},
 {"Y66",1,
  {5.268098053506E-7,6.645151926266E-6,2.314803902431E-8,3.863698222397E-8,{{-6.39601684103E-5,6.656896450517E-6,-1.07639548872E-6,
     3.855705883329E-8},
    {-6.44582889806E-5,6.646098171879E-6,-1.08130140907E-6,3.869460188717E-8},
    {-6.3698427085E-5,6.647447334448E-6,-1.05420896123E-6,3.838305709401E-8},
    {-6.30108162359E-5,6.654052891711E-6,-1.04553787782E-6,3.858928074476E-8},
    {-6.40756137272E-5,6.641602108871E-6,-1.05160723559E-6,3.851941829967E-8},
    {-6.41726306829E-5,6.631107080877E-6,-1.07197753205E-6,3.858938289047E-8},
    {-6.34241956062E-5,6.641535668702E-6,-1.00992629082E-6,3.902162883425E-8},
    {-6.28126565025E-5,6.658415840356E-6,-1.05413952154E-6,3.922093633541E-8},
    {-6.51205136576E-5,6.629056514846E-6,-1.0745616315E-6,3.856135051036E-8},
    {-6.3817438184E-5,6.618633620665E-6,-1.11862535332E-6,3.852558747655E-8},
    {-6.33654704091E-5,6.637767179627E-6,-1.06211455767E-6,3.857074650521E-8},
    {-6.39219009589E-5,6.672366736781E-6,-1.03200214415E-6,3.887141932931E-8},
    {-6.38597238179E-5,6.651932983977E-6,-1.06414809479E-6,3.856688408688E-8},
    {-6.36769118688E-5,6.655234581063E-6,-1.0940815414E-6,3.869332575916E-8},
    {-6.41196792379E-5,6.680854565707E-6,-1.03427588662E-6,3.87541326517E-8},
    {-6.38499039869E-5,6.598316004328E-6,-1.07005131424E-6,3.885622736394E-8},
    {-6.45017044485E-5,6.666903857605E-6,-1.0798789263E-6,3.829588684869E-8},
    {-6.31894830099E-5,6.651783758642E-6,-1.04421490285E-6,3.853202889555E-8},
    {-6.3398597951E-5,6.626581559866E-6,-1.06205027287E-6,3.848471399549E-8},
    {-6.36257901749E-5,6.636451614854E-6,-1.05439835326E-6,3.845197613761E-8}}},
  {{4.44452626976E-15,1.45016532862E-14,1.15676071832E-12},{Residual->1.35168684697E-15}},
  {{-.2,4.67508790859E-14},{-.15,2.91932956952E-14},{-.1,1.61481476484E-14},{-.05,7.11198575807E-15},{0,1.49279577815E-15},
   {.05,7.60521992629E-15},{.1,1.86923985974E-14},{.15,3.35738595241E-14},{.2,5.29462621622E-14}}},
 {"Y44",1,
  {5.732492350851E-7,6.652525658945E-6,2.279584016384E-8,3.877651852582E-8,{{-6.42012540334E-5,6.70169648498E-6,-1.01101972278E-6,
     3.90619722278E-8},
    {-6.38065911918E-5,6.680782311471E-6,-1.07666699835E-6,3.826258230369E-8},
    {-6.5222754659E-5,6.620715642625E-6,-1.03933787524E-6,3.855210482649E-8},
    {-6.43427099423E-5,6.628430785916E-6,-1.01250827895E-6,3.845462962351E-8},
    {-6.35794203987E-5,6.627085694847E-6,-1.02159753731E-6,3.964137527663E-8},
    {-6.49745449391E-5,6.618023007843E-6,-1.06674450069E-6,3.866910821999E-8},
    {-6.34334302661E-5,6.642156345934E-6,-1.04983698867E-6,3.855223953384E-8},
    {-6.49540447918E-5,6.638033418076E-6,-1.06473505331E-6,3.860361874429E-8},
    {-6.38452139262E-5,6.658541699964E-6,-1.00875937613E-6,3.951492883649E-8},
    {-6.34322867711E-5,6.611273700942E-6,-1.05752000163E-6,3.858117927304E-8},
    {-6.38736713112E-5,6.684366475658E-6,-1.08725119064E-6,3.82776924064E-8},
    {-6.52335465237E-5,6.615638853958E-6,-1.05617539859E-6,3.941551602181E-8},
    {-6.44042857124E-5,6.660052051665E-6,-1.01848837595E-6,3.913142293295E-8},
    {-6.36757477722E-5,6.72794302626E-6,-1.04636860224E-6,3.87253199853E-8},
    {-6.4368767575E-5,6.670172953913E-6,-1.0677297529E-6,3.85824809192E-8},
    {-6.36920007872E-5,6.678717170944E-6,-1.04692863317E-6,3.910023653399E-8},
    {-6.41382652027E-5,6.644872704665E-6,-1.06646395615E-6,3.836431175755E-8},
    {-6.39367123588E-5,6.635863281392E-6,-1.05834133376E-6,3.84064887741E-8},
    {-6.49113207303E-5,6.630563855387E-6,-1.02315774648E-6,3.932863731451E-8},
    {-6.38275105709E-5,6.675583712465E-6,-1.05145473784E-6,3.830452500477E-8}}},
  {{2.06132307852E-15,1.06754379156E-15,1.75469077055E-14},{Residual->3.20976004749E-16}},
  {{-.6,7.4850483325E-15},{-.4,4.82411226414E-15},{-.2,2.83812819103E-15},{1.11022302463E-16,1.50986938423E-15},
   {.2,2.86695783494E-15},{.4,5.62026140444E-15},{.6,8.93742076858E-15}}},
 {"AY",1,
  {5.740597043871E-7,6.635340263203E-6,1.840622434104E-8,3.865331343826E-8,{{-6.39379930622E-5,6.641202077391E-6,-1.07692905215E-6,
     3.846190638806E-8},
    {-6.37687179374E-5,6.653945313729E-6,-1.1020522161E-6,3.841604395889E-8},
    {-6.44194880548E-5,6.60973951222E-6,-1.0870125729E-6,3.871590284572E-8},
    {-6.39205840931E-5,6.635276564317E-6,-1.08881027629E-6,3.851574994698E-8},
    {-6.49583907981E-5,6.637926926583E-6,-1.05696544896E-6,3.859133977855E-8},
    {-6.31040887891E-5,6.650221753814E-6,-1.08580268499E-6,3.852929286413E-8},
    {-6.39422193656E-5,6.641633372381E-6,-1.07927039805E-6,3.930828699871E-8},
    {-6.51570690651E-5,6.621318017677E-6,-1.09365032474E-6,3.851431187929E-8},
    {-6.49666310499E-5,6.636972553497E-6,-1.07027591897E-6,3.845112102666E-8},
    {-6.52418181667E-5,6.642386682052E-6,-1.06648764015E-6,3.844211002742E-8},
    {-6.40265314878E-5,6.641688098997E-6,-1.07021811796E-6,3.852601091302E-8},
    {-6.39939023952E-5,6.620510034364E-6,-1.04628578409E-6,3.916446160699E-8},
    {-6.3629715851E-5,6.60728466662E-6,-1.03415792831E-6,3.882516572022E-8},
    {-6.39800215973E-5,6.647342516529E-6,-1.04141868674E-6,3.844385403643E-8},
    {-6.46311308028E-5,6.661750523536E-6,-1.0867566839E-6,3.848635487718E-8},
    {-6.38686816446E-5,6.663772998623E-6,-1.07998670994E-6,3.856784602365E-8},
    {-6.42207705191E-5,6.609138608166E-6,-1.07563238037E-6,3.866461684134E-8},
    {-6.34754445605E-5,6.620103478573E-6,-1.07914937903E-6,3.929570150172E-8},
    {-6.46470341865E-5,6.61637057576E-6,-1.05023476555E-6,3.859525679117E-8},
    {-6.36320162788E-5,6.648220989236E-6,-1.04880826375E-6,3.855093473916E-8}}},
  {{1.40200551012E-15,8.16991100197E-15,1.06766062083E-12},{Residual->9.28003877096E-17}},
  {{-.1,1.12678389701E-14},{-.07,6.00103459874E-15},{-.04,2.80732167456E-15},{-.01,1.56125159644E-15},{.02,1.95966346433E-15},
   {.05,4.31306259874E-15},{.08,8.98438197739E-15}}},
 {"EY",1,
  {6.631144414622E-7,6.647482965729E-6,2.143524650021E-8,3.875935074878E-8,{{-6.1929821122E-5,6.692593769856E-6,-2.52069152653E-7,
     3.872727681421E-8},
    {-6.3716562967E-5,6.641650701288E-6,-2.60803181577E-7,3.854675123779E-8},
    {-6.24613153896E-5,6.636998208782E-6,-3.01532027481E-7,3.878236437888E-8},
    {-6.11501555095E-5,6.696968754971E-6,-2.34417911996E-7,3.870836627253E-8},
    {-6.35199226996E-5,6.640260932564E-6,-2.40406478718E-7,3.855802597495E-8},
    {-6.19169730467E-5,6.609889923337E-6,-2.39407429352E-7,3.889075663482E-8},
    {-6.21032212398E-5,6.654575773426E-6,-2.79579223435E-7,3.860752186691E-8},
    {-6.33587181739E-5,6.66174284661E-6,-2.94764103909E-7,3.847575472465E-8},
    {-6.25208913291E-5,6.667283907715E-6,-2.3656309214E-7,3.857751705139E-8},
    {-6.17407362881E-5,6.695706291477E-6,-2.36979350336E-7,3.895179134079E-8},
    {-6.32017767328E-5,6.645109694373E-6,-2.34313552355E-7,3.849340781447E-8},
    {-6.25365799052E-5,6.626650828637E-6,-2.50887983146E-7,3.887630683243E-8},
    {-6.23682317272E-5,6.652607971596E-6,-2.6561731212E-7,3.857235148051E-8},
    {-6.22175453401E-5,6.648557042434E-6,-2.79522826834E-7,3.857519765517E-8},
    {-6.31838872997E-5,6.605380354082E-6,-2.58872412709E-7,3.92485443105E-8},
    {-6.32512374827E-5,6.629973075784E-6,-2.81432201575E-7,3.888749868403E-8},
    {-6.24084366666E-5,6.642381425636E-6,-2.84206258129E-7,3.875331829307E-8},
    {-6.2446084038E-5,6.630500874415E-6,-2.48743043504E-7,3.867198710379E-8},
    {-6.30896401282E-5,6.647543635508E-6,-2.84077519074E-7,3.889590673166E-8},
    {-6.32888967456E-5,6.623283302084E-6,-2.41019626972E-7,3.938636977315E-8}}},
  {{1.47474899177E-15,-2.6495573497E-15,4.16543525532E-13},{Residual->2.00796493844E-17}},
  {{-.1,5.91862583733E-15},{-.07,3.6707189449E-15},{-.04,2.24906710109E-15},{-.01,1.57523306381E-15},{.02,1.58351130583E-15},
   {.05,2.36078725129E-15},{.08,3.93924576392E-15}}},
 {"R32",1,
  {4.635499366629E-7,6.639794549294E-6,2.114513670737E-8,3.886566732292E-8,{{-6.21659346029E-5,6.710686774649E-6,-2.02191750808E-7,
     3.847465923875E-8},
    {-6.31639730239E-5,6.636548810176E-6,-1.68467827147E-7,3.880497676829E-8},
    {-6.34042256118E-5,6.65786822426E-6,-2.01942677441E-7,3.853909637228E-8},
    {-6.31214487662E-5,6.618877958267E-6,-2.11902288822E-7,3.890337343748E-8},
    {-6.17259034495E-5,6.679333628144E-6,-1.49763268827E-7,3.862334213283E-8},
    {-6.32572438356E-5,6.617617000383E-6,-2.00684460244E-7,3.903191780354E-8},
    {-6.35035294915E-5,6.640429653652E-6,-2.20515099354E-7,3.870979626344E-8},
    {-6.26303826159E-5,6.647399273711E-6,-1.80975270699E-7,3.870156265948E-8},
    {-6.32860256742E-5,6.637996837053E-6,-2.29389072403E-7,3.914408682905E-8},
    {-6.22826491751E-5,6.621531671399E-6,-2.14999830033E-7,3.940911684802E-8},
    {-6.3463883265E-5,6.61689640559E-6,-1.72650083054E-7,3.887149089836E-8},
    {-6.25387594295E-5,6.640334976895E-6,-1.69330824436E-7,3.886864303046E-8},
    {-6.28180199131E-5,6.635058281947E-6,-2.25012399742E-7,3.878708869269E-8},
    {-6.24573960173E-5,6.638732043085E-6,-1.92548155195E-7,3.876490375253E-8},
    {-6.25149455705E-5,6.606501034012E-6,-1.99130734928E-7,3.91315830795E-8},
    {-6.28052359607E-5,6.619631290886E-6,-1.76503548878E-7,3.901234502044E-8},
    {-6.26291065222E-5,6.680153935172E-6,-1.93735747601E-7,3.855187424901E-8},
    {-6.29731180521E-5,6.602226229473E-6,-1.68260137292E-7,3.902854820776E-8},
    {-6.25579532329E-5,6.636047620749E-6,-1.79321825899E-7,3.927280616831E-8},
    {-6.25167413997E-5,6.65201933638E-6,-1.83510056197E-7,3.868213500625E-8}}},
  {{1.57871674253E-15,7.76937981851E-15,7.58880386916E-13},{Residual->3.44336615274E-17}},
  {{-.1,8.35584671346E-15},{-.07,4.82335811533E-15},{-.04,2.47247552109E-15},{-.01,1.53867153005E-15},{.02,2.03162084285E-15},
   {.05,3.88837012966E-15},{.08,7.05181977911E-15}}},
 {"Y24",1,
  {6.210727337201E-7,6.633338801652E-6,2.290304105256E-8,3.848546914422E-8,{{-6.58079703328E-5,6.635638812133E-6,2.172247103199E-7,
     3.831092123715E-8},
    {-6.57537593738E-5,6.688390672476E-6,2.398650931269E-7,3.814264041282E-8},
    {-6.57450867999E-5,6.633281993479E-6,2.255974553E-7,3.827957947965E-8},
    {-6.54011089466E-5,6.640882050414E-6,2.274917934443E-7,3.826293171221E-8},
    {-6.50528743511E-5,6.648458389936E-6,2.446511034973E-7,3.821955451515E-8},
    {-6.50563786215E-5,6.612384299561E-6,2.038056927723E-7,3.844460796296E-8},
    {-6.40278792671E-5,6.660234934626E-6,1.942511155314E-7,3.835036328442E-8},
    {-6.58034326271E-5,6.609754270718E-6,2.527308267452E-7,3.862850152451E-8},
    {-6.60875805502E-5,6.633742226112E-6,2.172452322639E-7,3.842505205848E-8},
    {-6.63363787191E-5,6.618717683491E-6,2.342743714331E-7,3.878948220656E-8},
    {-6.50106576301E-5,6.654088953571E-6,2.670297974853E-7,3.890901024079E-8},
    {-6.54114293681E-5,6.624077040121E-6,2.573167684278E-7,3.85423402845E-8},
    {-6.61015215309E-5,6.611271751421E-6,2.381363296168E-7,3.84629429365E-8},
    {-6.44609123211E-5,6.627117605714E-6,2.604967376908E-7,3.847877983154E-8},
    {-6.60478570781E-5,6.623694280075E-6,2.025721600565E-7,3.87113479776E-8},
    {-6.5130183517E-5,6.650214965061E-6,2.54332288378E-7,3.846592416806E-8},
    {-6.48928182603E-5,6.618815185243E-6,2.245755744026E-7,3.849750236382E-8},
    {-6.55536941886E-5,6.635612020674E-6,2.39588325381E-7,3.827911875426E-8},
    {-6.66209453849E-5,6.597441371338E-6,1.895921778273E-7,3.89983295388E-8},
    {-6.56761697692E-5,6.64295752687E-6,1.964689562516E-7,3.851045239471E-8}}},
  {{1.50094211268E-15,3.14068757148E-16,1.51558878495E-15},{Residual->5.17106161361E-18}},
  {{-.3,1.54532400274E-15},{-.2,1.49896488071E-15},{-.1,1.47715962825E-15},{5.55111512313E-17,1.50523947187E-15},
   {.1,1.544679199E-15},{.2,1.63300267899E-15},{.3,1.72658978698E-15}}},
 {"Y46",1,
  {4.728393277787E-7,6.635052095318E-6,2.022167583791E-8,3.836158855389E-8,{{-6.54886486166E-5,6.642764450604E-6,1.961033391849E-7,
     3.80673063472E-8},
    {-6.47542597697E-5,6.60611164266E-6,2.361767152531E-7,3.822664103307E-8},
    {-6.53421066022E-5,6.627525868385E-6,2.092490643717E-7,3.852254180154E-8},
    {-6.49774332412E-5,6.629336524288E-6,2.445694340968E-7,3.832578264447E-8},
    {-6.59325963567E-5,6.625111937784E-6,2.47367049901E-7,3.885627995231E-8},
    {-6.57144694201E-5,6.626891190483E-6,2.365929700398E-7,3.820105281271E-8},
    {-6.49823404649E-5,6.632856396657E-6,2.092317789773E-7,3.825396185357E-8},
    {-6.49485425545E-5,6.716917838043E-6,2.103382795056E-7,3.801271123254E-8},
    {-6.40812471491E-5,6.634896369017E-6,2.354518860615E-7,3.8051997575E-8},
    {-6.54140053884E-5,6.669837568487E-6,2.138086317897E-7,3.817972924461E-8},
    {-6.58975334802E-5,6.643663460466E-6,2.366509371933E-7,3.825966344032E-8},
    {-6.59011976397E-5,6.628837822293E-6,2.43802968463E-7,3.81482530873E-8},
    {-6.5309186468E-5,6.610991756361E-6,2.649965785525E-7,3.825356635551E-8},
    {-6.51909135621E-5,6.608012375452E-6,2.398570656341E-7,3.956488356815E-8},
    {-6.55939353619E-5,6.627576145437E-6,2.781347513662E-7,3.832495819318E-8},
    {-6.4905122767E-5,6.662487361492E-6,2.028474677387E-7,3.880483266471E-8},
    {-6.53218447381E-5,6.615032404737E-6,2.447456560589E-7,3.868450561265E-8},
    {-6.57791256443E-5,6.627205618477E-6,2.39818898443E-7,3.815663453175E-8},
    {-6.60110058311E-5,6.63033792298E-6,2.26494151998E-7,3.822990286875E-8},
    {-6.56096958626E-5,6.634647252256E-6,2.409524757015E-7,3.810656625852E-8}}},
  {{1.49953110512E-15,4.50248148804E-16,6.61733075981E-15},{Residual->4.47619803469E-17}},
  {{-.45,2.68516165593E-15},{-.3,1.8989939863E-15},{-.15,1.563296219E-15},{-5.5511151231E-17,1.48677193667E-15},
   {.15,1.7464947523E-15},{.3,2.29343606095E-15},{.45,2.99148150339E-15}}},
 {"Y22",1,
  {6.334809254368E-7,6.641183860249E-6,2.376774864134E-8,3.828111763887E-8,{{-6.49283428976E-5,6.636417676473E-6,2.147495896897E-7,
     3.808418876327E-8},
    {-6.47011168527E-5,6.663786880738E-6,2.312193142775E-7,3.799705240098E-8},
    {-6.49558639138E-5,6.623825085993E-6,2.035343315192E-7,3.87344382863E-8},
    {-6.43238151816E-5,6.653654368549E-6,2.331301014074E-7,3.805820961704E-8},
    {-6.51030599185E-5,6.704062880419E-6,2.445577283305E-7,3.820326485779E-8},
    {-6.60911546092E-5,6.612386674499E-6,2.098151454805E-7,3.833050661978E-8},
    {-6.49842181834E-5,6.636195705535E-6,2.40752603713E-7,3.806924179622E-8},
    {-6.44853434426E-5,6.615374391557E-6,2.262490960729E-7,3.84155248637E-8},
    {-6.58900452149E-5,6.594918122652E-6,2.074270563941E-7,3.849674584993E-8},
    {-6.55576186053E-5,6.622539985556E-6,2.212420174E-7,3.821647284088E-8},
    {-6.64749407893E-5,6.651337784263E-6,1.869236438868E-7,3.827659261232E-8},
    {-6.60579321404E-5,6.615444902112E-6,2.651393588025E-7,3.855540867343E-8},
    {-6.45096225734E-5,6.643857090194E-6,2.378136608723E-7,3.809213713635E-8},
    {-6.48561210729E-5,6.690794026607E-6,2.075086921393E-7,3.800933324261E-8},
    {-6.590774452E-5,6.672069936191E-6,2.869836483653E-7,3.950241657169E-8},
    {-6.48280237126E-5,6.626450108708E-6,2.107343298432E-7,3.81146589158E-8},
    {-6.50338849936E-5,6.638317641487E-6,2.382722256766E-7,3.813197230281E-8},
    {-6.62711912315E-5,6.634367290072E-6,2.167623580634E-7,3.814808534388E-8},
    {-6.53803435187E-5,6.635592901333E-6,2.176633541521E-7,3.811545858018E-8},
    {-6.47861247794E-5,6.652283752046E-6,2.67399412554E-7,3.807064350244E-8}}},
  {{2.6642591819E-15,2.57925782571E-15,3.15269765486E-14},{Residual->6.16994419396E-16}},
  {{-.6,1.19894534524E-14},{-.4,7.43178289344E-15},{-.2,3.9218600645E-15},{1.11022302463E-16,1.46846208976E-15},
   {.2,4.55967370397E-15},{.4,9.12843108256E-15},{.6,1.54603647212E-14}}},
 {"Y26",1,
  {5.694129374833E-7,6.632025723542E-6,2.513826952955E-8,3.827696796946E-8,{{-6.5822442095E-5,6.618266400056E-6,2.394482269212E-7,
     3.830534943809E-8},
    {-6.58198533022E-5,6.604377453433E-6,2.295486721524E-7,3.828795333211E-8},
    {-6.41857354695E-5,6.666249531461E-6,2.358386986879E-7,3.811621973916E-8},
    {-6.47852945623E-5,6.610620423218E-6,2.487064555366E-7,3.831657648725E-8},
    {-6.55159608726E-5,6.622691186284E-6,2.196043723701E-7,3.814067665998E-8},
    {-6.53692193157E-5,6.649821749233E-6,2.655846206041E-7,3.818814834204E-8},
    {-6.51579884315E-5,6.624376147713E-6,1.986529224701E-7,3.837421354766E-8},
    {-6.51278930281E-5,6.631132582665E-6,1.817930456782E-7,3.826422767125E-8},
    {-6.56820341159E-5,6.603866780405E-6,2.409515571247E-7,3.860433187111E-8},
    {-6.5409477664E-5,6.662842044387E-6,2.25615259675E-7,3.801505634523E-8},
    {-6.54285536287E-5,6.639609023454E-6,2.506958290827E-7,3.810274390568E-8},
    {-6.60428712401E-5,6.616849772129E-6,2.439534997223E-7,3.818938527953E-8},
    {-6.43985436377E-5,6.62866397972E-6,2.382313552603E-7,3.806183324452E-8},
    {-6.48765350756E-5,6.620463937329E-6,2.605731814828E-7,3.856571542515E-8},
    {-6.53611800857E-5,6.669234750978E-6,2.038117715295E-7,3.815027232083E-8},
    {-6.63517545645E-5,6.603237545297E-6,1.922381648332E-7,3.868882607355E-8},
    {-6.43307490218E-5,6.607347615815E-6,2.592331150202E-7,3.820434527395E-8},
    {-6.4739024057E-5,6.663067922993E-6,1.873922566492E-7,3.822270040169E-8},
    {-6.49259822702E-5,6.630174737168E-6,2.469197976362E-7,3.833736145574E-8},
    {-6.47576744759E-5,6.667620887097E-6,2.03746037737E-7,3.840342257478E-8}}},
  {{1.74402250417E-15,-1.803123669E-15,4.75187472765E-14},{Residual->1.40542088494E-16}},
  {{-.3,6.52898595996E-15},{-.2,4.10888227517E-15},{-.1,2.42656928646E-15},{5.55111512313E-17,1.46530190916E-15},
   {.1,2.16783977455E-15},{.2,3.43277701489E-15},{.3,5.38305054643E-15}}},
 {"Y66",1,
  {7.013416960164E-7,6.636688863502E-6,2.897466662521E-8,3.831394728539E-8,{{-6.58143078041E-5,6.606700297561E-6,2.122897938427E-7,
     3.823714359247E-8},
    {-6.53808819067E-5,6.633119601354E-6,2.382415674579E-7,3.825247096194E-8},
    {-6.44314366311E-5,6.64393390988E-6,2.395578957559E-7,3.807474698942E-8},
    {-6.4535867435E-5,6.646554209011E-6,2.295644904712E-7,3.815812504027E-8},
    {-6.6043735783E-5,6.620470403037E-6,1.97812366274E-7,3.825732672062E-8},
    {-6.51329461448E-5,6.682960636898E-6,2.501687010794E-7,3.872967556668E-8},
    {-6.57129421405E-5,6.634535056316E-6,2.405664051922E-7,3.809479887454E-8},
    {-6.56899172295E-5,6.606920366214E-6,2.045956798228E-7,3.824680385423E-8},
    {-6.63119148402E-5,6.62250304204E-6,2.391456931756E-7,3.844262380296E-8},
    {-6.55111986852E-5,6.60027985499E-6,1.647097058656E-7,3.829973217577E-8},
    {-6.58580554949E-5,6.672854411215E-6,3.048746295246E-7,3.952432618905E-8},
    {-6.49624664413E-5,6.639324536939E-6,2.127487534879E-7,3.810859426974E-8},
    {-6.56535969799E-5,6.653482815837E-6,2.371269329489E-7,3.821204322786E-8},
    {-6.69283334032E-5,6.624158657429E-6,2.12307970692E-7,3.827431289589E-8},
    {-6.44666771151E-5,6.636541020256E-6,2.424304980223E-7,3.812768393354E-8},
    {-6.50911816459E-5,6.636796403531E-6,2.684845335599E-7,3.846344446989E-8},
    {-6.67378922437E-5,6.621258751564E-6,2.20258706991E-7,3.846426145423E-8},
    {-6.46768653499E-5,6.644666199423E-6,2.523515935965E-7,3.803855731004E-8},
    {-6.48709948528E-5,6.645490119055E-6,2.271837611923E-7,3.808977928947E-8},
    {-6.59059388423E-5,6.661226977481E-6,1.943362400734E-7,3.818249508928E-8}}},
  {{4.08546854158E-15,1.41181659984E-14,1.17373585536E-12},{Residual->1.2461489586E-15}},
  {{-.2,4.73454373748E-14},{-.15,2.88751716663E-14},{-.1,1.60419529565E-14},{-.05,6.86359166969E-15},{0,1.46943219747E-15},
   {.05,7.45971057712E-15},{.1,1.75453288816E-14},{.15,3.41569876839E-14},{.2,5.3071982171E-14}}},
 {"Y44",1,
  {4.939073672046E-7,6.633660702649E-6,2.520921799709E-8,3.828969172254E-8,{{-6.53961244454E-5,6.637218978566E-6,2.511739510925E-7,
     3.816295769608E-8},
    {-6.52821306989E-5,6.613160332815E-6,1.985492791567E-7,3.817688793443E-8},
    {-6.50711507507E-5,6.635754344682E-6,1.966737157935E-7,3.806682846311E-8},
    {-6.4979983848E-5,6.64165149658E-6,2.547928301366E-7,3.867652593909E-8},
    {-6.41232480541E-5,6.639591375113E-6,2.587904887707E-7,3.841250798527E-8},
    {-6.47465226218E-5,6.626047143071E-6,2.453363015717E-7,3.81228343469E-8},
    {-6.47337252702E-5,6.630031007874E-6,2.403869743359E-7,3.830177721805E-8},
    {-6.51403623856E-5,6.605128736292E-6,2.112431539012E-7,3.816570155412E-8},
    {-6.56588185993E-5,6.648876478461E-6,1.749231322806E-7,3.813971411221E-8},
    {-6.49354388331E-5,6.615478205954E-6,2.561850871515E-7,3.853256517971E-8},
    {-6.60048962487E-5,6.608982271639E-6,2.052329971395E-7,3.823115387163E-8},
    {-6.52736590122E-5,6.610618656536E-6,1.869494604652E-7,3.837641314174E-8},
    {-6.55730565769E-5,6.671875162976E-6,2.344920357039E-7,3.824316503565E-8},
    {-6.61707426317E-5,6.629598401442E-6,2.11650303417E-7,3.820001582484E-8},
    {-6.48373882912E-5,6.678732875384E-6,2.147515752783E-7,3.831103649246E-8},
    {-6.54634498091E-5,6.628606341769E-6,2.455807440288E-7,3.835613813059E-8},
    {-6.59484223944E-5,6.621372382076E-6,1.891883267488E-7,3.839445343759E-8},
    {-6.47978086304E-5,6.660738104691E-6,2.200190353898E-7,3.804544719922E-8},
    {-6.57277274789E-5,6.619596111536E-6,2.369325209626E-7,3.864612169307E-8},
    {-6.50914424367E-5,6.650155645529E-6,2.366285936419E-7,3.823158919498E-8}}},
  {{2.04510385541E-15,8.90348391776E-16,1.70416374124E-14},{Residual->3.37819073938E-16}},
  {{-.6,7.34675552287E-15},{-.4,4.91463529132E-15},{-.2,2.7618092272E-15},{1.11022302463E-16,1.46455895788E-15},
   {.2,2.86465982381E-15},{.4,5.39718865152E-15},{.6,8.65275341519E-15}}},
 {"AY",1,
  {6.898623460881E-7,6.631176320822E-6,2.221828499095E-8,3.825167739493E-8,{{-6.48716692343E-5,6.669233448994E-6,2.417586276889E-7,
     3.800170963248E-8},
    {-6.58931567511E-5,6.654707441409E-6,2.282037341798E-7,3.801428358245E-8},
    {-6.52093760389E-5,6.591284781875E-6,2.100067930545E-7,3.851355759713E-8},
    {-6.49685120422E-5,6.628524542965E-6,2.38672007749E-7,3.825497097701E-8},
    {-6.53241867194E-5,6.607198943003E-6,2.291194719425E-7,3.824764689522E-8},
    {-6.51141922376E-5,6.623249518805E-6,2.105810242576E-7,3.852903526044E-8},
    {-6.43076451554E-5,6.643618271561E-6,2.534477183882E-7,3.816023490435E-8},
    {-6.58840962814E-5,6.616398324554E-6,1.723518760497E-7,3.870808735088E-8},
    {-6.51886803664E-5,6.622481011586E-6,2.526541328332E-7,3.830540936519E-8},
    {-6.62781287387E-5,6.631146516322E-6,2.228616666478E-7,3.811880155527E-8},
    {-6.67245851128E-5,6.630259963598E-6,2.292846124167E-7,3.814948059889E-8},
    {-6.51644813943E-5,6.635275458649E-6,1.845180790469E-7,3.824403508849E-8},
    {-6.60892640746E-5,6.658606979118E-6,2.135107726682E-7,3.801139062342E-8},
    {-6.48026140357E-5,6.638869395149E-6,2.284238578949E-7,3.804499408164E-8},
    {-6.50163359835E-5,6.609747420776E-6,2.450683928173E-7,3.823949264753E-8},
    {-6.54151007487E-5,6.691938001478E-6,2.024419617541E-7,3.793171605997E-8},
    {-6.53057950897E-5,6.598398302087E-6,2.229374386365E-7,3.831127463445E-8},
    {-6.42748855221E-5,6.617534568806E-6,2.150073831184E-7,3.83566995887E-8},
    {-6.40587231351E-5,6.6085725661E-6,2.666492791748E-7,3.85410772451E-8},
    {-6.62655811585E-5,6.646480959598E-6,2.316110714224E-7,3.834965021001E-8}}},
  {{1.30948694767E-15,6.20830862199E-15,1.08955912345E-12},{Residual->1.3181778104E-16}},
  {{-.1,1.16435814118E-14},{-.07,6.0350087636E-15},{-.04,2.87428231502E-15},{-.01,1.51990782174E-15},{.02,1.85718541346E-15},
   {.05,4.13608317256E-15},{.08,8.8853594292E-15}}},
 {"EY",1,
  {4.981476735526E-7,6.643031206436E-6,3.174649133539E-8,3.857158501848E-8,{{-6.72214443162E-5,6.610071196136E-6,6.174766841124E-7,
     3.874613008735E-8},
    {-6.57700391688E-5,6.639736578794E-6,6.608357843432E-7,3.952022761487E-8},
    {-6.61713678402E-5,6.64195294584E-6,6.050260732956E-7,3.816864256526E-8},
    {-6.59698338672E-5,6.638003176095E-6,5.98119335051E-7,3.811760064483E-8},
    {-6.70676011569E-5,6.64052565341E-6,6.814944429087E-7,3.920439064192E-8},
    {-6.67879774853E-5,6.644979391455E-6,6.33143165263E-7,3.925318929592E-8},
    {-6.66697873477E-5,6.654839939078E-6,6.459265807464E-7,3.880397887499E-8},
    {-6.66051912741E-5,6.639030119114E-6,6.301985419815E-7,3.886167324537E-8},
    {-6.69796928891E-5,6.628914718742E-6,6.3818676857E-7,3.949714364024E-8},
    {-6.67063687692E-5,6.625636850215E-6,5.890867866787E-7,3.820503332308E-8},
    {-6.71622826939E-5,6.664474260564E-6,5.578046774006E-7,3.818044694723E-8},
    {-6.65134118531E-5,6.647369148127E-6,5.937634750011E-7,3.814345059751E-8},
    {-6.74262317327E-5,6.644075313658E-6,6.110105096542E-7,3.827110910656E-8},
    {-6.64516395149E-5,6.645368066006E-6,6.383924177088E-7,3.859260668733E-8},
    {-6.7317104611E-5,6.655343115597E-6,5.966065313423E-7,3.813268882113E-8},
    {-6.63118492305E-5,6.632020140797E-6,5.9084768853E-7,3.843881605497E-8},
    {-6.78109352085E-5,6.644355578542E-6,5.526920835825E-7,3.826619193579E-8},
    {-6.66084970648E-5,6.665812875853E-6,6.140540824244E-7,3.806616021144E-8},
    {-6.72042343589E-5,6.652244458694E-6,6.313429551609E-7,3.883895398187E-8},
    {-6.69490661194E-5,6.645870602001E-6,5.800979253652E-7,3.812326609195E-8}}},
  {{1.46355851794E-15,-2.1701850861E-15,4.18254419199E-13},{Residual->1.74526096658E-17}},
  {{-.1,5.88370141827E-15},{-.07,3.63410689129E-15},{-.04,2.20749487036E-15},{-.01,1.55008222352E-15},{.02,1.59034544774E-15},
   {.05,2.40480581801E-15},{.08,3.95907536971E-15}}},
 {"R32",1,
  {6.642343224157E-7,6.654925668069E-6,2.185427563195E-8,3.860404456792E-8,{{-7.02777441163E-5,6.618772929881E-6,5.615914413512E-7,
     3.857761530207E-8},
    {-6.94086785748E-5,6.644049243321E-6,5.175389888882E-7,3.810926565928E-8},
    {-6.97117952834E-5,6.647708973169E-6,5.586873491501E-7,3.887953830136E-8},
    {-6.97073924483E-5,6.649709283942E-6,5.445743493377E-7,3.814106833337E-8},
    {-7.06159115042E-5,6.634951040155E-6,5.288542319847E-7,3.85738736715E-8},
    {-6.84787964557E-5,6.708173611562E-6,5.272377040411E-7,3.85195070147E-8},
    {-6.98542859302E-5,6.662500405162E-6,5.726115786062E-7,3.837712783405E-8},
    {-6.96435995914E-5,6.677133342623E-6,5.702310171488E-7,3.863166611185E-8},
    {-7.02385711305E-5,6.666380145916E-6,5.68170425763E-7,3.840729705685E-8},
    {-6.98399302507E-5,6.648312194817E-6,5.363574459517E-7,3.837405976178E-8},
    {-6.94052256288E-5,6.711189612703E-6,5.184454493006E-7,3.878426352418E-8},
    {-6.96365217673E-5,6.627551474602E-6,5.464710244331E-7,3.840107654635E-8},
    {-6.78992726766E-5,6.642177800781E-6,5.554302531549E-7,3.856880404805E-8},
    {-6.95901192894E-5,6.672370503393E-6,5.546645250923E-7,3.829781801307E-8},
    {-6.98329066627E-5,6.651372812735E-6,5.340051159708E-7,3.8354641498E-8},
    {-6.86679393052E-5,6.679316264522E-6,5.616626417178E-7,3.835059884461E-8},
    {-7.03988971382E-5,6.639884642604E-6,5.489521760958E-7,3.836737632028E-8},
    {-6.92291834151E-5,6.647246949142E-6,5.845189180813E-7,3.849014294382E-8},
    {-7.03408549485E-5,6.627644355894E-6,5.986938930098E-7,4.046075647007E-8},
    {-7.01921926591E-5,6.64206777446E-6,5.831714907169E-7,3.941439410307E-8}}},
  {{1.54297716874E-15,4.05033359069E-15,7.74603797084E-13},{Residual->5.20205041159E-17}},
  {{-.1,8.88113887229E-15},{-.07,5.09598158111E-15},{-.04,2.58634798315E-15},{-.01,1.52041279518E-15},{.02,1.94923315843E-15},
   {.05,3.77789132341E-15},{.08,6.76854946071E-15}}},
 {"Y24",1,
  {6.82906113808E-7,6.667977677869E-6,2.68782635534E-8,3.899682983672E-8,{{-6.99822685771E-5,6.648445107121E-6,-1.66669460839E-8,
     3.902026668938E-8},
    {-6.84989405131E-5,6.755615877955E-6,-8.62423053972E-9,3.897339087115E-8},
    {-6.85737147425E-5,6.654256189527E-6,1.522350933128E-8,3.961680412154E-8},
    {-6.8284626548E-5,6.622108731167E-6,3.669060985656E-8,3.994223994041E-8},
    {-6.97607772418E-5,6.707043552245E-6,-3.18811244245E-8,3.891482372241E-8},
    {-6.84451999497E-5,6.710299083011E-6,-4.16595564997E-8,3.897960131962E-8},
    {-6.87886669882E-5,6.652272087752E-6,-1.55674225517E-8,3.919173615851E-8},
    {-6.81199450412E-5,6.6517683596E-6,-3.42384392123E-8,3.919653527175E-8},
    {-6.80737248418E-5,6.667186326482E-6,-4.32051396819E-8,3.833801381623E-8},
    {-6.75674188392E-5,6.665450210032E-6,1.531402230953E-8,4.009342740621E-8},
    {-7.00149781941E-5,6.651260321923E-6,-9.66603575346E-9,3.999748916078E-8},
    {-6.87255183906E-5,6.657032581171E-6,-6.81176056958E-8,3.822947050959E-8},
    {-6.95780567462E-5,6.660031991595E-6,-3.96439197795E-8,3.906412444572E-8},
    {-6.88582080075E-5,6.644011300758E-6,-1.40388057266E-9,3.881648752746E-8},
    {-6.86460161194E-5,6.671789252534E-6,-1.21329130332E-8,3.945866407183E-8},
    {-6.80694516384E-5,6.694299422096E-6,-5.71263568151E-8,3.810181085669E-8},
    {-6.92028745459E-5,6.675914020044E-6,-6.70954275715E-8,3.850188017055E-8},
    {-6.83837167045E-5,6.673413616734E-6,-2.1001175902E-8,3.831230572234E-8},
    {-6.94848497435E-5,6.657759287655E-6,-2.76487097757E-8,3.884186163787E-8},
    {-6.80582814382E-5,6.639596237972E-6,1.04369778877E-10,3.834566331428E-8}}},
  {{1.55428526766E-15,-3.962518334E-16,1.37778346807E-15},{Residual->1.41658774949E-17}},
  {{-.3,1.79075394138E-15},{-.2,1.69315211338E-15},{-.1,1.60988254209E-15},{5.55111512313E-17,1.57620677281E-15},
   {.1,1.50056728813E-15},{.2,1.52726458922E-15},{.3,1.56794899764E-15}}},
 {"Y46",1,
  {5.68506582222E-7,6.662322698656E-6,2.12898002707E-8,3.880198618564E-8,{{-6.97265100001E-5,6.645787958141E-6,-3.60041155006E-8,
     3.98207738749E-8},
    {-6.8555072543E-5,6.711231054701E-6,-1.80405638797E-8,3.904596770502E-8},
    {-6.84477074223E-5,6.654091367534E-6,-3.9297578046E-8,3.816024184402E-8},
    {-6.89164700946E-5,6.660841756795E-6,-7.57849141904E-9,3.939175963977E-8},
    {-6.75656900734E-5,6.627676515707E-6,-4.78894300856E-8,3.872269219814E-8},
    {-6.91213932419E-5,6.654022656877E-6,-2.39944744889E-8,3.887179143006E-8},
    {-6.93919169642E-5,6.645414066377E-6,-2.71399521539E-8,3.807913632128E-8},
    {-6.90915381687E-5,6.661704202617E-6,-1.20878408147E-8,3.822086284463E-8},
    {-6.89021083156E-5,6.684885673704E-6,-1.16201911672E-9,3.894087346122E-8},
    {-6.84299721451E-5,6.659603428673E-6,-4.19844451469E-8,3.818607223475E-8},
    {-6.88685726236E-5,6.653276983985E-6,1.63864085738E-8,3.988254656927E-8},
    {-6.95944684677E-5,6.671835089848E-6,-6.96048120799E-8,3.840416565251E-8},
    {-6.81948115916E-5,6.677125962215E-6,-3.64057015611E-8,3.823129875393E-8},
    {-6.86101782255E-5,6.668702264955E-6,-2.92989685203E-8,3.891027348335E-8},
    {-6.75632841441E-5,6.657394964641E-6,-5.04012919636E-8,3.842618799194E-8},
    {-6.83350468236E-5,6.686826368045E-6,3.433157845612E-9,3.950435776877E-8},
    {-6.87718507676E-5,6.640243866249E-6,-5.7019999218E-8,3.839755202764E-8},
    {-6.9190752644E-5,6.643535596224E-6,-3.93208281166E-8,3.897902106472E-8},
    {-6.89202433193E-5,6.672871211157E-6,-1.21597478387E-8,3.81115937574E-8},
    {-6.93087429149E-5,6.669382984682E-6,-1.03543990418E-8,3.975255508939E-8}}},
  {{1.51998740825E-15,-6.3743614679E-16,7.22016004635E-15},{Residual->5.96656288193E-17}},
  {{-.45,3.33603931494E-15},{-.3,2.27576182494E-15},{-.15,1.74964517299E-15},{-5.5511151231E-17,1.51123958001E-15},
   {.15,1.62939646814E-15},{.3,2.05693249462E-15},{.45,2.62959783127E-15}}},
 {"Y22",1,
  {6.120034322565E-7,6.663229024231E-6,2.063145254564E-8,3.887852042569E-8,{{-6.93034243418E-5,6.669398096676E-6,1.267036948313E-8,
     4.173706683434E-8},
    {-6.84430050266E-5,6.65803116858E-6,-4.27451999643E-8,3.844816927066E-8},
    {-6.86348859405E-5,6.660742767667E-6,-1.97605232103E-8,3.999608015175E-8},
    {-6.89393288894E-5,6.674879426689E-6,-2.92655534331E-8,3.836772048959E-8},
    {-6.90950322608E-5,6.657243173736E-6,2.382325136341E-9,3.871485551947E-8},
    {-6.89237321142E-5,6.665087979894E-6,-8.3813843227E-9,3.817210205394E-8},
    {-6.83922336862E-5,6.662634640843E-6,9.36715276987E-9,4.010871195845E-8},
    {-6.84757091958E-5,6.645275426498E-6,-2.23093317971E-8,3.824664890491E-8},
    {-6.81310432253E-5,6.693866288336E-6,-3.26338476103E-8,3.793068029603E-8},
    {-6.87592563706E-5,6.665916239977E-6,-3.03962963747E-8,3.861021070866E-8},
    {-6.94532069437E-5,6.643374671939E-6,-4.02662113237E-9,3.976969447391E-8},
    {-6.84414516448E-5,6.660363591285E-6,-5.4170016326E-8,3.811540119669E-8},
    {-7.00616965866E-5,6.666675711387E-6,-5.06678854176E-8,3.819340356407E-8},
    {-6.96369422081E-5,6.647051140703E-6,-1.64453425902E-8,3.912668369627E-8},
    {-6.88329844438E-5,6.68836155547E-6,-5.14252354079E-8,3.790032529469E-8},
    {-6.84545500017E-5,6.698150513642E-6,-2.62575907006E-8,3.788976267427E-8},
    {-6.85772629587E-5,6.63951245588E-6,-2.56848375338E-8,3.916892174888E-8},
    {-6.78401899747E-5,6.641044461092E-6,-7.37013197373E-9,3.829328805156E-8},
    {-6.76095168822E-5,6.673337242867E-6,8.55984640414E-10,3.961569826214E-8},
    {-6.77321691366E-5,6.653633931452E-6,-5.419056399E-8,3.916498336348E-8}}},
  {{2.89635225464E-15,2.43777376593E-15,3.22017731923E-14},{Residual->7.255628056E-16}},
  {{-.6,1.25307124221E-14},{-.4,7.97562381895E-15},{-.2,4.09450293049E-15},{1.11022302463E-16,1.5198305065E-15},
   {.2,4.82897140536E-15},{.4,9.71198250463E-15},{.6,1.56788281698E-14}}},
 {"Y26",1,
  {4.87233144764E-7,6.668490824074E-6,1.67065064549E-8,3.880605643719E-8,{{-6.94105105786E-5,6.663848939593E-6,-7.05211741885E-9,
     3.870809762994E-8},
    {-6.84010910287E-5,6.689063432952E-6,-4.61099392079E-8,3.81416144562E-8},
    {-6.89457661106E-5,6.642402739701E-6,-5.64897231144E-8,3.891897532688E-8},
    {-6.89256835252E-5,6.697946273069E-6,-5.12390731342E-8,3.811949069975E-8},
    {-6.83418416486E-5,6.716245266197E-6,-2.32655018753E-8,3.947086041581E-8},
    {-6.79556375987E-5,6.685386273646E-6,-1.57935199409E-8,3.814899092407E-8},
    {-6.88082496352E-5,6.655868186091E-6,-3.35696416658E-8,3.853510813251E-8},
    {-6.8919654943E-5,6.656895463727E-6,-2.25060914964E-8,3.958568632715E-8},
    {-6.8368571047E-5,6.66848267227E-6,-3.95598172614E-8,3.855551580177E-8},
    {-6.86491374817E-5,6.65447041303E-6,1.764407443467E-9,3.894270914923E-8},
    {-6.88118549742E-5,6.684072016528E-6,-5.41574878498E-8,3.837134352427E-8},
    {-6.84539408907E-5,6.653441481433E-6,-4.54609232032E-8,3.857875394879E-8},
    {-6.8942702108E-5,6.68836307886E-6,-2.71075462977E-8,3.927962606599E-8},
    {-6.78663351755E-5,6.6527198013E-6,-3.21437410067E-8,3.832313673838E-8},
    {-6.9161844656E-5,6.67094860478E-6,-2.13617999541E-8,3.820631824231E-8},
    {-6.87992671123E-5,6.644190201708E-6,-3.06473385118E-8,3.895222204919E-8},
    {-6.77689939601E-5,6.657715951129E-6,-1.66248614045E-8,3.856289679978E-8},
    {-6.92348689491E-5,6.661947118176E-6,-4.15209628249E-8,3.845555867674E-8},
    {-6.91005404865E-5,6.662601052284E-6,1.42600109798E-9,3.992577956441E-8},
    {-6.96142309486E-5,6.663207515014E-6,-2.48700822061E-8,4.033844427072E-8}}},
  {{1.76031299785E-15,-1.9988593192E-15,5.02725424904E-14},{Residual->1.4827413512E-16}},
  {{-.3,6.93362380109E-15},{-.2,4.1707810658E-15},{-.1,2.4279256828E-15},{5.55111512313E-17,1.54165874187E-15},
   {.1,2.1942994947E-15},{.2,3.61138865871E-15},{.3,5.51882543729E-15}}},
 {"Y66",1,
  {5.331928511364E-7,6.67120749982E-6,2.353759598546E-8,3.889841992995E-8,{{-6.88261150692E-5,6.663809180742E-6,-3.22764184087E-8,
     3.849759644168E-8},
    {-6.91319277301E-5,6.657643743237E-6,-4.16744582001E-8,3.94371290385E-8},
    {-6.83835075998E-5,6.659384703173E-6,7.661605795027E-9,3.892343597134E-8},
    {-6.86369532224E-5,6.655669550282E-6,-3.16521180341E-8,3.893334945823E-8},
    {-6.71875894425E-5,6.699708347307E-6,-1.48879926902E-8,3.961453965076E-8},
    {-6.87025591565E-5,6.660362477488E-6,4.433042245117E-9,3.821981855825E-8},
    {-6.9473804097E-5,6.633642407349E-6,-1.65830721682E-9,3.99770883639E-8},
    {-6.98537369915E-5,6.64643306921E-6,-9.73528263766E-9,3.890446744915E-8},
    {-6.88995651069E-5,6.645566084237E-6,4.926202408695E-9,3.959547378609E-8},
    {-6.87942184587E-5,6.711056041823E-6,-4.04148358236E-8,3.86845931383E-8},
    {-6.88872973726E-5,6.747287912287E-6,-3.92799081072E-8,3.818076342164E-8},
    {-6.82764634881E-5,6.671012857617E-6,-4.55278395076E-9,3.844391373652E-8},
    {-6.8425189977E-5,6.67649491353E-6,4.39568843334E-10,3.889021533301E-8},
    {-6.92725197643E-5,6.684109807904E-6,-5.21469480033E-8,3.832307329417E-8},
    {-6.88937458908E-5,6.672424220437E-6,-1.13645686172E-8,3.952573803214E-8},
    {-6.89625126353E-5,6.643683362249E-6,-1.89624310915E-8,3.825452776203E-8},
    {-6.87954460968E-5,6.674309290023E-6,-3.06079999213E-8,3.908709523985E-8},
    {-6.89989502521E-5,6.651817014983E-6,-4.83189400579E-8,3.847920127493E-8},
    {-6.88885464823E-5,6.694990539026E-6,2.450299958641E-8,4.008753456936E-8},
    {-6.95033590403E-5,6.674744473493E-6,-6.92436676182E-8,3.790884407922E-8}}},
  {{4.35136542332E-15,1.31997805554E-14,1.23452248398E-12},{Residual->1.28966615407E-15}},
  {{-.2,4.97211600656E-14},{-.15,3.14027817961E-14},{-.1,1.69589873606E-14},{-.05,7.26264957033E-15},{0,1.50456872687E-15},
   {.05,8.06237569923E-15},{.1,1.86628885106E-14},{.15,3.4576199824E-14},{.2,5.61890498541E-14}}},
 {"Y44",1,
  {7.212751439716E-7,6.66479637958E-6,2.801781623998E-8,3.900775388959E-8,{{-6.93323412107E-5,6.637364562291E-6,-1.11654317032E-8,
     3.918184820629E-8},
    {-6.91287746733E-5,6.653673487607E-6,-3.29797577544E-8,3.854758358097E-8},
    {-6.83101649523E-5,6.659025895395E-6,-3.27443516304E-8,3.830633112983E-8},
    {-6.83966979058E-5,6.673579835393E-6,-2.96989119998E-8,3.893888738768E-8},
    {-7.02348799256E-5,6.633370567577E-6,3.384685759077E-8,3.974063094921E-8},
    {-6.99494849522E-5,6.675623096349E-6,-6.33820031078E-8,3.875855365237E-8},
    {-6.83238122142E-5,6.672800432134E-6,2.198647651478E-8,3.991976388938E-8},
    {-6.83631135129E-5,6.706859401301E-6,-5.343181304E-8,3.786479662527E-8},
    {-6.94462554015E-5,6.632947497936E-6,-2.52885959615E-8,3.851163705849E-8},
    {-6.89719854751E-5,6.649908173174E-6,-6.36969684752E-8,3.826828897892E-8},
    {-6.85500251923E-5,6.678691723435E-6,-2.98872207934E-8,3.900232145083E-8},
    {-6.81701831768E-5,6.716570580582E-6,-1.47197714944E-8,4.050428646993E-8},
    {-6.84255794311E-5,6.689923936369E-6,1.859341355278E-8,4.020643885407E-8},
    {-6.95514438784E-5,6.643126384058E-6,1.25789191613E-8,4.127918195583E-8},
    {-6.86278059099E-5,6.640711821183E-6,-5.87939507581E-8,3.813830607242E-8},
    {-6.8962780121E-5,6.660992410925E-6,-4.87178218824E-8,3.910407501995E-8},
    {-7.05512497739E-5,6.650662389E-6,-3.04409210337E-8,3.897089570378E-8},
    {-6.87143623804E-5,6.694682113472E-6,-1.8751263719E-8,3.864255965339E-8},
    {-6.76970018303E-5,6.638101068479E-6,-4.90398056354E-8,3.829716827119E-8},
    {-6.848986966E-5,6.687312214935E-6,-3.62700224161E-8,3.797152288203E-8}}},
  {{2.14534174068E-15,7.02231641315E-16,1.75928800652E-14},{Residual->3.56180968251E-16}},
  {{-.6,7.76819078199E-15},{-.4,5.16342106284E-15},{-.2,2.94787597852E-15},{1.11022302463E-16,1.50067186461E-15},
   {.2,2.98554099669E-15},{.4,5.54090487452E-15},{.6,8.81481229861E-15}}},
 {"AY",1,
  {7.537858321936E-7,6.681944803731E-6,1.986747764918E-8,3.840828818491E-8,{{-6.77810605394E-5,6.646669285769E-6,-5.51623015132E-8,
     3.871887337849E-8},
    {-6.77413404625E-5,6.673336556342E-6,1.006810388872E-8,3.869203411774E-8},
    {-6.82595079757E-5,6.683449455909E-6,-5.72254091654E-8,3.839273894549E-8},
    {-6.934165363E-5,6.679342091623E-6,-4.63391736583E-8,3.825715184104E-8},
    {-6.99127287808E-5,6.680113766834E-6,-4.17768619121E-8,3.815285239673E-8},
    {-6.95865550969E-5,6.642603324047E-6,-6.14764662364E-9,3.866712028166E-8},
    {-6.85281831512E-5,6.654085790926E-6,-1.25099358535E-8,3.859645073079E-8},
    {-6.95424352746E-5,6.639307095792E-6,-5.75377497127E-8,3.86273632155E-8},
    {-6.97445411114E-5,6.691678258652E-6,7.58905669043E-10,3.82416391502E-8},
    {-6.84548514153E-5,6.720653869949E-6,-9.88052869977E-9,3.813588341076E-8},
    {-6.76768003998E-5,6.675585569331E-6,-5.10728809348E-8,3.891640593586E-8},
    {-6.92230241962E-5,6.686572496137E-6,-2.09130401735E-8,3.828917431275E-8},
    {-6.79629906807E-5,6.707848323943E-6,-9.00576056807E-9,3.828571962309E-8},
    {-6.97016184092E-5,6.699825607126E-6,-4.03849823566E-8,3.809697885095E-8},
    {-6.91312057119E-5,6.661382604005E-6,-3.51101811431E-8,3.838600481747E-8},
    {-6.79250549059E-5,6.705329787455E-6,-1.50132443508E-8,3.848878709613E-8},
    {-6.82964956399E-5,6.671395755099E-6,-3.44411612551E-8,3.843655491545E-8},
    {-6.7965357199E-5,6.708171368321E-6,-2.76537608973E-8,3.826582278416E-8},
    {-6.92975230176E-5,6.707516625709E-6,-4.26503972973E-8,3.82162398919E-8},
    {-6.91587703104E-5,6.704028441653E-6,-2.33754199551E-8,3.830196800214E-8}}},
  {{1.4715281409E-15,1.82307345327E-14,1.06348723905E-12},{Residual->1.06586633938E-16}},
  {{-.1,1.01796882891E-14},{-.07,5.53761213829E-15},{-.04,2.45950494901E-15},{-.01,1.49191287096E-15},{.02,2.12185043384E-15},
   {.05,4.93571408744E-15},{.08,9.84258229184E-15}}},
 {"EY",1,
  {6.008503749058E-7,6.670850316439E-6,3.013602409357E-8,3.847433784738E-8,{{-6.61802753898E-5,6.712772419759E-6,-1.11748641501E-7,
     3.840149539334E-8},
    {-6.52780926728E-5,6.653905138437E-6,-1.82105364456E-7,3.883619729227E-8},
    {-6.66773994472E-5,6.700811477627E-6,-1.23258965962E-7,3.853379958659E-8},
    {-6.63953768281E-5,6.68513237038E-6,-1.16788486633E-7,3.826388949493E-8},
    {-6.62024906529E-5,6.72350425437E-6,-1.29478632874E-7,3.810440922022E-8},
    {-6.5833115513E-5,6.635135485767E-6,-6.9434876205E-8,3.855240622494E-8},
    {-6.644842823E-5,6.680604166862E-6,-1.45766010693E-7,3.827296401414E-8},
    {-6.68818224676E-5,6.703222458001E-6,-1.03372113306E-7,3.819300056578E-8},
    {-6.70543779778E-5,6.663873891949E-6,-9.73097116395E-8,3.842781146844E-8},
    {-6.69206252673E-5,6.669985086119E-6,-1.23878016908E-7,3.844679966675E-8},
    {-6.71485900032E-5,6.647799213407E-6,-1.69464484764E-7,3.844781143262E-8},
    {-6.66513759198E-5,6.669155062769E-6,-7.84593833879E-8,3.884532396887E-8},
    {-6.72689022549E-5,6.688494504317E-6,-1.04095729529E-7,3.836668284547E-8},
    {-6.73336914255E-5,6.65782062357E-6,-1.51359850876E-7,3.831245124621E-8},
    {-6.63033134308E-5,6.642173213679E-6,-1.10269372043E-7,3.837719491444E-8},
    {-6.71986348448E-5,6.641806454715E-6,-1.25927189349E-7,3.84239721788E-8},
    {-6.76996702052E-5,6.662044778333E-6,-9.39019038643E-8,3.867466071349E-8},
    {-6.70743715606E-5,6.657870015479E-6,-1.17343020249E-7,3.830843923344E-8},
    {-6.74747600751E-5,6.672611067626E-6,-1.24743406289E-7,3.857874405189E-8},
    {-6.59992535562E-5,6.648284645622E-6,-1.83603889031E-7,3.911870343505E-8}}},
  {{1.47744944589E-15,3.09086252543E-15,4.2732345094E-13},{Residual->2.29159166432E-17}},
  {{-.1,5.42580280116E-15},{-.07,3.36148022343E-15},{-.04,2.06318456051E-15},{-.01,1.50331936285E-15},{.02,1.68600599723E-15},
   {.05,2.66617257664E-15},{.08,4.48749760197E-15}}},
 {"R32",1,
  {5.512800028187E-7,6.677369103068E-6,1.999769913625E-8,3.821379175505E-8,{{-6.73808002613E-5,6.659149628255E-6,3.208945669256E-7,
     3.816384974332E-8},
    {-6.73211387593E-5,6.667994886067E-6,3.197392542567E-7,3.823485209367E-8},
    {-6.77212165936E-5,6.667219018949E-6,3.453280332291E-7,3.86327769521E-8},
    {-6.77680917863E-5,6.671891080859E-6,3.515127031809E-7,3.817049277161E-8},
    {-6.67740506213E-5,6.660753342338E-6,3.310784697104E-7,3.839449741144E-8},
    {-6.65202707471E-5,6.687648586352E-6,3.145528973836E-7,3.812202595411E-8},
    {-6.65009881287E-5,6.762629727369E-6,3.091355506163E-7,3.790085195131E-8},
    {-6.66486702404E-5,6.70387109749E-6,2.889158116506E-7,3.810198227762E-8},
    {-6.65571135884E-5,6.684428806098E-6,3.021639124131E-7,3.815341617667E-8},
    {-6.7497681657E-5,6.662209012662E-6,2.998182481241E-7,3.812798457456E-8},
    {-6.64485679892E-5,6.680211981794E-6,2.890970214889E-7,3.821899185921E-8},
    {-6.66153687407E-5,6.703088271589E-6,3.347531168752E-7,3.858055514454E-8},
    {-6.68112360303E-5,6.701806533538E-6,3.410666493965E-7,3.803565767579E-8},
    {-6.72401383714E-5,6.675147218863E-6,3.253636553699E-7,3.809633182241E-8},
    {-6.65644218708E-5,6.649828367483E-6,3.279801323612E-7,3.817318370469E-8},
    {-6.76960019304E-5,6.646219535057E-6,3.241381883015E-7,3.81995345223E-8},
    {-6.74806989482E-5,6.68378328785E-6,3.604773735182E-7,3.805314790684E-8},
    {-6.85408091574E-5,6.643816103669E-6,3.089127250291E-7,3.853433898467E-8},
    {-6.71466730027E-5,6.670287519166E-6,3.018730546387E-7,3.816952242176E-8},
    {-6.73201310544E-5,6.665398055903E-6,2.957628242434E-7,3.821184115234E-8}}},
  {{1.51987813469E-15,-8.0407285512E-16,7.65334104417E-13},{Residual->4.49355201854E-17}},
  {{-.1,9.23579978524E-15},{-.07,5.38086718897E-15},{-.04,2.76175567731E-15},{-.01,1.53561417733E-15},{.02,1.82709599954E-15},
   {.05,3.4585982972E-15},{.08,6.31785422151E-15}}},
 {"Y24",1,
  {7.008522823223E-7,6.678569423795E-6,2.05972329728E-8,3.874790454379E-8,{{-6.65316128525E-5,6.677356254663E-6,2.504513089348E-7,
     3.838677810757E-8},
    {-6.49730862106E-5,6.687591530683E-6,2.556153333901E-7,3.8621724361E-8},
    {-6.70757306494E-5,6.671498138267E-6,2.738477278437E-7,3.869355781506E-8},
    {-6.64886319591E-5,6.661453043682E-6,2.816068595908E-7,3.837681438281E-8},
    {-6.72762687085E-5,6.684340281238E-6,2.584972185437E-7,3.826007552286E-8},
    {-6.61493564368E-5,6.709315546135E-6,2.984885605112E-7,3.867388656428E-8},
    {-6.60010497399E-5,6.667681735243E-6,2.645180999593E-7,3.831910354169E-8},
    {-6.6282566806E-5,6.739991838955E-6,2.656242729371E-7,3.87914951525E-8},
    {-6.73154325447E-5,6.704869365103E-6,2.733777294138E-7,3.894747209988E-8},
    {-6.65593454092E-5,6.67639145957E-6,3.226374555067E-7,3.947695679236E-8},
    {-6.58978814293E-5,6.689533267221E-6,2.475706647109E-7,3.836237021294E-8},
    {-6.69403392604E-5,6.670942201551E-6,2.57203264053E-7,3.862471975672E-8},
    {-6.70604331283E-5,6.680189357358E-6,2.417840818206E-7,3.845499439031E-8},
    {-6.654888692E-5,6.664183798032E-6,2.502609238335E-7,3.844374934258E-8},
    {-6.65119201488E-5,6.697434314124E-6,2.794238798171E-7,3.838029307207E-8},
    {-6.81246039646E-5,6.656982017069E-6,2.935502842094E-7,4.052797716631E-8},
    {-6.66857571774E-5,6.690893081827E-6,2.661885782166E-7,3.892822924703E-8},
    {-6.5915735142E-5,6.643861510821E-6,3.00490018574E-7,3.881367524581E-8},
    {-6.78479787393E-5,6.666474008398E-6,2.653034146304E-7,3.943175424087E-8},
    {-6.62518463327E-5,6.630405725962E-6,2.474002195136E-7,3.84424638612E-8}}},
  {{1.49632514776E-15,-4.3880976229E-17,1.52137450029E-15},{Residual->1.45507531056E-18}},
  {{-.3,1.64576335501E-15},{-.2,1.56788251501E-15},{-.1,1.51363884781E-15},{5.55111512313E-17,1.49742543503E-15},
   {.1,1.50806372843E-15},{.2,1.54669755827E-15},{.3,1.62078945481E-15}}},
 {"Y46",1,
  {5.101202847796E-7,6.679331048813E-6,2.169588361205E-8,3.884669747668E-8,{{-6.66040960361E-5,6.680000600159E-6,2.262136983242E-7,
     3.824560992727E-8},
    {-6.61410352302E-5,6.671505676353E-6,2.850293059553E-7,3.892020347682E-8},
    {-6.7043854789E-5,6.703754671724E-6,2.498719886192E-7,3.817503731204E-8},
    {-6.6885670646E-5,6.657138313608E-6,3.100072377698E-7,4.067311408713E-8},
    {-6.68679175706E-5,6.686589473091E-6,2.736205716251E-7,3.846342990594E-8},
    {-6.72644464593E-5,6.672814236072E-6,2.53978566847E-7,3.840751707679E-8},
    {-6.66498069749E-5,6.662076029708E-6,2.505422843715E-7,3.870354072038E-8},
    {-6.61464392347E-5,6.71463637265E-6,2.783600433131E-7,3.906464101645E-8},
    {-6.69431149769E-5,6.695358799213E-6,2.828260104596E-7,3.826613270882E-8},
    {-6.69743389202E-5,6.661741934424E-6,2.56572993831E-7,3.884846287654E-8},
    {-6.51619959979E-5,6.695661667933E-6,2.831391259393E-7,3.840812308159E-8},
    {-6.6727585013E-5,6.67099581578E-6,2.910184937911E-7,3.851239954742E-8},
    {-6.65677011235E-5,6.637236703903E-6,2.661918670098E-7,3.888653496777E-8},
    {-6.7115759572E-5,6.667125243599E-6,2.708090262004E-7,3.919594260001E-8},
    {-6.62751187346E-5,6.678467271041E-6,3.043501300133E-7,3.98865791283E-8},
    {-6.7042648107E-5,6.701226163471E-6,2.66122324169E-7,3.904486802852E-8},
    {-6.72832555239E-5,6.675212060554E-6,3.095726454042E-7,3.996478539012E-8},
    {-6.70442683419E-5,6.695870797698E-6,2.459085140275E-7,3.82065183496E-8},
    {-6.6724442273E-5,6.694263175799E-6,2.740183051552E-7,3.858259624313E-8},
    {-6.75213891881E-5,6.664945969476E-6,2.536923258137E-7,3.847791308896E-8}}},
  {{1.51692093369E-15,-3.4813892443E-16,6.66578423734E-15},{Residual->2.70741818395E-17}},
  {{-.45,3.00107990049E-15},{-.3,2.2737435876E-15},{-.15,1.70243632804E-15},{-5.5511151231E-17,1.484364086E-15},
   {.15,1.62273322816E-15},{.3,2.03235393135E-15},{.45,2.70117954375E-15}}},
 {"Y22",1,
  {5.711254446561E-7,6.677032568548E-6,1.691301197966E-8,3.853248590152E-8,{{-6.722296734E-5,6.644331985814E-6,2.750959248775E-7,
     3.889954535403E-8},
    {-6.60940799796E-5,6.660378931845E-6,3.007065610991E-7,3.903333281274E-8},
    {-6.7226881214E-5,6.677275555743E-6,2.797752516755E-7,3.855849302413E-8},
    {-6.72964202757E-5,6.673377206088E-6,2.531211133639E-7,3.827587513438E-8},
    {-6.64251513778E-5,6.734112756405E-6,2.815190897516E-7,3.848170745967E-8},
    {-6.54919003367E-5,6.665057194349E-6,2.348337607131E-7,3.825023150015E-8},
    {-6.65237958706E-5,6.684975610573E-6,2.578642102482E-7,3.845560863959E-8},
    {-6.70343332783E-5,6.649695803273E-6,2.51705235945E-7,3.851086372059E-8},
    {-6.58575884131E-5,6.643033761311E-6,2.481115425457E-7,3.85840541397E-8},
    {-6.54976888395E-5,6.670252696131E-6,2.730933071729E-7,3.824363469858E-8},
    {-6.71664793095E-5,6.659879872512E-6,2.816889233471E-7,3.870762074034E-8},
    {-6.61040742808E-5,6.690655405117E-6,2.605720456327E-7,3.818322920328E-8},
    {-6.58349641794E-5,6.669056095629E-6,2.691043752271E-7,3.826392348657E-8},
    {-6.69023266889E-5,6.672048706168E-6,2.864713882877E-7,3.869051519657E-8},
    {-6.64709258844E-5,6.674102698992E-6,2.585062115262E-7,3.889983698857E-8},
    {-6.69950297248E-5,6.701689091683E-6,2.538000747167E-7,3.828501126784E-8},
    {-6.70902994406E-5,6.68016014445E-6,2.793547576539E-7,3.867536880459E-8},
    {-6.65618996252E-5,6.67560642647E-6,2.765541578342E-7,3.879370468454E-8},
    {-6.69762587187E-5,6.708974445049E-6,2.744085083032E-7,3.860276328947E-8},
    {-6.65060758322E-5,6.705986983364E-6,2.349891267334E-7,3.8254397885E-8}}},
  {{2.65290257886E-15,2.85774761042E-15,3.32656348465E-14},{Residual->6.15266570631E-16}},
  {{-.6,1.23911891705E-14},{-.4,7.61046203009E-15},{-.2,3.99248221359E-15},{1.11022302463E-16,1.4931749778E-15},
   {.2,4.61006932379E-15},{.4,9.41106301331E-15},{.6,1.6319388351E-14}}},
 {"Y26",1,
  {6.382035694043E-7,6.670827875837E-6,2.104044471556E-8,3.859524472607E-8,{{-6.71589936171E-5,6.674817485329E-6,2.704728209548E-7,
     3.975114526826E-8},
    {-6.59739173263E-5,6.66844004303E-6,2.565427040045E-7,3.849706427149E-8},
    {-6.68253244425E-5,6.707128655806E-6,2.64563036988E-7,3.858468640259E-8},
    {-6.67961045982E-5,6.643160375152E-6,2.740235943445E-7,3.882813428222E-8},
    {-6.73044449913E-5,6.670694212425E-6,2.484053080646E-7,3.917503059673E-8},
    {-6.61941973212E-5,6.675071268467E-6,2.537697965333E-7,3.81828854247E-8},
    {-6.71882011002E-5,6.671576350835E-6,2.248185824677E-7,3.830493199643E-8},
    {-6.77126494863E-5,6.636992015892E-6,2.38326104596E-7,3.85300814525E-8},
    {-6.67828753768E-5,6.688905339345E-6,2.677263379386E-7,3.869515060175E-8},
    {-6.5902370721E-5,6.677545290816E-6,2.840584645943E-7,3.901460588528E-8},
    {-6.68195508562E-5,6.68665828135E-6,2.375470573348E-7,3.82356531208E-8},
    {-6.78074071457E-5,6.658243225225E-6,2.300696864341E-7,3.832211840434E-8},
    {-6.64130783971E-5,6.638813703788E-6,3.11298949092E-7,3.878369451916E-8},
    {-6.58887040681E-5,6.669535970238E-6,2.613564871992E-7,3.846717035649E-8},
    {-6.65269426746E-5,6.650511959748E-6,2.550619704382E-7,3.828583332E-8},
    {-6.59967488279E-5,6.675976460566E-6,2.569331406708E-7,3.841826178795E-8},
    {-6.70367919016E-5,6.683201602463E-6,2.663215339926E-7,3.866080019756E-8},
    {-6.74524882698E-5,6.676571350939E-6,2.611274251471E-7,3.827813379445E-8},
    {-6.67318975717E-5,6.679057465595E-6,2.363782427934E-7,3.82096859397E-8},
    {-6.540804706E-5,6.683656459726E-6,2.964742121741E-7,3.867982689904E-8}}},
  {{1.72297012254E-15,-2.2455938991E-15,4.8348009705E-14},{Residual->1.26053691489E-16}},
  {{-.3,6.74301880584E-15},{-.2,4.16418168456E-15},{-.1,2.44620667576E-15},{5.55111512313E-17,1.48206161467E-15},
   {.1,2.10596541409E-15},{.2,3.36040001001E-15},{.3,5.29639937024E-15}}},
 {"Y66",1,
  {4.909297864855E-7,6.673118985044E-6,2.006288542026E-8,3.863103998325E-8,{{-6.62181555471E-5,6.681156912716E-6,2.916820520183E-7,
     3.845950251646E-8},
    {-6.63475863074E-5,6.660563954151E-6,3.125014509087E-7,3.831548308583E-8},
    {-6.65330684679E-5,6.705472328318E-6,2.494528132606E-7,3.815421715146E-8},
    {-6.65637895513E-5,6.64425789305E-6,2.751413405958E-7,3.8501363503E-8},
    {-6.76271849938E-5,6.686014150517E-6,2.743050818761E-7,3.895346615711E-8},
    {-6.69984989426E-5,6.669730092206E-6,2.640065458386E-7,3.82274769796E-8},
    {-6.67621638231E-5,6.671124201892E-6,2.687440312284E-7,3.912130776515E-8},
    {-6.66435465785E-5,6.652787784688E-6,2.968217172612E-7,3.86581855416E-8},
    {-6.72543331262E-5,6.688365951649E-6,2.877353798374E-7,3.921541312253E-8},
    {-6.71306467904E-5,6.663497213001E-6,2.497834524139E-7,3.830191753988E-8},
    {-6.60255283405E-5,6.686811595878E-6,2.230355536073E-7,3.822835289002E-8},
    {-6.74278114848E-5,6.68050593822E-6,2.510452937785E-7,3.825764544196E-8},
    {-6.74682445142E-5,6.667934372602E-6,2.783144172607E-7,4.06268005627E-8},
    {-6.63084684803E-5,6.64988640813E-6,2.593226870343E-7,3.83092240693E-8},
    {-6.62371398398E-5,6.70375836186E-6,2.622713276718E-7,3.850462386828E-8},
    {-6.71165138311E-5,6.67509243458E-6,2.680515622808E-7,3.825232657142E-8},
    {-6.71939838045E-5,6.642460058412E-6,2.784974560653E-7,3.847382539402E-8},
    {-6.76185065098E-5,6.673880317944E-6,2.467928147935E-7,3.858062719688E-8},
    {-6.72361681197E-5,6.682422020722E-6,2.891856228168E-7,3.922822966729E-8},
    {-6.6571102463E-5,6.676657710337E-6,2.636106091656E-7,3.82508106405E-8}}},
  {{4.20508961661E-15,1.86695477015E-14,1.20361597762E-12},{Residual->1.31745451498E-15}},
  {{-.2,4.77196634387E-14},{-.15,2.85524441745E-14},{-.1,1.65760225479E-14},{-.05,6.97182955972E-15},{0,1.4910420902E-15},
   {.05,7.72837604939E-15},{.1,1.94098785185E-14},{.15,3.36354162993E-14},{.2,5.63035305136E-14}}},
 {"Y44",1,
  {5.342589300406E-7,6.675480525804E-6,2.919361336039E-8,3.863226866294E-8,{{-6.72149855267E-5,6.678102532287E-6,2.370355626202E-7,
     3.826636799519E-8},
    {-6.65104291503E-5,6.645737276203E-6,1.84541054889E-7,3.870249776472E-8},
    {-6.6609182918E-5,6.672961907694E-6,2.336206266448E-7,3.824156365816E-8},
    {-6.75984304168E-5,6.717873511285E-6,2.3050023127E-7,3.82919277422E-8},
    {-6.6687687624E-5,6.648953991794E-6,2.19197124788E-7,3.836893726268E-8},
    {-6.75352670857E-5,6.707708788017E-6,2.847311794113E-7,3.839641244118E-8},
    {-6.59325358578E-5,6.670463695629E-6,2.645822759493E-7,3.845421720559E-8},
    {-6.79295733851E-5,6.681200882981E-6,1.993718661089E-7,3.82799601279E-8},
    {-6.7565917052E-5,6.713816819807E-6,2.893631523919E-7,3.945991679883E-8},
    {-6.65145758996E-5,6.687870912536E-6,2.490911796653E-7,3.828626885377E-8},
    {-6.68572350639E-5,6.678849026523E-6,2.532898780396E-7,3.873837325811E-8},
    {-6.6588135327E-5,6.642095484181E-6,2.622858143479E-7,3.843901970712E-8},
    {-6.65571150323E-5,6.678961510327E-6,2.256404804589E-7,3.845348151132E-8},
    {-6.67475243074E-5,6.687967559852E-6,2.830298195327E-7,3.903866366238E-8},
    {-6.66101353675E-5,6.692579193705E-6,2.362864922935E-7,3.860714218727E-8},
    {-6.6988527589E-5,6.662892421831E-6,2.434632723806E-7,3.881373370703E-8},
    {-6.67811495083E-5,6.666187346506E-6,2.644335329732E-7,3.903369994345E-8},
    {-6.71834841253E-5,6.650172067773E-6,2.733501338006E-7,3.96357758705E-8},
    {-6.5770287387E-5,6.668463192038E-6,2.940550687859E-7,3.864794500349E-8},
    {-6.72994672965E-5,6.656752395106E-6,2.763100640291E-7,3.848946855793E-8}}},
  {{2.0411904865E-15,1.22517539859E-15,1.78990538749E-14},{Residual->3.09604202291E-16}},
  {{-.6,7.4437163411E-15},{-.4,4.85985688782E-15},{-.2,2.7955039751E-15},{1.11022302463E-16,1.503154484E-15},
   {.2,3.05752235911E-15},{.4,5.37673244771E-15},{.6,9.29878725054E-15}}},
 {"OCT1",1,
  {6.485663506834E-7,6.791191919059E-6,2.354198067546E-8,3.859762230137E-8,{{-6.67866407863E-5,6.7354002145E-6,2.89984431774E-7,
     3.833043262321E-8},
    {-6.78131080152E-5,6.74957700743E-6,2.323105647918E-7,3.834297557264E-8},
    {-6.69848472845E-5,6.778369162299E-6,2.911817199957E-7,3.893227510231E-8},
    {-6.72350499789E-5,6.75471802012E-6,2.989323903215E-7,3.832080725056E-8},
    {-6.65731549522E-5,6.770995522902E-6,2.564424030033E-7,3.867856512924E-8},
    {-6.75479625036E-5,6.763554191211E-6,2.993915544919E-7,3.931414807886E-8},
    {-6.65851916982E-5,6.801376194065E-6,2.805525508217E-7,3.95447119713E-8},
    {-6.57921806644E-5,6.806931708913E-6,2.784630121313E-7,3.817746479235E-8},
    {-6.66646005562E-5,6.798015183212E-6,2.724838948534E-7,3.938761378034E-8},
    {-6.60312559216E-5,6.831101033704E-6,2.974333354136E-7,3.821135061903E-8},
    {-6.61471189213E-5,6.780437892077E-6,2.86683398451E-7,3.840253863614E-8},
    {-6.65903823272E-5,6.848511481472E-6,2.153736274775E-7,3.829558073292E-8},
    {-6.70045735065E-5,6.899433829851E-6,2.240045653974E-7,3.85898485487E-8},
    {-6.52102313493E-5,6.833198837396E-6,2.598873431381E-7,3.812447113634E-8},
    {-6.66211689058E-5,6.810707691779E-6,2.696098439149E-7,3.838745117271E-8},
    {-6.69532431474E-5,6.747480268823E-6,2.783837780848E-7,3.865060707406E-8},
    {-6.70170936624E-5,6.830075368771E-6,2.642186875232E-7,3.8458576994E-8},
    {-6.81054810641E-5,6.736375907798E-6,2.821964393902E-7,3.92053448343E-8},
    {-6.65067614354E-5,6.796238087469E-6,2.541855629546E-7,3.833190353813E-8},
    {-6.66787184008E-5,6.751340777396E-6,2.674369019824E-7,3.826577844024E-8}}},
  {{1.5257606995E-15,5.88326291207E-19,3.40669097321E-21},{Residual->2.14928951963E-17}},
  {{-370,1.76168977338E-15},{-296,1.66154463421E-15},{-222,1.58528438382E-15},{-148,1.52338353468E-15},{-74,1.47941361598E-15},
   {0,1.4824489589E-15},{74,1.59012758816E-15},{148,1.70036253924E-15},{222,1.85635306557E-15},{296,2.00850655155E-15},
   {370,2.18633983637E-15}}},
 {"OCT2",1,
  {6.249198300252E-7,6.76556646671E-6,2.841531364415E-8,3.851660242801E-8,{{-6.58042833689E-5,6.74185845493E-6,2.429252967534E-7,
     3.869303414962E-8},
    {-6.63889159977E-5,6.739998823075E-6,2.573983179206E-7,3.821897561063E-8},
    {-6.56706676411E-5,6.767450728951E-6,2.46021577357E-7,3.81406386397E-8},
    {-6.64510881334E-5,6.794238485214E-6,3.025713028423E-7,3.844420569813E-8},
    {-6.72727526545E-5,6.797990062384E-6,2.776138954001E-7,3.878675505131E-8},
    {-6.64472834502E-5,6.796741623227E-6,2.139962011722E-7,3.830013324342E-8},
    {-6.61889034645E-5,6.793348219141E-6,2.78657569168E-7,3.837585116612E-8},
    {-6.61094769491E-5,6.744188009085E-6,2.525969531406E-7,3.824139636069E-8},
    {-6.76443436412E-5,6.742879474184E-6,2.177206648627E-7,3.839575828496E-8},
    {-6.68162856585E-5,6.756375964457E-6,2.785448158995E-7,3.869656261347E-8},
    {-6.61100409953E-5,6.803208242451E-6,2.43224030691E-7,3.817322218847E-8},
    {-6.57641622054E-5,6.755674328053E-6,2.546105508973E-7,3.836444738082E-8},
    {-6.66690415818E-5,6.755480545861E-6,2.854634774524E-7,3.834264374037E-8},
    {-6.65505283124E-5,6.794012381761E-6,3.049882643243E-7,3.872407346833E-8},
    {-6.66068173909E-5,6.737236374745E-6,2.359183380018E-7,3.837621049819E-8},
    {-6.64556715144E-5,6.757149667095E-6,2.897873691613E-7,3.851817325609E-8},
    {-6.7048606806E-5,6.795337098535E-6,2.274514745627E-7,3.82214166923E-8},
    {-6.71838007381E-5,6.759651708481E-6,2.596648698102E-7,3.842788242028E-8},
    {-6.82358336388E-5,6.731523680308E-6,2.716920265526E-7,3.845574231294E-8},
    {-6.68040948035E-5,6.746985462254E-6,3.184028475998E-7,4.04349257843E-8}}},
  {{1.47735814946E-15,-4.7717185526E-20,1.57091208375E-22},{Residual->4.47954226069E-18}},
  {{-370,1.5182374769E-15},{-296,1.50470841043E-15},{-222,1.49486786913E-15},{-148,1.48840109491E-15},{-74,1.47705765637E-15},
   {0,1.4829800561E-15},{74,1.46601944528E-15},{148,1.48050091084E-15},{222,1.47479215698E-15},{296,1.48148820775E-15},
   {370,1.47654320423E-15}}}}
