FD	 6.637240E-6	 6.574506E-7	
EX2	 6.647186E-6	 6.817692E-7	
FD	 6.644653E-6	 6.589049E-7	
AY	 6.841480E-6	 8.632928E-7	
EY	 7.329270E-6	 5.777142E-7	
R32	 6.625606E-6	 1.377351E-7	
AY	 6.623812E-6	 1.380429E-7	
EY	 6.724771E-6	 8.818500E-8	
R32	 6.804161E-6	 5.338737E-8	
AY	 6.812604E-6	 5.484097E-8	
EY	 6.806794E-6	 5.427423E-8	
R32	 6.771507E-6	 6.232296E-8	
AY	 6.761127E-6	 6.077331E-8	
EY	 6.756162E-6	 6.240120E-8	
R32	 6.741166E-6	 7.526704E-8	
Y24	 6.728329E-6	 6.504879E-8	
Y46	 6.710689E-6	 6.471799E-8	
Y22	 6.710689E-6	 6.471799E-8	
Y26	 6.710689E-6	 6.471799E-8	
Y66	 6.710689E-6	 6.471799E-8	
Y44	 6.710689E-6	 6.471799E-8	
AY	 6.739328E-6	 6.608858E-8	
EY	 6.767644E-6	 7.452160E-8	
R32	 6.821079E-6	 8.143733E-8	
Y24	 6.823267E-6	 6.961750E-8	
Y46	 6.876490E-6	 6.119919E-8	
Y22	 6.876489E-6	 6.119850E-8	
Y26	 6.876489E-6	 6.119850E-8	
Y66	 6.876489E-6	 6.119850E-8	
Y44	 6.876489E-6	 6.119850E-8	
AY	 6.832821E-6	 8.880922E-8	
EY	 6.793617E-6	 8.372821E-8	
R32	 6.835913E-6	 8.682297E-8	
Y24	 6.826743E-6	 8.259617E-8	
Y46	 6.826743E-6	 8.259617E-8	
Y22	 6.826743E-6	 8.259617E-8	
Y26	 6.833643E-6	 8.009759E-8	
Y66	 6.832522E-6	 7.779543E-8	
Y44	 6.832522E-6	 7.779543E-8	
AY	 6.842227E-6	 7.523744E-8	
EY	 6.827956E-6	 6.881910E-8	
R32	 6.809757E-6	 6.776344E-8	
Y24	 6.821672E-6	 6.036890E-8	
Y46	 6.873208E-6	 5.851023E-8	
Y22	 6.871375E-6	 5.354261E-8	
Y26	 6.871375E-6	 5.354261E-8	
Y66	 6.871375E-6	 5.354261E-8	
Y44	 6.873485E-6	 5.112017E-8	
