FD	 1.310642E-5	 3.248965E-7	
EX2	 1.269156E-5	 5.066897E-7	
FD	 1.268756E-5	 3.264772E-7	
AY	 1.342322E-5	 3.745562E-7	
EY	 1.347165E-5	 3.006304E-7	
R32	 1.331519E-5	 7.435211E-8	
AY	 1.332509E-5	 6.685994E-8	
EY	 1.332956E-5	 3.364653E-8	
R32	 1.332834E-5	 3.331034E-8	
AY	 1.332834E-5	 3.292716E-8	
EY	 1.332835E-5	 3.288316E-8	
R32	 1.332893E-5	 3.316629E-8	
AY	 1.332905E-5	 3.315847E-8	
EY	 1.332914E-5	 3.331041E-8	
R32	 1.332843E-5	 3.305803E-8	
Y24	 1.332843E-5	 3.305803E-8	
Y46	 1.332099E-5	 3.257695E-8	
Y22	 1.332099E-5	 3.257695E-8	
Y26	 1.332606E-5	 3.114427E-8	
Y66	 1.332606E-5	 3.114427E-8	
Y44	 1.332592E-5	 3.105895E-8	
AY	 1.332622E-5	 3.089641E-8	
EY	 1.332606E-5	 3.049358E-8	
R32	 1.332733E-5	 3.039866E-8	
Y24	 1.332460E-5	 3.027387E-8	
Y46	 1.331537E-5	 2.964424E-8	
Y22	 1.331537E-5	 2.964424E-8	
Y26	 1.331537E-5	 2.964424E-8	
Y66	 1.331537E-5	 2.964424E-8	
Y44	 1.331537E-5	 2.964424E-8	
AY	 1.331968E-5	 2.940916E-8	
EY	 1.331884E-5	 2.942013E-8	
R32	 1.331836E-5	 2.948962E-8	
Y24	 1.332101E-5	 2.936116E-8	
Y46	 1.331284E-5	 2.894775E-8	
Y22	 1.331284E-5	 2.894775E-8	
Y26	 1.331284E-5	 2.894775E-8	
Y66	 1.331284E-5	 2.894775E-8	
Y44	 1.331284E-5	 2.894775E-8	
AY	 1.331334E-5	 2.882985E-8	
EY	 1.331365E-5	 2.869778E-8	
R32	 1.331415E-5	 2.868115E-8	
Y24	 1.331720E-5	 2.849494E-8	
Y46	 1.331106E-5	 2.828535E-8	
Y22	 1.331106E-5	 2.828535E-8	
Y26	 1.331106E-5	 2.828535E-8	
Y66	 1.331106E-5	 2.828535E-8	
Y44	 1.331106E-5	 2.828535E-8	
