{{"FD",1,{1.873943613091E-5,1.450761612541E-5,-4.47540052613E-7,1.537177529101E-6}},
 {"EX2",1,{1.250735350464E-5,1.331710629977E-5,3.813950061497E-6,1.580295783016E-6}},
 {"FD",1,{1.243536545059E-5,1.331306880977E-5,3.810996837539E-6,1.544990201603E-6}},
 {"AY",1,{1.327604729788E-5,1.450580946781E-5,3.911929113282E-6,2.863761837174E-6},
  {{8.20384089272E-12,-2.305611328E-13,3.17575233781E-12},{Residual->6.58803505057E-15}},
  {{-.5,9.11590056838E-12},{-.35,8.67575303043E-12},{-.2,8.36562858205E-12},{-.05,8.22081188428E-12},{.1,8.22368325435E-12},
   {.25,8.34733454017E-12},{.4,8.61477042458E-12}}},
 {"EY",1,{2.751442255045E-5,1.828195572487E-5,4.004925219363E-6,2.426947144841E-6},
  {{8.19533629722E-12,-2.0741171439E-12,4.04723679006E-13},{Residual->3.97367425357E-15}},
  {{-.5,9.3310264451E-12},{-.35,8.97179797316E-12},{-.2,8.6312823266E-12},{-.05,8.30015078284E-12},{.1,7.99089934988E-12},
   {.25,7.69480804775E-12},{.4,7.43538873772E-12}}},
 {"R32",1,{4.293012489376E-7,1.350562792437E-5,4.371997650021E-6,1.16329859205E-6},
  {{5.89056900296E-12,-2.5163641061E-12,3.95071368473E-13},{Residual->5.41013784317E-15}},
  {{-.5,7.25074420299E-12},{-.35,6.81956032716E-12},{-.2,6.40164056426E-12},{-.05,6.01641968056E-12},{.1,5.64671759476E-12},
   {.25,5.29469338503E-12},{.4,4.94074341415E-12}}},
 {"AY",1,{4.031763660151E-7,1.35061695837E-5,4.357341220673E-6,1.163532368814E-6},
  {{1.35333212268E-12,3.27111302311E-14,3.04975596505E-12},{Residual->6.09333980414E-15}},
  {{-.5,2.10291145423E-12},{-.35,1.71556331067E-12},{-.2,1.46049830492E-12},{-.05,1.35561989629E-12},{.1,1.39460659691E-12},
   {.25,1.55993822881E-12},{.4,1.84745515869E-12}}},
 {"EY",1,{7.765285700568E-6,1.42505356985E-5,4.421684375269E-6,9.080335773075E-7},
  {{1.3535290197E-12,-9.6993954764E-13,3.84539722011E-13},{Residual->6.23611853716E-16}},
  {{-.5,1.93443713549E-12},{-.35,1.74069335096E-12},{-.2,1.5629358993E-12},{-.05,1.40179609857E-12},{.1,1.26088500981E-12},
   {.25,1.13577565165E-12},{.4,1.02664830375E-12}}},
 {"R32",1,{-2.22537835701E-6,1.344470513478E-5,4.600157246804E-6,3.763031490608E-7},
  {{8.23773647677E-13,-9.5022138309E-13,3.14515713173E-13},{Residual->1.94018588346E-15}},
  {{-.5,1.37902842241E-12},{-.35,1.19124140026E-12},{-.2,1.02771756239E-12},{-.05,8.74545732135E-13},{.1,7.30210171179E-13},
   {.25,6.05646910701E-13},{.4,4.94251743022E-13}}},
 {"AY",1,{-2.19618125682E-6,1.344412894225E-5,4.610545252151E-6,3.763764159367E-7},
  {{1.4185055079E-13,-3.4116110562E-14,2.82911885974E-12},{Residual->1.04585418143E-15}},
  {{-.3,4.07576065303E-13},{-.2,2.61280104821E-13},{-.1,1.72106773064E-13},{5.55111512313E-17,1.41604059993E-13},
   {.1,1.68683530185E-13},{.2,2.48383269813E-13},{.3,3.85473333077E-13}}},
 {"EY",1,{9.581960680183E-7,1.346629931738E-5,4.620249189904E-6,1.87979751632E-7},
  {{1.41703096809E-13,-4.1205773995E-13,3.90962915389E-13},{Residual->1.827194862E-16}},
  {{-.5,4.45284401523E-13},{-.35,3.3420263351E-13},{-.2,2.39569883761E-13},{-.05,1.63325823877E-13},{.1,1.04340025288E-13},
   {.25,6.30614213756E-14},{.4,3.95061850246E-14}}},
 {"R32",1,{-7.05575013894E-7,1.3440839407E-5,4.664390176934E-6,9.768561049583E-8},
  {{3.53066590607E-14,-1.8642505025E-13,3.2679306514E-13},{Residual->5.56730993141E-16}},
  {{-.5,2.10720426685E-13},{-.35,1.40171934585E-13},{-.2,8.51118838818E-14},{-.05,4.52389001134E-14},{.1,2.0470896317E-14},
   {.25,9.9317089615E-15},{.4,1.23481401479E-14}}},
 {"AY",1,{-7.43065437475E-7,1.344144156545E-5,4.656006013056E-6,9.668211762904E-8},
  {{5.62436604685E-15,4.33213391756E-14,2.80690382852E-12},{Residual->2.05310220783E-15}},
  {{-.3,2.46829075169E-13},{-.2,1.06760951204E-13},{-.1,2.76058809431E-14},{5.55111512313E-17,9.54247849886E-15},
   {.1,3.78600446018E-14},{.2,1.25060897749E-13},{.3,2.7164430615E-13}}},
 {"EY",1,{-2.35175499089E-7,1.344494120103E-5,4.659769998003E-6,6.90592241563E-8},
  {{9.38679745609E-15,-7.6617691852E-14,4.36608406911E-13},{Residual->7.30157512313E-16}},
  {{-.3,7.09357990004E-14},{-.2,4.28446996103E-14},{-.1,2.23559755501E-14},{5.55111512313E-17,9.34743186946E-15},
   {.1,4.8269244892E-15},{.2,1.14450067285E-14},{.3,2.62020988798E-14}}},
 {"R32",1,{-6.36766636324E-7,1.344169226305E-5,4.671493463029E-6,6.179875450328E-8},
  {{4.54796880899E-15,-4.1229575629E-14,2.93210823737E-13},{Residual->5.57836280461E-16}},
  {{-.3,4.39172474667E-14},{-.2,2.39163795408E-14},{-.1,1.08447014831E-14},{5.55111512313E-17,4.76917644107E-15},
   {.1,4.13139128873E-15},{.2,8.2127483518E-15},{.3,1.81431677372E-14}}},
 {"Y24",1,{-6.77509826158E-7,1.342709751462E-5,4.680938336037E-6,6.100747481762E-8},
  {{3.63371927399E-15,1.12544982984E-16,2.05610489146E-15},{Residual->3.70409328277E-16}},
  {{-1.5,8.78067002214E-15},{-1.2,6.20706338434E-15},{-.9,4.55981574819E-15},{-.6,3.91429565751E-15},{-.3,3.72191198362E-15},
   {0,3.81908605816E-15},{.3,4.20526788167E-15},{.6,4.76431775447E-15},{.9,5.56495299566E-15},{1.2,6.69806851529E-15},
   {1.5,8.09090043821E-15}}},
 {"Y46",1,{-6.64483162438E-7,1.338153490396E-5,4.670901325419E-6,5.625079058083E-8},
  {{3.80355870305E-15,3.19076411902E-15,4.56939611761E-15},{Residual->8.57827476218E-17}},
  {{-1,5.19387643412E-15},{-.8,4.2336608544E-15},{-.6,3.54941704668E-15},{-.4,3.21474341863E-15},{-.2,3.22648548785E-15},
   {0,3.72191198362E-15},{.2,4.62957757102E-15},{.4,5.9218594199E-15},{.6,7.50355412816E-15},{.8,9.32591065655E-15},
   {1,1.14234916501E-14}}},
 {"Y22",1,{-6.64483162438E-7,1.338153490396E-5,4.670901325419E-6,5.62507905808E-8},
  {{3.4768161154E-15,3.33026052161E-15,1.56105894457E-14},{Residual->3.60188415354E-16}},
  {{-.6,6.69696137153E-15},{-.4,5.09302577588E-15},{-.2,3.91521235221E-15},{1.11022302463E-16,3.16415144096E-15},
   {.2,4.34160113331E-15},{.4,7.33185693306E-15},{.6,1.12787639801E-14}}},
 {"Y26",1,{-6.59354438728E-7,1.337337023197E-5,4.674646032094E-6,5.58663337386E-8},
  {{3.09389252152E-15,-1.5439492894E-15,2.69234777613E-14},{Residual->2.21596379441E-16}},
  {{-.6,1.38186077569E-14},{-.4,8.05434861813E-15},{-.2,4.11506316366E-15},{1.11022302463E-16,3.16415144096E-15},
   {.2,3.89901056688E-15},{.4,7.14662650694E-15},{.6,1.16137346898E-14}}},
 {"Y66",1,{-6.59354438728E-7,1.337337023197E-5,4.674646032094E-6,5.58663337386E-8},
  {{4.44957452984E-15,-1.1328287755E-14,7.59926313568E-13},{Residual->1.11043784805E-15}},
  {{-.2,3.55682604633E-14},{-.15,2.43584201564E-14},{-.1,1.51259435583E-14},{-.05,7.12243233109E-15},{0,3.12104724539E-15},
   {.05,4.76746573184E-15},{.1,1.05994780455E-14},{.15,2.07169444062E-14},{.2,3.26551258657E-14}}},
 {"Y44",1,{-7.90690227253E-7,1.340930336151E-5,4.710877234903E-6,5.061519743689E-8},
  {{2.7213700903E-15,-8.2402569518E-15,2.18498280676E-14},{Residual->5.64961588247E-16}},
  {{-.6,1.6177442721E-14},{-.4,8.81661749549E-15},{-.2,4.48408980963E-15},{1.11022302463E-16,3.12104724539E-15},
   {.2,2.58280245365E-15},{.4,3.0967834479E-15},{.6,5.24261489473E-15}}},
 {"AY",1,{-8.24657537701E-7,1.34098767576E-5,4.702987876201E-6,4.929237796667E-8},
  {{2.18485707793E-15,3.31948080609E-14,2.34102440774E-12},{Residual->2.89304904756E-16}},
  {{-.1,2.25796776301E-14},{-.07,1.08792131504E-14},{-.04,4.37693399164E-15},{-.01,2.4480863036E-15},{.02,4.02596770219E-15},
   {.05,9.47619488965E-15},{.08,1.98168214741E-14}}},
 {"EY",1,{-7.33846023229E-7,1.341012562256E-5,4.702996387797E-6,4.865460361533E-8},
  {{2.52393777089E-15,-1.6163958666E-14,5.06558696213E-13},{Residual->6.38495649915E-17}},
  {{-.1,9.14169376245E-15},{-.07,6.2307927275E-15},{-.04,4.0401321904E-15},{-.01,2.63996662097E-15},{.02,2.36822911191E-15},
   {.05,3.02363351902E-15},{.08,4.47446380245E-15}}},
 {"R32",1,{-8.68244865531E-7,1.340985177667E-5,4.706192266212E-6,4.685012903803E-8},
  {{2.36941934276E-15,-1.3605455934E-14,2.85771036346E-13},{Residual->1.1240374654E-17}},
  {{-.1,6.58225973769E-15},{-.07,4.7304744474E-15},{-.04,3.37922501675E-15},{-.01,2.51954824689E-15},{.02,2.20228656219E-15},
   {.05,2.42284926841E-15},{.08,3.10314387673E-15}}},
 {"Y24",1,{-9.09103186516E-7,1.339502332007E-5,4.716380528469E-6,4.476245993922E-8},
  {{2.18811884103E-15,1.26103835034E-15,2.10592048145E-15},{Residual->8.98100062091E-18}},
  {{-.3,2.0039933418E-15},{-.2,2.00606533915E-15},{-.1,2.09361252136E-15},{5.55111512313E-17,2.19493459088E-15},
   {.1,2.32263384071E-15},{.2,2.52975319911E-15},{.3,2.75549678903E-15}}},
 {"Y46",1,{-9.09103186516E-7,1.339502332007E-5,4.716380528469E-6,4.476245993922E-8},
  {{2.02238967296E-15,3.10529904967E-16,6.45114896047E-15},{Residual->4.40379918538E-17}},
  {{-.45,3.15319869701E-15},{-.3,2.54306390694E-15},{-.15,2.17763979154E-15},{-5.5511151231E-17,2.00367781981E-15},
   {.15,2.13503781129E-15},{.3,2.73244910162E-15},{.45,3.47588442759E-15}}},
 {"Y22",1,{-9.09103186516E-7,1.339502332007E-5,4.716380528469E-6,4.476245993922E-8},
  {{2.40449458319E-15,1.17954511234E-15,1.46900775358E-14},{Residual->3.70334848741E-16}},
  {{-.6,6.55807549991E-15},{-.4,4.82977189413E-15},{-.2,3.17099282087E-15},{1.11022302463E-16,2.00367781981E-15},
   {.2,2.88160147487E-15},{.4,5.2920739754E-15},{.6,8.54815543742E-15}}},
 {"Y26",1,{-9.00824801053E-7,1.33779816708E-5,4.725287634821E-6,4.4442044596E-8},
  {{2.08976545677E-15,-4.7403534042E-15,3.74580654757E-14},{Residual->7.70004789259E-17}},
  {{-.3,6.85560695962E-15},{-.2,4.64969800536E-15},{-.1,2.84806997615E-15},{5.55111512313E-17,2.00367781974E-15},
   {.1,2.06740621827E-15},{.2,2.70258153873E-15},{.3,3.98957601275E-15}}},
 {"Y66",1,{-9.00824801053E-7,1.33779816708E-5,4.725287634821E-6,4.4442044596E-8},
  {{3.43765724883E-15,5.03800179994E-15,7.8303084743E-13},{Residual->9.29088841957E-16}},
  {{-.2,3.25472343583E-14},{-.15,2.11058933777E-14},{-.1,1.23831466269E-14},{-.05,5.48496542565E-15},{0,1.97509532787E-15},
   {.05,4.86176310919E-15},{.1,1.19952147461E-14},{.15,2.21412284849E-14},{.2,3.58990008973E-14}}},
 {"Y44",1,{-9.62841368321E-7,1.339566986681E-5,4.741603931785E-6,4.339218947986E-8},
  {{1.77083499127E-15,-4.0904230728E-15,2.23854593052E-14},{Residual->3.57909919669E-16}},
  {{-.6,1.26755629884E-14},{-.4,6.60471715933E-15},{-.2,2.99313312228E-15},{1.11022302463E-16,1.97509532786E-15},
   {.2,2.14659031883E-15},{.4,4.04108445239E-15},{.6,7.03137599164E-15}}},
 {"AY",1,{-9.70670729413E-7,1.339575528453E-5,4.739569953493E-6,4.326342421742E-8},
  {{1.52760257263E-15,8.10732946576E-15,2.48728367383E-12},{Residual->2.02481552666E-16}},
  {{-.1,2.57113615276E-14},{-.07,1.29273045854E-14},{-.04,5.07687649265E-15},{-.01,2.00428061451E-15},{.02,2.77403621612E-15},
   {.05,7.84215292412E-15},{.08,1.82103397376E-14}}},
 {"EY",1,{-9.01623415623E-7,1.339604252102E-5,4.739272535636E-6,4.286836778537E-8},
  {{1.90286412538E-15,-1.1186405907E-14,4.65499788403E-13},{Residual->4.37661140815E-17}},
  {{-.1,7.65696320099E-15},{-.07,5.02101786694E-15},{-.04,3.08633494625E-15},{-.01,1.99043049116E-15},{.02,1.88211673716E-15},
   {.05,2.56786956564E-15},{.08,3.95480900264E-15}}},
 {"R32",1,{-9.4351454149E-7,1.33958808778E-5,4.740379476013E-6,4.253517805948E-8},
  {{1.82311016569E-15,-3.9307204031E-15,2.66761752629E-13},{Residual->1.71813434829E-17}},
  {{-.1,4.87599813645E-15},{-.07,3.40499314941E-15},{-.04,2.42272869338E-15},{-.01,1.90103419798E-15},{.02,1.84297731699E-15},
   {.05,2.26062895902E-15},{.08,3.23769052791E-15}}},
 {"Y24",1,{-9.71320357395E-7,1.338615515195E-5,4.747291054549E-6,4.118655063557E-8},
  {{1.80918117318E-15,9.67728011244E-16,2.39658147965E-15},{Residual->1.66321794365E-17}},
  {{-.3,1.74998302306E-15},{-.2,1.69633195326E-15},{-.1,1.72206736649E-15},{5.55111512313E-17,1.80924137255E-15},
   {.1,1.93583008038E-15},{.2,2.12708299911E-15},{.3,2.29477423169E-15}}},
 {"Y46",1,{-9.71859497258E-7,1.338949117219E-5,4.748222725278E-6,4.098770243637E-8},
  {{1.73755674201E-15,-3.24315331E-16,6.0470454203E-15},{Residual->7.28662139104E-17}},
  {{-.45,3.02254760327E-15},{-.3,2.4741271213E-15},{-.15,2.01196724764E-15},{-5.5511151231E-17,1.69633195326E-15},
   {.15,1.74216333423E-15},{.3,2.1526190718E-15},{.45,2.87277947733E-15}}},
 {"Y22",1,{-9.71859497257E-7,1.338949117219E-5,4.748222725278E-6,4.098770243642E-8},
  {{2.136522103E-15,9.54182289905E-16,1.4654686635E-14},{Residual->3.17559983631E-16}},
  {{-.6,6.51987202958E-15},{-.4,4.50490034616E-15},{-.2,2.92208687421E-15},{1.11022302463E-16,1.67999175102E-15},
   {.2,2.68625984525E-15},{.4,5.01871408434E-15},{.6,8.0370788216E-15}}},
 {"Y26",1,{-9.71859497257E-7,1.338949117219E-5,4.748222725278E-6,4.098770243637E-8},
  {{1.78351438846E-15,-3.1445741758E-15,3.99332399532E-14},{Residual->6.67079981029E-17}},
  {{-.3,6.31931120729E-15},{-.2,4.06063496512E-15},{-.1,2.4556972366E-15},{5.55111512313E-17,1.67999175101E-15},
   {.1,1.94334310799E-15},{.2,2.83403892571E-15},{.3,4.3728907124E-15}}},
 {"Y66",1,{-9.71859497257E-7,1.338949117219E-5,4.748222725278E-6,4.098770243637E-8},
  {{3.30598373355E-15,1.56039743409E-14,7.69156339727E-13},{Residual->8.70448290395E-16}},
  {{-.2,2.99314537199E-14},{-.15,1.91565798394E-14},{-.1,1.07054252485E-14},{-.05,4.60995346491E-15},{0,1.67999175101E-15},
   {.05,5.58884138389E-15},{.1,1.29087006317E-14},{.15,2.35633953514E-14},{.2,3.69829631703E-14}}},
 {"Y44",1,{-9.7185949724E-7,1.338949117223E-5,4.748222725278E-6,4.098770243638E-8},
  {{1.60523602903E-15,-2.1015908252E-15,2.24090644146E-14},{Residual->4.42899716344E-16}},
  {{-.6,1.14235419879E-14},{-.4,5.53519728364E-15},{-.2,2.40812249661E-15},{1.11022302463E-16,1.67999175101E-15},
   {.2,2.54970861848E-15},{.4,4.78420084138E-15},{.6,7.95404136854E-15}}},
 {"AY",1,{-1.00128195049E-6,1.338983919835E-5,4.74027235396E-6,4.069633069938E-8},
  {{1.44779463991E-15,3.10302017179E-14,2.52656141617E-12},{Residual->2.23752991298E-16}},
  {{-.1,2.36184872088E-14},{-.07,1.14995143287E-14},{-.04,4.35047947942E-15},{-.01,1.7107154171E-15},{.02,2.95064804461E-15},
   {.05,8.93817430754E-15},{.08,2.03323702517E-14}}},
 {"EY",1,{-9.50448800713E-7,1.338974976262E-5,4.740197368574E-6,4.034792534797E-8},
  {{1.698953519E-15,-8.185188071E-15,4.59619195794E-13},{Residual->4.93581251533E-17}},
  {{-.1,7.0728487157E-15},{-.07,4.60712444498E-15},{-.04,2.7634267596E-15},{-.01,1.74842296862E-15},{.02,1.72557697009E-15},
   {.05,2.48364097267E-15},{.08,3.96873413741E-15}}},
 {"R32",1,{-9.43069980563E-7,1.338974914645E-5,4.739940693344E-6,4.022915972588E-8},
  {{1.64205080534E-15,7.47990784641E-16,2.87851103835E-13},{Residual->3.19816813556E-17}},
  {{-.1,4.41691071457E-15},{-.07,3.02347413807E-15},{-.04,2.10653947964E-15},{-.01,1.67141180859E-15},{.02,1.74456239451E-15},
   {.05,2.35125278965E-15},{.08,3.58318854678E-15}}},
 {"Y24",1,{-9.56843111712E-7,1.338494655763E-5,4.743104272065E-6,3.983527152126E-8},
  {{1.62406665963E-15,7.00794680412E-16,2.67215978558E-15},{Residual->7.15391140101E-18}},
  {{-.3,1.65463090698E-15},{-.2,1.5890993599E-15},{-.1,1.58684885717E-15},{5.55111512313E-17,1.61838529225E-15},
   {.1,1.71339491029E-15},{.2,1.88516559948E-15},{.3,2.06914643127E-15}}},
 {"Y46",1,{-9.57404860011E-7,1.338863093576E-5,4.744213878706E-6,3.955587355521E-8},
  {{1.61684354673E-15,-3.6021708714E-16,6.0326241462E-15},{Residual->7.0635434477E-17}},
  {{-.45,2.91766265874E-15},{-.3,2.36216981098E-15},{-.15,1.88722559417E-15},{-5.5511151231E-17,1.58684885717E-15},
   {.15,1.60486130152E-15},{.3,2.03228932493E-15},{.45,2.72740049167E-15}}},
 {"Y22",1,{-9.57404860013E-7,1.338863093576E-5,4.744213878707E-6,3.955587355524E-8},
  {{1.9693517654E-15,7.61755364264E-16,1.46575730432E-14},{Residual->2.68270811422E-16}},
  {{-.6,6.5221447899E-15},{-.4,4.34223250891E-15},{-.2,2.74603785148E-15},{1.11022302463E-16,1.56466713272E-15},
   {.2,2.54514299917E-15},{.4,4.72753237231E-15},{.6,7.75418651169E-15}}},
 {"Y26",1,{-9.57404860013E-7,1.338863093576E-5,4.744213878707E-6,3.955587355526E-8},
  {{1.71354465909E-15,-3.4541229423E-15,3.86723273443E-14},{Residual->8.60375466861E-17}},
  {{-.3,6.17178865501E-15},{-.2,4.08110359839E-15},{-.1,2.44354778447E-15},{5.55111512313E-17,1.56466713272E-15},
   {.1,1.79340551657E-15},{.2,2.64948355725E-15},{.3,4.11906802563E-15}}},
 {"Y66",1,{-9.57404860013E-7,1.338863093576E-5,4.744213878707E-6,3.955587355526E-8},
  {{3.15577620885E-15,1.88667850817E-14,7.56557984714E-13},{Residual->8.50738972709E-16}},
  {{-.2,2.86785350757E-14},{-.15,1.82241770848E-14},{-.1,1.00465283148E-14},{-.05,4.17873365043E-15},{0,1.56466713272E-15},
   {.05,5.53783615524E-15},{.1,1.32464875091E-14},{.15,2.34068687462E-14},{.2,3.70018499176E-14}}},
 {"Y44",1,{-9.57404860013E-7,1.338863093576E-5,4.744213878707E-6,3.955587355523E-8},
  {{1.52083594297E-15,-1.1639131704E-15,2.13207825371E-14},{Residual->4.21411330713E-16}},
  {{-.6,1.03570153781E-14},{-.4,4.93376007398E-15},{-.2,2.12523761604E-15},{1.11022302463E-16,1.56466713272E-15},
   {.2,2.6010807539E-15},{.4,4.88529187262E-15},{.6,8.05807521496E-15}}},
 {"OCT1",1,{-9.57404860013E-7,1.338863093576E-5,4.744213878707E-6,3.955587355523E-8},
  {{2.04178688736E-15,3.29946057847E-21,3.37333361349E-20},{Residual->3.01743781659E-16}},
  {{-370,6.39998026446E-15},{-296,5.12190338173E-15},{-222,4.02940306111E-15},{-148,3.03118335334E-15},{-74,2.1745647496E-15},
   {0,1.56466713272E-15},{74,1.79775893716E-15},{148,2.9410033027E-15},{222,4.07499457775E-15},{296,5.28449982566E-15},
   {370,6.35935290402E-15}}},
 {"OCT2",1,{-9.88815151432E-7,1.339069854127E-5,4.744033370169E-6,3.93997655303E-8},
  {{1.56906233036E-15,-2.271047089E-19,6.78729625924E-22},{Residual->6.0404546131E-18}},
  {{-370,1.75037528672E-15},{-296,1.69930879876E-15},{-222,1.64054643805E-15},{-148,1.61114723083E-15},{-74,1.60120783999E-15},
   {0,1.56466713272E-15},{74,1.55909069661E-15},{148,1.55291886496E-15},{222,1.55234152384E-15},{296,1.56110574171E-15},
   {370,1.57584898991E-15}}},
 {"OCT1",1,{-9.88815151432E-7,1.339069854127E-5,4.744033370169E-6,3.93997655303E-8},
  {{2.78222714639E-15,5.5223001334E-20,2.16064211418E-20},{Residual->6.19151654141E-16}},
  {{-740,1.44615757247E-14},{-592,1.06225695683E-14},{-444,7.29916443969E-15},{-296,4.76274815126E-15},{-148,2.84548110763E-15},
   {0,1.55234152384E-15},{148,3.10435940803E-15},{296,5.50691671786E-15},{444,8.02559331054E-15},{592,1.06480625432E-14},
   {740,1.38356870285E-14}}},
 {"OCT2",1,{-9.75775995613E-7,1.338982393565E-5,4.744192644798E-6,3.939462964354E-8},
  {{1.56751581502E-15,-1.8399327404E-19,7.09351496842E-22},{Residual->9.18424246049E-18}},
  {{-740,2.07721450443E-15},{-592,1.92998568347E-15},{-444,1.79841290633E-15},{-296,1.69930879876E-15},{-148,1.61114723083E-15},
   {0,1.56466713272E-15},{148,1.55291886496E-15},{296,1.56110574171E-15},{444,1.61896775579E-15},{592,1.70861360116E-15},
   {740,1.82982405669E-15}}}}
