FD	 7.082268E-6	 5.405562E-7	
EX2	 7.038450E-6	 5.442988E-7	
FD	 7.038145E-6	 5.397902E-7	
AY	 6.771417E-6	 2.797920E-7	
EY	 6.750594E-6	 1.865204E-7	
R32	 6.738454E-6	 4.412359E-8	
AY	 6.742990E-6	 3.935012E-8	
EY	 6.742697E-6	 3.969134E-8	
R32	 6.742963E-6	 4.107030E-8	
AY	 6.744440E-6	 4.306914E-8	
EY	 6.744987E-6	 6.603514E-8	
R32	 6.744189E-6	 4.395887E-8	
AY	 6.742680E-6	 5.753117E-8	
EY	 6.742632E-6	 5.739946E-8	
R32	 6.742853E-6	 5.519362E-8	
Y24	 6.701186E-6	 5.053927E-8	
Y46	 6.768410E-6	 5.036753E-8	
Y22	 6.768410E-6	 5.036753E-8	
Y26	 6.768410E-6	 5.036753E-8	
Y66	 6.768410E-6	 5.036753E-8	
Y44	 6.768410E-6	 5.036753E-8	
AY	 6.762000E-6	 4.341185E-8	
EY	 6.762958E-6	 4.850569E-8	
R32	 6.762930E-6	 4.695871E-8	
Y24	 6.794437E-6	 4.530557E-8	
Y46	 6.800663E-6	 4.528880E-8	
Y22	 6.800663E-6	 4.528880E-8	
Y26	 6.800663E-6	 4.528880E-8	
Y66	 6.800663E-6	 4.528880E-8	
Y44	 6.800663E-6	 4.528880E-8	
AY	 6.802428E-6	 4.934590E-8	
EY	 6.803637E-6	 8.134932E-8	
R32	 6.798133E-6	 5.774330E-8	
Y24	 6.766669E-6	 5.580267E-8	
Y46	 6.766669E-6	 5.580267E-8	
Y22	 6.766669E-6	 5.580267E-8	
Y26	 6.766669E-6	 5.580267E-8	
Y66	 6.766669E-6	 5.580267E-8	
Y44	 6.766669E-6	 5.580267E-8	
AY	 6.768559E-6	 5.573651E-8	
EY	 6.769032E-6	 4.463032E-8	
R32	 6.773343E-6	 4.996347E-8	
Y24	 6.773343E-6	 4.996347E-8	
Y46	 6.773343E-6	 4.996347E-8	
Y22	 6.773343E-6	 4.996347E-8	
Y26	 6.773700E-6	 4.719695E-8	
Y66	 6.773700E-6	 4.719695E-8	
Y44	 6.773700E-6	 4.719695E-8	
