FD	 1.752709E-5	 1.389486E-6	
EX2	 1.784970E-5	 1.390883E-6	
FD	 1.769878E-5	 1.388478E-6	
AY	 1.686950E-5	 2.382942E-6	
EY	 1.750181E-5	 1.256330E-6	
R32	 1.682280E-5	 6.436128E-7	
AY	 1.682517E-5	 6.383242E-7	
EY	 1.650849E-5	 4.388572E-7	
R32	 1.714032E-5	 2.153452E-7	
AY	 1.714200E-5	 2.090100E-7	
EY	 1.694401E-5	 1.261685E-7	
R32	 1.719664E-5	 7.909954E-8	
AY	 1.719715E-5	 7.932087E-8	
EY	 1.712998E-5	 5.885763E-8	
R32	 1.723274E-5	 5.251800E-8	
Y24	 1.723330E-5	 5.064426E-8	
Y46	 1.722046E-5	 4.867460E-8	
Y22	 1.722027E-5	 4.866813E-8	
Y26	 1.722027E-5	 4.866813E-8	
Y66	 1.721800E-5	 4.840135E-8	
Y44	 1.720617E-5	 4.813423E-8	
AY	 1.720610E-5	 4.809290E-8	
EY	 1.718024E-5	 4.494927E-8	
R32	 1.722018E-5	 4.300493E-8	
Y24	 1.723000E-5	 3.960364E-8	
Y46	 1.722680E-5	 3.942896E-8	
Y22	 1.722801E-5	 3.908695E-8	
Y26	 1.722801E-5	 3.908695E-8	
Y66	 1.722801E-5	 3.908695E-8	
Y44	 1.722801E-5	 3.908695E-8	
AY	 1.722838E-5	 3.695294E-8	
EY	 1.720323E-5	 3.591695E-8	
R32	 1.721081E-5	 3.583975E-8	
Y24	 1.721883E-5	 3.489426E-8	
Y46	 1.722516E-5	 3.247593E-8	
Y22	 1.723094E-5	 3.114602E-8	
Y26	 1.723094E-5	 3.114602E-8	
Y66	 1.723094E-5	 3.114602E-8	
Y44	 1.723094E-5	 3.114602E-8	
AY	 1.723109E-5	 3.025475E-8	
EY	 1.721415E-5	 2.963305E-8	
R32	 1.721883E-5	 2.958082E-8	
Y24	 1.722071E-5	 2.892493E-8	
Y46	 1.722658E-5	 2.782526E-8	
Y22	 1.722679E-5	 2.735274E-8	
Y26	 1.722679E-5	 2.735274E-8	
Y66	 1.722679E-5	 2.735274E-8	
Y44	 1.722679E-5	 2.735274E-8	
OCT1	 1.723554E-5	 2.728705E-8	
OCT2	 1.723484E-5	 2.727523E-8	
OCT1	 1.722616E-5	 2.741970E-8	
OCT2	 1.722764E-5	 2.732130E-8	
