FD	 5.066480E-6	 8.606175E-6	 -8.73991E-7	 8.831988E-7	
EX2	 -3.91289E-5	 6.949653E-6	 -2.35973E-6	 1.005427E-6	
FD	 -3.91038E-5	 6.946485E-6	 -2.09637E-6	 8.805224E-7	
AY	 8.475484E-8	 6.884517E-6	 1.655837E-8	 9.981011E-7	
EY	 6.675461E-8	 6.946277E-6	 1.540035E-8	 9.575127E-7	
R32	 7.424888E-8	 6.725313E-6	 1.976814E-8	 4.722220E-7	
AY	 7.046365E-8	 6.717289E-6	 1.756341E-8	 4.707275E-7	
EY	 6.668449E-8	 6.745252E-6	 1.299816E-8	 2.331905E-7	
R32	 7.748101E-8	 6.727714E-6	 2.497893E-8	 8.589153E-8	
AY	 6.042022E-8	 6.717306E-6	 1.884030E-8	 8.417094E-8	
EY	 6.850149E-8	 6.714932E-6	 1.967088E-8	 5.061006E-8	
R32	 7.543396E-8	 6.707452E-6	 1.956277E-8	 4.056530E-8	
AY	 6.351232E-8	 6.704462E-6	 1.585424E-8	 4.093286E-8	
EY	 6.070619E-8	 6.708095E-6	 1.662553E-8	 3.909585E-8	
R32	 5.529399E-8	 6.705800E-6	 1.648335E-8	 3.860839E-8	
Y24	 6.191060E-8	 6.707519E-6	 1.490329E-8	 3.904326E-8	
Y46	 6.318370E-8	 6.705423E-6	 1.844101E-8	 3.798722E-8	
Y22	 5.731251E-8	 6.705425E-6	 1.714390E-8	 3.798651E-8	
Y26	 6.728025E-8	 6.705432E-6	 1.731219E-8	 3.798212E-8	
Y66	 5.946484E-8	 6.705435E-6	 1.889756E-8	 3.798254E-8	
Y44	 4.309303E-8	 6.705440E-6	 1.604572E-8	 3.798491E-8	
AY	 3.574411E-8	 6.705548E-6	 1.414620E-8	 3.793917E-8	
EY	 5.902402E-8	 6.706883E-6	 2.037033E-8	 3.782047E-8	
R32	 6.009601E-8	 6.703978E-6	 1.786899E-8	 3.769058E-8	
Y24	 5.134443E-8	 6.706275E-6	 1.630711E-8	 3.890967E-8	
Y46	 6.434401E-8	 6.705443E-6	 1.921715E-8	 3.813081E-8	
Y22	 6.836528E-8	 6.705445E-6	 1.473210E-8	 3.813306E-8	
Y26	 6.919129E-8	 6.705440E-6	 1.683250E-8	 3.814291E-8	
Y66	 7.688159E-8	 6.705443E-6	 1.623908E-8	 3.813556E-8	
Y44	 6.585688E-8	 6.705440E-6	 1.541782E-8	 3.813610E-8	
AY	 5.399700E-8	 6.705297E-6	 1.980330E-8	 3.807382E-8	
EY	 7.101505E-8	 6.704331E-6	 1.842509E-8	 3.766997E-8	
R32	 6.986049E-8	 6.708029E-6	 1.306966E-8	 3.777759E-8	
Y24	 5.015357E-8	 6.712969E-6	 1.675221E-8	 3.631467E-8	
Y46	 6.163851E-8	 6.712751E-6	 1.585368E-8	 3.624085E-8	
Y22	 5.419027E-8	 6.712753E-6	 1.703372E-8	 3.624062E-8	
Y26	 5.207236E-8	 6.712752E-6	 1.976020E-8	 3.624271E-8	
Y66	 6.501373E-8	 6.712746E-6	 1.636463E-8	 3.624091E-8	
Y44	 7.101130E-8	 6.712746E-6	 1.327326E-8	 3.624081E-8	
AY	 5.440173E-8	 6.713194E-6	 1.900830E-8	 3.624101E-8	
EY	 5.557208E-8	 6.720052E-6	 1.879277E-8	 3.589655E-8	
R32	 6.030510E-8	 6.726244E-6	 1.733567E-8	 3.596033E-8	
Y24	 7.528370E-8	 6.732873E-6	 1.847591E-8	 3.759332E-8	
Y46	 5.621663E-8	 6.732407E-6	 1.681308E-8	 3.754626E-8	
Y22	 5.613035E-8	 6.732402E-6	 2.533761E-8	 3.755921E-8	
Y26	 5.910943E-8	 6.731919E-6	 1.456635E-8	 3.748507E-8	
Y66	 5.416105E-8	 6.731927E-6	 1.038474E-8	 3.747780E-8	
Y44	 5.726695E-8	 6.731920E-6	 1.999450E-8	 3.747880E-8	
OCT1	 5.514479E-8	 6.731912E-6	 1.567837E-8	 3.749030E-8	
OCT2	 4.824752E-8	 6.734165E-6	 1.812238E-8	 3.747325E-8	
