FD	 2.119019E-5	 4.944009E-7	
EX2	 2.104577E-5	 4.967152E-7	
FD	 2.098131E-5	 4.959194E-7	
AY	 2.008903E-5	 5.771111E-7	
EY	 1.992534E-5	 1.528813E-7	
R32	 2.023209E-5	 4.695447E-8	
AY	 2.022949E-5	 4.568092E-8	
EY	 2.023728E-5	 4.185359E-8	
R32	 2.021388E-5	 4.089095E-8	
AY	 2.021252E-5	 4.012550E-8	
EY	 2.021694E-5	 3.990365E-8	
R32	 2.022140E-5	 4.002241E-8	
AY	 2.022313E-5	 4.066028E-8	
EY	 2.022335E-5	 4.052571E-8	
R32	 2.021749E-5	 4.046589E-8	
Y24	 2.021937E-5	 3.892728E-8	
Y46	 2.022032E-5	 3.892441E-8	
Y22	 2.022324E-5	 3.823321E-8	
Y26	 2.022324E-5	 3.823321E-8	
Y66	 2.022324E-5	 3.823321E-8	
Y44	 2.022324E-5	 3.823321E-8	
AY	 2.022332E-5	 3.813886E-8	
EY	 2.022605E-5	 3.765664E-8	
R32	 2.022483E-5	 3.777211E-8	
Y24	 2.022417E-5	 3.768321E-8	
Y46	 2.022495E-5	 3.746695E-8	
Y22	 2.022495E-5	 3.746695E-8	
Y26	 2.022495E-5	 3.746695E-8	
Y66	 2.022495E-5	 3.746695E-8	
Y44	 2.022495E-5	 3.746695E-8	
AY	 2.022476E-5	 3.759686E-8	
EY	 2.022489E-5	 3.714440E-8	
R32	 2.022728E-5	 3.734964E-8	
Y24	 2.022791E-5	 3.697478E-8	
Y46	 2.022791E-5	 3.697478E-8	
Y22	 2.022804E-5	 3.682495E-8	
Y26	 2.022804E-5	 3.682495E-8	
Y66	 2.022804E-5	 3.682495E-8	
Y44	 2.022804E-5	 3.682495E-8	
AY	 2.022857E-5	 3.737755E-8	
EY	 2.022991E-5	 3.749012E-8	
R32	 2.022559E-5	 3.725455E-8	
Y24	 2.022533E-5	 3.694284E-8	
Y46	 2.022533E-5	 3.694284E-8	
Y22	 2.022530E-5	 3.692097E-8	
Y26	 2.022530E-5	 3.692097E-8	
Y66	 2.022530E-5	 3.692097E-8	
Y44	 2.022530E-5	 3.692097E-8	
