{{"FD",1,{-2.07081730502E-5,1.358072535527E-5,5.553473560381E-6,6.584513322136E-7}},
 {"EX2",1,{-3.32091965254E-5,1.337556128031E-5,5.272834906805E-6,7.427001206697E-7}},
 {"FD",1,{-3.33036832101E-5,1.337187340376E-5,5.340981584556E-6,6.598216900225E-7}},
 {"AY",1,{-3.36674772192E-5,1.384763256655E-5,5.237433705068E-6,7.823416167025E-7},
  {{6.12501216115E-13,7.47934107825E-14,4.23343949068E-12},{Residual->8.25380743221E-15}},
  {{-.5,1.64245198276E-12},{-.35,1.08656142543E-12},{-.2,7.72693601647E-13},{-.05,6.23980106481E-13},{.1,6.62299491894E-13},
   {.25,8.96528195003E-13},{.4,1.31796808603E-12}}},
 {"EY",1,{-3.43372818168E-5,1.414964190815E-5,5.308227621097E-6,6.845686100944E-7},
  {{6.15734187417E-13,-5.5311880197E-13,5.04897372845E-13},{Residual->1.98914349799E-15}},
  {{-.5,1.01754816416E-12},{-.35,8.72386222909E-13},{-.2,7.48696361788E-13},{-.05,6.41633165306E-13},{.1,5.64115029035E-13},
   {.25,5.11976588811E-13},{.4,4.74296409518E-13}}},
 {"R32",1,{-3.4294381174E-5,1.288615320483E-5,5.359953331967E-6,2.476904168186E-7},
  {{4.64781740482E-13,-5.9502934653E-13,2.39825897499E-13},{Residual->2.38391794857E-15}},
  {{-.5,8.22539741302E-13},{-.35,7.03244654512E-13},{-.2,5.92151742931E-13},{-.05,4.93732983863E-13},{.1,4.06707346762E-13},
   {.25,3.36226965067E-13},{.4,2.62416288859E-13}}},
 {"AY",1,{-3.46695607964E-5,1.295063051619E-5,5.339467237775E-6,1.64258279089E-7},
  {{6.54041604813E-14,8.01631420807E-13,4.1133943631E-12},{Residual->6.39979989879E-15}},
  {{-.5,6.92529115431E-13},{-.35,2.92435318943E-13},{-.2,6.52423940239E-14},{-.05,3.63316769929E-14},{.1,1.79757400873E-13},
   {.25,5.35985897578E-13},{.4,1.03839917235E-12}}},
 {"EY",1,{-3.46738933368E-5,1.297846903585E-5,5.367994054963E-6,1.427301883343E-7},
  {{2.68466758522E-14,-1.1340862247E-13,4.5623842969E-13},{Residual->1.10133643986E-15}},
  {{-.5,1.98821126115E-13},{-.35,1.21152314714E-13},{-.2,6.67283013682E-14},{-.05,3.3511426781E-14},{.1,2.14127360079E-14},
   {.25,2.80774629094E-14},{.4,5.3330764158E-14}}},
 {"R32",1,{-3.46274433418E-5,1.282403020947E-5,5.384694012089E-6,5.129829186087E-8},
  {{2.05513775938E-14,-1.1920353965E-13,2.15838064629E-13},{Residual->7.92505519303E-16}},
  {{-.5,1.33483105937E-13},{-.35,8.96240761289E-14},{-.2,5.2774484256E-14},{-.05,2.77583600154E-14},{.1,1.05049137642E-14},
   {.25,2.91307946348E-15},{.4,8.27800931784E-15}}},
 {"AY",1,{-3.47242380898E-5,1.283635355701E-5,5.378672999061E-6,4.0733608638E-8},
  {{-2.3337999195E-15,1.83910108167E-13,4.16385635155E-12},{Residual->3.08168698538E-15}},
  {{-.3,3.19827330567E-13},{-.2,1.22227050245E-13},{-.1,2.08382446435E-14},{5.55111512313E-17,2.92153823097E-15},
   {.1,5.56902619597E-14},{.2,2.00083882312E-13},{.3,4.2795487104E-13}}},
 {"EY",1,{-3.47236609179E-5,1.284035478742E-5,5.38745575494E-6,3.795419225889E-8},
  {{1.70115330182E-15,-1.5603669554E-14,4.52827131913E-13},{Residual->4.47495607527E-16}},
  {{-.5,1.22472791011E-13},{-.35,6.25741370755E-14},{-.2,2.36087586072E-14},{-.05,3.81339521621E-15},{.1,4.17731212688E-15},
   {.25,2.5510307868E-14},{.4,6.84182234658E-14}}},
 {"R32",1,{-3.47127745123E-5,1.283284148934E-5,5.38379581126E-6,3.50526836611E-8},
  {{2.21604545261E-15,-7.8620784668E-15,2.28786755525E-13},{Residual->7.00103902109E-16}},
  {{-.5,6.24450394069E-14},{-.35,3.43379256247E-14},{-.2,1.31636575992E-14},{-.05,2.96815562572E-15},{.1,3.05749052254E-15},
   {.25,1.42876334999E-14},{.4,3.61435675553E-14}}},
 {"AY",1,{-3.46830727325E-5,1.283402725788E-5,5.383581632486E-6,3.519423342362E-8},
  {{-6.5694448585E-16,1.58161201168E-14,3.94345367516E-12},{Residual->1.35297495354E-15}},
  {{-.3,3.50186183235E-13},{-.2,1.52918885707E-13},{-.1,3.65243499694E-14},{5.55111512313E-17,1.27910891084E-15},
   {.1,3.84147588262E-14},{.2,1.61944344398E-13},{.3,3.58300786598E-13}}},
 {"EY",1,{-3.46804322568E-5,1.283631251374E-5,5.379847352577E-6,3.606018964948E-8},
  {{1.27908477782E-15,-1.6820668342E-16,4.64321215067E-13},{Residual->2.44053264299E-16}},
  {{-.3,4.30190509963E-14},{-.2,1.98416496154E-14},{-.1,6.28966465288E-15},{5.55111512313E-17,1.20988712971E-15},
   {.1,5.94011502446E-15},{.2,1.93704755996E-14},{.3,4.32926906452E-14}}},
 {"R32",1,{-3.4678138485E-5,1.283375194677E-5,5.37795089036E-6,3.506633975417E-8},
  {{1.87511284619E-15,-4.8877486467E-15,2.41721655506E-13},{Residual->5.73462917583E-16}},
  {{-.3,2.44457583191E-14},{-.2,1.34781962955E-14},{-.1,5.19189651894E-15},{5.55111512313E-17,1.31635910367E-15},
   {.1,3.20780899811E-15},{.2,1.09114438307E-14},{.3,2.22563903991E-14}}},
 {"Y24",1,{-3.4678138485E-5,1.283375194677E-5,5.37795089036E-6,3.506633975417E-8},
  {{1.28189198855E-15,-5.5844518802E-17,1.28394946723E-15},{Residual->1.02438652579E-16}},
  {{-1.5,4.32488453968E-15},{-1.2,3.24051817503E-15},{-.9,2.34656532918E-15},{-.6,1.67717050652E-15},{-.3,1.25301203159E-15},
   {0,1.22964818375E-15},{.3,1.4717059159E-15},{.6,1.84066952107E-15},{.9,2.398099156E-15},{1.2,3.1048583204E-15},
   {1.5,3.92477992051E-15}}},
 {"Y46",1,{-3.46273231487E-5,1.280650214262E-5,5.379433148461E-6,3.219018730339E-8},
  {{1.25266720258E-15,1.28436646118E-15,2.03883138368E-15},{Residual->2.18987642566E-17}},
  {{-1,2.01576616742E-15},{-.8,1.54640100789E-15},{-.6,1.2078872822E-15},{-.4,1.04989549266E-15},{-.2,1.05056554426E-15},
   {0,1.22964818375E-15},{.2,1.60751283393E-15},{.4,2.11639689625E-15},{.6,2.7892308765E-15},{.8,3.59794902362E-15},
   {1,4.53894400807E-15}}},
 {"Y22",1,{-3.46273231487E-5,1.280650214262E-5,5.379433148461E-6,3.219018730338E-8},
  {{1.4486554668E-15,3.05678926775E-15,1.20109955951E-14},{Residual->2.46996590601E-16}},
  {{-.6,3.69652234687E-15},{-.4,2.4825725582E-15},{-.2,1.58297457514E-15},{1.11022302463E-16,1.03620815863E-15},
   {.2,2.46790680978E-15},{.4,4.69235683457E-15},{.6,7.63436205088E-15}}},
 {"Y26",1,{-3.46360706962E-5,1.280666907505E-5,5.39061668787E-6,3.012249600588E-8},
  {{1.32789126426E-15,-2.6007723136E-15,3.05403829759E-14},{Residual->2.56858107469E-16}},
  {{-.6,1.3623465016E-14},{-.4,7.56502117473E-15},{-.2,3.39449018675E-15},{1.11022302463E-16,1.03620815863E-15},
   {.2,1.74324212113E-15},{.4,5.32676287018E-15},{.6,1.08112782554E-14}}},
 {"Y66",1,{-3.46360706962E-5,1.280666907505E-5,5.39061668787E-6,3.012249600588E-8},
  {{1.71431502918E-15,3.07126458617E-15,6.35137474296E-13},{Residual->5.11461565E-16}},
  {{-.2,2.65181671648E-14},{-.15,1.58227336851E-14},{-.1,7.82361609601E-15},{-.05,2.79636538922E-15},{0,9.07364765624E-16},
   {.05,3.63080664275E-15},{.1,9.0339840595E-15},{.15,1.71661881239E-14},{.2,2.70002304802E-14}}},
 {"Y44",1,{-3.46360706963E-5,1.28066690751E-5,5.39061668787E-6,3.012249600588E-8},
  {{9.32815525217E-16,3.49997205543E-16,8.1095264948E-15},{Residual->5.0233657391E-17}},
  {{-.6,3.6211440774E-15},{-.4,2.11147658574E-15},{-.2,1.23098489694E-15},{1.11022302463E-16,9.07364765624E-16},
   {.2,1.2460046903E-15},{.4,2.45486004275E-15},{.6,4.04054329195E-15}}},
 {"AY",1,{-3.46377124787E-5,1.280589941643E-5,5.39132153982E-6,3.048150601435E-8},
  {{-3.5446617265E-16,1.27119029976E-14,3.8330945033E-12},{Residual->1.8237730467E-15}},
  {{-.1,3.86722406547E-14},{-.07,1.3565403012E-14},{-.04,6.24540675802E-15},{-.01,1.14316199051E-15},{.02,2.07663469332E-15},
   {.05,9.01130141015E-15},{.08,2.51919026984E-14}}},
 {"EY",1,{-3.46426666427E-5,1.280844840703E-5,5.397634269115E-6,3.043856569952E-8},
  {{9.6998378232E-16,-1.9429649491E-15,4.4640876975E-13},{Residual->8.02809170237E-17}},
  {{-.1,5.68936487702E-15},{-.07,3.17912107873E-15},{-.04,1.82763594205E-15},{-.01,9.84577647536E-16},{.02,1.09181947755E-15},
   {.05,2.11569104492E-15},{.08,3.59967109138E-15}}},
 {"R32",1,{-3.46450082523E-5,1.280613136206E-5,5.401542308035E-6,3.045964149793E-8},
  {{8.9030540046E-16,-1.2513598125E-16,2.4020716593E-13},{Residual->7.47660941914E-17}},
  {{-.1,3.26257811572E-15},{-.07,2.20156452322E-15},{-.04,1.14695969849E-15},{-.01,9.72269388869E-16},{.02,9.89748673737E-16},
   {.05,1.45994775188E-15},{.08,2.42919476757E-15}}},
 {"Y24",1,{-3.46205102018E-5,1.281551348309E-5,5.399403441336E-6,2.959905411294E-8},
  {{9.35147621596E-16,-6.472658184E-16,1.78493854968E-15},{Residual->4.03542169741E-18}},
  {{-.3,1.28720179135E-15},{-.2,1.13871122695E-15},{-.1,1.02397653846E-15},{5.55111512313E-17,9.27789760183E-16},
   {.1,8.87247993959E-16},{.2,8.79254421587E-16},{.3,9.0163441259E-16}}},
 {"Y46",1,{-3.46128685463E-5,1.281166795879E-5,5.399577820145E-6,2.958494405553E-8},
  {{8.81642275704E-16,2.39973092969E-16,2.54508881501E-15},{Residual->6.89521580652E-18}},
  {{-.45,1.2819822109E-15},{-.3,1.04530929596E-15},{-.15,9.13761207672E-16},{-5.5511151231E-17,8.76104004381E-16},
   {.15,9.66195488612E-16},{.3,1.18263109341E-15},{.45,1.50891858245E-15}}},
 {"Y22",1,{-3.46128685463E-5,1.281166795868E-5,5.399577820145E-6,2.958494405504E-8},
  {{1.17254237262E-15,2.39160587225E-15,1.17388644359E-14},{Residual->1.4723707636E-16}},
  {{-.6,3.87559714258E-15},{-.4,2.24520515054E-15},{-.2,1.27144036851E-15},{1.11022302463E-16,8.7526891474E-16},
   {.2,2.17497632468E-15},{.4,4.13185196949E-15},{.6,6.78098490608E-15}}},
 {"Y26",1,{-3.46167508684E-5,1.281188721958E-5,5.404711037429E-6,2.904127851921E-8},
  {{9.42149981505E-16,-1.3887198391E-15,3.7018150167E-14},{Residual->8.17063627831E-17}},
  {{-.3,4.59360008779E-15},{-.2,2.84448205847E-15},{-.1,1.50162033504E-15},{5.55111512313E-17,8.7526891474E-16},
   {.1,1.08497087414E-15},{.2,2.18257064954E-15},{.3,3.87761899757E-15}}},
 {"Y66",1,{-3.46167508684E-5,1.281188721958E-5,5.404711037429E-6,2.904127851921E-8},
  {{1.70178974288E-15,5.00411825359E-16,6.38636616148E-13},{Residual->5.57708682118E-16}},
  {{-.2,2.71165124163E-14},{-.15,1.63120133837E-14},{-.1,8.19250473338E-15},{-.05,2.8832018797E-15},{0,8.4339585803E-16},
   {.05,3.3794627856E-15},{.1,8.92939204555E-15},{.15,1.68871782621E-14},{.2,2.65679387439E-14}}},
 {"Y44",1,{-3.46144732481E-5,1.281077951043E-5,5.402101297114E-6,2.876078418439E-8},
  {{8.6837683508E-16,-3.8467493149E-16,8.16822625303E-15},{Residual->4.20863515788E-17}},
  {{-.6,4.01533344046E-15},{-.4,2.36536574956E-15},{-.2,1.29563689348E-15},{1.11022302463E-16,8.4339585803E-16},
   {.2,1.05565735324E-15},{.4,2.09245411815E-15},{.6,3.55920783604E-15}}},
 {"AY",1,{-3.46589086043E-5,1.27999175182E-5,5.403343083899E-6,3.097163134733E-8},
  {{5.53578028104E-16,9.36474664001E-15,3.32347202551E-12},{Residual->4.27761922152E-16}},
  {{-.1,3.27887140445E-14},{-.07,1.60151757004E-14},{-.04,5.74392460605E-15},{-.01,1.18281386281E-15},{.02,2.0398397597E-15},
   {.05,8.44827872833E-15},{.08,2.3078692691E-14}}},
 {"EY",1,{-3.46578907992E-5,1.279907236506E-5,5.403251327927E-6,3.119242572863E-8},
  {{1.10378515272E-15,7.91912390516E-16,4.72610551493E-13},{Residual->1.01509242748E-16}},
  {{-.1,5.70319316822E-15},{-.07,3.41945222778E-15},{-.04,1.94456713543E-15},{-.01,9.85790124737E-16},{.02,1.24249042821E-15},
   {.05,2.47263739269E-15},{.08,4.14354500833E-15}}},
 {"R32",1,{-3.46595899477E-5,1.280493406844E-5,5.401493070143E-6,3.079664089756E-8},
  {{9.91622968103E-16,3.98153658797E-15,2.12800279749E-13},{Residual->5.79127060291E-17}},
  {{-.1,2.72901869063E-15},{-.07,1.7502298774E-15},{-.04,1.17932767303E-15},{-.01,9.6389751648E-16},{.02,1.08590007354E-15},
   {.05,1.8470304297E-15},{.08,2.6187762003E-15}}},
 {"Y24",1,{-3.46330476251E-5,1.281475987898E-5,5.398411085472E-6,2.95241836741E-8},
  {{9.53694743826E-16,-8.5032319107E-16,2.11983843894E-15},{Residual->5.1362979658E-18}},
  {{-.3,1.39877733604E-15},{-.2,1.21478508254E-15},{-.1,1.05301945791E-15},{5.55111512313E-17,9.48433090573E-16},
   {.1,8.96757445057E-16},{.2,8.71677421622E-16},{.3,8.85968135942E-16}}},
 {"Y46",1,{-3.46330476251E-5,1.281475987898E-5,5.398411085472E-6,2.95241836741E-8},
  {{8.81971451881E-16,-1.2403031367E-17,2.88208304026E-15},{Residual->8.37164136199E-18}},
  {{-.45,1.46313903754E-15},{-.3,1.15542531792E-15},{-.15,9.58118767963E-16},{-5.5511151231E-17,8.71677421622E-16},
   {.15,9.36279080063E-16},{.3,1.14460385563E-15},{.45,1.46026899779E-15}}},
 {"Y22",1,{-3.46330476251E-5,1.281475987898E-5,5.398411085472E-6,2.95241836741E-8},
  {{1.14573140699E-15,2.548497942E-15,1.18356997157E-14},{Residual->1.37421188109E-16}},
  {{-.6,3.7802706405E-15},{-.4,2.16187771104E-15},{-.2,1.24835023361E-15},{1.11022302463E-16,8.71677421622E-16},
   {.2,2.1575516025E-15},{.4,4.14217331381E-15},{.6,6.91420260742E-15}}},
 {"Y26",1,{-3.46372223827E-5,1.281579310635E-5,5.404648232774E-6,2.834609087082E-8},
  {{9.7145370653E-16,-1.6654516695E-15,3.77813196607E-14},{Residual->1.20326964464E-16}},
  {{-.3,4.7359165847E-15},{-.2,2.97733112618E-15},{-.1,1.66026242049E-15},{5.55111512313E-17,8.71677421621E-16},
   {.1,1.03237637703E-15},{.2,2.17711118658E-15},{.3,3.9242703341E-15}}},
 {"Y66",1,{-3.46347264648E-5,1.281542089385E-5,5.402904777195E-6,2.819368506804E-8},
  {{1.61980543313E-15,-1.6516701938E-15,6.44310194094E-13},{Residual->5.01581874997E-16}},
  {{-.2,2.78166242505E-14},{-.15,1.65143507261E-14},{-.1,8.33373859737E-15},{-.05,2.90805642974E-15},{0,8.03500867657E-16},
   {.05,3.37798827597E-15},{.1,8.79143232007E-15},{.15,1.62471268717E-14},{.2,2.64319596731E-14}}},
 {"Y44",1,{-3.46347264648E-5,1.281542089385E-5,5.402904777195E-6,2.819368506805E-8},
  {{8.49713128108E-16,-2.9952904682E-17,8.11109414873E-15},{Residual->5.28431124352E-17}},
  {{-.6,3.80732790503E-15},{-.4,2.16816449985E-15},{-.2,1.13684680735E-15},{1.11022302463E-16,7.94883877716E-16},
   {.2,1.21076950086E-15},{.4,2.2266205025E-15},{.6,3.68780425002E-15}}},
 {"AY",1,{-3.46448595816E-5,1.281376266041E-5,5.402156100605E-6,2.812820862819E-8},
  {{-1.4464293658E-16,8.67787838417E-15,3.94178873747E-12},{Residual->1.14645424677E-15}},
  {{-.1,3.97836395842E-14},{-.07,1.66983132096E-14},{-.04,5.04066640738E-15},{-.01,9.27173608809E-16},{.02,1.92983280112E-15},
   {.05,1.1352506108E-14},{.08,2.47402445385E-14}}},
 {"EY",1,{-3.46559418757E-5,1.281294686254E-5,5.406853678632E-6,2.804485680828E-8},
  {{8.50263791585E-16,5.15372139828E-15,4.48232871415E-13},{Residual->6.61829615462E-17}},
  {{-.1,4.76434182006E-15},{-.07,2.81532720505E-15},{-.04,1.2951499644E-15},{-.01,7.89202089351E-16},{.02,1.19084986086E-15},
   {.05,2.20954571076E-15},{.08,4.13590076237E-15}}},
 {"R32",1,{-3.46566535324E-5,1.280658489776E-5,5.411538507928E-6,2.773143599664E-8},
  {{7.92325021427E-16,-5.4604293933E-15,2.39588668878E-13},{Residual->6.23799015295E-17}},
  {{-.1,3.71809332512E-15},{-.07,2.42367266965E-15},{-.04,1.27176489105E-15},{-.01,9.39095627579E-16},{.02,7.99333357259E-16},
   {.05,1.08346906143E-15},{.08,1.89842279936E-15}}},
 {"Y24",1,{-3.46500654803E-5,1.280958943987E-5,5.410938771691E-6,2.763855512336E-8},
  {{7.67100380781E-16,-2.2030219502E-16,2.19347952342E-15},{Residual->2.88881622369E-18}},
  {{-.3,1.0338335572E-15},{-.2,8.95619989848E-16},{-.1,8.0697027798E-16},{5.55111512313E-17,7.69032542436E-16},
   {.1,7.70138873391E-16},{.2,8.12119163661E-16},{.3,8.96162527503E-16}}},
 {"Y46",1,{-3.46452894011E-5,1.280702725506E-5,5.41108196093E-6,2.762711591485E-8},
  {{7.71654275771E-16,1.61379802465E-16,2.80099848893E-15},{Residual->9.59079941655E-18}},
  {{-.45,1.25697133303E-15},{-.3,9.90017676403E-16},{-.15,8.15004105398E-16},{-5.5511151231E-17,7.63889729307E-16},
   {.15,8.47059958396E-16},{.3,1.08310985838E-15},{.45,1.4101563175E-15}}},
 {"Y22",1,{-3.46116375841E-5,1.281000278219E-5,5.401654778823E-6,2.74499803449E-8},
  {{9.78918910814E-16,2.33115664928E-15,1.20668374304E-14},{Residual->1.05958846368E-16}},
  {{-.6,3.86624121703E-15},{-.4,2.08825622659E-15},{-.2,1.05279118915E-15},{1.11022302463E-16,7.63257533774E-16},
   {.2,1.98984502452E-15},{.4,3.92803781528E-15},{.6,6.67886129144E-15}}},
 {"Y26",1,{-3.46205393614E-5,1.280883187628E-5,5.414241686318E-6,2.589335536406E-8},
  {{8.8894919925E-16,-3.1796606977E-15,3.89503346826E-14},{Residual->1.08440014173E-16}},
  {{-.3,5.23087864446E-15},{-.2,3.23086767192E-15},{-.1,1.72695293094E-15},{5.55111512313E-17,7.53501420935E-16},
   {.1,8.66377745317E-16},{.2,1.84858256758E-15},{.3,3.47157712472E-15}}},
 {"Y66",1,{-3.46205393614E-5,1.280883187628E-5,5.414241686318E-6,2.589335536406E-8},
  {{1.59304484969E-15,-7.6425729655E-15,6.46120850437E-13},{Residual->6.41121137382E-16}},
  {{-.2,2.88765084059E-14},{-.15,1.77872543893E-14},{-.1,8.85814298957E-15},{-.05,3.16473522014E-15},{0,6.70465852009E-16},
   {.05,2.91705415089E-15},{.1,8.02046939372E-15},{.15,1.59804970897E-14},{.2,2.49804037217E-14}}},
 {"Y44",1,{-3.46213841553E-5,1.280899388718E-5,5.415317449195E-6,2.58858329057E-8},
  {{7.460780043E-16,1.48449182145E-16,8.31871655554E-15},{Residual->5.3726142213E-17}},
  {{-.6,3.62530184504E-15},{-.4,2.07854219542E-15},{-.2,1.05408942684E-15},{1.11022302463E-16,6.70465852009E-16},
   {.2,1.09381437798E-15},{.4,2.22730423023E-15},{.6,3.78999064479E-15}}}}
