FD	 1.041192E-5	 1.985533E-7	
EX2	 1.021693E-5	 3.743746E-7	
FD	 1.021600E-5	 3.590693E-7	
AY	 1.021574E-5	 3.585322E-7	
EY	 1.019609E-5	 4.487308E-8	
R32	 1.019600E-5	 4.146374E-8	
AY	 1.019623E-5	 4.167917E-8	
EY	 1.019538E-5	 4.015069E-8	
R32	 1.019618E-5	 4.014554E-8	
AY	 1.019621E-5	 4.017107E-8	
EY	 1.019612E-5	 3.995021E-8	
R32	 1.019619E-5	 3.998248E-8	
AY	 1.019619E-5	 3.997963E-8	
EY	 1.019608E-5	 3.992298E-8	
R32	 1.019603E-5	 3.987265E-8	
Y24	 1.019374E-5	 3.897668E-8	
Y46	 1.020921E-5	 3.312230E-8	
Y22	 1.020921E-5	 3.312230E-8	
Y26	 1.020923E-5	 3.257188E-8	
Y66	 1.020923E-5	 3.257188E-8	
Y44	 1.020892E-5	 3.229841E-8	
AY	 1.020927E-5	 3.202832E-8	
EY	 1.020814E-5	 3.100257E-8	
R32	 1.020668E-5	 3.084991E-8	
Y24	 1.020536E-5	 3.042629E-8	
Y46	 1.020605E-5	 3.038311E-8	
Y22	 1.020605E-5	 3.038311E-8	
Y26	 1.020638E-5	 3.000698E-8	
Y66	 1.020577E-5	 2.995927E-8	
Y44	 1.020577E-5	 2.995927E-8	
AY	 1.020589E-5	 2.945708E-8	
EY	 1.020592E-5	 2.941569E-8	
R32	 1.020539E-5	 2.939017E-8	
Y24	 1.020493E-5	 2.922682E-8	
Y46	 1.020493E-5	 2.922682E-8	
Y22	 1.020493E-5	 2.922682E-8	
Y26	 1.020550E-5	 2.852937E-8	
Y66	 1.020550E-5	 2.852937E-8	
Y44	 1.020545E-5	 2.850870E-8	
AY	 1.020590E-5	 2.766756E-8	
EY	 1.020580E-5	 2.764594E-8	
R32	 1.020541E-5	 2.755954E-8	
Y24	 1.020541E-5	 2.755954E-8	
Y46	 1.020541E-5	 2.755954E-8	
Y22	 1.020541E-5	 2.755954E-8	
Y26	 1.020578E-5	 2.721368E-8	
Y66	 1.020510E-5	 2.719982E-8	
Y44	 1.020518E-5	 2.718101E-8	
