FD	 8.858964E-6	 4.262025E-7	
EX2	 2.592763E-5	 8.416088E-7	
FD	 8.858888E-6	 4.262046E-7	
AY	 1.223799E-5	 6.276916E-7	
EY	 1.232584E-5	 5.136097E-7	
R32	 1.210376E-5	 2.274777E-7	
AY	 1.205567E-5	 2.206876E-7	
EY	 1.209386E-5	 1.188743E-7	
R32	 1.205432E-5	 6.263060E-8	
AY	 1.204333E-5	 6.186079E-8	
EY	 1.205250E-5	 5.124688E-8	
R32	 1.204445E-5	 4.881487E-8	
AY	 1.204522E-5	 4.880673E-8	
EY	 1.204680E-5	 4.871190E-8	
R32	 1.204585E-5	 4.874510E-8	
Y24	 1.201994E-5	 4.627083E-8	
Y46	 1.203380E-5	 4.609928E-8	
Y22	 1.203380E-5	 4.609928E-8	
Y26	 1.203380E-5	 4.609928E-8	
Y66	 1.203380E-5	 4.609928E-8	
Y44	 1.203380E-5	 4.609928E-8	
AY	 1.202830E-5	 4.600832E-8	
EY	 1.202812E-5	 4.603678E-8	
R32	 1.202747E-5	 4.601117E-8	
Y24	 1.202443E-5	 4.597047E-8	
Y46	 1.203508E-5	 4.584030E-8	
Y22	 1.203508E-5	 4.584030E-8	
Y26	 1.203508E-5	 4.584030E-8	
Y66	 1.203508E-5	 4.584030E-8	
Y44	 1.203508E-5	 4.584030E-8	
AY	 1.202993E-5	 4.563779E-8	
EY	 1.202993E-5	 4.563385E-8	
R32	 1.203001E-5	 4.562730E-8	
Y24	 1.202839E-5	 4.555271E-8	
Y46	 1.203817E-5	 4.545146E-8	
Y22	 1.203817E-5	 4.545146E-8	
Y26	 1.203817E-5	 4.545146E-8	
Y66	 1.203817E-5	 4.545146E-8	
Y44	 1.203817E-5	 4.545146E-8	
AY	 1.203277E-5	 4.530016E-8	
EY	 1.203271E-5	 4.535983E-8	
R32	 1.203314E-5	 4.528687E-8	
Y24	 1.203138E-5	 4.525273E-8	
Y46	 1.204016E-5	 4.518679E-8	
Y22	 1.204016E-5	 4.518679E-8	
Y26	 1.204016E-5	 4.518679E-8	
Y66	 1.204016E-5	 4.518679E-8	
Y44	 1.204016E-5	 4.518679E-8	
OCT1	 1.194781E-5	 4.513956E-8	
OCT2	 1.194657E-5	 4.512551E-8	
