2014225195821
QF19X  .646546
QD20X  -.29828
QF21X  .297451
{0,0,0,-0}
{.006,.007,.011,.005}
.0007
OTR0X .00014303343555746362
OTR1X .00023517787917986892
OTR2X 6.0754458244730256e-05
OTR3X .00019253841307798454
OTR0X 1.3187430831264222e-05
OTR1X 9.821303363795398e-06
OTR2X 8.728215086884227e-06
OTR3X 1.639200541135779e-05
2.7150632729506622e-09 1.8649396471416972
9.01534857836088e-12 4.126293111912565
