    -.003927	 7.715971E-8	
    -.003730	 7.370589E-8	
    -.003534	 7.039369E-8	
    -.003338	 6.791163E-8	
    -.003141	 6.492155E-8	
    -.002945	 6.292402E-8	
    -.002749	 6.007638E-8	
    -.002552	 5.745071E-8	
    -.002356	 5.568186E-8	
    -.002160	 5.353940E-8	
    -.001963	 5.177741E-8	
    -.001767	 4.945541E-8	
    -.001571	 4.788445E-8	
    -.001374	 4.597753E-8	
    -.001178	 4.425848E-8	
 -9.81701E-4	 4.277876E-8	
 -7.85361E-4	 4.142587E-8	
 -5.89021E-4	 4.059306E-8	
 -3.92680E-4	 3.966869E-8	
 -1.96340E-4	 3.903859E-8	
     .000000	 3.816023E-8	
 1.963402E-4	 3.776629E-8	
 3.926804E-4	 3.747060E-8	
 5.890207E-4	 3.745536E-8	
 7.853609E-4	 3.803027E-8	
 9.817011E-4	 3.867152E-8	
     .001178	 4.001121E-8	
     .001374	 4.156995E-8	
     .001571	 4.308181E-8	
     .001767	 4.466552E-8	
     .001963	 4.700388E-8	
     .002160	 4.999914E-8	
     .002356	 5.327934E-8	
     .002552	 5.683451E-8	
     .002749	 6.057970E-8	
     .002945	 6.472218E-8	
     .003141	 6.940417E-8	
     .003338	 7.388083E-8	
     .003534	 7.886978E-8	
     .003730	 8.323515E-8	
     .003927	 8.882603E-8	
