    -.006545	 4.103843E-6	
    -.006217	 4.071384E-6	
    -.005890	 4.038489E-6	
    -.005563	 4.006237E-6	
    -.005236	 3.974111E-6	
    -.004909	 3.940896E-6	
    -.004581	 3.908666E-6	
    -.004254	 3.877380E-6	
    -.003927	 3.847933E-6	
    -.003600	 3.819995E-6	
    -.003272	 3.791659E-6	
    -.002945	 3.761961E-6	
    -.002618	 3.735440E-6	
    -.002291	 3.710817E-6	
    -.001963	 3.685472E-6	
    -.001636	 3.663565E-6	
    -.001309	 3.644148E-6	
 -9.81701E-4	 3.624460E-6	
 -6.54467E-4	 3.607869E-6	
 -3.27234E-4	 3.591730E-6	
     .000000	 3.579753E-6	
 3.272337E-4	 3.569590E-6	
 6.544674E-4	 3.561586E-6	
 9.817011E-4	 3.555065E-6	
     .001309	 3.553523E-6	
     .001636	 3.552502E-6	
     .001963	 3.556929E-6	
     .002291	 3.564941E-6	
     .002618	 3.574520E-6	
     .002945	 3.585529E-6	
     .003272	 3.602120E-6	
     .003600	 3.625269E-6	
     .003927	 3.646226E-6	
     .004254	 3.673929E-6	
     .004581	 3.706101E-6	
     .004909	 3.739380E-6	
     .005236	 3.775664E-6	
     .005563	 3.817190E-6	
     .005890	 3.861702E-6	
     .006217	 3.910174E-6	
     .006545	 3.964042E-6	
