    -.003927	 1.355216E-7	
    -.003730	 1.284739E-7	
    -.003534	 1.217116E-7	
    -.003338	 1.151874E-7	
    -.003141	 1.074229E-7	
    -.002945	 1.003808E-7	
    -.002749	 9.423761E-8	
    -.002552	 8.657921E-8	
    -.002356	 8.104026E-8	
    -.002160	 7.486219E-8	
    -.001963	 6.907848E-8	
    -.001767	 6.313792E-8	
    -.001571	 5.892540E-8	
    -.001374	 5.431614E-8	
    -.001178	 5.142914E-8	
 -9.81701E-4	 4.909990E-8	
 -7.85361E-4	 4.707217E-8	
 -5.89021E-4	 4.574878E-8	
 -3.92680E-4	 4.511466E-8	
 -1.96340E-4	 4.498191E-8	
     .000000	 4.501228E-8	
 1.963402E-4	 4.538213E-8	
 3.926804E-4	 4.578890E-8	
 5.890207E-4	 4.663868E-8	
 7.853609E-4	 4.768089E-8	
 9.817011E-4	 4.941711E-8	
     .001178	 5.155008E-8	
     .001374	 5.413146E-8	
     .001571	 5.735698E-8	
     .001767	 6.134166E-8	
     .001963	 6.597318E-8	
     .002160	 7.107896E-8	
     .002356	 7.680052E-8	
     .002552	 8.361553E-8	
     .002749	 9.095235E-8	
     .002945	 9.879285E-8	
     .003141	 1.074677E-7	
     .003338	 1.163568E-7	
     .003534	 1.259375E-7	
     .003730	 1.353017E-7	
     .003927	 1.451162E-7	
