    -.005890	 1.058922E-7	
    -.005694	 1.031336E-7	
    -.005498	 1.006117E-7	
    -.005301	 9.837634E-8	
    -.005105	 9.571311E-8	
    -.004909	 9.284624E-8	
    -.004712	 9.076534E-8	
    -.004516	 8.832002E-8	
    -.004319	 8.447267E-8	
    -.004123	 8.263596E-8	
    -.003927	 7.883965E-8	
    -.003730	 7.682889E-8	
    -.003534	 7.342323E-8	
    -.003338	 7.021468E-8	
    -.003141	 6.763472E-8	
    -.002945	 6.482498E-8	
    -.002749	 6.146899E-8	
    -.002552	 5.870922E-8	
    -.002356	 5.617290E-8	
    -.002160	 5.336351E-8	
    -.001963	 5.088076E-8	
    -.001767	 4.817744E-8	
    -.001571	 4.567246E-8	
    -.001374	 4.341582E-8	
    -.001178	 4.121494E-8	
 -9.81701E-4	 3.956602E-8	
 -7.85361E-4	 3.793121E-8	
 -5.89021E-4	 3.662803E-8	
 -3.92680E-4	 3.585116E-8	
 -1.96340E-4	 3.505555E-8	
     .000000	 3.469731E-8	
 1.963402E-4	 3.487210E-8	
 3.926804E-4	 3.473780E-8	
 5.890207E-4	 3.464585E-8	
 7.853609E-4	 3.543062E-8	
 9.817011E-4	 3.613132E-8	
     .001178	 3.763228E-8	
     .001374	 3.902486E-8	
     .001571	 4.065752E-8	
     .001767	 4.266217E-8	
     .001963	 4.565480E-8	
     .002160	 4.878322E-8	
     .002356	 5.209798E-8	
     .002552	 5.568747E-8	
     .002749	 6.003570E-8	
     .002945	 6.482676E-8	
     .003141	 7.030168E-8	
     .003338	 7.586754E-8	
     .003534	 8.211293E-8	
     .003730	 8.792739E-8	
     .003927	 9.470510E-8	
     .004123	 1.015242E-7	
     .004319	 1.086141E-7	
     .004516	 1.164015E-7	
     .004712	 1.238372E-7	
     .004909	 1.316600E-7	
     .005105	 1.395713E-7	
     .005301	 1.478972E-7	
     .005498	 1.561670E-7	
     .005694	 1.644819E-7	
     .005890	 1.734076E-7	
