    -.003927	 1.212253E-7	
    -.003730	 1.147633E-7	
    -.003534	 1.082541E-7	
    -.003338	 1.012556E-7	
    -.003141	 9.434416E-8	
    -.002945	 8.822698E-8	
    -.002749	 8.175427E-8	
    -.002552	 7.578953E-8	
    -.002356	 7.003760E-8	
    -.002160	 6.477766E-8	
    -.001963	 6.087271E-8	
    -.001767	 5.642926E-8	
    -.001571	 5.270271E-8	
    -.001374	 4.946724E-8	
    -.001178	 4.666008E-8	
 -9.81701E-4	 4.452143E-8	
 -7.85361E-4	 4.277086E-8	
 -5.89021E-4	 4.169471E-8	
 -3.92680E-4	 4.048434E-8	
 -1.96340E-4	 4.013855E-8	
     .000000	 4.013682E-8	
 1.963402E-4	 4.050499E-8	
 3.926804E-4	 4.127566E-8	
 5.890207E-4	 4.268111E-8	
 7.853609E-4	 4.443335E-8	
 9.817011E-4	 4.689960E-8	
     .001178	 4.962083E-8	
     .001374	 5.297034E-8	
     .001571	 5.667486E-8	
     .001767	 6.101679E-8	
     .001963	 6.652835E-8	
     .002160	 7.299983E-8	
     .002356	 7.986043E-8	
     .002552	 8.668693E-8	
     .002749	 9.398438E-8	
     .002945	 1.020244E-7	
     .003141	 1.098740E-7	
     .003338	 1.173006E-7	
     .003534	 1.253046E-7	
     .003730	 1.333590E-7	
     .003927	 1.409924E-7	
