    -.003927	 1.104285E-7	
    -.003730	 1.042662E-7	
    -.003534	 9.784707E-8	
    -.003338	 9.145862E-8	
    -.003141	 8.535850E-8	
    -.002945	 7.924902E-8	
    -.002749	 7.350836E-8	
    -.002552	 6.809731E-8	
    -.002356	 6.323586E-8	
    -.002160	 5.879003E-8	
    -.001963	 5.498297E-8	
    -.001767	 5.159084E-8	
    -.001571	 4.874281E-8	
    -.001374	 4.629032E-8	
    -.001178	 4.429247E-8	
 -9.81701E-4	 4.278302E-8	
 -7.85361E-4	 4.161022E-8	
 -5.89021E-4	 4.117381E-8	
 -3.92680E-4	 4.118851E-8	
 -1.96340E-4	 4.161158E-8	
     .000000	 4.213618E-8	
 1.963402E-4	 4.316822E-8	
 3.926804E-4	 4.465496E-8	
 5.890207E-4	 4.639166E-8	
 7.853609E-4	 4.815863E-8	
 9.817011E-4	 5.016334E-8	
     .001178	 5.281102E-8	
     .001374	 5.571334E-8	
     .001571	 5.964594E-8	
     .001767	 6.362724E-8	
     .001963	 6.912413E-8	
     .002160	 7.438617E-8	
     .002356	 8.089162E-8	
     .002552	 8.796175E-8	
     .002749	 9.483063E-8	
     .002945	 1.029289E-7	
     .003141	 1.110510E-7	
     .003338	 1.196111E-7	
     .003534	 1.278496E-7	
     .003730	 1.364770E-7	
     .003927	 1.450700E-7	
