    -.003927	 1.686915E-7	
    -.003730	 1.598022E-7	
    -.003534	 1.510220E-7	
    -.003338	 1.421457E-7	
    -.003141	 1.334513E-7	
    -.002945	 1.247400E-7	
    -.002749	 1.161023E-7	
    -.002552	 1.076151E-7	
    -.002356	 9.931120E-8	
    -.002160	 9.129487E-8	
    -.001963	 8.336660E-8	
    -.001767	 7.600518E-8	
    -.001571	 6.929710E-8	
    -.001374	 6.301625E-8	
    -.001178	 5.773593E-8	
 -9.81701E-4	 5.293150E-8	
 -7.85361E-4	 4.895543E-8	
 -5.89021E-4	 4.572881E-8	
 -3.92680E-4	 4.334176E-8	
 -1.96340E-4	 4.155325E-8	
     .000000	 4.050496E-8	
 1.963402E-4	 4.006664E-8	
 3.926804E-4	 4.035725E-8	
 5.890207E-4	 4.198866E-8	
 7.853609E-4	 4.429857E-8	
 9.817011E-4	 4.745580E-8	
     .001178	 5.151658E-8	
     .001374	 5.654135E-8	
     .001571	 6.212447E-8	
     .001767	 6.851808E-8	
     .001963	 7.557798E-8	
     .002160	 8.312969E-8	
     .002356	 9.075436E-8	
     .002552	 9.840135E-8	
     .002749	 1.065637E-7	
     .002945	 1.148435E-7	
     .003141	 1.229202E-7	
     .003338	 1.309494E-7	
     .003534	 1.397013E-7	
     .003730	 1.480791E-7	
     .003927	 1.563999E-7	
