    -.003927	 9.675251E-8	
    -.003730	 9.143520E-8	
    -.003534	 8.636661E-8	
    -.003338	 8.148612E-8	
    -.003141	 7.714288E-8	
    -.002945	 7.260515E-8	
    -.002749	 6.840628E-8	
    -.002552	 6.422798E-8	
    -.002356	 6.021080E-8	
    -.002160	 5.697731E-8	
    -.001963	 5.346759E-8	
    -.001767	 5.047164E-8	
    -.001571	 4.772171E-8	
    -.001374	 4.537688E-8	
    -.001178	 4.341879E-8	
 -9.81701E-4	 4.157232E-8	
 -7.85361E-4	 3.987587E-8	
 -5.89021E-4	 3.882660E-8	
 -3.92680E-4	 3.816397E-8	
 -1.96340E-4	 3.786303E-8	
     .000000	 3.806062E-8	
 1.963402E-4	 3.863065E-8	
 3.926804E-4	 3.949239E-8	
 5.890207E-4	 4.090948E-8	
 7.853609E-4	 4.258783E-8	
 9.817011E-4	 4.475630E-8	
     .001178	 4.731424E-8	
     .001374	 5.021183E-8	
     .001571	 5.421801E-8	
     .001767	 5.824092E-8	
     .001963	 6.239597E-8	
     .002160	 6.696166E-8	
     .002356	 7.171112E-8	
     .002552	 7.710326E-8	
     .002749	 8.251994E-8	
     .002945	 8.859285E-8	
     .003141	 9.418349E-8	
     .003338	 1.003308E-7	
     .003534	 1.067775E-7	
     .003730	 1.135606E-7	
     .003927	 1.202012E-7	
