    -.005890	 1.614096E-7	
    -.005694	 1.520199E-7	
    -.005498	 1.426430E-7	
    -.005301	 1.338076E-7	
    -.005105	 1.253109E-7	
    -.004909	 1.173739E-7	
    -.004712	 1.096188E-7	
    -.004516	 1.024011E-7	
    -.004319	 9.548912E-8	
    -.004123	 8.899867E-8	
    -.003927	 8.296875E-8	
    -.003730	 7.739596E-8	
    -.003534	 7.213890E-8	
    -.003338	 6.729173E-8	
    -.003141	 6.274246E-8	
    -.002945	 5.856309E-8	
    -.002749	 5.483823E-8	
    -.002552	 5.133914E-8	
    -.002356	 4.820342E-8	
    -.002160	 4.533638E-8	
    -.001963	 4.275046E-8	
    -.001767	 4.039592E-8	
    -.001571	 3.831316E-8	
    -.001374	 3.645520E-8	
    -.001178	 3.489486E-8	
 -9.81701E-4	 3.353969E-8	
 -7.85361E-4	 3.239759E-8	
 -5.89021E-4	 3.147713E-8	
 -3.92680E-4	 3.078279E-8	
 -1.96340E-4	 3.023243E-8	
     .000000	 3.000611E-8	
 1.963402E-4	 2.994877E-8	
 3.926804E-4	 3.017094E-8	
 5.890207E-4	 3.075805E-8	
 7.853609E-4	 3.142693E-8	
 9.817011E-4	 3.240030E-8	
     .001178	 3.353070E-8	
     .001374	 3.494882E-8	
     .001571	 3.669527E-8	
     .001767	 3.840537E-8	
     .001963	 4.073318E-8	
     .002160	 4.329308E-8	
     .002356	 4.612121E-8	
     .002552	 4.910155E-8	
     .002749	 5.244591E-8	
     .002945	 5.601637E-8	
     .003141	 5.978720E-8	
     .003338	 6.381991E-8	
     .003534	 6.763193E-8	
     .003730	 7.209789E-8	
     .003927	 7.638501E-8	
     .004123	 8.094525E-8	
     .004319	 8.534144E-8	
     .004516	 9.029940E-8	
     .004712	 9.516713E-8	
     .004909	 1.003384E-7	
     .005105	 1.057392E-7	
     .005301	 1.111144E-7	
     .005498	 1.166231E-7	
     .005694	 1.220259E-7	
     .005890	 1.277568E-7	
