    -.003927	 1.514719E-7	
    -.003730	 1.441329E-7	
    -.003534	 1.364366E-7	
    -.003338	 1.285083E-7	
    -.003141	 1.206280E-7	
    -.002945	 1.125665E-7	
    -.002749	 1.048685E-7	
    -.002552	 9.761767E-8	
    -.002356	 8.961042E-8	
    -.002160	 8.268620E-8	
    -.001963	 7.619594E-8	
    -.001767	 6.985096E-8	
    -.001571	 6.425386E-8	
    -.001374	 5.972816E-8	
    -.001178	 5.576626E-8	
 -9.81701E-4	 5.198202E-8	
 -7.85361E-4	 4.955924E-8	
 -5.89021E-4	 4.758622E-8	
 -3.92680E-4	 4.650299E-8	
 -1.96340E-4	 4.565506E-8	
     .000000	 4.562008E-8	
 1.963402E-4	 4.600247E-8	
 3.926804E-4	 4.719841E-8	
 5.890207E-4	 4.951407E-8	
 7.853609E-4	 5.233285E-8	
 9.817011E-4	 5.564965E-8	
     .001178	 6.041608E-8	
     .001374	 6.535979E-8	
     .001571	 7.124456E-8	
     .001767	 7.838206E-8	
     .001963	 8.607827E-8	
     .002160	 9.457243E-8	
     .002356	 1.045230E-7	
     .002552	 1.142198E-7	
     .002749	 1.248729E-7	
     .002945	 1.351238E-7	
     .003141	 1.464865E-7	
     .003338	 1.574253E-7	
     .003534	 1.683052E-7	
     .003730	 1.792068E-7	
     .003927	 1.900287E-7	
