    -.003927	 1.313956E-7	
    -.003730	 1.232765E-7	
    -.003534	 1.159566E-7	
    -.003338	 1.075254E-7	
    -.003141	 1.003083E-7	
    -.002945	 9.279869E-8	
    -.002749	 8.549840E-8	
    -.002552	 7.817654E-8	
    -.002356	 7.196358E-8	
    -.002160	 6.641483E-8	
    -.001963	 6.051194E-8	
    -.001767	 5.630204E-8	
    -.001571	 5.213187E-8	
    -.001374	 4.838322E-8	
    -.001178	 4.469674E-8	
 -9.81701E-4	 4.192697E-8	
 -7.85361E-4	 3.970539E-8	
 -5.89021E-4	 3.784875E-8	
 -3.92680E-4	 3.625831E-8	
 -1.96340E-4	 3.566598E-8	
     .000000	 3.499784E-8	
 1.963402E-4	 3.506711E-8	
 3.926804E-4	 3.576301E-8	
 5.890207E-4	 3.673547E-8	
 7.853609E-4	 3.829279E-8	
 9.817011E-4	 4.075901E-8	
     .001178	 4.377733E-8	
     .001374	 4.748985E-8	
     .001571	 5.175054E-8	
     .001767	 5.726276E-8	
     .001963	 6.311798E-8	
     .002160	 6.940364E-8	
     .002356	 7.582186E-8	
     .002552	 8.258976E-8	
     .002749	 8.948309E-8	
     .002945	 9.605234E-8	
     .003141	 1.027518E-7	
     .003338	 1.092433E-7	
     .003534	 1.153666E-7	
     .003730	 1.212748E-7	
     .003927	 1.273193E-7	
