    -.003927	 1.331733E-7	
    -.003730	 1.246653E-7	
    -.003534	 1.163912E-7	
    -.003338	 1.079528E-7	
    -.003141	 9.993853E-8	
    -.002945	 9.265247E-8	
    -.002749	 8.549430E-8	
    -.002552	 7.878894E-8	
    -.002356	 7.230084E-8	
    -.002160	 6.627045E-8	
    -.001963	 6.137895E-8	
    -.001767	 5.687013E-8	
    -.001571	 5.289473E-8	
    -.001374	 4.959203E-8	
    -.001178	 4.699881E-8	
 -9.81701E-4	 4.497154E-8	
 -7.85361E-4	 4.346139E-8	
 -5.89021E-4	 4.269636E-8	
 -3.92680E-4	 4.253331E-8	
 -1.96340E-4	 4.255351E-8	
     .000000	 4.343454E-8	
 1.963402E-4	 4.448541E-8	
 3.926804E-4	 4.639421E-8	
 5.890207E-4	 4.861494E-8	
 7.853609E-4	 5.147261E-8	
 9.817011E-4	 5.467223E-8	
     .001178	 5.848066E-8	
     .001374	 6.289290E-8	
     .001571	 6.759432E-8	
     .001767	 7.290540E-8	
     .001963	 7.863286E-8	
     .002160	 8.466934E-8	
     .002356	 9.100037E-8	
     .002552	 9.743859E-8	
     .002749	 1.042661E-7	
     .002945	 1.114850E-7	
     .003141	 1.187697E-7	
     .003338	 1.260024E-7	
     .003534	 1.340975E-7	
     .003730	 1.419094E-7	
     .003927	 1.498078E-7	
