    -.005890	 6.460535E-8	
    -.005694	 6.389801E-8	
    -.005498	 6.262774E-8	
    -.005301	 6.123076E-8	
    -.005105	 5.976143E-8	
    -.004909	 5.793963E-8	
    -.004712	 5.675623E-8	
    -.004516	 5.484873E-8	
    -.004319	 5.346173E-8	
    -.004123	 5.178425E-8	
    -.003927	 4.979225E-8	
    -.003730	 4.803045E-8	
    -.003534	 4.642782E-8	
    -.003338	 4.470004E-8	
    -.003141	 4.335425E-8	
    -.002945	 4.187549E-8	
    -.002749	 4.047859E-8	
    -.002552	 3.908569E-8	
    -.002356	 3.820479E-8	
    -.002160	 3.743950E-8	
    -.001963	 3.674517E-8	
    -.001767	 3.574529E-8	
    -.001571	 3.516075E-8	
    -.001374	 3.457032E-8	
    -.001178	 3.427317E-8	
 -9.81701E-4	 3.375825E-8	
 -7.85361E-4	 3.368940E-8	
 -5.89021E-4	 3.363971E-8	
 -3.92680E-4	 3.363458E-8	
 -1.96340E-4	 3.358956E-8	
     .000000	 3.347990E-8	
 1.963402E-4	 3.384541E-8	
 3.926804E-4	 3.392336E-8	
 5.890207E-4	 3.433493E-8	
 7.853609E-4	 3.441777E-8	
 9.817011E-4	 3.514242E-8	
     .001178	 3.594632E-8	
     .001374	 3.713931E-8	
     .001571	 3.842046E-8	
     .001767	 3.980003E-8	
     .001963	 4.204217E-8	
     .002160	 4.445111E-8	
     .002356	 4.745730E-8	
     .002552	 5.063860E-8	
     .002749	 5.389918E-8	
     .002945	 5.750619E-8	
     .003141	 6.092979E-8	
     .003338	 6.436860E-8	
     .003534	 6.835300E-8	
     .003730	 7.204986E-8	
     .003927	 7.620473E-8	
     .004123	 8.049126E-8	
     .004319	 8.437470E-8	
     .004516	 8.825733E-8	
     .004712	 9.316031E-8	
     .004909	 9.737281E-8	
     .005105	 1.014317E-7	
     .005301	 1.056692E-7	
     .005498	 1.103575E-7	
     .005694	 1.151038E-7	
     .005890	 1.188634E-7	
