    -.003927	 9.442184E-8	
    -.003730	 9.017263E-8	
    -.003534	 8.600842E-8	
    -.003338	 8.178163E-8	
    -.003141	 7.759805E-8	
    -.002945	 7.345732E-8	
    -.002749	 6.907853E-8	
    -.002552	 6.469451E-8	
    -.002356	 6.050447E-8	
    -.002160	 5.663457E-8	
    -.001963	 5.281515E-8	
    -.001767	 4.939700E-8	
    -.001571	 4.616631E-8	
    -.001374	 4.339714E-8	
    -.001178	 4.080706E-8	
 -9.81701E-4	 3.886684E-8	
 -7.85361E-4	 3.719126E-8	
 -5.89021E-4	 3.595444E-8	
 -3.92680E-4	 3.513358E-8	
 -1.96340E-4	 3.535227E-8	
     .000000	 3.596332E-8	
 1.963402E-4	 3.645151E-8	
 3.926804E-4	 3.752276E-8	
 5.890207E-4	 3.917441E-8	
 7.853609E-4	 4.126006E-8	
 9.817011E-4	 4.399385E-8	
     .001178	 4.672055E-8	
     .001374	 4.984848E-8	
     .001571	 5.373843E-8	
     .001767	 5.775154E-8	
     .001963	 6.226225E-8	
     .002160	 6.676852E-8	
     .002356	 7.153691E-8	
     .002552	 7.704495E-8	
     .002749	 8.222936E-8	
     .002945	 8.812446E-8	
     .003141	 9.444051E-8	
     .003338	 9.996934E-8	
     .003534	 1.069099E-7	
     .003730	 1.136662E-7	
     .003927	 1.213183E-7	
