    -.003927	 8.630422E-8	
    -.003730	 8.198922E-8	
    -.003534	 7.779134E-8	
    -.003338	 7.397796E-8	
    -.003141	 6.998186E-8	
    -.002945	 6.613825E-8	
    -.002749	 6.256175E-8	
    -.002552	 5.875820E-8	
    -.002356	 5.535841E-8	
    -.002160	 5.206718E-8	
    -.001963	 4.906149E-8	
    -.001767	 4.666753E-8	
    -.001571	 4.434689E-8	
    -.001374	 4.217005E-8	
    -.001178	 4.025850E-8	
 -9.81701E-4	 3.853248E-8	
 -7.85361E-4	 3.714039E-8	
 -5.89021E-4	 3.602343E-8	
 -3.92680E-4	 3.538442E-8	
 -1.96340E-4	 3.546373E-8	
     .000000	 3.554062E-8	
 1.963402E-4	 3.608741E-8	
 3.926804E-4	 3.686310E-8	
 5.890207E-4	 3.828903E-8	
 7.853609E-4	 3.990544E-8	
 9.817011E-4	 4.184075E-8	
     .001178	 4.446893E-8	
     .001374	 4.763203E-8	
     .001571	 5.142569E-8	
     .001767	 5.500571E-8	
     .001963	 5.970092E-8	
     .002160	 6.453319E-8	
     .002356	 6.952482E-8	
     .002552	 7.458510E-8	
     .002749	 7.997377E-8	
     .002945	 8.547895E-8	
     .003141	 9.136547E-8	
     .003338	 9.765024E-8	
     .003534	 1.039190E-7	
     .003730	 1.104818E-7	
     .003927	 1.175299E-7	
