    -.003927	 1.356611E-7	
    -.003730	 1.310671E-7	
    -.003534	 1.261902E-7	
    -.003338	 1.209057E-7	
    -.003141	 1.158969E-7	
    -.002945	 1.107746E-7	
    -.002749	 1.049657E-7	
    -.002552	 1.003020E-7	
    -.002356	 9.534714E-8	
    -.002160	 9.004088E-8	
    -.001963	 8.575000E-8	
    -.001767	 8.060370E-8	
    -.001571	 7.586167E-8	
    -.001374	 7.170567E-8	
    -.001178	 6.750917E-8	
 -9.81701E-4	 6.348471E-8	
 -7.85361E-4	 5.980838E-8	
 -5.89021E-4	 5.622416E-8	
 -3.92680E-4	 5.286701E-8	
 -1.96340E-4	 5.007414E-8	
     .000000	 4.741002E-8	
 1.963402E-4	 4.493434E-8	
 3.926804E-4	 4.310085E-8	
 5.890207E-4	 4.161956E-8	
 7.853609E-4	 4.124812E-8	
 9.817011E-4	 4.155537E-8	
     .001178	 4.267586E-8	
     .001374	 4.445641E-8	
     .001571	 4.727414E-8	
     .001767	 5.171510E-8	
     .001963	 5.686087E-8	
     .002160	 6.365133E-8	
     .002356	 7.098710E-8	
     .002552	 7.935108E-8	
     .002749	 8.833273E-8	
     .002945	 9.770993E-8	
     .003141	 1.075546E-7	
     .003338	 1.172041E-7	
     .003534	 1.271013E-7	
     .003730	 1.370258E-7	
     .003927	 1.469545E-7	
