    -.003927	 1.449696E-7	
    -.003730	 1.370836E-7	
    -.003534	 1.289876E-7	
    -.003338	 1.222108E-7	
    -.003141	 1.144379E-7	
    -.002945	 1.064519E-7	
    -.002749	 9.890921E-8	
    -.002552	 9.150655E-8	
    -.002356	 8.398449E-8	
    -.002160	 7.647034E-8	
    -.001963	 6.943695E-8	
    -.001767	 6.298484E-8	
    -.001571	 5.728071E-8	
    -.001374	 5.256152E-8	
    -.001178	 4.786493E-8	
 -9.81701E-4	 4.401595E-8	
 -7.85361E-4	 4.089249E-8	
 -5.89021E-4	 3.867410E-8	
 -3.92680E-4	 3.701594E-8	
 -1.96340E-4	 3.587869E-8	
     .000000	 3.572236E-8	
 1.963402E-4	 3.630840E-8	
 3.926804E-4	 3.759673E-8	
 5.890207E-4	 3.982021E-8	
 7.853609E-4	 4.224615E-8	
 9.817011E-4	 4.576476E-8	
     .001178	 5.025077E-8	
     .001374	 5.658251E-8	
     .001571	 6.417773E-8	
     .001767	 7.236974E-8	
     .001963	 8.178953E-8	
     .002160	 9.142417E-8	
     .002356	 1.021740E-7	
     .002552	 1.133659E-7	
     .002749	 1.245930E-7	
     .002945	 1.364173E-7	
     .003141	 1.485488E-7	
     .003338	 1.604402E-7	
     .003534	 1.722047E-7	
     .003730	 1.841817E-7	
     .003927	 1.959819E-7	
