    -.003927	 1.528802E-7	
    -.003730	 1.441892E-7	
    -.003534	 1.358719E-7	
    -.003338	 1.282031E-7	
    -.003141	 1.201193E-7	
    -.002945	 1.115755E-7	
    -.002749	 1.031907E-7	
    -.002552	 9.490352E-8	
    -.002356	 8.729425E-8	
    -.002160	 7.994657E-8	
    -.001963	 7.284002E-8	
    -.001767	 6.640207E-8	
    -.001571	 6.026515E-8	
    -.001374	 5.496306E-8	
    -.001178	 5.019732E-8	
 -9.81701E-4	 4.607011E-8	
 -7.85361E-4	 4.266107E-8	
 -5.89021E-4	 3.991206E-8	
 -3.92680E-4	 3.786301E-8	
 -1.96340E-4	 3.627097E-8	
     .000000	 3.539955E-8	
 1.963402E-4	 3.540575E-8	
 3.926804E-4	 3.611358E-8	
 5.890207E-4	 3.701639E-8	
 7.853609E-4	 3.863711E-8	
 9.817011E-4	 4.118159E-8	
     .001178	 4.402411E-8	
     .001374	 4.776356E-8	
     .001571	 5.171246E-8	
     .001767	 5.615183E-8	
     .001963	 6.162629E-8	
     .002160	 6.725744E-8	
     .002356	 7.301791E-8	
     .002552	 7.919184E-8	
     .002749	 8.561682E-8	
     .002945	 9.208078E-8	
     .003141	 9.833568E-8	
     .003338	 1.051242E-7	
     .003534	 1.110605E-7	
     .003730	 1.174002E-7	
     .003927	 1.238782E-7	
