    -.003927	 1.259146E-7	
    -.003730	 1.208376E-7	
    -.003534	 1.158556E-7	
    -.003338	 1.104679E-7	
    -.003141	 1.047346E-7	
    -.002945	 9.919483E-8	
    -.002749	 9.377606E-8	
    -.002552	 8.862280E-8	
    -.002356	 8.299194E-8	
    -.002160	 7.761445E-8	
    -.001963	 7.202332E-8	
    -.001767	 6.693277E-8	
    -.001571	 6.218531E-8	
    -.001374	 5.757421E-8	
    -.001178	 5.309330E-8	
 -9.81701E-4	 4.916211E-8	
 -7.85361E-4	 4.526206E-8	
 -5.89021E-4	 4.208574E-8	
 -3.92680E-4	 3.917939E-8	
 -1.96340E-4	 3.697921E-8	
     .000000	 3.532368E-8	
 1.963402E-4	 3.422346E-8	
 3.926804E-4	 3.380323E-8	
 5.890207E-4	 3.373635E-8	
 7.853609E-4	 3.420277E-8	
 9.817011E-4	 3.566054E-8	
     .001178	 3.720719E-8	
     .001374	 3.981499E-8	
     .001571	 4.259225E-8	
     .001767	 4.575427E-8	
     .001963	 4.945760E-8	
     .002160	 5.345963E-8	
     .002356	 5.800783E-8	
     .002552	 6.259727E-8	
     .002749	 6.801851E-8	
     .002945	 7.313533E-8	
     .003141	 7.878024E-8	
     .003338	 8.498081E-8	
     .003534	 9.082043E-8	
     .003730	 9.771153E-8	
     .003927	 1.037731E-7	
