    -.003927	 1.559341E-7	
    -.003730	 1.480746E-7	
    -.003534	 1.400812E-7	
    -.003338	 1.312777E-7	
    -.003141	 1.235404E-7	
    -.002945	 1.154291E-7	
    -.002749	 1.069809E-7	
    -.002552	 9.850999E-8	
    -.002356	 9.037755E-8	
    -.002160	 8.247129E-8	
    -.001963	 7.469668E-8	
    -.001767	 6.759222E-8	
    -.001571	 6.106395E-8	
    -.001374	 5.529030E-8	
    -.001178	 5.039063E-8	
 -9.81701E-4	 4.620717E-8	
 -7.85361E-4	 4.252880E-8	
 -5.89021E-4	 3.972809E-8	
 -3.92680E-4	 3.763658E-8	
 -1.96340E-4	 3.628470E-8	
     .000000	 3.584805E-8	
 1.963402E-4	 3.617506E-8	
 3.926804E-4	 3.737204E-8	
 5.890207E-4	 3.918531E-8	
 7.853609E-4	 4.217244E-8	
 9.817011E-4	 4.556273E-8	
     .001178	 5.031925E-8	
     .001374	 5.555828E-8	
     .001571	 6.214564E-8	
     .001767	 6.923007E-8	
     .001963	 7.672722E-8	
     .002160	 8.431264E-8	
     .002356	 9.274453E-8	
     .002552	 1.008672E-7	
     .002749	 1.096905E-7	
     .002945	 1.184740E-7	
     .003141	 1.274203E-7	
     .003338	 1.366398E-7	
     .003534	 1.456487E-7	
     .003730	 1.551260E-7	
     .003927	 1.641420E-7	
