    -.003927	 1.453799E-7	
    -.003730	 1.379083E-7	
    -.003534	 1.308317E-7	
    -.003338	 1.229723E-7	
    -.003141	 1.158335E-7	
    -.002945	 1.085930E-7	
    -.002749	 1.012341E-7	
    -.002552	 9.420446E-8	
    -.002356	 8.694667E-8	
    -.002160	 8.017786E-8	
    -.001963	 7.347289E-8	
    -.001767	 6.724163E-8	
    -.001571	 6.131912E-8	
    -.001374	 5.564171E-8	
    -.001178	 5.071384E-8	
 -9.81701E-4	 4.652131E-8	
 -7.85361E-4	 4.284596E-8	
 -5.89021E-4	 3.977766E-8	
 -3.92680E-4	 3.733820E-8	
 -1.96340E-4	 3.526001E-8	
     .000000	 3.343216E-8	
 1.963402E-4	 3.265938E-8	
 3.926804E-4	 3.257497E-8	
 5.890207E-4	 3.314300E-8	
 7.853609E-4	 3.386811E-8	
 9.817011E-4	 3.558343E-8	
     .001178	 3.785268E-8	
     .001374	 4.109039E-8	
     .001571	 4.402170E-8	
     .001767	 4.808629E-8	
     .001963	 5.315203E-8	
     .002160	 5.821711E-8	
     .002356	 6.393653E-8	
     .002552	 7.009585E-8	
     .002749	 7.625830E-8	
     .002945	 8.237675E-8	
     .003141	 8.862500E-8	
     .003338	 9.580664E-8	
     .003534	 1.023032E-7	
     .003730	 1.090171E-7	
     .003927	 1.156732E-7	
