%!PS-Adobe-2.0 EPSF-2.0
%%Title: optic_10bx1by.eps
%%Creator: gnuplot 4.6 patchlevel 4
%%CreationDate: Thu May 25 20:58:11 2017
%%DocumentFonts: (atend)
%%BoundingBox: 50 50 410 302
%%EndComments
%%BeginProlog
/gnudict 256 dict def
gnudict begin
%
% The following true/false flags may be edited by hand if desired.
% The unit line width and grayscale image gamma correction may also be changed.
%
/Color true def
/Blacktext false def
/Solid false def
/Dashlength 1 def
/Landscape false def
/Level1 false def
/Rounded false def
/ClipToBoundingBox false def
/SuppressPDFMark false def
/TransparentPatterns false def
/gnulinewidth 5.000 def
/userlinewidth gnulinewidth def
/Gamma 1.0 def
/BackgroundColor {-1.000 -1.000 -1.000} def
%
/vshift -80 def
/dl1 {
  10.0 Dashlength mul mul
  Rounded { currentlinewidth 0.75 mul sub dup 0 le { pop 0.01 } if } if
} def
/dl2 {
  10.0 Dashlength mul mul
  Rounded { currentlinewidth 0.75 mul add } if
} def
/hpt_ 31.5 def
/vpt_ 31.5 def
/hpt hpt_ def
/vpt vpt_ def
/doclip {
  ClipToBoundingBox {
    newpath 50 50 moveto 410 50 lineto 410 302 lineto 50 302 lineto closepath
    clip
  } if
} def
%
% Gnuplot Prolog Version 4.6 (September 2012)
%
%/SuppressPDFMark true def
%
/M {moveto} bind def
/L {lineto} bind def
/R {rmoveto} bind def
/V {rlineto} bind def
/N {newpath moveto} bind def
/Z {closepath} bind def
/C {setrgbcolor} bind def
/f {rlineto fill} bind def
/g {setgray} bind def
/Gshow {show} def   % May be redefined later in the file to support UTF-8
/vpt2 vpt 2 mul def
/hpt2 hpt 2 mul def
/Lshow {currentpoint stroke M 0 vshift R 
	Blacktext {gsave 0 setgray show grestore} {show} ifelse} def
/Rshow {currentpoint stroke M dup stringwidth pop neg vshift R
	Blacktext {gsave 0 setgray show grestore} {show} ifelse} def
/Cshow {currentpoint stroke M dup stringwidth pop -2 div vshift R 
	Blacktext {gsave 0 setgray show grestore} {show} ifelse} def
/UP {dup vpt_ mul /vpt exch def hpt_ mul /hpt exch def
  /hpt2 hpt 2 mul def /vpt2 vpt 2 mul def} def
/DL {Color {setrgbcolor Solid {pop []} if 0 setdash}
 {pop pop pop 0 setgray Solid {pop []} if 0 setdash} ifelse} def
/BL {stroke userlinewidth 2 mul setlinewidth
	Rounded {1 setlinejoin 1 setlinecap} if} def
/AL {stroke userlinewidth 2 div setlinewidth
	Rounded {1 setlinejoin 1 setlinecap} if} def
/UL {dup gnulinewidth mul /userlinewidth exch def
	dup 1 lt {pop 1} if 10 mul /udl exch def} def
/PL {stroke userlinewidth setlinewidth
	Rounded {1 setlinejoin 1 setlinecap} if} def
3.8 setmiterlimit
% Default Line colors
/LCw {1 1 1} def
/LCb {0 0 0} def
/LCa {0 0 0} def
/LC0 {1 0 0} def
/LC1 {0 1 0} def
/LC2 {0 0 1} def
/LC3 {1 0 1} def
/LC4 {0 1 1} def
/LC5 {1 1 0} def
/LC6 {0 0 0} def
/LC7 {1 0.3 0} def
/LC8 {0.5 0.5 0.5} def
% Default Line Types
/LTw {PL [] 1 setgray} def
/LTb {BL [] LCb DL} def
/LTa {AL [1 udl mul 2 udl mul] 0 setdash LCa setrgbcolor} def
/LT0 {PL [] LC0 DL} def
/LT1 {PL [4 dl1 2 dl2] LC1 DL} def
/LT2 {PL [2 dl1 3 dl2] LC2 DL} def
/LT3 {PL [1 dl1 1.5 dl2] LC3 DL} def
/LT4 {PL [6 dl1 2 dl2 1 dl1 2 dl2] LC4 DL} def
/LT5 {PL [3 dl1 3 dl2 1 dl1 3 dl2] LC5 DL} def
/LT6 {PL [2 dl1 2 dl2 2 dl1 6 dl2] LC6 DL} def
/LT7 {PL [1 dl1 2 dl2 6 dl1 2 dl2 1 dl1 2 dl2] LC7 DL} def
/LT8 {PL [2 dl1 2 dl2 2 dl1 2 dl2 2 dl1 2 dl2 2 dl1 4 dl2] LC8 DL} def
/Pnt {stroke [] 0 setdash gsave 1 setlinecap M 0 0 V stroke grestore} def
/Dia {stroke [] 0 setdash 2 copy vpt add M
  hpt neg vpt neg V hpt vpt neg V
  hpt vpt V hpt neg vpt V closepath stroke
  Pnt} def
/Pls {stroke [] 0 setdash vpt sub M 0 vpt2 V
  currentpoint stroke M
  hpt neg vpt neg R hpt2 0 V stroke
 } def
/Box {stroke [] 0 setdash 2 copy exch hpt sub exch vpt add M
  0 vpt2 neg V hpt2 0 V 0 vpt2 V
  hpt2 neg 0 V closepath stroke
  Pnt} def
/Crs {stroke [] 0 setdash exch hpt sub exch vpt add M
  hpt2 vpt2 neg V currentpoint stroke M
  hpt2 neg 0 R hpt2 vpt2 V stroke} def
/TriU {stroke [] 0 setdash 2 copy vpt 1.12 mul add M
  hpt neg vpt -1.62 mul V
  hpt 2 mul 0 V
  hpt neg vpt 1.62 mul V closepath stroke
  Pnt} def
/Star {2 copy Pls Crs} def
/BoxF {stroke [] 0 setdash exch hpt sub exch vpt add M
  0 vpt2 neg V hpt2 0 V 0 vpt2 V
  hpt2 neg 0 V closepath fill} def
/TriUF {stroke [] 0 setdash vpt 1.12 mul add M
  hpt neg vpt -1.62 mul V
  hpt 2 mul 0 V
  hpt neg vpt 1.62 mul V closepath fill} def
/TriD {stroke [] 0 setdash 2 copy vpt 1.12 mul sub M
  hpt neg vpt 1.62 mul V
  hpt 2 mul 0 V
  hpt neg vpt -1.62 mul V closepath stroke
  Pnt} def
/TriDF {stroke [] 0 setdash vpt 1.12 mul sub M
  hpt neg vpt 1.62 mul V
  hpt 2 mul 0 V
  hpt neg vpt -1.62 mul V closepath fill} def
/DiaF {stroke [] 0 setdash vpt add M
  hpt neg vpt neg V hpt vpt neg V
  hpt vpt V hpt neg vpt V closepath fill} def
/Pent {stroke [] 0 setdash 2 copy gsave
  translate 0 hpt M 4 {72 rotate 0 hpt L} repeat
  closepath stroke grestore Pnt} def
/PentF {stroke [] 0 setdash gsave
  translate 0 hpt M 4 {72 rotate 0 hpt L} repeat
  closepath fill grestore} def
/Circle {stroke [] 0 setdash 2 copy
  hpt 0 360 arc stroke Pnt} def
/CircleF {stroke [] 0 setdash hpt 0 360 arc fill} def
/C0 {BL [] 0 setdash 2 copy moveto vpt 90 450 arc} bind def
/C1 {BL [] 0 setdash 2 copy moveto
	2 copy vpt 0 90 arc closepath fill
	vpt 0 360 arc closepath} bind def
/C2 {BL [] 0 setdash 2 copy moveto
	2 copy vpt 90 180 arc closepath fill
	vpt 0 360 arc closepath} bind def
/C3 {BL [] 0 setdash 2 copy moveto
	2 copy vpt 0 180 arc closepath fill
	vpt 0 360 arc closepath} bind def
/C4 {BL [] 0 setdash 2 copy moveto
	2 copy vpt 180 270 arc closepath fill
	vpt 0 360 arc closepath} bind def
/C5 {BL [] 0 setdash 2 copy moveto
	2 copy vpt 0 90 arc
	2 copy moveto
	2 copy vpt 180 270 arc closepath fill
	vpt 0 360 arc} bind def
/C6 {BL [] 0 setdash 2 copy moveto
	2 copy vpt 90 270 arc closepath fill
	vpt 0 360 arc closepath} bind def
/C7 {BL [] 0 setdash 2 copy moveto
	2 copy vpt 0 270 arc closepath fill
	vpt 0 360 arc closepath} bind def
/C8 {BL [] 0 setdash 2 copy moveto
	2 copy vpt 270 360 arc closepath fill
	vpt 0 360 arc closepath} bind def
/C9 {BL [] 0 setdash 2 copy moveto
	2 copy vpt 270 450 arc closepath fill
	vpt 0 360 arc closepath} bind def
/C10 {BL [] 0 setdash 2 copy 2 copy moveto vpt 270 360 arc closepath fill
	2 copy moveto
	2 copy vpt 90 180 arc closepath fill
	vpt 0 360 arc closepath} bind def
/C11 {BL [] 0 setdash 2 copy moveto
	2 copy vpt 0 180 arc closepath fill
	2 copy moveto
	2 copy vpt 270 360 arc closepath fill
	vpt 0 360 arc closepath} bind def
/C12 {BL [] 0 setdash 2 copy moveto
	2 copy vpt 180 360 arc closepath fill
	vpt 0 360 arc closepath} bind def
/C13 {BL [] 0 setdash 2 copy moveto
	2 copy vpt 0 90 arc closepath fill
	2 copy moveto
	2 copy vpt 180 360 arc closepath fill
	vpt 0 360 arc closepath} bind def
/C14 {BL [] 0 setdash 2 copy moveto
	2 copy vpt 90 360 arc closepath fill
	vpt 0 360 arc} bind def
/C15 {BL [] 0 setdash 2 copy vpt 0 360 arc closepath fill
	vpt 0 360 arc closepath} bind def
/Rec {newpath 4 2 roll moveto 1 index 0 rlineto 0 exch rlineto
	neg 0 rlineto closepath} bind def
/Square {dup Rec} bind def
/Bsquare {vpt sub exch vpt sub exch vpt2 Square} bind def
/S0 {BL [] 0 setdash 2 copy moveto 0 vpt rlineto BL Bsquare} bind def
/S1 {BL [] 0 setdash 2 copy vpt Square fill Bsquare} bind def
/S2 {BL [] 0 setdash 2 copy exch vpt sub exch vpt Square fill Bsquare} bind def
/S3 {BL [] 0 setdash 2 copy exch vpt sub exch vpt2 vpt Rec fill Bsquare} bind def
/S4 {BL [] 0 setdash 2 copy exch vpt sub exch vpt sub vpt Square fill Bsquare} bind def
/S5 {BL [] 0 setdash 2 copy 2 copy vpt Square fill
	exch vpt sub exch vpt sub vpt Square fill Bsquare} bind def
/S6 {BL [] 0 setdash 2 copy exch vpt sub exch vpt sub vpt vpt2 Rec fill Bsquare} bind def
/S7 {BL [] 0 setdash 2 copy exch vpt sub exch vpt sub vpt vpt2 Rec fill
	2 copy vpt Square fill Bsquare} bind def
/S8 {BL [] 0 setdash 2 copy vpt sub vpt Square fill Bsquare} bind def
/S9 {BL [] 0 setdash 2 copy vpt sub vpt vpt2 Rec fill Bsquare} bind def
/S10 {BL [] 0 setdash 2 copy vpt sub vpt Square fill 2 copy exch vpt sub exch vpt Square fill
	Bsquare} bind def
/S11 {BL [] 0 setdash 2 copy vpt sub vpt Square fill 2 copy exch vpt sub exch vpt2 vpt Rec fill
	Bsquare} bind def
/S12 {BL [] 0 setdash 2 copy exch vpt sub exch vpt sub vpt2 vpt Rec fill Bsquare} bind def
/S13 {BL [] 0 setdash 2 copy exch vpt sub exch vpt sub vpt2 vpt Rec fill
	2 copy vpt Square fill Bsquare} bind def
/S14 {BL [] 0 setdash 2 copy exch vpt sub exch vpt sub vpt2 vpt Rec fill
	2 copy exch vpt sub exch vpt Square fill Bsquare} bind def
/S15 {BL [] 0 setdash 2 copy Bsquare fill Bsquare} bind def
/D0 {gsave translate 45 rotate 0 0 S0 stroke grestore} bind def
/D1 {gsave translate 45 rotate 0 0 S1 stroke grestore} bind def
/D2 {gsave translate 45 rotate 0 0 S2 stroke grestore} bind def
/D3 {gsave translate 45 rotate 0 0 S3 stroke grestore} bind def
/D4 {gsave translate 45 rotate 0 0 S4 stroke grestore} bind def
/D5 {gsave translate 45 rotate 0 0 S5 stroke grestore} bind def
/D6 {gsave translate 45 rotate 0 0 S6 stroke grestore} bind def
/D7 {gsave translate 45 rotate 0 0 S7 stroke grestore} bind def
/D8 {gsave translate 45 rotate 0 0 S8 stroke grestore} bind def
/D9 {gsave translate 45 rotate 0 0 S9 stroke grestore} bind def
/D10 {gsave translate 45 rotate 0 0 S10 stroke grestore} bind def
/D11 {gsave translate 45 rotate 0 0 S11 stroke grestore} bind def
/D12 {gsave translate 45 rotate 0 0 S12 stroke grestore} bind def
/D13 {gsave translate 45 rotate 0 0 S13 stroke grestore} bind def
/D14 {gsave translate 45 rotate 0 0 S14 stroke grestore} bind def
/D15 {gsave translate 45 rotate 0 0 S15 stroke grestore} bind def
/DiaE {stroke [] 0 setdash vpt add M
  hpt neg vpt neg V hpt vpt neg V
  hpt vpt V hpt neg vpt V closepath stroke} def
/BoxE {stroke [] 0 setdash exch hpt sub exch vpt add M
  0 vpt2 neg V hpt2 0 V 0 vpt2 V
  hpt2 neg 0 V closepath stroke} def
/TriUE {stroke [] 0 setdash vpt 1.12 mul add M
  hpt neg vpt -1.62 mul V
  hpt 2 mul 0 V
  hpt neg vpt 1.62 mul V closepath stroke} def
/TriDE {stroke [] 0 setdash vpt 1.12 mul sub M
  hpt neg vpt 1.62 mul V
  hpt 2 mul 0 V
  hpt neg vpt -1.62 mul V closepath stroke} def
/PentE {stroke [] 0 setdash gsave
  translate 0 hpt M 4 {72 rotate 0 hpt L} repeat
  closepath stroke grestore} def
/CircE {stroke [] 0 setdash 
  hpt 0 360 arc stroke} def
/Opaque {gsave closepath 1 setgray fill grestore 0 setgray closepath} def
/DiaW {stroke [] 0 setdash vpt add M
  hpt neg vpt neg V hpt vpt neg V
  hpt vpt V hpt neg vpt V Opaque stroke} def
/BoxW {stroke [] 0 setdash exch hpt sub exch vpt add M
  0 vpt2 neg V hpt2 0 V 0 vpt2 V
  hpt2 neg 0 V Opaque stroke} def
/TriUW {stroke [] 0 setdash vpt 1.12 mul add M
  hpt neg vpt -1.62 mul V
  hpt 2 mul 0 V
  hpt neg vpt 1.62 mul V Opaque stroke} def
/TriDW {stroke [] 0 setdash vpt 1.12 mul sub M
  hpt neg vpt 1.62 mul V
  hpt 2 mul 0 V
  hpt neg vpt -1.62 mul V Opaque stroke} def
/PentW {stroke [] 0 setdash gsave
  translate 0 hpt M 4 {72 rotate 0 hpt L} repeat
  Opaque stroke grestore} def
/CircW {stroke [] 0 setdash 
  hpt 0 360 arc Opaque stroke} def
/BoxFill {gsave Rec 1 setgray fill grestore} def
/Density {
  /Fillden exch def
  currentrgbcolor
  /ColB exch def /ColG exch def /ColR exch def
  /ColR ColR Fillden mul Fillden sub 1 add def
  /ColG ColG Fillden mul Fillden sub 1 add def
  /ColB ColB Fillden mul Fillden sub 1 add def
  ColR ColG ColB setrgbcolor} def
/BoxColFill {gsave Rec PolyFill} def
/PolyFill {gsave Density fill grestore grestore} def
/h {rlineto rlineto rlineto gsave closepath fill grestore} bind def
%
% PostScript Level 1 Pattern Fill routine for rectangles
% Usage: x y w h s a XX PatternFill
%	x,y = lower left corner of box to be filled
%	w,h = width and height of box
%	  a = angle in degrees between lines and x-axis
%	 XX = 0/1 for no/yes cross-hatch
%
/PatternFill {gsave /PFa [ 9 2 roll ] def
  PFa 0 get PFa 2 get 2 div add PFa 1 get PFa 3 get 2 div add translate
  PFa 2 get -2 div PFa 3 get -2 div PFa 2 get PFa 3 get Rec
  TransparentPatterns {} {gsave 1 setgray fill grestore} ifelse
  clip
  currentlinewidth 0.5 mul setlinewidth
  /PFs PFa 2 get dup mul PFa 3 get dup mul add sqrt def
  0 0 M PFa 5 get rotate PFs -2 div dup translate
  0 1 PFs PFa 4 get div 1 add floor cvi
	{PFa 4 get mul 0 M 0 PFs V} for
  0 PFa 6 get ne {
	0 1 PFs PFa 4 get div 1 add floor cvi
	{PFa 4 get mul 0 2 1 roll M PFs 0 V} for
 } if
  stroke grestore} def
%
/languagelevel where
 {pop languagelevel} {1} ifelse
 2 lt
	{/InterpretLevel1 true def}
	{/InterpretLevel1 Level1 def}
 ifelse
%
% PostScript level 2 pattern fill definitions
%
/Level2PatternFill {
/Tile8x8 {/PaintType 2 /PatternType 1 /TilingType 1 /BBox [0 0 8 8] /XStep 8 /YStep 8}
	bind def
/KeepColor {currentrgbcolor [/Pattern /DeviceRGB] setcolorspace} bind def
<< Tile8x8
 /PaintProc {0.5 setlinewidth pop 0 0 M 8 8 L 0 8 M 8 0 L stroke} 
>> matrix makepattern
/Pat1 exch def
<< Tile8x8
 /PaintProc {0.5 setlinewidth pop 0 0 M 8 8 L 0 8 M 8 0 L stroke
	0 4 M 4 8 L 8 4 L 4 0 L 0 4 L stroke}
>> matrix makepattern
/Pat2 exch def
<< Tile8x8
 /PaintProc {0.5 setlinewidth pop 0 0 M 0 8 L
	8 8 L 8 0 L 0 0 L fill}
>> matrix makepattern
/Pat3 exch def
<< Tile8x8
 /PaintProc {0.5 setlinewidth pop -4 8 M 8 -4 L
	0 12 M 12 0 L stroke}
>> matrix makepattern
/Pat4 exch def
<< Tile8x8
 /PaintProc {0.5 setlinewidth pop -4 0 M 8 12 L
	0 -4 M 12 8 L stroke}
>> matrix makepattern
/Pat5 exch def
<< Tile8x8
 /PaintProc {0.5 setlinewidth pop -2 8 M 4 -4 L
	0 12 M 8 -4 L 4 12 M 10 0 L stroke}
>> matrix makepattern
/Pat6 exch def
<< Tile8x8
 /PaintProc {0.5 setlinewidth pop -2 0 M 4 12 L
	0 -4 M 8 12 L 4 -4 M 10 8 L stroke}
>> matrix makepattern
/Pat7 exch def
<< Tile8x8
 /PaintProc {0.5 setlinewidth pop 8 -2 M -4 4 L
	12 0 M -4 8 L 12 4 M 0 10 L stroke}
>> matrix makepattern
/Pat8 exch def
<< Tile8x8
 /PaintProc {0.5 setlinewidth pop 0 -2 M 12 4 L
	-4 0 M 12 8 L -4 4 M 8 10 L stroke}
>> matrix makepattern
/Pat9 exch def
/Pattern1 {PatternBgnd KeepColor Pat1 setpattern} bind def
/Pattern2 {PatternBgnd KeepColor Pat2 setpattern} bind def
/Pattern3 {PatternBgnd KeepColor Pat3 setpattern} bind def
/Pattern4 {PatternBgnd KeepColor Landscape {Pat5} {Pat4} ifelse setpattern} bind def
/Pattern5 {PatternBgnd KeepColor Landscape {Pat4} {Pat5} ifelse setpattern} bind def
/Pattern6 {PatternBgnd KeepColor Landscape {Pat9} {Pat6} ifelse setpattern} bind def
/Pattern7 {PatternBgnd KeepColor Landscape {Pat8} {Pat7} ifelse setpattern} bind def
} def
%
%
%End of PostScript Level 2 code
%
/PatternBgnd {
  TransparentPatterns {} {gsave 1 setgray fill grestore} ifelse
} def
%
% Substitute for Level 2 pattern fill codes with
% grayscale if Level 2 support is not selected.
%
/Level1PatternFill {
/Pattern1 {0.250 Density} bind def
/Pattern2 {0.500 Density} bind def
/Pattern3 {0.750 Density} bind def
/Pattern4 {0.125 Density} bind def
/Pattern5 {0.375 Density} bind def
/Pattern6 {0.625 Density} bind def
/Pattern7 {0.875 Density} bind def
} def
%
% Now test for support of Level 2 code
%
Level1 {Level1PatternFill} {Level2PatternFill} ifelse
%
/Symbol-Oblique /Symbol findfont [1 0 .167 1 0 0] makefont
dup length dict begin {1 index /FID eq {pop pop} {def} ifelse} forall
currentdict end definefont pop
/MFshow {
   { dup 5 get 3 ge
     { 5 get 3 eq {gsave} {grestore} ifelse }
     {dup dup 0 get findfont exch 1 get scalefont setfont
     [ currentpoint ] exch dup 2 get 0 exch R dup 5 get 2 ne {dup dup 6
     get exch 4 get {Gshow} {stringwidth pop 0 R} ifelse }if dup 5 get 0 eq
     {dup 3 get {2 get neg 0 exch R pop} {pop aload pop M} ifelse} {dup 5
     get 1 eq {dup 2 get exch dup 3 get exch 6 get stringwidth pop -2 div
     dup 0 R} {dup 6 get stringwidth pop -2 div 0 R 6 get
     show 2 index {aload pop M neg 3 -1 roll neg R pop pop} {pop pop pop
     pop aload pop M} ifelse }ifelse }ifelse }
     ifelse }
   forall} def
/Gswidth {dup type /stringtype eq {stringwidth} {pop (n) stringwidth} ifelse} def
/MFwidth {0 exch { dup 5 get 3 ge { 5 get 3 eq { 0 } { pop } ifelse }
 {dup 3 get{dup dup 0 get findfont exch 1 get scalefont setfont
     6 get Gswidth pop add} {pop} ifelse} ifelse} forall} def
/MLshow { currentpoint stroke M
  0 exch R
  Blacktext {gsave 0 setgray MFshow grestore} {MFshow} ifelse } bind def
/MRshow { currentpoint stroke M
  exch dup MFwidth neg 3 -1 roll R
  Blacktext {gsave 0 setgray MFshow grestore} {MFshow} ifelse } bind def
/MCshow { currentpoint stroke M
  exch dup MFwidth -2 div 3 -1 roll R
  Blacktext {gsave 0 setgray MFshow grestore} {MFshow} ifelse } bind def
/XYsave    { [( ) 1 2 true false 3 ()] } bind def
/XYrestore { [( ) 1 2 true false 4 ()] } bind def
Level1 SuppressPDFMark or 
{} {
/SDict 10 dict def
systemdict /pdfmark known not {
  userdict /pdfmark systemdict /cleartomark get put
} if
SDict begin [
  /Title (optic_10bx1by.eps)
  /Subject (gnuplot plot)
  /Creator (gnuplot 4.6 patchlevel 4)
  /Author (rj-yang)
%  /Producer (gnuplot)
%  /Keywords ()
  /CreationDate (Thu May 25 20:58:11 2017)
  /DOCINFO pdfmark
end
} ifelse
end
%%EndProlog
%%Page: 1 1
gnudict begin
gsave
doclip
50 50 translate
0.050 0.050 scale
0 setgray
newpath
(Helvetica) findfont 240 scalefont setfont
BackgroundColor 0 lt 3 1 roll 0 lt exch 0 lt or or not {BackgroundColor C 1.000 0 0 7200.00 5040.00 BoxColFill} if
1.000 UL
LTb
LCb setrgbcolor
1176 768 M
63 0 V
5528 0 R
-63 0 V
stroke
1032 768 M
[ [(Helvetica) 240.0 0.0 true true 0 ( 0)]
] -80.0 MRshow
1.000 UL
LTb
LCb setrgbcolor
1176 1432 M
63 0 V
5528 0 R
-63 0 V
stroke
1032 1432 M
[ [(Helvetica) 240.0 0.0 true true 0 ( 20)]
] -80.0 MRshow
1.000 UL
LTb
LCb setrgbcolor
1176 2096 M
63 0 V
5528 0 R
-63 0 V
stroke
1032 2096 M
[ [(Helvetica) 240.0 0.0 true true 0 ( 40)]
] -80.0 MRshow
1.000 UL
LTb
LCb setrgbcolor
1176 2760 M
63 0 V
5528 0 R
-63 0 V
stroke
1032 2760 M
[ [(Helvetica) 240.0 0.0 true true 0 ( 60)]
] -80.0 MRshow
1.000 UL
LTb
LCb setrgbcolor
1176 3423 M
63 0 V
5528 0 R
-63 0 V
stroke
1032 3423 M
[ [(Helvetica) 240.0 0.0 true true 0 ( 80)]
] -80.0 MRshow
1.000 UL
LTb
LCb setrgbcolor
1176 4087 M
63 0 V
5528 0 R
-63 0 V
stroke
1032 4087 M
[ [(Helvetica) 240.0 0.0 true true 0 ( 100)]
] -80.0 MRshow
1.000 UL
LTb
LCb setrgbcolor
1176 4751 M
63 0 V
5528 0 R
-63 0 V
stroke
1032 4751 M
[ [(Helvetica) 240.0 0.0 true true 0 ( 120)]
] -80.0 MRshow
1.000 UL
LTb
LCb setrgbcolor
1176 768 M
0 63 V
0 3920 R
0 -63 V
stroke
1176 528 M
[ [(Helvetica) 240.0 0.0 true true 0 ( 0)]
] -80.0 MCshow
1.000 UL
LTb
LCb setrgbcolor
1797 768 M
0 63 V
0 3920 R
0 -63 V
stroke
1797 528 M
[ [(Helvetica) 240.0 0.0 true true 0 ( 10)]
] -80.0 MCshow
1.000 UL
LTb
LCb setrgbcolor
2418 768 M
0 63 V
0 3920 R
0 -63 V
stroke
2418 528 M
[ [(Helvetica) 240.0 0.0 true true 0 ( 20)]
] -80.0 MCshow
1.000 UL
LTb
LCb setrgbcolor
3040 768 M
0 63 V
0 3920 R
0 -63 V
stroke
3040 528 M
[ [(Helvetica) 240.0 0.0 true true 0 ( 30)]
] -80.0 MCshow
1.000 UL
LTb
LCb setrgbcolor
3661 768 M
0 63 V
0 3920 R
0 -63 V
stroke
3661 528 M
[ [(Helvetica) 240.0 0.0 true true 0 ( 40)]
] -80.0 MCshow
1.000 UL
LTb
LCb setrgbcolor
4282 768 M
0 63 V
0 3920 R
0 -63 V
stroke
4282 528 M
[ [(Helvetica) 240.0 0.0 true true 0 ( 50)]
] -80.0 MCshow
1.000 UL
LTb
LCb setrgbcolor
4903 768 M
0 63 V
0 3920 R
0 -63 V
stroke
4903 528 M
[ [(Helvetica) 240.0 0.0 true true 0 ( 60)]
] -80.0 MCshow
1.000 UL
LTb
LCb setrgbcolor
5525 768 M
0 63 V
0 3920 R
0 -63 V
stroke
5525 528 M
[ [(Helvetica) 240.0 0.0 true true 0 ( 70)]
] -80.0 MCshow
1.000 UL
LTb
LCb setrgbcolor
6146 768 M
0 63 V
0 3920 R
0 -63 V
stroke
6146 528 M
[ [(Helvetica) 240.0 0.0 true true 0 ( 80)]
] -80.0 MCshow
1.000 UL
LTb
LCb setrgbcolor
6767 768 M
0 63 V
0 3920 R
0 -63 V
stroke
6767 528 M
[ [(Helvetica) 240.0 0.0 true true 0 ( 90)]
] -80.0 MCshow
1.000 UL
LTb
LCb setrgbcolor
1.000 UL
LTb
LCb setrgbcolor
1176 4751 N
0 -3983 V
5591 0 V
0 3983 V
-5591 0 V
Z stroke
LCb setrgbcolor
192 2759 M
currentpoint gsave translate -270 rotate 0 0 moveto
[ [(Symbol) 240.0 0.0 true true 0 (b)]
[(Helvetica) 192.0 120.0 true true 0 (1/2)]
[(Helvetica) 240.0 0.0 true true 0 ( [m])]
] -104.0 MCshow
grestore
LTb
LCb setrgbcolor
3971 168 M
[ [(Italic) 240.0 0.0 true true 0 (s)]
[(Helvetica) 240.0 0.0 true true 0 ( [m])]
] -80.0 MCshow
LTb
1.000 UP
1.000 UL
LTb
LCb setrgbcolor
% Begin plot #1
1.500 UP
3.000 UL
LT0
0.00 0.00 0.00 C LCb setrgbcolor
1896 4508 M
[ [(Symbol) 240.0 0.0 true true 0 (b)]
[(Italic) 192.0 -72.0 true true 0 (x)]
[(Helvetica) 192.0 120.0 true true 0 (1/2)]
] -80.0 MRshow
LT0
0.00 0.00 0.00 C 2040 4508 M
639 0 V
1176 899 M
16 -3 V
15 -1 V
57 -2 V
7 2 V
6 6 V
3 4 V
15 23 V
44 64 V
10 15 V
3 5 V
9 12 V
12 18 V
2 2 V
3 1 V
9 -4 V
19 -6 V
18 -7 V
13 -4 V
25 -10 V
25 -9 V
6 -2 V
6 -3 V
31 -13 V
31 -17 V
30 -17 V
8 -4 V
2 -2 V
2 -1 V
3 -2 V
5 -2 V
6 -9 V
6 -17 V
1 -3 V
13 -45 V
17 -58 V
25 2 V
25 85 V
13 45 V
8 27 V
10 33 V
6 27 V
6 39 V
1 6 V
47 348 V
7 35 V
6 11 V
1 0 V
9 0 V
7 0 V
9 0 V
8 0 V
93 -1 V
128 -1 V
6 -12 V
6 -35 V
2 -12 V
8 -63 V
7 -53 V
29 -218 V
2 -12 V
6 -40 V
6 -28 V
10 -36 V
8 -29 V
14 -49 V
24 -91 V
25 53 V
14 49 V
8 29 V
8 33 V
1 4 V
6 17 V
7 6 V
2 0 V
3 0 V
21 -1 V
36 0 V
42 -4 V
42 -10 V
48 -14 V
2 -1 V
2 -3 V
2 -2 V
52 -73 V
38 -53 V
20 -26 V
7 -8 V
10 -3 V
6 5 V
6 8 V
1 1 V
9 13 V
8 11 V
28 43 V
15 22 V
15 24 V
16 24 V
3 6 V
7 9 V
6 10 V
10 16 V
4 5 V
stroke 2721 978 M
6 6 V
6 -3 V
10 -11 V
7 -8 V
53 -58 V
30 -32 V
21 -22 V
8 -9 V
5 -6 V
8 -8 V
2 -3 V
3 -2 V
6 -7 V
6 -5 V
6 -2 V
2 0 V
59 0 V
8 1 V
9 2 V
6 1 V
6 -2 V
2 0 V
25 -9 V
19 -3 V
8 0 V
5 0 V
8 1 V
2 1 V
3 0 V
6 2 V
6 3 V
7 5 V
1 1 V
33 34 V
7 7 V
10 11 V
7 3 V
6 -3 V
3 -4 V
49 -51 V
6 -6 V
6 -3 V
3 -1 V
18 -3 V
14 1 V
7 1 V
10 3 V
6 2 V
6 -1 V
4 -1 V
19 -2 V
8 0 V
10 1 V
3 1 V
2 0 V
6 2 V
6 3 V
7 5 V
1 1 V
59 61 V
8 8 V
9 10 V
6 3 V
7 -3 V
1 -1 V
13 -13 V
52 -51 V
3 -2 V
2 -2 V
41 -33 V
8 -2 V
15 5 V
7 5 V
6 6 V
1 2 V
17 20 V
25 31 V
17 21 V
8 9 V
9 12 V
6 5 V
6 2 V
2 -1 V
16 -2 V
24 -4 V
19 -3 V
30 -5 V
8 -1 V
40 -5 V
1 -1 V
1 0 V
48 -6 V
29 -4 V
17 -2 V
2 0 V
2 0 V
2 1 V
29 14 V
31 15 V
57 27 V
28 14 V
7 4 V
59 29 V
25 12 V
stroke 4140 986 M
3 1 V
2 -1 V
2 0 V
17 -9 V
31 -16 V
22 -11 V
33 -16 V
113 -56 V
17 -9 V
1 0 V
7 -3 V
6 -3 V
47 -22 V
8 -4 V
8 -3 V
8 -4 V
10 -4 V
6 -3 V
6 -2 V
1 -1 V
80 -19 V
6 2 V
6 4 V
1 2 V
36 37 V
14 14 V
30 32 V
6 4 V
6 -3 V
2 -1 V
79 -76 V
6 -5 V
7 -5 V
1 -1 V
44 -15 V
42 32 V
6 6 V
6 5 V
1 1 V
53 47 V
14 13 V
13 11 V
6 7 V
6 8 V
1 2 V
30 47 V
13 20 V
6 11 V
6 15 V
1 3 V
18 48 V
49 131 V
7 12 V
6 4 V
1 0 V
24 0 V
3 0 V
4 0 V
6 0 V
19 -1 V
6 -4 V
6 -13 V
2 -3 V
16 -44 V
7 -20 V
7 -19 V
68 -181 V
6 -15 V
6 -10 V
1 -1 V
5383 782 L
6 2 V
6 4 V
1 1 V
27 29 V
19 22 V
19 23 V
40 48 V
6 9 V
6 15 V
1 3 V
67 178 V
7 20 V
7 19 V
18 48 V
6 12 V
6 4 V
1 0 V
26 0 V
2 0 V
2 0 V
7 0 V
19 0 V
6 -4 V
7 -13 V
1 -3 V
14 -37 V
53 -144 V
6 -15 V
6 -12 V
2 -2 V
24 -38 V
3 -5 V
3 -5 V
6 -9 V
20 -31 V
6 -9 V
6 -6 V
1 -2 V
17 -16 V
7 -7 V
7 -6 V
64 -59 V
19 -10 V
19 6 V
28 23 V
6 5 V
6 3 V
1 1 V
27 13 V
19 10 V
19 10 V
15 9 V
12 6 V
6 4 V
7 5 V
1 2 V
22 19 V
8 8 V
9 8 V
53 48 V
6 7 V
6 10 V
1 3 V
237 443 V
25 47 V
7 13 V
8 14 V
10 19 V
6 11 V
3 6 V
3 6 V
19 35 V
14 -8 V
13 -72 V
8 -58 V
18 -139 V
7 -46 V
3 -24 V
3 -23 V
18 -135 V
14 -89 V
15 -54 V
7 -18 V
28 -75 V
17 -45 V
5 -13 V
4 -6 V
27 63 V
12 34 V
5 13 V
1176 899 Pnt
1192 896 Pnt
1207 895 Pnt
1264 893 Pnt
1271 895 Pnt
1277 901 Pnt
1280 905 Pnt
1295 928 Pnt
1339 992 Pnt
1349 1007 Pnt
1352 1012 Pnt
1361 1024 Pnt
1373 1042 Pnt
1375 1044 Pnt
1378 1045 Pnt
1387 1041 Pnt
1406 1035 Pnt
1424 1028 Pnt
1437 1024 Pnt
1462 1014 Pnt
1487 1005 Pnt
1493 1003 Pnt
1499 1000 Pnt
1530 987 Pnt
1561 970 Pnt
1591 953 Pnt
1599 949 Pnt
1601 947 Pnt
1603 946 Pnt
1606 944 Pnt
1611 942 Pnt
1617 933 Pnt
1623 916 Pnt
1624 913 Pnt
1637 868 Pnt
1654 810 Pnt
1679 812 Pnt
1704 897 Pnt
1717 942 Pnt
1725 969 Pnt
1735 1002 Pnt
1741 1029 Pnt
1747 1068 Pnt
1748 1074 Pnt
1795 1422 Pnt
1802 1457 Pnt
1808 1468 Pnt
1809 1468 Pnt
1818 1468 Pnt
1825 1468 Pnt
1834 1468 Pnt
1842 1468 Pnt
1935 1467 Pnt
2063 1466 Pnt
2069 1454 Pnt
2075 1419 Pnt
2077 1407 Pnt
2085 1344 Pnt
2092 1291 Pnt
2121 1073 Pnt
2123 1061 Pnt
2129 1021 Pnt
2135 993 Pnt
2145 957 Pnt
2153 928 Pnt
2167 879 Pnt
2191 788 Pnt
2216 841 Pnt
2230 890 Pnt
2238 919 Pnt
2246 952 Pnt
2247 956 Pnt
2253 973 Pnt
2260 979 Pnt
2260 979 Pnt
2262 979 Pnt
2265 979 Pnt
2286 978 Pnt
2322 978 Pnt
2364 974 Pnt
2406 964 Pnt
2454 950 Pnt
2456 949 Pnt
2458 946 Pnt
2460 944 Pnt
2512 871 Pnt
2550 818 Pnt
2570 792 Pnt
2577 784 Pnt
2587 781 Pnt
2593 786 Pnt
2599 794 Pnt
2600 795 Pnt
2609 808 Pnt
2617 819 Pnt
2645 862 Pnt
2660 884 Pnt
2675 908 Pnt
2691 932 Pnt
2694 938 Pnt
2701 947 Pnt
2707 957 Pnt
2717 973 Pnt
2721 978 Pnt
2727 984 Pnt
2733 981 Pnt
2743 970 Pnt
2750 962 Pnt
2803 904 Pnt
2833 872 Pnt
2854 850 Pnt
2862 841 Pnt
2867 835 Pnt
2875 827 Pnt
2877 824 Pnt
2880 822 Pnt
2886 815 Pnt
2892 810 Pnt
2898 808 Pnt
2900 808 Pnt
2959 808 Pnt
2967 809 Pnt
2976 811 Pnt
2982 812 Pnt
2988 810 Pnt
2990 810 Pnt
3015 801 Pnt
3034 798 Pnt
3042 798 Pnt
3047 798 Pnt
3055 799 Pnt
3057 800 Pnt
3060 800 Pnt
3066 802 Pnt
3072 805 Pnt
3079 810 Pnt
3080 811 Pnt
3113 845 Pnt
3120 852 Pnt
3130 863 Pnt
3137 866 Pnt
3143 863 Pnt
3146 859 Pnt
3195 808 Pnt
3201 802 Pnt
3207 799 Pnt
3210 798 Pnt
3228 795 Pnt
3242 796 Pnt
3249 797 Pnt
3259 800 Pnt
3265 802 Pnt
3271 801 Pnt
3275 800 Pnt
3294 798 Pnt
3302 798 Pnt
3312 799 Pnt
3315 800 Pnt
3317 800 Pnt
3323 802 Pnt
3329 805 Pnt
3336 810 Pnt
3337 811 Pnt
3396 872 Pnt
3404 880 Pnt
3413 890 Pnt
3419 893 Pnt
3426 890 Pnt
3427 889 Pnt
3440 876 Pnt
3492 825 Pnt
3495 823 Pnt
3497 821 Pnt
3538 788 Pnt
3546 786 Pnt
3561 791 Pnt
3568 796 Pnt
3574 802 Pnt
3575 804 Pnt
3592 824 Pnt
3617 855 Pnt
3634 876 Pnt
3642 885 Pnt
3651 897 Pnt
3657 902 Pnt
3663 904 Pnt
3665 903 Pnt
3681 901 Pnt
3705 897 Pnt
3724 894 Pnt
3754 889 Pnt
3762 888 Pnt
3802 883 Pnt
3803 882 Pnt
3804 882 Pnt
3852 876 Pnt
3881 872 Pnt
3898 870 Pnt
3900 870 Pnt
3902 870 Pnt
3904 871 Pnt
3933 885 Pnt
3964 900 Pnt
4021 927 Pnt
4049 941 Pnt
4056 945 Pnt
4115 974 Pnt
4140 986 Pnt
4143 987 Pnt
4145 986 Pnt
4147 986 Pnt
4164 977 Pnt
4195 961 Pnt
4217 950 Pnt
4250 934 Pnt
4363 878 Pnt
4380 869 Pnt
4381 869 Pnt
4388 866 Pnt
4394 863 Pnt
4441 841 Pnt
4449 837 Pnt
4457 834 Pnt
4465 830 Pnt
4475 826 Pnt
4481 823 Pnt
4487 821 Pnt
4488 820 Pnt
4568 801 Pnt
4574 803 Pnt
4580 807 Pnt
4581 809 Pnt
4617 846 Pnt
4631 860 Pnt
4661 892 Pnt
4667 896 Pnt
4673 893 Pnt
4675 892 Pnt
4754 816 Pnt
4760 811 Pnt
4767 806 Pnt
4768 805 Pnt
4812 790 Pnt
4854 822 Pnt
4860 828 Pnt
4866 833 Pnt
4867 834 Pnt
4920 881 Pnt
4934 894 Pnt
4947 905 Pnt
4953 912 Pnt
4959 920 Pnt
4960 922 Pnt
4990 969 Pnt
5003 989 Pnt
5009 1000 Pnt
5015 1015 Pnt
5016 1018 Pnt
5034 1066 Pnt
5083 1197 Pnt
5090 1209 Pnt
5096 1213 Pnt
5097 1213 Pnt
5121 1213 Pnt
5124 1213 Pnt
5128 1213 Pnt
5134 1213 Pnt
5153 1212 Pnt
5159 1208 Pnt
5165 1195 Pnt
5167 1192 Pnt
5183 1148 Pnt
5190 1128 Pnt
5197 1109 Pnt
5265 928 Pnt
5271 913 Pnt
5277 903 Pnt
5278 902 Pnt
5383 782 Pnt
5389 784 Pnt
5395 788 Pnt
5396 789 Pnt
5423 818 Pnt
5442 840 Pnt
5461 863 Pnt
5501 911 Pnt
5507 920 Pnt
5513 935 Pnt
5514 938 Pnt
5581 1116 Pnt
5588 1136 Pnt
5595 1155 Pnt
5613 1203 Pnt
5619 1215 Pnt
5625 1219 Pnt
5626 1219 Pnt
5652 1219 Pnt
5654 1219 Pnt
5656 1219 Pnt
5663 1219 Pnt
5682 1219 Pnt
5688 1215 Pnt
5695 1202 Pnt
5696 1199 Pnt
5710 1162 Pnt
5763 1018 Pnt
5769 1003 Pnt
5775 991 Pnt
5777 989 Pnt
5801 951 Pnt
5804 946 Pnt
5807 941 Pnt
5813 932 Pnt
5833 901 Pnt
5839 892 Pnt
5845 886 Pnt
5846 884 Pnt
5863 868 Pnt
5870 861 Pnt
5877 855 Pnt
5941 796 Pnt
5960 786 Pnt
5979 792 Pnt
6007 815 Pnt
6013 820 Pnt
6019 823 Pnt
6020 824 Pnt
6047 837 Pnt
6066 847 Pnt
6085 857 Pnt
6100 866 Pnt
6112 872 Pnt
6118 876 Pnt
6125 881 Pnt
6126 883 Pnt
6148 902 Pnt
6156 910 Pnt
6165 918 Pnt
6218 966 Pnt
6224 973 Pnt
6230 983 Pnt
6231 986 Pnt
6468 1429 Pnt
6493 1476 Pnt
6500 1489 Pnt
6508 1503 Pnt
6518 1522 Pnt
6524 1533 Pnt
6527 1539 Pnt
6530 1545 Pnt
6549 1580 Pnt
6563 1572 Pnt
6576 1500 Pnt
6584 1442 Pnt
6602 1303 Pnt
6609 1257 Pnt
6612 1233 Pnt
6615 1210 Pnt
6633 1075 Pnt
6647 986 Pnt
6662 932 Pnt
6669 914 Pnt
6697 839 Pnt
6714 794 Pnt
6719 781 Pnt
6723 775 Pnt
6750 838 Pnt
6762 872 Pnt
2359 4508 Pnt
% End plot #1
% Begin plot #2
1.500 UP
3.000 UL
LT1
0.00 1.00 1.00 C 1176 899 M
16 -3 V
15 -1 V
57 -2 V
7 2 V
6 7 V
3 4 V
15 23 V
44 64 V
10 15 V
3 5 V
9 13 V
12 17 V
2 3 V
3 0 V
9 -3 V
19 -7 V
1176 899 Pnt
1192 896 Pnt
1207 895 Pnt
1264 893 Pnt
1271 895 Pnt
1277 902 Pnt
1280 906 Pnt
1295 929 Pnt
1339 993 Pnt
1349 1008 Pnt
1352 1013 Pnt
1361 1026 Pnt
1373 1043 Pnt
1375 1046 Pnt
1378 1046 Pnt
1387 1043 Pnt
1406 1036 Pnt
% End plot #2
% Begin plot #3
1.500 UP
3.000 UL
LT2
0.00 1.00 1.00 C 1406 1036 M
18 -6 V
13 -5 V
25 -9 V
25 -9 V
6 -2 V
6 -3 V
31 -13 V
31 -16 V
30 -17 V
8 -5 V
2 -1 V
2 -1 V
3 -2 V
5 -3 V
6 -8 V
6 -17 V
1 -3 V
13 -46 V
17 -59 V
25 1 V
25 86 V
13 45 V
8 28 V
10 34 V
6 26 V
6 40 V
1 7 V
47 351 V
7 35 V
6 12 V
1 0 V
9 0 V
7 0 V
9 0 V
8 -1 V
93 0 V
128 -1 V
6 -12 V
6 -35 V
2 -12 V
8 -64 V
7 -53 V
29 -221 V
2 -12 V
6 -40 V
6 -29 V
10 -36 V
8 -30 V
14 -49 V
24 -93 V
25 53 V
14 50 V
8 29 V
8 34 V
1 3 V
6 17 V
7 6 V
2 0 V
3 0 V
21 0 V
36 0 V
42 -3 V
42 -10 V
48 -14 V
2 -1 V
2 -3 V
2 -2 V
52 -74 V
38 -53 V
20 -27 V
7 -8 V
10 -4 V
6 4 V
6 8 V
1 1 V
9 12 V
8 12 V
28 43 V
15 22 V
15 24 V
16 24 V
3 6 V
7 9 V
6 10 V
10 16 V
3 5 V
7 5 V
6 -2 V
10 -11 V
7 -7 V
53 -58 V
30 -32 V
21 -22 V
8 -8 V
5 -6 V
8 -8 V
2 -2 V
3 -3 V
6 -6 V
6 -5 V
6 -2 V
2 -1 V
59 1 V
8 1 V
stroke 2967 811 M
9 2 V
6 0 V
6 -2 V
2 0 V
25 -10 V
19 -5 V
8 0 V
5 0 V
8 1 V
2 1 V
3 1 V
6 1 V
6 3 V
7 5 V
1 1 V
33 35 V
7 7 V
10 11 V
7 3 V
6 -3 V
3 -4 V
49 -49 V
6 -5 V
6 -3 V
3 -1 V
18 -3 V
14 0 V
7 1 V
10 3 V
6 1 V
6 -1 V
4 -1 V
19 -4 V
8 0 V
10 1 V
3 1 V
2 1 V
6 1 V
6 3 V
7 5 V
1 1 V
59 62 V
8 8 V
9 11 V
6 3 V
7 -3 V
1 -1 V
13 -13 V
52 -50 V
3 -2 V
2 -2 V
41 -33 V
8 -3 V
15 4 V
6 4 V
7 6 V
1 2 V
17 19 V
25 30 V
17 20 V
8 9 V
9 11 V
6 6 V
6 1 V
2 0 V
16 -3 V
24 -3 V
19 -3 V
30 -4 V
8 -1 V
40 -5 V
1 0 V
1 0 V
48 -5 V
29 -3 V
17 -2 V
2 0 V
2 0 V
2 1 V
29 14 V
31 15 V
57 29 V
28 14 V
7 4 V
59 29 V
25 13 V
3 1 V
2 -1 V
2 0 V
17 -9 V
31 -16 V
22 -11 V
33 -17 V
113 -57 V
17 -8 V
1 -1 V
7 -3 V
6 -3 V
47 -23 V
8 -3 V
8 -4 V
8 -3 V
10 -4 V
6 -3 V
stroke 4481 823 M
6 -2 V
1 -1 V
80 -19 V
6 2 V
6 4 V
1 1 V
36 38 V
14 15 V
30 32 V
6 3 V
6 -3 V
2 -1 V
79 -75 V
6 -6 V
7 -5 V
1 -1 V
44 -16 V
42 33 V
6 5 V
6 6 V
1 1 V
53 47 V
14 13 V
13 11 V
6 6 V
6 9 V
1 2 V
30 47 V
13 20 V
6 11 V
6 15 V
1 3 V
18 48 V
49 131 V
7 12 V
6 4 V
1 0 V
24 0 V
3 0 V
4 0 V
6 0 V
19 -1 V
6 -4 V
6 -12 V
2 -4 V
16 -44 V
7 -20 V
7 -19 V
68 -181 V
6 -15 V
6 -9 V
1 -2 V
5383 782 L
6 2 V
6 4 V
1 1 V
27 28 V
19 23 V
19 23 V
40 48 V
6 9 V
6 14 V
1 4 V
67 178 V
7 19 V
7 20 V
18 47 V
6 13 V
6 4 V
1 0 V
26 0 V
2 0 V
2 0 V
7 0 V
19 0 V
6 -4 V
7 -13 V
1 -3 V
14 -38 V
53 -143 V
6 -15 V
6 -12 V
2 -2 V
24 -38 V
3 -5 V
3 -5 V
6 -9 V
20 -31 V
6 -8 V
6 -7 V
1 -2 V
17 -16 V
7 -6 V
7 -7 V
64 -59 V
19 -10 V
19 6 V
28 22 V
6 5 V
6 4 V
1 1 V
27 13 V
19 10 V
19 10 V
15 8 V
12 7 V
6 4 V
7 5 V
1 1 V
22 20 V
8 8 V
9 8 V
53 48 V
6 7 V
6 10 V
1 2 V
237 444 V
25 47 V
7 13 V
8 14 V
10 19 V
6 11 V
3 6 V
3 6 V
19 35 V
14 -8 V
13 -72 V
8 -58 V
18 -139 V
7 -46 V
3 -24 V
3 -23 V
18 -135 V
14 -89 V
15 -54 V
7 -18 V
28 -75 V
17 -45 V
5 -13 V
4 -6 V
27 63 V
12 34 V
5 13 V
1406 1036 Pnt
1424 1030 Pnt
1437 1025 Pnt
1462 1016 Pnt
1487 1007 Pnt
1493 1005 Pnt
1499 1002 Pnt
1530 989 Pnt
1561 973 Pnt
1591 956 Pnt
1599 951 Pnt
1601 950 Pnt
1603 949 Pnt
1606 947 Pnt
1611 944 Pnt
1617 936 Pnt
1623 919 Pnt
1624 916 Pnt
1637 870 Pnt
1654 811 Pnt
1679 812 Pnt
1704 898 Pnt
1717 943 Pnt
1725 971 Pnt
1735 1005 Pnt
1741 1031 Pnt
1747 1071 Pnt
1748 1078 Pnt
1795 1429 Pnt
1802 1464 Pnt
1808 1476 Pnt
1809 1476 Pnt
1818 1476 Pnt
1825 1476 Pnt
1834 1476 Pnt
1842 1475 Pnt
1935 1475 Pnt
2063 1474 Pnt
2069 1462 Pnt
2075 1427 Pnt
2077 1415 Pnt
2085 1351 Pnt
2092 1298 Pnt
2121 1077 Pnt
2123 1065 Pnt
2129 1025 Pnt
2135 996 Pnt
2145 960 Pnt
2153 930 Pnt
2167 881 Pnt
2191 788 Pnt
2216 841 Pnt
2230 891 Pnt
2238 920 Pnt
2246 954 Pnt
2247 957 Pnt
2253 974 Pnt
2260 980 Pnt
2260 980 Pnt
2262 980 Pnt
2265 980 Pnt
2286 980 Pnt
2322 980 Pnt
2364 977 Pnt
2406 967 Pnt
2454 953 Pnt
2456 952 Pnt
2458 949 Pnt
2460 947 Pnt
2512 873 Pnt
2550 820 Pnt
2570 793 Pnt
2577 785 Pnt
2587 781 Pnt
2593 785 Pnt
2599 793 Pnt
2600 794 Pnt
2609 806 Pnt
2617 818 Pnt
2645 861 Pnt
2660 883 Pnt
2675 907 Pnt
2691 931 Pnt
2694 937 Pnt
2701 946 Pnt
2707 956 Pnt
2717 972 Pnt
2720 977 Pnt
2727 982 Pnt
2733 980 Pnt
2743 969 Pnt
2750 962 Pnt
2803 904 Pnt
2833 872 Pnt
2854 850 Pnt
2862 842 Pnt
2867 836 Pnt
2875 828 Pnt
2877 826 Pnt
2880 823 Pnt
2886 817 Pnt
2892 812 Pnt
2898 810 Pnt
2900 809 Pnt
2959 810 Pnt
2967 811 Pnt
2976 813 Pnt
2982 813 Pnt
2988 811 Pnt
2990 811 Pnt
3015 801 Pnt
3034 796 Pnt
3042 796 Pnt
3047 796 Pnt
3055 797 Pnt
3057 798 Pnt
3060 799 Pnt
3066 800 Pnt
3072 803 Pnt
3079 808 Pnt
3080 809 Pnt
3113 844 Pnt
3120 851 Pnt
3130 862 Pnt
3137 865 Pnt
3143 862 Pnt
3146 858 Pnt
3195 809 Pnt
3201 804 Pnt
3207 801 Pnt
3210 800 Pnt
3228 797 Pnt
3242 797 Pnt
3249 798 Pnt
3259 801 Pnt
3265 802 Pnt
3271 801 Pnt
3275 800 Pnt
3294 796 Pnt
3302 796 Pnt
3312 797 Pnt
3315 798 Pnt
3317 799 Pnt
3323 800 Pnt
3329 803 Pnt
3336 808 Pnt
3337 809 Pnt
3396 871 Pnt
3404 879 Pnt
3413 890 Pnt
3419 893 Pnt
3426 890 Pnt
3427 889 Pnt
3440 876 Pnt
3492 826 Pnt
3495 824 Pnt
3497 822 Pnt
3538 789 Pnt
3546 786 Pnt
3561 790 Pnt
3567 794 Pnt
3574 800 Pnt
3575 802 Pnt
3592 821 Pnt
3617 851 Pnt
3634 871 Pnt
3642 880 Pnt
3651 891 Pnt
3657 897 Pnt
3663 898 Pnt
3665 898 Pnt
3681 895 Pnt
3705 892 Pnt
3724 889 Pnt
3754 885 Pnt
3762 884 Pnt
3802 879 Pnt
3803 879 Pnt
3804 879 Pnt
3852 874 Pnt
3881 871 Pnt
3898 869 Pnt
3900 869 Pnt
3902 869 Pnt
3904 870 Pnt
3933 884 Pnt
3964 899 Pnt
4021 928 Pnt
4049 942 Pnt
4056 946 Pnt
4115 975 Pnt
4140 988 Pnt
4143 989 Pnt
4145 988 Pnt
4147 988 Pnt
4164 979 Pnt
4195 963 Pnt
4217 952 Pnt
4250 935 Pnt
4363 878 Pnt
4380 870 Pnt
4381 869 Pnt
4388 866 Pnt
4394 863 Pnt
4441 840 Pnt
4449 837 Pnt
4457 833 Pnt
4465 830 Pnt
4475 826 Pnt
4481 823 Pnt
4487 821 Pnt
4488 820 Pnt
4568 801 Pnt
4574 803 Pnt
4580 807 Pnt
4581 808 Pnt
4617 846 Pnt
4631 861 Pnt
4661 893 Pnt
4667 896 Pnt
4673 893 Pnt
4675 892 Pnt
4754 817 Pnt
4760 811 Pnt
4767 806 Pnt
4768 805 Pnt
4812 789 Pnt
4854 822 Pnt
4860 827 Pnt
4866 833 Pnt
4867 834 Pnt
4920 881 Pnt
4934 894 Pnt
4947 905 Pnt
4953 911 Pnt
4959 920 Pnt
4960 922 Pnt
4990 969 Pnt
5003 989 Pnt
5009 1000 Pnt
5015 1015 Pnt
5016 1018 Pnt
5034 1066 Pnt
5083 1197 Pnt
5090 1209 Pnt
5096 1213 Pnt
5097 1213 Pnt
5121 1213 Pnt
5124 1213 Pnt
5128 1213 Pnt
5134 1213 Pnt
5153 1212 Pnt
5159 1208 Pnt
5165 1196 Pnt
5167 1192 Pnt
5183 1148 Pnt
5190 1128 Pnt
5197 1109 Pnt
5265 928 Pnt
5271 913 Pnt
5277 904 Pnt
5278 902 Pnt
5383 782 Pnt
5389 784 Pnt
5395 788 Pnt
5396 789 Pnt
5423 817 Pnt
5442 840 Pnt
5461 863 Pnt
5501 911 Pnt
5507 920 Pnt
5513 934 Pnt
5514 938 Pnt
5581 1116 Pnt
5588 1135 Pnt
5595 1155 Pnt
5613 1202 Pnt
5619 1215 Pnt
5625 1219 Pnt
5626 1219 Pnt
5652 1219 Pnt
5654 1219 Pnt
5656 1219 Pnt
5663 1219 Pnt
5682 1219 Pnt
5688 1215 Pnt
5695 1202 Pnt
5696 1199 Pnt
5710 1161 Pnt
5763 1018 Pnt
5769 1003 Pnt
5775 991 Pnt
5777 989 Pnt
5801 951 Pnt
5804 946 Pnt
5807 941 Pnt
5813 932 Pnt
5833 901 Pnt
5839 893 Pnt
5845 886 Pnt
5846 884 Pnt
5863 868 Pnt
5870 862 Pnt
5877 855 Pnt
5941 796 Pnt
5960 786 Pnt
5979 792 Pnt
6007 814 Pnt
6013 819 Pnt
6019 823 Pnt
6020 824 Pnt
6047 837 Pnt
6066 847 Pnt
6085 857 Pnt
6100 865 Pnt
6112 872 Pnt
6118 876 Pnt
6125 881 Pnt
6126 882 Pnt
6148 902 Pnt
6156 910 Pnt
6165 918 Pnt
6218 966 Pnt
6224 973 Pnt
6230 983 Pnt
6231 985 Pnt
6468 1429 Pnt
6493 1476 Pnt
6500 1489 Pnt
6508 1503 Pnt
6518 1522 Pnt
6524 1533 Pnt
6527 1539 Pnt
6530 1545 Pnt
6549 1580 Pnt
6563 1572 Pnt
6576 1500 Pnt
6584 1442 Pnt
6602 1303 Pnt
6609 1257 Pnt
6612 1233 Pnt
6615 1210 Pnt
6633 1075 Pnt
6647 986 Pnt
6662 932 Pnt
6669 914 Pnt
6697 839 Pnt
6714 794 Pnt
6719 781 Pnt
6723 775 Pnt
6750 838 Pnt
6762 872 Pnt
% End plot #3
% Begin plot #4
1.500 UP
3.000 UL
LT3
1.00 0.00 0.00 C LCb setrgbcolor
1896 4148 M
[ [(Symbol) 240.0 0.0 true true 0 (b)]
[(Italic) 192.0 -72.0 true true 0 (y)]
[(Helvetica) 192.0 120.0 true true 0 (1/2)]
] -80.0 MRshow
LT3
1.00 0.00 0.00 C 2040 4148 M
639 0 V
1176 847 M
16 12 V
15 11 V
57 40 V
7 2 V
6 -3 V
3 -3 V
15 -15 V
44 -42 V
10 -10 V
3 -3 V
9 -8 V
12 -11 V
2 -2 V
3 -2 V
9 -5 V
19 -10 V
18 -5 V
13 0 V
25 8 V
25 14 V
6 4 V
6 4 V
31 20 V
31 21 V
30 21 V
8 5 V
2 2 V
2 2 V
3 1 V
5 4 V
6 8 V
6 15 V
1 3 V
13 42 V
17 53 V
25 78 V
25 78 V
13 41 V
8 26 V
10 31 V
6 7 V
6 -16 V
1 -4 V
47 -215 V
7 -24 V
6 -15 V
1 -3 V
9 -16 V
7 -13 V
9 -15 V
8 -15 V
93 -165 V
128 212 V
6 15 V
6 23 V
2 7 V
8 37 V
7 32 V
29 129 V
2 8 V
6 16 V
6 -6 V
10 -27 V
8 -23 V
14 -37 V
24 -69 V
25 -69 V
14 -37 V
8 -22 V
8 -25 V
1 -3 V
6 -12 V
7 -3 V
2 0 V
3 1 V
21 4 V
36 7 V
42 9 V
42 8 V
48 10 V
2 1 V
2 3 V
2 2 V
52 75 V
38 54 V
20 29 V
7 10 V
10 15 V
6 3 V
6 -8 V
1 -2 V
9 -20 V
8 -18 V
28 -62 V
15 -33 V
15 -35 V
16 -34 V
3 -9 V
7 -14 V
6 -14 V
10 -23 V
4 -7 V
stroke 2721 878 M
6 -12 V
6 -8 V
10 -10 V
7 -7 V
53 -50 V
30 0 V
21 18 V
8 7 V
5 5 V
8 8 V
2 3 V
3 2 V
6 6 V
6 4 V
6 0 V
2 0 V
59 -23 V
8 -2 V
9 -3 V
6 0 V
6 2 V
2 0 V
25 14 V
19 12 V
8 4 V
5 4 V
8 5 V
2 1 V
3 2 V
6 3 V
6 2 V
7 -4 V
1 -1 V
33 -31 V
7 -7 V
10 -9 V
7 -4 V
6 -1 V
3 0 V
49 9 V
6 1 V
6 -2 V
3 -2 V
18 -8 V
14 -5 V
7 -2 V
10 -2 V
6 1 V
6 3 V
4 2 V
19 15 V
8 6 V
10 8 V
3 2 V
2 2 V
6 5 V
6 4 V
7 -1 V
1 0 V
59 -23 V
8 -2 V
9 -3 V
6 0 V
7 2 V
1 0 V
13 7 V
52 31 V
3 2 V
2 1 V
41 26 V
8 5 V
15 10 V
7 1 V
6 -3 V
1 -1 V
17 -14 V
25 -21 V
17 -13 V
8 -7 V
9 -7 V
6 -4 V
6 -2 V
2 0 V
16 -2 V
24 -1 V
19 -1 V
30 0 V
8 0 V
40 3 V
1 1 V
1 0 V
48 6 V
29 6 V
17 3 V
2 0 V
2 1 V
2 -1 V
29 -6 V
31 -6 V
57 -7 V
28 -2 V
7 0 V
59 1 V
25 3 V
stroke 4140 827 M
3 1 V
2 1 V
2 0 V
17 7 V
31 14 V
22 10 V
33 16 V
113 55 V
17 8 V
1 1 V
7 3 V
6 3 V
47 24 V
8 3 V
8 4 V
8 4 V
10 5 V
6 3 V
6 4 V
1 1 V
80 48 V
6 -7 V
6 -26 V
1 -7 V
36 -209 V
14 32 V
30 172 V
6 42 V
6 55 V
2 13 V
79 812 V
6 62 V
7 61 V
1 12 V
44 440 V
42 408 V
6 64 V
6 70 V
1 15 V
53 632 V
14 171 V
13 148 V
6 50 V
6 3 V
1 -4 V
30 -99 V
13 -43 V
6 -43 V
6 -88 V
1 -22 V
18 -319 V
49 -876 V
7 -93 V
6 -61 V
1 -9 V
24 -179 V
3 -23 V
4 -23 V
6 -46 V
19 -143 V
6 -34 V
6 -12 V
2 0 V
16 -3 V
7 -1 V
7 -1 V
68 -10 V
6 -19 V
6 -52 V
1 -14 V
5383 863 L
6 70 V
6 75 V
1 16 V
27 333 V
19 240 V
19 240 V
40 504 V
6 53 V
6 5 V
1 -3 V
67 -207 V
7 -22 V
7 -22 V
18 -55 V
6 -7 V
6 17 V
1 6 V
26 123 V
2 11 V
2 10 V
7 35 V
19 94 V
6 45 V
7 76 V
1 19 V
14 207 V
53 796 V
6 71 V
6 30 V
2 2 V
24 36 V
3 4 V
3 5 V
6 9 V
20 28 V
6 -13 V
6 -55 V
1 -16 V
17 -206 V
7 -89 V
7 -89 V
64 -798 V
19 -238 V
19 -238 V
28 -346 V
6 -66 V
6 -44 V
1 -7 V
27 -145 V
19 -105 V
19 -105 V
15 -83 V
12 -70 V
6 -35 V
7 -37 V
1 -8 V
22 -134 V
8 29 V
9 56 V
53 322 V
6 35 V
6 29 V
1 4 V
237 956 V
25 101 V
7 28 V
8 29 V
10 41 V
6 24 V
3 13 V
3 12 V
19 76 V
14 129 V
13 286 V
8 203 V
18 496 V
7 165 V
3 83 V
3 84 V
18 479 V
14 93 V
15 -507 V
7 -354 V
28 -1507 V
17 -915 V
5 -269 V
4 -233 V
27 1401 V
12 673 V
5 253 V
1176 847 Pnt
1192 859 Pnt
1207 870 Pnt
1264 910 Pnt
1271 912 Pnt
1277 909 Pnt
1280 906 Pnt
1295 891 Pnt
1339 849 Pnt
1349 839 Pnt
1352 836 Pnt
1361 828 Pnt
1373 817 Pnt
1375 815 Pnt
1378 813 Pnt
1387 808 Pnt
1406 798 Pnt
1424 793 Pnt
1437 793 Pnt
1462 801 Pnt
1487 815 Pnt
1493 819 Pnt
1499 823 Pnt
1530 843 Pnt
1561 864 Pnt
1591 885 Pnt
1599 890 Pnt
1601 892 Pnt
1603 894 Pnt
1606 895 Pnt
1611 899 Pnt
1617 907 Pnt
1623 922 Pnt
1624 925 Pnt
1637 967 Pnt
1654 1020 Pnt
1679 1098 Pnt
1704 1176 Pnt
1717 1217 Pnt
1725 1243 Pnt
1735 1274 Pnt
1741 1281 Pnt
1747 1265 Pnt
1748 1261 Pnt
1795 1046 Pnt
1802 1022 Pnt
1808 1007 Pnt
1809 1004 Pnt
1818 988 Pnt
1825 975 Pnt
1834 960 Pnt
1842 945 Pnt
1935 780 Pnt
2063 992 Pnt
2069 1007 Pnt
2075 1030 Pnt
2077 1037 Pnt
2085 1074 Pnt
2092 1106 Pnt
2121 1235 Pnt
2123 1243 Pnt
2129 1259 Pnt
2135 1253 Pnt
2145 1226 Pnt
2153 1203 Pnt
2167 1166 Pnt
2191 1097 Pnt
2216 1028 Pnt
2230 991 Pnt
2238 969 Pnt
2246 944 Pnt
2247 941 Pnt
2253 929 Pnt
2260 926 Pnt
2260 926 Pnt
2262 926 Pnt
2265 927 Pnt
2286 931 Pnt
2322 938 Pnt
2364 947 Pnt
2406 955 Pnt
2454 965 Pnt
2456 966 Pnt
2458 969 Pnt
2460 971 Pnt
2512 1046 Pnt
2550 1100 Pnt
2570 1129 Pnt
2577 1139 Pnt
2587 1154 Pnt
2593 1157 Pnt
2599 1149 Pnt
2600 1147 Pnt
2609 1127 Pnt
2617 1109 Pnt
2645 1047 Pnt
2660 1014 Pnt
2675 979 Pnt
2691 945 Pnt
2694 936 Pnt
2701 922 Pnt
2707 908 Pnt
2717 885 Pnt
2721 878 Pnt
2727 866 Pnt
2733 858 Pnt
2743 848 Pnt
2750 841 Pnt
2803 791 Pnt
2833 791 Pnt
2854 809 Pnt
2862 816 Pnt
2867 821 Pnt
2875 829 Pnt
2877 832 Pnt
2880 834 Pnt
2886 840 Pnt
2892 844 Pnt
2898 844 Pnt
2900 844 Pnt
2959 821 Pnt
2967 819 Pnt
2976 816 Pnt
2982 816 Pnt
2988 818 Pnt
2990 818 Pnt
3015 832 Pnt
3034 844 Pnt
3042 848 Pnt
3047 852 Pnt
3055 857 Pnt
3057 858 Pnt
3060 860 Pnt
3066 863 Pnt
3072 865 Pnt
3079 861 Pnt
3080 860 Pnt
3113 829 Pnt
3120 822 Pnt
3130 813 Pnt
3137 809 Pnt
3143 808 Pnt
3146 808 Pnt
3195 817 Pnt
3201 818 Pnt
3207 816 Pnt
3210 814 Pnt
3228 806 Pnt
3242 801 Pnt
3249 799 Pnt
3259 797 Pnt
3265 798 Pnt
3271 801 Pnt
3275 803 Pnt
3294 818 Pnt
3302 824 Pnt
3312 832 Pnt
3315 834 Pnt
3317 836 Pnt
3323 841 Pnt
3329 845 Pnt
3336 844 Pnt
3337 844 Pnt
3396 821 Pnt
3404 819 Pnt
3413 816 Pnt
3419 816 Pnt
3426 818 Pnt
3427 818 Pnt
3440 825 Pnt
3492 856 Pnt
3495 858 Pnt
3497 859 Pnt
3538 885 Pnt
3546 890 Pnt
3561 900 Pnt
3568 901 Pnt
3574 898 Pnt
3575 897 Pnt
3592 883 Pnt
3617 862 Pnt
3634 849 Pnt
3642 842 Pnt
3651 835 Pnt
3657 831 Pnt
3663 829 Pnt
3665 829 Pnt
3681 827 Pnt
3705 826 Pnt
3724 825 Pnt
3754 825 Pnt
3762 825 Pnt
3802 828 Pnt
3803 829 Pnt
3804 829 Pnt
3852 835 Pnt
3881 841 Pnt
3898 844 Pnt
3900 844 Pnt
3902 845 Pnt
3904 844 Pnt
3933 838 Pnt
3964 832 Pnt
4021 825 Pnt
4049 823 Pnt
4056 823 Pnt
4115 824 Pnt
4140 827 Pnt
4143 828 Pnt
4145 829 Pnt
4147 829 Pnt
4164 836 Pnt
4195 850 Pnt
4217 860 Pnt
4250 876 Pnt
4363 931 Pnt
4380 939 Pnt
4381 940 Pnt
4388 943 Pnt
4394 946 Pnt
4441 970 Pnt
4449 973 Pnt
4457 977 Pnt
4465 981 Pnt
4475 986 Pnt
4481 989 Pnt
4487 993 Pnt
4488 994 Pnt
4568 1042 Pnt
4574 1035 Pnt
4580 1009 Pnt
4581 1002 Pnt
4617 793 Pnt
4631 825 Pnt
4661 997 Pnt
4667 1039 Pnt
4673 1094 Pnt
4675 1107 Pnt
4754 1919 Pnt
4760 1981 Pnt
4767 2042 Pnt
4768 2054 Pnt
4812 2494 Pnt
4854 2902 Pnt
4860 2966 Pnt
4866 3036 Pnt
4867 3051 Pnt
4920 3683 Pnt
4934 3854 Pnt
4947 4002 Pnt
4953 4052 Pnt
4959 4055 Pnt
4960 4051 Pnt
4990 3952 Pnt
5003 3909 Pnt
5009 3866 Pnt
5015 3778 Pnt
5016 3756 Pnt
5034 3437 Pnt
5083 2561 Pnt
5090 2468 Pnt
5096 2407 Pnt
5097 2398 Pnt
5121 2219 Pnt
5124 2196 Pnt
5128 2173 Pnt
5134 2127 Pnt
5153 1984 Pnt
5159 1950 Pnt
5165 1938 Pnt
5167 1938 Pnt
5183 1935 Pnt
5190 1934 Pnt
5197 1933 Pnt
5265 1923 Pnt
5271 1904 Pnt
5277 1852 Pnt
5278 1838 Pnt
5383 863 Pnt
5389 933 Pnt
5395 1008 Pnt
5396 1024 Pnt
5423 1357 Pnt
5442 1597 Pnt
5461 1837 Pnt
5501 2341 Pnt
5507 2394 Pnt
5513 2399 Pnt
5514 2396 Pnt
5581 2189 Pnt
5588 2167 Pnt
5595 2145 Pnt
5613 2090 Pnt
5619 2083 Pnt
5625 2100 Pnt
5626 2106 Pnt
5652 2229 Pnt
5654 2240 Pnt
5656 2250 Pnt
5663 2285 Pnt
5682 2379 Pnt
5688 2424 Pnt
5695 2500 Pnt
5696 2519 Pnt
5710 2726 Pnt
5763 3522 Pnt
5769 3593 Pnt
5775 3623 Pnt
5777 3625 Pnt
5801 3661 Pnt
5804 3665 Pnt
5807 3670 Pnt
5813 3679 Pnt
5833 3707 Pnt
5839 3694 Pnt
5845 3639 Pnt
5846 3623 Pnt
5863 3417 Pnt
5870 3328 Pnt
5877 3239 Pnt
5941 2441 Pnt
5960 2203 Pnt
5979 1965 Pnt
6007 1619 Pnt
6013 1553 Pnt
6019 1509 Pnt
6020 1502 Pnt
6047 1357 Pnt
6066 1252 Pnt
6085 1147 Pnt
6100 1064 Pnt
6112 994 Pnt
6118 959 Pnt
6125 922 Pnt
6126 914 Pnt
6148 780 Pnt
6156 809 Pnt
6165 865 Pnt
6218 1187 Pnt
6224 1222 Pnt
6230 1251 Pnt
6231 1255 Pnt
6468 2211 Pnt
6493 2312 Pnt
6500 2340 Pnt
6508 2369 Pnt
6518 2410 Pnt
6524 2434 Pnt
6527 2447 Pnt
6530 2459 Pnt
6549 2535 Pnt
6563 2664 Pnt
6576 2950 Pnt
6584 3153 Pnt
6602 3649 Pnt
6609 3814 Pnt
6612 3897 Pnt
6615 3981 Pnt
6633 4460 Pnt
6647 4553 Pnt
6662 4046 Pnt
6669 3692 Pnt
6697 2185 Pnt
6714 1270 Pnt
6719 1001 Pnt
6723 768 Pnt
6750 2169 Pnt
6762 2842 Pnt
2359 4148 Pnt
% End plot #4
% Begin plot #5
1.500 UP
3.000 UL
LT4
0.00 0.00 1.00 C 1176 847 M
16 12 V
15 11 V
57 40 V
7 2 V
6 -4 V
3 -3 V
15 -15 V
44 -42 V
10 -10 V
3 -3 V
9 -8 V
12 -11 V
2 -2 V
3 -2 V
9 -5 V
19 -9 V
1176 847 Pnt
1192 859 Pnt
1207 870 Pnt
1264 910 Pnt
1271 912 Pnt
1277 908 Pnt
1280 905 Pnt
1295 890 Pnt
1339 848 Pnt
1349 838 Pnt
1352 835 Pnt
1361 827 Pnt
1373 816 Pnt
1375 814 Pnt
1378 812 Pnt
1387 807 Pnt
1406 798 Pnt
% End plot #5
% Begin plot #6
1.500 UP
3.000 UL
LT5
0.00 0.00 1.00 C 1406 798 M
18 -5 V
13 0 V
25 9 V
25 14 V
6 4 V
6 4 V
31 20 V
31 21 V
30 21 V
8 6 V
2 1 V
2 2 V
3 1 V
5 4 V
6 8 V
6 15 V
1 3 V
13 42 V
17 54 V
25 79 V
25 78 V
13 42 V
8 26 V
10 31 V
6 7 V
6 -16 V
1 -4 V
47 -217 V
7 -24 V
6 -15 V
1 -3 V
9 -16 V
7 -13 V
9 -16 V
8 -14 V
93 -167 V
128 214 V
6 15 V
6 23 V
2 8 V
8 37 V
7 32 V
29 131 V
2 7 V
6 17 V
6 -6 V
10 -28 V
8 -22 V
14 -38 V
24 -70 V
25 -70 V
14 -37 V
8 -22 V
8 -25 V
1 -3 V
6 -12 V
7 -4 V
2 1 V
3 0 V
21 4 V
36 7 V
42 9 V
42 8 V
48 10 V
2 2 V
2 2 V
2 3 V
52 74 V
38 55 V
20 29 V
7 10 V
10 15 V
6 3 V
6 -8 V
1 -2 V
9 -20 V
8 -18 V
28 -63 V
15 -32 V
15 -35 V
16 -35 V
3 -9 V
7 -14 V
6 -14 V
10 -23 V
3 -8 V
7 -12 V
6 -8 V
10 -10 V
7 -7 V
53 -50 V
30 0 V
21 18 V
8 8 V
5 5 V
8 8 V
2 2 V
3 3 V
6 6 V
6 4 V
6 0 V
2 0 V
59 -23 V
8 -3 V
stroke 2967 819 M
9 -3 V
6 0 V
6 2 V
2 0 V
25 14 V
19 11 V
8 5 V
5 3 V
8 5 V
2 1 V
3 2 V
6 4 V
6 1 V
7 -3 V
1 -2 V
33 -31 V
7 -7 V
10 -9 V
7 -4 V
6 -1 V
3 0 V
49 10 V
6 0 V
6 -2 V
3 -1 V
18 -8 V
14 -5 V
7 -2 V
10 -2 V
6 1 V
6 3 V
4 2 V
19 15 V
8 7 V
10 8 V
3 2 V
2 2 V
6 5 V
6 4 V
7 -1 V
1 0 V
59 -23 V
8 -3 V
9 -3 V
6 0 V
7 2 V
1 0 V
13 7 V
52 31 V
3 1 V
2 2 V
41 25 V
8 5 V
15 9 V
6 2 V
7 -3 V
1 -1 V
17 -14 V
25 -21 V
17 -13 V
8 -7 V
9 -7 V
6 -4 V
6 -1 V
2 -1 V
16 -1 V
24 -2 V
19 -1 V
30 1 V
8 0 V
40 3 V
1 0 V
1 0 V
48 7 V
29 6 V
17 3 V
2 1 V
2 0 V
2 0 V
29 -7 V
31 -5 V
57 -8 V
28 -1 V
7 -1 V
59 2 V
25 3 V
3 0 V
2 1 V
2 1 V
17 7 V
31 14 V
22 10 V
33 15 V
113 55 V
17 8 V
1 1 V
7 3 V
6 3 V
47 23 V
8 4 V
8 4 V
8 4 V
10 5 V
6 3 V
stroke 4481 989 M
6 4 V
1 0 V
80 48 V
6 -6 V
6 -27 V
1 -7 V
36 -208 V
14 32 V
30 172 V
6 42 V
6 55 V
2 12 V
79 812 V
6 62 V
7 61 V
1 12 V
44 439 V
42 409 V
6 64 V
6 70 V
1 15 V
53 632 V
14 170 V
13 148 V
6 51 V
6 3 V
1 -4 V
30 -100 V
13 -42 V
6 -44 V
6 -87 V
1 -22 V
18 -319 V
49 -875 V
7 -93 V
6 -61 V
1 -9 V
24 -180 V
3 -22 V
4 -23 V
6 -46 V
19 -143 V
6 -34 V
6 -12 V
2 0 V
16 -2 V
7 -2 V
7 -1 V
68 -10 V
6 -18 V
6 -52 V
1 -14 V
5383 862 L
6 71 V
6 75 V
1 15 V
27 333 V
19 240 V
19 240 V
40 503 V
6 54 V
6 5 V
1 -4 V
67 -206 V
7 -22 V
7 -22 V
18 -55 V
6 -7 V
6 18 V
1 6 V
26 123 V
2 10 V
2 11 V
7 35 V
19 94 V
6 45 V
7 76 V
1 18 V
14 207 V
53 797 V
6 71 V
6 30 V
2 2 V
24 36 V
3 4 V
3 5 V
6 9 V
20 28 V
6 -13 V
6 -55 V
1 -16 V
17 -206 V
7 -89 V
7 -89 V
64 -798 V
19 -238 V
19 -238 V
28 -345 V
6 -66 V
6 -44 V
1 -7 V
27 -145 V
19 -105 V
19 -105 V
15 -83 V
12 -70 V
6 -35 V
7 -37 V
1 -7 V
22 -135 V
8 27 V
9 56 V
53 322 V
6 35 V
6 28 V
1 5 V
237 956 V
25 101 V
7 29 V
8 29 V
10 40 V
6 25 V
3 13 V
3 12 V
19 76 V
14 129 V
13 286 V
8 203 V
18 496 V
7 165 V
3 83 V
3 84 V
18 479 V
14 93 V
15 -507 V
7 -354 V
28 -1507 V
17 -915 V
5 -269 V
4 -233 V
27 1401 V
12 673 V
5 253 V
1406 798 Pnt
1424 793 Pnt
1437 793 Pnt
1462 802 Pnt
1487 816 Pnt
1493 820 Pnt
1499 824 Pnt
1530 844 Pnt
1561 865 Pnt
1591 886 Pnt
1599 892 Pnt
1601 893 Pnt
1603 895 Pnt
1606 896 Pnt
1611 900 Pnt
1617 908 Pnt
1623 923 Pnt
1624 926 Pnt
1637 968 Pnt
1654 1022 Pnt
1679 1101 Pnt
1704 1179 Pnt
1717 1221 Pnt
1725 1247 Pnt
1735 1278 Pnt
1741 1285 Pnt
1747 1269 Pnt
1748 1265 Pnt
1795 1048 Pnt
1802 1024 Pnt
1808 1009 Pnt
1809 1006 Pnt
1818 990 Pnt
1825 977 Pnt
1834 961 Pnt
1842 947 Pnt
1935 780 Pnt
2063 994 Pnt
2069 1009 Pnt
2075 1032 Pnt
2077 1040 Pnt
2085 1077 Pnt
2092 1109 Pnt
2121 1240 Pnt
2123 1247 Pnt
2129 1264 Pnt
2135 1258 Pnt
2145 1230 Pnt
2153 1208 Pnt
2167 1170 Pnt
2191 1100 Pnt
2216 1030 Pnt
2230 993 Pnt
2238 971 Pnt
2246 946 Pnt
2247 943 Pnt
2253 931 Pnt
2260 927 Pnt
2260 927 Pnt
2262 928 Pnt
2265 928 Pnt
2286 932 Pnt
2322 939 Pnt
2364 948 Pnt
2406 956 Pnt
2454 966 Pnt
2456 968 Pnt
2458 970 Pnt
2460 973 Pnt
2512 1047 Pnt
2550 1102 Pnt
2570 1131 Pnt
2577 1141 Pnt
2587 1156 Pnt
2593 1159 Pnt
2599 1151 Pnt
2600 1149 Pnt
2609 1129 Pnt
2617 1111 Pnt
2645 1048 Pnt
2660 1016 Pnt
2675 981 Pnt
2691 946 Pnt
2694 937 Pnt
2701 923 Pnt
2707 909 Pnt
2717 886 Pnt
2720 878 Pnt
2727 866 Pnt
2733 858 Pnt
2743 848 Pnt
2750 841 Pnt
2803 791 Pnt
2833 791 Pnt
2854 809 Pnt
2862 817 Pnt
2867 822 Pnt
2875 830 Pnt
2877 832 Pnt
2880 835 Pnt
2886 841 Pnt
2892 845 Pnt
2898 845 Pnt
2900 845 Pnt
2959 822 Pnt
2967 819 Pnt
2976 816 Pnt
2982 816 Pnt
2988 818 Pnt
2990 818 Pnt
3015 832 Pnt
3034 843 Pnt
3042 848 Pnt
3047 851 Pnt
3055 856 Pnt
3057 857 Pnt
3060 859 Pnt
3066 863 Pnt
3072 864 Pnt
3079 861 Pnt
3080 859 Pnt
3113 828 Pnt
3120 821 Pnt
3130 812 Pnt
3137 808 Pnt
3143 807 Pnt
3146 807 Pnt
3195 817 Pnt
3201 817 Pnt
3207 815 Pnt
3210 814 Pnt
3228 806 Pnt
3242 801 Pnt
3249 799 Pnt
3259 797 Pnt
3265 798 Pnt
3271 801 Pnt
3275 803 Pnt
3294 818 Pnt
3302 825 Pnt
3312 833 Pnt
3315 835 Pnt
3317 837 Pnt
3323 842 Pnt
3329 846 Pnt
3336 845 Pnt
3337 845 Pnt
3396 822 Pnt
3404 819 Pnt
3413 816 Pnt
3419 816 Pnt
3426 818 Pnt
3427 818 Pnt
3440 825 Pnt
3492 856 Pnt
3495 857 Pnt
3497 859 Pnt
3538 884 Pnt
3546 889 Pnt
3561 898 Pnt
3567 900 Pnt
3574 897 Pnt
3575 896 Pnt
3592 882 Pnt
3617 861 Pnt
3634 848 Pnt
3642 841 Pnt
3651 834 Pnt
3657 830 Pnt
3663 829 Pnt
3665 828 Pnt
3681 827 Pnt
3705 825 Pnt
3724 824 Pnt
3754 825 Pnt
3762 825 Pnt
3802 828 Pnt
3803 828 Pnt
3804 828 Pnt
3852 835 Pnt
3881 841 Pnt
3898 844 Pnt
3900 845 Pnt
3902 845 Pnt
3904 845 Pnt
3933 838 Pnt
3964 833 Pnt
4021 825 Pnt
4049 824 Pnt
4056 823 Pnt
4115 825 Pnt
4140 828 Pnt
4143 828 Pnt
4145 829 Pnt
4147 830 Pnt
4164 837 Pnt
4195 851 Pnt
4217 861 Pnt
4250 876 Pnt
4363 931 Pnt
4380 939 Pnt
4381 940 Pnt
4388 943 Pnt
4394 946 Pnt
4441 969 Pnt
4449 973 Pnt
4457 977 Pnt
4465 981 Pnt
4475 986 Pnt
4481 989 Pnt
4487 993 Pnt
4488 993 Pnt
4568 1041 Pnt
4574 1035 Pnt
4580 1008 Pnt
4581 1001 Pnt
4617 793 Pnt
4631 825 Pnt
4661 997 Pnt
4667 1039 Pnt
4673 1094 Pnt
4675 1106 Pnt
4754 1918 Pnt
4760 1980 Pnt
4767 2041 Pnt
4768 2053 Pnt
4812 2492 Pnt
4854 2901 Pnt
4860 2965 Pnt
4866 3035 Pnt
4867 3050 Pnt
4920 3682 Pnt
4934 3852 Pnt
4947 4000 Pnt
4953 4051 Pnt
4959 4054 Pnt
4960 4050 Pnt
4990 3950 Pnt
5003 3908 Pnt
5009 3864 Pnt
5015 3777 Pnt
5016 3755 Pnt
5034 3436 Pnt
5083 2561 Pnt
5090 2468 Pnt
5096 2407 Pnt
5097 2398 Pnt
5121 2218 Pnt
5124 2196 Pnt
5128 2173 Pnt
5134 2127 Pnt
5153 1984 Pnt
5159 1950 Pnt
5165 1938 Pnt
5167 1938 Pnt
5183 1936 Pnt
5190 1934 Pnt
5197 1933 Pnt
5265 1923 Pnt
5271 1905 Pnt
5277 1853 Pnt
5278 1839 Pnt
5383 862 Pnt
5389 933 Pnt
5395 1008 Pnt
5396 1023 Pnt
5423 1356 Pnt
5442 1596 Pnt
5461 1836 Pnt
5501 2339 Pnt
5507 2393 Pnt
5513 2398 Pnt
5514 2394 Pnt
5581 2188 Pnt
5588 2166 Pnt
5595 2144 Pnt
5613 2089 Pnt
5619 2082 Pnt
5625 2100 Pnt
5626 2106 Pnt
5652 2229 Pnt
5654 2239 Pnt
5656 2250 Pnt
5663 2285 Pnt
5682 2379 Pnt
5688 2424 Pnt
5695 2500 Pnt
5696 2518 Pnt
5710 2725 Pnt
5763 3522 Pnt
5769 3593 Pnt
5775 3623 Pnt
5777 3625 Pnt
5801 3661 Pnt
5804 3665 Pnt
5807 3670 Pnt
5813 3679 Pnt
5833 3707 Pnt
5839 3694 Pnt
5845 3639 Pnt
5846 3623 Pnt
5863 3417 Pnt
5870 3328 Pnt
5877 3239 Pnt
5941 2441 Pnt
5960 2203 Pnt
5979 1965 Pnt
6007 1620 Pnt
6013 1554 Pnt
6019 1510 Pnt
6020 1503 Pnt
6047 1358 Pnt
6066 1253 Pnt
6085 1148 Pnt
6100 1065 Pnt
6112 995 Pnt
6118 960 Pnt
6125 923 Pnt
6126 916 Pnt
6148 781 Pnt
6156 808 Pnt
6165 864 Pnt
6218 1186 Pnt
6224 1221 Pnt
6230 1249 Pnt
6231 1254 Pnt
6468 2210 Pnt
6493 2311 Pnt
6500 2340 Pnt
6508 2369 Pnt
6518 2409 Pnt
6524 2434 Pnt
6527 2447 Pnt
6530 2459 Pnt
6549 2535 Pnt
6563 2664 Pnt
6576 2950 Pnt
6584 3153 Pnt
6602 3649 Pnt
6609 3814 Pnt
6612 3897 Pnt
6615 3981 Pnt
6633 4460 Pnt
6647 4553 Pnt
6662 4046 Pnt
6669 3692 Pnt
6697 2185 Pnt
6714 1270 Pnt
6719 1001 Pnt
6723 768 Pnt
6750 2169 Pnt
6762 2842 Pnt
% End plot #6
1.000 UL
LTb
LCb setrgbcolor
1176 4751 N
0 -3983 V
5591 0 V
0 3983 V
-5591 0 V
Z stroke
1.000 UP
1.000 UL
LTb
LCb setrgbcolor
stroke
grestore
end
showpage
%%Trailer
%%DocumentFonts: Italic Symbol Helvetica
