-20 4 
-19 4 
-18 5 
-17 5 
-16 5 
-15 6 
-14 6 
-13 7 
-12 8 
-11 9 
-10 9 
-9 11 
-8 12 
-7 14 
-6 16 
-5 18 
-4 18 
-3 18 
-2 18 
-1 18 
0 18 
1 18 
2 19 
3 19 
4 19 
5 16 
6 14 
7 12 
8 11 
9 10 
10 9 
11 9 
12 8 
13 8 
14 7 
15 7 
16 7 
17 6 
18 6 
19 6 
20 5 
